BLOCK MODSEL
	1 0 
Block SMINPUTS   # Standard Model inputs	
        6     1.72500000E+02   # m_{top}(pole)
#         PDG         Width
DECAY         6  1.14680767E+00   # TP    decays
#          BR          NDA       ID1    ID2     ID3	ID4
	8.3333E-02	3	11	-11	4       	# TP     -->  e- e+ c  
	8.3333E-02	3	13	-13	4       	# TP     -->  mu- mu+ c  
	8.3333E-02	3	15	-15	4       	# TP     -->  t- t+ c  
	8.3333E-02	3	11	-11	2       	# TP     -->  e- e+ u	        
	8.3333E-02	3	13	-13	2       	# TP     -->  mu- mu+ u
	8.3333E-02	3	15	-15	2       	# TP     -->  t- t+ u
	50.0002E-02	2	24	5                       # TP     -->  W b
