#
#                              ======================
#                              | THE SUSYHIT OUTPUT |
#                              ======================
#
#
#              ------------------------------------------------------
#              |     This is the output of the SUSY-HIT package     |
#              |  created by A.Djouadi, M.Muehlleitner and M.Spira. |
#              |  In case of problems with SUSY-HIT email to        |
#              |           margarete.muehlleitner@cern.ch           |
#              |           michael.spira@psi.ch                     |
#              |           abdelhak.djouadi@cern.ch                 |
#              ------------------------------------------------------
#
#              ------------------------------------------------------
#              |  SUSY Les Houches Accord - MSSM Spectrum + Decays  |
#              |              based on the decay programs           |
#              |                                                    |
#              |                     SDECAY 1.3b                    |
#              |                                                    |
#              |  Authors: M.Muhlleitner, A.Djouadi and Y.Mambrini  |
#              |  Ref.:    Comput.Phys.Commun.168(2005)46           |
#              |           [hep-ph/0311167]                         |
#              |                                                    |
#              |                     HDECAY 3.4                     |
#              |                                                    |
#              |  By: A.Djouadi,J.Kalinowski,M.Muhlleitner,M.Spira  |
#              |  Ref.:    Comput.Phys.Commun.108(1998)56           |
#              |           [hep-ph/9704448]                         |
#              |                                                    |
#              |                                                    |
#              |  If not stated otherwise all DRbar couplings and   |
#              |  soft SUSY breaking masses are given at the scale  |
#              |  Q=  0.50007458E+04
#              |                                                    |
#              ------------------------------------------------------
#
#
BLOCK DCINFO  # Decay Program information
     1   SDECAY/HDECAY # decay calculator
     2   1.3b  /3.4    # version number
#
BLOCK SPINFO  # Spectrum calculator information
     1    SOFTSUSY    # spectrum calculator                
     2    3.4.0       # version number                     
#
BLOCK MODSEL  # Model selection
     1     0   #  nonUniversal                                     
#
BLOCK SMINPUTS  # Standard Model inputs
         1     1.25778332E+02   # alpha_em^-1(M_Z)^MSbar
         2     1.16570000E-05   # G_F [GeV^-2]
         3     1.17200002E-01   # alpha_S(M_Z)^MSbar
         4     9.11876000E+01   # M_Z pole mass
         5     4.25000000E+00   # mb(mb)^MSbar
         6     1.72500000E+02   # mt pole mass
         7     1.77682000E+00   # mtau pole mass
#
BLOCK MINPAR  # Input parameters - minimal models
         3     1.00000000E+01   # tanb                
#
BLOCK EXTPAR  # Input parameters - non-minimal models
         0    -1.00000000E+00   # Set                 
         1     6.00000000E+01   # M_1(MX)             
         2     3.00000000E+03   # M_2(MX)             
         3     1.94902900E+03   # M_3(MX)             
        11     5.00000000E+03   # At(MX)              
        12     5.00000000E+03   # Ab(MX)              
        13     0.00000000E+00   # Atau(MX)            
        23    -8.61812000E+02   # mu(MX)              
        26     3.00000000E+03   # mA(pole)            
        31     5.00000000E+03   # meL(MX)             
        32     5.00000000E+03   # mmuL(MX)            
        33     5.00000000E+03   # mtauL(MX)           
        34     5.00000000E+03   # meR(MX)             
        35     5.00000000E+03   # mmuR(MX)            
        36     5.00000000E+03   # mtauR(MX)           
        41     5.00000000E+03   # mqL1(MX)            
        42     5.00000000E+03   # mqL2(MX)            
        43     5.00000000E+03   # mqL3(MX)            
        44     5.00000000E+03   # muR(MX)             
        45     5.00000000E+03   # mcR(MX)             
        46     5.00000000E+03   # mtR(MX)             
        47     5.00000000E+03   # mdR(MX)             
        48     5.00000000E+03   # msR(MX)             
        49     5.00000000E+03   # mbR(MX)             
#
BLOCK MASS  # Mass Spectrum
# PDG code           mass       particle
        24     8.00950623E+01   # W+
        25     1.24804240E+02   # h
        35     3.00007888E+03   # H
        36     2.99998839E+03   # A
        37     3.00139516E+03   # H+
         5     4.87878001E+00   # b-quark pole mass calculated from mb(mb)_Msbar
   1000001     5.07636904E+03   # ~d_L
   2000001     5.05857811E+03   # ~d_R
   1000002     5.07589666E+03   # ~u_L
   2000002     5.05829031E+03   # ~u_R
   1000003     5.07636904E+03   # ~s_L
   2000003     5.05857811E+03   # ~s_R
   1000004     5.07589666E+03   # ~c_L
   2000004     5.05829031E+03   # ~c_R
   1000005     5.02205906E+03   # ~b_1
   2000005     5.05701948E+03   # ~b_2
   1000006     4.91349690E+03   # ~t_1
   2000006     5.06632415E+03   # ~t_2
   1000011     5.01907528E+03   # ~e_L
   2000011     5.00592760E+03   # ~e_R
   1000012     5.01812653E+03   # ~nu_eL
   1000013     5.01907528E+03   # ~mu_L
   2000013     5.00592760E+03   # ~mu_R
   1000014     5.01812653E+03   # ~nu_muL
   1000015     5.00465128E+03   # ~tau_1
   2000015     5.01872870E+03   # ~tau_2
   1000016     5.01757926E+03   # ~nu_tauL
   1000021     2.30000078E+03   # ~g
   1000022     6.02945764E+01   # ~chi_10
   1000023     8.99734491E+02   # ~chi_20
   1000025    -9.01973300E+02   # ~chi_30
   1000035     3.07422968E+03   # ~chi_40
   1000024     9.00000661E+02   # ~chi_1+
   1000037     3.07439715E+03   # ~chi_2+
#
BLOCK NMIX  # Neutralino Mixing Matrix
  1  1     9.98775638E-01   # N_11
  1  2     1.96002321E-04   # N_12
  1  3    -4.94347974E-02   # N_13
  1  4     1.84058683E-03   # N_14
  2  1     3.36658929E-02   # N_21
  2  2     2.24243497E-02   # N_22
  2  3     7.06575326E-01   # N_23
  2  4     7.06480761E-01   # N_24
  3  1    -3.62446642E-02   # N_31
  3  2     1.52899902E-02   # N_32
  3  3    -7.05890977E-01   # N_33
  3  4     7.07227310E-01   # N_34
  4  1    -3.96663672E-04   # N_41
  4  2     9.99631595E-01   # N_42
  4  3    -5.04359484E-03   # N_43
  4  4    -2.66660550E-02   # N_44
#
BLOCK UMIX  # Chargino Mixing Matrix U
  1  1     7.14509996E-03   # U_11
  1  2     9.99974473E-01   # U_12
  2  1    -9.99974473E-01   # U_21
  2  2     7.14509996E-03   # U_22
#
BLOCK VMIX  # Chargino Mixing Matrix V
  1  1     3.77408368E-02   # V_11
  1  2    -9.99287561E-01   # V_12
  2  1    -9.99287561E-01   # V_21
  2  2    -3.77408368E-02   # V_22
#
BLOCK STOPMIX  # Stop Mixing Matrix
  1  1    -5.05028197E-01   # cos(theta_t)
  1  2     8.63102845E-01   # sin(theta_t)
  2  1    -8.63102845E-01   # -sin(theta_t)
  2  2    -5.05028197E-01   # cos(theta_t)
#
BLOCK SBOTMIX  # Sbottom Mixing Matrix
  1  1     9.97501151E-01   # cos(theta_b)
  1  2    -7.06502212E-02   # sin(theta_b)
  2  1     7.06502212E-02   # -sin(theta_b)
  2  2     9.97501151E-01   # cos(theta_b)
#
BLOCK STAUMIX  # Stau Mixing Matrix
  1  1    -1.02685119E-01   # cos(theta_tau)
  1  2     9.94713912E-01   # sin(theta_tau)
  2  1    -9.94713912E-01   # -sin(theta_tau)
  2  2    -1.02685119E-01   # cos(theta_tau)
#
BLOCK ALPHA  # Higgs mixing
          -1.05481715E-01   # Mixing angle in the neutral Higgs boson sector
#
BLOCK HMIX Q=  5.00074577E+03  # DRbar Higgs Parameters
         1    -8.77640493E+02   # mu(Q)MSSM           
         2     9.46924235E+00   # tan                 
         3     2.41831636E+02   # higgs               
         4     8.54656847E+06   # mA^2(Q)MSSM         
#
BLOCK GAUGE Q=  5.00074577E+03  # The gauge couplings
     1     3.70815963E-01   # gprime(Q) DRbar
     2     6.32654129E-01   # g(Q) DRbar
     3     9.96447534E-01   # g3(Q) DRbar
#
BLOCK AU Q=  5.00074577E+03  # The trilinear couplings
  1  1     5.00000001E+03   # A_u(Q) DRbar
  2  2     5.00000001E+03   # A_c(Q) DRbar
  3  3     5.00000002E+03   # A_t(Q) DRbar
#
BLOCK AD Q=  5.00074577E+03  # The trilinear couplings
  1  1     5.00000001E+03   # A_d(Q) DRbar
  2  2     5.00000001E+03   # A_s(Q) DRbar
  3  3     5.00000001E+03   # A_b(Q) DRbar
#
BLOCK AE Q=  5.00074577E+03  # The trilinear couplings
  1  1     0.00000000E+00   # A_e(Q) DRbar
  2  2     2.19428281E-07   # A_mu(Q) DRbar
  3  3     2.19243010E-07   # A_tau(Q) DRbar
#
BLOCK Yu Q=  5.00074577E+03  # The Yukawa couplings
  1  1     0.00000000E+00   # y_u(Q) DRbar
  2  2     0.00000000E+00   # y_c(Q) DRbar
  3  3     8.20734698E-01   # y_t(Q) DRbar
#
BLOCK Yd Q=  5.00074577E+03  # The Yukawa couplings
  1  1     0.00000000E+00   # y_d(Q) DRbar
  2  2     0.00000000E+00   # y_s(Q) DRbar
  3  3     1.30728754E-01   # y_b(Q) DRbar
#
BLOCK Ye Q=  5.00074577E+03  # The Yukawa couplings
  1  1     0.00000000E+00   # y_e(Q) DRbar
  2  2     0.00000000E+00   # y_mu(Q) DRbar
  3  3     9.69028690E-02   # y_tau(Q) DRbar
#
BLOCK MSOFT Q=  5.00074577E+03  # The soft SUSY breaking masses at the scale Q
         1     6.00000000E+01   # M_1(Q)              
         2     3.00000000E+03   # M_2(Q)              
         3     1.94902900E+03   # M_3(Q)              
        21     7.93267216E+06   # mH1^2(Q)            
        22    -2.02110784E+05   # mH2^2(Q)            
        31     5.00000000E+03   # meL(Q)              
        32     5.00000000E+03   # mmuL(Q)             
        33     5.00000000E+03   # mtauL(Q)            
        34     5.00000000E+03   # meR(Q)              
        35     5.00000000E+03   # mmuR(Q)             
        36     5.00000000E+03   # mtauR(Q)            
        41     5.00000000E+03   # mqL1(Q)             
        42     5.00000000E+03   # mqL2(Q)             
        43     4.99999999E+03   # mqL3(Q)             
        44     5.00000000E+03   # muR(Q)              
        45     5.00000000E+03   # mcR(Q)              
        46     4.99999999E+03   # mtR(Q)              
        47     5.00000000E+03   # mdR(Q)              
        48     5.00000000E+03   # msR(Q)              
        49     5.00000000E+03   # mbR(Q)              
#
#
#
#                             =================
#                             |The decay table|
#                             =================
#
# - The QCD corrections to the decays gluino -> squark  + quark
#                                     squark -> gaugino + quark_prime
#                                     squark -> squark_prime + Higgs
#                                     squark -> gluino  + quark
#   are included.
#
# - The multi-body decays for the inos, stops and sbottoms are included.
#
# - The loop induced decays for the gluino, neutralinos and stops
#   are included.
#
# - The SUSY decays of the top quark are included.
#
#
#         PDG            Width
DECAY         6     1.40261345E+00   # top decays
#          BR         NDA      ID1       ID2
     1.00000000E+00    2           5        24   # BR(t ->  b    W+)
#
#         PDG            Width
DECAY   1000021     2.35824767E-03   # gluino decays
#          BR         NDA      ID1       ID2
     1.90295093E-06    2     1000022        21   # BR(~g -> ~chi_10 g)
     6.67664133E-03    2     1000023        21   # BR(~g -> ~chi_20 g)
     6.55852786E-03    2     1000025        21   # BR(~g -> ~chi_30 g)
#           BR         NDA      ID1       ID2       ID3
     2.05758918E-02    3     1000022         1        -1   # BR(~g -> ~chi_10 d  db)
     2.14863997E-05    3     1000023         1        -1   # BR(~g -> ~chi_20 d  db)
     1.49792825E-05    3     1000025         1        -1   # BR(~g -> ~chi_30 d  db)
     7.01633436E-02    3     1000022         2        -2   # BR(~g -> ~chi_10 u  ub)
     7.77494979E-05    3     1000023         2        -2   # BR(~g -> ~chi_20 u  ub)
     1.87775106E-05    3     1000025         2        -2   # BR(~g -> ~chi_30 u  ub)
     2.05758918E-02    3     1000022         3        -3   # BR(~g -> ~chi_10 s  sb)
     2.14863997E-05    3     1000023         3        -3   # BR(~g -> ~chi_20 s  sb)
     1.49792825E-05    3     1000025         3        -3   # BR(~g -> ~chi_30 s  sb)
     7.01633436E-02    3     1000022         4        -4   # BR(~g -> ~chi_10 c  cb)
     7.77494979E-05    3     1000023         4        -4   # BR(~g -> ~chi_20 c  cb)
     1.87775106E-05    3     1000025         4        -4   # BR(~g -> ~chi_30 c  cb)
     2.08892242E-02    3     1000022         5        -5   # BR(~g -> ~chi_10 b  bb)
     4.75894931E-03    3     1000023         5        -5   # BR(~g -> ~chi_20 b  bb)
     4.70880445E-03    3     1000025         5        -5   # BR(~g -> ~chi_30 b  bb)
     7.03869884E-02    3     1000022         6        -6   # BR(~g -> ~chi_10 t  tb)
     1.76152956E-01    3     1000023         6        -6   # BR(~g -> ~chi_20 t  tb)
     1.59275750E-01    3     1000025         6        -6   # BR(~g -> ~chi_30 t  tb)
     6.07001411E-05    3     1000024         1        -2   # BR(~g -> ~chi_1+ d  ub)
     6.07001411E-05    3    -1000024         2        -1   # BR(~g -> ~chi_1- u  db)
     6.07001411E-05    3     1000024         3        -4   # BR(~g -> ~chi_1+ s  cb)
     6.07001411E-05    3    -1000024         4        -3   # BR(~g -> ~chi_1- c  sb)
     1.84301499E-01    3     1000024         5        -6   # BR(~g -> ~chi_1+ b  tb)
     1.84301499E-01    3    -1000024         6        -5   # BR(~g -> ~chi_1- t  bb)
#
#         PDG            Width
DECAY   1000006     3.15518699E+02   # stop1 decays
#          BR         NDA      ID1       ID2
     2.81268442E-02    2     1000022         6   # BR(~t_1 -> ~chi_10 t )
     9.81670206E-02    2     1000023         6   # BR(~t_1 -> ~chi_20 t )
     9.42366139E-02    2     1000025         6   # BR(~t_1 -> ~chi_30 t )
     6.49256755E-03    2     1000035         6   # BR(~t_1 -> ~chi_40 t )
     1.43601924E-01    2     1000024         5   # BR(~t_1 -> ~chi_1+ b )
     1.29371954E-02    2     1000037         5   # BR(~t_1 -> ~chi_2+ b )
     6.16437835E-01    2     1000021         6   # BR(~t_1 -> ~g      t )
#
#         PDG            Width
DECAY   2000006     3.23449672E+02   # stop2 decays
#          BR         NDA      ID1       ID2
     1.06440223E-02    2     1000022         6   # BR(~t_2 -> ~chi_10 t )
     9.78216156E-02    2     1000023         6   # BR(~t_2 -> ~chi_20 t )
     1.02054138E-01    2     1000025         6   # BR(~t_2 -> ~chi_30 t )
     1.73307491E-02    2     1000035         6   # BR(~t_2 -> ~chi_40 t )
     5.73344511E-02    2     1000024         5   # BR(~t_2 -> ~chi_1+ b )
     3.44884364E-02    2     1000037         5   # BR(~t_2 -> ~chi_2+ b )
     6.76528892E-01    2     1000021         6   # BR(~t_2 -> ~g      t )
     8.69850689E-04    2     1000006        25   # BR(~t_2 -> ~t_1    h )
     2.92784532E-03    2     1000006        23   # BR(~t_2 -> ~t_1    Z )
#
#         PDG            Width
DECAY   1000005     2.98255267E+02   # sbottom1 decays
#          BR         NDA      ID1       ID2
     2.58549806E-03    2     1000022         5   # BR(~b_1 -> ~chi_10 b )
     2.70542740E-03    2     1000023         5   # BR(~b_1 -> ~chi_20 b )
     2.64638619E-03    2     1000025         5   # BR(~b_1 -> ~chi_30 b )
     2.53844230E-02    2     1000035         5   # BR(~b_1 -> ~chi_40 b )
     2.10504215E-01    2    -1000024         6   # BR(~b_1 -> ~chi_1- t )
     5.09932504E-02    2    -1000037         6   # BR(~b_1 -> ~chi_2- t )
     7.03340715E-01    2     1000021         5   # BR(~b_1 -> ~g      b )
     1.84008515E-03    2     1000006       -24   # BR(~b_1 -> ~t_1    W-)
#
#         PDG            Width
DECAY   2000005     2.19159000E+02   # sbottom2 decays
#          BR         NDA      ID1       ID2
     1.33912030E-02    2     1000022         5   # BR(~b_2 -> ~chi_10 b )
     3.69228878E-03    2     1000023         5   # BR(~b_2 -> ~chi_20 b )
     3.77964048E-03    2     1000025         5   # BR(~b_2 -> ~chi_30 b )
     1.71047551E-04    2     1000035         5   # BR(~b_2 -> ~chi_40 b )
     8.70732579E-03    2    -1000024         6   # BR(~b_2 -> ~chi_1- t )
     3.43580783E-04    2    -1000037         6   # BR(~b_2 -> ~chi_2- t )
     9.69861596E-01    2     1000021         5   # BR(~b_2 -> ~g      b )
     5.33176940E-05    2     1000006       -24   # BR(~b_2 -> ~t_1    W-)
#
#         PDG            Width
DECAY   1000002     2.38518804E+02   # sup_L decays
#          BR         NDA      ID1       ID2
     3.12426831E-03    2     1000022         2   # BR(~u_L -> ~chi_10 u)
     6.47514337E-05    2     1000023         2   # BR(~u_L -> ~chi_20 u)
     5.18565433E-06    2     1000025         2   # BR(~u_L -> ~chi_30 u)
     3.30420955E-02    2     1000035         2   # BR(~u_L -> ~chi_40 u)
     2.19297918E-04    2     1000024         1   # BR(~u_L -> ~chi_1+ d)
     6.60406805E-02    2     1000037         1   # BR(~u_L -> ~chi_2+ d)
     8.97503721E-01    2     1000021         2   # BR(~u_L -> ~g      u)
#
#         PDG            Width
DECAY   2000002     2.24445572E+02   # sup_R decays
#          BR         NDA      ID1       ID2
     5.28292399E-02    2     1000022         2   # BR(~u_R -> ~chi_10 u)
     5.64064986E-05    2     1000023         2   # BR(~u_R -> ~chi_20 u)
     6.53577673E-05    2     1000025         2   # BR(~u_R -> ~chi_30 u)
     3.33865063E-09    2     1000035         2   # BR(~u_R -> ~chi_40 u)
     9.47048993E-01    2     1000021         2   # BR(~u_R -> ~g      u)
#
#         PDG            Width
DECAY   1000001     2.38534462E+02   # sdown_L decays
#          BR         NDA      ID1       ID2
     3.11183097E-03    2     1000022         1   # BR(~d_L -> ~chi_10 d)
     1.93330930E-05    2     1000023         1   # BR(~d_L -> ~chi_20 d)
     3.85176708E-05    2     1000025         1   # BR(~d_L -> ~chi_30 d)
     3.30603308E-02    2     1000035         1   # BR(~d_L -> ~chi_40 d)
     7.86041864E-06    2    -1000024         2   # BR(~d_L -> ~chi_1- u)
     6.61474878E-02    2    -1000037         2   # BR(~d_L -> ~chi_2- u)
     8.97614639E-01    2     1000021         1   # BR(~d_L -> ~g      d)
#
#         PDG            Width
DECAY   2000001     2.15556982E+02   # sdown_R decays
#          BR         NDA      ID1       ID2
     1.37527146E-02    2     1000022         1   # BR(~d_R -> ~chi_10 d)
     1.46840655E-05    2     1000023         1   # BR(~d_R -> ~chi_20 d)
     1.70143121E-05    2     1000025         1   # BR(~d_R -> ~chi_30 d)
     8.69244886E-10    2     1000035         1   # BR(~d_R -> ~chi_40 d)
     9.86215586E-01    2     1000021         1   # BR(~d_R -> ~g      d)
#
#         PDG            Width
DECAY   1000004     2.38518804E+02   # scharm_L decays
#          BR         NDA      ID1       ID2
     3.12426831E-03    2     1000022         4   # BR(~c_L -> ~chi_10 c)
     6.47514337E-05    2     1000023         4   # BR(~c_L -> ~chi_20 c)
     5.18565433E-06    2     1000025         4   # BR(~c_L -> ~chi_30 c)
     3.30420955E-02    2     1000035         4   # BR(~c_L -> ~chi_40 c)
     2.19297918E-04    2     1000024         3   # BR(~c_L -> ~chi_1+ s)
     6.60406805E-02    2     1000037         3   # BR(~c_L -> ~chi_2+ s)
     8.97503721E-01    2     1000021         4   # BR(~c_L -> ~g      c)
#
#         PDG            Width
DECAY   2000004     2.24445572E+02   # scharm_R decays
#          BR         NDA      ID1       ID2
     5.28292399E-02    2     1000022         4   # BR(~c_R -> ~chi_10 c)
     5.64064986E-05    2     1000023         4   # BR(~c_R -> ~chi_20 c)
     6.53577673E-05    2     1000025         4   # BR(~c_R -> ~chi_30 c)
     3.33865063E-09    2     1000035         4   # BR(~c_R -> ~chi_40 c)
     9.47048993E-01    2     1000021         4   # BR(~c_R -> ~g      c)
#
#         PDG            Width
DECAY   1000003     2.38534462E+02   # sstrange_L decays
#          BR         NDA      ID1       ID2
     3.11183097E-03    2     1000022         3   # BR(~s_L -> ~chi_10 s)
     1.93330930E-05    2     1000023         3   # BR(~s_L -> ~chi_20 s)
     3.85176708E-05    2     1000025         3   # BR(~s_L -> ~chi_30 s)
     3.30603308E-02    2     1000035         3   # BR(~s_L -> ~chi_40 s)
     7.86041864E-06    2    -1000024         4   # BR(~s_L -> ~chi_1- c)
     6.61474878E-02    2    -1000037         4   # BR(~s_L -> ~chi_2- c)
     8.97614639E-01    2     1000021         3   # BR(~s_L -> ~g      s)
#
#         PDG            Width
DECAY   2000003     2.15556982E+02   # sstrange_R decays
#          BR         NDA      ID1       ID2
     1.37527146E-02    2     1000022         3   # BR(~s_R -> ~chi_10 s)
     1.46840655E-05    2     1000023         3   # BR(~s_R -> ~chi_20 s)
     1.70143121E-05    2     1000025         3   # BR(~s_R -> ~chi_30 s)
     8.69244886E-10    2     1000035         3   # BR(~s_R -> ~chi_40 s)
     9.86215586E-01    2     1000021         3   # BR(~s_R -> ~g      s)
#
#         PDG            Width
DECAY   1000011     3.02792477E+01   # selectron_L decays
#          BR         NDA      ID1       ID2
     2.26254335E-01    2     1000022        11   # BR(~e_L -> ~chi_10 e-)
     1.09869522E-03    2     1000023        11   # BR(~e_L -> ~chi_20 e-)
     2.19086309E-05    2     1000025        11   # BR(~e_L -> ~chi_30 e-)
     2.57345517E-01    2     1000035        11   # BR(~e_L -> ~chi_40 e-)
     6.31204940E-05    2    -1000024        12   # BR(~e_L -> ~chi_1- nu_e)
     5.15216424E-01    2    -1000037        12   # BR(~e_L -> ~chi_2- nu_e)
#
#         PDG            Width
DECAY   2000011     2.73758769E+01   # selectron_R decays
#          BR         NDA      ID1       ID2
     9.97707807E-01    2     1000022        11   # BR(~e_R -> ~chi_10 e-)
     1.06182135E-03    2     1000023        11   # BR(~e_R -> ~chi_20 e-)
     1.23031083E-03    2     1000025        11   # BR(~e_R -> ~chi_30 e-)
     6.10686275E-08    2     1000035        11   # BR(~e_R -> ~chi_40 e-)
#
#         PDG            Width
DECAY   1000013     3.02792477E+01   # smuon_L decays
#          BR         NDA      ID1       ID2
     2.26254335E-01    2     1000022        13   # BR(~mu_L -> ~chi_10 mu-)
     1.09869522E-03    2     1000023        13   # BR(~mu_L -> ~chi_20 mu-)
     2.19086309E-05    2     1000025        13   # BR(~mu_L -> ~chi_30 mu-)
     2.57345517E-01    2     1000035        13   # BR(~mu_L -> ~chi_40 mu-)
     6.31204940E-05    2    -1000024        14   # BR(~mu_L -> ~chi_1- nu_mu)
     5.15216424E-01    2    -1000037        14   # BR(~mu_L -> ~chi_2- nu_mu)
#
#         PDG            Width
DECAY   2000013     2.73758769E+01   # smuon_R decays
#          BR         NDA      ID1       ID2
     9.97707807E-01    2     1000022        13   # BR(~mu_R -> ~chi_10 mu-)
     1.06182135E-03    2     1000023        13   # BR(~mu_R -> ~chi_20 mu-)
     1.23031083E-03    2     1000025        13   # BR(~mu_R -> ~chi_30 mu-)
     6.10686275E-08    2     1000035        13   # BR(~mu_R -> ~chi_40 mu-)
#
#         PDG            Width
DECAY   1000015     2.91475145E+01   # stau_1 decays
#          BR         NDA      ID1       ID2
     9.30371703E-01    2     1000022        15   # BR(~tau_1 -> ~chi_10  tau-)
     1.60470388E-02    2     1000023        15   # BR(~tau_1 -> ~chi_20  tau-)
     1.53749729E-02    2     1000025        15   # BR(~tau_1 -> ~chi_30  tau-)
     2.73255879E-03    2     1000035        15   # BR(~tau_1 -> ~chi_40  tau-)
     3.00032601E-02    2    -1000024        16   # BR(~tau_1 -> ~chi_1-  nu_tau)
     5.47046589E-03    2    -1000037        16   # BR(~tau_1 -> ~chi_2-  nu_tau)
#
#         PDG            Width
DECAY   2000015     3.11220639E+01   # stau_2 decays
#          BR         NDA      ID1       ID2
     2.26321020E-01    2     1000022        15   # BR(~tau_2 -> ~chi_10  tau-)
     1.51061927E-02    2     1000023        15   # BR(~tau_2 -> ~chi_20  tau-)
     1.47756578E-02    2     1000025        15   # BR(~tau_2 -> ~chi_30  tau-)
     2.47733802E-01    2     1000035        15   # BR(~tau_2 -> ~chi_40  tau-)
     8.93827529E-05    2    -1000024        16   # BR(~tau_2 -> ~chi_1-  nu_tau)
     4.95973945E-01    2    -1000037        16   # BR(~tau_2 -> ~chi_2-  nu_tau)
#
#         PDG            Width
DECAY   1000012     3.02821556E+01   # snu_eL decays
#          BR         NDA      ID1       ID2
     2.25887097E-01    2     1000022        12   # BR(~nu_eL -> ~chi_10 nu_e)
     4.47822866E-06    2     1000023        12   # BR(~nu_eL -> ~chi_20 nu_e)
     8.24624847E-04    2     1000025        12   # BR(~nu_eL -> ~chi_30 nu_e)
     2.57394694E-01    2     1000035        12   # BR(~nu_eL -> ~chi_40 nu_e)
     1.76052461E-03    2     1000024        11   # BR(~nu_eL -> ~chi_1+ e-)
     5.14128581E-01    2     1000037        11   # BR(~nu_eL -> ~chi_2+ e-)
#
#         PDG            Width
DECAY   1000014     3.02821556E+01   # snu_muL decays
#          BR         NDA      ID1       ID2
     2.25887097E-01    2     1000022        14   # BR(~nu_muL -> ~chi_10 nu_mu)
     4.47822866E-06    2     1000023        14   # BR(~nu_muL -> ~chi_20 nu_mu)
     8.24624847E-04    2     1000025        14   # BR(~nu_muL -> ~chi_30 nu_mu)
     2.57394694E-01    2     1000035        14   # BR(~nu_muL -> ~chi_40 nu_mu)
     1.76052461E-03    2     1000024        13   # BR(~nu_muL -> ~chi_1+ mu-)
     5.14128581E-01    2     1000037        13   # BR(~nu_muL -> ~chi_2+ mu-)
#
#         PDG            Width
DECAY   1000016     3.11507208E+01   # snu_tauL decays
#          BR         NDA      ID1       ID2
     2.19564801E-01    2     1000022        16   # BR(~nu_tauL -> ~chi_10 nu_tau)
     4.35282585E-06    2     1000023        16   # BR(~nu_tauL -> ~chi_20 nu_tau)
     8.01533007E-04    2     1000025        16   # BR(~nu_tauL -> ~chi_30 nu_tau)
     2.50124977E-01    2     1000035        16   # BR(~nu_tauL -> ~chi_40 nu_tau)
     2.98970303E-02    2     1000024        15   # BR(~nu_tauL -> ~chi_1+ tau-)
     4.99607306E-01    2     1000037        15   # BR(~nu_tauL -> ~chi_2+ tau-)
#
#         PDG            Width
DECAY   1000024     5.46129957E-01   # chargino1+ decays
#          BR         NDA      ID1       ID2
     1.00000000E+00    2     1000022        24   # BR(~chi_1+ -> ~chi_10  W+)
#
#         PDG            Width
DECAY   1000037     2.07648611E+01   # chargino2+ decays
#          BR         NDA      ID1       ID2
     2.53278489E-01    2     1000024        23   # BR(~chi_2+ -> ~chi_1+  Z )
     1.91045048E-04    2     1000022        24   # BR(~chi_2+ -> ~chi_10  W+)
     2.44264957E-01    2     1000023        24   # BR(~chi_2+ -> ~chi_20  W+)
     2.44162604E-01    2     1000025        24   # BR(~chi_2+ -> ~chi_30  W+)
     2.58101431E-01    2     1000024        25   # BR(~chi_2+ -> ~chi_1+  h )
     1.47472680E-06    2     1000022        37   # BR(~chi_2+ -> ~chi_10  H+)
#
#         PDG            Width
DECAY   1000022     0.00000000E+00   # neutralino1 decays
#
#         PDG            Width
DECAY   1000023     5.68944920E-01   # neutralino2 decays
#          BR         NDA      ID1       ID2
     5.35268634E-01    2     1000022        23   # BR(~chi_20 -> ~chi_10   Z )
     4.64731366E-01    2     1000022        25   # BR(~chi_20 -> ~chi_10   h )
#
#         PDG            Width
DECAY   1000025     5.70443229E-01   # neutralino3 decays
#          BR         NDA      ID1       ID2
     4.58688092E-01    2     1000022        23   # BR(~chi_30 -> ~chi_10   Z )
     5.41311908E-01    2     1000022        25   # BR(~chi_30 -> ~chi_10   h )
#
#         PDG            Width
DECAY   1000035     2.07805741E+01   # neutralino4 decays
#          BR         NDA      ID1       ID2
     4.00041687E-05    2     1000022        23   # BR(~chi_40 -> ~chi_10   Z )
     8.03614192E-02    2     1000023        23   # BR(~chi_40 -> ~chi_20   Z )
     1.72222253E-01    2     1000025        23   # BR(~chi_40 -> ~chi_30   Z )
     2.44861600E-01    2     1000024       -24   # BR(~chi_40 -> ~chi_1+   W-)
     2.44861600E-01    2    -1000024        24   # BR(~chi_40 -> ~chi_1-   W+)
     1.50913693E-04    2     1000022        25   # BR(~chi_40 -> ~chi_10   h )
     1.40423997E-06    2     1000022        35   # BR(~chi_40 -> ~chi_10   H )
     1.67998985E-07    2     1000022        36   # BR(~chi_40 -> ~chi_10   A )
     1.76902967E-01    2     1000023        25   # BR(~chi_40 -> ~chi_20   h )
     8.05976709E-02    2     1000025        25   # BR(~chi_40 -> ~chi_30   h )
#
#         PDG            Width
DECAY        25     4.06167909E-03   # h decays
#          BR         NDA      ID1       ID2
     6.07668330E-01    2           5        -5   # BR(h -> b       bb     )
     6.38755002E-02    2         -15        15   # BR(h -> tau+    tau-   )
     2.26142360E-04    2         -13        13   # BR(h -> mu+     mu-    )
     4.79385217E-04    2           3        -3   # BR(h -> s       sb     )
     2.07722018E-02    2           4        -4   # BR(h -> c       cb     )
     6.72287961E-02    2          21        21   # BR(h -> g       g      )
     2.31204618E-03    2          22        22   # BR(h -> gam     gam    )
     1.49346471E-03    2          22        23   # BR(h -> Z       gam    )
     2.10752729E-01    2          24       -24   # BR(h -> W+      W-     )
     2.51267431E-02    2          23        23   # BR(h -> Z       Z      )
     6.46616276E-05    2     1000022   1000022   # BR(h -> ~chi_10 ~chi_10)
#
#         PDG            Width
DECAY        35     8.24211972E+00   # H decays
#          BR         NDA      ID1       ID2
     3.90935436E-01    2           5        -5   # BR(H -> b       bb     )
     6.75845801E-02    2         -15        15   # BR(H -> tau+    tau-   )
     2.38984443E-04    2         -13        13   # BR(H -> mu+     mu-    )
     2.92958325E-04    2           3        -3   # BR(H -> s       sb     )
     1.63916766E-06    2           4        -4   # BR(H -> c       cb     )
     1.63765829E-01    2           6        -6   # BR(H -> t       tb     )
     5.44300237E-05    2          21        21   # BR(H -> g       g      )
     2.37965458E-07    2          22        22   # BR(H -> gam     gam    )
     9.66941180E-08    2          23        22   # BR(H -> Z       gam    )
     7.60553924E-05    2          24       -24   # BR(H -> W+      W-     )
     3.79795621E-05    2          23        23   # BR(H -> Z       Z      )
     2.80602418E-04    2          25        25   # BR(H -> h       h      )
     2.24662884E-23    2          36        36   # BR(H -> A       A      )
     1.39913599E-18    2          23        36   # BR(H -> Z       A      )
     2.29864490E-03    2     1000024  -1000024   # BR(H -> ~chi_1+ ~chi_1-)
     2.16318127E-03    2     1000022   1000022   # BR(H -> ~chi_10 ~chi_10)
     1.59510841E-05    2     1000023   1000023   # BR(H -> ~chi_20 ~chi_20)
     7.54419323E-04    2     1000025   1000025   # BR(H -> ~chi_30 ~chi_30)
     2.23117105E-01    2     1000022   1000023   # BR(H -> ~chi_10 ~chi_20)
     1.47638749E-01    2     1000022   1000025   # BR(H -> ~chi_10 ~chi_30)
     7.43120624E-04    2     1000023   1000025   # BR(H -> ~chi_20 ~chi_30)
#
#         PDG            Width
DECAY        36     8.25615638E+00   # A decays
#          BR         NDA      ID1       ID2
     3.90402212E-01    2           5        -5   # BR(A -> b       bb     )
     6.74715404E-02    2         -15        15   # BR(A -> tau+    tau-   )
     2.38584392E-04    2         -13        13   # BR(A -> mu+     mu-    )
     2.92681799E-04    2           3        -3   # BR(A -> s       sb     )
     1.64304441E-06    2           4        -4   # BR(A -> c       cb     )
     1.64062577E-01    2           6        -6   # BR(A -> t       tb     )
     1.62347238E-04    2          21        21   # BR(A -> g       g      )
     5.87942806E-07    2          22        22   # BR(A -> gam     gam    )
     1.96614068E-07    2          23        22   # BR(A -> Z       gam    )
     7.56382697E-05    2          23        25   # BR(A -> Z       h      )
     3.30969956E-03    2     1000024  -1000024   # BR(A -> ~chi_1+ ~chi_1-)
     2.19738837E-03    2     1000022   1000022   # BR(A -> ~chi_10 ~chi_10)
     1.62700927E-05    2     1000023   1000023   # BR(A -> ~chi_20 ~chi_20)
     1.80515145E-03    2     1000025   1000025   # BR(A -> ~chi_30 ~chi_30)
     1.49652862E-01    2     1000022   1000023   # BR(A -> ~chi_10 ~chi_20)
     2.20033760E-01    2     1000022   1000025   # BR(A -> ~chi_10 ~chi_30)
     2.76859693E-04    2     1000023   1000025   # BR(A -> ~chi_20 ~chi_30)
#
#         PDG            Width
DECAY        37     8.21943968E+00   # H+ decays
#          BR         NDA      ID1       ID2
     6.28639785E-04    2           4        -5   # BR(H+ -> c       bb     )
     6.78047200E-02    2         -15        16   # BR(H+ -> tau+    nu_tau )
     2.39762540E-04    2         -13        14   # BR(H+ -> mu+     nu_mu  )
     4.02327377E-06    2           2        -5   # BR(H+ -> u       bb     )
     1.40684495E-05    2           2        -3   # BR(H+ -> u       sb     )
     2.90936802E-04    2           4        -3   # BR(H+ -> c       sb     )
     5.54278331E-01    2           6        -5   # BR(H+ -> t       bb     )
     7.61320988E-05    2          24        25   # BR(H+ -> W+      h      )
     8.80826516E-13    2          24        36   # BR(H+ -> W+      A      )
     3.75519749E-01    2     1000024   1000022   # BR(H+ -> ~chi_1+ ~chi_10)
     1.12188277E-03    2     1000024   1000023   # BR(H+ -> ~chi_1+ ~chi_20)
     2.17545507E-05    2     1000024   1000025   # BR(H+ -> ~chi_1+ ~chi_30)
