#
#                              ======================
#                              | THE SUSYHIT OUTPUT |
#                              ======================
#
#
#              ------------------------------------------------------
#              |     This is the output of the SUSY-HIT package     |
#              |  created by A.Djouadi, M.Muehlleitner and M.Spira. |
#              |  In case of problems with SUSY-HIT email to        |
#              |           margarete.muehlleitner@cern.ch           |
#              |           michael.spira@psi.ch                     |
#              |           abdelhak.djouadi@cern.ch                 |
#              ------------------------------------------------------
#
#              ------------------------------------------------------
#              |  SUSY Les Houches Accord - MSSM Spectrum + Decays  |
#              |              based on the decay programs           |
#              |                                                    |
#              |                     SDECAY 1.3b                    |
#              |                                                    |
#              |  Authors: M.Muhlleitner, A.Djouadi and Y.Mambrini  |
#              |  Ref.:    Comput.Phys.Commun.168(2005)46           |
#              |           [hep-ph/0311167]                         |
#              |                                                    |
#              |                     HDECAY 3.4                     |
#              |                                                    |
#              |  By: A.Djouadi,J.Kalinowski,M.Muhlleitner,M.Spira  |
#              |  Ref.:    Comput.Phys.Commun.108(1998)56           |
#              |           [hep-ph/9704448]                         |
#              |                                                    |
#              |                                                    |
#              |  If not stated otherwise all DRbar couplings and   |
#              |  soft SUSY breaking masses are given at the scale  |
#              |  Q=  0.50007184E+04
#              |                                                    |
#              ------------------------------------------------------
#
#
BLOCK DCINFO  # Decay Program information
     1   SDECAY/HDECAY # decay calculator
     2   1.3b  /3.4    # version number
#
BLOCK SPINFO  # Spectrum calculator information
     1    SOFTSUSY    # spectrum calculator                
     2    3.4.0       # version number                     
#
BLOCK MODSEL  # Model selection
     1     0   #  nonUniversal                                     
#
BLOCK SMINPUTS  # Standard Model inputs
         1     1.25778332E+02   # alpha_em^-1(M_Z)^MSbar
         2     1.16570000E-05   # G_F [GeV^-2]
         3     1.17200002E-01   # alpha_S(M_Z)^MSbar
         4     9.11876000E+01   # M_Z pole mass
         5     4.25000000E+00   # mb(mb)^MSbar
         6     1.72500000E+02   # mt pole mass
         7     1.77682000E+00   # mtau pole mass
#
BLOCK MINPAR  # Input parameters - minimal models
         3     1.00000000E+01   # tanb                
#
BLOCK EXTPAR  # Input parameters - non-minimal models
         0    -1.00000000E+00   # Set                 
         1     6.00000000E+01   # M_1(MX)             
         2     3.00000000E+03   # M_2(MX)             
         3     1.57543800E+03   # M_3(MX)             
        11     5.00000000E+03   # At(MX)              
        12     5.00000000E+03   # Ab(MX)              
        13     0.00000000E+00   # Atau(MX)            
        23    -1.44666600E+03   # mu(MX)              
        26     3.00000000E+03   # mA(pole)            
        31     5.00000000E+03   # meL(MX)             
        32     5.00000000E+03   # mmuL(MX)            
        33     5.00000000E+03   # mtauL(MX)           
        34     5.00000000E+03   # meR(MX)             
        35     5.00000000E+03   # mmuR(MX)            
        36     5.00000000E+03   # mtauR(MX)           
        41     5.00000000E+03   # mqL1(MX)            
        42     5.00000000E+03   # mqL2(MX)            
        43     5.00000000E+03   # mqL3(MX)            
        44     5.00000000E+03   # muR(MX)             
        45     5.00000000E+03   # mcR(MX)             
        46     5.00000000E+03   # mtR(MX)             
        47     5.00000000E+03   # mdR(MX)             
        48     5.00000000E+03   # msR(MX)             
        49     5.00000000E+03   # mbR(MX)             
#
BLOCK MASS  # Mass Spectrum
# PDG code           mass       particle
        24     8.00962871E+01   # W+
        25     1.24751342E+02   # h
        35     3.00008788E+03   # H
        36     2.99999994E+03   # A
        37     3.00087779E+03   # H+
         5     4.87878001E+00   # b-quark pole mass calculated from mb(mb)_Msbar
   1000001     5.07063020E+03   # ~d_L
   2000001     5.05284774E+03   # ~d_R
   1000002     5.07015610E+03   # ~u_L
   2000002     5.05257246E+03   # ~u_R
   1000003     5.07063020E+03   # ~s_L
   2000003     5.05284774E+03   # ~s_R
   1000004     5.07015610E+03   # ~c_L
   2000004     5.05257246E+03   # ~c_R
   1000005     5.01666483E+03   # ~b_1
   2000005     5.05170622E+03   # ~b_2
   1000006     4.90792786E+03   # ~t_1
   2000006     5.06283611E+03   # ~t_2
   1000011     5.01904943E+03   # ~e_L
   2000011     5.00591078E+03   # ~e_R
   1000012     5.01810138E+03   # ~nu_eL
   1000013     5.01904943E+03   # ~mu_L
   2000013     5.00591078E+03   # ~mu_R
   1000014     5.01810138E+03   # ~nu_muL
   1000015     5.00437069E+03   # ~tau_1
   2000015     5.01900378E+03   # ~tau_2
   1000016     5.01756245E+03   # ~nu_tauL
   1000021     1.90000046E+03   # ~g
   1000022     6.03029769E+01   # ~chi_10
   1000023     1.49944799E+03   # ~chi_20
   1000025    -1.50189595E+03   # ~chi_30
   1000035     3.07433048E+03   # ~chi_40
   1000024     1.50000016E+03   # ~chi_1+
   1000037     3.07449797E+03   # ~chi_2+
#
BLOCK NMIX  # Neutralino Mixing Matrix
  1  1     9.99556245E-01   # N_11
  1  2     1.39906472E-04   # N_12
  1  3    -2.97256240E-02   # N_13
  1  4     1.91856282E-03   # N_14
  2  1     1.96621629E-02   # N_21
  2  2     3.08972276E-02   # N_22
  2  3     7.06897534E-01   # N_23
  2  4     7.06367212E-01   # N_24
  3  1    -2.23720647E-02   # N_31
  3  2     1.32652889E-02   # N_32
  3  3    -7.06581019E-01   # N_33
  3  4     7.07154004E-01   # N_34
  4  1    -4.50833744E-04   # N_41
  4  2     9.99434527E-01   # N_42
  4  3    -1.24710659E-02   # N_43
  4  4    -3.12233151E-02   # N_44
#
BLOCK UMIX  # Chargino Mixing Matrix U
  1  1     1.76461622E-02   # U_11
  1  2     9.99844294E-01   # U_12
  2  1    -9.99844294E-01   # U_21
  2  2     1.76461622E-02   # U_22
#
BLOCK VMIX  # Chargino Mixing Matrix V
  1  1     4.41754447E-02   # V_11
  1  2    -9.99023789E-01   # V_12
  2  1    -9.99023789E-01   # V_21
  2  2    -4.41754447E-02   # V_22
#
BLOCK STOPMIX  # Stop Mixing Matrix
  1  1    -5.11322865E-01   # cos(theta_t)
  1  2     8.59388694E-01   # sin(theta_t)
  2  1    -8.59388694E-01   # -sin(theta_t)
  2  2    -5.11322865E-01   # cos(theta_t)
#
BLOCK SBOTMIX  # Sbottom Mixing Matrix
  1  1     9.94507238E-01   # cos(theta_b)
  1  2    -1.04667825E-01   # sin(theta_b)
  2  1     1.04667825E-01   # -sin(theta_b)
  2  2     9.94507238E-01   # cos(theta_b)
#
BLOCK STAUMIX  # Stau Mixing Matrix
  1  1    -1.68195637E-01   # cos(theta_tau)
  1  2     9.85753634E-01   # sin(theta_tau)
  2  1    -9.85753634E-01   # -sin(theta_tau)
  2  2    -1.68195637E-01   # cos(theta_tau)
#
BLOCK ALPHA  # Higgs mixing
          -1.05461834E-01   # Mixing angle in the neutral Higgs boson sector
#
BLOCK HMIX Q=  5.00071842E+03  # DRbar Higgs Parameters
         1    -1.47314300E+03   # mu(Q)MSSM           
         2     9.47056139E+00   # tan                 
         3     2.41959863E+02   # higgs               
         4     8.40053911E+06   # mA^2(Q)MSSM         
#
BLOCK GAUGE Q=  5.00071842E+03  # The gauge couplings
     1     3.70704649E-01   # gprime(Q) DRbar
     2     6.32099033E-01   # g(Q) DRbar
     3     9.99249864E-01   # g3(Q) DRbar
#
BLOCK AU Q=  5.00071842E+03  # The trilinear couplings
  1  1     5.00000001E+03   # A_u(Q) DRbar
  2  2     5.00000001E+03   # A_c(Q) DRbar
  3  3     5.00000002E+03   # A_t(Q) DRbar
#
BLOCK AD Q=  5.00071842E+03  # The trilinear couplings
  1  1     5.00000001E+03   # A_d(Q) DRbar
  2  2     5.00000001E+03   # A_s(Q) DRbar
  3  3     5.00000001E+03   # A_b(Q) DRbar
#
BLOCK AE Q=  5.00071842E+03  # The trilinear couplings
  1  1     0.00000000E+00   # A_e(Q) DRbar
  2  2     1.61096590E-07   # A_mu(Q) DRbar
  3  3     1.60678423E-07   # A_tau(Q) DRbar
#
BLOCK Yu Q=  5.00071842E+03  # The Yukawa couplings
  1  1     0.00000000E+00   # y_u(Q) DRbar
  2  2     0.00000000E+00   # y_c(Q) DRbar
  3  3     8.19248234E-01   # y_t(Q) DRbar
#
BLOCK Yd Q=  5.00071842E+03  # The Yukawa couplings
  1  1     0.00000000E+00   # y_d(Q) DRbar
  2  2     0.00000000E+00   # y_s(Q) DRbar
  3  3     1.31160234E-01   # y_b(Q) DRbar
#
BLOCK Ye Q=  5.00071842E+03  # The Yukawa couplings
  1  1     0.00000000E+00   # y_e(Q) DRbar
  2  2     0.00000000E+00   # y_mu(Q) DRbar
  3  3     9.66319302E-02   # y_tau(Q) DRbar
#
BLOCK MSOFT Q=  5.00071842E+03  # The soft SUSY breaking masses at the scale Q
         1     6.00000000E+01   # M_1(Q)              
         2     3.00000000E+03   # M_2(Q)              
         3     1.57543800E+03   # M_3(Q)              
        21     6.49975781E+06   # mH1^2(Q)            
        22    -1.62199750E+06   # mH2^2(Q)            
        31     5.00000000E+03   # meL(Q)              
        32     5.00000000E+03   # mmuL(Q)             
        33     5.00000000E+03   # mtauL(Q)            
        34     5.00000000E+03   # meR(Q)              
        35     5.00000000E+03   # mmuR(Q)             
        36     5.00000000E+03   # mtauR(Q)            
        41     5.00000000E+03   # mqL1(Q)             
        42     5.00000000E+03   # mqL2(Q)             
        43     5.00000000E+03   # mqL3(Q)             
        44     5.00000000E+03   # muR(Q)              
        45     5.00000000E+03   # mcR(Q)              
        46     4.99999999E+03   # mtR(Q)              
        47     5.00000000E+03   # mdR(Q)              
        48     5.00000000E+03   # msR(Q)              
        49     5.00000000E+03   # mbR(Q)              
#
#
#
#                             =================
#                             |The decay table|
#                             =================
#
# - The QCD corrections to the decays gluino -> squark  + quark
#                                     squark -> gaugino + quark_prime
#                                     squark -> squark_prime + Higgs
#                                     squark -> gluino  + quark
#   are included.
#
# - The multi-body decays for the inos, stops and sbottoms are included.
#
# - The loop induced decays for the gluino, neutralinos and stops
#   are included.
#
# - The SUSY decays of the top quark are included.
#
#
#         PDG            Width
DECAY         6     1.40009974E+00   # top decays
#          BR         NDA      ID1       ID2
     1.00000000E+00    2           5        24   # BR(t ->  b    W+)
#
#         PDG            Width
DECAY   1000021     2.38205662E-04   # gluino decays
#          BR         NDA      ID1       ID2
     8.68328192E-06    2     1000022        21   # BR(~g -> ~chi_10 g)
     3.23595058E-03    2     1000023        21   # BR(~g -> ~chi_20 g)
     3.19606523E-03    2     1000025        21   # BR(~g -> ~chi_30 g)
#           BR         NDA      ID1       ID2       ID3
     7.52604241E-02    3     1000022         1        -1   # BR(~g -> ~chi_10 d  db)
     1.87797571E-06    3     1000023         1        -1   # BR(~g -> ~chi_20 d  db)
     3.04489200E-07    3     1000025         1        -1   # BR(~g -> ~chi_30 d  db)
     2.56577582E-01    3     1000022         2        -2   # BR(~g -> ~chi_10 u  ub)
     3.43297223E-06    3     1000023         2        -2   # BR(~g -> ~chi_20 u  ub)
     3.05468005E-07    3     1000025         2        -2   # BR(~g -> ~chi_30 u  ub)
     7.52604241E-02    3     1000022         3        -3   # BR(~g -> ~chi_10 s  sb)
     1.87797571E-06    3     1000023         3        -3   # BR(~g -> ~chi_20 s  sb)
     3.04489200E-07    3     1000025         3        -3   # BR(~g -> ~chi_30 s  sb)
     2.56577582E-01    3     1000022         4        -4   # BR(~g -> ~chi_10 c  cb)
     3.43297223E-06    3     1000023         4        -4   # BR(~g -> ~chi_20 c  cb)
     3.05468005E-07    3     1000025         4        -4   # BR(~g -> ~chi_30 c  cb)
     7.61850075E-02    3     1000022         5        -5   # BR(~g -> ~chi_10 b  bb)
     2.14625123E-04    3     1000023         5        -5   # BR(~g -> ~chi_20 b  bb)
     2.05169339E-04    3     1000025         5        -5   # BR(~g -> ~chi_30 b  bb)
     2.45346654E-01    3     1000022         6        -6   # BR(~g -> ~chi_10 t  tb)
     6.96721092E-04    3     1000023         6        -6   # BR(~g -> ~chi_20 t  tb)
     2.09468244E-04    3     1000025         6        -6   # BR(~g -> ~chi_30 t  tb)
     4.78635081E-06    3     1000024         1        -2   # BR(~g -> ~chi_1+ d  ub)
     4.78635081E-06    3    -1000024         2        -1   # BR(~g -> ~chi_1- u  db)
     4.78635081E-06    3     1000024         3        -4   # BR(~g -> ~chi_1+ s  cb)
     4.78635081E-06    3    -1000024         4        -3   # BR(~g -> ~chi_1- c  sb)
     3.49732758E-03    3     1000024         5        -6   # BR(~g -> ~chi_1+ b  tb)
     3.49732758E-03    3    -1000024         6        -5   # BR(~g -> ~chi_1- t  bb)
#
#         PDG            Width
DECAY   1000006     3.38820171E+02   # stop1 decays
#          BR         NDA      ID1       ID2
     2.59845315E-02    2     1000022         6   # BR(~t_1 -> ~chi_10 t )
     8.00772180E-02    2     1000023         6   # BR(~t_1 -> ~chi_20 t )
     7.69500377E-02    2     1000025         6   # BR(~t_1 -> ~chi_30 t )
     6.37927709E-03    2     1000035         6   # BR(~t_1 -> ~chi_40 t )
     1.15458115E-01    2     1000024         5   # BR(~t_1 -> ~chi_1+ b )
     1.26886845E-02    2     1000037         5   # BR(~t_1 -> ~chi_2+ b )
     6.82462136E-01    2     1000021         6   # BR(~t_1 -> ~g      t )
#
#         PDG            Width
DECAY   2000006     3.49191054E+02   # stop2 decays
#          BR         NDA      ID1       ID2
     1.01516410E-02    2     1000022         6   # BR(~t_2 -> ~chi_10 t )
     8.05115709E-02    2     1000023         6   # BR(~t_2 -> ~chi_20 t )
     8.38049011E-02    2     1000025         6   # BR(~t_2 -> ~chi_30 t )
     1.56480263E-02    2     1000035         6   # BR(~t_2 -> ~chi_40 t )
     4.91831633E-02    2     1000024         5   # BR(~t_2 -> ~chi_1+ b )
     3.10721478E-02    2     1000037         5   # BR(~t_2 -> ~chi_2+ b )
     7.25921024E-01    2     1000021         6   # BR(~t_2 -> ~g      t )
     8.21125180E-04    2     1000006        25   # BR(~t_2 -> ~t_1    h )
     2.88640049E-03    2     1000006        23   # BR(~t_2 -> ~t_1    Z )
#
#         PDG            Width
DECAY   1000005     3.25675098E+02   # sbottom1 decays
#          BR         NDA      ID1       ID2
     2.39990841E-03    2     1000022         5   # BR(~b_1 -> ~chi_10 b )
     2.27570832E-03    2     1000023         5   # BR(~b_1 -> ~chi_20 b )
     2.15428787E-03    2     1000025         5   # BR(~b_1 -> ~chi_30 b )
     2.29655383E-02    2     1000035         5   # BR(~b_1 -> ~chi_40 b )
     1.69229282E-01    2    -1000024         6   # BR(~b_1 -> ~chi_1- t )
     4.62288634E-02    2    -1000037         6   # BR(~b_1 -> ~chi_2- t )
     7.53047230E-01    2     1000021         5   # BR(~b_1 -> ~g      b )
     1.69918148E-03    2     1000006       -24   # BR(~b_1 -> ~t_1    W-)
#
#         PDG            Width
DECAY   2000005     2.54571820E+02   # sbottom2 decays
#          BR         NDA      ID1       ID2
     1.14998105E-02    2     1000022         5   # BR(~b_2 -> ~chi_10 b )
     2.79118431E-03    2     1000023         5   # BR(~b_2 -> ~chi_20 b )
     2.91352345E-03    2     1000025         5   # BR(~b_2 -> ~chi_30 b )
     3.43211205E-04    2     1000035         5   # BR(~b_2 -> ~chi_40 b )
     7.97995107E-03    2    -1000024         6   # BR(~b_2 -> ~chi_1- t )
     6.90565670E-04    2    -1000037         6   # BR(~b_2 -> ~chi_2- t )
     9.73679788E-01    2     1000021         5   # BR(~b_2 -> ~g      b )
     1.01965509E-04    2     1000006       -24   # BR(~b_2 -> ~t_1    W-)
#
#         PDG            Width
DECAY   1000002     2.73586483E+02   # sup_L decays
#          BR         NDA      ID1       ID2
     2.72796626E-03    2     1000022         2   # BR(~u_L -> ~chi_10 u)
     7.18509135E-05    2     1000023         2   # BR(~u_L -> ~chi_20 u)
     4.70388861E-06    2     1000025         2   # BR(~u_L -> ~chi_30 u)
     2.86393452E-02    2     1000035         2   # BR(~u_L -> ~chi_40 u)
     2.32316150E-04    2     1000024         1   # BR(~u_L -> ~chi_1+ d)
     5.72345122E-02    2     1000037         1   # BR(~u_L -> ~chi_2+ d)
     9.11089305E-01    2     1000021         2   # BR(~u_L -> ~g      u)
#
#         PDG            Width
DECAY   2000002     2.59722941E+02   # sup_R decays
#          BR         NDA      ID1       ID2
     4.57505592E-02    2     1000022         2   # BR(~u_R -> ~chi_10 u)
     1.47523851E-05    2     1000023         2   # BR(~u_R -> ~chi_20 u)
     1.90870308E-05    2     1000025         2   # BR(~u_R -> ~chi_30 u)
     3.71105948E-09    2     1000035         2   # BR(~u_R -> ~chi_40 u)
     9.54215598E-01    2     1000021         2   # BR(~u_R -> ~g      u)
#
#         PDG            Width
DECAY   1000001     2.73601362E+02   # sdown_L decays
#          BR         NDA      ID1       ID2
     2.72027378E-03    2     1000022         1   # BR(~d_L -> ~chi_10 d)
     4.35740854E-05    2     1000023         1   # BR(~d_L -> ~chi_20 d)
     1.85117290E-05    2     1000025         1   # BR(~d_L -> ~chi_30 d)
     2.86567584E-02    2     1000035         1   # BR(~d_L -> ~chi_40 d)
     3.70724116E-05    2    -1000024         2   # BR(~d_L -> ~chi_1- u)
     5.73431935E-02    2    -1000037         2   # BR(~d_L -> ~chi_2- u)
     9.11180616E-01    2     1000021         1   # BR(~d_L -> ~g      d)
#
#         PDG            Width
DECAY   2000001     2.50827058E+02   # sdown_R decays
#          BR         NDA      ID1       ID2
     1.18439417E-02    2     1000022         1   # BR(~d_R -> ~chi_10 d)
     3.81918848E-06    2     1000023         1   # BR(~d_R -> ~chi_20 d)
     4.94136867E-06    2     1000025         1   # BR(~d_R -> ~chi_30 d)
     9.60843754E-10    2     1000035         1   # BR(~d_R -> ~chi_40 d)
     9.88147297E-01    2     1000021         1   # BR(~d_R -> ~g      d)
#
#         PDG            Width
DECAY   1000004     2.73586483E+02   # scharm_L decays
#          BR         NDA      ID1       ID2
     2.72796626E-03    2     1000022         4   # BR(~c_L -> ~chi_10 c)
     7.18509135E-05    2     1000023         4   # BR(~c_L -> ~chi_20 c)
     4.70388861E-06    2     1000025         4   # BR(~c_L -> ~chi_30 c)
     2.86393452E-02    2     1000035         4   # BR(~c_L -> ~chi_40 c)
     2.32316150E-04    2     1000024         3   # BR(~c_L -> ~chi_1+ s)
     5.72345122E-02    2     1000037         3   # BR(~c_L -> ~chi_2+ s)
     9.11089305E-01    2     1000021         4   # BR(~c_L -> ~g      c)
#
#         PDG            Width
DECAY   2000004     2.59722941E+02   # scharm_R decays
#          BR         NDA      ID1       ID2
     4.57505592E-02    2     1000022         4   # BR(~c_R -> ~chi_10 c)
     1.47523851E-05    2     1000023         4   # BR(~c_R -> ~chi_20 c)
     1.90870308E-05    2     1000025         4   # BR(~c_R -> ~chi_30 c)
     3.71105948E-09    2     1000035         4   # BR(~c_R -> ~chi_40 c)
     9.54215598E-01    2     1000021         4   # BR(~c_R -> ~g      c)
#
#         PDG            Width
DECAY   1000003     2.73601362E+02   # sstrange_L decays
#          BR         NDA      ID1       ID2
     2.72027378E-03    2     1000022         3   # BR(~s_L -> ~chi_10 s)
     4.35740854E-05    2     1000023         3   # BR(~s_L -> ~chi_20 s)
     1.85117290E-05    2     1000025         3   # BR(~s_L -> ~chi_30 s)
     2.86567584E-02    2     1000035         3   # BR(~s_L -> ~chi_40 s)
     3.70724116E-05    2    -1000024         4   # BR(~s_L -> ~chi_1- c)
     5.73431935E-02    2    -1000037         4   # BR(~s_L -> ~chi_2- c)
     9.11180616E-01    2     1000021         3   # BR(~s_L -> ~g      s)
#
#         PDG            Width
DECAY   2000003     2.50827058E+02   # sstrange_R decays
#          BR         NDA      ID1       ID2
     1.18439417E-02    2     1000022         3   # BR(~s_R -> ~chi_10 s)
     3.81918848E-06    2     1000023         3   # BR(~s_R -> ~chi_20 s)
     4.94136867E-06    2     1000025         3   # BR(~s_R -> ~chi_30 s)
     9.60843754E-10    2     1000035         3   # BR(~s_R -> ~chi_40 s)
     9.88147297E-01    2     1000021         3   # BR(~s_R -> ~g      s)
#
#         PDG            Width
DECAY   1000011     3.02378362E+01   # selectron_L decays
#          BR         NDA      ID1       ID2
     2.26737489E-01    2     1000022        11   # BR(~e_L -> ~chi_10 e-)
     9.85033381E-04    2     1000023        11   # BR(~e_L -> ~chi_20 e-)
     1.14705833E-08    2     1000025        11   # BR(~e_L -> ~chi_30 e-)
     2.57103330E-01    2     1000035        11   # BR(~e_L -> ~chi_40 e-)
     3.40725836E-04    2    -1000024        12   # BR(~e_L -> ~chi_1- nu_e)
     5.14833411E-01    2    -1000037        12   # BR(~e_L -> ~chi_2- nu_e)
#
#         PDG            Width
DECAY   2000011     2.73594361E+01   # selectron_R decays
#          BR         NDA      ID1       ID2
     9.99264798E-01    2     1000022        11   # BR(~e_R -> ~chi_10 e-)
     3.20481750E-04    2     1000023        11   # BR(~e_R -> ~chi_20 e-)
     4.14641767E-04    2     1000025        11   # BR(~e_R -> ~chi_30 e-)
     7.88799759E-08    2     1000035        11   # BR(~e_R -> ~chi_40 e-)
#
#         PDG            Width
DECAY   1000013     3.02378362E+01   # smuon_L decays
#          BR         NDA      ID1       ID2
     2.26737489E-01    2     1000022        13   # BR(~mu_L -> ~chi_10 mu-)
     9.85033381E-04    2     1000023        13   # BR(~mu_L -> ~chi_20 mu-)
     1.14705833E-08    2     1000025        13   # BR(~mu_L -> ~chi_30 mu-)
     2.57103330E-01    2     1000035        13   # BR(~mu_L -> ~chi_40 mu-)
     3.40725836E-04    2    -1000024        14   # BR(~mu_L -> ~chi_1- nu_mu)
     5.14833411E-01    2    -1000037        14   # BR(~mu_L -> ~chi_2- nu_mu)
#
#         PDG            Width
DECAY   2000013     2.73594361E+01   # smuon_R decays
#          BR         NDA      ID1       ID2
     9.99264798E-01    2     1000022        13   # BR(~mu_R -> ~chi_10 mu-)
     3.20481750E-04    2     1000023        13   # BR(~mu_R -> ~chi_20 mu-)
     4.14641767E-04    2     1000025        13   # BR(~mu_R -> ~chi_30 mu-)
     7.88799759E-08    2     1000035        13   # BR(~mu_R -> ~chi_40 mu-)
#
#         PDG            Width
DECAY   1000015     2.89715396E+01   # stau_1 decays
#          BR         NDA      ID1       ID2
     9.24242230E-01    2     1000022        15   # BR(~tau_1 -> ~chi_10  tau-)
     1.41661618E-02    2     1000023        15   # BR(~tau_1 -> ~chi_20  tau-)
     1.28850487E-02    2     1000025        15   # BR(~tau_1 -> ~chi_30  tau-)
     7.27994502E-03    2     1000035        15   # BR(~tau_1 -> ~chi_40  tau-)
     2.68489311E-02    2    -1000024        16   # BR(~tau_1 -> ~chi_1-  nu_tau)
     1.45776834E-02    2    -1000037        16   # BR(~tau_1 -> ~chi_2-  nu_tau)
#
#         PDG            Width
DECAY   2000015     3.09250362E+01   # stau_2 decays
#          BR         NDA      ID1       ID2
     2.39722753E-01    2     1000022        15   # BR(~tau_2 -> ~chi_10  tau-)
     1.29158993E-02    2     1000023        15   # BR(~tau_2 -> ~chi_20  tau-)
     1.32033157E-02    2     1000025        15   # BR(~tau_2 -> ~chi_30  tau-)
     2.44496573E-01    2     1000035        15   # BR(~tau_2 -> ~chi_40  tau-)
     7.39550670E-05    2    -1000024        16   # BR(~tau_2 -> ~chi_1-  nu_tau)
     4.89587504E-01    2    -1000037        16   # BR(~tau_2 -> ~chi_2-  nu_tau)
#
#         PDG            Width
DECAY   1000012     3.02398766E+01   # snu_eL decays
#          BR         NDA      ID1       ID2
     2.26463042E-01    2     1000022        12   # BR(~nu_eL -> ~chi_10 nu_e)
     2.05151733E-04    2     1000023        12   # BR(~nu_eL -> ~chi_20 nu_e)
     3.80587195E-04    2     1000025        12   # BR(~nu_eL -> ~chi_30 nu_e)
     2.57192796E-01    2     1000035        12   # BR(~nu_eL -> ~chi_40 nu_e)
     2.13463120E-03    2     1000024        11   # BR(~nu_eL -> ~chi_1+ e-)
     5.13623793E-01    2     1000037        11   # BR(~nu_eL -> ~chi_2+ e-)
#
#         PDG            Width
DECAY   1000014     3.02398766E+01   # snu_muL decays
#          BR         NDA      ID1       ID2
     2.26463042E-01    2     1000022        14   # BR(~nu_muL -> ~chi_10 nu_mu)
     2.05151733E-04    2     1000023        14   # BR(~nu_muL -> ~chi_20 nu_mu)
     3.80587195E-04    2     1000025        14   # BR(~nu_muL -> ~chi_30 nu_mu)
     2.57192796E-01    2     1000035        14   # BR(~nu_muL -> ~chi_40 nu_mu)
     2.13463120E-03    2     1000024        13   # BR(~nu_muL -> ~chi_1+ mu-)
     5.13623793E-01    2     1000037        13   # BR(~nu_muL -> ~chi_2+ mu-)
#
#         PDG            Width
DECAY   1000016     3.10034579E+01   # snu_tauL decays
#          BR         NDA      ID1       ID2
     2.20861768E-01    2     1000022        16   # BR(~nu_tauL -> ~chi_10 nu_tau)
     2.00069152E-04    2     1000023        16   # BR(~nu_tauL -> ~chi_20 nu_tau)
     3.71158190E-04    2     1000025        16   # BR(~nu_tauL -> ~chi_30 nu_tau)
     2.50766724E-01    2     1000035        16   # BR(~nu_tauL -> ~chi_40 nu_tau)
     2.70081682E-02    2     1000024        15   # BR(~nu_tauL -> ~chi_1+ tau-)
     5.00792112E-01    2     1000037        15   # BR(~nu_tauL -> ~chi_2+ tau-)
#
#         PDG            Width
DECAY   1000024     9.22686173E-01   # chargino1+ decays
#          BR         NDA      ID1       ID2
     1.00000000E+00    2     1000022        24   # BR(~chi_1+ -> ~chi_10  W+)
#
#         PDG            Width
DECAY   1000037     1.84000050E+01   # chargino2+ decays
#          BR         NDA      ID1       ID2
     2.52703844E-01    2     1000024        23   # BR(~chi_2+ -> ~chi_1+  Z )
     2.61222295E-04    2     1000022        24   # BR(~chi_2+ -> ~chi_10  W+)
     2.44016959E-01    2     1000023        24   # BR(~chi_2+ -> ~chi_20  W+)
     2.43677398E-01    2     1000025        24   # BR(~chi_2+ -> ~chi_30  W+)
     2.59340213E-01    2     1000024        25   # BR(~chi_2+ -> ~chi_1+  h )
     3.63783353E-07    2     1000022        37   # BR(~chi_2+ -> ~chi_10  H+)
#
#         PDG            Width
DECAY   1000022     0.00000000E+00   # neutralino1 decays
#
#         PDG            Width
DECAY   1000023     9.69644510E-01   # neutralino2 decays
#          BR         NDA      ID1       ID2
     5.56484219E-01    2     1000022        23   # BR(~chi_20 -> ~chi_10   Z )
     4.43515781E-01    2     1000022        25   # BR(~chi_20 -> ~chi_10   h )
#
#         PDG            Width
DECAY   1000025     9.79226583E-01   # neutralino3 decays
#          BR         NDA      ID1       ID2
     4.26447743E-01    2     1000022        23   # BR(~chi_30 -> ~chi_10   Z )
     5.73552257E-01    2     1000022        25   # BR(~chi_30 -> ~chi_10   h )
#
#         PDG            Width
DECAY   1000035     1.84003445E+01   # neutralino4 decays
#          BR         NDA      ID1       ID2
     9.39494610E-05    2     1000022        23   # BR(~chi_40 -> ~chi_10   Z )
     3.95266320E-02    2     1000023        23   # BR(~chi_40 -> ~chi_20   Z )
     2.12644647E-01    2     1000025        23   # BR(~chi_40 -> ~chi_30   Z )
     2.44322492E-01    2     1000024       -24   # BR(~chi_40 -> ~chi_1+   W-)
     2.44322492E-01    2    -1000024        24   # BR(~chi_40 -> ~chi_1-   W+)
     1.73546276E-04    2     1000022        25   # BR(~chi_40 -> ~chi_10   h )
     3.27825410E-07    2     1000022        35   # BR(~chi_40 -> ~chi_10   H )
     4.93035390E-08    2     1000022        36   # BR(~chi_40 -> ~chi_10   A )
     2.19425424E-01    2     1000023        25   # BR(~chi_40 -> ~chi_20   h )
     3.94904394E-02    2     1000025        25   # BR(~chi_40 -> ~chi_30   h )
#
#         PDG            Width
DECAY        25     4.04439183E-03   # h decays
#          BR         NDA      ID1       ID2
     6.07579953E-01    2           5        -5   # BR(h -> b       bb     )
     6.41148552E-02    2         -15        15   # BR(h -> tau+    tau-   )
     2.26989997E-04    2         -13        13   # BR(h -> mu+     mu-    )
     4.81222448E-04    2           3        -3   # BR(h -> s       sb     )
     2.08538983E-02    2           4        -4   # BR(h -> c       cb     )
     6.74312998E-02    2          21        21   # BR(h -> g       g      )
     2.31812122E-03    2          22        22   # BR(h -> gam     gam    )
     1.49277727E-03    2          22        23   # BR(h -> Z       gam    )
     2.10401407E-01    2          24       -24   # BR(h -> W+      W-     )
     2.50669343E-02    2          23        23   # BR(h -> Z       Z      )
     3.25410368E-05    2     1000022   1000022   # BR(h -> ~chi_10 ~chi_10)
#
#         PDG            Width
DECAY        35     7.26753982E+00   # H decays
#          BR         NDA      ID1       ID2
     4.49219059E-01    2           5        -5   # BR(H -> b       bb     )
     7.66693706E-02    2         -15        15   # BR(H -> tau+    tau-   )
     2.71108985E-04    2         -13        13   # BR(H -> mu+     mu-    )
     3.32337992E-04    2           3        -3   # BR(H -> s       sb     )
     1.85828172E-06    2           4        -4   # BR(H -> c       cb     )
     1.85657070E-01    2           6        -6   # BR(H -> t       tb     )
     6.16302731E-05    2          21        21   # BR(H -> g       g      )
     3.88356901E-07    2          22        22   # BR(H -> gam     gam    )
     1.09639398E-07    2          23        22   # BR(H -> Z       gam    )
     8.28380626E-05    2          24       -24   # BR(H -> W+      W-     )
     4.13666103E-05    2          23        23   # BR(H -> Z       Z      )
     3.13215491E-04    2          25        25   # BR(H -> h       h      )
     5.89981534E-23    2          36        36   # BR(H -> A       A      )
     1.20256611E-18    2          23        36   # BR(H -> Z       A      )
     3.24703658E-09    2     1000024  -1000024   # BR(H -> ~chi_1+ ~chi_1-)
     8.83371431E-04    2     1000022   1000022   # BR(H -> ~chi_10 ~chi_10)
     1.91754010E-08    2     1000023   1000023   # BR(H -> ~chi_20 ~chi_20)
     1.70237738E-01    2     1000022   1000023   # BR(H -> ~chi_10 ~chi_20)
     1.16228515E-01    2     1000022   1000025   # BR(H -> ~chi_10 ~chi_30)
#
#         PDG            Width
DECAY        36     7.27021591E+00   # A decays
#          BR         NDA      ID1       ID2
     4.49203382E-01    2           5        -5   # BR(A -> b       bb     )
     7.66432447E-02    2         -15        15   # BR(A -> tau+    tau-   )
     2.71016222E-04    2         -13        13   # BR(A -> mu+     mu-    )
     3.32467118E-04    2           3        -3   # BR(A -> s       sb     )
     1.86535017E-06    2           4        -4   # BR(A -> c       cb     )
     1.86260432E-01    2           6        -6   # BR(A -> t       tb     )
     1.84333590E-04    2          21        21   # BR(A -> g       g      )
     2.67833051E-07    2          22        22   # BR(A -> gam     gam    )
     2.23297877E-07    2          23        22   # BR(A -> Z       gam    )
     8.24942560E-05    2          23        25   # BR(A -> Z       h      )
     9.08973446E-04    2     1000022   1000022   # BR(A -> ~chi_10 ~chi_10)
     1.51959825E-05    2     1000023   1000023   # BR(A -> ~chi_20 ~chi_20)
     1.17570040E-01    2     1000022   1000023   # BR(A -> ~chi_10 ~chi_20)
     1.68526065E-01    2     1000022   1000025   # BR(A -> ~chi_10 ~chi_30)
#
#         PDG            Width
DECAY        37     7.27110182E+00   # H+ decays
#          BR         NDA      ID1       ID2
     7.22593784E-04    2           4        -5   # BR(H+ -> c       bb     )
     7.66563309E-02    2         -15        16   # BR(H+ -> tau+    nu_tau )
     2.71062496E-04    2         -13        14   # BR(H+ -> mu+     nu_mu  )
     4.62457657E-06    2           2        -5   # BR(H+ -> u       bb     )
     1.59053795E-05    2           2        -3   # BR(H+ -> u       sb     )
     3.28923683E-04    2           4        -3   # BR(H+ -> c       sb     )
     6.33957445E-01    2           6        -5   # BR(H+ -> t       bb     )
     8.26096022E-05    2          24        25   # BR(H+ -> W+      h      )
     9.42295291E-14    2          24        36   # BR(H+ -> W+      A      )
     2.87944940E-01    2     1000024   1000022   # BR(H+ -> ~chi_1+ ~chi_10)
     1.55641558E-05    2     1000024   1000023   # BR(H+ -> ~chi_1+ ~chi_20)
