#
#                              ======================
#                              | THE SUSYHIT OUTPUT |
#                              ======================
#
#
#              ------------------------------------------------------
#              |     This is the output of the SUSY-HIT package     |
#              |  created by A.Djouadi, M.Muehlleitner and M.Spira. |
#              |  In case of problems with SUSY-HIT email to        |
#              |           margarete.muehlleitner@cern.ch           |
#              |           michael.spira@psi.ch                     |
#              |           abdelhak.djouadi@cern.ch                 |
#              ------------------------------------------------------
#
#              ------------------------------------------------------
#              |  SUSY Les Houches Accord - MSSM Spectrum + Decays  |
#              |              based on the decay programs           |
#              |                                                    |
#              |                     SDECAY 1.3b                    |
#              |                                                    |
#              |  Authors: M.Muhlleitner, A.Djouadi and Y.Mambrini  |
#              |  Ref.:    Comput.Phys.Commun.168(2005)46           |
#              |           [hep-ph/0311167]                         |
#              |                                                    |
#              |                     HDECAY 3.4                     |
#              |                                                    |
#              |  By: A.Djouadi,J.Kalinowski,M.Muhlleitner,M.Spira  |
#              |  Ref.:    Comput.Phys.Commun.108(1998)56           |
#              |           [hep-ph/9704448]                         |
#              |                                                    |
#              |                                                    |
#              |  If not stated otherwise all DRbar couplings and   |
#              |  soft SUSY breaking masses are given at the scale  |
#              |  Q=  0.50007068E+04
#              |                                                    |
#              ------------------------------------------------------
#
#
BLOCK DCINFO  # Decay Program information
     1   SDECAY/HDECAY # decay calculator
     2   1.3b  /3.4    # version number
#
BLOCK SPINFO  # Spectrum calculator information
     1    SOFTSUSY    # spectrum calculator                
     2    3.4.0       # version number                     
#
BLOCK MODSEL  # Model selection
     1     0   #  nonUniversal                                     
#
BLOCK SMINPUTS  # Standard Model inputs
         1     1.25778332E+02   # alpha_em^-1(M_Z)^MSbar
         2     1.16570000E-05   # G_F [GeV^-2]
         3     1.17200002E-01   # alpha_S(M_Z)^MSbar
         4     9.11876000E+01   # M_Z pole mass
         5     4.25000000E+00   # mb(mb)^MSbar
         6     1.72500000E+02   # mt pole mass
         7     1.77682000E+00   # mtau pole mass
#
BLOCK MINPAR  # Input parameters - minimal models
         3     1.00000000E+01   # tanb                
#
BLOCK EXTPAR  # Input parameters - non-minimal models
         0    -1.00000000E+00   # Set                 
         1     6.00000000E+01   # M_1(MX)             
         2     3.00000000E+03   # M_2(MX)             
         3     7.73145000E+02   # M_3(MX)             
        11     5.00000000E+03   # At(MX)              
        12     5.00000000E+03   # Ab(MX)              
        13     0.00000000E+00   # Atau(MX)            
        23    -1.44732000E+03   # mu(MX)              
        26     3.00000000E+03   # mA(pole)            
        31     5.00000000E+03   # meL(MX)             
        32     5.00000000E+03   # mmuL(MX)            
        33     5.00000000E+03   # mtauL(MX)           
        34     5.00000000E+03   # meR(MX)             
        35     5.00000000E+03   # mmuR(MX)            
        36     5.00000000E+03   # mtauR(MX)           
        41     5.00000000E+03   # mqL1(MX)            
        42     5.00000000E+03   # mqL2(MX)            
        43     5.00000000E+03   # mqL3(MX)            
        44     5.00000000E+03   # muR(MX)             
        45     5.00000000E+03   # mcR(MX)             
        46     5.00000000E+03   # mtR(MX)             
        47     5.00000000E+03   # mdR(MX)             
        48     5.00000000E+03   # msR(MX)             
        49     5.00000000E+03   # mbR(MX)             
#
BLOCK MASS  # Mass Spectrum
# PDG code           mass       particle
        24     8.00936544E+01   # W+
        25     1.24314073E+02   # h
        35     3.00008747E+03   # H
        36     2.99999996E+03   # A
        37     3.00087927E+03   # H+
         5     4.87878001E+00   # b-quark pole mass calculated from mb(mb)_Msbar
   1000001     5.06376292E+03   # ~d_L
   2000001     5.04595317E+03   # ~d_R
   1000002     5.06328592E+03   # ~u_L
   2000002     5.04567745E+03   # ~u_R
   1000003     5.06376292E+03   # ~s_L
   2000003     5.04595317E+03   # ~s_R
   1000004     5.06328592E+03   # ~c_L
   2000004     5.04567745E+03   # ~c_R
   1000005     5.01041076E+03   # ~b_1
   2000005     5.04488588E+03   # ~b_2
   1000006     4.90125361E+03   # ~t_1
   2000006     5.05749311E+03   # ~t_2
   1000011     5.01905208E+03   # ~e_L
   2000011     5.00591068E+03   # ~e_R
   1000012     5.01810341E+03   # ~nu_eL
   1000013     5.01905208E+03   # ~mu_L
   2000013     5.00591068E+03   # ~mu_R
   1000014     5.01810341E+03   # ~nu_muL
   1000015     5.00437012E+03   # ~tau_1
   2000015     5.01900659E+03   # ~tau_2
   1000016     5.01756437E+03   # ~nu_tauL
   1000021     1.00000041E+03   # ~g
   1000022     6.03026202E+01   # ~chi_10
   1000023     1.49944659E+03   # ~chi_20
   1000025    -1.50189836E+03   # ~chi_30
   1000035     3.07433429E+03   # ~chi_40
   1000024     1.50000039E+03   # ~chi_1+
   1000037     3.07450185E+03   # ~chi_2+
#
BLOCK NMIX  # Neutralino Mixing Matrix
  1  1     9.99556059E-01   # N_11
  1  2     1.39872122E-04   # N_12
  1  3    -2.97319416E-02   # N_13
  1  4     1.91758434E-03   # N_14
  2  1     1.96673321E-02   # N_21
  2  2     3.09065305E-02   # N_22
  2  3     7.06897704E-01   # N_23
  2  4     7.06366490E-01   # N_24
  3  1    -2.23758277E-02   # N_31
  3  2     1.32680869E-02   # N_32
  3  3    -7.06580501E-01   # N_33
  3  4     7.07154351E-01   # N_34
  4  1    -4.51029793E-04   # N_41
  4  2     9.99434202E-01   # N_42
  4  3    -1.24756840E-02   # N_43
  4  4    -3.12318619E-02   # N_44
#
BLOCK UMIX  # Chargino Mixing Matrix U
  1  1     1.76527268E-02   # U_11
  1  2     9.99844178E-01   # U_12
  2  1    -9.99844178E-01   # U_21
  2  2     1.76527268E-02   # U_22
#
BLOCK VMIX  # Chargino Mixing Matrix V
  1  1     4.41874712E-02   # V_11
  1  2    -9.99023257E-01   # V_12
  2  1    -9.99023257E-01   # V_21
  2  2    -4.41874712E-02   # V_22
#
BLOCK STOPMIX  # Stop Mixing Matrix
  1  1    -5.14305779E-01   # cos(theta_t)
  1  2     8.57606883E-01   # sin(theta_t)
  2  1    -8.57606883E-01   # -sin(theta_t)
  2  2    -5.14305779E-01   # cos(theta_t)
#
BLOCK SBOTMIX  # Sbottom Mixing Matrix
  1  1     9.94406831E-01   # cos(theta_b)
  1  2    -1.05617491E-01   # sin(theta_b)
  2  1     1.05617491E-01   # -sin(theta_b)
  2  2     9.94406831E-01   # cos(theta_b)
#
BLOCK STAUMIX  # Stau Mixing Matrix
  1  1    -1.68223655E-01   # cos(theta_tau)
  1  2     9.85748853E-01   # sin(theta_tau)
  2  1    -9.85748853E-01   # -sin(theta_tau)
  2  2    -1.68223655E-01   # cos(theta_tau)
#
BLOCK ALPHA  # Higgs mixing
          -1.05414276E-01   # Mixing angle in the neutral Higgs boson sector
#
BLOCK HMIX Q=  5.00070685E+03  # DRbar Higgs Parameters
         1    -1.47307446E+03   # mu(Q)MSSM           
         2     9.47473618E+00   # tan                 
         3     2.42028259E+02   # higgs               
         4     8.39222774E+06   # mA^2(Q)MSSM         
#
BLOCK GAUGE Q=  5.00070685E+03  # The gauge couplings
     1     3.70721855E-01   # gprime(Q) DRbar
     2     6.32139585E-01   # g(Q) DRbar
     3     1.00863802E+00   # g3(Q) DRbar
#
BLOCK AU Q=  5.00070685E+03  # The trilinear couplings
  1  1     5.00000001E+03   # A_u(Q) DRbar
  2  2     5.00000001E+03   # A_c(Q) DRbar
  3  3     5.00000001E+03   # A_t(Q) DRbar
#
BLOCK AD Q=  5.00070685E+03  # The trilinear couplings
  1  1     5.00000000E+03   # A_d(Q) DRbar
  2  2     5.00000000E+03   # A_s(Q) DRbar
  3  3     5.00000001E+03   # A_b(Q) DRbar
#
BLOCK AE Q=  5.00070685E+03  # The trilinear couplings
  1  1     0.00000000E+00   # A_e(Q) DRbar
  2  2     1.70580804E-08   # A_mu(Q) DRbar
  3  3     1.60853305E-08   # A_tau(Q) DRbar
#
BLOCK Yu Q=  5.00070685E+03  # The Yukawa couplings
  1  1     0.00000000E+00   # y_u(Q) DRbar
  2  2     0.00000000E+00   # y_c(Q) DRbar
  3  3     8.13841803E-01   # y_t(Q) DRbar
#
BLOCK Yd Q=  5.00070685E+03  # The Yukawa couplings
  1  1     0.00000000E+00   # y_d(Q) DRbar
  2  2     0.00000000E+00   # y_s(Q) DRbar
  3  3     1.29713046E-01   # y_b(Q) DRbar
#
BLOCK Ye Q=  5.00070685E+03  # The Yukawa couplings
  1  1     0.00000000E+00   # y_e(Q) DRbar
  2  2     0.00000000E+00   # y_mu(Q) DRbar
  3  3     9.66463484E-02   # y_tau(Q) DRbar
#
BLOCK MSOFT Q=  5.00070685E+03  # The soft SUSY breaking masses at the scale Q
         1     6.00000000E+01   # M_1(Q)              
         2     3.00000000E+03   # M_2(Q)              
         3     7.73145000E+02   # M_3(Q)              
        21     6.49937433E+06   # mH1^2(Q)            
        22    -1.62662773E+06   # mH2^2(Q)            
        31     5.00000000E+03   # meL(Q)              
        32     5.00000000E+03   # mmuL(Q)             
        33     5.00000000E+03   # mtauL(Q)            
        34     5.00000000E+03   # meR(Q)              
        35     5.00000000E+03   # mmuR(Q)             
        36     5.00000000E+03   # mtauR(Q)            
        41     5.00000000E+03   # mqL1(Q)             
        42     5.00000000E+03   # mqL2(Q)             
        43     5.00000000E+03   # mqL3(Q)             
        44     5.00000000E+03   # muR(Q)              
        45     5.00000000E+03   # mcR(Q)              
        46     5.00000000E+03   # mtR(Q)              
        47     5.00000000E+03   # mdR(Q)              
        48     5.00000000E+03   # msR(Q)              
        49     5.00000000E+03   # mbR(Q)              
#
#
#
#                             =================
#                             |The decay table|
#                             =================
#
# - The QCD corrections to the decays gluino -> squark  + quark
#                                     squark -> gaugino + quark_prime
#                                     squark -> squark_prime + Higgs
#                                     squark -> gluino  + quark
#   are included.
#
# - The multi-body decays for the inos, stops and sbottoms are included.
#
# - The loop induced decays for the gluino, neutralinos and stops
#   are included.
#
# - The SUSY decays of the top quark are included.
#
#
#         PDG            Width
DECAY         6     1.40039432E+00   # top decays
#          BR         NDA      ID1       ID2
     1.00000000E+00    2           5        24   # BR(t ->  b    W+)
#
#         PDG            Width
DECAY   1000021     8.40822914E-06   # gluino decays
#          BR         NDA      ID1       ID2
     2.09749685E-05    2     1000022        21   # BR(~g -> ~chi_10 g)
#           BR         NDA      ID1       ID2       ID3
     8.31147717E-02    3     1000022         1        -1   # BR(~g -> ~chi_10 d  db)
     2.83328080E-01    3     1000022         2        -2   # BR(~g -> ~chi_10 u  ub)
     8.31147717E-02    3     1000022         3        -3   # BR(~g -> ~chi_10 s  sb)
     2.83328080E-01    3     1000022         4        -4   # BR(~g -> ~chi_10 c  cb)
     8.41232110E-02    3     1000022         5        -5   # BR(~g -> ~chi_10 b  bb)
     1.82970111E-01    3     1000022         6        -6   # BR(~g -> ~chi_10 t  tb)
#
#         PDG            Width
DECAY   1000006     4.04451766E+02   # stop1 decays
#          BR         NDA      ID1       ID2
     2.16282180E-02    2     1000022         6   # BR(~t_1 -> ~chi_10 t )
     6.64427005E-02    2     1000023         6   # BR(~t_1 -> ~chi_20 t )
     6.38196329E-02    2     1000025         6   # BR(~t_1 -> ~chi_30 t )
     5.44107419E-03    2     1000035         6   # BR(~t_1 -> ~chi_40 t )
     9.48325000E-02    2     1000024         5   # BR(~t_1 -> ~chi_1+ b )
     1.08228966E-02    2     1000037         5   # BR(~t_1 -> ~chi_2+ b )
     7.37012978E-01    2     1000021         6   # BR(~t_1 -> ~g      t )
#
#         PDG            Width
DECAY   2000006     4.09169460E+02   # stop2 decays
#          BR         NDA      ID1       ID2
     8.86749959E-03    2     1000022         6   # BR(~t_2 -> ~chi_10 t )
     6.79824175E-02    2     1000023         6   # BR(~t_2 -> ~chi_20 t )
     7.07877270E-02    2     1000025         6   # BR(~t_2 -> ~chi_30 t )
     1.31506941E-02    2     1000035         6   # BR(~t_2 -> ~chi_40 t )
     4.24639610E-02    2     1000024         5   # BR(~t_2 -> ~chi_1+ b )
     2.61142965E-02    2     1000037         5   # BR(~t_2 -> ~chi_2+ b )
     7.67383633E-01    2     1000021         6   # BR(~t_2 -> ~g      t )
     7.06099831E-04    2     1000006        25   # BR(~t_2 -> ~t_1    h )
     2.54367123E-03    2     1000006        23   # BR(~t_2 -> ~t_1    Z )
#
#         PDG            Width
DECAY   1000005     3.88288899E+02   # sbottom1 decays
#          BR         NDA      ID1       ID2
     2.01957888E-03    2     1000022         5   # BR(~b_1 -> ~chi_10 b )
     1.87400020E-03    2     1000023         5   # BR(~b_1 -> ~chi_20 b )
     1.77137050E-03    2     1000025         5   # BR(~b_1 -> ~chi_30 b )
     1.91510697E-02    2     1000035         5   # BR(~b_1 -> ~chi_40 b )
     1.40424305E-01    2    -1000024         6   # BR(~b_1 -> ~chi_1- t )
     3.85484799E-02    2    -1000037         6   # BR(~b_1 -> ~chi_2- t )
     7.94762890E-01    2     1000021         5   # BR(~b_1 -> ~g      b )
     1.44830633E-03    2     1000006       -24   # BR(~b_1 -> ~t_1    W-)
#
#         PDG            Width
DECAY   2000005     3.17497476E+02   # sbottom2 decays
#          BR         NDA      ID1       ID2
     9.23291621E-03    2     1000022         5   # BR(~b_2 -> ~chi_10 b )
     2.19369537E-03    2     1000023         5   # BR(~b_2 -> ~chi_20 b )
     2.29291628E-03    2     1000025         5   # BR(~b_2 -> ~chi_30 b )
     2.84102844E-04    2     1000035         5   # BR(~b_2 -> ~chi_40 b )
     6.36308722E-03    2    -1000024         6   # BR(~b_2 -> ~chi_1- t )
     5.71602122E-04    2    -1000037         6   # BR(~b_2 -> ~chi_2- t )
     9.78979487E-01    2     1000021         5   # BR(~b_2 -> ~g      b )
     8.21925074E-05    2     1000006       -24   # BR(~b_2 -> ~t_1    W-)
#
#         PDG            Width
DECAY   1000002     3.36242349E+02   # sup_L decays
#          BR         NDA      ID1       ID2
     2.22339609E-03    2     1000022         2   # BR(~u_L -> ~chi_10 u)
     5.84522439E-05    2     1000023         2   # BR(~u_L -> ~chi_20 u)
     3.82627436E-06    2     1000025         2   # BR(~u_L -> ~chi_30 u)
     2.31727377E-02    2     1000035         2   # BR(~u_L -> ~chi_40 u)
     1.88985255E-04    2     1000024         1   # BR(~u_L -> ~chi_1+ d)
     4.63096760E-02    2     1000037         1   # BR(~u_L -> ~chi_2+ d)
     9.28042926E-01    2     1000021         2   # BR(~u_L -> ~g      u)
#
#         PDG            Width
DECAY   2000002     3.22697277E+02   # sup_R decays
#          BR         NDA      ID1       ID2
     3.68854372E-02    2     1000022         2   # BR(~u_R -> ~chi_10 u)
     1.18701995E-05    2     1000023         2   # BR(~u_R -> ~chi_20 u)
     1.53549768E-05    2     1000025         2   # BR(~u_R -> ~chi_30 u)
     2.97245319E-09    2     1000035         2   # BR(~u_R -> ~chi_40 u)
     9.63087335E-01    2     1000021         2   # BR(~u_R -> ~g      u)
#
#         PDG            Width
DECAY   1000001     3.36252765E+02   # sdown_L decays
#          BR         NDA      ID1       ID2
     2.21717969E-03    2     1000022         1   # BR(~d_L -> ~chi_10 d)
     3.54503030E-05    2     1000023         1   # BR(~d_L -> ~chi_20 d)
     1.50569746E-05    2     1000025         1   # BR(~d_L -> ~chi_30 d)
     2.31874535E-02    2     1000035         1   # BR(~d_L -> ~chi_40 d)
     3.01645250E-05    2    -1000024         2   # BR(~d_L -> ~chi_1- u)
     4.63988976E-02    2    -1000037         2   # BR(~d_L -> ~chi_2- u)
     9.28115797E-01    2     1000021         1   # BR(~d_L -> ~g      d)
#
#         PDG            Width
DECAY   2000001     3.13783488E+02   # sdown_R decays
#          BR         NDA      ID1       ID2
     9.48383438E-03    2     1000022         1   # BR(~d_R -> ~chi_10 d)
     3.05208204E-06    2     1000023         1   # BR(~d_R -> ~chi_20 d)
     3.94809309E-06    2     1000025         1   # BR(~d_R -> ~chi_30 d)
     7.64363069E-10    2     1000035         1   # BR(~d_R -> ~chi_40 d)
     9.90509165E-01    2     1000021         1   # BR(~d_R -> ~g      d)
#
#         PDG            Width
DECAY   1000004     3.36242349E+02   # scharm_L decays
#          BR         NDA      ID1       ID2
     2.22339609E-03    2     1000022         4   # BR(~c_L -> ~chi_10 c)
     5.84522439E-05    2     1000023         4   # BR(~c_L -> ~chi_20 c)
     3.82627436E-06    2     1000025         4   # BR(~c_L -> ~chi_30 c)
     2.31727377E-02    2     1000035         4   # BR(~c_L -> ~chi_40 c)
     1.88985255E-04    2     1000024         3   # BR(~c_L -> ~chi_1+ s)
     4.63096760E-02    2     1000037         3   # BR(~c_L -> ~chi_2+ s)
     9.28042926E-01    2     1000021         4   # BR(~c_L -> ~g      c)
#
#         PDG            Width
DECAY   2000004     3.22697277E+02   # scharm_R decays
#          BR         NDA      ID1       ID2
     3.68854372E-02    2     1000022         4   # BR(~c_R -> ~chi_10 c)
     1.18701995E-05    2     1000023         4   # BR(~c_R -> ~chi_20 c)
     1.53549768E-05    2     1000025         4   # BR(~c_R -> ~chi_30 c)
     2.97245319E-09    2     1000035         4   # BR(~c_R -> ~chi_40 c)
     9.63087335E-01    2     1000021         4   # BR(~c_R -> ~g      c)
#
#         PDG            Width
DECAY   1000003     3.36252765E+02   # sstrange_L decays
#          BR         NDA      ID1       ID2
     2.21717969E-03    2     1000022         3   # BR(~s_L -> ~chi_10 s)
     3.54503030E-05    2     1000023         3   # BR(~s_L -> ~chi_20 s)
     1.50569746E-05    2     1000025         3   # BR(~s_L -> ~chi_30 s)
     2.31874535E-02    2     1000035         3   # BR(~s_L -> ~chi_40 s)
     3.01645250E-05    2    -1000024         4   # BR(~s_L -> ~chi_1- c)
     4.63988976E-02    2    -1000037         4   # BR(~s_L -> ~chi_2- c)
     9.28115797E-01    2     1000021         3   # BR(~s_L -> ~g      s)
#
#         PDG            Width
DECAY   2000003     3.13783488E+02   # sstrange_R decays
#          BR         NDA      ID1       ID2
     9.48383438E-03    2     1000022         3   # BR(~s_R -> ~chi_10 s)
     3.05208204E-06    2     1000023         3   # BR(~s_R -> ~chi_20 s)
     3.94809309E-06    2     1000025         3   # BR(~s_R -> ~chi_30 s)
     7.64363069E-10    2     1000035         3   # BR(~s_R -> ~chi_40 s)
     9.90509165E-01    2     1000021         3   # BR(~s_R -> ~g      s)
#
#         PDG            Width
DECAY   1000011     3.02414591E+01   # selectron_L decays
#          BR         NDA      ID1       ID2
     2.26731383E-01    2     1000022        11   # BR(~e_L -> ~chi_10 e-)
     9.85606144E-04    2     1000023        11   # BR(~e_L -> ~chi_20 e-)
     1.16015611E-08    2     1000025        11   # BR(~e_L -> ~chi_30 e-)
     2.57104987E-01    2     1000035        11   # BR(~e_L -> ~chi_40 e-)
     3.40982520E-04    2    -1000024        12   # BR(~e_L -> ~chi_1- nu_e)
     5.14837030E-01    2    -1000037        12   # BR(~e_L -> ~chi_2- nu_e)
#
#         PDG            Width
DECAY   2000011     2.73619737E+01   # selectron_R decays
#          BR         NDA      ID1       ID2
     9.99264490E-01    2     1000022        11   # BR(~e_R -> ~chi_10 e-)
     3.20650417E-04    2     1000023        11   # BR(~e_R -> ~chi_20 e-)
     4.14781023E-04    2     1000025        11   # BR(~e_R -> ~chi_30 e-)
     7.89483581E-08    2     1000035        11   # BR(~e_R -> ~chi_40 e-)
#
#         PDG            Width
DECAY   1000013     3.02414591E+01   # smuon_L decays
#          BR         NDA      ID1       ID2
     2.26731383E-01    2     1000022        13   # BR(~mu_L -> ~chi_10 mu-)
     9.85606144E-04    2     1000023        13   # BR(~mu_L -> ~chi_20 mu-)
     1.16015611E-08    2     1000025        13   # BR(~mu_L -> ~chi_30 mu-)
     2.57104987E-01    2     1000035        13   # BR(~mu_L -> ~chi_40 mu-)
     3.40982520E-04    2    -1000024        14   # BR(~mu_L -> ~chi_1- nu_mu)
     5.14837030E-01    2    -1000037        14   # BR(~mu_L -> ~chi_2- nu_mu)
#
#         PDG            Width
DECAY   2000013     2.73619737E+01   # smuon_R decays
#          BR         NDA      ID1       ID2
     9.99264490E-01    2     1000022        13   # BR(~mu_R -> ~chi_10 mu-)
     3.20650417E-04    2     1000023        13   # BR(~mu_R -> ~chi_20 mu-)
     4.14781023E-04    2     1000025        13   # BR(~mu_R -> ~chi_30 mu-)
     7.89483581E-08    2     1000035        13   # BR(~mu_R -> ~chi_40 mu-)
#
#         PDG            Width
DECAY   1000015     2.89745924E+01   # stau_1 decays
#          BR         NDA      ID1       ID2
     9.24223950E-01    2     1000022        15   # BR(~tau_1 -> ~chi_10  tau-)
     1.41692481E-02    2     1000023        15   # BR(~tau_1 -> ~chi_20  tau-)
     1.28873572E-02    2     1000025        15   # BR(~tau_1 -> ~chi_30  tau-)
     7.28244002E-03    2     1000035        15   # BR(~tau_1 -> ~chi_40  tau-)
     2.68543172E-02    2    -1000024        16   # BR(~tau_1 -> ~chi_1-  nu_tau)
     1.45826873E-02    2    -1000037        16   # BR(~tau_1 -> ~chi_2-  nu_tau)
#
#         PDG            Width
DECAY   2000015     3.09288302E+01   # stau_2 decays
#          BR         NDA      ID1       ID2
     2.39721517E-01    2     1000022        15   # BR(~tau_2 -> ~chi_10  tau-)
     1.29183461E-02    2     1000023        15   # BR(~tau_2 -> ~chi_20  tau-)
     1.32058083E-02    2     1000025        15   # BR(~tau_2 -> ~chi_30  tau-)
     2.44495244E-01    2     1000035        15   # BR(~tau_2 -> ~chi_40  tau-)
     7.39569551E-05    2    -1000024        16   # BR(~tau_2 -> ~chi_1-  nu_tau)
     4.89585127E-01    2    -1000037        16   # BR(~tau_2 -> ~chi_2-  nu_tau)
#
#         PDG            Width
DECAY   1000012     3.02435002E+01   # snu_eL decays
#          BR         NDA      ID1       ID2
     2.26456961E-01    2     1000022        12   # BR(~nu_eL -> ~chi_10 nu_e)
     2.05290892E-04    2     1000023        12   # BR(~nu_eL -> ~chi_20 nu_e)
     3.80728077E-04    2     1000025        12   # BR(~nu_eL -> ~chi_30 nu_e)
     2.57194455E-01    2     1000035        12   # BR(~nu_eL -> ~chi_40 nu_e)
     2.13581284E-03    2     1000024        11   # BR(~nu_eL -> ~chi_1+ e-)
     5.13626752E-01    2     1000037        11   # BR(~nu_eL -> ~chi_2+ e-)
#
#         PDG            Width
DECAY   1000014     3.02435002E+01   # snu_muL decays
#          BR         NDA      ID1       ID2
     2.26456961E-01    2     1000022        14   # BR(~nu_muL -> ~chi_10 nu_mu)
     2.05290892E-04    2     1000023        14   # BR(~nu_muL -> ~chi_20 nu_mu)
     3.80728077E-04    2     1000025        14   # BR(~nu_muL -> ~chi_30 nu_mu)
     2.57194455E-01    2     1000035        14   # BR(~nu_muL -> ~chi_40 nu_mu)
     2.13581284E-03    2     1000024        13   # BR(~nu_muL -> ~chi_1+ mu-)
     5.13626752E-01    2     1000037        13   # BR(~nu_muL -> ~chi_2+ mu-)
#
#         PDG            Width
DECAY   1000016     3.10073093E+01   # snu_tauL decays
#          BR         NDA      ID1       ID2
     2.20854862E-01    2     1000022        16   # BR(~nu_tauL -> ~chi_10 nu_tau)
     2.00203977E-04    2     1000023        16   # BR(~nu_tauL -> ~chi_20 nu_tau)
     3.71293937E-04    2     1000025        16   # BR(~nu_tauL -> ~chi_30 nu_tau)
     2.50767221E-01    2     1000035        16   # BR(~nu_tauL -> ~chi_40 nu_tau)
     2.70136598E-02    2     1000024        15   # BR(~nu_tauL -> ~chi_1+ tau-)
     5.00792760E-01    2     1000037        15   # BR(~nu_tauL -> ~chi_2+ tau-)
#
#         PDG            Width
DECAY   1000024     9.23252211E-01   # chargino1+ decays
#          BR         NDA      ID1       ID2
     1.00000000E+00    2     1000022        24   # BR(~chi_1+ -> ~chi_10  W+)
#
#         PDG            Width
DECAY   1000037     1.84113902E+01   # chargino2+ decays
#          BR         NDA      ID1       ID2
     2.52723370E-01    2     1000024        23   # BR(~chi_2+ -> ~chi_1+  Z )
     2.61291427E-04    2     1000022        24   # BR(~chi_2+ -> ~chi_10  W+)
     2.44055067E-01    2     1000023        24   # BR(~chi_2+ -> ~chi_20  W+)
     2.43714814E-01    2     1000025        24   # BR(~chi_2+ -> ~chi_30  W+)
     2.59245094E-01    2     1000024        25   # BR(~chi_2+ -> ~chi_1+  h )
     3.63808520E-07    2     1000022        37   # BR(~chi_2+ -> ~chi_10  H+)
#
#         PDG            Width
DECAY   1000022     0.00000000E+00   # neutralino1 decays
#
#         PDG            Width
DECAY   1000023     9.70019029E-01   # neutralino2 decays
#          BR         NDA      ID1       ID2
     5.56522122E-01    2     1000022        23   # BR(~chi_20 -> ~chi_10   Z )
     4.43477878E-01    2     1000022        25   # BR(~chi_20 -> ~chi_10   h )
#
#         PDG            Width
DECAY   1000025     9.79564637E-01   # neutralino3 decays
#          BR         NDA      ID1       ID2
     4.26576594E-01    2     1000022        23   # BR(~chi_30 -> ~chi_10   Z )
     5.73423406E-01    2     1000022        25   # BR(~chi_30 -> ~chi_10   h )
#
#         PDG            Width
DECAY   1000035     1.84116893E+01   # neutralino4 decays
#          BR         NDA      ID1       ID2
     9.39912067E-05    2     1000022        23   # BR(~chi_40 -> ~chi_10   Z )
     3.95236951E-02    2     1000023        23   # BR(~chi_40 -> ~chi_20   Z )
     2.12667752E-01    2     1000025        23   # BR(~chi_40 -> ~chi_30   Z )
     2.44359831E-01    2     1000024       -24   # BR(~chi_40 -> ~chi_1+   W-)
     2.44359831E-01    2    -1000024        24   # BR(~chi_40 -> ~chi_1-   W+)
     1.73513839E-04    2     1000022        25   # BR(~chi_40 -> ~chi_10   h )
     3.27875306E-07    2     1000022        35   # BR(~chi_40 -> ~chi_10   H )
     4.93151165E-08    2     1000022        36   # BR(~chi_40 -> ~chi_10   A )
     2.19350160E-01    2     1000023        25   # BR(~chi_40 -> ~chi_20   h )
     3.94708487E-02    2     1000025        25   # BR(~chi_40 -> ~chi_30   h )
#
#         PDG            Width
DECAY        25     4.00866757E-03   # h decays
#          BR         NDA      ID1       ID2
     6.16371472E-01    2           5        -5   # BR(h -> b       bb     )
     6.44572020E-02    2         -15        15   # BR(h -> tau+    tau-   )
     2.28203981E-04    2         -13        13   # BR(h -> mu+     mu-    )
     4.84127482E-04    2           3        -3   # BR(h -> s       sb     )
     2.09803908E-02    2           4        -4   # BR(h -> c       cb     )
     6.73333951E-02    2          21        21   # BR(h -> g       g      )
     2.30471813E-03    2          22        22   # BR(h -> gam     gam    )
     1.44736688E-03    2          22        23   # BR(h -> Z       gam    )
     2.02433502E-01    2          24       -24   # BR(h -> W+      W-     )
     2.39317289E-02    2          23        23   # BR(h -> Z       Z      )
     2.78920793E-05    2     1000022   1000022   # BR(h -> ~chi_10 ~chi_10)
#
#         PDG            Width
DECAY        35     7.25814466E+00   # H decays
#          BR         NDA      ID1       ID2
     4.48543735E-01    2           5        -5   # BR(H -> b       bb     )
     7.68363271E-02    2         -15        15   # BR(H -> tau+    tau-   )
     2.71699356E-04    2         -13        13   # BR(H -> mu+     mu-    )
     3.33061788E-04    2           3        -3   # BR(H -> s       sb     )
     1.85899730E-06    2           4        -4   # BR(H -> c       cb     )
     1.85728562E-01    2           6        -6   # BR(H -> t       tb     )
     6.16234618E-05    2          21        21   # BR(H -> g       g      )
     3.88451668E-07    2          22        22   # BR(H -> gam     gam    )
     1.09565841E-07    2          23        22   # BR(H -> Z       gam    )
     8.19671382E-05    2          24       -24   # BR(H -> W+      W-     )
     4.09316877E-05    2          23        23   # BR(H -> Z       Z      )
     3.13544250E-04    2          25        25   # BR(H -> h       h      )
     1.71968729E-24    2          36        36   # BR(H -> A       A      )
     8.34101069E-19    2          23        36   # BR(H -> Z       A      )
     3.20437723E-09    2     1000024  -1000024   # BR(H -> ~chi_1+ ~chi_1-)
     8.85110332E-04    2     1000022   1000022   # BR(H -> ~chi_10 ~chi_10)
     1.92646901E-08    2     1000023   1000023   # BR(H -> ~chi_20 ~chi_20)
     1.70483217E-01    2     1000022   1000023   # BR(H -> ~chi_10 ~chi_20)
     1.16417842E-01    2     1000022   1000025   # BR(H -> ~chi_10 ~chi_30)
#
#         PDG            Width
DECAY        36     7.26085898E+00   # A decays
#          BR         NDA      ID1       ID2
     4.48526241E-01    2           5        -5   # BR(A -> b       bb     )
     7.68096873E-02    2         -15        15   # BR(A -> tau+    tau-   )
     2.71604776E-04    2         -13        13   # BR(A -> mu+     mu-    )
     3.33188993E-04    2           3        -3   # BR(A -> s       sb     )
     1.86610844E-06    2           4        -4   # BR(A -> c       cb     )
     1.86336146E-01    2           6        -6   # BR(A -> t       tb     )
     1.84476145E-04    2          21        21   # BR(A -> g       g      )
     2.67936561E-07    2          22        22   # BR(A -> gam     gam    )
     2.23306765E-07    2          23        22   # BR(A -> Z       gam    )
     8.16294666E-05    2          23        25   # BR(A -> Z       h      )
     9.10728232E-04    2     1000022   1000022   # BR(A -> ~chi_10 ~chi_10)
     1.52431942E-05    2     1000023   1000023   # BR(A -> ~chi_20 ~chi_20)
     1.17761371E-01    2     1000022   1000023   # BR(A -> ~chi_10 ~chi_20)
     1.68767326E-01    2     1000022   1000025   # BR(A -> ~chi_10 ~chi_30)
#
#         PDG            Width
DECAY        37     7.23489404E+00   # H+ decays
#          BR         NDA      ID1       ID2
     7.18250312E-04    2           4        -5   # BR(H+ -> c       bb     )
     7.71079397E-02    2         -15        16   # BR(H+ -> tau+    nu_tau )
     2.72659418E-04    2         -13        14   # BR(H+ -> mu+     nu_mu  )
     4.59677830E-06    2           2        -5   # BR(H+ -> u       bb     )
     1.59990825E-05    2           2        -3   # BR(H+ -> u       sb     )
     3.30858295E-04    2           4        -3   # BR(H+ -> c       sb     )
     6.32000638E-01    2           6        -5   # BR(H+ -> t       bb     )
     8.20470938E-05    2          24        25   # BR(H+ -> W+      h      )
     9.54905066E-14    2          24        36   # BR(H+ -> W+      A      )
     2.89451347E-01    2     1000024   1000022   # BR(H+ -> ~chi_1+ ~chi_10)
     1.56644651E-05    2     1000024   1000023   # BR(H+ -> ~chi_1+ ~chi_20)
