#
#                              ======================
#                              | THE SUSYHIT OUTPUT |
#                              ======================
#
#
#              ------------------------------------------------------
#              |     This is the output of the SUSY-HIT package     |
#              |  created by A.Djouadi, M.Muehlleitner and M.Spira. |
#              |  In case of problems with SUSY-HIT email to        |
#              |           margarete.muehlleitner@kit.edu           |
#              |           michael.spira@psi.ch                     |
#              |           abdelhak.djouadi@cern.ch                 |
#              ------------------------------------------------------
#
#              ------------------------------------------------------
#              |  SUSY Les Houches Accord - MSSM Spectrum + Decays  |
#              |              based on the decay programs           |
#              |                                                    |
#              |                     SDECAY 1.5                     |
#              |                                                    |
#              |  Authors: M.Muhlleitner, A.Djouadi and Y.Mambrini  |
#              |  Ref.:    Comput.Phys.Commun.168(2005)46           |
#              |           [hep-ph/0311167]                         |
#              |                                                    |
#              |                     HDECAY 3.4                     |
#              |                                                    |
#              |  By: A.Djouadi,J.Kalinowski,M.Muhlleitner,M.Spira  |
#              |  Ref.:    Comput.Phys.Commun.108(1998)56           |
#              |           [hep-ph/9704448]                         |
#              |                                                    |
#              |                                                    |
#              |  If not stated otherwise all DRbar couplings and   |
#              |  soft SUSY breaking masses are given at the scale  |
#              |  Q=  0.91187600E+02
#              |                                                    |
#              ------------------------------------------------------
#
#
BLOCK DCINFO  # Decay Program information
     1   SDECAY/HDECAY # decay calculator
     2   1.5  /3.4    # version number
#
BLOCK SPINFO  # Spectrum calculator information
     1   SuSpect     # RGE +Spectrum calculator            
     2   2.43         # version number                     
#
BLOCK MODSEL  # Model selection
     1     2   # GMSB                                              
#
BLOCK SMINPUTS  # Standard Model inputs
         1     1.27932904E+02   # alpha_em^-1(M_Z)^MSbar
         2     1.16639000E-05   # G_F [GeV^-2]
         3     1.17200000E-01   # alpha_S(M_Z)^MSbar
         4     9.11870000E+01   # M_Z pole mass
         5     4.25000000E+00   # mb(mb)^MSbar
         6     1.72900000E+02   # mt pole mass
         7     1.77700000E+00   # mtau pole mass
#
BLOCK MINPAR  # Input parameters - minimal models
#
BLOCK EXTPAR  # Input parameters - non-minimal models
         0     9.11876000E+01   # EWSB                
         1     1.05200000E+03   # M_1                 
         2     3.00000000E+03   # M_2                 
         3     2.40000000E+03   # M_3                 
        11     0.00000000E+00   # A_t                 
        12     0.00000000E+00   # A_b                 
        13     0.00000000E+00   # A_tau               
        14     0.00000000E+00   # A_u                 
        15     0.00000000E+00   # A_d                 
        16     0.00000000E+00   # A_e                 
        23     1.05000000E+03   # mu(EWSB)            
        25     1.50000000E+00   # tanbeta(in)         
        26     2.00000000E+03   # MA_pole             
        31     5.00000000E+03   # M_eL                
        32     5.00000000E+03   # M_muL               
        33     5.00000000E+03   # M_tauL              
        34     5.00000000E+03   # M_eR                
        35     5.00000000E+03   # M_muR               
        36     5.00000000E+03   # M_tauR              
        41     5.00000000E+03   # M_q1L               
        42     5.00000000E+03   # M_q2L               
        43     5.00000000E+03   # M_q3L               
        44     5.00000000E+03   # M_uR                
        45     5.00000000E+03   # M_cR                
        46     5.00000000E+03   # M_tR                
        47     5.00000000E+03   # M_dR                
        48     5.00000000E+03   # M_sR                
        49     5.00000000E+03   # M_bR                
#
BLOCK MASS  # Mass Spectrum
# PDG code           mass       particle
        24     8.05405906E+01   # W+
        25     1.26000000E+02   # h
        35     2.00408651E+03   # H
        36     2.00000000E+03   # A
        37     2.00156545E+03   # H+
         5     4.87877839E+00   # b-quark pole mass calculated from mb(mb)_Msbar
   1000001     4.89730102E+03   # ~d_L
   2000001     4.89719022E+03   # ~d_R
   1000002     4.89705330E+03   # ~u_L
   2000002     4.89711187E+03   # ~u_R
   1000003     4.89730102E+03   # ~s_L
   2000003     4.89719022E+03   # ~s_R
   1000004     4.89705330E+03   # ~c_L
   2000004     4.89711187E+03   # ~c_R
   1000005     4.89680697E+03   # ~b_1
   2000005     4.89768571E+03   # ~b_2
   1000006     5.02306947E+03   # ~t_1
   2000006     5.32407482E+03   # ~t_2
   1000011     5.00008223E+03   # ~e_L
   2000011     5.00007607E+03   # ~e_R
   1000012     4.99984170E+03   # ~nu_eL
   1000013     5.00008223E+03   # ~mu_L
   2000013     5.00007607E+03   # ~mu_R
   1000014     4.99984170E+03   # ~nu_muL
   1000015     4.99979938E+03   # ~tau_1
   2000015     5.00035953E+03   # ~tau_2
   1000016     4.99984170E+03   # ~nu_tauL
   1000021     2.41237015E+03   # ~g
   1000022     1.07295152E+03   # ~chi_10
   1000023    -1.12048264E+03   # ~chi_20
   1000025     1.16011581E+03   # ~chi_30
   1000035     3.12881534E+03   # ~chi_40
   1000024     1.11745444E+03   # ~chi_1+
   1000037     3.12881400E+03   # ~chi_2+
   1000039     1.00000000E-09   # ~gravitino
#
BLOCK NMIX  # Neutralino Mixing Matrix
  1  1     7.14077998E-01   # N_11
  1  2    -2.64030950E-02   # N_12
  1  3     4.96804545E-01   # N_13
  1  4    -4.92524856E-01   # N_14
  2  1     3.90428483E-03   # N_21
  2  2    -3.65604838E-03   # N_22
  2  3    -7.06953465E-01   # N_23
  2  4    -7.07239838E-01   # N_24
  3  1     7.00054744E-01   # N_31
  3  2     2.81684190E-02   # N_32
  3  3    -5.02783526E-01   # N_33
  3  4     5.06298945E-01   # N_34
  4  1     8.51932763E-04   # N_41
  4  2    -9.99247742E-01   # N_42
  4  3    -2.47137296E-02   # N_43
  4  4     2.98739974E-02   # N_44
#
BLOCK UMIX  # Chargino Mixing Matrix U
  1  1    -3.49323190E-02   # U_11
  1  2     9.99389680E-01   # U_12
  2  1     9.99389680E-01   # U_21
  2  2     3.49323190E-02   # U_22
#
BLOCK VMIX  # Chargino Mixing Matrix V
  1  1    -4.22316954E-02   # V_11
  1  2     9.99107844E-01   # V_12
  2  1     9.99107844E-01   # V_21
  2  2     4.22316954E-02   # V_22
#
BLOCK STOPMIX  # Stop Mixing Matrix
  1  1     9.99971022E-01   # cos(theta_t)
  1  2    -7.61282866E-03   # sin(theta_t)
  2  1     7.61282866E-03   # -sin(theta_t)
  2  2     9.99971022E-01   # cos(theta_t)
#
BLOCK SBOTMIX  # Sbottom Mixing Matrix
  1  1     6.61026195E-01   # cos(theta_b)
  1  2     7.50362825E-01   # sin(theta_b)
  2  1    -7.50362825E-01   # -sin(theta_b)
  2  2     6.61026195E-01   # cos(theta_b)
#
BLOCK STAUMIX  # Stau Mixing Matrix
  1  1     7.03207139E-01   # cos(theta_tau)
  1  2     7.10985035E-01   # sin(theta_tau)
  2  1    -7.10985035E-01   # -sin(theta_tau)
  2  2     7.03207139E-01   # cos(theta_tau)
#
BLOCK ALPHA  # Higgs mixing
          -5.90206883E-01   # Mixing angle in the neutral Higgs boson sector
#
BLOCK HMIX Q=  9.11876000E+01  # DRbar Higgs Parameters
         1     1.05000000E+03   # mu(Q)               
         2     1.49999979E+00   # tanbeta(Q)          
         3     2.52100618E+02   # vev(Q)              
         4     3.47588018E+06   # MA^2(Q)             
#
BLOCK GAUGE Q=  9.11876000E+01  # The gauge couplings
     1     3.52814236E-01   # gprime(Q) DRbar
     2     6.27374258E-01   # g(Q) DRbar
     3     1.07754546E+00   # g3(Q) DRbar
#
BLOCK AU Q=  9.11876000E+01  # The trilinear couplings
  1  1     0.00000000E+00   # A_u(Q) DRbar
  2  2     0.00000000E+00   # A_c(Q) DRbar
  3  3     0.00000000E+00   # A_t(Q) DRbar
#
BLOCK AD Q=  9.11876000E+01  # The trilinear couplings
  1  1     0.00000000E+00   # A_d(Q) DRbar
  2  2     0.00000000E+00   # A_s(Q) DRbar
  3  3     0.00000000E+00   # A_b(Q) DRbar
#
BLOCK AE Q=  9.11876000E+01  # The trilinear couplings
  1  1     0.00000000E+00   # A_e(Q) DRbar
  2  2     0.00000000E+00   # A_mu(Q) DRbar
  3  3     0.00000000E+00   # A_tau(Q) DRbar
#
BLOCK Yu Q=  9.11876000E+01  # The Yukawa couplings
  1  1     0.00000000E+00   # y_u(Q) DRbar
  2  2     0.00000000E+00   # y_c(Q) DRbar
  3  3     1.02588932E+00   # y_t(Q) DRbar
#
BLOCK Yd Q=  9.11876000E+01  # The Yukawa couplings
  1  1     0.00000000E+00   # y_d(Q) DRbar
  2  2     0.00000000E+00   # y_s(Q) DRbar
  3  3     2.71752456E-02   # y_b(Q) DRbar
#
BLOCK Ye Q=  9.11876000E+01  # The Yukawa couplings
  1  1     0.00000000E+00   # y_e(Q) DRbar
  2  2     0.00000000E+00   # y_mu(Q) DRbar
  3  3     1.79826522E-02   # y_tau(Q) DRbar
#
BLOCK MSOFT Q=  9.11876000E+01  # The soft SUSY breaking masses at the scale Q
         1     1.05200000E+03   # M_1                 
         2     3.00000000E+03   # M_2                 
         3     2.40000000E+03   # M_3                 
        14     0.00000000E+00   # A_u                 
        15     0.00000000E+00   # A_d                 
        16     0.00000000E+00   # A_e                 
        21     1.81604798E+06   # M^2_Hd              
        22    -6.36598711E+06   # M^2_Hu              
        31     5.00000000E+03   # M_eL                
        32     5.00000000E+03   # M_muL               
        33     5.00000000E+03   # M_tauL              
        34     5.00000000E+03   # M_eR                
        35     5.00000000E+03   # M_muR               
        36     5.00000000E+03   # M_tauR              
        41     5.00000000E+03   # M_q1L               
        42     5.00000000E+03   # M_q2L               
        43     5.00000000E+03   # M_q3L               
        44     5.00000000E+03   # M_uR                
        45     5.00000000E+03   # M_cR                
        46     5.00000000E+03   # M_tR                
        47     5.00000000E+03   # M_dR                
        48     5.00000000E+03   # M_sR                
        49     5.00000000E+03   # M_bR                
#
#
#
#                             =================
#                             |The decay table|
#                             =================
#
# - The QCD corrections to the decays gluino -> squark  + quark
#                                     squark -> gaugino + quark_prime
#                                     squark -> squark_prime + Higgs
#                                     squark -> gluino  + quark
#   are included.
#
# - The multi-body decays for the inos, stops and sbottoms are included.
#
# - The loop induced decays for the gluino, neutralinos and stops
#   are included.
#
# - The SUSY decays of the top quark are included.
#
# - Possible decays of the NLSP in GMSB models are included.
#
#
#         PDG            Width
DECAY         6     1.37137629E+00   # top decays
#          BR         NDA      ID1       ID2
     1.00000000E+00    2           5        24   # BR(t ->  b    W+)
#
#         PDG            Width
DECAY   1000021     2.59342669E-03   # gluino decays
#          BR         NDA      ID1       ID2
     5.51947332E-03    2     1000022        21   # BR(~g -> ~chi_10 g)
     1.04288903E-02    2     1000023        21   # BR(~g -> ~chi_20 g)
     4.86475725E-03    2     1000025        21   # BR(~g -> ~chi_30 g)
#          BR         NDA      ID1       ID2
0.0E+00    2     1000039    21 # BR(~g -> ~G      g)
#           BR         NDA      ID1       ID2       ID3
     5.83977413E-03    3     1000022         1        -1   # BR(~g -> ~chi_10 d  db)
     4.53186854E-07    3     1000023         1        -1   # BR(~g -> ~chi_20 d  db)
     3.78583382E-03    3     1000025         1        -1   # BR(~g -> ~chi_30 d  db)
     1.78911325E-02    3     1000022         2        -2   # BR(~g -> ~chi_10 u  ub)
     3.62705045E-07    3     1000023         2        -2   # BR(~g -> ~chi_20 u  ub)
     1.43314466E-02    3     1000025         2        -2   # BR(~g -> ~chi_30 u  ub)
     5.83977413E-03    3     1000022         3        -3   # BR(~g -> ~chi_10 s  sb)
     4.53186854E-07    3     1000023         3        -3   # BR(~g -> ~chi_20 s  sb)
     3.78583382E-03    3     1000025         3        -3   # BR(~g -> ~chi_30 s  sb)
     1.78911325E-02    3     1000022         4        -4   # BR(~g -> ~chi_10 c  cb)
     3.62705045E-07    3     1000023         4        -4   # BR(~g -> ~chi_20 c  cb)
     1.43314466E-02    3     1000025         4        -4   # BR(~g -> ~chi_30 c  cb)
     5.93261799E-03    3     1000022         5        -5   # BR(~g -> ~chi_10 b  bb)
     2.09251385E-04    3     1000023         5        -5   # BR(~g -> ~chi_20 b  bb)
     3.89655519E-03    3     1000025         5        -5   # BR(~g -> ~chi_30 b  bb)
     1.04500561E-01    3     1000022         6        -6   # BR(~g -> ~chi_10 t  tb)
     1.82349187E-01    3     1000023         6        -6   # BR(~g -> ~chi_20 t  tb)
     1.11143190E-01    3     1000025         6        -6   # BR(~g -> ~chi_30 t  tb)
     1.59829808E-04    3     1000024         1        -2   # BR(~g -> ~chi_1+ d  ub)
     1.59829808E-04    3    -1000024         2        -1   # BR(~g -> ~chi_1- u  db)
     1.59829808E-04    3     1000024         3        -4   # BR(~g -> ~chi_1+ s  cb)
     1.59829808E-04    3    -1000024         4        -3   # BR(~g -> ~chi_1- c  sb)
     2.25274739E-01    3     1000024         5        -6   # BR(~g -> ~chi_1+ b  tb)
     2.25274739E-01    3    -1000024         6        -5   # BR(~g -> ~chi_1- t  bb)
#
#         PDG            Width
DECAY   1000006     2.49699974E+02   # stop1 decays
#          BR         NDA      ID1       ID2
     6.23767849E-02    2     1000022         6   # BR(~t_1 -> ~chi_10 t )
     1.29892411E-01    2     1000023         6   # BR(~t_1 -> ~chi_20 t )
     6.97449465E-02    2     1000025         6   # BR(~t_1 -> ~chi_30 t )
     2.88381659E-02    2     1000035         6   # BR(~t_1 -> ~chi_40 t )
    -5.46149990E-05    2     1000024         5   # BR(~t_1 -> ~chi_1+ b )
     5.73336561E-02    2     1000037         5   # BR(~t_1 -> ~chi_2+ b )
     6.32744466E-01    2     1000021         6   # BR(~t_1 -> ~g      t )
     8.52202877E-03    2     1000005        24   # BR(~t_1 -> ~b_1    W+)
     1.06021551E-02    2     2000005        24   # BR(~t_1 -> ~b_2    W+)
#
#         PDG            Width
DECAY   2000006     3.27012406E+02   # stop2 decays
#          BR         NDA      ID1       ID2
     6.97635836E-02    2     1000022         6   # BR(~t_2 -> ~chi_10 t )
     1.07256266E-01    2     1000023         6   # BR(~t_2 -> ~chi_20 t )
     6.87445080E-02    2     1000025         6   # BR(~t_2 -> ~chi_30 t )
    -2.75562417E-05    2     1000035         6   # BR(~t_2 -> ~chi_40 t )
     2.14833014E-01    2     1000024         5   # BR(~t_2 -> ~chi_1+ b )
    -5.45958734E-05    2     1000037         5   # BR(~t_2 -> ~chi_2+ b )
     5.39587642E-01    2     1000021         6   # BR(~t_2 -> ~g      t )
    -1.61318295E-04    2     1000006        25   # BR(~t_2 -> ~t_1    h )
     9.64269707E-06    2     1000006        23   # BR(~t_2 -> ~t_1    Z )
     2.13724406E-05    2     1000005        24   # BR(~t_2 -> ~b_1    W+)
     2.74417134E-05    2     2000005        24   # BR(~t_2 -> ~b_2    W+)
#
#         PDG            Width
DECAY   1000005     1.83955258E+02   # sbottom1 decays
#          BR         NDA      ID1       ID2
     5.94042233E-03    2     1000022         5   # BR(~b_1 -> ~chi_10 b )
     1.02774287E-04    2     1000023         5   # BR(~b_1 -> ~chi_20 b )
     3.34579267E-03    2     1000025         5   # BR(~b_1 -> ~chi_30 b )
     1.37297205E-02    2     1000035         5   # BR(~b_1 -> ~chi_40 b )
     1.26708740E-01    2    -1000024         6   # BR(~b_1 -> ~chi_1- t )
     2.76185900E-02    2    -1000037         6   # BR(~b_1 -> ~chi_2- t )
     8.22553960E-01    2     1000021         5   # BR(~b_1 -> ~g      b )
#
#         PDG            Width
DECAY   2000005     2.04081337E+02   # sbottom2 decays
#          BR         NDA      ID1       ID2
     2.73065986E-03    2     1000022         5   # BR(~b_2 -> ~chi_10 b )
     1.27247859E-04    2     1000023         5   # BR(~b_2 -> ~chi_20 b )
     3.49929845E-03    2     1000025         5   # BR(~b_2 -> ~chi_30 b )
     1.95102292E-02    2     1000035         5   # BR(~b_2 -> ~chi_40 b )
     1.94159195E-01    2    -1000024         6   # BR(~b_2 -> ~chi_1- t )
     3.92606140E-02    2    -1000037         6   # BR(~b_2 -> ~chi_2- t )
     7.40712756E-01    2     1000021         5   # BR(~b_2 -> ~g      b )
#
#         PDG            Width
DECAY   1000002     1.71402341E+02   # sup_L decays
#          BR         NDA      ID1       ID2
     1.12643987E-03    2     1000022         2   # BR(~u_L -> ~chi_10 u)
     8.26668146E-07    2     1000023         2   # BR(~u_L -> ~chi_20 u)
     2.43705354E-03    2     1000025         2   # BR(~u_L -> ~chi_30 u)
     3.79323608E-02    2     1000035         2   # BR(~u_L -> ~chi_40 u)
     3.45055922E-04    2     1000024         1   # BR(~u_L -> ~chi_1+ d)
     7.58678174E-02    2     1000037         1   # BR(~u_L -> ~chi_2+ d)
     8.82290446E-01    2     1000021         2   # BR(~u_L -> ~g      u)
#
#         PDG            Width
DECAY   2000002     1.60554879E+02   # sup_R decays
#          BR         NDA      ID1       ID2
     2.98582251E-02    2     1000022         2   # BR(~u_R -> ~chi_10 u)
     8.84555853E-07    2     1000023         2   # BR(~u_R -> ~chi_20 u)
     2.82151253E-02    2     1000025         2   # BR(~u_R -> ~chi_30 u)
     1.65554852E-08    2     1000035         2   # BR(~u_R -> ~chi_40 u)
     9.41925748E-01    2     1000021         2   # BR(~u_R -> ~g      u)
#
#         PDG            Width
DECAY   1000001     1.71409817E+02   # sdown_L decays
#          BR         NDA      ID1       ID2
     2.50564735E-03    2     1000022         1   # BR(~d_L -> ~chi_10 d)
     1.86145915E-06    2     1000023         1   # BR(~d_L -> ~chi_20 d)
     1.01881782E-03    2     1000025         1   # BR(~d_L -> ~chi_30 d)
     3.79621323E-02    2     1000035         1   # BR(~d_L -> ~chi_40 d)
     2.36088838E-04    2    -1000024         2   # BR(~d_L -> ~chi_1- u)
     7.59216547E-02    2    -1000037         2   # BR(~d_L -> ~chi_2- u)
     8.82353797E-01    2     1000021         1   # BR(~d_L -> ~g      d)
#
#         PDG            Width
DECAY   2000001     1.53567368E+02   # sdown_R decays
#          BR         NDA      ID1       ID2
     7.80435501E-03    2     1000022         1   # BR(~d_R -> ~chi_10 d)
     2.31205638E-07    2     1000023         1   # BR(~d_R -> ~chi_20 d)
     7.37488510E-03    2     1000025         1   # BR(~d_R -> ~chi_30 d)
     4.32745375E-09    2     1000035         1   # BR(~d_R -> ~chi_40 d)
     9.84820524E-01    2     1000021         1   # BR(~d_R -> ~g      d)
#
#         PDG            Width
DECAY   1000004     1.71402341E+02   # scharm_L decays
#          BR         NDA      ID1       ID2
     1.12643987E-03    2     1000022         4   # BR(~c_L -> ~chi_10 c)
     8.26668146E-07    2     1000023         4   # BR(~c_L -> ~chi_20 c)
     2.43705354E-03    2     1000025         4   # BR(~c_L -> ~chi_30 c)
     3.79323608E-02    2     1000035         4   # BR(~c_L -> ~chi_40 c)
     3.45055922E-04    2     1000024         3   # BR(~c_L -> ~chi_1+ s)
     7.58678174E-02    2     1000037         3   # BR(~c_L -> ~chi_2+ s)
     8.82290446E-01    2     1000021         4   # BR(~c_L -> ~g      c)
#
#         PDG            Width
DECAY   2000004     1.60554879E+02   # scharm_R decays
#          BR         NDA      ID1       ID2
     2.98582251E-02    2     1000022         4   # BR(~c_R -> ~chi_10 c)
     8.84555853E-07    2     1000023         4   # BR(~c_R -> ~chi_20 c)
     2.82151253E-02    2     1000025         4   # BR(~c_R -> ~chi_30 c)
     1.65554852E-08    2     1000035         4   # BR(~c_R -> ~chi_40 c)
     9.41925748E-01    2     1000021         4   # BR(~c_R -> ~g      c)
#
#         PDG            Width
DECAY   1000003     1.71409817E+02   # sstrange_L decays
#          BR         NDA      ID1       ID2
     2.50564735E-03    2     1000022         3   # BR(~s_L -> ~chi_10 s)
     1.86145915E-06    2     1000023         3   # BR(~s_L -> ~chi_20 s)
     1.01881782E-03    2     1000025         3   # BR(~s_L -> ~chi_30 s)
     3.79621323E-02    2     1000035         3   # BR(~s_L -> ~chi_40 s)
     2.36088838E-04    2    -1000024         4   # BR(~s_L -> ~chi_1- c)
     7.59216547E-02    2    -1000037         4   # BR(~s_L -> ~chi_2- c)
     8.82353797E-01    2     1000021         3   # BR(~s_L -> ~g      s)
#
#         PDG            Width
DECAY   2000003     1.53567368E+02   # sstrange_R decays
#          BR         NDA      ID1       ID2
     7.80435501E-03    2     1000022         3   # BR(~s_R -> ~chi_10 s)
     2.31205638E-07    2     1000023         3   # BR(~s_R -> ~chi_20 s)
     7.37488510E-03    2     1000025         3   # BR(~s_R -> ~chi_30 s)
     4.32745375E-09    2     1000035         3   # BR(~s_R -> ~chi_40 s)
     9.84820524E-01    2     1000021         3   # BR(~s_R -> ~g      s)
#
#         PDG            Width
DECAY   1000011     2.73749347E+01   # selectron_L decays
#          BR         NDA      ID1       ID2
     9.15984823E-02    2     1000022        11   # BR(~e_L -> ~chi_10 e-)
     1.37586292E-06    2     1000023        11   # BR(~e_L -> ~chi_20 e-)
     1.13930787E-01    2     1000025        11   # BR(~e_L -> ~chi_30 e-)
     2.64078822E-01    2     1000035        11   # BR(~e_L -> ~chi_40 e-)
     1.57528275E-03    2    -1000024        12   # BR(~e_L -> ~chi_1- nu_e)
     5.28815250E-01    2    -1000037        12   # BR(~e_L -> ~chi_2- nu_e)
#
#         PDG            Width
DECAY   2000011     2.23567344E+01   # selectron_R decays
#          BR         NDA      ID1       ID2
     5.14002582E-01    2     1000022        11   # BR(~e_R -> ~chi_10 e-)
     1.52318162E-05    2     1000023        11   # BR(~e_R -> ~chi_20 e-)
     4.85981888E-01    2     1000025        11   # BR(~e_R -> ~chi_30 e-)
     2.97615832E-07    2     1000035        11   # BR(~e_R -> ~chi_40 e-)
#
#         PDG            Width
DECAY   1000013     2.73749347E+01   # smuon_L decays
#          BR         NDA      ID1       ID2
     9.15984823E-02    2     1000022        13   # BR(~mu_L -> ~chi_10 mu-)
     1.37586292E-06    2     1000023        13   # BR(~mu_L -> ~chi_20 mu-)
     1.13930787E-01    2     1000025        13   # BR(~mu_L -> ~chi_30 mu-)
     2.64078822E-01    2     1000035        13   # BR(~mu_L -> ~chi_40 mu-)
     1.57528275E-03    2    -1000024        14   # BR(~mu_L -> ~chi_1- nu_mu)
     5.28815250E-01    2    -1000037        14   # BR(~mu_L -> ~chi_2- nu_mu)
#
#         PDG            Width
DECAY   2000013     2.23567344E+01   # smuon_R decays
#          BR         NDA      ID1       ID2
     5.14002582E-01    2     1000022        13   # BR(~mu_R -> ~chi_10 mu-)
     1.52318162E-05    2     1000023        13   # BR(~mu_R -> ~chi_20 mu-)
     4.85981888E-01    2     1000025        13   # BR(~mu_R -> ~chi_30 mu-)
     2.97615832E-07    2     1000035        13   # BR(~mu_R -> ~chi_40 mu-)
#
#         PDG            Width
DECAY   1000015     2.49178817E+01   # stau_1 decays
#          BR         NDA      ID1       ID2
     2.89349677E-01    2     1000022        15   # BR(~tau_1 -> ~chi_10  tau-)
     4.70877780E-04    2     1000023        15   # BR(~tau_1 -> ~chi_20  tau-)
     2.77383275E-01    2     1000025        15   # BR(~tau_1 -> ~chi_30  tau-)
     1.43143848E-01    2     1000035        15   # BR(~tau_1 -> ~chi_40  tau-)
     2.86296815E-03    2    -1000024        16   # BR(~tau_1 -> ~chi_1-  nu_tau)
     2.86644997E-01    2    -1000037        16   # BR(~tau_1 -> ~chi_2-  nu_tau)
     1.44357110E-04    2     1000039        15   # BR(~tau_1 -> ~G       tau-)
#
#         PDG            Width
DECAY   2000015     2.49044289E+01   # stau_2 decays
#          BR         NDA      ID1       ID2
     2.73177046E-01    2     1000022        15   # BR(~tau_2 -> ~chi_10  tau-)
     7.08686077E-04    2     1000023        15   # BR(~tau_2 -> ~chi_20  tau-)
     2.84553091E-01    2     1000025        15   # BR(~tau_2 -> ~chi_30  tau-)
     1.47055386E-01    2     1000035        15   # BR(~tau_2 -> ~chi_40  tau-)
     3.12460997E-05    2    -1000024        16   # BR(~tau_2 -> ~chi_1-  nu_tau)
     2.94474544E-01    2    -1000037        16   # BR(~tau_2 -> ~chi_2-  nu_tau)
#
#         PDG            Width
DECAY   1000012     2.73752175E+01   # snu_eL decays
#          BR         NDA      ID1       ID2
     1.19190531E-01    2     1000022        12   # BR(~nu_eL -> ~chi_10 nu_e)
     2.20880936E-05    2     1000023        12   # BR(~nu_eL -> ~chi_20 nu_e)
     8.55268964E-02    2     1000025        12   # BR(~nu_eL -> ~chi_30 nu_e)
     2.64537542E-01    2     1000035        12   # BR(~nu_eL -> ~chi_40 nu_e)
     2.30224184E-03    2     1000024        11   # BR(~nu_eL -> ~chi_1+ e-)
     5.28420700E-01    2     1000037        11   # BR(~nu_eL -> ~chi_2+ e-)
#
#         PDG            Width
DECAY   1000014     2.73752175E+01   # snu_muL decays
#          BR         NDA      ID1       ID2
     1.19190531E-01    2     1000022        14   # BR(~nu_muL -> ~chi_10 nu_mu)
     2.20880936E-05    2     1000023        14   # BR(~nu_muL -> ~chi_20 nu_mu)
     8.55268964E-02    2     1000025        14   # BR(~nu_muL -> ~chi_30 nu_mu)
     2.64537542E-01    2     1000035        14   # BR(~nu_muL -> ~chi_40 nu_mu)
     2.30224184E-03    2     1000024        13   # BR(~nu_muL -> ~chi_1+ mu-)
     5.28420700E-01    2     1000037        13   # BR(~nu_muL -> ~chi_2+ mu-)
#
#         PDG            Width
DECAY   1000016     2.74042262E+01   # snu_tauL decays
#          BR         NDA      ID1       ID2
     1.19064363E-01    2     1000022        16   # BR(~nu_tauL -> ~chi_10 nu_tau)
     2.20647123E-05    2     1000023        16   # BR(~nu_tauL -> ~chi_20 nu_tau)
     8.54363621E-02    2     1000025        16   # BR(~nu_tauL -> ~chi_30 nu_tau)
     2.64257517E-01    2     1000035        16   # BR(~nu_tauL -> ~chi_40 nu_tau)
     3.35740908E-03    2     1000024        15   # BR(~nu_tauL -> ~chi_1+ tau-)
     5.27862285E-01    2     1000037        15   # BR(~nu_tauL -> ~chi_2+ tau-)
#
#         PDG            Width
DECAY   1000024     1.10642315E-04   # chargino1+ decays
#          BR         NDA      ID1       ID2
     8.89748151E-03    2     1000039        24   # BR(~chi_1+ -> ~G       W+)
#           BR         NDA      ID1       ID2       ID3
     3.30656233E-01    3     1000022         2        -1   # BR(~chi_1+ -> ~chi_10 u    db)
     3.30656233E-01    3     1000022         4        -3   # BR(~chi_1+ -> ~chi_10 c    sb)
     1.10218872E-01    3     1000022       -11        12   # BR(~chi_1+ -> ~chi_10 e+   nu_e)
     1.10218872E-01    3     1000022       -13        14   # BR(~chi_1+ -> ~chi_10 mu+  nu_mu)
     1.09352310E-01    3     1000022       -15        16   # BR(~chi_1+ -> ~chi_10 tau+ nu_tau)
#
#         PDG            Width
DECAY   1000037     3.73845708E+01   # chargino2+ decays
#          BR         NDA      ID1       ID2
     2.52229001E-01    2     1000024        23   # BR(~chi_2+ -> ~chi_1+  Z )
     1.13782520E-01    2     1000022        24   # BR(~chi_2+ -> ~chi_10  W+)
     2.45572617E-01    2     1000023        24   # BR(~chi_2+ -> ~chi_20  W+)
     1.32095888E-01    2     1000025        24   # BR(~chi_2+ -> ~chi_30  W+)
     2.53240394E-01    2     1000024        25   # BR(~chi_2+ -> ~chi_1+  h )
     6.03909901E-04    2     1000024        35   # BR(~chi_2+ -> ~chi_1+  H )
     7.97171117E-04    2     1000024        36   # BR(~chi_2+ -> ~chi_1+  A )
     1.07295213E-03    2     1000022        37   # BR(~chi_2+ -> ~chi_10  H+)
     5.96341948E-04    2     1000023        37   # BR(~chi_2+ -> ~chi_20  H+)
     9.20398534E-06    2     1000039        24   # BR(~chi_2+ -> ~G       W+)
     7.83659896E-10    2     1000039        37   # BR(~chi_2+ -> ~G       H+)
#
#         PDG            Width
DECAY   1000022    1.0E-05    # neutralino1 decays
#          BR         NDA      ID1       ID2
     4.99850612E-01    2     1000039        22   # BR(~chi_10 -> ~G        gam)
     4.88938966E-01    2     1000039        23   # BR(~chi_10 -> ~G        Z)
     1.12104215E-02    2     1000039        25   # BR(~chi_10 -> ~G        h)
#
#         PDG            Width
DECAY   1000023     1.24408605E-04   # neutralino2 decays
#          BR         NDA      ID1       ID2
     1.23743728E-03    2     1000022        22   # BR(~chi_20 -> ~chi_10 gam)
#          BR         NDA      ID1       ID2
     4.24170797E-08    2     1000039        22   # BR(~chi_20 -> ~G        gam)
     3.07090863E-04    2     1000039        23   # BR(~chi_20 -> ~G        Z)
     7.47470535E-03    2     1000039        25   # BR(~chi_20 -> ~G        h)
#           BR         NDA      ID1       ID2       ID3
     1.17670358E-01    3     1000022        -2         2   # BR(~chi_20 -> ~chi_10 ub      u)
     1.52356777E-01    3     1000022        -1         1   # BR(~chi_20 -> ~chi_10 db      d)
     1.17670358E-01    3     1000022        -4         4   # BR(~chi_20 -> ~chi_10 cb      c)
     1.52356777E-01    3     1000022        -3         3   # BR(~chi_20 -> ~chi_10 sb      s)
     1.38467590E-01    3     1000022        -5         5   # BR(~chi_20 -> ~chi_10 bb      b)
     3.47917496E-02    3     1000022       -11        11   # BR(~chi_20 -> ~chi_10 e+      e-)
     3.47917496E-02    3     1000022       -13        13   # BR(~chi_20 -> ~chi_10 mu+     mu-)
     3.44357495E-02    3     1000022       -15        15   # BR(~chi_20 -> ~chi_10 tau+    tau-)
     6.94784991E-02    3     1000022       -12        12   # BR(~chi_20 -> ~chi_10 nu_eb   nu_e)
     6.94784991E-02    3     1000022       -14        14   # BR(~chi_20 -> ~chi_10 nu_mub  nu_mu)
     6.94784991E-02    3     1000022       -16        16   # BR(~chi_20 -> ~chi_10 nu_taub nu_tau)
     7.55906363E-07    3     1000024        -2         1   # BR(~chi_20 -> ~chi_1+ ub      d)
     7.55906363E-07    3    -1000024        -1         2   # BR(~chi_20 -> ~chi_1- db      u)
     7.55906363E-07    3     1000024        -4         3   # BR(~chi_20 -> ~chi_1+ cb      s)
     7.55906363E-07    3    -1000024        -3         4   # BR(~chi_20 -> ~chi_1- sb      c)
     2.51968803E-07    3     1000024       -12        11   # BR(~chi_20 -> ~chi_1+ nu_eb   e-)
     2.51968803E-07    3    -1000024        12       -11   # BR(~chi_20 -> ~chi_1- nu_e    e+)
     2.51968803E-07    3     1000024       -14        13   # BR(~chi_20 -> ~chi_1+ nu_mub  mu-)
     2.51968803E-07    3    -1000024        14       -13   # BR(~chi_20 -> ~chi_1- nu_mu   mu+)
     4.34589444E-08    3     1000024       -16        15   # BR(~chi_20 -> ~chi_1+ nu_taub tau-)
     4.34589444E-08    3    -1000024        16       -15   # BR(~chi_20 -> ~chi_1- nu_tau  tau+)
#
#         PDG            Width
DECAY   1000025     2.33253154E-04   # neutralino3 decays
#          BR         NDA      ID1       ID2
     3.58768951E-04    2     1000022        22   # BR(~chi_30 -> ~chi_10 gam)
     7.98722897E-06    2     1000023        22   # BR(~chi_30 -> ~chi_20 gam)
#          BR         NDA      ID1       ID2
     4.03854350E-03    2     1000039        22   # BR(~chi_30 -> ~G        gam)
     3.50709406E-03    2     1000039        23   # BR(~chi_30 -> ~G        Z)
     9.80879014E-05    2     1000039        25   # BR(~chi_30 -> ~G        h)
#           BR         NDA      ID1       ID2       ID3
     9.50384591E-06    3     1000022        -2         2   # BR(~chi_30 -> ~chi_10 ub      u)
     1.12606846E-05    3     1000022        -1         1   # BR(~chi_30 -> ~chi_10 db      d)
     9.50384591E-06    3     1000022        -4         4   # BR(~chi_30 -> ~chi_10 cb      c)
     1.12606846E-05    3     1000022        -3         3   # BR(~chi_30 -> ~chi_10 sb      s)
     1.75935948E-05    3     1000022        -5         5   # BR(~chi_30 -> ~chi_10 bb      b)
     1.96435032E-06    3     1000022       -11        11   # BR(~chi_30 -> ~chi_10 e+      e-)
     1.96435032E-06    3     1000022       -13        13   # BR(~chi_30 -> ~chi_10 mu+     mu-)
     2.94605816E-06    3     1000022       -15        15   # BR(~chi_30 -> ~chi_10 tau+    tau-)
     5.51531056E-06    3     1000022       -12        12   # BR(~chi_30 -> ~chi_10 nu_eb   nu_e)
     5.51531056E-06    3     1000022       -14        14   # BR(~chi_30 -> ~chi_10 nu_mub  nu_mu)
     5.51531056E-06    3     1000022       -16        16   # BR(~chi_30 -> ~chi_10 nu_taub nu_tau)
     2.51579165E-02    3     1000023        -2         2   # BR(~chi_30 -> ~chi_20 ub      u)
     3.25739260E-02    3     1000023        -1         1   # BR(~chi_30 -> ~chi_20 db      d)
     2.51579165E-02    3     1000023        -4         4   # BR(~chi_30 -> ~chi_20 cb      c)
     3.25739260E-02    3     1000023        -3         3   # BR(~chi_30 -> ~chi_20 sb      s)
     2.84560312E-02    3     1000023        -5         5   # BR(~chi_30 -> ~chi_20 bb      b)
     7.43850727E-03    3     1000023       -11        11   # BR(~chi_30 -> ~chi_20 e+      e-)
     7.43850727E-03    3     1000023       -13        13   # BR(~chi_30 -> ~chi_20 mu+     mu-)
     7.33876809E-03    3     1000023       -15        15   # BR(~chi_30 -> ~chi_20 tau+    tau-)
     1.48544602E-02    3     1000023       -12        12   # BR(~chi_30 -> ~chi_20 nu_eb   nu_e)
     1.48544602E-02    3     1000023       -14        14   # BR(~chi_30 -> ~chi_20 nu_mub  nu_mu)
     1.48544602E-02    3     1000023       -16        16   # BR(~chi_30 -> ~chi_20 nu_taub nu_tau)
     1.30325441E-01    3     1000024        -2         1   # BR(~chi_30 -> ~chi_1+ ub      d)
     1.30325441E-01    3    -1000024        -1         2   # BR(~chi_30 -> ~chi_1- db      u)
     1.30325441E-01    3     1000024        -4         3   # BR(~chi_30 -> ~chi_1+ cb      s)
     1.30325441E-01    3    -1000024        -3         4   # BR(~chi_30 -> ~chi_1- sb      c)
     4.34417463E-02    3     1000024       -12        11   # BR(~chi_30 -> ~chi_1+ nu_eb   e-)
     4.34417463E-02    3    -1000024        12       -11   # BR(~chi_30 -> ~chi_1- nu_e    e+)
     4.34417463E-02    3     1000024       -14        13   # BR(~chi_30 -> ~chi_1+ nu_mub  mu-)
     4.34417463E-02    3    -1000024        14       -13   # BR(~chi_30 -> ~chi_1- nu_mu   mu+)
     4.30696732E-02    3     1000024       -16        15   # BR(~chi_30 -> ~chi_1+ nu_taub tau-)
     4.30696732E-02    3    -1000024        16       -15   # BR(~chi_30 -> ~chi_1- nu_tau  tau+)
#
#         PDG            Width
DECAY   1000035     3.73880933E+01   # neutralino4 decays
#          BR         NDA      ID1       ID2
     1.03717385E-03    2     1000022        23   # BR(~chi_40 -> ~chi_10   Z )
     2.49976460E-01    2     1000023        23   # BR(~chi_40 -> ~chi_20   Z )
     1.19008307E-03    2     1000025        23   # BR(~chi_40 -> ~chi_30   Z )
     2.45546950E-01    2     1000024       -24   # BR(~chi_40 -> ~chi_1+   W-)
     2.45546950E-01    2    -1000024        24   # BR(~chi_40 -> ~chi_1-   W+)
     1.16299566E-01    2     1000022        25   # BR(~chi_40 -> ~chi_10   h )
     7.40281356E-04    2     1000022        35   # BR(~chi_40 -> ~chi_10   H )
     3.06263540E-04    2     1000022        36   # BR(~chi_40 -> ~chi_10   A )
     2.19754320E-03    2     1000023        25   # BR(~chi_40 -> ~chi_20   h )
     1.37001188E-05    2     1000023        35   # BR(~chi_40 -> ~chi_20   H )
     6.32992245E-04    2     1000023        36   # BR(~chi_40 -> ~chi_20   A )
     1.35040989E-01    2     1000025        25   # BR(~chi_40 -> ~chi_30   h )
     7.30921906E-04    2     1000024       -37   # BR(~chi_40 -> ~chi_1+   H-)
     7.30921906E-04    2    -1000024        37   # BR(~chi_40 -> ~chi_1-   H+)
     2.20838974E-06    2     1000039        22   # BR(~chi_40 -> ~G        gam)
     6.99391005E-06    2     1000039        23   # BR(~chi_40 -> ~G        Z)
     5.61676896E-10    2     1000039        25   # BR(~chi_40 -> ~G        h)
     7.70979029E-10    2     1000039        35   # BR(~chi_40 -> ~G        H)
     8.99931856E-12    2     1000039        36   # BR(~chi_40 -> ~G        A)
#
#         PDG            Width
DECAY        25     4.21983320E-03   # h decays
#          BR         NDA      ID1       ID2
     6.01998585E-01    2           5        -5   # BR(h -> b       bb     )
     6.22179277E-02    2         -15        15   # BR(h -> tau+    tau-   )
     2.20224339E-04    2         -13        13   # BR(h -> mu+     mu-    )
     4.65952001E-04    2           3        -3   # BR(h -> s       sb     )
     2.01016838E-02    2           4        -4   # BR(h -> c       cb     )
     6.63874127E-02    2          21        21   # BR(h -> g       g      )
     2.30697987E-03    2          22        22   # BR(h -> gam     gam    )
     1.62604030E-03    2          22        23   # BR(h -> Z       gam    )
     2.16604055E-01    2          24       -24   # BR(h -> W+      W-     )
     2.80711388E-02    2          23        23   # BR(h -> Z       Z      )
#
#         PDG            Width
DECAY        35     3.78120806E+01   # H decays
#          BR         NDA      ID1       ID2
     1.46977382E-03    2           5        -5   # BR(H -> b       bb     )
     2.46422635E-04    2         -15        15   # BR(H -> tau+    tau-   )
     8.71195757E-07    2         -13        13   # BR(H -> mu+     mu-    )
     1.11544283E-06    2           3        -3   # BR(H -> s       sb     )
     1.00667712E-05    2           4        -4   # BR(H -> c       cb     )
     9.96062555E-01    2           6        -6   # BR(H -> t       tb     )
     7.97719936E-04    2          21        21   # BR(H -> g       g      )
     2.70796981E-06    2          22        22   # BR(H -> gam     gam    )
     1.15983637E-06    2          23        22   # BR(H -> Z       gam    )
     3.36129299E-04    2          24       -24   # BR(H -> W+      W-     )
     1.67606262E-04    2          23        23   # BR(H -> Z       Z      )
     9.03871417E-04    2          25        25   # BR(H -> h       h      )
     8.19442185E-24    2          36        36   # BR(H -> A       A      )
     3.25207382E-11    2          23        36   # BR(H -> Z       A      )
     7.08102140E-12    2          24       -37   # BR(H -> W+      H-     )
     7.08102140E-12    2         -24        37   # BR(H -> W-      H+     )
#
#         PDG            Width
DECAY        36     3.82382403E+01   # A decays
#          BR         NDA      ID1       ID2
     1.47271892E-03    2           5        -5   # BR(A -> b       bb     )
     2.43897635E-04    2         -15        15   # BR(A -> tau+    tau-   )
     8.62266248E-07    2         -13        13   # BR(A -> mu+     mu-    )
     1.13677356E-06    2           3        -3   # BR(A -> s       sb     )
     9.96176136E-06    2           4        -4   # BR(A -> c       cb     )
     9.96995645E-01    2           6        -6   # BR(A -> t       tb     )
     9.43675319E-04    2          21        21   # BR(A -> g       g      )
     3.21131195E-06    2          22        22   # BR(A -> gam     gam    )
     1.35243003E-06    2          23        22   # BR(A -> Z       gam    )
     3.27538939E-04    2          23        25   # BR(A -> Z       h      )
#
#         PDG            Width
DECAY        37     3.74481956E+01   # H+ decays
#          BR         NDA      ID1       ID2
     2.36148543E-06    2           4        -5   # BR(H+ -> c       bb     )
     2.49238077E-04    2         -15        16   # BR(H+ -> tau+    nu_tau )
     8.81146638E-07    2         -13        14   # BR(H+ -> mu+     nu_mu  )
     1.50136207E-08    2           2        -5   # BR(H+ -> u       bb     )
     5.45693303E-08    2           2        -3   # BR(H+ -> u       sb     )
     1.08731459E-05    2           4        -3   # BR(H+ -> c       sb     )
     9.99400866E-01    2           6        -5   # BR(H+ -> t       bb     )
     3.35710281E-04    2          24        25   # BR(H+ -> W+      h      )
     3.30147635E-13    2          24        36   # BR(H+ -> W+      A      )
