#
#                              ======================
#                              | THE SUSYHIT OUTPUT |
#                              ======================
#
#
#              ------------------------------------------------------
#              |     This is the output of the SUSY-HIT package     |
#              |  created by A.Djouadi, M.Muehlleitner and M.Spira. |
#              |  In case of problems with SUSY-HIT email to        |
#              |           margarete.muehlleitner@cern.ch           |
#              |           michael.spira@psi.ch                     |
#              |           abdelhak.djouadi@cern.ch                 |
#              ------------------------------------------------------
#
#              ------------------------------------------------------
#              |  SUSY Les Houches Accord - MSSM Spectrum + Decays  |
#              |              based on the decay programs           |
#              |                                                    |
#              |                     SDECAY 1.3b                    |
#              |                                                    |
#              |  Authors: M.Muhlleitner, A.Djouadi and Y.Mambrini  |
#              |  Ref.:    Comput.Phys.Commun.168(2005)46           |
#              |           [hep-ph/0311167]                         |
#              |                                                    |
#              |                     HDECAY 3.4                     |
#              |                                                    |
#              |  By: A.Djouadi,J.Kalinowski,M.Muhlleitner,M.Spira  |
#              |  Ref.:    Comput.Phys.Commun.108(1998)56           |
#              |           [hep-ph/9704448]                         |
#              |                                                    |
#              |                                                    |
#              |  If not stated otherwise all DRbar couplings and   |
#              |  soft SUSY breaking masses are given at the scale  |
#              |  Q=  0.50007179E+04
#              |                                                    |
#              ------------------------------------------------------
#
#
BLOCK DCINFO  # Decay Program information
     1   SDECAY/HDECAY # decay calculator
     2   1.3b  /3.4    # version number
#
BLOCK SPINFO  # Spectrum calculator information
     1    SOFTSUSY    # spectrum calculator                
     2    3.4.0       # version number                     
#
BLOCK MODSEL  # Model selection
     1     0   #  nonUniversal                                     
#
BLOCK SMINPUTS  # Standard Model inputs
         1     1.25778332E+02   # alpha_em^-1(M_Z)^MSbar
         2     1.16570000E-05   # G_F [GeV^-2]
         3     1.17200002E-01   # alpha_S(M_Z)^MSbar
         4     9.11876000E+01   # M_Z pole mass
         5     4.25000000E+00   # mb(mb)^MSbar
         6     1.72500000E+02   # mt pole mass
         7     1.77682000E+00   # mtau pole mass
#
BLOCK MINPAR  # Input parameters - minimal models
         3     1.00000000E+01   # tanb                
#
BLOCK EXTPAR  # Input parameters - non-minimal models
         0    -1.00000000E+00   # Set                 
         1     6.00000000E+01   # M_1(MX)             
         2     3.00000000E+03   # M_2(MX)             
         3     2.23497800E+03   # M_3(MX)             
        11     5.00000000E+03   # At(MX)              
        12     5.00000000E+03   # Ab(MX)              
        13     0.00000000E+00   # Atau(MX)            
        23    -1.54436500E+03   # mu(MX)              
        26     3.00000000E+03   # mA(pole)            
        31     5.00000000E+03   # meL(MX)             
        32     5.00000000E+03   # mmuL(MX)            
        33     5.00000000E+03   # mtauL(MX)           
        34     5.00000000E+03   # meR(MX)             
        35     5.00000000E+03   # mmuR(MX)            
        36     5.00000000E+03   # mtauR(MX)           
        41     5.00000000E+03   # mqL1(MX)            
        42     5.00000000E+03   # mqL2(MX)            
        43     5.00000000E+03   # mqL3(MX)            
        44     5.00000000E+03   # muR(MX)             
        45     5.00000000E+03   # mcR(MX)             
        46     5.00000000E+03   # mtR(MX)             
        47     5.00000000E+03   # mdR(MX)             
        48     5.00000000E+03   # msR(MX)             
        49     5.00000000E+03   # mbR(MX)             
#
BLOCK MASS  # Mass Spectrum
# PDG code           mass       particle
        24     8.00970606E+01   # W+
        25     1.24829826E+02   # h
        35     3.00008280E+03   # H
        36     2.99999995E+03   # A
        37     3.00087333E+03   # H+
         5     4.87878001E+00   # b-quark pole mass calculated from mb(mb)_Msbar
   1000001     5.08188257E+03   # ~d_L
   2000001     5.06414704E+03   # ~d_R
   1000002     5.08141205E+03   # ~u_L
   2000002     5.06387456E+03   # ~u_R
   1000003     5.08188257E+03   # ~s_L
   2000003     5.06414704E+03   # ~s_R
   1000004     5.08141205E+03   # ~c_L
   2000004     5.06387456E+03   # ~c_R
   1000005     5.02794848E+03   # ~b_1
   2000005     5.06303427E+03   # ~b_2
   1000006     4.92044706E+03   # ~t_1
   2000006     5.07323874E+03   # ~t_2
   1000011     5.01904326E+03   # ~e_L
   2000011     5.00590855E+03   # ~e_R
   1000012     5.01809546E+03   # ~nu_eL
   1000013     5.01904326E+03   # ~mu_L
   2000013     5.00590855E+03   # ~mu_R
   1000014     5.01809546E+03   # ~nu_muL
   1000015     5.00431351E+03   # ~tau_1
   2000015     5.01905998E+03   # ~tau_2
   1000016     5.01755839E+03   # ~nu_tauL
   1000021     2.60000015E+03   # ~g
   1000022     6.03026862E+01   # ~chi_10
   1000023     1.59942893E+03   # ~chi_20
   1000025    -1.60194914E+03   # ~chi_30
   1000035     3.07433586E+03   # ~chi_40
   1000024     1.60000015E+03   # ~chi_1+
   1000037     3.07450336E+03   # ~chi_2+
#
BLOCK NMIX  # Neutralino Mixing Matrix
  1  1     9.99609638E-01   # N_11
  1  2     1.33225660E-04   # N_12
  1  3    -2.78756228E-02   # N_13
  1  4     1.87164212E-03   # N_14
  2  1     1.83857723E-02   # N_21
  2  2     3.29857550E-02   # N_22
  2  3     7.06888623E-01   # N_23
  2  4     7.06316061E-01   # N_24
  3  1    -2.10313202E-02   # N_31
  3  2     1.29774868E-02   # N_32
  3  3    -7.06633669E-01   # N_33
  3  4     7.07147881E-01   # N_34
  4  1    -4.67002039E-04   # N_41
  4  2     9.99371556E-01   # N_42
  4  3    -1.41521059E-02   # N_43
  4  4    -3.24960421E-02   # N_44
#
BLOCK UMIX  # Chargino Mixing Matrix U
  1  1     2.00179760E-02   # U_11
  1  2     9.99799620E-01   # U_12
  2  1    -9.99799620E-01   # U_21
  2  2     2.00179760E-02   # U_22
#
BLOCK VMIX  # Chargino Mixing Matrix V
  1  1     4.59682746E-02   # V_11
  1  2    -9.98942900E-01   # V_12
  2  1    -9.98942900E-01   # V_21
  2  2    -4.59682746E-02   # V_22
#
BLOCK STOPMIX  # Stop Mixing Matrix
  1  1    -5.09679553E-01   # cos(theta_t)
  1  2     8.60364314E-01   # sin(theta_t)
  2  1    -8.60364314E-01   # -sin(theta_t)
  2  2    -5.09679553E-01   # cos(theta_t)
#
BLOCK SBOTMIX  # Sbottom Mixing Matrix
  1  1     9.93892997E-01   # cos(theta_b)
  1  2    -1.10348133E-01   # sin(theta_b)
  2  1     1.10348133E-01   # -sin(theta_b)
  2  2     9.93892997E-01   # cos(theta_b)
#
BLOCK STAUMIX  # Stau Mixing Matrix
  1  1    -1.78637264E-01   # cos(theta_tau)
  1  2     9.83915000E-01   # sin(theta_tau)
  2  1    -9.83915000E-01   # -sin(theta_tau)
  2  2    -1.78637264E-01   # cos(theta_tau)
#
BLOCK ALPHA  # Higgs mixing
          -1.05470790E-01   # Mixing angle in the neutral Higgs boson sector
#
BLOCK HMIX Q=  5.00071795E+03  # DRbar Higgs Parameters
         1    -1.57283423E+03   # mu(Q)MSSM           
         2     9.46972505E+00   # tan                 
         3     2.41976725E+02   # higgs               
         4     8.38626582E+06   # mA^2(Q)MSSM         
#
BLOCK GAUGE Q=  5.00071795E+03  # The gauge couplings
     1     3.70675633E-01   # gprime(Q) DRbar
     2     6.31982409E-01   # g(Q) DRbar
     3     9.94622575E-01   # g3(Q) DRbar
#
BLOCK AU Q=  5.00071795E+03  # The trilinear couplings
  1  1     5.00000002E+03   # A_u(Q) DRbar
  2  2     5.00000002E+03   # A_c(Q) DRbar
  3  3     5.00000002E+03   # A_t(Q) DRbar
#
BLOCK AD Q=  5.00071795E+03  # The trilinear couplings
  1  1     5.00000001E+03   # A_d(Q) DRbar
  2  2     5.00000001E+03   # A_s(Q) DRbar
  3  3     5.00000001E+03   # A_b(Q) DRbar
#
BLOCK AE Q=  5.00071795E+03  # The trilinear couplings
  1  1     0.00000000E+00   # A_e(Q) DRbar
  2  2     2.68889116E-07   # A_mu(Q) DRbar
  3  3     2.68887101E-07   # A_tau(Q) DRbar
#
BLOCK Yu Q=  5.00071795E+03  # The Yukawa couplings
  1  1     0.00000000E+00   # y_u(Q) DRbar
  2  2     0.00000000E+00   # y_c(Q) DRbar
  3  3     8.20868105E-01   # y_t(Q) DRbar
#
BLOCK Yd Q=  5.00071795E+03  # The Yukawa couplings
  1  1     0.00000000E+00   # y_d(Q) DRbar
  2  2     0.00000000E+00   # y_s(Q) DRbar
  3  3     1.31939775E-01   # y_b(Q) DRbar
#
BLOCK Ye Q=  5.00071795E+03  # The Yukawa couplings
  1  1     0.00000000E+00   # y_e(Q) DRbar
  2  2     0.00000000E+00   # y_mu(Q) DRbar
  3  3     9.65856400E-02   # y_tau(Q) DRbar
#
BLOCK MSOFT Q=  5.00071795E+03  # The soft SUSY breaking masses at the scale Q
         1     6.00000000E+01   # M_1(Q)              
         2     3.00000000E+03   # M_2(Q)              
         3     2.23497800E+03   # M_3(Q)              
        21     6.19115561E+06   # mH1^2(Q)            
        22    -1.92657424E+06   # mH2^2(Q)            
        31     5.00000000E+03   # meL(Q)              
        32     5.00000000E+03   # mmuL(Q)             
        33     5.00000000E+03   # mtauL(Q)            
        34     5.00000000E+03   # meR(Q)              
        35     5.00000000E+03   # mmuR(Q)             
        36     5.00000000E+03   # mtauR(Q)            
        41     4.99999999E+03   # mqL1(Q)             
        42     4.99999999E+03   # mqL2(Q)             
        43     4.99999999E+03   # mqL3(Q)             
        44     4.99999999E+03   # muR(Q)              
        45     4.99999999E+03   # mcR(Q)              
        46     4.99999999E+03   # mtR(Q)              
        47     4.99999999E+03   # mdR(Q)              
        48     4.99999999E+03   # msR(Q)              
        49     4.99999999E+03   # mbR(Q)              
#
#
#
#                             =================
#                             |The decay table|
#                             =================
#
# - The QCD corrections to the decays gluino -> squark  + quark
#                                     squark -> gaugino + quark_prime
#                                     squark -> squark_prime + Higgs
#                                     squark -> gluino  + quark
#   are included.
#
# - The multi-body decays for the inos, stops and sbottoms are included.
#
# - The loop induced decays for the gluino, neutralinos and stops
#   are included.
#
# - The SUSY decays of the top quark are included.
#
#
#         PDG            Width
DECAY         6     1.39954940E+00   # top decays
#          BR         NDA      ID1       ID2
     1.00000000E+00    2           5        24   # BR(t ->  b    W+)
#
#         PDG            Width
DECAY   1000021     1.81202475E-03   # gluino decays
#          BR         NDA      ID1       ID2
     4.56111222E-06    2     1000022        21   # BR(~g -> ~chi_10 g)
     5.45181299E-03    2     1000023        21   # BR(~g -> ~chi_20 g)
     5.45122073E-03    2     1000025        21   # BR(~g -> ~chi_30 g)
#           BR         NDA      ID1       ID2       ID3
     5.15935712E-02    3     1000022         1        -1   # BR(~g -> ~chi_10 d  db)
     2.24674123E-05    3     1000023         1        -1   # BR(~g -> ~chi_20 d  db)
     3.17470701E-06    3     1000025         1        -1   # BR(~g -> ~chi_30 d  db)
     1.75912547E-01    3     1000022         2        -2   # BR(~g -> ~chi_10 u  ub)
     3.79778698E-05    3     1000023         2        -2   # BR(~g -> ~chi_20 u  ub)
     3.11369338E-06    3     1000025         2        -2   # BR(~g -> ~chi_30 u  ub)
     5.15935712E-02    3     1000022         3        -3   # BR(~g -> ~chi_10 s  sb)
     2.24674123E-05    3     1000023         3        -3   # BR(~g -> ~chi_20 s  sb)
     3.17470701E-06    3     1000025         3        -3   # BR(~g -> ~chi_30 s  sb)
     1.75912547E-01    3     1000022         4        -4   # BR(~g -> ~chi_10 c  cb)
     3.79778698E-05    3     1000023         4        -4   # BR(~g -> ~chi_20 c  cb)
     3.11369338E-06    3     1000025         4        -4   # BR(~g -> ~chi_30 c  cb)
     5.22419197E-02    3     1000022         5        -5   # BR(~g -> ~chi_10 b  bb)
     2.28775146E-03    3     1000023         5        -5   # BR(~g -> ~chi_20 b  bb)
     2.23375499E-03    3     1000025         5        -5   # BR(~g -> ~chi_30 b  bb)
     1.80296295E-01    3     1000022         6        -6   # BR(~g -> ~chi_10 t  tb)
     7.46188362E-02    3     1000023         6        -6   # BR(~g -> ~chi_20 t  tb)
     6.15382046E-02    3     1000025         6        -6   # BR(~g -> ~chi_30 t  tb)
     5.62591754E-05    3     1000024         1        -2   # BR(~g -> ~chi_1+ d  ub)
     5.62591754E-05    3    -1000024         2        -1   # BR(~g -> ~chi_1- u  db)
     5.62591754E-05    3     1000024         3        -4   # BR(~g -> ~chi_1+ s  cb)
     5.62591754E-05    3    -1000024         4        -3   # BR(~g -> ~chi_1- c  sb)
     8.02524508E-02    3     1000024         5        -6   # BR(~g -> ~chi_1+ b  tb)
     8.02524508E-02    3    -1000024         6        -5   # BR(~g -> ~chi_1- t  bb)
#
#         PDG            Width
DECAY   1000006     2.70365411E+02   # stop1 decays
#          BR         NDA      ID1       ID2
     3.26954274E-02    2     1000022         6   # BR(~t_1 -> ~chi_10 t )
     9.74519305E-02    2     1000023         6   # BR(~t_1 -> ~chi_20 t )
     9.36587574E-02    2     1000025         6   # BR(~t_1 -> ~chi_30 t )
     7.96786171E-03    2     1000035         6   # BR(~t_1 -> ~chi_40 t )
     1.41416478E-01    2     1000024         5   # BR(~t_1 -> ~chi_1+ b )
     1.58403941E-02    2     1000037         5   # BR(~t_1 -> ~chi_2+ b )
     6.10969151E-01    2     1000021         6   # BR(~t_1 -> ~g      t )
#
#         PDG            Width
DECAY   2000006     2.84521433E+02   # stop2 decays
#          BR         NDA      ID1       ID2
     1.22322849E-02    2     1000022         6   # BR(~t_2 -> ~chi_10 t )
     9.63145643E-02    2     1000023         6   # BR(~t_2 -> ~chi_20 t )
     1.00243865E-01    2     1000025         6   # BR(~t_2 -> ~chi_30 t )
     1.94299759E-02    2     1000035         6   # BR(~t_2 -> ~chi_40 t )
     5.80829099E-02    2     1000024         5   # BR(~t_2 -> ~chi_1+ b )
     3.85585888E-02    2     1000037         5   # BR(~t_2 -> ~chi_2+ b )
     6.70756058E-01    2     1000021         6   # BR(~t_2 -> ~g      t )
     9.69910527E-04    2     1000006        25   # BR(~t_2 -> ~t_1    h )
     3.41184249E-03    2     1000006        23   # BR(~t_2 -> ~t_1    Z )
#
#         PDG            Width
DECAY   1000005     2.60096054E+02   # sbottom1 decays
#          BR         NDA      ID1       ID2
     3.00504779E-03    2     1000022         5   # BR(~b_1 -> ~chi_10 b )
     2.81329390E-03    2     1000023         5   # BR(~b_1 -> ~chi_20 b )
     2.64588512E-03    2     1000025         5   # BR(~b_1 -> ~chi_30 b )
     2.89096123E-02    2     1000035         5   # BR(~b_1 -> ~chi_40 b )
     2.06033072E-01    2    -1000024         6   # BR(~b_1 -> ~chi_1- t )
     5.82282623E-02    2    -1000037         6   # BR(~b_1 -> ~chi_2- t )
     6.96329310E-01    2     1000021         5   # BR(~b_1 -> ~g      b )
     2.03551622E-03    2     1000006       -24   # BR(~b_1 -> ~t_1    W-)
#
#         PDG            Width
DECAY   2000005     1.90747634E+02   # sbottom2 decays
#          BR         NDA      ID1       ID2
     1.53036477E-02    2     1000022         5   # BR(~b_2 -> ~chi_10 b )
     3.64309518E-03    2     1000023         5   # BR(~b_2 -> ~chi_20 b )
     3.81677544E-03    2     1000025         5   # BR(~b_2 -> ~chi_30 b )
     5.07528947E-04    2     1000035         5   # BR(~b_2 -> ~chi_40 b )
     1.07075708E-02    2    -1000024         6   # BR(~b_2 -> ~chi_1- t )
     1.02169285E-03    2    -1000037         6   # BR(~b_2 -> ~chi_2- t )
     9.64849042E-01    2     1000021         5   # BR(~b_2 -> ~g      b )
     1.50646895E-04    2     1000006       -24   # BR(~b_2 -> ~t_1    W-)
#
#         PDG            Width
DECAY   1000002     2.10032643E+02   # sup_L decays
#          BR         NDA      ID1       ID2
     3.54553337E-03    2     1000022         2   # BR(~u_L -> ~chi_10 u)
     1.01079021E-04    2     1000023         2   # BR(~u_L -> ~chi_20 u)
     5.93319705E-06    2     1000025         2   # BR(~u_L -> ~chi_30 u)
     3.75375643E-02    2     1000035         2   # BR(~u_L -> ~chi_40 u)
     3.19186130E-04    2     1000024         1   # BR(~u_L -> ~chi_1+ d)
     7.50150885E-02    2     1000037         1   # BR(~u_L -> ~chi_2+ d)
     8.83475616E-01    2     1000021         2   # BR(~u_L -> ~g      u)
#
#         PDG            Width
DECAY   2000002     1.95873569E+02   # sup_R decays
#          BR         NDA      ID1       ID2
     6.05324345E-02    2     1000022         2   # BR(~u_R -> ~chi_10 u)
     1.66615479E-05    2     1000023         2   # BR(~u_R -> ~chi_20 u)
     2.17862846E-05    2     1000025         2   # BR(~u_R -> ~chi_30 u)
     5.31530928E-09    2     1000035         2   # BR(~u_R -> ~chi_40 u)
     9.39429112E-01    2     1000021         2   # BR(~u_R -> ~g      u)
#
#         PDG            Width
DECAY   1000001     2.10050921E+02   # sdown_L decays
#          BR         NDA      ID1       ID2
     3.53590509E-03    2     1000022         1   # BR(~d_L -> ~chi_10 d)
     6.52558466E-05    2     1000023         1   # BR(~d_L -> ~chi_20 d)
     2.20463031E-05    2     1000025         1   # BR(~d_L -> ~chi_30 d)
     3.75594753E-02    2     1000035         1   # BR(~d_L -> ~chi_40 d)
     6.05324813E-05    2    -1000024         2   # BR(~d_L -> ~chi_1- u)
     7.51602066E-02    2    -1000037         2   # BR(~d_L -> ~chi_2- u)
     8.83596578E-01    2     1000021         1   # BR(~d_L -> ~g      d)
#
#         PDG            Width
DECAY   2000001     1.86999635E+02   # sdown_R decays
#          BR         NDA      ID1       ID2
     1.58521101E-02    2     1000022         1   # BR(~d_R -> ~chi_10 d)
     4.36339377E-06    2     1000023         1   # BR(~d_R -> ~chi_20 d)
     5.70548108E-06    2     1000025         1   # BR(~d_R -> ~chi_30 d)
     1.39213458E-09    2     1000035         1   # BR(~d_R -> ~chi_40 d)
     9.84137820E-01    2     1000021         1   # BR(~d_R -> ~g      d)
#
#         PDG            Width
DECAY   1000004     2.10032643E+02   # scharm_L decays
#          BR         NDA      ID1       ID2
     3.54553337E-03    2     1000022         4   # BR(~c_L -> ~chi_10 c)
     1.01079021E-04    2     1000023         4   # BR(~c_L -> ~chi_20 c)
     5.93319705E-06    2     1000025         4   # BR(~c_L -> ~chi_30 c)
     3.75375643E-02    2     1000035         4   # BR(~c_L -> ~chi_40 c)
     3.19186130E-04    2     1000024         3   # BR(~c_L -> ~chi_1+ s)
     7.50150885E-02    2     1000037         3   # BR(~c_L -> ~chi_2+ s)
     8.83475616E-01    2     1000021         4   # BR(~c_L -> ~g      c)
#
#         PDG            Width
DECAY   2000004     1.95873569E+02   # scharm_R decays
#          BR         NDA      ID1       ID2
     6.05324345E-02    2     1000022         4   # BR(~c_R -> ~chi_10 c)
     1.66615479E-05    2     1000023         4   # BR(~c_R -> ~chi_20 c)
     2.17862846E-05    2     1000025         4   # BR(~c_R -> ~chi_30 c)
     5.31530928E-09    2     1000035         4   # BR(~c_R -> ~chi_40 c)
     9.39429112E-01    2     1000021         4   # BR(~c_R -> ~g      c)
#
#         PDG            Width
DECAY   1000003     2.10050921E+02   # sstrange_L decays
#          BR         NDA      ID1       ID2
     3.53590509E-03    2     1000022         3   # BR(~s_L -> ~chi_10 s)
     6.52558466E-05    2     1000023         3   # BR(~s_L -> ~chi_20 s)
     2.20463031E-05    2     1000025         3   # BR(~s_L -> ~chi_30 s)
     3.75594753E-02    2     1000035         3   # BR(~s_L -> ~chi_40 s)
     6.05324813E-05    2    -1000024         4   # BR(~s_L -> ~chi_1- c)
     7.51602066E-02    2    -1000037         4   # BR(~s_L -> ~chi_2- c)
     8.83596578E-01    2     1000021         3   # BR(~s_L -> ~g      s)
#
#         PDG            Width
DECAY   2000003     1.86999635E+02   # sstrange_R decays
#          BR         NDA      ID1       ID2
     1.58521101E-02    2     1000022         3   # BR(~s_R -> ~chi_10 s)
     4.36339377E-06    2     1000023         3   # BR(~s_R -> ~chi_20 s)
     5.70548108E-06    2     1000025         3   # BR(~s_R -> ~chi_30 s)
     1.39213458E-09    2     1000035         3   # BR(~s_R -> ~chi_40 s)
     9.84137820E-01    2     1000021         3   # BR(~s_R -> ~g      s)
#
#         PDG            Width
DECAY   1000011     3.02296562E+01   # selectron_L decays
#          BR         NDA      ID1       ID2
     2.26782104E-01    2     1000022        11   # BR(~e_L -> ~chi_10 e-)
     1.02006460E-03    2     1000023        11   # BR(~e_L -> ~chi_20 e-)
     2.19316591E-07    2     1000025        11   # BR(~e_L -> ~chi_30 e-)
     2.57038560E-01    2     1000035        11   # BR(~e_L -> ~chi_40 e-)
     4.26662075E-04    2    -1000024        12   # BR(~e_L -> ~chi_1- nu_e)
     5.14732391E-01    2    -1000037        12   # BR(~e_L -> ~chi_2- nu_e)
#
#         PDG            Width
DECAY   2000011     2.73551637E+01   # selectron_R decays
#          BR         NDA      ID1       ID2
     9.99370733E-01    2     1000022        11   # BR(~e_R -> ~chi_10 e-)
     2.72662575E-04    2     1000023        11   # BR(~e_R -> ~chi_20 e-)
     3.56519545E-04    2     1000025        11   # BR(~e_R -> ~chi_30 e-)
     8.46386691E-08    2     1000035        11   # BR(~e_R -> ~chi_40 e-)
#
#         PDG            Width
DECAY   1000013     3.02296562E+01   # smuon_L decays
#          BR         NDA      ID1       ID2
     2.26782104E-01    2     1000022        13   # BR(~mu_L -> ~chi_10 mu-)
     1.02006460E-03    2     1000023        13   # BR(~mu_L -> ~chi_20 mu-)
     2.19316591E-07    2     1000025        13   # BR(~mu_L -> ~chi_30 mu-)
     2.57038560E-01    2     1000035        13   # BR(~mu_L -> ~chi_40 mu-)
     4.26662075E-04    2    -1000024        14   # BR(~mu_L -> ~chi_1- nu_mu)
     5.14732391E-01    2    -1000037        14   # BR(~mu_L -> ~chi_2- nu_mu)
#
#         PDG            Width
DECAY   2000013     2.73551637E+01   # smuon_R decays
#          BR         NDA      ID1       ID2
     9.99370733E-01    2     1000022        13   # BR(~mu_R -> ~chi_10 mu-)
     2.72662575E-04    2     1000023        13   # BR(~mu_R -> ~chi_20 mu-)
     3.56519545E-04    2     1000025        13   # BR(~mu_R -> ~chi_30 mu-)
     8.46386691E-08    2     1000035        13   # BR(~mu_R -> ~chi_40 mu-)
#
#         PDG            Width
DECAY   1000015     2.89349813E+01   # stau_1 decays
#          BR         NDA      ID1       ID2
     9.22779279E-01    2     1000022        15   # BR(~tau_1 -> ~chi_10  tau-)
     1.38736610E-02    2     1000023        15   # BR(~tau_1 -> ~chi_20  tau-)
     1.24848199E-02    2     1000025        15   # BR(~tau_1 -> ~chi_30  tau-)
     8.20018599E-03    2     1000035        15   # BR(~tau_1 -> ~chi_40  tau-)
     2.62405000E-02    2    -1000024        16   # BR(~tau_1 -> ~chi_1-  nu_tau)
     1.64215546E-02    2    -1000037        16   # BR(~tau_1 -> ~chi_2-  nu_tau)
#
#         PDG            Width
DECAY   2000015     3.08846570E+01   # stau_2 decays
#          BR         NDA      ID1       ID2
     2.42434098E-01    2     1000022        15   # BR(~tau_2 -> ~chi_10  tau-)
     1.25188196E-02    2     1000023        15   # BR(~tau_2 -> ~chi_20  tau-)
     1.28670907E-02    2     1000025        15   # BR(~tau_2 -> ~chi_30  tau-)
     2.43833630E-01    2     1000035        15   # BR(~tau_2 -> ~chi_40  tau-)
     6.01892411E-05    2    -1000024        16   # BR(~tau_2 -> ~chi_1-  nu_tau)
     4.88286173E-01    2    -1000037        16   # BR(~tau_2 -> ~chi_2-  nu_tau)
#
#         PDG            Width
DECAY   1000012     3.02315129E+01   # snu_eL decays
#          BR         NDA      ID1       ID2
     2.26519345E-01    2     1000022        12   # BR(~nu_eL -> ~chi_10 nu_e)
     2.62374354E-04    2     1000023        12   # BR(~nu_eL -> ~chi_20 nu_e)
     3.40811225E-04    2     1000025        12   # BR(~nu_eL -> ~chi_30 nu_e)
     2.57139408E-01    2     1000035        12   # BR(~nu_eL -> ~chi_40 nu_e)
     2.24912868E-03    2     1000024        11   # BR(~nu_eL -> ~chi_1+ e-)
     5.13488934E-01    2     1000037        11   # BR(~nu_eL -> ~chi_2+ e-)
#
#         PDG            Width
DECAY   1000014     3.02315129E+01   # snu_muL decays
#          BR         NDA      ID1       ID2
     2.26519345E-01    2     1000022        14   # BR(~nu_muL -> ~chi_10 nu_mu)
     2.62374354E-04    2     1000023        14   # BR(~nu_muL -> ~chi_20 nu_mu)
     3.40811225E-04    2     1000025        14   # BR(~nu_muL -> ~chi_30 nu_mu)
     2.57139408E-01    2     1000035        14   # BR(~nu_muL -> ~chi_40 nu_mu)
     2.24912868E-03    2     1000024        13   # BR(~nu_muL -> ~chi_1+ mu-)
     5.13488934E-01    2     1000037        13   # BR(~nu_muL -> ~chi_2+ mu-)
#
#         PDG            Width
DECAY   1000016     3.09736202E+01   # snu_tauL decays
#          BR         NDA      ID1       ID2
     2.21068416E-01    2     1000022        16   # BR(~nu_tauL -> ~chi_10 nu_tau)
     2.56048234E-04    2     1000023        16   # BR(~nu_tauL -> ~chi_20 nu_tau)
     3.32593854E-04    2     1000025        16   # BR(~nu_tauL -> ~chi_30 nu_tau)
     2.50887098E-01    2     1000035        16   # BR(~nu_tauL -> ~chi_40 nu_tau)
     2.64501022E-02    2     1000024        15   # BR(~nu_tauL -> ~chi_1+ tau-)
     5.01005742E-01    2     1000037        15   # BR(~nu_tauL -> ~chi_2+ tau-)
#
#         PDG            Width
DECAY   1000024     9.85158481E-01   # chargino1+ decays
#          BR         NDA      ID1       ID2
     1.00000000E+00    2     1000022        24   # BR(~chi_1+ -> ~chi_10  W+)
#
#         PDG            Width
DECAY   1000037     1.79014027E+01   # chargino2+ decays
#          BR         NDA      ID1       ID2
     2.52579818E-01    2     1000024        23   # BR(~chi_2+ -> ~chi_1+  Z )
     2.84946215E-04    2     1000022        24   # BR(~chi_2+ -> ~chi_10  W+)
     2.44108525E-01    2     1000023        24   # BR(~chi_2+ -> ~chi_20  W+)
     2.43545358E-01    2     1000025        24   # BR(~chi_2+ -> ~chi_30  W+)
     2.59481076E-01    2     1000024        25   # BR(~chi_2+ -> ~chi_1+  h )
     2.76854134E-07    2     1000022        37   # BR(~chi_2+ -> ~chi_10  H+)
#
#         PDG            Width
DECAY   1000022     0.00000000E+00   # neutralino1 decays
#
#         PDG            Width
DECAY   1000023     1.03598865E+00   # neutralino2 decays
#          BR         NDA      ID1       ID2
     5.58671393E-01    2     1000022        23   # BR(~chi_20 -> ~chi_10   Z )
     4.41328607E-01    2     1000022        25   # BR(~chi_20 -> ~chi_10   h )
#
#         PDG            Width
DECAY   1000025     1.04680702E+00   # neutralino3 decays
#          BR         NDA      ID1       ID2
     4.23580698E-01    2     1000022        23   # BR(~chi_30 -> ~chi_10   Z )
     5.76419302E-01    2     1000022        25   # BR(~chi_30 -> ~chi_10   h )
#
#         PDG            Width
DECAY   1000035     1.78957863E+01   # neutralino4 decays
#          BR         NDA      ID1       ID2
     1.07967121E-04    2     1000022        23   # BR(~chi_40 -> ~chi_10   Z )
     3.40855465E-02    2     1000023        23   # BR(~chi_40 -> ~chi_20   Z )
     2.18081349E-01    2     1000025        23   # BR(~chi_40 -> ~chi_30   Z )
     2.44200933E-01    2     1000024       -24   # BR(~chi_40 -> ~chi_1+   W-)
     2.44200933E-01    2    -1000024        24   # BR(~chi_40 -> ~chi_1-   W+)
     1.84777321E-04    2     1000022        25   # BR(~chi_40 -> ~chi_10   h )
     2.47197072E-07    2     1000022        35   # BR(~chi_40 -> ~chi_10   H )
     3.99311001E-08    2     1000022        36   # BR(~chi_40 -> ~chi_10   A )
     2.25134152E-01    2     1000023        25   # BR(~chi_40 -> ~chi_20   h )
     3.40040538E-02    2     1000025        25   # BR(~chi_40 -> ~chi_30   h )
#
#         PDG            Width
DECAY        25     4.04013552E-03   # h decays
#          BR         NDA      ID1       ID2
     6.04944694E-01    2           5        -5   # BR(h -> b       bb     )
     6.42225261E-02    2         -15        15   # BR(h -> tau+    tau-   )
     2.27370844E-04    2         -13        13   # BR(h -> mu+     mu-    )
     4.81970826E-04    2           3        -3   # BR(h -> s       sb     )
     2.08864371E-02    2           4        -4   # BR(h -> c       cb     )
     6.76276133E-02    2          21        21   # BR(h -> g       g      )
     2.32670396E-03    2          22        22   # BR(h -> gam     gam    )
     1.50500004E-03    2          22        23   # BR(h -> Z       gam    )
     2.12405296E-01    2          24       -24   # BR(h -> W+      W-     )
     2.53420300E-02    2          23        23   # BR(h -> Z       Z      )
     3.03579309E-05    2     1000022   1000022   # BR(h -> ~chi_10 ~chi_10)
#
#         PDG            Width
DECAY        35     7.09400678E+00   # H decays
#          BR         NDA      ID1       ID2
     4.62301382E-01    2           5        -5   # BR(H -> b       bb     )
     7.85308500E-02    2         -15        15   # BR(H -> tau+    tau-   )
     2.77691323E-04    2         -13        13   # BR(H -> mu+     mu-    )
     3.40406988E-04    2           3        -3   # BR(H -> s       sb     )
     1.90406193E-06    2           4        -4   # BR(H -> c       cb     )
     1.90230868E-01    2           6        -6   # BR(H -> t       tb     )
     6.31466944E-05    2          21        21   # BR(H -> g       g      )
     3.82192949E-07    2          22        22   # BR(H -> gam     gam    )
     1.12371321E-07    2          23        22   # BR(H -> Z       gam    )
     8.46909022E-05    2          24       -24   # BR(H -> W+      W-     )
     4.22918609E-05    2          23        23   # BR(H -> Z       Z      )
     3.19950862E-04    2          25        25   # BR(H -> h       h      )
    -6.98997285E-24    2          36        36   # BR(H -> A       A      )
     9.51819897E-19    2          23        36   # BR(H -> Z       A      )
     7.95448879E-04    2     1000022   1000022   # BR(H -> ~chi_10 ~chi_10)
     1.58261708E-01    2     1000022   1000023   # BR(H -> ~chi_10 ~chi_20)
     1.08749166E-01    2     1000022   1000025   # BR(H -> ~chi_10 ~chi_30)
#
#         PDG            Width
DECAY        36     7.09675812E+00   # A decays
#          BR         NDA      ID1       ID2
     4.62276007E-01    2           5        -5   # BR(A -> b       bb     )
     7.85026797E-02    2         -15        15   # BR(A -> tau+    tau-   )
     2.77591323E-04    2         -13        13   # BR(A -> mu+     mu-    )
     3.40533100E-04    2           3        -3   # BR(A -> s       sb     )
     1.91128032E-06    2           4        -4   # BR(A -> c       cb     )
     1.90846684E-01    2           6        -6   # BR(A -> t       tb     )
     1.88858529E-04    2          21        21   # BR(A -> g       g      )
     3.23098636E-07    2          22        22   # BR(A -> gam     gam    )
     2.28826172E-07    2          23        22   # BR(A -> Z       gam    )
     8.43376364E-05    2          23        25   # BR(A -> Z       h      )
     8.19390591E-04    2     1000022   1000022   # BR(A -> ~chi_10 ~chi_10)
     1.09994793E-01    2     1000022   1000023   # BR(A -> ~chi_10 ~chi_20)
     1.56666661E-01    2     1000022   1000025   # BR(A -> ~chi_10 ~chi_30)
#
#         PDG            Width
DECAY        37     7.11582379E+00   # H+ decays
#          BR         NDA      ID1       ID2
     7.45961532E-04    2           4        -5   # BR(H+ -> c       bb     )
     7.83151377E-02    2         -15        16   # BR(H+ -> tau+    nu_tau )
     2.76928160E-04    2         -13        14   # BR(H+ -> mu+     nu_mu  )
     4.77412958E-06    2           2        -5   # BR(H+ -> u       bb     )
     1.62495675E-05    2           2        -3   # BR(H+ -> u       sb     )
     3.36042147E-04    2           4        -3   # BR(H+ -> c       sb     )
     6.52566927E-01    2           6        -5   # BR(H+ -> t       bb     )
     8.42391579E-05    2          24        25   # BR(H+ -> W+      h      )
     9.38587573E-14    2          24        36   # BR(H+ -> W+      A      )
     2.67653741E-01    2     1000024   1000022   # BR(H+ -> ~chi_1+ ~chi_10)
