#
#                              ======================
#                              | THE SUSYHIT OUTPUT |
#                              ======================
#
#
#              ------------------------------------------------------
#              |     This is the output of the SUSY-HIT package     |
#              |  created by A.Djouadi, M.Muehlleitner and M.Spira. |
#              |  In case of problems with SUSY-HIT email to        |
#              |           margarete.muehlleitner@cern.ch           |
#              |           michael.spira@psi.ch                     |
#              |           abdelhak.djouadi@cern.ch                 |
#              ------------------------------------------------------
#
#              ------------------------------------------------------
#              |  SUSY Les Houches Accord - MSSM Spectrum + Decays  |
#              |              based on the decay programs           |
#              |                                                    |
#              |                     SDECAY 1.3b                    |
#              |                                                    |
#              |  Authors: M.Muhlleitner, A.Djouadi and Y.Mambrini  |
#              |  Ref.:    Comput.Phys.Commun.168(2005)46           |
#              |           [hep-ph/0311167]                         |
#              |                                                    |
#              |                     HDECAY 3.4                     |
#              |                                                    |
#              |  By: A.Djouadi,J.Kalinowski,M.Muhlleitner,M.Spira  |
#              |  Ref.:    Comput.Phys.Commun.108(1998)56           |
#              |           [hep-ph/9704448]                         |
#              |                                                    |
#              |                                                    |
#              |  If not stated otherwise all DRbar couplings and   |
#              |  soft SUSY breaking masses are given at the scale  |
#              |  Q=  0.50007226E+04
#              |                                                    |
#              ------------------------------------------------------
#
#
BLOCK DCINFO  # Decay Program information
     1   SDECAY/HDECAY # decay calculator
     2   1.3b  /3.4    # version number
#
BLOCK SPINFO  # Spectrum calculator information
     1    SOFTSUSY    # spectrum calculator                
     2    3.4.0       # version number                     
#
BLOCK MODSEL  # Model selection
     1     0   #  nonUniversal                                     
#
BLOCK SMINPUTS  # Standard Model inputs
         1     1.25778332E+02   # alpha_em^-1(M_Z)^MSbar
         2     1.16570000E-05   # G_F [GeV^-2]
         3     1.17200002E-01   # alpha_S(M_Z)^MSbar
         4     9.11876000E+01   # M_Z pole mass
         5     4.25000000E+00   # mb(mb)^MSbar
         6     1.72500000E+02   # mt pole mass
         7     1.77682000E+00   # mtau pole mass
#
BLOCK MINPAR  # Input parameters - minimal models
         3     1.00000000E+01   # tanb                
#
BLOCK EXTPAR  # Input parameters - non-minimal models
         0    -1.00000000E+00   # Set                 
         1     6.00000000E+01   # M_1(MX)             
         2     3.00000000E+03   # M_2(MX)             
         3     1.57543700E+03   # M_3(MX)             
        11     5.00000000E+03   # At(MX)              
        12     5.00000000E+03   # Ab(MX)              
        13     0.00000000E+00   # Atau(MX)            
        23    -1.34890600E+03   # mu(MX)              
        26     3.00000000E+03   # mA(pole)            
        31     5.00000000E+03   # meL(MX)             
        32     5.00000000E+03   # mmuL(MX)            
        33     5.00000000E+03   # mtauL(MX)           
        34     5.00000000E+03   # meR(MX)             
        35     5.00000000E+03   # mmuR(MX)            
        36     5.00000000E+03   # mtauR(MX)           
        41     5.00000000E+03   # mqL1(MX)            
        42     5.00000000E+03   # mqL2(MX)            
        43     5.00000000E+03   # mqL3(MX)            
        44     5.00000000E+03   # muR(MX)             
        45     5.00000000E+03   # mcR(MX)             
        46     5.00000000E+03   # mtR(MX)             
        47     5.00000000E+03   # mdR(MX)             
        48     5.00000000E+03   # msR(MX)             
        49     5.00000000E+03   # mbR(MX)             
#
BLOCK MASS  # Mass Spectrum
# PDG code           mass       particle
        24     8.00960622E+01   # W+
        25     1.24750732E+02   # h
        35     3.00008409E+03   # H
        36     2.99999990E+03   # A
        37     3.00087311E+03   # H+
         5     4.87878001E+00   # b-quark pole mass calculated from mb(mb)_Msbar
   1000001     5.07063511E+03   # ~d_L
   2000001     5.05284852E+03   # ~d_R
   1000002     5.07016102E+03   # ~u_L
   2000002     5.05257146E+03   # ~u_R
   1000003     5.07063511E+03   # ~s_L
   2000003     5.05284852E+03   # ~s_R
   1000004     5.07016102E+03   # ~c_L
   2000004     5.05257146E+03   # ~c_R
   1000005     5.01658090E+03   # ~b_1
   2000005     5.05163422E+03   # ~b_2
   1000006     4.90773503E+03   # ~t_1
   2000006     5.06252689E+03   # ~t_2
   1000011     5.01905314E+03   # ~e_L
   2000011     5.00591306E+03   # ~e_R
   1000012     5.01810501E+03   # ~nu_eL
   1000013     5.01905314E+03   # ~mu_L
   2000013     5.00591306E+03   # ~mu_R
   1000014     5.01810501E+03   # ~nu_muL
   1000015     5.00442500E+03   # ~tau_1
   2000015     5.01894859E+03   # ~tau_2
   1000016     5.01756442E+03   # ~nu_tauL
   1000021     1.90000023E+03   # ~g
   1000022     6.03031333E+01   # ~chi_10
   1000023     1.39947226E+03   # ~chi_20
   1000025    -1.40186052E+03   # ~chi_30
   1000035     3.07431865E+03   # ~chi_40
   1000024     1.40000000E+03   # ~chi_1+
   1000037     3.07448611E+03   # ~chi_2+
#
BLOCK NMIX  # Neutralino Mixing Matrix
  1  1     9.99491086E-01   # N_11
  1  2     1.47254460E-04   # N_12
  1  3    -3.18386844E-02   # N_13
  1  4     1.96105406E-03   # N_14
  2  1     2.11277219E-02   # N_21
  2  2     2.90585740E-02   # N_22
  2  3     7.06893259E-01   # N_23
  2  4     7.06407205E-01   # N_24
  3  1    -2.38955534E-02   # N_31
  3  2     1.35653050E-02   # N_32
  3  3    -7.06518321E-01   # N_33
  3  4     7.07161118E-01   # N_34
  4  1    -4.37195393E-04   # N_41
  4  2     9.99485648E-01   # N_42
  4  3    -1.09581215E-02   # N_43
  4  4    -3.01358315E-02   # N_44
#
BLOCK UMIX  # Chargino Mixing Matrix U
  1  1     1.55097960E-02   # U_11
  1  2     9.99879716E-01   # U_12
  2  1    -9.99879716E-01   # U_21
  2  2     1.55097960E-02   # U_22
#
BLOCK VMIX  # Chargino Mixing Matrix V
  1  1     4.26422799E-02   # V_11
  1  2    -9.99090404E-01   # V_12
  2  1    -9.99090404E-01   # V_21
  2  2    -4.26422799E-02   # V_22
#
BLOCK STOPMIX  # Stop Mixing Matrix
  1  1    -5.10398640E-01   # cos(theta_t)
  1  2     8.59937921E-01   # sin(theta_t)
  2  1    -8.59937921E-01   # -sin(theta_t)
  2  2    -5.10398640E-01   # cos(theta_t)
#
BLOCK SBOTMIX  # Sbottom Mixing Matrix
  1  1     9.95108002E-01   # cos(theta_b)
  1  2    -9.87930380E-02   # sin(theta_b)
  2  1     9.87930380E-02   # -sin(theta_b)
  2  2     9.95108002E-01   # cos(theta_b)
#
BLOCK STAUMIX  # Stau Mixing Matrix
  1  1    -1.57617220E-01   # cos(theta_tau)
  1  2     9.87500285E-01   # sin(theta_tau)
  2  1    -9.87500285E-01   # -sin(theta_tau)
  2  2    -1.57617220E-01   # cos(theta_tau)
#
BLOCK ALPHA  # Higgs mixing
          -1.05463740E-01   # Mixing angle in the neutral Higgs boson sector
#
BLOCK HMIX Q=  5.00072260E+03  # DRbar Higgs Parameters
         1    -1.37359003E+03   # mu(Q)MSSM           
         2     9.47046155E+00   # tan                 
         3     2.41939396E+02   # higgs               
         4     8.41990028E+06   # mA^2(Q)MSSM         
#
BLOCK GAUGE Q=  5.00072260E+03  # The gauge couplings
     1     3.70720888E-01   # gprime(Q) DRbar
     2     6.32177585E-01   # g(Q) DRbar
     3     9.99250908E-01   # g3(Q) DRbar
#
BLOCK AU Q=  5.00072260E+03  # The trilinear couplings
  1  1     5.00000001E+03   # A_u(Q) DRbar
  2  2     5.00000001E+03   # A_c(Q) DRbar
  3  3     5.00000002E+03   # A_t(Q) DRbar
#
BLOCK AD Q=  5.00072260E+03  # The trilinear couplings
  1  1     5.00000001E+03   # A_d(Q) DRbar
  2  2     5.00000001E+03   # A_s(Q) DRbar
  3  3     5.00000001E+03   # A_b(Q) DRbar
#
BLOCK AE Q=  5.00072260E+03  # The trilinear couplings
  1  1     0.00000000E+00   # A_e(Q) DRbar
  2  2     1.60714279E-07   # A_mu(Q) DRbar
  3  3     1.60295605E-07   # A_tau(Q) DRbar
#
BLOCK Yu Q=  5.00072260E+03  # The Yukawa couplings
  1  1     0.00000000E+00   # y_u(Q) DRbar
  2  2     0.00000000E+00   # y_c(Q) DRbar
  3  3     8.19307109E-01   # y_t(Q) DRbar
#
BLOCK Yd Q=  5.00072260E+03  # The Yukawa couplings
  1  1     0.00000000E+00   # y_d(Q) DRbar
  2  2     0.00000000E+00   # y_s(Q) DRbar
  3  3     1.31033916E-01   # y_b(Q) DRbar
#
BLOCK Ye Q=  5.00072260E+03  # The Yukawa couplings
  1  1     0.00000000E+00   # y_e(Q) DRbar
  2  2     0.00000000E+00   # y_mu(Q) DRbar
  3  3     9.66724216E-02   # y_tau(Q) DRbar
#
BLOCK MSOFT Q=  5.00072260E+03  # The soft SUSY breaking masses at the scale Q
         1     6.00000000E+01   # M_1(Q)              
         2     3.00000000E+03   # M_2(Q)              
         3     1.57543700E+03   # M_3(Q)              
        21     6.78832239E+06   # mH1^2(Q)            
        22    -1.33521510E+06   # mH2^2(Q)            
        31     5.00000000E+03   # meL(Q)              
        32     5.00000000E+03   # mmuL(Q)             
        33     5.00000000E+03   # mtauL(Q)            
        34     5.00000000E+03   # meR(Q)              
        35     5.00000000E+03   # mmuR(Q)             
        36     5.00000000E+03   # mtauR(Q)            
        41     5.00000000E+03   # mqL1(Q)             
        42     5.00000000E+03   # mqL2(Q)             
        43     5.00000000E+03   # mqL3(Q)             
        44     5.00000000E+03   # muR(Q)              
        45     5.00000000E+03   # mcR(Q)              
        46     4.99999999E+03   # mtR(Q)              
        47     5.00000000E+03   # mdR(Q)              
        48     5.00000000E+03   # msR(Q)              
        49     5.00000000E+03   # mbR(Q)              
#
#
#
#                             =================
#                             |The decay table|
#                             =================
#
# - The QCD corrections to the decays gluino -> squark  + quark
#                                     squark -> gaugino + quark_prime
#                                     squark -> squark_prime + Higgs
#                                     squark -> gluino  + quark
#   are included.
#
# - The multi-body decays for the inos, stops and sbottoms are included.
#
# - The loop induced decays for the gluino, neutralinos and stops
#   are included.
#
# - The SUSY decays of the top quark are included.
#
#
#         PDG            Width
DECAY         6     1.40045756E+00   # top decays
#          BR         NDA      ID1       ID2
     1.00000000E+00    2           5        24   # BR(t ->  b    W+)
#
#         PDG            Width
DECAY   1000021     2.46740162E-04   # gluino decays
#          BR         NDA      ID1       ID2
     8.43726493E-06    2     1000022        21   # BR(~g -> ~chi_10 g)
     5.53183802E-03    2     1000023        21   # BR(~g -> ~chi_20 g)
     5.46801581E-03    2     1000025        21   # BR(~g -> ~chi_30 g)
#           BR         NDA      ID1       ID2       ID3
     7.26530660E-02    3     1000022         1        -1   # BR(~g -> ~chi_10 d  db)
     4.31675204E-06    3     1000023         1        -1   # BR(~g -> ~chi_20 d  db)
     8.85555567E-07    3     1000025         1        -1   # BR(~g -> ~chi_30 d  db)
     2.47693829E-01    3     1000022         2        -2   # BR(~g -> ~chi_10 u  ub)
     8.61938145E-06    3     1000023         2        -2   # BR(~g -> ~chi_20 u  ub)
     9.12144336E-07    3     1000025         2        -2   # BR(~g -> ~chi_30 u  ub)
     7.26530660E-02    3     1000022         3        -3   # BR(~g -> ~chi_10 s  sb)
     4.31675204E-06    3     1000023         3        -3   # BR(~g -> ~chi_20 s  sb)
     8.85555567E-07    3     1000025         3        -3   # BR(~g -> ~chi_30 s  sb)
     2.47693829E-01    3     1000022         4        -4   # BR(~g -> ~chi_10 c  cb)
     8.61938145E-06    3     1000023         4        -4   # BR(~g -> ~chi_20 c  cb)
     9.12144336E-07    3     1000025         4        -4   # BR(~g -> ~chi_30 c  cb)
     7.35650582E-02    3     1000022         5        -5   # BR(~g -> ~chi_10 b  bb)
     5.64716694E-04    3     1000023         5        -5   # BR(~g -> ~chi_20 b  bb)
     5.45248953E-04    3     1000025         5        -5   # BR(~g -> ~chi_30 b  bb)
     2.36934794E-01    3     1000022         6        -6   # BR(~g -> ~chi_10 t  tb)
     7.22410034E-03    3     1000023         6        -6   # BR(~g -> ~chi_20 t  tb)
     3.50319862E-03    3     1000025         6        -6   # BR(~g -> ~chi_30 t  tb)
     1.13080531E-05    3     1000024         1        -2   # BR(~g -> ~chi_1+ d  ub)
     1.13080531E-05    3    -1000024         2        -1   # BR(~g -> ~chi_1- u  db)
     1.13080531E-05    3     1000024         3        -4   # BR(~g -> ~chi_1+ s  cb)
     1.13080531E-05    3    -1000024         4        -3   # BR(~g -> ~chi_1- c  sb)
     1.29430512E-02    3     1000024         5        -6   # BR(~g -> ~chi_1+ b  tb)
     1.29430512E-02    3    -1000024         6        -5   # BR(~g -> ~chi_1- t  bb)
#
#         PDG            Width
DECAY   1000006     3.41391837E+02   # stop1 decays
#          BR         NDA      ID1       ID2
     2.58195973E-02    2     1000022         6   # BR(~t_1 -> ~chi_10 t )
     8.16490834E-02    2     1000023         6   # BR(~t_1 -> ~chi_20 t )
     7.84882189E-02    2     1000025         6   # BR(~t_1 -> ~chi_30 t )
     6.26873269E-03    2     1000035         6   # BR(~t_1 -> ~chi_40 t )
     1.17999960E-01    2     1000024         5   # BR(~t_1 -> ~chi_1+ b )
     1.24743513E-02    2     1000037         5   # BR(~t_1 -> ~chi_2+ b )
     6.77300057E-01    2     1000021         6   # BR(~t_1 -> ~g      t )
#
#         PDG            Width
DECAY   2000006     3.50936690E+02   # stop2 decays
#          BR         NDA      ID1       ID2
     1.00672475E-02    2     1000022         6   # BR(~t_2 -> ~chi_10 t )
     8.20966860E-02    2     1000023         6   # BR(~t_2 -> ~chi_20 t )
     8.54361195E-02    2     1000025         6   # BR(~t_2 -> ~chi_30 t )
     1.56261704E-02    2     1000035         6   # BR(~t_2 -> ~chi_40 t )
     4.98244278E-02    2     1000024         5   # BR(~t_2 -> ~chi_1+ b )
     3.10452492E-02    2     1000037         5   # BR(~t_2 -> ~chi_2+ b )
     7.22229443E-01    2     1000021         6   # BR(~t_2 -> ~g      t )
     8.18508736E-04    2     1000006        25   # BR(~t_2 -> ~t_1    h )
     2.85614739E-03    2     1000006        23   # BR(~t_2 -> ~t_1    Z )
#
#         PDG            Width
DECAY   1000005     3.27222024E+02   # sbottom1 decays
#          BR         NDA      ID1       ID2
     2.38159847E-03    2     1000022         5   # BR(~b_1 -> ~chi_10 b )
     2.30478533E-03    2     1000023         5   # BR(~b_1 -> ~chi_20 b )
     2.19604656E-03    2     1000025         5   # BR(~b_1 -> ~chi_30 b )
     2.28939325E-02    2     1000035         5   # BR(~b_1 -> ~chi_40 b )
     1.72986340E-01    2    -1000024         6   # BR(~b_1 -> ~chi_1- t )
     4.60614960E-02    2    -1000037         6   # BR(~b_1 -> ~chi_2- t )
     7.49477221E-01    2     1000021         5   # BR(~b_1 -> ~g      b )
     1.69858025E-03    2     1000006       -24   # BR(~b_1 -> ~t_1    W-)
#
#         PDG            Width
DECAY   2000005     2.54553473E+02   # sbottom2 decays
#          BR         NDA      ID1       ID2
     1.15103891E-02    2     1000022         5   # BR(~b_2 -> ~chi_10 b )
     2.86649457E-03    2     1000023         5   # BR(~b_2 -> ~chi_20 b )
     2.98038555E-03    2     1000025         5   # BR(~b_2 -> ~chi_30 b )
     3.03624325E-04    2     1000035         5   # BR(~b_2 -> ~chi_40 b )
     7.91039806E-03    2    -1000024         6   # BR(~b_2 -> ~chi_1- t )
     6.10656771E-04    2    -1000037         6   # BR(~b_2 -> ~chi_2- t )
     9.73727183E-01    2     1000021         5   # BR(~b_2 -> ~g      b )
     9.08691404E-05    2     1000006       -24   # BR(~b_2 -> ~t_1    W-)
#
#         PDG            Width
DECAY   1000002     2.73592388E+02   # sup_L decays
#          BR         NDA      ID1       ID2
     2.72799881E-03    2     1000022         2   # BR(~u_L -> ~chi_10 u)
     6.72137525E-05    2     1000023         2   # BR(~u_L -> ~chi_20 u)
     4.82469646E-06    2     1000025         2   # BR(~u_L -> ~chi_30 u)
     2.86492746E-02    2     1000035         2   # BR(~u_L -> ~chi_40 u)
     2.21891446E-04    2     1000024         1   # BR(~u_L -> ~chi_1+ d)
     5.72558284E-02    2     1000037         1   # BR(~u_L -> ~chi_2+ d)
     9.11072968E-01    2     1000021         2   # BR(~u_L -> ~g      u)
#
#         PDG            Width
DECAY   2000002     2.59724399E+02   # sup_R decays
#          BR         NDA      ID1       ID2
     4.57483333E-02    2     1000022         2   # BR(~u_R -> ~chi_10 u)
     1.74605016E-05    2     1000023         2   # BR(~u_R -> ~chi_20 u)
     2.23223390E-05    2     1000025         2   # BR(~u_R -> ~chi_30 u)
     3.49024120E-09    2     1000035         2   # BR(~u_R -> ~chi_40 u)
     9.54211880E-01    2     1000021         2   # BR(~u_R -> ~g      u)
#
#         PDG            Width
DECAY   1000001     2.73607017E+02   # sdown_L decays
#          BR         NDA      ID1       ID2
     2.71989838E-03    2     1000022         1   # BR(~d_L -> ~chi_10 d)
     3.79239017E-05    2     1000023         1   # BR(~d_L -> ~chi_20 d)
     2.02834215E-05    2     1000025         1   # BR(~d_L -> ~chi_30 d)
     2.86664126E-02    2     1000035         1   # BR(~d_L -> ~chi_40 d)
     2.93564070E-05    2    -1000024         2   # BR(~d_L -> ~chi_1- u)
     5.73610169E-02    2    -1000037         2   # BR(~d_L -> ~chi_2- u)
     9.11165108E-01    2     1000021         1   # BR(~d_L -> ~g      d)
#
#         PDG            Width
DECAY   2000001     2.50827888E+02   # sdown_R decays
#          BR         NDA      ID1       ID2
     1.18433970E-02    2     1000022         1   # BR(~d_R -> ~chi_10 d)
     4.52028176E-06    2     1000023         1   # BR(~d_R -> ~chi_20 d)
     5.77894443E-06    2     1000025         1   # BR(~d_R -> ~chi_30 d)
     9.03674042E-10    2     1000035         1   # BR(~d_R -> ~chi_40 d)
     9.88146303E-01    2     1000021         1   # BR(~d_R -> ~g      d)
#
#         PDG            Width
DECAY   1000004     2.73592388E+02   # scharm_L decays
#          BR         NDA      ID1       ID2
     2.72799881E-03    2     1000022         4   # BR(~c_L -> ~chi_10 c)
     6.72137525E-05    2     1000023         4   # BR(~c_L -> ~chi_20 c)
     4.82469646E-06    2     1000025         4   # BR(~c_L -> ~chi_30 c)
     2.86492746E-02    2     1000035         4   # BR(~c_L -> ~chi_40 c)
     2.21891446E-04    2     1000024         3   # BR(~c_L -> ~chi_1+ s)
     5.72558284E-02    2     1000037         3   # BR(~c_L -> ~chi_2+ s)
     9.11072968E-01    2     1000021         4   # BR(~c_L -> ~g      c)
#
#         PDG            Width
DECAY   2000004     2.59724399E+02   # scharm_R decays
#          BR         NDA      ID1       ID2
     4.57483333E-02    2     1000022         4   # BR(~c_R -> ~chi_10 c)
     1.74605016E-05    2     1000023         4   # BR(~c_R -> ~chi_20 c)
     2.23223390E-05    2     1000025         4   # BR(~c_R -> ~chi_30 c)
     3.49024120E-09    2     1000035         4   # BR(~c_R -> ~chi_40 c)
     9.54211880E-01    2     1000021         4   # BR(~c_R -> ~g      c)
#
#         PDG            Width
DECAY   1000003     2.73607017E+02   # sstrange_L decays
#          BR         NDA      ID1       ID2
     2.71989838E-03    2     1000022         3   # BR(~s_L -> ~chi_10 s)
     3.79239017E-05    2     1000023         3   # BR(~s_L -> ~chi_20 s)
     2.02834215E-05    2     1000025         3   # BR(~s_L -> ~chi_30 s)
     2.86664126E-02    2     1000035         3   # BR(~s_L -> ~chi_40 s)
     2.93564070E-05    2    -1000024         4   # BR(~s_L -> ~chi_1- c)
     5.73610169E-02    2    -1000037         4   # BR(~s_L -> ~chi_2- c)
     9.11165108E-01    2     1000021         3   # BR(~s_L -> ~g      s)
#
#         PDG            Width
DECAY   2000003     2.50827888E+02   # sstrange_R decays
#          BR         NDA      ID1       ID2
     1.18433970E-02    2     1000022         3   # BR(~s_R -> ~chi_10 s)
     4.52028176E-06    2     1000023         3   # BR(~s_R -> ~chi_20 s)
     5.77894443E-06    2     1000025         3   # BR(~s_R -> ~chi_30 s)
     9.03674042E-10    2     1000035         3   # BR(~s_R -> ~chi_40 s)
     9.88146303E-01    2     1000021         3   # BR(~s_R -> ~g      s)
#
#         PDG            Width
DECAY   1000011     3.02430546E+01   # selectron_L decays
#          BR         NDA      ID1       ID2
     2.26694535E-01    2     1000022        11   # BR(~e_L -> ~chi_10 e-)
     9.64022581E-04    2     1000023        11   # BR(~e_L -> ~chi_20 e-)
     1.12307545E-07    2     1000025        11   # BR(~e_L -> ~chi_30 e-)
     2.57156324E-01    2     1000035        11   # BR(~e_L -> ~chi_40 e-)
     2.69936324E-04    2    -1000024        12   # BR(~e_L -> ~chi_1- nu_e)
     5.14915070E-01    2    -1000037        12   # BR(~e_L -> ~chi_2- nu_e)
#
#         PDG            Width
DECAY   2000011     2.73618254E+01   # selectron_R decays
#          BR         NDA      ID1       ID2
     9.99135259E-01    2     1000022        11   # BR(~e_R -> ~chi_10 e-)
     3.79500854E-04    2     1000023        11   # BR(~e_R -> ~chi_20 e-)
     4.85165607E-04    2     1000025        11   # BR(~e_R -> ~chi_30 e-)
     7.41805317E-08    2     1000035        11   # BR(~e_R -> ~chi_40 e-)
#
#         PDG            Width
DECAY   1000013     3.02430546E+01   # smuon_L decays
#          BR         NDA      ID1       ID2
     2.26694535E-01    2     1000022        13   # BR(~mu_L -> ~chi_10 mu-)
     9.64022581E-04    2     1000023        13   # BR(~mu_L -> ~chi_20 mu-)
     1.12307545E-07    2     1000025        13   # BR(~mu_L -> ~chi_30 mu-)
     2.57156324E-01    2     1000035        13   # BR(~mu_L -> ~chi_40 mu-)
     2.69936324E-04    2    -1000024        14   # BR(~mu_L -> ~chi_1- nu_mu)
     5.14915070E-01    2    -1000037        14   # BR(~mu_L -> ~chi_2- nu_mu)
#
#         PDG            Width
DECAY   2000013     2.73618254E+01   # smuon_R decays
#          BR         NDA      ID1       ID2
     9.99135259E-01    2     1000022        13   # BR(~mu_R -> ~chi_10 mu-)
     3.79500854E-04    2     1000023        13   # BR(~mu_R -> ~chi_20 mu-)
     4.85165607E-04    2     1000025        13   # BR(~mu_R -> ~chi_30 mu-)
     7.41805317E-08    2     1000035        13   # BR(~mu_R -> ~chi_40 mu-)
#
#         PDG            Width
DECAY   1000015     2.90045232E+01   # stau_1 decays
#          BR         NDA      ID1       ID2
     9.25606557E-01    2     1000022        15   # BR(~tau_1 -> ~chi_10  tau-)
     1.44569547E-02    2     1000023        15   # BR(~tau_1 -> ~chi_20  tau-)
     1.32806910E-02    2     1000025        15   # BR(~tau_1 -> ~chi_30  tau-)
     6.40081605E-03    2     1000035        15   # BR(~tau_1 -> ~chi_40  tau-)
     2.74384515E-02    2    -1000024        16   # BR(~tau_1 -> ~chi_1-  nu_tau)
     1.28165302E-02    2    -1000037        16   # BR(~tau_1 -> ~chi_2-  nu_tau)
#
#         PDG            Width
DECAY   2000015     3.09607172E+01   # stau_2 decays
#          BR         NDA      ID1       ID2
     2.37150058E-01    2     1000022        15   # BR(~tau_2 -> ~chi_10  tau-)
     1.33022077E-02    2     1000023        15   # BR(~tau_2 -> ~chi_20  tau-)
     1.35190412E-02    2     1000025        15   # BR(~tau_2 -> ~chi_30  tau-)
     2.45123598E-01    2     1000035        15   # BR(~tau_2 -> ~chi_40  tau-)
     8.45730247E-05    2    -1000024        16   # BR(~tau_2 -> ~chi_1-  nu_tau)
     4.90820522E-01    2    -1000037        16   # BR(~tau_2 -> ~chi_2-  nu_tau)
#
#         PDG            Width
DECAY   1000012     3.02452677E+01   # snu_eL decays
#          BR         NDA      ID1       ID2
     2.26407461E-01    2     1000022        12   # BR(~nu_eL -> ~chi_10 nu_e)
     1.55863942E-04    2     1000023        12   # BR(~nu_eL -> ~chi_20 nu_e)
     4.26394512E-04    2     1000025        12   # BR(~nu_eL -> ~chi_30 nu_e)
     2.57236060E-01    2     1000035        12   # BR(~nu_eL -> ~chi_40 nu_e)
     2.03980413E-03    2     1000024        11   # BR(~nu_eL -> ~chi_1+ e-)
     5.13734416E-01    2     1000037        11   # BR(~nu_eL -> ~chi_2+ e-)
#
#         PDG            Width
DECAY   1000014     3.02452677E+01   # snu_muL decays
#          BR         NDA      ID1       ID2
     2.26407461E-01    2     1000022        14   # BR(~nu_muL -> ~chi_10 nu_mu)
     1.55863942E-04    2     1000023        14   # BR(~nu_muL -> ~chi_20 nu_mu)
     4.26394512E-04    2     1000025        14   # BR(~nu_muL -> ~chi_30 nu_mu)
     2.57236060E-01    2     1000035        14   # BR(~nu_muL -> ~chi_40 nu_mu)
     2.03980413E-03    2     1000024        13   # BR(~nu_muL -> ~chi_1+ mu-)
     5.13734416E-01    2     1000037        13   # BR(~nu_muL -> ~chi_2+ mu-)
#
#         PDG            Width
DECAY   1000016     3.10291835E+01   # snu_tauL decays
#          BR         NDA      ID1       ID2
     2.20663755E-01    2     1000022        16   # BR(~nu_tauL -> ~chi_10 nu_tau)
     1.51904335E-04    2     1000023        16   # BR(~nu_tauL -> ~chi_20 nu_tau)
     4.15562221E-04    2     1000025        16   # BR(~nu_tauL -> ~chi_30 nu_tau)
     2.50645363E-01    2     1000035        16   # BR(~nu_tauL -> ~chi_40 nu_tau)
     2.75506670E-02    2     1000024        15   # BR(~nu_tauL -> ~chi_1+ tau-)
     5.00572748E-01    2     1000037        15   # BR(~nu_tauL -> ~chi_2+ tau-)
#
#         PDG            Width
DECAY   1000024     8.59996250E-01   # chargino1+ decays
#          BR         NDA      ID1       ID2
     1.00000000E+00    2     1000022        24   # BR(~chi_1+ -> ~chi_10  W+)
#
#         PDG            Width
DECAY   1000037     1.88547631E+01   # chargino2+ decays
#          BR         NDA      ID1       ID2
     2.52815480E-01    2     1000024        23   # BR(~chi_2+ -> ~chi_1+  Z )
     2.42472027E-04    2     1000022        24   # BR(~chi_2+ -> ~chi_10  W+)
     2.43969747E-01    2     1000023        24   # BR(~chi_2+ -> ~chi_20  W+)
     2.43784437E-01    2     1000025        24   # BR(~chi_2+ -> ~chi_30  W+)
     2.59187397E-01    2     1000024        25   # BR(~chi_2+ -> ~chi_1+  h )
     4.67185937E-07    2     1000022        37   # BR(~chi_2+ -> ~chi_10  H+)
#
#         PDG            Width
DECAY   1000022     0.00000000E+00   # neutralino1 decays
#
#         PDG            Width
DECAY   1000023     9.03094547E-01   # neutralino2 decays
#          BR         NDA      ID1       ID2
     5.54026047E-01    2     1000022        23   # BR(~chi_20 -> ~chi_10   Z )
     4.45973953E-01    2     1000022        25   # BR(~chi_20 -> ~chi_10   h )
#
#         PDG            Width
DECAY   1000025     9.11447281E-01   # neutralino3 decays
#          BR         NDA      ID1       ID2
     4.29733160E-01    2     1000022        23   # BR(~chi_30 -> ~chi_10   Z )
     5.70266840E-01    2     1000022        25   # BR(~chi_30 -> ~chi_10   h )
#
#         PDG            Width
DECAY   1000035     1.88598549E+01   # neutralino4 decays
#          BR         NDA      ID1       ID2
     8.22981011E-05    2     1000022        23   # BR(~chi_40 -> ~chi_10   Z )
     4.53963101E-02    2     1000023        23   # BR(~chi_40 -> ~chi_20   Z )
     2.06802349E-01    2     1000025        23   # BR(~chi_40 -> ~chi_30   Z )
     2.44425869E-01    2     1000024       -24   # BR(~chi_40 -> ~chi_1+   W-)
     2.44425869E-01    2    -1000024        24   # BR(~chi_40 -> ~chi_1-   W+)
     1.65189765E-04    2     1000022        25   # BR(~chi_40 -> ~chi_10   h )
     4.23823505E-07    2     1000022        35   # BR(~chi_40 -> ~chi_10   H )
     6.02459661E-08    2     1000022        36   # BR(~chi_40 -> ~chi_10   A )
     2.13292830E-01    2     1000023        25   # BR(~chi_40 -> ~chi_20   h )
     4.54088004E-02    2     1000025        25   # BR(~chi_40 -> ~chi_30   h )
#
#         PDG            Width
DECAY        25     4.04684535E-03   # h decays
#          BR         NDA      ID1       ID2
     6.07823866E-01    2           5        -5   # BR(h -> b       bb     )
     6.40766410E-02    2         -15        15   # BR(h -> tau+    tau-   )
     2.26854707E-04    2         -13        13   # BR(h -> mu+     mu-    )
     4.80935993E-04    2           3        -3   # BR(h -> s       sb     )
     2.08411694E-02    2           4        -4   # BR(h -> c       cb     )
     6.73895415E-02    2          21        21   # BR(h -> g       g      )
     2.31663680E-03    2          22        22   # BR(h -> gam     gam    )
     1.49177814E-03    2          22        23   # BR(h -> Z       gam    )
     2.10266749E-01    2          24       -24   # BR(h -> W+      W-     )
     2.50498152E-02    2          23        23   # BR(h -> Z       Z      )
     3.60131136E-05    2     1000022   1000022   # BR(h -> ~chi_10 ~chi_10)
#
#         PDG            Width
DECAY        35     7.44790634E+00   # H decays
#          BR         NDA      ID1       ID2
     4.37393891E-01    2           5        -5   # BR(H -> b       bb     )
     7.48109780E-02    2         -15        15   # BR(H -> tau+    tau-   )
     2.64537560E-04    2         -13        13   # BR(H -> mu+     mu-    )
     3.24282487E-04    2           3        -3   # BR(H -> s       sb     )
     1.81334331E-06    2           4        -4   # BR(H -> c       cb     )
     1.81167361E-01    2           6        -6   # BR(H -> t       tb     )
     6.01513604E-05    2          21        21   # BR(H -> g       g      )
     3.84186736E-07    2          22        22   # BR(H -> gam     gam    )
     1.06983253E-07    2          23        22   # BR(H -> Z       gam    )
     8.13305657E-05    2          24       -24   # BR(H -> W+      W-     )
     4.06138147E-05    2          23        23   # BR(H -> Z       Z      )
     3.06438899E-04    2          25        25   # BR(H -> h       h      )
    -3.66702062E-23    2          36        36   # BR(H -> A       A      )
     3.52220235E-19    2          23        36   # BR(H -> Z       A      )
     3.04305357E-04    2     1000024  -1000024   # BR(H -> ~chi_1+ ~chi_1-)
     9.89365632E-04    2     1000022   1000022   # BR(H -> ~chi_10 ~chi_10)
     2.94722738E-05    2     1000023   1000023   # BR(H -> ~chi_20 ~chi_20)
     4.25445500E-05    2     1000025   1000025   # BR(H -> ~chi_30 ~chi_30)
     1.81165472E-01    2     1000022   1000023   # BR(H -> ~chi_10 ~chi_20)
     1.22960787E-01    2     1000022   1000025   # BR(H -> ~chi_10 ~chi_30)
     5.61641527E-05    2     1000023   1000025   # BR(H -> ~chi_20 ~chi_30)
#
#         PDG            Width
DECAY        36     7.46707199E+00   # A decays
#          BR         NDA      ID1       ID2
     4.36417441E-01    2           5        -5   # BR(A -> b       bb     )
     7.46211075E-02    2         -15        15   # BR(A -> tau+    tau-   )
     2.63865794E-04    2         -13        13   # BR(A -> mu+     mu-    )
     3.23695387E-04    2           3        -3   # BR(A -> s       sb     )
     1.81621181E-06    2           4        -4   # BR(A -> c       cb     )
     1.81353828E-01    2           6        -6   # BR(A -> t       tb     )
     1.79476174E-04    2          21        21   # BR(A -> g       g      )
     4.26320010E-07    2          22        22   # BR(A -> gam     gam    )
     2.17402763E-07    2          23        22   # BR(A -> Z       gam    )
     8.08151851E-05    2          23        25   # BR(A -> Z       h      )
     2.01820369E-03    2     1000024  -1000024   # BR(A -> ~chi_1+ ~chi_1-)
     1.01453626E-03    2     1000022   1000022   # BR(A -> ~chi_10 ~chi_10)
     1.48403312E-04    2     1000023   1000023   # BR(A -> ~chi_20 ~chi_20)
     5.12499929E-04    2     1000025   1000025   # BR(A -> ~chi_30 ~chi_30)
     1.24130890E-01    2     1000022   1000023   # BR(A -> ~chi_10 ~chi_20)
     1.78932050E-01    2     1000022   1000025   # BR(A -> ~chi_10 ~chi_30)
     7.27269394E-07    2     1000023   1000025   # BR(A -> ~chi_20 ~chi_30)
#
#         PDG            Width
DECAY        37     7.44768065E+00   # H+ decays
#          BR         NDA      ID1       ID2
     7.03272200E-04    2           4        -5   # BR(H+ -> c       bb     )
     7.48371732E-02    2         -15        16   # BR(H+ -> tau+    nu_tau )
     2.64629819E-04    2         -13        14   # BR(H+ -> mu+     nu_mu  )
     4.50091900E-06    2           2        -5   # BR(H+ -> u       bb     )
     1.55279266E-05    2           2        -3   # BR(H+ -> u       sb     )
     3.21118021E-04    2           4        -3   # BR(H+ -> c       sb     )
     6.17563939E-01    2           6        -5   # BR(H+ -> t       bb     )
     8.11484040E-05    2          24        25   # BR(H+ -> W+      h      )
     8.95899251E-14    2          24        36   # BR(H+ -> W+      A      )
     3.05935089E-01    2     1000024   1000022   # BR(H+ -> ~chi_1+ ~chi_10)
     2.16912348E-04    2     1000024   1000023   # BR(H+ -> ~chi_1+ ~chi_20)
     5.66892449E-05    2     1000024   1000025   # BR(H+ -> ~chi_1+ ~chi_30)
