#
#                              ======================
#                              | THE SUSYHIT OUTPUT |
#                              ======================
#
#
#              ------------------------------------------------------
#              |     This is the output of the SUSY-HIT package     |
#              |  created by A.Djouadi, M.Muehlleitner and M.Spira. |
#              |  In case of problems with SUSY-HIT email to        |
#              |           margarete.muehlleitner@cern.ch           |
#              |           michael.spira@psi.ch                     |
#              |           abdelhak.djouadi@cern.ch                 |
#              ------------------------------------------------------
#
#              ------------------------------------------------------
#              |  SUSY Les Houches Accord - MSSM Spectrum + Decays  |
#              |              based on the decay programs           |
#              |                                                    |
#              |                     SDECAY 1.3b                    |
#              |                                                    |
#              |  Authors: M.Muhlleitner, A.Djouadi and Y.Mambrini  |
#              |  Ref.:    Comput.Phys.Commun.168(2005)46           |
#              |           [hep-ph/0311167]                         |
#              |                                                    |
#              |                     HDECAY 3.4                     |
#              |                                                    |
#              |  By: A.Djouadi,J.Kalinowski,M.Muhlleitner,M.Spira  |
#              |  Ref.:    Comput.Phys.Commun.108(1998)56           |
#              |           [hep-ph/9704448]                         |
#              |                                                    |
#              |                                                    |
#              |  If not stated otherwise all DRbar couplings and   |
#              |  soft SUSY breaking masses are given at the scale  |
#              |  Q=  0.50007749E+04
#              |                                                    |
#              ------------------------------------------------------
#
#
BLOCK DCINFO  # Decay Program information
     1   SDECAY/HDECAY # decay calculator
     2   1.3b  /3.4    # version number
#
BLOCK SPINFO  # Spectrum calculator information
     1    SOFTSUSY    # spectrum calculator                
     2    3.4.0       # version number                     
#
BLOCK MODSEL  # Model selection
     1     0   #  nonUniversal                                     
#
BLOCK SMINPUTS  # Standard Model inputs
         1     1.25778332E+02   # alpha_em^-1(M_Z)^MSbar
         2     1.16570000E-05   # G_F [GeV^-2]
         3     1.17200002E-01   # alpha_S(M_Z)^MSbar
         4     9.11876000E+01   # M_Z pole mass
         5     4.25000000E+00   # mb(mb)^MSbar
         6     1.72500000E+02   # mt pole mass
         7     1.77682000E+00   # mtau pole mass
#
BLOCK MINPAR  # Input parameters - minimal models
         3     1.00000000E+01   # tanb                
#
BLOCK EXTPAR  # Input parameters - non-minimal models
         0    -1.00000000E+00   # Set                 
         1     6.00000000E+01   # M_1(MX)             
         2     3.00000000E+03   # M_2(MX)             
         3     2.23496800E+03   # M_3(MX)             
        11     5.00000000E+03   # At(MX)              
        12     5.00000000E+03   # Ab(MX)              
        13     0.00000000E+00   # Atau(MX)            
        23    -1.87266000E+02   # mu(MX)              
        26     3.00000000E+03   # mA(pole)            
        31     5.00000000E+03   # meL(MX)             
        32     5.00000000E+03   # mmuL(MX)            
        33     5.00000000E+03   # mtauL(MX)           
        34     5.00000000E+03   # meR(MX)             
        35     5.00000000E+03   # mmuR(MX)            
        36     5.00000000E+03   # mtauR(MX)           
        41     5.00000000E+03   # mqL1(MX)            
        42     5.00000000E+03   # mqL2(MX)            
        43     5.00000000E+03   # mqL3(MX)            
        44     5.00000000E+03   # muR(MX)             
        45     5.00000000E+03   # mcR(MX)             
        46     5.00000000E+03   # mtR(MX)             
        47     5.00000000E+03   # mdR(MX)             
        48     5.00000000E+03   # msR(MX)             
        49     5.00000000E+03   # mbR(MX)             
#
BLOCK MASS  # Mass Spectrum
# PDG code           mass       particle
        24     8.00911072E+01   # W+
        25     1.24801706E+02   # h
        35     3.00009114E+03   # H
        36     2.99999978E+03   # A
        37     3.00148183E+03   # H+
         5     4.87878001E+00   # b-quark pole mass calculated from mb(mb)_Msbar
   1000001     5.08202430E+03   # ~d_L
   2000001     5.06416320E+03   # ~d_R
   1000002     5.08155178E+03   # ~u_L
   2000002     5.06385415E+03   # ~u_R
   1000003     5.08202430E+03   # ~s_L
   2000003     5.06416320E+03   # ~s_R
   1000004     5.08155178E+03   # ~c_L
   2000004     5.06385415E+03   # ~c_R
   1000005     5.02802579E+03   # ~b_1
   2000005     5.06223281E+03   # ~b_2
   1000006     4.92018030E+03   # ~t_1
   2000006     5.07047029E+03   # ~t_2
   1000011     5.01916196E+03   # ~e_L
   2000011     5.00596001E+03   # ~e_R
   1000012     5.01820936E+03   # ~nu_eL
   1000013     5.01916196E+03   # ~mu_L
   2000013     5.00596001E+03   # ~mu_R
   1000014     5.01820936E+03   # ~nu_muL
   1000015     5.00483274E+03   # ~tau_1
   2000015     5.01862740E+03   # ~tau_2
   1000016     5.01765449E+03   # ~nu_tauL
   1000021     2.60000103E+03   # ~g
   1000022     5.87060066E+01   # ~chi_10
   1000023     2.04233304E+02   # ~chi_20
   1000025    -2.05083893E+02   # ~chi_30
   1000035     3.07430283E+03   # ~chi_40
   1000024     2.00000838E+02   # ~chi_1+
   1000037     3.07447096E+03   # ~chi_2+
#
BLOCK NMIX  # Neutralino Mixing Matrix
  1  1     9.72112879E-01   # N_11
  1  2    -5.01134010E-04   # N_12
  1  3    -2.30088790E-01   # N_13
  1  4    -4.53370525E-02   # N_14
  2  1     1.94541993E-01   # N_21
  2  2     1.71129664E-02   # N_22
  2  3     6.83258732E-01   # N_23
  2  4     7.03575202E-01   # N_24
  3  1    -1.30957233E-01   # N_31
  3  2     1.85830443E-02   # N_32
  3  3    -6.92975836E-01   # N_33
  3  4     7.08723757E-01   # N_34
  4  1    -4.08578145E-04   # N_41
  4  2     9.99680732E-01   # N_42
  4  3     1.07005326E-03   # N_43
  4  4    -2.52412825E-02   # N_44
#
BLOCK UMIX  # Chargino Mixing Matrix U
  1  1    -1.50934146E-03   # U_11
  1  2     9.99998861E-01   # U_12
  2  1    -9.99998861E-01   # U_21
  2  2    -1.50934146E-03   # U_22
#
BLOCK VMIX  # Chargino Mixing Matrix V
  1  1     3.57062960E-02   # V_11
  1  2    -9.99362327E-01   # V_12
  2  1    -9.99362327E-01   # V_21
  2  2    -3.57062960E-02   # V_22
#
BLOCK STOPMIX  # Stop Mixing Matrix
  1  1    -4.99927742E-01   # cos(theta_t)
  1  2     8.66067118E-01   # sin(theta_t)
  2  1    -8.66067118E-01   # -sin(theta_t)
  2  2    -4.99927742E-01   # cos(theta_t)
#
BLOCK SBOTMIX  # Sbottom Mixing Matrix
  1  1     9.99413102E-01   # cos(theta_b)
  1  2    -3.42556791E-02   # sin(theta_b)
  2  1     3.42556791E-02   # -sin(theta_b)
  2  2     9.99413102E-01   # cos(theta_b)
#
BLOCK STAUMIX  # Stau Mixing Matrix
  1  1    -2.21893279E-02   # cos(theta_tau)
  1  2     9.99753787E-01   # sin(theta_tau)
  2  1    -9.99753787E-01   # -sin(theta_tau)
  2  2    -2.21893279E-02   # cos(theta_tau)
#
BLOCK ALPHA  # Higgs mixing
          -1.05501876E-01   # Mixing angle in the neutral Higgs boson sector
#
BLOCK HMIX Q=  5.00077493E+03  # DRbar Higgs Parameters
         1    -1.90691177E+02   # mu(Q)MSSM           
         2     9.46811095E+00   # tan                 
         3     2.41664306E+02   # higgs               
         4     8.79021286E+06   # mA^2(Q)MSSM         
#
BLOCK GAUGE Q=  5.00077493E+03  # The gauge couplings
     1     3.71147210E-01   # gprime(Q) DRbar
     2     6.34320381E-01   # g(Q) DRbar
     3     9.94633937E-01   # g3(Q) DRbar
#
BLOCK AU Q=  5.00077493E+03  # The trilinear couplings
  1  1     5.00000002E+03   # A_u(Q) DRbar
  2  2     5.00000002E+03   # A_c(Q) DRbar
  3  3     5.00000002E+03   # A_t(Q) DRbar
#
BLOCK AD Q=  5.00077493E+03  # The trilinear couplings
  1  1     5.00000001E+03   # A_d(Q) DRbar
  2  2     5.00000001E+03   # A_s(Q) DRbar
  3  3     5.00000001E+03   # A_b(Q) DRbar
#
BLOCK AE Q=  5.00077493E+03  # The trilinear couplings
  1  1     0.00000000E+00   # A_e(Q) DRbar
  2  2     2.59686924E-07   # A_mu(Q) DRbar
  3  3     2.59662562E-07   # A_tau(Q) DRbar
#
BLOCK Yu Q=  5.00077493E+03  # The Yukawa couplings
  1  1     0.00000000E+00   # y_u(Q) DRbar
  2  2     0.00000000E+00   # y_c(Q) DRbar
  3  3     8.21797828E-01   # y_t(Q) DRbar
#
BLOCK Yd Q=  5.00077493E+03  # The Yukawa couplings
  1  1     0.00000000E+00   # y_d(Q) DRbar
  2  2     0.00000000E+00   # y_s(Q) DRbar
  3  3     1.29996285E-01   # y_b(Q) DRbar
#
BLOCK Ye Q=  5.00077493E+03  # The Yukawa couplings
  1  1     0.00000000E+00   # y_e(Q) DRbar
  2  2     0.00000000E+00   # y_mu(Q) DRbar
  3  3     9.73451184E-02   # y_tau(Q) DRbar
#
BLOCK MSOFT Q=  5.00077493E+03  # The soft SUSY breaking masses at the scale Q
         1     6.00000000E+01   # M_1(Q)              
         2     3.00000000E+03   # M_2(Q)              
         3     2.23496800E+03   # M_3(Q)              
        21     8.69794546E+06   # mH1^2(Q)            
        22     5.45338039E+05   # mH2^2(Q)            
        31     5.00000000E+03   # meL(Q)              
        32     5.00000000E+03   # mmuL(Q)             
        33     5.00000000E+03   # mtauL(Q)            
        34     5.00000000E+03   # meR(Q)              
        35     5.00000000E+03   # mmuR(Q)             
        36     5.00000000E+03   # mtauR(Q)            
        41     4.99999999E+03   # mqL1(Q)             
        42     4.99999999E+03   # mqL2(Q)             
        43     4.99999999E+03   # mqL3(Q)             
        44     4.99999999E+03   # muR(Q)              
        45     4.99999999E+03   # mcR(Q)              
        46     4.99999999E+03   # mtR(Q)              
        47     4.99999999E+03   # mdR(Q)              
        48     4.99999999E+03   # msR(Q)              
        49     4.99999999E+03   # mbR(Q)              
#
#
#
#                             =================
#                             |The decay table|
#                             =================
#
# - The QCD corrections to the decays gluino -> squark  + quark
#                                     squark -> gaugino + quark_prime
#                                     squark -> squark_prime + Higgs
#                                     squark -> gluino  + quark
#   are included.
#
# - The multi-body decays for the inos, stops and sbottoms are included.
#
# - The loop induced decays for the gluino, neutralinos and stops
#   are included.
#
# - The SUSY decays of the top quark are included.
#
#
#         PDG            Width
DECAY         6     1.41018530E+00   # top decays
#          BR         NDA      ID1       ID2
     1.00000000E+00    2           5        24   # BR(t ->  b    W+)
#
#         PDG            Width
DECAY   1000021     1.08506144E-02   # gluino decays
#          BR         NDA      ID1       ID2
     1.06367641E-05    2     1000022        21   # BR(~g -> ~chi_10 g)
     3.48844656E-03    2     1000023        21   # BR(~g -> ~chi_20 g)
     3.39527088E-03    2     1000025        21   # BR(~g -> ~chi_30 g)
#           BR         NDA      ID1       ID2       ID3
     8.17311416E-03    3     1000022         1        -1   # BR(~g -> ~chi_10 d  db)
     2.94209133E-04    3     1000023         1        -1   # BR(~g -> ~chi_20 d  db)
     1.65076685E-04    3     1000025         1        -1   # BR(~g -> ~chi_30 d  db)
     2.78208944E-02    3     1000022         2        -2   # BR(~g -> ~chi_10 u  ub)
     1.23785067E-03    3     1000023         2        -2   # BR(~g -> ~chi_20 u  ub)
     3.82590440E-04    3     1000025         2        -2   # BR(~g -> ~chi_30 u  ub)
     8.17311416E-03    3     1000022         3        -3   # BR(~g -> ~chi_10 s  sb)
     2.94209133E-04    3     1000023         3        -3   # BR(~g -> ~chi_20 s  sb)
     1.65076685E-04    3     1000025         3        -3   # BR(~g -> ~chi_30 s  sb)
     2.78208944E-02    3     1000022         4        -4   # BR(~g -> ~chi_10 c  cb)
     1.23785067E-03    3     1000023         4        -4   # BR(~g -> ~chi_20 c  cb)
     3.82590440E-04    3     1000025         4        -4   # BR(~g -> ~chi_30 c  cb)
     8.90179803E-03    3     1000022         5        -5   # BR(~g -> ~chi_10 b  bb)
     5.29343828E-03    3     1000023         5        -5   # BR(~g -> ~chi_20 b  bb)
     5.31120078E-03    3     1000025         5        -5   # BR(~g -> ~chi_30 b  bb)
     2.74570744E-02    3     1000022         6        -6   # BR(~g -> ~chi_10 t  tb)
     2.17535922E-01    3     1000023         6        -6   # BR(~g -> ~chi_20 t  tb)
     2.07462760E-01    3     1000025         6        -6   # BR(~g -> ~chi_30 t  tb)
     5.23828198E-05    3     1000024         1        -2   # BR(~g -> ~chi_1+ d  ub)
     5.23828198E-05    3    -1000024         2        -1   # BR(~g -> ~chi_1- u  db)
     5.23828198E-05    3     1000024         3        -4   # BR(~g -> ~chi_1+ s  cb)
     5.23828198E-05    3    -1000024         4        -3   # BR(~g -> ~chi_1- c  sb)
     2.22393225E-01    3     1000024         5        -6   # BR(~g -> ~chi_1+ b  tb)
     2.22393225E-01    3    -1000024         6        -5   # BR(~g -> ~chi_1- t  bb)
#
#         PDG            Width
DECAY   1000006     2.93980770E+02   # stop1 decays
#          BR         NDA      ID1       ID2
     2.65670592E-02    2     1000022         6   # BR(~t_1 -> ~chi_10 t )
     1.18972688E-01    2     1000023         6   # BR(~t_1 -> ~chi_20 t )
     1.05584902E-01    2     1000025         6   # BR(~t_1 -> ~chi_30 t )
     6.78809945E-03    2     1000035         6   # BR(~t_1 -> ~chi_40 t )
     1.66412002E-01    2     1000024         5   # BR(~t_1 -> ~chi_1+ b )
     1.35325689E-02    2     1000037         5   # BR(~t_1 -> ~chi_2+ b )
     5.62142680E-01    2     1000021         6   # BR(~t_1 -> ~g      t )
#
#         PDG            Width
DECAY   2000006     3.00033774E+02   # stop2 decays
#          BR         NDA      ID1       ID2
     1.38681350E-02    2     1000022         6   # BR(~t_2 -> ~chi_10 t )
     1.05304742E-01    2     1000023         6   # BR(~t_2 -> ~chi_20 t )
     1.21093020E-01    2     1000025         6   # BR(~t_2 -> ~chi_30 t )
     1.90705173E-02    2     1000035         6   # BR(~t_2 -> ~chi_40 t )
     6.38011840E-02    2     1000024         5   # BR(~t_2 -> ~chi_1+ b )
     3.79783719E-02    2     1000037         5   # BR(~t_2 -> ~chi_2+ b )
     6.35049645E-01    2     1000021         6   # BR(~t_2 -> ~g      t )
     8.95453335E-04    2     1000006        25   # BR(~t_2 -> ~t_1    h )
     2.93893215E-03    2     1000006        23   # BR(~t_2 -> ~t_1    Z )
#
#         PDG            Width
DECAY   1000005     2.74300069E+02   # sbottom1 decays
#          BR         NDA      ID1       ID2
     3.05955780E-03    2     1000022         5   # BR(~b_1 -> ~chi_10 b )
     2.81239137E-03    2     1000023         5   # BR(~b_1 -> ~chi_20 b )
     3.00096568E-03    2     1000025         5   # BR(~b_1 -> ~chi_30 b )
     2.79552297E-02    2     1000035         5   # BR(~b_1 -> ~chi_40 b )
     2.44708100E-01    2    -1000024         6   # BR(~b_1 -> ~chi_1- t )
     5.61204833E-02    2    -1000037         6   # BR(~b_1 -> ~chi_2- t )
     6.60409857E-01    2     1000021         5   # BR(~b_1 -> ~g      b )
     1.93341472E-03    2     1000006       -24   # BR(~b_1 -> ~t_1    W-)
#
#         PDG            Width
DECAY   2000005     1.90407465E+02   # sbottom2 decays
#          BR         NDA      ID1       ID2
     1.49719505E-02    2     1000022         5   # BR(~b_2 -> ~chi_10 b )
     4.87247395E-03    2     1000023         5   # BR(~b_2 -> ~chi_20 b )
     4.66923028E-03    2     1000025         5   # BR(~b_2 -> ~chi_30 b )
     3.84947270E-05    2     1000035         5   # BR(~b_2 -> ~chi_40 b )
     9.24107749E-03    2    -1000024         6   # BR(~b_2 -> ~chi_1- t )
     7.73119629E-05    2    -1000037         6   # BR(~b_2 -> ~chi_2- t )
     9.66115604E-01    2     1000021         5   # BR(~b_2 -> ~g      b )
     1.38566566E-05    2     1000006       -24   # BR(~b_2 -> ~t_1    W-)
#
#         PDG            Width
DECAY   1000002     2.10222932E+02   # sup_L decays
#          BR         NDA      ID1       ID2
     3.33649304E-03    2     1000022         2   # BR(~u_L -> ~chi_10 u)
     2.82129148E-04    2     1000023         2   # BR(~u_L -> ~chi_20 u)
     4.50663634E-06    2     1000025         2   # BR(~u_L -> ~chi_30 u)
     3.78101764E-02    2     1000035         2   # BR(~u_L -> ~chi_40 u)
     2.37363227E-04    2     1000024         1   # BR(~u_L -> ~chi_1+ d)
     7.55747761E-02    2     1000037         1   # BR(~u_L -> ~chi_2+ d)
     8.82754555E-01    2     1000021         2   # BR(~u_L -> ~g      u)
#
#         PDG            Width
DECAY   2000002     1.95906269E+02   # sup_R decays
#          BR         NDA      ID1       ID2
     5.73844715E-02    2     1000022         2   # BR(~u_R -> ~chi_10 u)
     2.29244612E-03    2     1000023         2   # BR(~u_R -> ~chi_20 u)
     1.03877323E-03    2     1000025         2   # BR(~u_R -> ~chi_30 u)
     4.07828705E-09    2     1000035         2   # BR(~u_R -> ~chi_40 u)
     9.39284305E-01    2     1000021         2   # BR(~u_R -> ~g      u)
#
#         PDG            Width
DECAY   1000001     2.10238802E+02   # sdown_L decays
#          BR         NDA      ID1       ID2
     3.37202102E-03    2     1000022         1   # BR(~d_L -> ~chi_10 d)
     4.03852854E-05    2     1000023         1   # BR(~d_L -> ~chi_20 d)
     1.81217345E-04    2     1000025         1   # BR(~d_L -> ~chi_30 d)
     3.78309680E-02    2     1000035         1   # BR(~d_L -> ~chi_40 d)
     4.24138264E-07    2    -1000024         2   # BR(~d_L -> ~chi_1- u)
     7.56885565E-02    2    -1000037         2   # BR(~d_L -> ~chi_2- u)
     8.82886428E-01    2     1000021         1   # BR(~d_L -> ~g      d)
#
#         PDG            Width
DECAY   2000001     1.87012828E+02   # sdown_R decays
#          BR         NDA      ID1       ID2
     1.50292872E-02    2     1000022         1   # BR(~d_R -> ~chi_10 d)
     6.00403570E-04    2     1000023         1   # BR(~d_R -> ~chi_20 d)
     2.72060117E-04    2     1000025         1   # BR(~d_R -> ~chi_30 d)
     1.06827420E-09    2     1000035         1   # BR(~d_R -> ~chi_40 d)
     9.84098248E-01    2     1000021         1   # BR(~d_R -> ~g      d)
#
#         PDG            Width
DECAY   1000004     2.10222932E+02   # scharm_L decays
#          BR         NDA      ID1       ID2
     3.33649304E-03    2     1000022         4   # BR(~c_L -> ~chi_10 c)
     2.82129148E-04    2     1000023         4   # BR(~c_L -> ~chi_20 c)
     4.50663634E-06    2     1000025         4   # BR(~c_L -> ~chi_30 c)
     3.78101764E-02    2     1000035         4   # BR(~c_L -> ~chi_40 c)
     2.37363227E-04    2     1000024         3   # BR(~c_L -> ~chi_1+ s)
     7.55747761E-02    2     1000037         3   # BR(~c_L -> ~chi_2+ s)
     8.82754555E-01    2     1000021         4   # BR(~c_L -> ~g      c)
#
#         PDG            Width
DECAY   2000004     1.95906269E+02   # scharm_R decays
#          BR         NDA      ID1       ID2
     5.73844715E-02    2     1000022         4   # BR(~c_R -> ~chi_10 c)
     2.29244612E-03    2     1000023         4   # BR(~c_R -> ~chi_20 c)
     1.03877323E-03    2     1000025         4   # BR(~c_R -> ~chi_30 c)
     4.07828705E-09    2     1000035         4   # BR(~c_R -> ~chi_40 c)
     9.39284305E-01    2     1000021         4   # BR(~c_R -> ~g      c)
#
#         PDG            Width
DECAY   1000003     2.10238802E+02   # sstrange_L decays
#          BR         NDA      ID1       ID2
     3.37202102E-03    2     1000022         3   # BR(~s_L -> ~chi_10 s)
     4.03852854E-05    2     1000023         3   # BR(~s_L -> ~chi_20 s)
     1.81217345E-04    2     1000025         3   # BR(~s_L -> ~chi_30 s)
     3.78309680E-02    2     1000035         3   # BR(~s_L -> ~chi_40 s)
     4.24138264E-07    2    -1000024         4   # BR(~s_L -> ~chi_1- c)
     7.56885565E-02    2    -1000037         4   # BR(~s_L -> ~chi_2- c)
     8.82886428E-01    2     1000021         3   # BR(~s_L -> ~g      s)
#
#         PDG            Width
DECAY   2000003     1.87012828E+02   # sstrange_R decays
#          BR         NDA      ID1       ID2
     1.50292872E-02    2     1000022         3   # BR(~s_R -> ~chi_10 s)
     6.00403570E-04    2     1000023         3   # BR(~s_R -> ~chi_20 s)
     2.72060117E-04    2     1000025         3   # BR(~s_R -> ~chi_30 s)
     1.06827420E-09    2     1000035         3   # BR(~s_R -> ~chi_40 s)
     9.84098248E-01    2     1000021         3   # BR(~s_R -> ~g      s)
#
#         PDG            Width
DECAY   1000011     3.04142074E+01   # selectron_L decays
#          BR         NDA      ID1       ID2
     2.13253520E-01    2     1000022        11   # BR(~e_L -> ~chi_10 e-)
     1.12872213E-02    2     1000023        11   # BR(~e_L -> ~chi_20 e-)
     2.21766402E-03    2     1000025        11   # BR(~e_L -> ~chi_30 e-)
     2.57577258E-01    2     1000035        11   # BR(~e_L -> ~chi_40 e-)
     2.99983196E-06    2    -1000024        12   # BR(~e_L -> ~chi_1- nu_e)
     5.15661337E-01    2    -1000037        12   # BR(~e_L -> ~chi_2- nu_e)
#
#         PDG            Width
DECAY   2000011     2.74250420E+01   # selectron_R decays
#          BR         NDA      ID1       ID2
     9.45162640E-01    2     1000022        11   # BR(~e_R -> ~chi_10 e-)
     3.77374356E-02    2     1000023        11   # BR(~e_R -> ~chi_20 e-)
     1.70998600E-02    2     1000025        11   # BR(~e_R -> ~chi_30 e-)
     6.47894746E-08    2     1000035        11   # BR(~e_R -> ~chi_40 e-)
#
#         PDG            Width
DECAY   1000013     3.04142074E+01   # smuon_L decays
#          BR         NDA      ID1       ID2
     2.13253520E-01    2     1000022        13   # BR(~mu_L -> ~chi_10 mu-)
     1.12872213E-02    2     1000023        13   # BR(~mu_L -> ~chi_20 mu-)
     2.21766402E-03    2     1000025        13   # BR(~mu_L -> ~chi_30 mu-)
     2.57577258E-01    2     1000035        13   # BR(~mu_L -> ~chi_40 mu-)
     2.99983196E-06    2    -1000024        14   # BR(~mu_L -> ~chi_1- nu_mu)
     5.15661337E-01    2    -1000037        14   # BR(~mu_L -> ~chi_2- nu_mu)
#
#         PDG            Width
DECAY   2000013     2.74250420E+01   # smuon_R decays
#          BR         NDA      ID1       ID2
     9.45162640E-01    2     1000022        13   # BR(~mu_R -> ~chi_10 mu-)
     3.77374356E-02    2     1000023        13   # BR(~mu_R -> ~chi_20 mu-)
     1.70998600E-02    2     1000025        13   # BR(~mu_R -> ~chi_30 mu-)
     6.47894746E-08    2     1000035        13   # BR(~mu_R -> ~chi_40 mu-)
#
#         PDG            Width
DECAY   1000015     2.93004596E+01   # stau_1 decays
#          BR         NDA      ID1       ID2
     8.86706639E-01    2     1000022        15   # BR(~tau_1 -> ~chi_10  tau-)
     4.98503548E-02    2     1000023        15   # BR(~tau_1 -> ~chi_20  tau-)
     3.09746997E-02    2     1000025        15   # BR(~tau_1 -> ~chi_30  tau-)
     1.33174575E-04    2     1000035        15   # BR(~tau_1 -> ~chi_40  tau-)
     3.20686706E-02    2    -1000024        16   # BR(~tau_1 -> ~chi_1-  nu_tau)
     2.66461659E-04    2    -1000037        16   # BR(~tau_1 -> ~chi_2-  nu_tau)
#
#         PDG            Width
DECAY   2000015     3.13474064E+01   # stau_2 decays
#          BR         NDA      ID1       ID2
     2.07978527E-01    2     1000022        15   # BR(~tau_2 -> ~chi_10  tau-)
     2.54114397E-02    2     1000023        15   # BR(~tau_2 -> ~chi_20  tau-)
     1.70084362E-02    2     1000025        15   # BR(~tau_2 -> ~chi_30  tau-)
     2.49693101E-01    2     1000035        15   # BR(~tau_2 -> ~chi_40  tau-)
     3.08503184E-05    2    -1000024        16   # BR(~tau_2 -> ~chi_1-  nu_tau)
     4.99877646E-01    2    -1000037        16   # BR(~tau_2 -> ~chi_2-  nu_tau)
#
#         PDG            Width
DECAY   1000012     3.04171480E+01   # snu_eL decays
#          BR         NDA      ID1       ID2
     2.13945068E-01    2     1000022        12   # BR(~nu_eL -> ~chi_10 nu_e)
     6.15602056E-03    2     1000023        12   # BR(~nu_eL -> ~chi_20 nu_e)
     5.96537239E-03    2     1000025        12   # BR(~nu_eL -> ~chi_30 nu_e)
     2.57632397E-01    2     1000035        12   # BR(~nu_eL -> ~chi_40 nu_e)
     1.67836564E-03    2     1000024        11   # BR(~nu_eL -> ~chi_1+ e-)
     5.14622776E-01    2     1000037        11   # BR(~nu_eL -> ~chi_2+ e-)
#
#         PDG            Width
DECAY   1000014     3.04171480E+01   # snu_muL decays
#          BR         NDA      ID1       ID2
     2.13945068E-01    2     1000022        14   # BR(~nu_muL -> ~chi_10 nu_mu)
     6.15602056E-03    2     1000023        14   # BR(~nu_muL -> ~chi_20 nu_mu)
     5.96537239E-03    2     1000025        14   # BR(~nu_muL -> ~chi_30 nu_mu)
     2.57632397E-01    2     1000035        14   # BR(~nu_muL -> ~chi_40 nu_mu)
     1.67836564E-03    2     1000024        13   # BR(~nu_muL -> ~chi_1+ mu-)
     5.14622776E-01    2     1000037        13   # BR(~nu_muL -> ~chi_2+ mu-)
#
#         PDG            Width
DECAY   1000016     3.13504745E+01   # snu_tauL decays
#          BR         NDA      ID1       ID2
     2.07552803E-01    2     1000022        16   # BR(~nu_tauL -> ~chi_10 nu_tau)
     5.97208653E-03    2     1000023        16   # BR(~nu_tauL -> ~chi_20 nu_tau)
     5.78713465E-03    2     1000025        16   # BR(~nu_tauL -> ~chi_30 nu_tau)
     2.49868433E-01    2     1000035        16   # BR(~nu_tauL -> ~chi_40 nu_tau)
     3.17055049E-02    2     1000024        15   # BR(~nu_tauL -> ~chi_1+ tau-)
     4.99114038E-01    2     1000037        15   # BR(~nu_tauL -> ~chi_2+ tau-)
#
#         PDG            Width
DECAY   1000024     8.35905826E-02   # chargino1+ decays
#          BR         NDA      ID1       ID2
     1.00000000E+00    2     1000022        24   # BR(~chi_1+ -> ~chi_10  W+)
#
#         PDG            Width
DECAY   1000037     2.32977068E+01   # chargino2+ decays
#          BR         NDA      ID1       ID2
     2.53775219E-01    2     1000024        23   # BR(~chi_2+ -> ~chi_1+  Z )
     7.55829966E-04    2     1000022        24   # BR(~chi_2+ -> ~chi_10  W+)
     2.44841735E-01    2     1000023        24   # BR(~chi_2+ -> ~chi_20  W+)
     2.44865186E-01    2     1000025        24   # BR(~chi_2+ -> ~chi_30  W+)
     2.55724541E-01    2     1000024        25   # BR(~chi_2+ -> ~chi_1+  h )
     3.74881609E-05    2     1000022        37   # BR(~chi_2+ -> ~chi_10  H+)
#
#         PDG            Width
DECAY   1000022     0.00000000E+00   # neutralino1 decays
#
#         PDG            Width
DECAY   1000023     6.58248078E-02   # neutralino2 decays
#          BR         NDA      ID1       ID2
     5.81904071E-01    2     1000022        23   # BR(~chi_20 -> ~chi_10   Z )
     4.18095929E-01    2     1000022        25   # BR(~chi_20 -> ~chi_10   h )
#
#         PDG            Width
DECAY   1000025     4.88141163E-02   # neutralino3 decays
#          BR         NDA      ID1       ID2
     9.02213482E-01    2     1000022        23   # BR(~chi_30 -> ~chi_10   Z )
     9.77865182E-02    2     1000022        25   # BR(~chi_30 -> ~chi_10   h )
#
#         PDG            Width
DECAY   1000035     2.32999402E+01   # neutralino4 decays
#          BR         NDA      ID1       ID2
     7.78256827E-04    2     1000022        23   # BR(~chi_40 -> ~chi_10   Z )
     1.35970280E-01    2     1000023        23   # BR(~chi_40 -> ~chi_20   Z )
     1.16844250E-01    2     1000025        23   # BR(~chi_40 -> ~chi_30   Z )
     2.45444119E-01    2     1000024       -24   # BR(~chi_40 -> ~chi_1+   W-)
     2.45444119E-01    2    -1000024        24   # BR(~chi_40 -> ~chi_1-   W+)
     1.15427558E-05    2     1000022        25   # BR(~chi_40 -> ~chi_10   h )
     3.59674370E-05    2     1000022        35   # BR(~chi_40 -> ~chi_10   H )
     3.92418874E-06    2     1000022        36   # BR(~chi_40 -> ~chi_10   A )
     1.18328236E-01    2     1000023        25   # BR(~chi_40 -> ~chi_20   h )
     1.37139303E-01    2     1000025        25   # BR(~chi_40 -> ~chi_30   h )
#
#         PDG            Width
DECAY        25     4.08537929E-03   # h decays
#          BR         NDA      ID1       ID2
     6.08731726E-01    2           5        -5   # BR(h -> b       bb     )
     6.35128265E-02    2         -15        15   # BR(h -> tau+    tau-   )
     2.24858375E-04    2         -13        13   # BR(h -> mu+     mu-    )
     4.76664358E-04    2           3        -3   # BR(h -> s       sb     )
     2.06513264E-02    2           4        -4   # BR(h -> c       cb     )
     6.68353812E-02    2          21        21   # BR(h -> g       g      )
     2.29541884E-03    2          22        22   # BR(h -> gam     gam    )
     1.48425187E-03    2          22        23   # BR(h -> Z       gam    )
     2.09592640E-01    2          24       -24   # BR(h -> W+      W-     )
     2.49730262E-02    2          23        23   # BR(h -> Z       Z      )
     1.22188060E-03    2     1000022   1000022   # BR(h -> ~chi_10 ~chi_10)
#
#         PDG            Width
DECAY        35     8.81320046E+00   # H decays
#          BR         NDA      ID1       ID2
     3.59007346E-01    2           5        -5   # BR(H -> b       bb     )
     6.31902638E-02    2         -15        15   # BR(H -> tau+    tau-   )
     2.23445792E-04    2         -13        13   # BR(H -> mu+     mu-    )
     2.73910146E-04    2           3        -3   # BR(H -> s       sb     )
     1.53354568E-06    2           4        -4   # BR(H -> c       cb     )
     1.53213370E-01    2           6        -6   # BR(H -> t       tb     )
     5.09900462E-05    2          21        21   # BR(H -> g       g      )
     1.46837484E-07    2          22        22   # BR(H -> gam     gam    )
     9.03775001E-08    2          23        22   # BR(H -> Z       gam    )
     7.52851473E-05    2          24       -24   # BR(H -> W+      W-     )
     3.75949115E-05    2          23        23   # BR(H -> Z       Z      )
     2.67267687E-04    2          25        25   # BR(H -> h       h      )
     7.65590330E-24    2          36        36   # BR(H -> A       A      )
     7.94043925E-19    2          23        36   # BR(H -> Z       A      )
     3.48439929E-03    2     1000024  -1000024   # BR(H -> ~chi_1+ ~chi_1-)
     4.37445657E-02    2     1000022   1000022   # BR(H -> ~chi_10 ~chi_10)
     1.24664473E-02    2     1000023   1000023   # BR(H -> ~chi_20 ~chi_20)
     8.49172411E-03    2     1000025   1000025   # BR(H -> ~chi_30 ~chi_30)
     2.02465569E-01    2     1000022   1000023   # BR(H -> ~chi_10 ~chi_20)
     1.31792052E-01    2     1000022   1000025   # BR(H -> ~chi_10 ~chi_30)
     2.12139984E-02    2     1000023   1000025   # BR(H -> ~chi_20 ~chi_30)
#
#         PDG            Width
DECAY        36     8.81818446E+00   # A decays
#          BR         NDA      ID1       ID2
     3.58927428E-01    2           5        -5   # BR(A -> b       bb     )
     6.31563785E-02    2         -15        15   # BR(A -> tau+    tau-   )
     2.23325659E-04    2         -13        13   # BR(A -> mu+     mu-    )
     2.73963141E-04    2           3        -3   # BR(A -> s       sb     )
     1.53869751E-06    2           4        -4   # BR(A -> c       cb     )
     1.53643250E-01    2           6        -6   # BR(A -> t       tb     )
     1.52021126E-04    2          21        21   # BR(A -> g       g      )
     5.33929914E-07    2          22        22   # BR(A -> gam     gam    )
     1.83942598E-07    2          23        22   # BR(A -> Z       gam    )
     7.49572909E-05    2          23        25   # BR(A -> Z       h      )
     3.60948329E-03    2     1000024  -1000024   # BR(A -> ~chi_1+ ~chi_1-)
     4.02857971E-02    2     1000022   1000022   # BR(A -> ~chi_10 ~chi_10)
     8.19839319E-03    2     1000023   1000023   # BR(A -> ~chi_20 ~chi_20)
     1.33540862E-02    2     1000025   1000025   # BR(A -> ~chi_30 ~chi_30)
     1.28609296E-01    2     1000022   1000023   # BR(A -> ~chi_10 ~chi_20)
     2.08703406E-01    2     1000022   1000025   # BR(A -> ~chi_10 ~chi_30)
     2.07859589E-02    2     1000023   1000025   # BR(A -> ~chi_20 ~chi_30)
#
#         PDG            Width
DECAY        37     8.75802232E+00   # H+ decays
#          BR         NDA      ID1       ID2
     5.75182369E-04    2           4        -5   # BR(H+ -> c       bb     )
     6.36216380E-02    2         -15        16   # BR(H+ -> tau+    nu_tau )
     2.24970851E-04    2         -13        14   # BR(H+ -> mu+     nu_mu  )
     3.68114770E-06    2           2        -5   # BR(H+ -> u       bb     )
     1.32004741E-05    2           2        -3   # BR(H+ -> u       sb     )
     2.72987703E-04    2           4        -3   # BR(H+ -> c       sb     )
     5.10997198E-01    2           6        -5   # BR(H+ -> t       bb     )
     7.56328487E-05    2          24        25   # BR(H+ -> W+      h      )
     1.07279682E-12    2          24        36   # BR(H+ -> W+      A      )
     3.98187797E-01    2     1000024   1000022   # BR(H+ -> ~chi_1+ ~chi_10)
     2.17824096E-02    2     1000024   1000023   # BR(H+ -> ~chi_1+ ~chi_20)
     4.24530146E-03    2     1000024   1000025   # BR(H+ -> ~chi_1+ ~chi_30)
