#
#                              ======================
#                              | THE SUSYHIT OUTPUT |
#                              ======================
#
#
#              ------------------------------------------------------
#              |     This is the output of the SUSY-HIT package     |
#              |  created by A.Djouadi, M.Muehlleitner and M.Spira. |
#              |  In case of problems with SUSY-HIT email to        |
#              |           margarete.muehlleitner@cern.ch           |
#              |           michael.spira@psi.ch                     |
#              |           abdelhak.djouadi@cern.ch                 |
#              ------------------------------------------------------
#
#              ------------------------------------------------------
#              |  SUSY Les Houches Accord - MSSM Spectrum + Decays  |
#              |              based on the decay programs           |
#              |                                                    |
#              |                     SDECAY 1.3b                    |
#              |                                                    |
#              |  Authors: M.Muhlleitner, A.Djouadi and Y.Mambrini  |
#              |  Ref.:    Comput.Phys.Commun.168(2005)46           |
#              |           [hep-ph/0311167]                         |
#              |                                                    |
#              |                     HDECAY 3.4                     |
#              |                                                    |
#              |  By: A.Djouadi,J.Kalinowski,M.Muhlleitner,M.Spira  |
#              |  Ref.:    Comput.Phys.Commun.108(1998)56           |
#              |           [hep-ph/9704448]                         |
#              |                                                    |
#              |                                                    |
#              |  If not stated otherwise all DRbar couplings and   |
#              |  soft SUSY breaking masses are given at the scale  |
#              |  Q=  0.50007157E+04
#              |                                                    |
#              ------------------------------------------------------
#
#
BLOCK DCINFO  # Decay Program information
     1   SDECAY/HDECAY # decay calculator
     2   1.3b  /3.4    # version number
#
BLOCK SPINFO  # Spectrum calculator information
     1    SOFTSUSY    # spectrum calculator                
     2    3.4.0       # version number                     
#
BLOCK MODSEL  # Model selection
     1     0   #  nonUniversal                                     
#
BLOCK SMINPUTS  # Standard Model inputs
         1     1.25778332E+02   # alpha_em^-1(M_Z)^MSbar
         2     1.16570000E-05   # G_F [GeV^-2]
         3     1.17200002E-01   # alpha_S(M_Z)^MSbar
         4     9.11876000E+01   # M_Z pole mass
         5     4.25000000E+00   # mb(mb)^MSbar
         6     1.72500000E+02   # mt pole mass
         7     1.77682000E+00   # mtau pole mass
#
BLOCK MINPAR  # Input parameters - minimal models
         3     1.00000000E+01   # tanb                
#
BLOCK EXTPAR  # Input parameters - non-minimal models
         0    -1.00000000E+00   # Set                 
         1     6.00000000E+01   # M_1(MX)             
         2     3.00000000E+03   # M_2(MX)             
         3     1.30154500E+03   # M_3(MX)             
        11     5.00000000E+03   # At(MX)              
        12     5.00000000E+03   # Ab(MX)              
        13     0.00000000E+00   # Atau(MX)            
        23    -1.44681300E+03   # mu(MX)              
        26     3.00000000E+03   # mA(pole)            
        31     5.00000000E+03   # meL(MX)             
        32     5.00000000E+03   # mmuL(MX)            
        33     5.00000000E+03   # mtauL(MX)           
        34     5.00000000E+03   # meR(MX)             
        35     5.00000000E+03   # mmuR(MX)            
        36     5.00000000E+03   # mtauR(MX)           
        41     5.00000000E+03   # mqL1(MX)            
        42     5.00000000E+03   # mqL2(MX)            
        43     5.00000000E+03   # mqL3(MX)            
        44     5.00000000E+03   # muR(MX)             
        45     5.00000000E+03   # mcR(MX)             
        46     5.00000000E+03   # mtR(MX)             
        47     5.00000000E+03   # mdR(MX)             
        48     5.00000000E+03   # msR(MX)             
        49     5.00000000E+03   # mbR(MX)             
#
BLOCK MASS  # Mass Spectrum
# PDG code           mass       particle
        24     8.00957145E+01   # W+
        25     1.24662386E+02   # h
        35     3.00008777E+03   # H
        36     2.99999996E+03   # A
        37     3.00087817E+03   # H+
         5     4.87878001E+00   # b-quark pole mass calculated from mb(mb)_Msbar
   1000001     5.06749964E+03   # ~d_L
   2000001     5.04970496E+03   # ~d_R
   1000002     5.06702440E+03   # ~u_L
   2000002     5.04942942E+03   # ~u_R
   1000003     5.06749964E+03   # ~s_L
   2000003     5.04970496E+03   # ~s_R
   1000004     5.06702440E+03   # ~c_L
   2000004     5.04942942E+03   # ~c_R
   1000005     5.01366014E+03   # ~b_1
   2000005     5.04858526E+03   # ~b_2
   1000006     4.90464105E+03   # ~t_1
   2000006     5.06020237E+03   # ~t_2
   1000011     5.01905039E+03   # ~e_L
   2000011     5.00591077E+03   # ~e_R
   1000012     5.01810221E+03   # ~nu_eL
   1000013     5.01905039E+03   # ~mu_L
   2000013     5.00591077E+03   # ~mu_R
   1000014     5.01810221E+03   # ~nu_muL
   1000015     5.00437057E+03   # ~tau_1
   2000015     5.01900476E+03   # ~tau_2
   1000016     5.01756324E+03   # ~nu_tauL
   1000021     1.60000083E+03   # ~g
   1000022     6.03028846E+01   # ~chi_10
   1000023     1.49944839E+03   # ~chi_20
   1000025    -1.50189723E+03   # ~chi_30
   1000035     3.07433239E+03   # ~chi_40
   1000024     1.50000096E+03   # ~chi_1+
   1000037     3.07449990E+03   # ~chi_2+
#
BLOCK NMIX  # Neutralino Mixing Matrix
  1  1     9.99556211E-01   # N_11
  1  2     1.39896846E-04   # N_12
  1  3    -2.97267661E-02   # N_13
  1  4     1.91833282E-03   # N_14
  2  1     1.96631355E-02   # N_21
  2  2     3.08991858E-02   # N_22
  2  3     7.06897581E-01   # N_23
  2  4     7.06367052E-01   # N_24
  3  1    -2.23727069E-02   # N_31
  3  2     1.32658681E-02   # N_32
  3  3    -7.06580907E-01   # N_33
  3  4     7.07154086E-01   # N_34
  4  1    -4.50871247E-04   # N_41
  4  2     9.99434459E-01   # N_42
  4  3    -1.24720453E-02   # N_43
  4  4    -3.12251071E-02   # N_44
#
BLOCK UMIX  # Chargino Mixing Matrix U
  1  1     1.76475551E-02   # U_11
  1  2     9.99844270E-01   # U_12
  2  1    -9.99844270E-01   # U_21
  2  2     1.76475551E-02   # U_22
#
BLOCK VMIX  # Chargino Mixing Matrix V
  1  1     4.41779646E-02   # V_11
  1  2    -9.99023677E-01   # V_12
  2  1    -9.99023677E-01   # V_21
  2  2    -4.41779646E-02   # V_22
#
BLOCK STOPMIX  # Stop Mixing Matrix
  1  1    -5.12364314E-01   # cos(theta_t)
  1  2     8.58768193E-01   # sin(theta_t)
  2  1    -8.58768193E-01   # -sin(theta_t)
  2  2    -5.12364314E-01   # cos(theta_t)
#
BLOCK SBOTMIX  # Sbottom Mixing Matrix
  1  1     9.94483687E-01   # cos(theta_b)
  1  2    -1.04891355E-01   # sin(theta_b)
  2  1     1.04891355E-01   # -sin(theta_b)
  2  2     9.94483687E-01   # cos(theta_b)
#
BLOCK STAUMIX  # Stau Mixing Matrix
  1  1    -1.68197242E-01   # cos(theta_tau)
  1  2     9.85753361E-01   # sin(theta_tau)
  2  1    -9.85753361E-01   # -sin(theta_tau)
  2  2    -1.68197242E-01   # cos(theta_tau)
#
BLOCK ALPHA  # Higgs mixing
          -1.05451394E-01   # Mixing angle in the neutral Higgs boson sector
#
BLOCK HMIX Q=  5.00071567E+03  # DRbar Higgs Parameters
         1    -1.47312703E+03   # mu(Q)MSSM           
         2     9.47147497E+00   # tan                 
         3     2.41972305E+02   # higgs               
         4     8.39820665E+06   # mA^2(Q)MSSM         
#
BLOCK GAUGE Q=  5.00071567E+03  # The gauge couplings
     1     3.70710244E-01   # gprime(Q) DRbar
     2     6.32114089E-01   # g(Q) DRbar
     3     1.00176161E+00   # g3(Q) DRbar
#
BLOCK AU Q=  5.00071567E+03  # The trilinear couplings
  1  1     5.00000001E+03   # A_u(Q) DRbar
  2  2     5.00000001E+03   # A_c(Q) DRbar
  3  3     5.00000001E+03   # A_t(Q) DRbar
#
BLOCK AD Q=  5.00071567E+03  # The trilinear couplings
  1  1     5.00000000E+03   # A_d(Q) DRbar
  2  2     5.00000000E+03   # A_s(Q) DRbar
  3  3     5.00000001E+03   # A_b(Q) DRbar
#
BLOCK AE Q=  5.00071567E+03  # The trilinear couplings
  1  1     0.00000000E+00   # A_e(Q) DRbar
  2  2     1.14123378E-07   # A_mu(Q) DRbar
  3  3     1.13524158E-07   # A_tau(Q) DRbar
#
BLOCK Yu Q=  5.00071567E+03  # The Yukawa couplings
  1  1     0.00000000E+00   # y_u(Q) DRbar
  2  2     0.00000000E+00   # y_c(Q) DRbar
  3  3     8.17978699E-01   # y_t(Q) DRbar
#
BLOCK Yd Q=  5.00071567E+03  # The Yukawa couplings
  1  1     0.00000000E+00   # y_d(Q) DRbar
  2  2     0.00000000E+00   # y_s(Q) DRbar
  3  3     1.30773717E-01   # y_b(Q) DRbar
#
BLOCK Ye Q=  5.00071567E+03  # The Yukawa couplings
  1  1     0.00000000E+00   # y_e(Q) DRbar
  2  2     0.00000000E+00   # y_mu(Q) DRbar
  3  3     9.66360703E-02   # y_tau(Q) DRbar
#
BLOCK MSOFT Q=  5.00071567E+03  # The soft SUSY breaking masses at the scale Q
         1     6.00000000E+01   # M_1(Q)              
         2     3.00000000E+03   # M_2(Q)              
         3     1.30154500E+03   # M_3(Q)              
        21     6.49963153E+06   # mH1^2(Q)            
        22    -1.62319180E+06   # mH2^2(Q)            
        31     5.00000000E+03   # meL(Q)              
        32     5.00000000E+03   # mmuL(Q)             
        33     5.00000000E+03   # mtauL(Q)            
        34     5.00000000E+03   # meR(Q)              
        35     5.00000000E+03   # mmuR(Q)             
        36     5.00000000E+03   # mtauR(Q)            
        41     5.00000000E+03   # mqL1(Q)             
        42     5.00000000E+03   # mqL2(Q)             
        43     5.00000000E+03   # mqL3(Q)             
        44     5.00000000E+03   # muR(Q)              
        45     5.00000000E+03   # mcR(Q)              
        46     4.99999999E+03   # mtR(Q)              
        47     5.00000000E+03   # mdR(Q)              
        48     5.00000000E+03   # msR(Q)              
        49     5.00000000E+03   # mbR(Q)              
#
#
#
#                             =================
#                             |The decay table|
#                             =================
#
# - The QCD corrections to the decays gluino -> squark  + quark
#                                     squark -> gaugino + quark_prime
#                                     squark -> squark_prime + Higgs
#                                     squark -> gluino  + quark
#   are included.
#
# - The multi-body decays for the inos, stops and sbottoms are included.
#
# - The loop induced decays for the gluino, neutralinos and stops
#   are included.
#
# - The SUSY decays of the top quark are included.
#
#
#         PDG            Width
DECAY         6     1.40019143E+00   # top decays
#          BR         NDA      ID1       ID2
     1.00000000E+00    2           5        24   # BR(t ->  b    W+)
#
#         PDG            Width
DECAY   1000021     9.59561342E-05   # gluino decays
#          BR         NDA      ID1       ID2
     1.07339650E-05    2     1000022        21   # BR(~g -> ~chi_10 g)
     1.56368646E-04    2     1000023        21   # BR(~g -> ~chi_20 g)
     1.46195318E-04    2     1000025        21   # BR(~g -> ~chi_30 g)
#           BR         NDA      ID1       ID2       ID3
     7.74898167E-02    3     1000022         1        -1   # BR(~g -> ~chi_10 d  db)
     5.74595133E-09    3     1000023         1        -1   # BR(~g -> ~chi_20 d  db)
     8.34678390E-10    3     1000025         1        -1   # BR(~g -> ~chi_30 d  db)
     2.64167687E-01    3     1000022         2        -2   # BR(~g -> ~chi_10 u  ub)
     1.05031688E-08    3     1000023         2        -2   # BR(~g -> ~chi_20 u  ub)
     8.37171757E-10    3     1000025         2        -2   # BR(~g -> ~chi_30 u  ub)
     7.74898167E-02    3     1000022         3        -3   # BR(~g -> ~chi_10 s  sb)
     5.74595133E-09    3     1000023         3        -3   # BR(~g -> ~chi_20 s  sb)
     8.34678390E-10    3     1000025         3        -3   # BR(~g -> ~chi_30 s  sb)
     2.64167687E-01    3     1000022         4        -4   # BR(~g -> ~chi_10 c  cb)
     1.05031688E-08    3     1000023         4        -4   # BR(~g -> ~chi_20 c  cb)
     8.37171757E-10    3     1000025         4        -4   # BR(~g -> ~chi_30 c  cb)
     7.84337264E-02    3     1000022         5        -5   # BR(~g -> ~chi_10 b  bb)
     6.47911270E-07    3     1000023         5        -5   # BR(~g -> ~chi_20 b  bb)
     5.45677124E-07    3     1000025         5        -5   # BR(~g -> ~chi_30 b  bb)
     2.37936681E-01    3     1000022         6        -6   # BR(~g -> ~chi_10 t  tb)
     1.43310874E-08    3     1000024         1        -2   # BR(~g -> ~chi_1+ d  ub)
     1.43310874E-08    3    -1000024         2        -1   # BR(~g -> ~chi_1- u  db)
     1.43310874E-08    3     1000024         3        -4   # BR(~g -> ~chi_1+ s  cb)
     1.43310874E-08    3    -1000024         4        -3   # BR(~g -> ~chi_1- c  sb)
#
#         PDG            Width
DECAY   1000006     3.63495009E+02   # stop1 decays
#          BR         NDA      ID1       ID2
     2.41681140E-02    2     1000022         6   # BR(~t_1 -> ~chi_10 t )
     7.45168836E-02    2     1000023         6   # BR(~t_1 -> ~chi_20 t )
     7.15939386E-02    2     1000025         6   # BR(~t_1 -> ~chi_30 t )
     5.98308555E-03    2     1000035         6   # BR(~t_1 -> ~chi_40 t )
     1.07058318E-01    2     1000024         5   # BR(~t_1 -> ~chi_1+ b )
     1.19006907E-02    2     1000037         5   # BR(~t_1 -> ~chi_2+ b )
     7.04778969E-01    2     1000021         6   # BR(~t_1 -> ~g      t )
#
#         PDG            Width
DECAY   2000006     3.72076792E+02   # stop2 decays
#          BR         NDA      ID1       ID2
     9.60770527E-03    2     1000022         6   # BR(~t_2 -> ~chi_10 t )
     7.54038460E-02    2     1000023         6   # BR(~t_2 -> ~chi_20 t )
     7.84992508E-02    2     1000025         6   # BR(~t_2 -> ~chi_30 t )
     1.46019298E-02    2     1000035         6   # BR(~t_2 -> ~chi_40 t )
     4.64280586E-02    2     1000024         5   # BR(~t_2 -> ~chi_1+ b )
     2.89950475E-02    2     1000037         5   # BR(~t_2 -> ~chi_2+ b )
     7.42938535E-01    2     1000021         6   # BR(~t_2 -> ~g      t )
     7.76503020E-04    2     1000006        25   # BR(~t_2 -> ~t_1    h )
     2.74912387E-03    2     1000006        23   # BR(~t_2 -> ~t_1    Z )
#
#         PDG            Width
DECAY   1000005     3.49336796E+02   # sbottom1 decays
#          BR         NDA      ID1       ID2
     2.24009876E-03    2     1000022         5   # BR(~b_1 -> ~chi_10 b )
     2.11207279E-03    2     1000023         5   # BR(~b_1 -> ~chi_20 b )
     1.99856031E-03    2     1000025         5   # BR(~b_1 -> ~chi_30 b )
     2.13606838E-02    2     1000035         5   # BR(~b_1 -> ~chi_40 b )
     1.57442975E-01    2    -1000024         6   # BR(~b_1 -> ~chi_1- t )
     4.29979597E-02    2    -1000037         6   # BR(~b_1 -> ~chi_2- t )
     7.70245677E-01    2     1000021         5   # BR(~b_1 -> ~g      b )
     1.60197243E-03    2     1000006       -24   # BR(~b_1 -> ~t_1    W-)
#
#         PDG            Width
DECAY   2000005     2.78246666E+02   # sbottom2 decays
#          BR         NDA      ID1       ID2
     1.05279189E-02    2     1000022         5   # BR(~b_2 -> ~chi_10 b )
     2.54113974E-03    2     1000023         5   # BR(~b_2 -> ~chi_20 b )
     2.65352100E-03    2     1000025         5   # BR(~b_2 -> ~chi_30 b )
     3.16876497E-04    2     1000035         5   # BR(~b_2 -> ~chi_40 b )
     7.29663007E-03    2    -1000024         6   # BR(~b_2 -> ~chi_1- t )
     6.37570108E-04    2    -1000037         6   # BR(~b_2 -> ~chi_2- t )
     9.75932697E-01    2     1000021         5   # BR(~b_2 -> ~g      b )
     9.36466615E-05    2     1000006       -24   # BR(~b_2 -> ~t_1    W-)
#
#         PDG            Width
DECAY   1000002     2.97150174E+02   # sup_L decays
#          BR         NDA      ID1       ID2
     2.51348797E-03    2     1000022         2   # BR(~u_L -> ~chi_10 u)
     6.61489840E-05    2     1000023         2   # BR(~u_L -> ~chi_20 u)
     4.33054031E-06    2     1000025         2   # BR(~u_L -> ~chi_30 u)
     2.63106396E-02    2     1000035         2   # BR(~u_L -> ~chi_40 u)
     2.13878295E-04    2     1000024         1   # BR(~u_L -> ~chi_1+ d)
     5.25806709E-02    2     1000037         1   # BR(~u_L -> ~chi_2+ d)
     9.18310844E-01    2     1000021         2   # BR(~u_L -> ~g      u)
#
#         PDG            Width
DECAY   2000002     2.83408418E+02   # sup_R decays
#          BR         NDA      ID1       ID2
     4.19581447E-02    2     1000022         2   # BR(~u_R -> ~chi_10 u)
     1.35180380E-05    2     1000023         2   # BR(~u_R -> ~chi_20 u)
     1.74892327E-05    2     1000025         2   # BR(~u_R -> ~chi_30 u)
     3.39387706E-09    2     1000035         2   # BR(~u_R -> ~chi_40 u)
     9.58010845E-01    2     1000021         2   # BR(~u_R -> ~g      u)
#
#         PDG            Width
DECAY   1000001     2.97163405E+02   # sdown_L decays
#          BR         NDA      ID1       ID2
     2.50642536E-03    2     1000022         1   # BR(~d_L -> ~chi_10 d)
     4.01170083E-05    2     1000023         1   # BR(~d_L -> ~chi_20 d)
     1.70420261E-05    2     1000025         1   # BR(~d_L -> ~chi_30 d)
     2.63269338E-02    2     1000035         1   # BR(~d_L -> ~chi_40 d)
     3.41319867E-05    2    -1000024         2   # BR(~d_L -> ~chi_1- u)
     5.26811171E-02    2    -1000037         2   # BR(~d_L -> ~chi_2- u)
     9.18394233E-01    2     1000021         1   # BR(~d_L -> ~g      d)
#
#         PDG            Width
DECAY   2000001     2.74504951E+02   # sdown_R decays
#          BR         NDA      ID1       ID2
     1.08303558E-02    2     1000022         1   # BR(~d_R -> ~chi_10 d)
     3.48938728E-06    2     1000023         1   # BR(~d_R -> ~chi_20 d)
     4.51446508E-06    2     1000025         1   # BR(~d_R -> ~chi_30 d)
     8.76148738E-10    2     1000035         1   # BR(~d_R -> ~chi_40 d)
     9.89161639E-01    2     1000021         1   # BR(~d_R -> ~g      d)
#
#         PDG            Width
DECAY   1000004     2.97150174E+02   # scharm_L decays
#          BR         NDA      ID1       ID2
     2.51348797E-03    2     1000022         4   # BR(~c_L -> ~chi_10 c)
     6.61489840E-05    2     1000023         4   # BR(~c_L -> ~chi_20 c)
     4.33054031E-06    2     1000025         4   # BR(~c_L -> ~chi_30 c)
     2.63106396E-02    2     1000035         4   # BR(~c_L -> ~chi_40 c)
     2.13878295E-04    2     1000024         3   # BR(~c_L -> ~chi_1+ s)
     5.25806709E-02    2     1000037         3   # BR(~c_L -> ~chi_2+ s)
     9.18310844E-01    2     1000021         4   # BR(~c_L -> ~g      c)
#
#         PDG            Width
DECAY   2000004     2.83408418E+02   # scharm_R decays
#          BR         NDA      ID1       ID2
     4.19581447E-02    2     1000022         4   # BR(~c_R -> ~chi_10 c)
     1.35180380E-05    2     1000023         4   # BR(~c_R -> ~chi_20 c)
     1.74892327E-05    2     1000025         4   # BR(~c_R -> ~chi_30 c)
     3.39387706E-09    2     1000035         4   # BR(~c_R -> ~chi_40 c)
     9.58010845E-01    2     1000021         4   # BR(~c_R -> ~g      c)
#
#         PDG            Width
DECAY   1000003     2.97163405E+02   # sstrange_L decays
#          BR         NDA      ID1       ID2
     2.50642536E-03    2     1000022         3   # BR(~s_L -> ~chi_10 s)
     4.01170083E-05    2     1000023         3   # BR(~s_L -> ~chi_20 s)
     1.70420261E-05    2     1000025         3   # BR(~s_L -> ~chi_30 s)
     2.63269338E-02    2     1000035         3   # BR(~s_L -> ~chi_40 s)
     3.41319867E-05    2    -1000024         4   # BR(~s_L -> ~chi_1- c)
     5.26811171E-02    2    -1000037         4   # BR(~s_L -> ~chi_2- c)
     9.18394233E-01    2     1000021         3   # BR(~s_L -> ~g      s)
#
#         PDG            Width
DECAY   2000003     2.74504951E+02   # sstrange_R decays
#          BR         NDA      ID1       ID2
     1.08303558E-02    2     1000022         3   # BR(~s_R -> ~chi_10 s)
     3.48938728E-06    2     1000023         3   # BR(~s_R -> ~chi_20 s)
     4.51446508E-06    2     1000025         3   # BR(~s_R -> ~chi_30 s)
     8.76148738E-10    2     1000035         3   # BR(~s_R -> ~chi_40 s)
     9.89161639E-01    2     1000021         3   # BR(~s_R -> ~g      s)
#
#         PDG            Width
DECAY   1000011     3.02391407E+01   # selectron_L decays
#          BR         NDA      ID1       ID2
     2.26734573E-01    2     1000022        11   # BR(~e_L -> ~chi_10 e-)
     9.85150710E-04    2     1000023        11   # BR(~e_L -> ~chi_20 e-)
     1.15209118E-08    2     1000025        11   # BR(~e_L -> ~chi_30 e-)
     2.57104225E-01    2     1000035        11   # BR(~e_L -> ~chi_40 e-)
     3.40781180E-04    2    -1000024        12   # BR(~e_L -> ~chi_1- nu_e)
     5.14835259E-01    2    -1000037        12   # BR(~e_L -> ~chi_2- nu_e)
#
#         PDG            Width
DECAY   2000011     2.73602616E+01   # selectron_R decays
#          BR         NDA      ID1       ID2
     9.99264742E-01    2     1000022        11   # BR(~e_R -> ~chi_10 e-)
     3.20513426E-04    2     1000023        11   # BR(~e_R -> ~chi_20 e-)
     4.14665437E-04    2     1000025        11   # BR(~e_R -> ~chi_30 e-)
     7.88929817E-08    2     1000035        11   # BR(~e_R -> ~chi_40 e-)
#
#         PDG            Width
DECAY   1000013     3.02391407E+01   # smuon_L decays
#          BR         NDA      ID1       ID2
     2.26734573E-01    2     1000022        13   # BR(~mu_L -> ~chi_10 mu-)
     9.85150710E-04    2     1000023        13   # BR(~mu_L -> ~chi_20 mu-)
     1.15209118E-08    2     1000025        13   # BR(~mu_L -> ~chi_30 mu-)
     2.57104225E-01    2     1000035        13   # BR(~mu_L -> ~chi_40 mu-)
     3.40781180E-04    2    -1000024        14   # BR(~mu_L -> ~chi_1- nu_mu)
     5.14835259E-01    2    -1000037        14   # BR(~mu_L -> ~chi_2- nu_mu)
#
#         PDG            Width
DECAY   2000013     2.73602616E+01   # smuon_R decays
#          BR         NDA      ID1       ID2
     9.99264742E-01    2     1000022        13   # BR(~mu_R -> ~chi_10 mu-)
     3.20513426E-04    2     1000023        13   # BR(~mu_R -> ~chi_20 mu-)
     4.14665437E-04    2     1000025        13   # BR(~mu_R -> ~chi_30 mu-)
     7.88929817E-08    2     1000035        13   # BR(~mu_R -> ~chi_40 mu-)
#
#         PDG            Width
DECAY   1000015     2.89725117E+01   # stau_1 decays
#          BR         NDA      ID1       ID2
     9.24238717E-01    2     1000022        15   # BR(~tau_1 -> ~chi_10  tau-)
     1.41669529E-02    2     1000023        15   # BR(~tau_1 -> ~chi_20  tau-)
     1.28856953E-02    2     1000025        15   # BR(~tau_1 -> ~chi_30  tau-)
     7.28015308E-03    2     1000035        15   # BR(~tau_1 -> ~chi_40  tau-)
     2.68503804E-02    2    -1000024        16   # BR(~tau_1 -> ~chi_1-  nu_tau)
     1.45781015E-02    2    -1000037        16   # BR(~tau_1 -> ~chi_2-  nu_tau)
#
#         PDG            Width
DECAY   2000015     3.09263906E+01   # stau_2 decays
#          BR         NDA      ID1       ID2
     2.39719816E-01    2     1000022        15   # BR(~tau_2 -> ~chi_10  tau-)
     1.29164804E-02    2     1000023        15   # BR(~tau_2 -> ~chi_20  tau-)
     1.32038800E-02    2     1000025        15   # BR(~tau_2 -> ~chi_30  tau-)
     2.44497155E-01    2     1000035        15   # BR(~tau_2 -> ~chi_40  tau-)
     7.39440696E-05    2    -1000024        16   # BR(~tau_2 -> ~chi_1-  nu_tau)
     4.89588724E-01    2    -1000037        16   # BR(~tau_2 -> ~chi_2-  nu_tau)
#
#         PDG            Width
DECAY   1000012     3.02411814E+01   # snu_eL decays
#          BR         NDA      ID1       ID2
     2.26460135E-01    2     1000022        12   # BR(~nu_eL -> ~chi_10 nu_e)
     2.05184216E-04    2     1000023        12   # BR(~nu_eL -> ~chi_20 nu_e)
     3.80613135E-04    2     1000025        12   # BR(~nu_eL -> ~chi_30 nu_e)
     2.57193686E-01    2     1000035        12   # BR(~nu_eL -> ~chi_40 nu_e)
     2.13488437E-03    2     1000024        11   # BR(~nu_eL -> ~chi_1+ e-)
     5.13625497E-01    2     1000037        11   # BR(~nu_eL -> ~chi_2+ e-)
#
#         PDG            Width
DECAY   1000014     3.02411814E+01   # snu_muL decays
#          BR         NDA      ID1       ID2
     2.26460135E-01    2     1000022        14   # BR(~nu_muL -> ~chi_10 nu_mu)
     2.05184216E-04    2     1000023        14   # BR(~nu_muL -> ~chi_20 nu_mu)
     3.80613135E-04    2     1000025        14   # BR(~nu_muL -> ~chi_30 nu_mu)
     2.57193686E-01    2     1000035        14   # BR(~nu_muL -> ~chi_40 nu_mu)
     2.13488437E-03    2     1000024        13   # BR(~nu_muL -> ~chi_1+ mu-)
     5.13625497E-01    2     1000037        13   # BR(~nu_muL -> ~chi_2+ mu-)
#
#         PDG            Width
DECAY   1000016     3.10048278E+01   # snu_tauL decays
#          BR         NDA      ID1       ID2
     2.20858703E-01    2     1000022        16   # BR(~nu_tauL -> ~chi_10 nu_tau)
     2.00100620E-04    2     1000023        16   # BR(~nu_tauL -> ~chi_20 nu_tau)
     3.71183098E-04    2     1000025        16   # BR(~nu_tauL -> ~chi_30 nu_tau)
     2.50767326E-01    2     1000035        16   # BR(~nu_tauL -> ~chi_40 nu_tau)
     2.70094466E-02    2     1000024        15   # BR(~nu_tauL -> ~chi_1+ tau-)
     5.00793241E-01    2     1000037        15   # BR(~nu_tauL -> ~chi_2+ tau-)
#
#         PDG            Width
DECAY   1000024     9.22814454E-01   # chargino1+ decays
#          BR         NDA      ID1       ID2
     1.00000000E+00    2     1000022        24   # BR(~chi_1+ -> ~chi_10  W+)
#
#         PDG            Width
DECAY   1000037     1.84027851E+01   # chargino2+ decays
#          BR         NDA      ID1       ID2
     2.52707387E-01    2     1000024        23   # BR(~chi_2+ -> ~chi_1+  Z )
     2.61232434E-04    2     1000022        24   # BR(~chi_2+ -> ~chi_10  W+)
     2.44025192E-01    2     1000023        24   # BR(~chi_2+ -> ~chi_20  W+)
     2.43685476E-01    2     1000025        24   # BR(~chi_2+ -> ~chi_30  W+)
     2.59320349E-01    2     1000024        25   # BR(~chi_2+ -> ~chi_1+  h )
     3.63805410E-07    2     1000022        37   # BR(~chi_2+ -> ~chi_10  H+)
#
#         PDG            Width
DECAY   1000022     0.00000000E+00   # neutralino1 decays
#
#         PDG            Width
DECAY   1000023     9.69731572E-01   # neutralino2 decays
#          BR         NDA      ID1       ID2
     5.56490875E-01    2     1000022        23   # BR(~chi_20 -> ~chi_10   Z )
     4.43509125E-01    2     1000022        25   # BR(~chi_20 -> ~chi_10   h )
#
#         PDG            Width
DECAY   1000025     9.79306573E-01   # neutralino3 decays
#          BR         NDA      ID1       ID2
     4.26474363E-01    2     1000022        23   # BR(~chi_30 -> ~chi_10   Z )
     5.73525637E-01    2     1000022        25   # BR(~chi_30 -> ~chi_10   h )
#
#         PDG            Width
DECAY   1000035     1.84031149E+01   # neutralino4 decays
#          BR         NDA      ID1       ID2
     9.39568332E-05    2     1000022        23   # BR(~chi_40 -> ~chi_10   Z )
     3.95258781E-02    2     1000023        23   # BR(~chi_40 -> ~chi_20   Z )
     2.12649107E-01    2     1000025        23   # BR(~chi_40 -> ~chi_30   Z )
     2.44330542E-01    2     1000024       -24   # BR(~chi_40 -> ~chi_1+   W-)
     2.44330542E-01    2    -1000024        24   # BR(~chi_40 -> ~chi_1-   W+)
     1.73537229E-04    2     1000022        25   # BR(~chi_40 -> ~chi_10   h )
     3.27848888E-07    2     1000022        35   # BR(~chi_40 -> ~chi_10   H )
     4.93112752E-08    2     1000022        36   # BR(~chi_40 -> ~chi_10   A )
     2.19409798E-01    2     1000023        25   # BR(~chi_40 -> ~chi_20   h )
     3.94862619E-02    2     1000025        25   # BR(~chi_40 -> ~chi_30   h )
#
#         PDG            Width
DECAY        25     4.03885255E-03   # h decays
#          BR         NDA      ID1       ID2
     6.09556313E-01    2           5        -5   # BR(h -> b       bb     )
     6.41564813E-02    2         -15        15   # BR(h -> tau+    tau-   )
     2.27137762E-04    2         -13        13   # BR(h -> mu+     mu-    )
     4.81602685E-04    2           3        -3   # BR(h -> s       sb     )
     2.08705179E-02    2           4        -4   # BR(h -> c       cb     )
     6.73821919E-02    2          21        21   # BR(h -> g       g      )
     2.31438320E-03    2          22        22   # BR(h -> gam     gam    )
     1.48283178E-03    2          22        23   # BR(h -> Z       gam    )
     2.08675112E-01    2          24       -24   # BR(h -> W+      W-     )
     2.48218598E-02    2          23        23   # BR(h -> Z       Z      )
     3.15687247E-05    2     1000022   1000022   # BR(h -> ~chi_10 ~chi_10)
#
#         PDG            Width
DECAY        35     7.26437893E+00   # H decays
#          BR         NDA      ID1       ID2
     4.48988044E-01    2           5        -5   # BR(H -> b       bb     )
     7.67175337E-02    2         -15        15   # BR(H -> tau+    tau-   )
     2.71279293E-04    2         -13        13   # BR(H -> mu+     mu-    )
     3.32546785E-04    2           3        -3   # BR(H -> s       sb     )
     1.85871960E-06    2           4        -4   # BR(H -> c       cb     )
     1.85700817E-01    2           6        -6   # BR(H -> t       tb     )
     6.16376300E-05    2          21        21   # BR(H -> g       g      )
     3.88427730E-07    2          22        22   # BR(H -> gam     gam    )
     1.09639949E-07    2          23        22   # BR(H -> Z       gam    )
     8.26411604E-05    2          24       -24   # BR(H -> W+      W-     )
     4.12682813E-05    2          23        23   # BR(H -> Z       Z      )
     3.13349691E-04    2          25        25   # BR(H -> h       h      )
    -2.94595153E-23    2          36        36   # BR(H -> A       A      )
     1.32047202E-18    2          23        36   # BR(H -> Z       A      )
     3.15405786E-09    2     1000024  -1000024   # BR(H -> ~chi_1+ ~chi_1-)
     8.83871441E-04    2     1000022   1000022   # BR(H -> ~chi_10 ~chi_10)
     1.91632641E-08    2     1000023   1000023   # BR(H -> ~chi_20 ~chi_20)
     1.70317137E-01    2     1000022   1000023   # BR(H -> ~chi_10 ~chi_20)
     1.16287495E-01    2     1000022   1000025   # BR(H -> ~chi_10 ~chi_30)
#
#         PDG            Width
DECAY        36     7.26706430E+00   # A decays
#          BR         NDA      ID1       ID2
     4.48971969E-01    2           5        -5   # BR(A -> b       bb     )
     7.66912781E-02    2         -15        15   # BR(A -> tau+    tau-   )
     2.71186072E-04    2         -13        13   # BR(A -> mu+     mu-    )
     3.32675451E-04    2           3        -3   # BR(A -> s       sb     )
     1.86579917E-06    2           4        -4   # BR(A -> c       cb     )
     1.86305265E-01    2           6        -6   # BR(A -> t       tb     )
     1.84392751E-04    2          21        21   # BR(A -> g       g      )
     2.67970282E-07    2          22        22   # BR(A -> gam     gam    )
     2.23333891E-07    2          23        22   # BR(A -> Z       gam    )
     8.22986699E-05    2          23        25   # BR(A -> Z       h      )
     9.09480234E-04    2     1000022   1000022   # BR(A -> ~chi_10 ~chi_10)
     1.51990127E-05    2     1000023   1000023   # BR(A -> ~chi_20 ~chi_20)
     1.17629633E-01    2     1000022   1000023   # BR(A -> ~chi_10 ~chi_20)
     1.68604266E-01    2     1000022   1000025   # BR(A -> ~chi_10 ~chi_30)
#
#         PDG            Width
DECAY        37     7.26004239E+00   # H+ decays
#          BR         NDA      ID1       ID2
     7.21268183E-04    2           4        -5   # BR(H+ -> c       bb     )
     7.67879260E-02    2         -15        16   # BR(H+ -> tau+    nu_tau )
     2.71527826E-04    2         -13        14   # BR(H+ -> mu+     nu_mu  )
     4.61609270E-06    2           2        -5   # BR(H+ -> u       bb     )
     1.59326838E-05    2           2        -3   # BR(H+ -> u       sb     )
     3.29487646E-04    2           4        -3   # BR(H+ -> c       sb     )
     6.33373597E-01    2           6        -5   # BR(H+ -> t       bb     )
     8.25035370E-05    2          24        25   # BR(H+ -> W+      h      )
     9.45669669E-14    2          24        36   # BR(H+ -> W+      A      )
     2.88397556E-01    2     1000024   1000022   # BR(H+ -> ~chi_1+ ~chi_10)
     1.55849595E-05    2     1000024   1000023   # BR(H+ -> ~chi_1+ ~chi_20)
