#
#                              ======================
#                              | THE SUSYHIT OUTPUT |
#                              ======================
#
#
#              ------------------------------------------------------
#              |     This is the output of the SUSY-HIT package     |
#              |  created by A.Djouadi, M.Muehlleitner and M.Spira. |
#              |  In case of problems with SUSY-HIT email to        |
#              |           margarete.muehlleitner@cern.ch           |
#              |           michael.spira@psi.ch                     |
#              |           abdelhak.djouadi@cern.ch                 |
#              ------------------------------------------------------
#
#              ------------------------------------------------------
#              |  SUSY Les Houches Accord - MSSM Spectrum + Decays  |
#              |              based on the decay programs           |
#              |                                                    |
#              |                     SDECAY 1.3b                    |
#              |                                                    |
#              |  Authors: M.Muhlleitner, A.Djouadi and Y.Mambrini  |
#              |  Ref.:    Comput.Phys.Commun.168(2005)46           |
#              |           [hep-ph/0311167]                         |
#              |                                                    |
#              |                     HDECAY 3.4                     |
#              |                                                    |
#              |  By: A.Djouadi,J.Kalinowski,M.Muhlleitner,M.Spira  |
#              |  Ref.:    Comput.Phys.Commun.108(1998)56           |
#              |           [hep-ph/9704448]                         |
#              |                                                    |
#              |                                                    |
#              |  If not stated otherwise all DRbar couplings and   |
#              |  soft SUSY breaking masses are given at the scale  |
#              |  Q=  0.50007050E+04
#              |                                                    |
#              ------------------------------------------------------
#
#
BLOCK DCINFO  # Decay Program information
     1   SDECAY/HDECAY # decay calculator
     2   1.3b  /3.4    # version number
#
BLOCK SPINFO  # Spectrum calculator information
     1    SOFTSUSY    # spectrum calculator                
     2    3.4.0       # version number                     
#
BLOCK MODSEL  # Model selection
     1     0   #  nonUniversal                                     
#
BLOCK SMINPUTS  # Standard Model inputs
         1     1.25778332E+02   # alpha_em^-1(M_Z)^MSbar
         2     1.16570000E-05   # G_F [GeV^-2]
         3     1.17200002E-01   # alpha_S(M_Z)^MSbar
         4     9.11876000E+01   # M_Z pole mass
         5     4.25000000E+00   # mb(mb)^MSbar
         6     1.72500000E+02   # mt pole mass
         7     1.77682000E+00   # mtau pole mass
#
BLOCK MINPAR  # Input parameters - minimal models
         3     1.00000000E+01   # tanb                
#
BLOCK EXTPAR  # Input parameters - non-minimal models
         0    -1.00000000E+00   # Set                 
         1     6.00000000E+01   # M_1(MX)             
         2     3.00000000E+03   # M_2(MX)             
         3     1.12230000E+03   # M_3(MX)             
        11     5.00000000E+03   # At(MX)              
        12     5.00000000E+03   # Ab(MX)              
        13     0.00000000E+00   # Atau(MX)            
        23    -1.64283400E+03   # mu(MX)              
        26     3.00000000E+03   # mA(pole)            
        31     5.00000000E+03   # meL(MX)             
        32     5.00000000E+03   # mmuL(MX)            
        33     5.00000000E+03   # mtauL(MX)           
        34     5.00000000E+03   # meR(MX)             
        35     5.00000000E+03   # mmuR(MX)            
        36     5.00000000E+03   # mtauR(MX)           
        41     5.00000000E+03   # mqL1(MX)            
        42     5.00000000E+03   # mqL2(MX)            
        43     5.00000000E+03   # mqL3(MX)            
        44     5.00000000E+03   # muR(MX)             
        45     5.00000000E+03   # mcR(MX)             
        46     5.00000000E+03   # mtR(MX)             
        47     5.00000000E+03   # mdR(MX)             
        48     5.00000000E+03   # msR(MX)             
        49     5.00000000E+03   # mbR(MX)             
#
BLOCK MASS  # Mass Spectrum
# PDG code           mass       particle
        24     8.00955820E+01   # W+
        25     1.24576282E+02   # h
        35     3.00007999E+03   # H
        36     2.99999996E+03   # A
        37     3.00087362E+03   # H+
         5     4.87878001E+00   # b-quark pole mass calculated from mb(mb)_Msbar
   1000001     5.06589321E+03   # ~d_L
   2000001     5.04809975E+03   # ~d_R
   1000002     5.06541728E+03   # ~u_L
   2000002     5.04782728E+03   # ~u_R
   1000003     5.06589321E+03   # ~s_L
   2000003     5.04809975E+03   # ~s_R
   1000004     5.06541728E+03   # ~c_L
   2000004     5.04782728E+03   # ~c_R
   1000005     5.01241405E+03   # ~b_1
   2000005     5.04715330E+03   # ~b_2
   1000006     4.90355658E+03   # ~t_1
   2000006     5.05963885E+03   # ~t_2
   1000011     5.01904421E+03   # ~e_L
   2000011     5.00590664E+03   # ~e_R
   1000012     5.01809602E+03   # ~nu_eL
   1000013     5.01904421E+03   # ~mu_L
   2000013     5.00590664E+03   # ~mu_R
   1000014     5.01809602E+03   # ~nu_muL
   1000015     5.00425323E+03   # ~tau_1
   2000015     5.01912662E+03   # ~tau_2
   1000016     5.01756079E+03   # ~nu_tauL
   1000021     1.40000022E+03   # ~g
   1000022     6.03017462E+01   # ~chi_10
   1000023     1.69941186E+03   # ~chi_20
   1000025    -1.70202430E+03   # ~chi_30
   1000035     3.07436336E+03   # ~chi_40
   1000024     1.70000014E+03   # ~chi_1+
   1000037     3.07453097E+03   # ~chi_2+
#
BLOCK NMIX  # Neutralino Mixing Matrix
  1  1     9.99653859E-01   # N_11
  1  2     1.27080106E-04   # N_12
  1  3    -2.62455234E-02   # N_13
  1  4     1.82156390E-03   # N_14
  2  1     1.72670769E-02   # N_21
  2  2     3.53896209E-02   # N_22
  2  3     7.06866350E-01   # N_23
  2  4     7.06250229E-01   # N_24
  3  1    -1.98437206E-02   # N_31
  3  2     1.27038635E-02   # N_32
  3  3    -7.06677900E-01   # N_33
  3  4     7.07142973E-01   # N_34
  4  1    -4.86363446E-04   # N_41
  4  2     9.99292835E-01   # N_42
  4  3    -1.60462046E-02   # N_43
  4  4    -3.40016519E-02   # N_44
#
BLOCK UMIX  # Chargino Mixing Matrix U
  1  1     2.26879203E-02   # U_11
  1  2     9.99742596E-01   # U_12
  2  1    -9.99742596E-01   # U_21
  2  2     2.26879203E-02   # U_22
#
BLOCK VMIX  # Chargino Mixing Matrix V
  1  1     4.80870816E-02   # V_11
  1  2    -9.98843147E-01   # V_12
  2  1    -9.98843147E-01   # V_21
  2  2    -4.80870816E-02   # V_22
#
BLOCK STOPMIX  # Stop Mixing Matrix
  1  1    -5.15032420E-01   # cos(theta_t)
  1  2     8.57170698E-01   # sin(theta_t)
  2  1    -8.57170698E-01   # -sin(theta_t)
  2  2    -5.15032420E-01   # cos(theta_t)
#
BLOCK SBOTMIX  # Sbottom Mixing Matrix
  1  1     9.93108213E-01   # cos(theta_b)
  1  2    -1.17201012E-01   # sin(theta_b)
  2  1     1.17201012E-01   # -sin(theta_b)
  2  2     9.93108213E-01   # cos(theta_b)
#
BLOCK STAUMIX  # Stau Mixing Matrix
  1  1    -1.88888025E-01   # cos(theta_tau)
  1  2     9.81998632E-01   # sin(theta_tau)
  2  1    -9.81998632E-01   # -sin(theta_tau)
  2  2    -1.88888025E-01   # cos(theta_tau)
#
BLOCK ALPHA  # Higgs mixing
          -1.05438116E-01   # Mixing angle in the neutral Higgs boson sector
#
BLOCK HMIX Q=  5.00070495E+03  # DRbar Higgs Parameters
         1    -1.67254828E+03   # mu(Q)MSSM           
         2     9.47250757E+00   # tan                 
         3     2.42026513E+02   # higgs               
         4     8.36178615E+06   # mA^2(Q)MSSM         
#
BLOCK GAUGE Q=  5.00070495E+03  # The gauge couplings
     1     3.70684369E-01   # gprime(Q) DRbar
     2     6.31980189E-01   # g(Q) DRbar
     3     1.00370875E+00   # g3(Q) DRbar
#
BLOCK AU Q=  5.00070495E+03  # The trilinear couplings
  1  1     5.00000001E+03   # A_u(Q) DRbar
  2  2     5.00000001E+03   # A_c(Q) DRbar
  3  3     5.00000001E+03   # A_t(Q) DRbar
#
BLOCK AD Q=  5.00070495E+03  # The trilinear couplings
  1  1     5.00000000E+03   # A_d(Q) DRbar
  2  2     5.00000000E+03   # A_s(Q) DRbar
  3  3     5.00000001E+03   # A_b(Q) DRbar
#
BLOCK AE Q=  5.00070495E+03  # The trilinear couplings
  1  1     0.00000000E+00   # A_e(Q) DRbar
  2  2     8.27258742E-08   # A_mu(Q) DRbar
  3  3     8.20050613E-08   # A_tau(Q) DRbar
#
BLOCK Yu Q=  5.00070495E+03  # The Yukawa couplings
  1  1     0.00000000E+00   # y_u(Q) DRbar
  2  2     0.00000000E+00   # y_c(Q) DRbar
  3  3     8.16756072E-01   # y_t(Q) DRbar
#
BLOCK Yd Q=  5.00070495E+03  # The Yukawa couplings
  1  1     0.00000000E+00   # y_d(Q) DRbar
  2  2     0.00000000E+00   # y_s(Q) DRbar
  3  3     1.30669334E-01   # y_b(Q) DRbar
#
BLOCK Ye Q=  5.00070495E+03  # The Yukawa couplings
  1  1     0.00000000E+00   # y_e(Q) DRbar
  2  2     0.00000000E+00   # y_mu(Q) DRbar
  3  3     9.65639138E-02   # y_tau(Q) DRbar
#
BLOCK MSOFT Q=  5.00070495E+03  # The soft SUSY breaking masses at the scale Q
         1     6.00000000E+01   # M_1(Q)              
         2     3.00000000E+03   # M_2(Q)              
         3     1.12230000E+03   # M_3(Q)              
        21     5.86147538E+06   # mH1^2(Q)            
        22    -2.25846688E+06   # mH2^2(Q)            
        31     5.00000000E+03   # meL(Q)              
        32     5.00000000E+03   # mmuL(Q)             
        33     5.00000000E+03   # mtauL(Q)            
        34     5.00000000E+03   # meR(Q)              
        35     5.00000000E+03   # mmuR(Q)             
        36     5.00000000E+03   # mtauR(Q)            
        41     5.00000000E+03   # mqL1(Q)             
        42     5.00000000E+03   # mqL2(Q)             
        43     5.00000000E+03   # mqL3(Q)             
        44     5.00000000E+03   # muR(Q)              
        45     5.00000000E+03   # mcR(Q)              
        46     5.00000000E+03   # mtR(Q)              
        47     5.00000000E+03   # mdR(Q)              
        48     5.00000000E+03   # msR(Q)              
        49     5.00000000E+03   # mbR(Q)              
#
#
#
#                             =================
#                             |The decay table|
#                             =================
#
# - The QCD corrections to the decays gluino -> squark  + quark
#                                     squark -> gaugino + quark_prime
#                                     squark -> squark_prime + Higgs
#                                     squark -> gluino  + quark
#   are included.
#
# - The multi-body decays for the inos, stops and sbottoms are included.
#
# - The loop induced decays for the gluino, neutralinos and stops
#   are included.
#
# - The SUSY decays of the top quark are included.
#
#
#         PDG            Width
DECAY         6     1.39960407E+00   # top decays
#          BR         NDA      ID1       ID2
     1.00000000E+00    2           5        24   # BR(t ->  b    W+)
#
#         PDG            Width
DECAY   1000021     4.80432926E-05   # gluino decays
#          BR         NDA      ID1       ID2
     1.25154792E-05    2     1000022        21   # BR(~g -> ~chi_10 g)
#           BR         NDA      ID1       ID2       ID3
     7.86842169E-02    3     1000022         1        -1   # BR(~g -> ~chi_10 d  db)
     2.68223828E-01    3     1000022         2        -2   # BR(~g -> ~chi_10 u  ub)
     7.86842169E-02    3     1000022         3        -3   # BR(~g -> ~chi_10 s  sb)
     2.68223828E-01    3     1000022         4        -4   # BR(~g -> ~chi_10 c  cb)
     7.96032013E-02    3     1000022         5        -5   # BR(~g -> ~chi_10 b  bb)
     2.26568193E-01    3     1000022         6        -6   # BR(~g -> ~chi_10 t  tb)
#
#         PDG            Width
DECAY   1000006     3.72907358E+02   # stop1 decays
#          BR         NDA      ID1       ID2
     2.34623084E-02    2     1000022         6   # BR(~t_1 -> ~chi_10 t )
     6.82058096E-02    2     1000023         6   # BR(~t_1 -> ~chi_20 t )
     6.54639242E-02    2     1000025         6   # BR(~t_1 -> ~chi_30 t )
     5.99560637E-03    2     1000035         6   # BR(~t_1 -> ~chi_40 t )
     9.72270791E-02    2     1000024         5   # BR(~t_1 -> ~chi_1+ b )
     1.19118744E-02    2     1000037         5   # BR(~t_1 -> ~chi_2+ b )
     7.27733398E-01    2     1000021         6   # BR(~t_1 -> ~g      t )
#
#         PDG            Width
DECAY   2000006     3.81932677E+02   # stop2 decays
#          BR         NDA      ID1       ID2
     9.47612973E-03    2     1000022         6   # BR(~t_2 -> ~chi_10 t )
     6.93699137E-02    2     1000023         6   # BR(~t_2 -> ~chi_20 t )
     7.22764253E-02    2     1000025         6   # BR(~t_2 -> ~chi_30 t )
     1.40547230E-02    2     1000035         6   # BR(~t_2 -> ~chi_40 t )
     4.35783370E-02    2     1000024         5   # BR(~t_2 -> ~chi_1+ b )
     2.78701888E-02    2     1000037         5   # BR(~t_2 -> ~chi_2+ b )
     7.59893499E-01    2     1000021         6   # BR(~t_2 -> ~g      t )
     7.53592128E-04    2     1000006        25   # BR(~t_2 -> ~t_1    h )
     2.72719086E-03    2     1000006        23   # BR(~t_2 -> ~t_1    Z )
#
#         PDG            Width
DECAY   1000005     3.60239998E+02   # sbottom1 decays
#          BR         NDA      ID1       ID2
     2.18902540E-03    2     1000022         5   # BR(~b_1 -> ~chi_10 b )
     1.96184036E-03    2     1000023         5   # BR(~b_1 -> ~chi_20 b )
     1.82667146E-03    2     1000025         5   # BR(~b_1 -> ~chi_30 b )
     2.06121407E-02    2     1000035         5   # BR(~b_1 -> ~chi_40 b )
     1.43443537E-01    2    -1000024         6   # BR(~b_1 -> ~chi_1- t )
     4.15450237E-02    2    -1000037         6   # BR(~b_1 -> ~chi_2- t )
     7.86879438E-01    2     1000021         5   # BR(~b_1 -> ~g      b )
     1.54232334E-03    2     1000006       -24   # BR(~b_1 -> ~t_1    W-)
#
#         PDG            Width
DECAY   2000005     2.92559731E+02   # sbottom2 decays
#          BR         NDA      ID1       ID2
     9.99630255E-03    2     1000022         5   # BR(~b_2 -> ~chi_10 b )
     2.26249525E-03    2     1000023         5   # BR(~b_2 -> ~chi_20 b )
     2.38588650E-03    2     1000025         5   # BR(~b_2 -> ~chi_30 b )
     3.82365965E-04    2     1000035         5   # BR(~b_2 -> ~chi_40 b )
     7.03585117E-03    2    -1000024         6   # BR(~b_2 -> ~chi_1- t )
     7.70163004E-04    2    -1000037         6   # BR(~b_2 -> ~chi_2- t )
     9.77056304E-01    2     1000021         5   # BR(~b_2 -> ~g      b )
     1.10631450E-04    2     1000006       -24   # BR(~b_2 -> ~t_1    W-)
#
#         PDG            Width
DECAY   1000002     3.11356658E+02   # sup_L decays
#          BR         NDA      ID1       ID2
     2.39952848E-03    2     1000022         2   # BR(~u_L -> ~chi_10 u)
     7.43119393E-05    2     1000023         2   # BR(~u_L -> ~chi_20 u)
     3.84742219E-06    2     1000025         2   # BR(~u_L -> ~chi_30 u)
     2.50587421E-02    2     1000035         2   # BR(~u_L -> ~chi_40 u)
     2.28652708E-04    2     1000024         1   # BR(~u_L -> ~chi_1+ d)
     5.00755864E-02    2     1000037         1   # BR(~u_L -> ~chi_2+ d)
     9.22159331E-01    2     1000021         2   # BR(~u_L -> ~g      u)
#
#         PDG            Width
DECAY   2000002     2.97696081E+02   # sup_R decays
#          BR         NDA      ID1       ID2
     3.99619774E-02    2     1000022         2   # BR(~u_R -> ~chi_10 u)
     9.38176739E-06    2     1000023         2   # BR(~u_R -> ~chi_20 u)
     1.23808788E-05    2     1000025         2   # BR(~u_R -> ~chi_30 u)
     3.75414037E-09    2     1000035         2   # BR(~u_R -> ~chi_40 u)
     9.60016256E-01    2     1000021         2   # BR(~u_R -> ~g      u)
#
#         PDG            Width
DECAY   1000001     3.11369390E+02   # sdown_L decays
#          BR         NDA      ID1       ID2
     2.39342415E-03    2     1000022         1   # BR(~d_L -> ~chi_10 d)
     5.06850737E-05    2     1000023         1   # BR(~d_L -> ~chi_20 d)
     1.35902810E-05    2     1000025         1   # BR(~d_L -> ~chi_30 d)
     2.50750717E-02    2     1000035         1   # BR(~d_L -> ~chi_40 d)
     5.09040944E-05    2    -1000024         2   # BR(~d_L -> ~chi_1- u)
     5.01794012E-02    2    -1000037         2   # BR(~d_L -> ~chi_2- u)
     9.22236924E-01    2     1000021         1   # BR(~d_L -> ~g      d)
#
#         PDG            Width
DECAY   2000001     2.88789558E+02   # sdown_R decays
#          BR         NDA      ID1       ID2
     1.02991690E-02    2     1000022         1   # BR(~d_R -> ~chi_10 d)
     2.41797480E-06    2     1000023         1   # BR(~d_R -> ~chi_20 d)
     3.19093988E-06    2     1000025         1   # BR(~d_R -> ~chi_30 d)
     9.67654944E-10    2     1000035         1   # BR(~d_R -> ~chi_40 d)
     9.89695221E-01    2     1000021         1   # BR(~d_R -> ~g      d)
#
#         PDG            Width
DECAY   1000004     3.11356658E+02   # scharm_L decays
#          BR         NDA      ID1       ID2
     2.39952848E-03    2     1000022         4   # BR(~c_L -> ~chi_10 c)
     7.43119393E-05    2     1000023         4   # BR(~c_L -> ~chi_20 c)
     3.84742219E-06    2     1000025         4   # BR(~c_L -> ~chi_30 c)
     2.50587421E-02    2     1000035         4   # BR(~c_L -> ~chi_40 c)
     2.28652708E-04    2     1000024         3   # BR(~c_L -> ~chi_1+ s)
     5.00755864E-02    2     1000037         3   # BR(~c_L -> ~chi_2+ s)
     9.22159331E-01    2     1000021         4   # BR(~c_L -> ~g      c)
#
#         PDG            Width
DECAY   2000004     2.97696081E+02   # scharm_R decays
#          BR         NDA      ID1       ID2
     3.99619774E-02    2     1000022         4   # BR(~c_R -> ~chi_10 c)
     9.38176739E-06    2     1000023         4   # BR(~c_R -> ~chi_20 c)
     1.23808788E-05    2     1000025         4   # BR(~c_R -> ~chi_30 c)
     3.75414037E-09    2     1000035         4   # BR(~c_R -> ~chi_40 c)
     9.60016256E-01    2     1000021         4   # BR(~c_R -> ~g      c)
#
#         PDG            Width
DECAY   1000003     3.11369390E+02   # sstrange_L decays
#          BR         NDA      ID1       ID2
     2.39342415E-03    2     1000022         3   # BR(~s_L -> ~chi_10 s)
     5.06850737E-05    2     1000023         3   # BR(~s_L -> ~chi_20 s)
     1.35902810E-05    2     1000025         3   # BR(~s_L -> ~chi_30 s)
     2.50750717E-02    2     1000035         3   # BR(~s_L -> ~chi_40 s)
     5.09040944E-05    2    -1000024         4   # BR(~s_L -> ~chi_1- c)
     5.01794012E-02    2    -1000037         4   # BR(~s_L -> ~chi_2- c)
     9.22236924E-01    2     1000021         3   # BR(~s_L -> ~g      s)
#
#         PDG            Width
DECAY   2000003     2.88789558E+02   # sstrange_R decays
#          BR         NDA      ID1       ID2
     1.02991690E-02    2     1000022         3   # BR(~s_R -> ~chi_10 s)
     2.41797480E-06    2     1000023         3   # BR(~s_R -> ~chi_20 s)
     3.19093988E-06    2     1000025         3   # BR(~s_R -> ~chi_30 s)
     9.67654944E-10    2     1000035         3   # BR(~s_R -> ~chi_40 s)
     9.89695221E-01    2     1000021         3   # BR(~s_R -> ~g      s)
#
#         PDG            Width
DECAY   1000011     3.02313642E+01   # selectron_L decays
#          BR         NDA      ID1       ID2
     2.26795330E-01    2     1000022        11   # BR(~e_L -> ~chi_10 e-)
     1.07118014E-03    2     1000023        11   # BR(~e_L -> ~chi_20 e-)
     5.85553684E-07    2     1000025        11   # BR(~e_L -> ~chi_30 e-)
     2.56970528E-01    2     1000035        11   # BR(~e_L -> ~chi_40 e-)
     5.32165473E-04    2    -1000024        12   # BR(~e_L -> ~chi_1- nu_e)
     5.14630211E-01    2    -1000037        12   # BR(~e_L -> ~chi_2- nu_e)
#
#         PDG            Width
DECAY   2000011     2.73564667E+01   # selectron_R decays
#          BR         NDA      ID1       ID2
     9.99458287E-01    2     1000022        11   # BR(~e_R -> ~chi_10 e-)
     2.33492319E-04    2     1000023        11   # BR(~e_R -> ~chi_20 e-)
     3.08129276E-04    2     1000025        11   # BR(~e_R -> ~chi_30 e-)
     9.18000531E-08    2     1000035        11   # BR(~e_R -> ~chi_40 e-)
#
#         PDG            Width
DECAY   1000013     3.02313642E+01   # smuon_L decays
#          BR         NDA      ID1       ID2
     2.26795330E-01    2     1000022        13   # BR(~mu_L -> ~chi_10 mu-)
     1.07118014E-03    2     1000023        13   # BR(~mu_L -> ~chi_20 mu-)
     5.85553684E-07    2     1000025        13   # BR(~mu_L -> ~chi_30 mu-)
     2.56970528E-01    2     1000035        13   # BR(~mu_L -> ~chi_40 mu-)
     5.32165473E-04    2    -1000024        14   # BR(~mu_L -> ~chi_1- nu_mu)
     5.14630211E-01    2    -1000037        14   # BR(~mu_L -> ~chi_2- nu_mu)
#
#         PDG            Width
DECAY   2000013     2.73564667E+01   # smuon_R decays
#          BR         NDA      ID1       ID2
     9.99458287E-01    2     1000022        13   # BR(~mu_R -> ~chi_10 mu-)
     2.33492319E-04    2     1000023        13   # BR(~mu_R -> ~chi_20 mu-)
     3.08129276E-04    2     1000025        13   # BR(~mu_R -> ~chi_30 mu-)
     9.18000531E-08    2     1000035        13   # BR(~mu_R -> ~chi_40 mu-)
#
#         PDG            Width
DECAY   1000015     2.89034625E+01   # stau_1 decays
#          BR         NDA      ID1       ID2
     9.21219316E-01    2     1000022        15   # BR(~tau_1 -> ~chi_10  tau-)
     1.35839120E-02    2     1000023        15   # BR(~tau_1 -> ~chi_20  tau-)
     1.20823694E-02    2     1000025        15   # BR(~tau_1 -> ~chi_30  tau-)
     9.15394428E-03    2     1000035        15   # BR(~tau_1 -> ~chi_40  tau-)
     2.56273836E-02    2    -1000024        16   # BR(~tau_1 -> ~chi_1-  nu_tau)
     1.83330744E-02    2    -1000037        16   # BR(~tau_1 -> ~chi_2-  nu_tau)
#
#         PDG            Width
DECAY   2000015     3.08528311E+01   # stau_2 decays
#          BR         NDA      ID1       ID2
     2.45228805E-01    2     1000022        15   # BR(~tau_2 -> ~chi_10  tau-)
     1.21147653E-02    2     1000023        15   # BR(~tau_2 -> ~chi_20  tau-)
     1.25136566E-02    2     1000025        15   # BR(~tau_2 -> ~chi_30  tau-)
     2.43150338E-01    2     1000035        15   # BR(~tau_2 -> ~chi_40  tau-)
     4.37862547E-05    2    -1000024        16   # BR(~tau_2 -> ~chi_1-  nu_tau)
     4.86948649E-01    2    -1000037        16   # BR(~tau_2 -> ~chi_2-  nu_tau)
#
#         PDG            Width
DECAY   1000012     3.02330272E+01   # snu_eL decays
#          BR         NDA      ID1       ID2
     2.26543503E-01    2     1000022        12   # BR(~nu_eL -> ~chi_10 nu_e)
     3.29824140E-04    2     1000023        12   # BR(~nu_eL -> ~chi_20 nu_e)
     3.06028364E-04    2     1000025        12   # BR(~nu_eL -> ~chi_30 nu_e)
     2.57084643E-01    2     1000035        12   # BR(~nu_eL -> ~chi_40 nu_e)
     2.38982265E-03    2     1000024        11   # BR(~nu_eL -> ~chi_1+ e-)
     5.13346179E-01    2     1000037        11   # BR(~nu_eL -> ~chi_2+ e-)
#
#         PDG            Width
DECAY   1000014     3.02330272E+01   # snu_muL decays
#          BR         NDA      ID1       ID2
     2.26543503E-01    2     1000022        14   # BR(~nu_muL -> ~chi_10 nu_mu)
     3.29824140E-04    2     1000023        14   # BR(~nu_muL -> ~chi_20 nu_mu)
     3.06028364E-04    2     1000025        14   # BR(~nu_muL -> ~chi_30 nu_mu)
     2.57084643E-01    2     1000035        14   # BR(~nu_muL -> ~chi_40 nu_mu)
     2.38982265E-03    2     1000024        13   # BR(~nu_muL -> ~chi_1+ mu-)
     5.13346179E-01    2     1000037        13   # BR(~nu_muL -> ~chi_2+ mu-)
#
#         PDG            Width
DECAY   1000016     3.09530375E+01   # snu_tauL decays
#          BR         NDA      ID1       ID2
     2.21250174E-01    2     1000022        16   # BR(~nu_tauL -> ~chi_10 nu_tau)
     3.22099809E-04    2     1000023        16   # BR(~nu_tauL -> ~chi_20 nu_tau)
     2.98861262E-04    2     1000025        16   # BR(~nu_tauL -> ~chi_30 nu_tau)
     2.51013344E-01    2     1000035        16   # BR(~nu_tauL -> ~chi_40 nu_tau)
     2.58892270E-02    2     1000024        15   # BR(~nu_tauL -> ~chi_1+ tau-)
     5.01226294E-01    2     1000037        15   # BR(~nu_tauL -> ~chi_2+ tau-)
#
#         PDG            Width
DECAY   1000024     1.04819974E+00   # chargino1+ decays
#          BR         NDA      ID1       ID2
     1.00000000E+00    2     1000022        24   # BR(~chi_1+ -> ~chi_10  W+)
#
#         PDG            Width
DECAY   1000037     1.73688716E+01   # chargino2+ decays
#          BR         NDA      ID1       ID2
     2.52451298E-01    2     1000024        23   # BR(~chi_2+ -> ~chi_1+  Z )
     3.15302063E-04    2     1000022        24   # BR(~chi_2+ -> ~chi_10  W+)
     2.44299682E-01    2     1000023        24   # BR(~chi_2+ -> ~chi_20  W+)
     2.43425590E-01    2     1000025        24   # BR(~chi_2+ -> ~chi_30  W+)
     2.59507925E-01    2     1000024        25   # BR(~chi_2+ -> ~chi_1+  h )
     2.03001019E-07    2     1000022        37   # BR(~chi_2+ -> ~chi_10  H+)
#
#         PDG            Width
DECAY   1000022     0.00000000E+00   # neutralino1 decays
#
#         PDG            Width
DECAY   1000023     1.10267958E+00   # neutralino2 decays
#          BR         NDA      ID1       ID2
     5.60655790E-01    2     1000022        23   # BR(~chi_20 -> ~chi_10   Z )
     4.39344210E-01    2     1000022        25   # BR(~chi_20 -> ~chi_10   h )
#
#         PDG            Width
DECAY   1000025     1.11472992E+00   # neutralino3 decays
#          BR         NDA      ID1       ID2
     4.21176133E-01    2     1000022        23   # BR(~chi_30 -> ~chi_10   Z )
     5.78823867E-01    2     1000022        25   # BR(~chi_30 -> ~chi_10   h )
#
#         PDG            Width
DECAY   1000035     1.73558251E+01   # neutralino4 decays
#          BR         NDA      ID1       ID2
     1.25317543E-04    2     1000022        23   # BR(~chi_40 -> ~chi_10   Z )
     2.90799732E-02    2     1000023        23   # BR(~chi_40 -> ~chi_20   Z )
     2.23123293E-01    2     1000025        23   # BR(~chi_40 -> ~chi_30   Z )
     2.44099682E-01    2     1000024       -24   # BR(~chi_40 -> ~chi_1+   W-)
     2.44099682E-01    2    -1000024        24   # BR(~chi_40 -> ~chi_1-   W+)
     1.99638189E-04    2     1000022        25   # BR(~chi_40 -> ~chi_10   h )
     1.78799059E-07    2     1000022        35   # BR(~chi_40 -> ~chi_10   H )
     3.18461533E-08    2     1000022        36   # BR(~chi_40 -> ~chi_10   A )
     2.30327377E-01    2     1000023        25   # BR(~chi_40 -> ~chi_20   h )
     2.89448267E-02    2     1000025        25   # BR(~chi_40 -> ~chi_30   h )
#
#         PDG            Width
DECAY        25     4.02812774E-03   # h decays
#          BR         NDA      ID1       ID2
     6.10960092E-01    2           5        -5   # BR(h -> b       bb     )
     6.42804893E-02    2         -15        15   # BR(h -> tau+    tau-   )
     2.27577179E-04    2         -13        13   # BR(h -> mu+     mu-    )
     4.82599584E-04    2           3        -3   # BR(h -> s       sb     )
     2.09144627E-02    2           4        -4   # BR(h -> c       cb     )
     6.74242473E-02    2          21        21   # BR(h -> g       g      )
     2.31390212E-03    2          22        22   # BR(h -> gam     gam    )
     1.47522934E-03    2          22        23   # BR(h -> Z       gam    )
     2.07276822E-01    2          24       -24   # BR(h -> W+      W-     )
     2.46192545E-02    2          23        23   # BR(h -> Z       Z      )
     2.53236705E-05    2     1000022   1000022   # BR(h -> ~chi_10 ~chi_10)
#
#         PDG            Width
DECAY        35     6.89508331E+00   # H decays
#          BR         NDA      ID1       ID2
     4.74514971E-01    2           5        -5   # BR(H -> b       bb     )
     8.08439167E-02    2         -15        15   # BR(H -> tau+    tau-   )
     2.85870511E-04    2         -13        13   # BR(H -> mu+     mu-    )
     3.50433523E-04    2           3        -3   # BR(H -> s       sb     )
     1.95777085E-06    2           4        -4   # BR(H -> c       cb     )
     1.95596811E-01    2           6        -6   # BR(H -> t       tb     )
     6.48910375E-05    2          21        21   # BR(H -> g       g      )
     3.83379126E-07    2          22        22   # BR(H -> gam     gam    )
     1.15467178E-07    2          23        22   # BR(H -> Z       gam    )
     8.58062257E-05    2          24       -24   # BR(H -> W+      W-     )
     4.28488100E-05    2          23        23   # BR(H -> Z       Z      )
     3.28418972E-04    2          25        25   # BR(H -> h       h      )
    -1.23454851E-23    2          36        36   # BR(H -> A       A      )
     2.18746703E-19    2          23        36   # BR(H -> Z       A      )
     7.25309220E-04    2     1000022   1000022   # BR(H -> ~chi_10 ~chi_10)
     1.46057171E-01    2     1000022   1000023   # BR(H -> ~chi_10 ~chi_20)
     1.01101095E-01    2     1000022   1000025   # BR(H -> ~chi_10 ~chi_30)
#
#         PDG            Width
DECAY        36     6.89803856E+00   # A decays
#          BR         NDA      ID1       ID2
     4.74470652E-01    2           5        -5   # BR(A -> b       bb     )
     8.08116643E-02    2         -15        15   # BR(A -> tau+    tau-   )
     2.85756065E-04    2         -13        13   # BR(A -> mu+     mu-    )
     3.50549046E-04    2           3        -3   # BR(A -> s       sb     )
     1.96518568E-06    2           4        -4   # BR(A -> c       cb     )
     1.96229286E-01    2           6        -6   # BR(A -> t       tb     )
     1.94232510E-04    2          21        21   # BR(A -> g       g      )
     3.50308997E-07    2          22        22   # BR(A -> gam     gam    )
     2.35237766E-07    2          23        22   # BR(A -> Z       gam    )
     8.54468633E-05    2          23        25   # BR(A -> Z       h      )
     7.47818255E-04    2     1000022   1000022   # BR(A -> ~chi_10 ~chi_10)
     1.02261150E-01    2     1000022   1000023   # BR(A -> ~chi_10 ~chi_20)
     1.44560894E-01    2     1000022   1000025   # BR(A -> ~chi_10 ~chi_30)
#
#         PDG            Width
DECAY        37     6.88871761E+00   # H+ decays
#          BR         NDA      ID1       ID2
     7.62314445E-04    2           4        -5   # BR(H+ -> c       bb     )
     8.09445744E-02    2         -15        16   # BR(H+ -> tau+    nu_tau )
     2.86226044E-04    2         -13        14   # BR(H+ -> mu+     nu_mu  )
     4.87878750E-06    2           2        -5   # BR(H+ -> u       bb     )
     1.67951478E-05    2           2        -3   # BR(H+ -> u       sb     )
     3.47322564E-04    2           4        -3   # BR(H+ -> c       sb     )
     6.68824863E-01    2           6        -5   # BR(H+ -> t       bb     )
     8.56921973E-05    2          24        25   # BR(H+ -> W+      h      )
     9.71085320E-14    2          24        36   # BR(H+ -> W+      A      )
     2.48727333E-01    2     1000024   1000022   # BR(H+ -> ~chi_1+ ~chi_10)
