#
#                              ======================
#                              | THE SUSYHIT OUTPUT |
#                              ======================
#
#
#              ------------------------------------------------------
#              |     This is the output of the SUSY-HIT package     |
#              |  created by A.Djouadi, M.Muehlleitner and M.Spira. |
#              |  In case of problems with SUSY-HIT email to        |
#              |           margarete.muehlleitner@cern.ch           |
#              |           michael.spira@psi.ch                     |
#              |           abdelhak.djouadi@cern.ch                 |
#              ------------------------------------------------------
#
#              ------------------------------------------------------
#              |  SUSY Les Houches Accord - MSSM Spectrum + Decays  |
#              |              based on the decay programs           |
#              |                                                    |
#              |                     SDECAY 1.3b                    |
#              |                                                    |
#              |  Authors: M.Muhlleitner, A.Djouadi and Y.Mambrini  |
#              |  Ref.:    Comput.Phys.Commun.168(2005)46           |
#              |           [hep-ph/0311167]                         |
#              |                                                    |
#              |                     HDECAY 3.4                     |
#              |                                                    |
#              |  By: A.Djouadi,J.Kalinowski,M.Muhlleitner,M.Spira  |
#              |  Ref.:    Comput.Phys.Commun.108(1998)56           |
#              |           [hep-ph/9704448]                         |
#              |                                                    |
#              |                                                    |
#              |  If not stated otherwise all DRbar couplings and   |
#              |  soft SUSY breaking masses are given at the scale  |
#              |  Q=  0.50007356E+04
#              |                                                    |
#              ------------------------------------------------------
#
#
BLOCK DCINFO  # Decay Program information
     1   SDECAY/HDECAY # decay calculator
     2   1.3b  /3.4    # version number
#
BLOCK SPINFO  # Spectrum calculator information
     1    SOFTSUSY    # spectrum calculator                
     2    3.4.0       # version number                     
#
BLOCK MODSEL  # Model selection
     1     0   #  nonUniversal                                     
#
BLOCK SMINPUTS  # Standard Model inputs
         1     1.25778332E+02   # alpha_em^-1(M_Z)^MSbar
         2     1.16570000E-05   # G_F [GeV^-2]
         3     1.17200002E-01   # alpha_S(M_Z)^MSbar
         4     9.11876000E+01   # M_Z pole mass
         5     4.25000000E+00   # mb(mb)^MSbar
         6     1.72500000E+02   # mt pole mass
         7     1.77682000E+00   # mtau pole mass
#
BLOCK MINPAR  # Input parameters - minimal models
         3     1.00000000E+01   # tanb                
#
BLOCK EXTPAR  # Input parameters - non-minimal models
         0    -1.00000000E+00   # Set                 
         1     6.00000000E+01   # M_1(MX)             
         2     3.00000000E+03   # M_2(MX)             
         3     2.62339100E+03   # M_3(MX)             
        11     5.00000000E+03   # At(MX)              
        12     5.00000000E+03   # Ab(MX)              
        13     0.00000000E+00   # Atau(MX)            
        23    -1.15359900E+03   # mu(MX)              
        26     3.00000000E+03   # mA(pole)            
        31     5.00000000E+03   # meL(MX)             
        32     5.00000000E+03   # mmuL(MX)            
        33     5.00000000E+03   # mtauL(MX)           
        34     5.00000000E+03   # meR(MX)             
        35     5.00000000E+03   # mmuR(MX)            
        36     5.00000000E+03   # mtauR(MX)           
        41     5.00000000E+03   # mqL1(MX)            
        42     5.00000000E+03   # mqL2(MX)            
        43     5.00000000E+03   # mqL3(MX)            
        44     5.00000000E+03   # muR(MX)             
        45     5.00000000E+03   # mcR(MX)             
        46     5.00000000E+03   # mtR(MX)             
        47     5.00000000E+03   # mdR(MX)             
        48     5.00000000E+03   # msR(MX)             
        49     5.00000000E+03   # mbR(MX)             
#
BLOCK MASS  # Mass Spectrum
# PDG code           mass       particle
        24     8.00960881E+01   # W+
        25     1.24815483E+02   # h
        35     3.00008028E+03   # H
        36     2.99999985E+03   # A
        37     3.00086372E+03   # H+
         5     4.87878001E+00   # b-quark pole mass calculated from mb(mb)_Msbar
   1000001     5.09117858E+03   # ~d_L
   2000001     5.07346083E+03   # ~d_R
   1000002     5.09071076E+03   # ~u_L
   2000002     5.07318217E+03   # ~u_R
   1000003     5.09117858E+03   # ~s_L
   2000003     5.07346083E+03   # ~s_R
   1000004     5.09071076E+03   # ~c_L
   2000004     5.07318217E+03   # ~c_R
   1000005     5.03698770E+03   # ~b_1
   2000005     5.07205028E+03   # ~b_2
   1000006     4.92995193E+03   # ~t_1
   2000006     5.08062542E+03   # ~t_2
   1000011     5.01905697E+03   # ~e_L
   2000011     5.00591774E+03   # ~e_R
   1000012     5.01810884E+03   # ~nu_eL
   1000013     5.01905697E+03   # ~mu_L
   2000013     5.00591774E+03   # ~mu_R
   1000014     5.01810884E+03   # ~nu_muL
   1000015     5.00452447E+03   # ~tau_1
   2000015     5.01884514E+03   # ~tau_2
   1000016     5.01756540E+03   # ~nu_tauL
   1000021     3.00000063E+03   # ~g
   1000022     6.03023974E+01   # ~chi_10
   1000023     1.19954224E+03   # ~chi_20
   1000025    -1.20184357E+03   # ~chi_30
   1000035     3.07427593E+03   # ~chi_40
   1000024     1.20000034E+03   # ~chi_1+
   1000037     3.07444333E+03   # ~chi_2+
#
BLOCK NMIX  # Neutralino Mixing Matrix
  1  1     9.99308801E-01   # N_11
  1  2     1.64233625E-04   # N_12
  1  3    -3.71192117E-02   # N_13
  1  4     2.01425799E-03   # N_14
  2  1     2.48272552E-02   # N_21
  2  2     2.59735977E-02   # N_22
  2  3     7.06840258E-01   # N_23
  2  4     7.06460069E-01   # N_24
  3  1    -2.76650379E-02   # N_31
  3  2     1.42065584E-02   # N_32
  3  3    -7.06349601E-01   # N_33
  3  4     7.07179652E-01   # N_34
  4  1    -4.16130674E-04   # N_41
  4  2     9.99561663E-01   # N_42
  4  3    -8.32193924E-03   # N_43
  4  4    -2.84086820E-02   # N_44
#
BLOCK UMIX  # Chargino Mixing Matrix U
  1  1     1.17838523E-02   # U_11
  1  2     9.99930568E-01   # U_12
  2  1    -9.99930568E-01   # U_21
  2  2     1.17838523E-02   # U_22
#
BLOCK VMIX  # Chargino Mixing Matrix V
  1  1     4.02046877E-02   # V_11
  1  2    -9.99191465E-01   # V_12
  2  1    -9.99191465E-01   # V_21
  2  2    -4.02046877E-02   # V_22
#
BLOCK STOPMIX  # Stop Mixing Matrix
  1  1    -5.04376017E-01   # cos(theta_t)
  1  2     8.63484125E-01   # sin(theta_t)
  2  1    -8.63484125E-01   # -sin(theta_t)
  2  2    -5.04376017E-01   # cos(theta_t)
#
BLOCK SBOTMIX  # Sbottom Mixing Matrix
  1  1     9.96225149E-01   # cos(theta_b)
  1  2    -8.68069842E-02   # sin(theta_b)
  2  1     8.68069842E-02   # -sin(theta_b)
  2  2     9.96225149E-01   # cos(theta_b)
#
BLOCK STAUMIX  # Stau Mixing Matrix
  1  1    -1.36053457E-01   # cos(theta_tau)
  1  2     9.90701497E-01   # sin(theta_tau)
  2  1    -9.90701497E-01   # -sin(theta_tau)
  2  2    -1.36053457E-01   # cos(theta_tau)
#
BLOCK ALPHA  # Higgs mixing
          -1.05478589E-01   # Mixing angle in the neutral Higgs boson sector
#
BLOCK HMIX Q=  5.00073558E+03  # DRbar Higgs Parameters
         1    -1.17485636E+03   # mu(Q)MSSM           
         2     9.46931556E+00   # tan                 
         3     2.41903960E+02   # higgs               
         4     8.46647095E+06   # mA^2(Q)MSSM         
#
BLOCK GAUGE Q=  5.00073558E+03  # The gauge couplings
     1     3.70734471E-01   # gprime(Q) DRbar
     2     6.32279297E-01   # g(Q) DRbar
     3     9.92477175E-01   # g3(Q) DRbar
#
BLOCK AU Q=  5.00073558E+03  # The trilinear couplings
  1  1     5.00000002E+03   # A_u(Q) DRbar
  2  2     5.00000002E+03   # A_c(Q) DRbar
  3  3     5.00000003E+03   # A_t(Q) DRbar
#
BLOCK AD Q=  5.00073558E+03  # The trilinear couplings
  1  1     5.00000001E+03   # A_d(Q) DRbar
  2  2     5.00000001E+03   # A_s(Q) DRbar
  3  3     5.00000001E+03   # A_b(Q) DRbar
#
BLOCK AE Q=  5.00073558E+03  # The trilinear couplings
  1  1     0.00000000E+00   # A_e(Q) DRbar
  2  2     3.25498305E-07   # A_mu(Q) DRbar
  3  3     3.25725051E-07   # A_tau(Q) DRbar
#
BLOCK Yu Q=  5.00073558E+03  # The Yukawa couplings
  1  1     0.00000000E+00   # y_u(Q) DRbar
  2  2     0.00000000E+00   # y_c(Q) DRbar
  3  3     8.21470048E-01   # y_t(Q) DRbar
#
BLOCK Yd Q=  5.00073558E+03  # The Yukawa couplings
  1  1     0.00000000E+00   # y_d(Q) DRbar
  2  2     0.00000000E+00   # y_s(Q) DRbar
  3  3     1.31518656E-01   # y_b(Q) DRbar
#
BLOCK Ye Q=  5.00073558E+03  # The Yukawa couplings
  1  1     0.00000000E+00   # y_e(Q) DRbar
  2  2     0.00000000E+00   # y_mu(Q) DRbar
  3  3     9.67481713E-02   # y_tau(Q) DRbar
#
BLOCK MSOFT Q=  5.00073558E+03  # The soft SUSY breaking masses at the scale Q
         1     6.00000000E+01   # M_1(Q)              
         2     3.00000000E+03   # M_2(Q)              
         3     2.62339100E+03   # M_3(Q)              
        21     7.30521497E+06   # mH1^2(Q)            
        22    -8.18299291E+05   # mH2^2(Q)            
        31     5.00000000E+03   # meL(Q)              
        32     5.00000000E+03   # mmuL(Q)             
        33     5.00000000E+03   # mtauL(Q)            
        34     5.00000000E+03   # meR(Q)              
        35     5.00000000E+03   # mmuR(Q)             
        36     5.00000000E+03   # mtauR(Q)            
        41     4.99999999E+03   # mqL1(Q)             
        42     4.99999999E+03   # mqL2(Q)             
        43     4.99999999E+03   # mqL3(Q)             
        44     4.99999999E+03   # muR(Q)              
        45     4.99999999E+03   # mcR(Q)              
        46     4.99999999E+03   # mtR(Q)              
        47     4.99999999E+03   # mdR(Q)              
        48     4.99999999E+03   # msR(Q)              
        49     4.99999999E+03   # mbR(Q)              
#
#
#
#                             =================
#                             |The decay table|
#                             =================
#
# - The QCD corrections to the decays gluino -> squark  + quark
#                                     squark -> gaugino + quark_prime
#                                     squark -> squark_prime + Higgs
#                                     squark -> gluino  + quark
#   are included.
#
# - The multi-body decays for the inos, stops and sbottoms are included.
#
# - The loop induced decays for the gluino, neutralinos and stops
#   are included.
#
# - The SUSY decays of the top quark are included.
#
#
#         PDG            Width
DECAY         6     1.40090711E+00   # top decays
#          BR         NDA      ID1       ID2
     1.00000000E+00    2           5        24   # BR(t ->  b    W+)
#
#         PDG            Width
DECAY   1000021     1.03875533E-02   # gluino decays
#          BR         NDA      ID1       ID2
     1.66252589E-06    2     1000022        21   # BR(~g -> ~chi_10 g)
     3.79693713E-03    2     1000023        21   # BR(~g -> ~chi_20 g)
     3.75883430E-03    2     1000025        21   # BR(~g -> ~chi_30 g)
#           BR         NDA      ID1       ID2       ID3
     1.97602825E-02    3     1000022         1        -1   # BR(~g -> ~chi_10 d  db)
     2.61938368E-05    3     1000023         1        -1   # BR(~g -> ~chi_20 d  db)
     1.04780323E-05    3     1000025         1        -1   # BR(~g -> ~chi_30 d  db)
     6.73879557E-02    3     1000022         2        -2   # BR(~g -> ~chi_10 u  ub)
     6.44818456E-05    3     1000023         2        -2   # BR(~g -> ~chi_20 u  ub)
     1.15184695E-05    3     1000025         2        -2   # BR(~g -> ~chi_30 u  ub)
     1.97602825E-02    3     1000022         3        -3   # BR(~g -> ~chi_10 s  sb)
     2.61938368E-05    3     1000023         3        -3   # BR(~g -> ~chi_20 s  sb)
     1.04780323E-05    3     1000025         3        -3   # BR(~g -> ~chi_30 s  sb)
     6.73879557E-02    3     1000022         4        -4   # BR(~g -> ~chi_10 c  cb)
     6.44818456E-05    3     1000023         4        -4   # BR(~g -> ~chi_20 c  cb)
     1.15184695E-05    3     1000025         4        -4   # BR(~g -> ~chi_30 c  cb)
     2.00408699E-02    3     1000022         5        -5   # BR(~g -> ~chi_10 b  bb)
     4.67133791E-03    3     1000023         5        -5   # BR(~g -> ~chi_20 b  bb)
     4.61977818E-03    3     1000025         5        -5   # BR(~g -> ~chi_30 b  bb)
     7.07193056E-02    3     1000022         6        -6   # BR(~g -> ~chi_10 t  tb)
     1.79258572E-01    3     1000023         6        -6   # BR(~g -> ~chi_20 t  tb)
     1.68353614E-01    3     1000025         6        -6   # BR(~g -> ~chi_30 t  tb)
     7.37306746E-05    3     1000024         1        -2   # BR(~g -> ~chi_1+ d  ub)
     7.37306746E-05    3    -1000024         2        -1   # BR(~g -> ~chi_1- u  db)
     7.37306746E-05    3     1000024         3        -4   # BR(~g -> ~chi_1+ s  cb)
     7.37306746E-05    3    -1000024         4        -3   # BR(~g -> ~chi_1- c  sb)
     1.84981173E-01    3     1000024         5        -6   # BR(~g -> ~chi_1+ b  tb)
     1.84981173E-01    3    -1000024         6        -5   # BR(~g -> ~chi_1- t  bb)
#
#         PDG            Width
DECAY   1000006     2.40398088E+02   # stop1 decays
#          BR         NDA      ID1       ID2
     3.70670366E-02    2     1000022         6   # BR(~t_1 -> ~chi_10 t )
     1.21241211E-01    2     1000023         6   # BR(~t_1 -> ~chi_20 t )
     1.16675242E-01    2     1000025         6   # BR(~t_1 -> ~chi_30 t )
     8.54634504E-03    2     1000035         6   # BR(~t_1 -> ~chi_40 t )
     1.78456791E-01    2     1000024         5   # BR(~t_1 -> ~chi_1+ b )
     1.70184870E-02    2     1000037         5   # BR(~t_1 -> ~chi_2+ b )
     5.20994887E-01    2     1000021         6   # BR(~t_1 -> ~g      t )
#
#         PDG            Width
DECAY   2000006     2.51598789E+02   # stop2 decays
#          BR         NDA      ID1       ID2
     1.34572396E-02    2     1000022         6   # BR(~t_2 -> ~chi_10 t )
     1.19377331E-01    2     1000023         6   # BR(~t_2 -> ~chi_20 t )
     1.24159240E-01    2     1000025         6   # BR(~t_2 -> ~chi_30 t )
     2.25070244E-02    2     1000035         6   # BR(~t_2 -> ~chi_40 t )
     6.92442992E-02    2     1000024         5   # BR(~t_2 -> ~chi_1+ b )
     4.47541004E-02    2     1000037         5   # BR(~t_2 -> ~chi_2+ b )
     6.01755027E-01    2     1000021         6   # BR(~t_2 -> ~g      t )
     1.06760195E-03    2     1000006        25   # BR(~t_2 -> ~t_1    h )
     3.67813635E-03    2     1000006        23   # BR(~t_2 -> ~t_1    Z )
#
#         PDG            Width
DECAY   1000005     2.26465687E+02   # sbottom1 decays
#          BR         NDA      ID1       ID2
     3.40701849E-03    2     1000022         5   # BR(~b_1 -> ~chi_10 b )
     3.44709070E-03    2     1000023         5   # BR(~b_1 -> ~chi_20 b )
     3.32483457E-03    2     1000025         5   # BR(~b_1 -> ~chi_30 b )
     3.35842348E-02    2     1000035         5   # BR(~b_1 -> ~chi_40 b )
     2.61560099E-01    2    -1000024         6   # BR(~b_1 -> ~chi_1- t )
     6.75165001E-02    2    -1000037         6   # BR(~b_1 -> ~chi_2- t )
     6.24836781E-01    2     1000021         5   # BR(~b_1 -> ~g      b )
     2.32344123E-03    2     1000006       -24   # BR(~b_1 -> ~t_1    W-)
#
#         PDG            Width
DECAY   2000005     1.51136516E+02   # sbottom2 decays
#          BR         NDA      ID1       ID2
     1.93536799E-02    2     1000022         5   # BR(~b_2 -> ~chi_10 b )
     5.07964756E-03    2     1000023         5   # BR(~b_2 -> ~chi_20 b )
     5.24084650E-03    2     1000025         5   # BR(~b_2 -> ~chi_30 b )
     3.79690163E-04    2     1000035         5   # BR(~b_2 -> ~chi_40 b )
     1.29624004E-02    2    -1000024         6   # BR(~b_2 -> ~chi_1- t )
     7.63162784E-04    2    -1000037         6   # BR(~b_2 -> ~chi_2- t )
     9.56102606E-01    2     1000021         5   # BR(~b_2 -> ~g      b )
     1.17966228E-04    2     1000006       -24   # BR(~b_2 -> ~t_1    W-)
#
#         PDG            Width
DECAY   1000002     1.70693843E+02   # sup_L decays
#          BR         NDA      ID1       ID2
     4.35728572E-03    2     1000022         2   # BR(~u_L -> ~chi_10 u)
     9.70281653E-05    2     1000023         2   # BR(~u_L -> ~chi_20 u)
     7.90279573E-06    2     1000025         2   # BR(~u_L -> ~chi_30 u)
     4.64813014E-02    2     1000035         2   # BR(~u_L -> ~chi_40 u)
     3.30070629E-04    2     1000024         1   # BR(~u_L -> ~chi_1+ d)
     9.28973728E-02    2     1000037         1   # BR(~u_L -> ~chi_2+ d)
     8.55829038E-01    2     1000021         2   # BR(~u_L -> ~g      u)
#
#         PDG            Width
DECAY   2000002     1.56364219E+02   # sup_R decays
#          BR         NDA      ID1       ID2
     7.57092712E-02    2     1000022         2   # BR(~u_R -> ~chi_10 u)
     4.18125724E-05    2     1000023         2   # BR(~u_R -> ~chi_20 u)
     5.18939818E-05    2     1000025         2   # BR(~u_R -> ~chi_30 u)
     5.31516092E-09    2     1000035         2   # BR(~u_R -> ~chi_40 u)
     9.24197017E-01    2     1000021         2   # BR(~u_R -> ~g      u)
#
#         PDG            Width
DECAY   1000001     1.70711719E+02   # sdown_L decays
#          BR         NDA      ID1       ID2
     4.34260943E-03    2     1000022         1   # BR(~d_L -> ~chi_10 d)
     4.55513635E-05    2     1000023         1   # BR(~d_L -> ~chi_20 d)
     3.92635874E-05    2     1000025         1   # BR(~d_L -> ~chi_30 d)
     4.65055968E-02    2     1000035         1   # BR(~d_L -> ~chi_40 d)
     2.83551934E-05    2    -1000024         2   # BR(~d_L -> ~chi_1- u)
     9.30531970E-02    2    -1000037         2   # BR(~d_L -> ~chi_2- u)
     8.55985427E-01    2     1000021         1   # BR(~d_L -> ~g      d)
#
#         PDG            Width
DECAY   2000001     1.47499741E+02   # sdown_R decays
#          BR         NDA      ID1       ID2
     2.00659478E-02    2     1000022         1   # BR(~d_R -> ~chi_10 d)
     1.10821227E-05    2     1000023         1   # BR(~d_R -> ~chi_20 d)
     1.37541287E-05    2     1000025         1   # BR(~d_R -> ~chi_30 d)
     1.40890427E-09    2     1000035         1   # BR(~d_R -> ~chi_40 d)
     9.79909215E-01    2     1000021         1   # BR(~d_R -> ~g      d)
#
#         PDG            Width
DECAY   1000004     1.70693843E+02   # scharm_L decays
#          BR         NDA      ID1       ID2
     4.35728572E-03    2     1000022         4   # BR(~c_L -> ~chi_10 c)
     9.70281653E-05    2     1000023         4   # BR(~c_L -> ~chi_20 c)
     7.90279573E-06    2     1000025         4   # BR(~c_L -> ~chi_30 c)
     4.64813014E-02    2     1000035         4   # BR(~c_L -> ~chi_40 c)
     3.30070629E-04    2     1000024         3   # BR(~c_L -> ~chi_1+ s)
     9.28973728E-02    2     1000037         3   # BR(~c_L -> ~chi_2+ s)
     8.55829038E-01    2     1000021         4   # BR(~c_L -> ~g      c)
#
#         PDG            Width
DECAY   2000004     1.56364219E+02   # scharm_R decays
#          BR         NDA      ID1       ID2
     7.57092712E-02    2     1000022         4   # BR(~c_R -> ~chi_10 c)
     4.18125724E-05    2     1000023         4   # BR(~c_R -> ~chi_20 c)
     5.18939818E-05    2     1000025         4   # BR(~c_R -> ~chi_30 c)
     5.31516092E-09    2     1000035         4   # BR(~c_R -> ~chi_40 c)
     9.24197017E-01    2     1000021         4   # BR(~c_R -> ~g      c)
#
#         PDG            Width
DECAY   1000003     1.70711719E+02   # sstrange_L decays
#          BR         NDA      ID1       ID2
     4.34260943E-03    2     1000022         3   # BR(~s_L -> ~chi_10 s)
     4.55513635E-05    2     1000023         3   # BR(~s_L -> ~chi_20 s)
     3.92635874E-05    2     1000025         3   # BR(~s_L -> ~chi_30 s)
     4.65055968E-02    2     1000035         3   # BR(~s_L -> ~chi_40 s)
     2.83551934E-05    2    -1000024         4   # BR(~s_L -> ~chi_1- c)
     9.30531970E-02    2    -1000037         4   # BR(~s_L -> ~chi_2- c)
     8.55985427E-01    2     1000021         3   # BR(~s_L -> ~g      s)
#
#         PDG            Width
DECAY   2000003     1.47499741E+02   # sstrange_R decays
#          BR         NDA      ID1       ID2
     2.00659478E-02    2     1000022         3   # BR(~s_R -> ~chi_10 s)
     1.10821227E-05    2     1000023         3   # BR(~s_R -> ~chi_20 s)
     1.37541287E-05    2     1000025         3   # BR(~s_R -> ~chi_30 s)
     1.40890427E-09    2     1000035         3   # BR(~s_R -> ~chi_40 s)
     9.79909215E-01    2     1000021         3   # BR(~s_R -> ~g      s)
#
#         PDG            Width
DECAY   1000011     3.02496027E+01   # selectron_L decays
#          BR         NDA      ID1       ID2
     2.26592741E-01    2     1000022        11   # BR(~e_L -> ~chi_10 e-)
     9.63623390E-04    2     1000023        11   # BR(~e_L -> ~chi_20 e-)
     2.37992904E-06    2     1000025        11   # BR(~e_L -> ~chi_30 e-)
     2.57238154E-01    2     1000035        11   # BR(~e_L -> ~chi_40 e-)
     1.62891309E-04    2    -1000024        12   # BR(~e_L -> ~chi_1- nu_e)
     5.15040211E-01    2    -1000037        12   # BR(~e_L -> ~chi_2- nu_e)
#
#         PDG            Width
DECAY   2000011     2.73638225E+01   # selectron_R decays
#          BR         NDA      ID1       ID2
     9.98772083E-01    2     1000022        11   # BR(~e_R -> ~chi_10 e-)
     5.47881732E-04    2     1000023        11   # BR(~e_R -> ~chi_20 e-)
     6.79968348E-04    2     1000025        11   # BR(~e_R -> ~chi_30 e-)
     6.72069800E-08    2     1000035        11   # BR(~e_R -> ~chi_40 e-)
#
#         PDG            Width
DECAY   1000013     3.02496027E+01   # smuon_L decays
#          BR         NDA      ID1       ID2
     2.26592741E-01    2     1000022        13   # BR(~mu_L -> ~chi_10 mu-)
     9.63623390E-04    2     1000023        13   # BR(~mu_L -> ~chi_20 mu-)
     2.37992904E-06    2     1000025        13   # BR(~mu_L -> ~chi_30 mu-)
     2.57238154E-01    2     1000035        13   # BR(~mu_L -> ~chi_40 mu-)
     1.62891309E-04    2    -1000024        14   # BR(~mu_L -> ~chi_1- nu_mu)
     5.15040211E-01    2    -1000037        14   # BR(~mu_L -> ~chi_2- nu_mu)
#
#         PDG            Width
DECAY   2000013     2.73638225E+01   # smuon_R decays
#          BR         NDA      ID1       ID2
     9.98772083E-01    2     1000022        13   # BR(~mu_R -> ~chi_10 mu-)
     5.47881732E-04    2     1000023        13   # BR(~mu_R -> ~chi_20 mu-)
     6.79968348E-04    2     1000025        13   # BR(~mu_R -> ~chi_30 mu-)
     6.72069800E-08    2     1000035        13   # BR(~mu_R -> ~chi_40 mu-)
#
#         PDG            Width
DECAY   1000015     2.90627220E+01   # stau_1 decays
#          BR         NDA      ID1       ID2
     9.27987709E-01    2     1000022        15   # BR(~tau_1 -> ~chi_10  tau-)
     1.50435610E-02    2     1000023        15   # BR(~tau_1 -> ~chi_20  tau-)
     1.40726308E-02    2     1000025        15   # BR(~tau_1 -> ~chi_30  tau-)
     4.77935043E-03    2     1000035        15   # BR(~tau_1 -> ~chi_40  tau-)
     2.85477949E-02    2    -1000024        16   # BR(~tau_1 -> ~chi_1-  nu_tau)
     9.56895339E-03    2    -1000037        16   # BR(~tau_1 -> ~chi_2-  nu_tau)
#
#         PDG            Width
DECAY   2000015     3.10227952E+01   # stau_2 decays
#          BR         NDA      ID1       ID2
     2.32422338E-01    2     1000022        15   # BR(~tau_2 -> ~chi_10  tau-)
     1.40435564E-02    2     1000023        15   # BR(~tau_2 -> ~chi_20  tau-)
     1.40870121E-02    2     1000025        15   # BR(~tau_2 -> ~chi_30  tau-)
     2.46270536E-01    2     1000035        15   # BR(~tau_2 -> ~chi_40  tau-)
     9.56021727E-05    2    -1000024        16   # BR(~tau_2 -> ~chi_1-  nu_tau)
     4.93080955E-01    2    -1000037        16   # BR(~tau_2 -> ~chi_2-  nu_tau)
#
#         PDG            Width
DECAY   1000012     3.02521279E+01   # snu_eL decays
#          BR         NDA      ID1       ID2
     2.26277165E-01    2     1000022        12   # BR(~nu_eL -> ~chi_10 nu_e)
     7.64259974E-05    2     1000023        12   # BR(~nu_eL -> ~chi_20 nu_e)
     5.42669629E-04    2     1000025        12   # BR(~nu_eL -> ~chi_30 nu_e)
     2.57302500E-01    2     1000035        12   # BR(~nu_eL -> ~chi_40 nu_e)
     1.89556427E-03    2     1000024        11   # BR(~nu_eL -> ~chi_1+ e-)
     5.13905675E-01    2     1000037        11   # BR(~nu_eL -> ~chi_2+ e-)
#
#         PDG            Width
DECAY   1000014     3.02521279E+01   # snu_muL decays
#          BR         NDA      ID1       ID2
     2.26277165E-01    2     1000022        14   # BR(~nu_muL -> ~chi_10 nu_mu)
     7.64259974E-05    2     1000023        14   # BR(~nu_muL -> ~chi_20 nu_mu)
     5.42669629E-04    2     1000025        14   # BR(~nu_muL -> ~chi_30 nu_mu)
     2.57302500E-01    2     1000035        14   # BR(~nu_muL -> ~chi_40 nu_mu)
     1.89556427E-03    2     1000024        13   # BR(~nu_muL -> ~chi_1+ mu-)
     5.13905675E-01    2     1000037        13   # BR(~nu_muL -> ~chi_2+ mu-)
#
#         PDG            Width
DECAY   1000016     3.10732611E+01   # snu_tauL decays
#          BR         NDA      ID1       ID2
     2.20273758E-01    2     1000022        16   # BR(~nu_tauL -> ~chi_10 nu_tau)
     7.43963742E-05    2     1000023        16   # BR(~nu_tauL -> ~chi_20 nu_tau)
     5.28258052E-04    2     1000025        16   # BR(~nu_tauL -> ~chi_30 nu_tau)
     2.50410771E-01    2     1000035        16   # BR(~nu_tauL -> ~chi_40 nu_tau)
     2.85718383E-02    2     1000024        15   # BR(~nu_tauL -> ~chi_1+ tau-)
     5.00140979E-01    2     1000037        15   # BR(~nu_tauL -> ~chi_2+ tau-)
#
#         PDG            Width
DECAY   1000024     7.34366561E-01   # chargino1+ decays
#          BR         NDA      ID1       ID2
     1.00000000E+00    2     1000022        24   # BR(~chi_1+ -> ~chi_10  W+)
#
#         PDG            Width
DECAY   1000037     1.96674907E+01   # chargino2+ decays
#          BR         NDA      ID1       ID2
     2.53016175E-01    2     1000024        23   # BR(~chi_2+ -> ~chi_1+  Z )
     2.15557231E-04    2     1000022        24   # BR(~chi_2+ -> ~chi_10  W+)
     2.43989344E-01    2     1000023        24   # BR(~chi_2+ -> ~chi_20  W+)
     2.43952366E-01    2     1000025        24   # BR(~chi_2+ -> ~chi_30  W+)
     2.58825813E-01    2     1000024        25   # BR(~chi_2+ -> ~chi_1+  h )
     7.45204378E-07    2     1000022        37   # BR(~chi_2+ -> ~chi_10  H+)
#
#         PDG            Width
DECAY   1000022     0.00000000E+00   # neutralino1 decays
#
#         PDG            Width
DECAY   1000023     7.69632451E-01   # neutralino2 decays
#          BR         NDA      ID1       ID2
     5.48081839E-01    2     1000022        23   # BR(~chi_20 -> ~chi_10   Z )
     4.51918161E-01    2     1000022        25   # BR(~chi_20 -> ~chi_10   h )
#
#         PDG            Width
DECAY   1000025     7.75452470E-01   # neutralino3 decays
#          BR         NDA      ID1       ID2
     4.38104348E-01    2     1000022        23   # BR(~chi_30 -> ~chi_10   Z )
     5.61895652E-01    2     1000022        25   # BR(~chi_30 -> ~chi_10   h )
#
#         PDG            Width
DECAY   1000035     1.96791274E+01   # neutralino4 decays
#          BR         NDA      ID1       ID2
     6.35299718E-05    2     1000022        23   # BR(~chi_40 -> ~chi_10   Z )
     5.83477259E-02    2     1000023        23   # BR(~chi_40 -> ~chi_20   Z )
     1.93963253E-01    2     1000025        23   # BR(~chi_40 -> ~chi_30   Z )
     2.44603655E-01    2     1000024       -24   # BR(~chi_40 -> ~chi_1+   W-)
     2.44603655E-01    2    -1000024        24   # BR(~chi_40 -> ~chi_1-   W+)
     1.54956390E-04    2     1000022        25   # BR(~chi_40 -> ~chi_10   h )
     6.82272904E-07    2     1000022        35   # BR(~chi_40 -> ~chi_10   H )
     8.90763007E-08    2     1000022        36   # BR(~chi_40 -> ~chi_10   A )
     1.99801451E-01    2     1000023        25   # BR(~chi_40 -> ~chi_20   h )
     5.84610023E-02    2     1000025        25   # BR(~chi_40 -> ~chi_30   h )
#
#         PDG            Width
DECAY        25     4.04593749E-03   # h decays
#          BR         NDA      ID1       ID2
     6.05872727E-01    2           5        -5   # BR(h -> b       bb     )
     6.41270061E-02    2         -15        15   # BR(h -> tau+    tau-   )
     2.27032732E-04    2         -13        13   # BR(h -> mu+     mu-    )
     4.81264493E-04    2           3        -3   # BR(h -> s       sb     )
     2.08545425E-02    2           4        -4   # BR(h -> c       cb     )
     6.75084785E-02    2          21        21   # BR(h -> g       g      )
     2.32210502E-03    2          22        22   # BR(h -> gam     gam    )
     1.50084973E-03    2          22        23   # BR(h -> Z       gam    )
     2.11800038E-01    2          24       -24   # BR(h -> W+      W-     )
     2.52601511E-02    2          23        23   # BR(h -> Z       Z      )
     4.58046953E-05    2     1000022   1000022   # BR(h -> ~chi_10 ~chi_10)
#
#         PDG            Width
DECAY        35     7.79922777E+00   # H decays
#          BR         NDA      ID1       ID2
     4.16683159E-01    2           5        -5   # BR(H -> b       bb     )
     7.14236541E-02    2         -15        15   # BR(H -> tau+    tau-   )
     2.52559714E-04    2         -13        13   # BR(H -> mu+     mu-    )
     3.09599512E-04    2           3        -3   # BR(H -> s       sb     )
     1.73214861E-06    2           4        -4   # BR(H -> c       cb     )
     1.73055363E-01    2           6        -6   # BR(H -> t       tb     )
     5.74896746E-05    2          21        21   # BR(H -> g       g      )
     3.33243254E-07    2          22        22   # BR(H -> gam     gam    )
     1.02205081E-07    2          23        22   # BR(H -> Z       gam    )
     7.89826412E-05    2          24       -24   # BR(H -> W+      W-     )
     3.94413383E-05    2          23        23   # BR(H -> Z       Z      )
     2.94188494E-04    2          25        25   # BR(H -> h       h      )
    -1.01675613E-23    2          36        36   # BR(H -> A       A      )
     5.84326948E-19    2          23        36   # BR(H -> Z       A      )
     1.18819273E-03    2     1000024  -1000024   # BR(H -> ~chi_1+ ~chi_1-)
     1.28562867E-03    2     1000022   1000022   # BR(H -> ~chi_10 ~chi_10)
     6.57678944E-05    2     1000023   1000023   # BR(H -> ~chi_20 ~chi_20)
     2.34210284E-04    2     1000025   1000025   # BR(H -> ~chi_30 ~chi_30)
     2.00306774E-01    2     1000022   1000023   # BR(H -> ~chi_10 ~chi_20)
     1.34506891E-01    2     1000022   1000025   # BR(H -> ~chi_10 ~chi_30)
     2.15931338E-04    2     1000023   1000025   # BR(H -> ~chi_20 ~chi_30)
#
#         PDG            Width
DECAY        36     7.81950409E+00   # A decays
#          BR         NDA      ID1       ID2
     4.15742505E-01    2           5        -5   # BR(A -> b       bb     )
     7.12406214E-02    2         -15        15   # BR(A -> tau+    tau-   )
     2.51912144E-04    2         -13        13   # BR(A -> mu+     mu-    )
     3.09031369E-04    2           3        -3   # BR(A -> s       sb     )
     1.73477329E-06    2           4        -4   # BR(A -> c       cb     )
     1.73221964E-01    2           6        -6   # BR(A -> t       tb     )
     1.71411258E-04    2          21        21   # BR(A -> g       g      )
     5.26981700E-07    2          22        22   # BR(A -> gam     gam    )
     2.07641269E-07    2          23        22   # BR(A -> Z       gam    )
     7.84799369E-05    2          23        25   # BR(A -> Z       h      )
     2.90800368E-03    2     1000024  -1000024   # BR(A -> ~chi_1+ ~chi_1-)
     1.31422818E-03    2     1000022   1000022   # BR(A -> ~chi_10 ~chi_10)
     1.19040856E-04    2     1000023   1000023   # BR(A -> ~chi_20 ~chi_20)
     9.97986047E-04    2     1000025   1000025   # BR(A -> ~chi_30 ~chi_30)
     1.35889446E-01    2     1000022   1000023   # BR(A -> ~chi_10 ~chi_20)
     1.97726481E-01    2     1000022   1000025   # BR(A -> ~chi_10 ~chi_30)
     2.64193137E-05    2     1000023   1000025   # BR(A -> ~chi_20 ~chi_30)
#
#         PDG            Width
DECAY        37     7.80561444E+00   # H+ decays
#          BR         NDA      ID1       ID2
     6.72007822E-04    2           4        -5   # BR(H+ -> c       bb     )
     7.13879408E-02    2         -15        16   # BR(H+ -> tau+    nu_tau )
     2.52433076E-04    2         -13        14   # BR(H+ -> mu+     nu_mu  )
     4.30082803E-06    2           2        -5   # BR(H+ -> u       bb     )
     1.48122531E-05    2           2        -3   # BR(H+ -> u       sb     )
     3.06318677E-04    2           4        -3   # BR(H+ -> c       sb     )
     5.89900375E-01    2           6        -5   # BR(H+ -> t       bb     )
     7.87380050E-05    2          24        25   # BR(H+ -> W+      h      )
     8.10071988E-14    2          24        36   # BR(H+ -> W+      A      )
     3.36819250E-01    2     1000024   1000022   # BR(H+ -> ~chi_1+ ~chi_10)
     5.02883221E-04    2     1000024   1000023   # BR(H+ -> ~chi_1+ ~chi_20)
     6.09396643E-05    2     1000024   1000025   # BR(H+ -> ~chi_1+ ~chi_30)
