#
#                              ======================
#                              | THE SUSYHIT OUTPUT |
#                              ======================
#
#
#              ------------------------------------------------------
#              |     This is the output of the SUSY-HIT package     |
#              |  created by A.Djouadi, M.Muehlleitner and M.Spira. |
#              |  In case of problems with SUSY-HIT email to        |
#              |           margarete.muehlleitner@cern.ch           |
#              |           michael.spira@psi.ch                     |
#              |           abdelhak.djouadi@cern.ch                 |
#              ------------------------------------------------------
#
#              ------------------------------------------------------
#              |  SUSY Les Houches Accord - MSSM Spectrum + Decays  |
#              |              based on the decay programs           |
#              |                                                    |
#              |                     SDECAY 1.3b                    |
#              |                                                    |
#              |  Authors: M.Muhlleitner, A.Djouadi and Y.Mambrini  |
#              |  Ref.:    Comput.Phys.Commun.168(2005)46           |
#              |           [hep-ph/0311167]                         |
#              |                                                    |
#              |                     HDECAY 3.4                     |
#              |                                                    |
#              |  By: A.Djouadi,J.Kalinowski,M.Muhlleitner,M.Spira  |
#              |  Ref.:    Comput.Phys.Commun.108(1998)56           |
#              |           [hep-ph/9704448]                         |
#              |                                                    |
#              |                                                    |
#              |  If not stated otherwise all DRbar couplings and   |
#              |  soft SUSY breaking masses are given at the scale  |
#              |  Q=  0.50007308E+04
#              |                                                    |
#              ------------------------------------------------------
#
#
BLOCK DCINFO  # Decay Program information
     1   SDECAY/HDECAY # decay calculator
     2   1.3b  /3.4    # version number
#
BLOCK SPINFO  # Spectrum calculator information
     1    SOFTSUSY    # spectrum calculator                
     2    3.4.0       # version number                     
#
BLOCK MODSEL  # Model selection
     1     0   #  nonUniversal                                     
#
BLOCK SMINPUTS  # Standard Model inputs
         1     1.25778332E+02   # alpha_em^-1(M_Z)^MSbar
         2     1.16570000E-05   # G_F [GeV^-2]
         3     1.17200002E-01   # alpha_S(M_Z)^MSbar
         4     9.11876000E+01   # M_Z pole mass
         5     4.25000000E+00   # mb(mb)^MSbar
         6     1.72500000E+02   # mt pole mass
         7     1.77682000E+00   # mtau pole mass
#
BLOCK MINPAR  # Input parameters - minimal models
         3     1.00000000E+01   # tanb                
#
BLOCK EXTPAR  # Input parameters - non-minimal models
         0    -1.00000000E+00   # Set                 
         1     6.00000000E+01   # M_1(MX)             
         2     3.00000000E+03   # M_2(MX)             
         3     2.33132700E+03   # M_3(MX)             
        11     5.00000000E+03   # At(MX)              
        12     5.00000000E+03   # Ab(MX)              
        13     0.00000000E+00   # Atau(MX)            
        23    -1.25111900E+03   # mu(MX)              
        26     3.00000000E+03   # mA(pole)            
        31     5.00000000E+03   # meL(MX)             
        32     5.00000000E+03   # mmuL(MX)            
        33     5.00000000E+03   # mtauL(MX)           
        34     5.00000000E+03   # meR(MX)             
        35     5.00000000E+03   # mmuR(MX)            
        36     5.00000000E+03   # mtauR(MX)           
        41     5.00000000E+03   # mqL1(MX)            
        42     5.00000000E+03   # mqL2(MX)            
        43     5.00000000E+03   # mqL3(MX)            
        44     5.00000000E+03   # muR(MX)             
        45     5.00000000E+03   # mcR(MX)             
        46     5.00000000E+03   # mtR(MX)             
        47     5.00000000E+03   # mdR(MX)             
        48     5.00000000E+03   # msR(MX)             
        49     5.00000000E+03   # mbR(MX)             
#
BLOCK MASS  # Mass Spectrum
# PDG code           mass       particle
        24     8.00963966E+01   # W+
        25     1.24827469E+02   # h
        35     3.00008177E+03   # H
        36     2.99999987E+03   # A
        37     3.00086814E+03   # H+
         5     4.87878001E+00   # b-quark pole mass calculated from mb(mb)_Msbar
   1000001     5.08401031E+03   # ~d_L
   2000001     5.06627036E+03   # ~d_R
   1000002     5.08354044E+03   # ~u_L
   2000002     5.06599288E+03   # ~u_R
   1000003     5.08401031E+03   # ~s_L
   2000003     5.06627036E+03   # ~s_R
   1000004     5.08354044E+03   # ~c_L
   2000004     5.06599288E+03   # ~c_R
   1000005     5.02981698E+03   # ~b_1
   2000005     5.06493957E+03   # ~b_2
   1000006     4.92218798E+03   # ~t_1
   2000006     5.07425388E+03   # ~t_2
   1000011     5.01905403E+03   # ~e_L
   2000011     5.00591529E+03   # ~e_R
   1000012     5.01810600E+03   # ~nu_eL
   1000013     5.01905403E+03   # ~mu_L
   2000013     5.00591529E+03   # ~mu_R
   1000014     5.01810600E+03   # ~nu_muL
   1000015     5.00447629E+03   # ~tau_1
   2000015     5.01889411E+03   # ~tau_2
   1000016     5.01756395E+03   # ~nu_tauL
   1000021     2.70000081E+03   # ~g
   1000022     6.03030586E+01   # ~chi_10
   1000023     1.29950440E+03   # ~chi_20
   1000025    -1.30184357E+03   # ~chi_30
   1000035     3.07429636E+03   # ~chi_40
   1000024     1.30000100E+03   # ~chi_1+
   1000037     3.07446378E+03   # ~chi_2+
#
BLOCK NMIX  # Neutralino Mixing Matrix
  1  1     9.99410413E-01   # N_11
  1  2     1.55348698E-04   # N_12
  1  3    -3.42756563E-02   # N_13
  1  4     1.99525086E-03   # N_14
  2  1     2.28282788E-02   # N_21
  2  2     2.74273656E-02   # N_22
  2  3     7.06874901E-01   # N_23
  2  4     7.06437884E-01   # N_24
  3  1    -2.56420404E-02   # N_31
  3  2     1.38783253E-02   # N_32
  3  3    -7.06442656E-01   # N_33
  3  4     7.07169464E-01   # N_34
  4  1    -4.25709250E-04   # N_41
  4  2     9.99527442E-01   # N_42
  4  3    -9.58267902E-03   # N_43
  4  4    -2.92041686E-02   # N_44
#
BLOCK UMIX  # Chargino Mixing Matrix U
  1  1     1.35662829E-02   # U_11
  1  2     9.99907974E-01   # U_12
  2  1    -9.99907974E-01   # U_21
  2  2     1.35662829E-02   # U_22
#
BLOCK VMIX  # Chargino Mixing Matrix V
  1  1     4.13278179E-02   # V_11
  1  2    -9.99145641E-01   # V_12
  2  1    -9.99145641E-01   # V_21
  2  2    -4.13278179E-02   # V_22
#
BLOCK STOPMIX  # Stop Mixing Matrix
  1  1    -5.06450607E-01   # cos(theta_t)
  1  2     8.62268974E-01   # sin(theta_t)
  2  1    -8.62268974E-01   # -sin(theta_t)
  2  2    -5.06450607E-01   # cos(theta_t)
#
BLOCK SBOTMIX  # Sbottom Mixing Matrix
  1  1     9.95702800E-01   # cos(theta_b)
  1  2    -9.26063393E-02   # sin(theta_b)
  2  1     9.26063393E-02   # -sin(theta_b)
  2  2     9.95702800E-01   # cos(theta_b)
#
BLOCK STAUMIX  # Stau Mixing Matrix
  1  1    -1.46909076E-01   # cos(theta_tau)
  1  2     9.89150000E-01   # sin(theta_tau)
  2  1    -9.89150000E-01   # -sin(theta_tau)
  2  2    -1.46909076E-01   # cos(theta_tau)
#
BLOCK ALPHA  # Higgs mixing
          -1.05476920E-01   # Mixing angle in the neutral Higgs boson sector
#
BLOCK HMIX Q=  5.00073080E+03  # DRbar Higgs Parameters
         1    -1.27417552E+03   # mu(Q)MSSM           
         2     9.46938647E+00   # tan                 
         3     2.41916959E+02   # higgs               
         4     8.44395086E+06   # mA^2(Q)MSSM         
#
BLOCK GAUGE Q=  5.00073080E+03  # The gauge couplings
     1     3.70722349E-01   # gprime(Q) DRbar
     2     6.32211498E-01   # g(Q) DRbar
     3     9.94062003E-01   # g3(Q) DRbar
#
BLOCK AU Q=  5.00073080E+03  # The trilinear couplings
  1  1     5.00000002E+03   # A_u(Q) DRbar
  2  2     5.00000002E+03   # A_c(Q) DRbar
  3  3     5.00000002E+03   # A_t(Q) DRbar
#
BLOCK AD Q=  5.00073080E+03  # The trilinear couplings
  1  1     5.00000001E+03   # A_d(Q) DRbar
  2  2     5.00000001E+03   # A_s(Q) DRbar
  3  3     5.00000001E+03   # A_b(Q) DRbar
#
BLOCK AE Q=  5.00073080E+03  # The trilinear couplings
  1  1     0.00000000E+00   # A_e(Q) DRbar
  2  2     2.81789564E-07   # A_mu(Q) DRbar
  3  3     2.81843099E-07   # A_tau(Q) DRbar
#
BLOCK Yu Q=  5.00073080E+03  # The Yukawa couplings
  1  1     0.00000000E+00   # y_u(Q) DRbar
  2  2     0.00000000E+00   # y_c(Q) DRbar
  3  3     8.21163129E-01   # y_t(Q) DRbar
#
BLOCK Yd Q=  5.00073080E+03  # The Yukawa couplings
  1  1     0.00000000E+00   # y_d(Q) DRbar
  2  2     0.00000000E+00   # y_s(Q) DRbar
  3  3     1.31537236E-01   # y_b(Q) DRbar
#
BLOCK Ye Q=  5.00073080E+03  # The Yukawa couplings
  1  1     0.00000000E+00   # y_e(Q) DRbar
  2  2     0.00000000E+00   # y_mu(Q) DRbar
  3  3     9.67061122E-02   # y_tau(Q) DRbar
#
BLOCK MSOFT Q=  5.00073080E+03  # The soft SUSY breaking masses at the scale Q
         1     6.00000000E+01   # M_1(Q)              
         2     3.00000000E+03   # M_2(Q)              
         3     2.33132700E+03   # M_3(Q)              
        21     7.05695873E+06   # mH1^2(Q)            
        22    -1.06581774E+06   # mH2^2(Q)            
        31     5.00000000E+03   # meL(Q)              
        32     5.00000000E+03   # mmuL(Q)             
        33     5.00000000E+03   # mtauL(Q)            
        34     5.00000000E+03   # meR(Q)              
        35     5.00000000E+03   # mmuR(Q)             
        36     5.00000000E+03   # mtauR(Q)            
        41     4.99999999E+03   # mqL1(Q)             
        42     4.99999999E+03   # mqL2(Q)             
        43     4.99999999E+03   # mqL3(Q)             
        44     4.99999999E+03   # muR(Q)              
        45     4.99999999E+03   # mcR(Q)              
        46     4.99999999E+03   # mtR(Q)              
        47     4.99999999E+03   # mdR(Q)              
        48     4.99999999E+03   # msR(Q)              
        49     4.99999999E+03   # mbR(Q)              
#
#
#
#                             =================
#                             |The decay table|
#                             =================
#
# - The QCD corrections to the decays gluino -> squark  + quark
#                                     squark -> gaugino + quark_prime
#                                     squark -> squark_prime + Higgs
#                                     squark -> gluino  + quark
#   are included.
#
# - The multi-body decays for the inos, stops and sbottoms are included.
#
# - The loop induced decays for the gluino, neutralinos and stops
#   are included.
#
# - The SUSY decays of the top quark are included.
#
#
#         PDG            Width
DECAY         6     1.40059322E+00   # top decays
#          BR         NDA      ID1       ID2
     1.00000000E+00    2           5        24   # BR(t ->  b    W+)
#
#         PDG            Width
DECAY   1000021     3.95455110E-03   # gluino decays
#          BR         NDA      ID1       ID2
     2.55647983E-06    2     1000022        21   # BR(~g -> ~chi_10 g)
     5.25899490E-03    2     1000023        21   # BR(~g -> ~chi_20 g)
     5.22013457E-03    2     1000025        21   # BR(~g -> ~chi_30 g)
#           BR         NDA      ID1       ID2       ID3
     2.90074922E-02    3     1000022         1        -1   # BR(~g -> ~chi_10 d  db)
     2.61408304E-05    3     1000023         1        -1   # BR(~g -> ~chi_20 d  db)
     7.76386229E-06    3     1000025         1        -1   # BR(~g -> ~chi_30 d  db)
     9.89122480E-02    3     1000022         2        -2   # BR(~g -> ~chi_10 u  ub)
     5.76370222E-05    3     1000023         2        -2   # BR(~g -> ~chi_20 u  ub)
     8.24674443E-06    3     1000025         2        -2   # BR(~g -> ~chi_30 u  ub)
     2.90074922E-02    3     1000022         3        -3   # BR(~g -> ~chi_10 s  sb)
     2.61408304E-05    3     1000023         3        -3   # BR(~g -> ~chi_20 s  sb)
     7.76386229E-06    3     1000025         3        -3   # BR(~g -> ~chi_30 s  sb)
     9.89122480E-02    3     1000022         4        -4   # BR(~g -> ~chi_10 c  cb)
     5.76370222E-05    3     1000023         4        -4   # BR(~g -> ~chi_20 c  cb)
     8.24674443E-06    3     1000025         4        -4   # BR(~g -> ~chi_30 c  cb)
     2.93979115E-02    3     1000022         5        -5   # BR(~g -> ~chi_10 b  bb)
     4.05663078E-03    3     1000023         5        -5   # BR(~g -> ~chi_20 b  bb)
     3.99795046E-03    3     1000025         5        -5   # BR(~g -> ~chi_30 b  bb)
     1.02121499E-01    3     1000022         6        -6   # BR(~g -> ~chi_10 t  tb)
     1.48895562E-01    3     1000023         6        -6   # BR(~g -> ~chi_20 t  tb)
     1.34451691E-01    3     1000025         6        -6   # BR(~g -> ~chi_30 t  tb)
     7.12347310E-05    3     1000024         1        -2   # BR(~g -> ~chi_1+ d  ub)
     7.12347310E-05    3    -1000024         2        -1   # BR(~g -> ~chi_1- u  db)
     7.12347310E-05    3     1000024         3        -4   # BR(~g -> ~chi_1+ s  cb)
     7.12347310E-05    3    -1000024         4        -3   # BR(~g -> ~chi_1- c  sb)
     1.55136537E-01    3     1000024         5        -6   # BR(~g -> ~chi_1+ b  tb)
     1.55136537E-01    3    -1000024         6        -5   # BR(~g -> ~chi_1- t  bb)
#
#         PDG            Width
DECAY   1000006     2.68101045E+02   # stop1 decays
#          BR         NDA      ID1       ID2
     3.31185724E-02    2     1000022         6   # BR(~t_1 -> ~chi_10 t )
     1.06478567E-01    2     1000023         6   # BR(~t_1 -> ~chi_20 t )
     1.02440759E-01    2     1000025         6   # BR(~t_1 -> ~chi_30 t )
     7.77506772E-03    2     1000035         6   # BR(~t_1 -> ~chi_40 t )
     1.55810040E-01    2     1000024         5   # BR(~t_1 -> ~chi_1+ b )
     1.54776953E-02    2     1000037         5   # BR(~t_1 -> ~chi_2+ b )
     5.78899298E-01    2     1000021         6   # BR(~t_1 -> ~g      t )
#
#         PDG            Width
DECAY   2000006     2.79924990E+02   # stop2 decays
#          BR         NDA      ID1       ID2
     1.22611772E-02    2     1000022         6   # BR(~t_2 -> ~chi_10 t )
     1.05285718E-01    2     1000023         6   # BR(~t_2 -> ~chi_20 t )
     1.09508591E-01    2     1000025         6   # BR(~t_2 -> ~chi_30 t )
     2.00131728E-02    2     1000035         6   # BR(~t_2 -> ~chi_40 t )
     6.20135301E-02    2     1000024         5   # BR(~t_2 -> ~chi_1+ b )
     3.97796048E-02    2     1000037         5   # BR(~t_2 -> ~chi_2+ b )
     6.46766587E-01    2     1000021         6   # BR(~t_2 -> ~g      t )
     9.83597512E-04    2     1000006        25   # BR(~t_2 -> ~t_1    h )
     3.38802133E-03    2     1000006        23   # BR(~t_2 -> ~t_1    Z )
#
#         PDG            Width
DECAY   1000005     2.54894613E+02   # sbottom1 decays
#          BR         NDA      ID1       ID2
     3.03806568E-03    2     1000022         5   # BR(~b_1 -> ~chi_10 b )
     3.02057475E-03    2     1000023         5   # BR(~b_1 -> ~chi_20 b )
     2.89720533E-03    2     1000025         5   # BR(~b_1 -> ~chi_30 b )
     2.96780394E-02    2     1000035         5   # BR(~b_1 -> ~chi_40 b )
     2.27602741E-01    2    -1000024         6   # BR(~b_1 -> ~chi_1- t )
     5.96854148E-02    2    -1000037         6   # BR(~b_1 -> ~chi_2- t )
     6.71984375E-01    2     1000021         5   # BR(~b_1 -> ~g      b )
     2.09358375E-03    2     1000006       -24   # BR(~b_1 -> ~t_1    W-)
#
#         PDG            Width
DECAY   2000005     1.80897497E+02   # sbottom2 decays
#          BR         NDA      ID1       ID2
     1.61731071E-02    2     1000022         5   # BR(~b_2 -> ~chi_10 b )
     4.15439905E-03    2     1000023         5   # BR(~b_2 -> ~chi_20 b )
     4.30097279E-03    2     1000025         5   # BR(~b_2 -> ~chi_30 b )
     3.66755900E-04    2     1000035         5   # BR(~b_2 -> ~chi_40 b )
     1.09783574E-02    2    -1000024         6   # BR(~b_2 -> ~chi_1- t )
     7.37381771E-04    2    -1000037         6   # BR(~b_2 -> ~chi_2- t )
     9.63177031E-01    2     1000021         5   # BR(~b_2 -> ~g      b )
     1.11995273E-04    2     1000006       -24   # BR(~b_2 -> ~t_1    W-)
#
#         PDG            Width
DECAY   1000002     2.00305264E+02   # sup_L decays
#          BR         NDA      ID1       ID2
     3.71681757E-03    2     1000022         2   # BR(~u_L -> ~chi_10 u)
     8.66942005E-05    2     1000023         2   # BR(~u_L -> ~chi_20 u)
     6.69821209E-06    2     1000025         2   # BR(~u_L -> ~chi_30 u)
     3.94488320E-02    2     1000035         2   # BR(~u_L -> ~chi_40 u)
     2.91182191E-04    2     1000024         1   # BR(~u_L -> ~chi_1+ d)
     7.88407137E-02    2     1000037         1   # BR(~u_L -> ~chi_2+ d)
     8.77609062E-01    2     1000021         2   # BR(~u_L -> ~g      u)
#
#         PDG            Width
DECAY   2000002     1.86092157E+02   # sup_R decays
#          BR         NDA      ID1       ID2
     6.36839703E-02    2     1000022         2   # BR(~u_R -> ~chi_10 u)
     2.91013320E-05    2     1000023         2   # BR(~u_R -> ~chi_20 u)
     3.66989235E-05    2     1000025         2   # BR(~u_R -> ~chi_30 u)
     4.65579542E-09    2     1000035         2   # BR(~u_R -> ~chi_40 u)
     9.36250225E-01    2     1000021         2   # BR(~u_R -> ~g      u)
#
#         PDG            Width
DECAY   1000001     2.00323067E+02   # sdown_L decays
#          BR         NDA      ID1       ID2
     3.70503399E-03    2     1000022         1   # BR(~d_L -> ~chi_10 d)
     4.49627117E-05    2     1000023         1   # BR(~d_L -> ~chi_20 d)
     3.04070883E-05    2     1000025         1   # BR(~d_L -> ~chi_30 d)
     3.94704736E-02    2     1000035         1   # BR(~d_L -> ~chi_40 d)
     3.13772531E-05    2    -1000024         2   # BR(~d_L -> ~chi_1- u)
     7.89780848E-02    2    -1000037         2   # BR(~d_L -> ~chi_2- u)
     8.77739661E-01    2     1000021         1   # BR(~d_L -> ~g      d)
#
#         PDG            Width
DECAY   2000001     1.77219511E+02   # sdown_R decays
#          BR         NDA      ID1       ID2
     1.67190267E-02    2     1000022         1   # BR(~d_R -> ~chi_10 d)
     7.64012085E-06    2     1000023         1   # BR(~d_R -> ~chi_20 d)
     9.63475578E-06    2     1000025         1   # BR(~d_R -> ~chi_30 d)
     1.22244507E-09    2     1000035         1   # BR(~d_R -> ~chi_40 d)
     9.83263697E-01    2     1000021         1   # BR(~d_R -> ~g      d)
#
#         PDG            Width
DECAY   1000004     2.00305264E+02   # scharm_L decays
#          BR         NDA      ID1       ID2
     3.71681757E-03    2     1000022         4   # BR(~c_L -> ~chi_10 c)
     8.66942005E-05    2     1000023         4   # BR(~c_L -> ~chi_20 c)
     6.69821209E-06    2     1000025         4   # BR(~c_L -> ~chi_30 c)
     3.94488320E-02    2     1000035         4   # BR(~c_L -> ~chi_40 c)
     2.91182191E-04    2     1000024         3   # BR(~c_L -> ~chi_1+ s)
     7.88407137E-02    2     1000037         3   # BR(~c_L -> ~chi_2+ s)
     8.77609062E-01    2     1000021         4   # BR(~c_L -> ~g      c)
#
#         PDG            Width
DECAY   2000004     1.86092157E+02   # scharm_R decays
#          BR         NDA      ID1       ID2
     6.36839703E-02    2     1000022         4   # BR(~c_R -> ~chi_10 c)
     2.91013320E-05    2     1000023         4   # BR(~c_R -> ~chi_20 c)
     3.66989235E-05    2     1000025         4   # BR(~c_R -> ~chi_30 c)
     4.65579542E-09    2     1000035         4   # BR(~c_R -> ~chi_40 c)
     9.36250225E-01    2     1000021         4   # BR(~c_R -> ~g      c)
#
#         PDG            Width
DECAY   1000003     2.00323067E+02   # sstrange_L decays
#          BR         NDA      ID1       ID2
     3.70503399E-03    2     1000022         3   # BR(~s_L -> ~chi_10 s)
     4.49627117E-05    2     1000023         3   # BR(~s_L -> ~chi_20 s)
     3.04070883E-05    2     1000025         3   # BR(~s_L -> ~chi_30 s)
     3.94704736E-02    2     1000035         3   # BR(~s_L -> ~chi_40 s)
     3.13772531E-05    2    -1000024         4   # BR(~s_L -> ~chi_1- c)
     7.89780848E-02    2    -1000037         4   # BR(~s_L -> ~chi_2- c)
     8.77739661E-01    2     1000021         3   # BR(~s_L -> ~g      s)
#
#         PDG            Width
DECAY   2000003     1.77219511E+02   # sstrange_R decays
#          BR         NDA      ID1       ID2
     1.67190267E-02    2     1000022         3   # BR(~s_R -> ~chi_10 s)
     7.64012085E-06    2     1000023         3   # BR(~s_R -> ~chi_20 s)
     9.63475578E-06    2     1000025         3   # BR(~s_R -> ~chi_30 s)
     1.22244507E-09    2     1000035         3   # BR(~s_R -> ~chi_40 s)
     9.83263697E-01    2     1000021         3   # BR(~s_R -> ~g      s)
#
#         PDG            Width
DECAY   1000011     3.02447819E+01   # selectron_L decays
#          BR         NDA      ID1       ID2
     2.26653098E-01    2     1000022        11   # BR(~e_L -> ~chi_10 e-)
     9.56612672E-04    2     1000023        11   # BR(~e_L -> ~chi_20 e-)
     7.69566675E-07    2     1000025        11   # BR(~e_L -> ~chi_30 e-)
     2.57198848E-01    2     1000035        11   # BR(~e_L -> ~chi_40 e-)
     2.11363314E-04    2    -1000024        12   # BR(~e_L -> ~chi_1- nu_e)
     5.14979309E-01    2    -1000037        12   # BR(~e_L -> ~chi_2- nu_e)
#
#         PDG            Width
DECAY   2000011     2.73620354E+01   # selectron_R decays
#          BR         NDA      ID1       ID2
     9.98974631E-01    2     1000022        11   # BR(~e_R -> ~chi_10 e-)
     4.53461320E-04    2     1000023        11   # BR(~e_R -> ~chi_20 e-)
     5.71837836E-04    2     1000025        11   # BR(~e_R -> ~chi_30 e-)
     7.03352995E-08    2     1000035        11   # BR(~e_R -> ~chi_40 e-)
#
#         PDG            Width
DECAY   1000013     3.02447819E+01   # smuon_L decays
#          BR         NDA      ID1       ID2
     2.26653098E-01    2     1000022        13   # BR(~mu_L -> ~chi_10 mu-)
     9.56612672E-04    2     1000023        13   # BR(~mu_L -> ~chi_20 mu-)
     7.69566675E-07    2     1000025        13   # BR(~mu_L -> ~chi_30 mu-)
     2.57198848E-01    2     1000035        13   # BR(~mu_L -> ~chi_40 mu-)
     2.11363314E-04    2    -1000024        14   # BR(~mu_L -> ~chi_1- nu_mu)
     5.14979309E-01    2    -1000037        14   # BR(~mu_L -> ~chi_2- nu_mu)
#
#         PDG            Width
DECAY   2000013     2.73620354E+01   # smuon_R decays
#          BR         NDA      ID1       ID2
     9.98974631E-01    2     1000022        13   # BR(~mu_R -> ~chi_10 mu-)
     4.53461320E-04    2     1000023        13   # BR(~mu_R -> ~chi_20 mu-)
     5.71837836E-04    2     1000025        13   # BR(~mu_R -> ~chi_30 mu-)
     7.03352995E-08    2     1000035        13   # BR(~mu_R -> ~chi_40 mu-)
#
#         PDG            Width
DECAY   1000015     2.90335083E+01   # stau_1 decays
#          BR         NDA      ID1       ID2
     9.26861619E-01    2     1000022        15   # BR(~tau_1 -> ~chi_10  tau-)
     1.47474557E-02    2     1000023        15   # BR(~tau_1 -> ~chi_20  tau-)
     1.36743632E-02    2     1000025        15   # BR(~tau_1 -> ~chi_30  tau-)
     5.56659039E-03    2     1000035        15   # BR(~tau_1 -> ~chi_40  tau-)
     2.80043837E-02    2    -1000024        16   # BR(~tau_1 -> ~chi_1-  nu_tau)
     1.11455882E-02    2    -1000037        16   # BR(~tau_1 -> ~chi_2-  nu_tau)
#
#         PDG            Width
DECAY   2000015     3.09910647E+01   # stau_2 decays
#          BR         NDA      ID1       ID2
     2.34722916E-01    2     1000022        15   # BR(~tau_2 -> ~chi_10  tau-)
     1.36774385E-02    2     1000023        15   # BR(~tau_2 -> ~chi_20  tau-)
     1.38134255E-02    2     1000025        15   # BR(~tau_2 -> ~chi_30  tau-)
     2.45713046E-01    2     1000035        15   # BR(~tau_2 -> ~chi_40  tau-)
     9.18066903E-05    2    -1000024        16   # BR(~tau_2 -> ~chi_1-  nu_tau)
     4.91981367E-01    2    -1000037        16   # BR(~tau_2 -> ~chi_2-  nu_tau)
#
#         PDG            Width
DECAY   1000012     3.02471566E+01   # snu_eL decays
#          BR         NDA      ID1       ID2
     2.26352337E-01    2     1000022        12   # BR(~nu_eL -> ~chi_10 nu_e)
     1.13184752E-04    2     1000023        12   # BR(~nu_eL -> ~chi_20 nu_e)
     4.79726699E-04    2     1000025        12   # BR(~nu_eL -> ~chi_30 nu_e)
     2.57270285E-01    2     1000035        12   # BR(~nu_eL -> ~chi_40 nu_e)
     1.96088932E-03    2     1000024        11   # BR(~nu_eL -> ~chi_1+ e-)
     5.13823577E-01    2     1000037        11   # BR(~nu_eL -> ~chi_2+ e-)
#
#         PDG            Width
DECAY   1000014     3.02471566E+01   # snu_muL decays
#          BR         NDA      ID1       ID2
     2.26352337E-01    2     1000022        14   # BR(~nu_muL -> ~chi_10 nu_mu)
     1.13184752E-04    2     1000023        14   # BR(~nu_muL -> ~chi_20 nu_mu)
     4.79726699E-04    2     1000025        14   # BR(~nu_muL -> ~chi_30 nu_mu)
     2.57270285E-01    2     1000035        14   # BR(~nu_muL -> ~chi_40 nu_mu)
     1.96088932E-03    2     1000024        13   # BR(~nu_muL -> ~chi_1+ mu-)
     5.13823577E-01    2     1000037        13   # BR(~nu_muL -> ~chi_2+ mu-)
#
#         PDG            Width
DECAY   1000016     3.10501898E+01   # snu_tauL decays
#          BR         NDA      ID1       ID2
     2.20474485E-01    2     1000022        16   # BR(~nu_tauL -> ~chi_10 nu_tau)
     1.10242185E-04    2     1000023        16   # BR(~nu_tauL -> ~chi_20 nu_tau)
     4.67254753E-04    2     1000025        16   # BR(~nu_tauL -> ~chi_30 nu_tau)
     2.50524519E-01    2     1000035        16   # BR(~nu_tauL -> ~chi_40 nu_tau)
     2.80722855E-02    2     1000024        15   # BR(~nu_tauL -> ~chi_1+ tau-)
     5.00351214E-01    2     1000037        15   # BR(~nu_tauL -> ~chi_2+ tau-)
#
#         PDG            Width
DECAY   1000024     7.97121947E-01   # chargino1+ decays
#          BR         NDA      ID1       ID2
     1.00000000E+00    2     1000022        24   # BR(~chi_1+ -> ~chi_10  W+)
#
#         PDG            Width
DECAY   1000037     1.92721387E+01   # chargino2+ decays
#          BR         NDA      ID1       ID2
     2.52917604E-01    2     1000024        23   # BR(~chi_2+ -> ~chi_1+  Z )
     2.27538594E-04    2     1000022        24   # BR(~chi_2+ -> ~chi_10  W+)
     2.43956765E-01    2     1000023        24   # BR(~chi_2+ -> ~chi_20  W+)
     2.43869152E-01    2     1000025        24   # BR(~chi_2+ -> ~chi_30  W+)
     2.59028349E-01    2     1000024        25   # BR(~chi_2+ -> ~chi_1+  h )
     5.91799062E-07    2     1000022        37   # BR(~chi_2+ -> ~chi_10  H+)
#
#         PDG            Width
DECAY   1000022     0.00000000E+00   # neutralino1 decays
#
#         PDG            Width
DECAY   1000023     8.36353272E-01   # neutralino2 decays
#          BR         NDA      ID1       ID2
     5.51245783E-01    2     1000022        23   # BR(~chi_20 -> ~chi_10   Z )
     4.48754217E-01    2     1000022        25   # BR(~chi_20 -> ~chi_10   h )
#
#         PDG            Width
DECAY   1000025     8.43461345E-01   # neutralino3 decays
#          BR         NDA      ID1       ID2
     4.33551354E-01    2     1000022        23   # BR(~chi_30 -> ~chi_10   Z )
     5.66448646E-01    2     1000022        25   # BR(~chi_30 -> ~chi_10   h )
#
#         PDG            Width
DECAY   1000035     1.92809547E+01   # neutralino4 decays
#          BR         NDA      ID1       ID2
     7.23310320E-05    2     1000022        23   # BR(~chi_40 -> ~chi_10   Z )
     5.16782586E-02    2     1000023        23   # BR(~chi_40 -> ~chi_20   Z )
     2.00566569E-01    2     1000025        23   # BR(~chi_40 -> ~chi_30   Z )
     2.44512935E-01    2     1000024       -24   # BR(~chi_40 -> ~chi_1+   W-)
     2.44512935E-01    2    -1000024        24   # BR(~chi_40 -> ~chi_1-   W+)
     1.59138985E-04    2     1000022        25   # BR(~chi_40 -> ~chi_10   h )
     5.39623967E-07    2     1000022        35   # BR(~chi_40 -> ~chi_10   H )
     7.32352374E-08    2     1000022        36   # BR(~chi_40 -> ~chi_10   A )
     2.06753491E-01    2     1000023        25   # BR(~chi_40 -> ~chi_20   h )
     5.17437290E-02    2     1000025        25   # BR(~chi_40 -> ~chi_30   h )
#
#         PDG            Width
DECAY        25     4.04768237E-03   # h decays
#          BR         NDA      ID1       ID2
     6.05714479E-01    2           5        -5   # BR(h -> b       bb     )
     6.41044610E-02    2         -15        15   # BR(h -> tau+    tau-   )
     2.26952861E-04    2         -13        13   # BR(h -> mu+     mu-    )
     4.81086289E-04    2           3        -3   # BR(h -> s       sb     )
     2.08471673E-02    2           4        -4   # BR(h -> c       cb     )
     6.74981225E-02    2          21        21   # BR(h -> g       g      )
     2.32208494E-03    2          22        22   # BR(h -> gam     gam    )
     1.50183962E-03    2          22        23   # BR(h -> Z       gam    )
     2.11975365E-01    2          24       -24   # BR(h -> W+      W-     )
     2.52872953E-02    2          23        23   # BR(h -> Z       Z      )
     4.11462079E-05    2     1000022   1000022   # BR(h -> ~chi_10 ~chi_10)
#
#         PDG            Width
DECAY        35     7.62960654E+00   # H decays
#          BR         NDA      ID1       ID2
     4.26794572E-01    2           5        -5   # BR(H -> b       bb     )
     7.30126866E-02    2         -15        15   # BR(H -> tau+    tau-   )
     2.58178659E-04    2         -13        13   # BR(H -> mu+     mu-    )
     3.16487459E-04    2           3        -3   # BR(H -> s       sb     )
     1.77060234E-06    2           4        -4   # BR(H -> c       cb     )
     1.76897197E-01    2           6        -6   # BR(H -> t       tb     )
     5.87540004E-05    2          21        21   # BR(H -> g       g      )
     3.62360260E-07    2          22        22   # BR(H -> gam     gam    )
     1.04481322E-07    2          23        22   # BR(H -> Z       gam    )
     8.01977428E-05    2          24       -24   # BR(H -> W+      W-     )
     4.00481215E-05    2          23        23   # BR(H -> Z       Z      )
     2.99927398E-04    2          25        25   # BR(H -> h       h      )
    -2.93560213E-24    2          36        36   # BR(H -> A       A      )
     1.15972434E-18    2          23        36   # BR(H -> Z       A      )
     7.43150207E-04    2     1000024  -1000024   # BR(H -> ~chi_1+ ~chi_1-)
     1.11986477E-03    2     1000022   1000022   # BR(H -> ~chi_10 ~chi_10)
     5.61084100E-05    2     1000023   1000023   # BR(H -> ~chi_20 ~chi_20)
     1.23981799E-04    2     1000025   1000025   # BR(H -> ~chi_30 ~chi_30)
     1.91090766E-01    2     1000022   1000023   # BR(H -> ~chi_10 ~chi_20)
     1.28982949E-01    2     1000022   1000025   # BR(H -> ~chi_10 ~chi_30)
     1.22894048E-04    2     1000023   1000025   # BR(H -> ~chi_20 ~chi_30)
#
#         PDG            Width
DECAY        36     7.65063092E+00   # A decays
#          BR         NDA      ID1       ID2
     4.25764510E-01    2           5        -5   # BR(A -> b       bb     )
     7.28142140E-02    2         -15        15   # BR(A -> tau+    tau-   )
     2.57476484E-04    2         -13        13   # BR(A -> mu+     mu-    )
     3.15857381E-04    2           3        -3   # BR(A -> s       sb     )
     1.77303858E-06    2           4        -4   # BR(A -> c       cb     )
     1.77042860E-01    2           6        -6   # BR(A -> t       tb     )
     1.75193303E-04    2          21        21   # BR(A -> g       g      )
     4.87098933E-07    2          22        22   # BR(A -> gam     gam    )
     2.12237727E-07    2          23        22   # BR(A -> Z       gam    )
     7.96747252E-05    2          23        25   # BR(A -> Z       h      )
     2.59126358E-03    2     1000024  -1000024   # BR(A -> ~chi_1+ ~chi_1-)
     1.14651041E-03    2     1000022   1000022   # BR(A -> ~chi_10 ~chi_10)
     1.46724228E-04    2     1000023   1000023   # BR(A -> ~chi_20 ~chi_20)
     7.66276706E-04    2     1000025   1000025   # BR(A -> ~chi_30 ~chi_30)
     1.30228602E-01    2     1000022   1000023   # BR(A -> ~chi_10 ~chi_20)
     1.88661399E-01    2     1000022   1000025   # BR(A -> ~chi_10 ~chi_30)
     6.96517892E-06    2     1000023   1000025   # BR(A -> ~chi_20 ~chi_30)
#
#         PDG            Width
DECAY        37     7.63879764E+00   # H+ decays
#          BR         NDA      ID1       ID2
     6.87951266E-04    2           4        -5   # BR(H+ -> c       bb     )
     7.29481174E-02    2         -15        16   # BR(H+ -> tau+    nu_tau )
     2.57949977E-04    2         -13        14   # BR(H+ -> mu+     nu_mu  )
     4.40286558E-06    2           2        -5   # BR(H+ -> u       bb     )
     1.51359706E-05    2           2        -3   # BR(H+ -> u       sb     )
     3.13013132E-04    2           4        -3   # BR(H+ -> c       sb     )
     6.03571670E-01    2           6        -5   # BR(H+ -> t       bb     )
     7.99186942E-05    2          24        25   # BR(H+ -> W+      h      )
     8.49044525E-14    2          24        36   # BR(H+ -> W+      A      )
     3.21700748E-01    2     1000024   1000022   # BR(H+ -> ~chi_1+ ~chi_10)
     3.55101374E-04    2     1000024   1000023   # BR(H+ -> ~chi_1+ ~chi_20)
     6.59907014E-05    2     1000024   1000025   # BR(H+ -> ~chi_1+ ~chi_30)
