#
#                              ======================
#                              | THE SUSYHIT OUTPUT |
#                              ======================
#
#
#              ------------------------------------------------------
#              |     This is the output of the SUSY-HIT package     |
#              |  created by A.Djouadi, M.Muehlleitner and M.Spira. |
#              |  In case of problems with SUSY-HIT email to        |
#              |           margarete.muehlleitner@cern.ch           |
#              |           michael.spira@psi.ch                     |
#              |           abdelhak.djouadi@cern.ch                 |
#              ------------------------------------------------------
#
#              ------------------------------------------------------
#              |  SUSY Les Houches Accord - MSSM Spectrum + Decays  |
#              |              based on the decay programs           |
#              |                                                    |
#              |                     SDECAY 1.3b                    |
#              |                                                    |
#              |  Authors: M.Muhlleitner, A.Djouadi and Y.Mambrini  |
#              |  Ref.:    Comput.Phys.Commun.168(2005)46           |
#              |           [hep-ph/0311167]                         |
#              |                                                    |
#              |                     HDECAY 3.4                     |
#              |                                                    |
#              |  By: A.Djouadi,J.Kalinowski,M.Muhlleitner,M.Spira  |
#              |  Ref.:    Comput.Phys.Commun.108(1998)56           |
#              |           [hep-ph/9704448]                         |
#              |                                                    |
#              |                                                    |
#              |  If not stated otherwise all DRbar couplings and   |
#              |  soft SUSY breaking masses are given at the scale  |
#              |  Q=  0.50007425E+04
#              |                                                    |
#              ------------------------------------------------------
#
#
BLOCK DCINFO  # Decay Program information
     1   SDECAY/HDECAY # decay calculator
     2   1.3b  /3.4    # version number
#
BLOCK SPINFO  # Spectrum calculator information
     1    SOFTSUSY    # spectrum calculator                
     2    3.4.0       # version number                     
#
BLOCK MODSEL  # Model selection
     1     0   #  nonUniversal                                     
#
BLOCK SMINPUTS  # Standard Model inputs
         1     1.25778332E+02   # alpha_em^-1(M_Z)^MSbar
         2     1.16570000E-05   # G_F [GeV^-2]
         3     1.17200002E-01   # alpha_S(M_Z)^MSbar
         4     9.11876000E+01   # M_Z pole mass
         5     4.25000000E+00   # mb(mb)^MSbar
         6     1.72500000E+02   # mt pole mass
         7     1.77682000E+00   # mtau pole mass
#
BLOCK MINPAR  # Input parameters - minimal models
         3     1.00000000E+01   # tanb                
#
BLOCK EXTPAR  # Input parameters - non-minimal models
         0    -1.00000000E+00   # Set                 
         1     6.00000000E+01   # M_1(MX)             
         2     3.00000000E+03   # M_2(MX)             
         3     2.13913500E+03   # M_3(MX)             
        11     5.00000000E+03   # At(MX)              
        12     5.00000000E+03   # Ab(MX)              
        13     0.00000000E+00   # Atau(MX)            
        23    -9.58934000E+02   # mu(MX)              
        26     3.00000000E+03   # mA(pole)            
        31     5.00000000E+03   # meL(MX)             
        32     5.00000000E+03   # mmuL(MX)            
        33     5.00000000E+03   # mtauL(MX)           
        34     5.00000000E+03   # meR(MX)             
        35     5.00000000E+03   # mmuR(MX)            
        36     5.00000000E+03   # mtauR(MX)           
        41     5.00000000E+03   # mqL1(MX)            
        42     5.00000000E+03   # mqL2(MX)            
        43     5.00000000E+03   # mqL3(MX)            
        44     5.00000000E+03   # muR(MX)             
        45     5.00000000E+03   # mcR(MX)             
        46     5.00000000E+03   # mtR(MX)             
        47     5.00000000E+03   # mdR(MX)             
        48     5.00000000E+03   # msR(MX)             
        49     5.00000000E+03   # mbR(MX)             
#
BLOCK MASS  # Mass Spectrum
# PDG code           mass       particle
        24     8.00955016E+01   # W+
        25     1.24819178E+02   # h
        35     3.00008149E+03   # H
        36     2.99999863E+03   # A
        37     3.00113428E+03   # H+
         5     4.87878001E+00   # b-quark pole mass calculated from mb(mb)_Msbar
   1000001     5.07993584E+03   # ~d_L
   2000001     5.06216479E+03   # ~d_R
   1000002     5.07946464E+03   # ~u_L
   2000002     5.06188007E+03   # ~u_R
   1000003     5.07993584E+03   # ~s_L
   2000003     5.06216479E+03   # ~s_R
   1000004     5.07946464E+03   # ~c_L
   2000004     5.06188007E+03   # ~c_R
   1000005     5.02562300E+03   # ~b_1
   2000005     5.06065570E+03   # ~b_2
   1000006     4.91743457E+03   # ~t_1
   2000006     5.06976036E+03   # ~t_2
   1000011     5.01906886E+03   # ~e_L
   2000011     5.00592409E+03   # ~e_R
   1000012     5.01812036E+03   # ~nu_eL
   1000013     5.01906886E+03   # ~mu_L
   2000013     5.00592409E+03   # ~mu_R
   1000014     5.01812036E+03   # ~nu_muL
   1000015     5.00461221E+03   # ~tau_1
   2000015     5.01876362E+03   # ~tau_2
   1000016     5.01757430E+03   # ~nu_tauL
   1000021     2.50000098E+03   # ~g
   1000022     6.02986750E+01   # ~chi_10
   1000023     9.99653187E+02   # ~chi_20
   1000025    -1.00190549E+03   # ~chi_30
   1000035     3.07424733E+03   # ~chi_40
   1000024     1.00000047E+03   # ~chi_1+
   1000037     3.07441477E+03   # ~chi_2+
#
BLOCK NMIX  # Neutralino Mixing Matrix
  1  1     9.99007092E-01   # N_11
  1  2     1.84599986E-04   # N_12
  1  3    -4.45079253E-02   # N_13
  1  4     1.95997916E-03   # N_14
  2  1     3.00946478E-02   # N_21
  2  2     2.34914153E-02   # N_22
  2  3     7.06700933E-01   # N_23
  2  4     7.06481604E-01   # N_24
  3  1    -3.28478582E-02   # N_31
  3  2     1.49111810E-02   # N_32
  3  3    -7.06085000E-01   # N_33
  3  4     7.07207641E-01   # N_34
  4  1    -4.01737755E-04   # N_41
  4  2     9.99612813E-01   # N_42
  4  3    -6.06697678E-03   # N_43
  4  4    -2.71524288E-02   # N_44
#
BLOCK UMIX  # Chargino Mixing Matrix U
  1  1     8.59367954E-03   # U_11
  1  2     9.99963074E-01   # U_12
  2  1    -9.99963074E-01   # U_21
  2  2     8.59367954E-03   # U_22
#
BLOCK VMIX  # Chargino Mixing Matrix V
  1  1     3.84291553E-02   # V_11
  1  2    -9.99261327E-01   # V_12
  2  1    -9.99261327E-01   # V_21
  2  2    -3.84291553E-02   # V_22
#
BLOCK STOPMIX  # Stop Mixing Matrix
  1  1    -5.04915698E-01   # cos(theta_t)
  1  2     8.63168661E-01   # sin(theta_t)
  2  1    -8.63168661E-01   # -sin(theta_t)
  2  2    -5.04915698E-01   # cos(theta_t)
#
BLOCK SBOTMIX  # Sbottom Mixing Matrix
  1  1     9.97111620E-01   # cos(theta_b)
  1  2    -7.59500972E-02   # sin(theta_b)
  2  1     7.59500972E-02   # -sin(theta_b)
  2  2     9.97111620E-01   # cos(theta_b)
#
BLOCK STAUMIX  # Stau Mixing Matrix
  1  1    -1.13918210E-01   # cos(theta_tau)
  1  2     9.93490132E-01   # sin(theta_tau)
  2  1    -9.93490132E-01   # -sin(theta_tau)
  2  2    -1.13918210E-01   # cos(theta_tau)
#
BLOCK ALPHA  # Higgs mixing
          -1.05481819E-01   # Mixing angle in the neutral Higgs boson sector
#
BLOCK HMIX Q=  5.00074255E+03  # DRbar Higgs Parameters
         1    -9.76576707E+02   # mu(Q)MSSM           
         2     9.46916237E+00   # tan                 
         3     2.41852863E+02   # higgs               
         4     8.51791602E+06   # mA^2(Q)MSSM         
#
BLOCK GAUGE Q=  5.00074255E+03  # The gauge couplings
     1     3.70787581E-01   # gprime(Q) DRbar
     2     6.32522283E-01   # g(Q) DRbar
     3     9.95211870E-01   # g3(Q) DRbar
#
BLOCK AU Q=  5.00074255E+03  # The trilinear couplings
  1  1     5.00000002E+03   # A_u(Q) DRbar
  2  2     5.00000002E+03   # A_c(Q) DRbar
  3  3     5.00000002E+03   # A_t(Q) DRbar
#
BLOCK AD Q=  5.00074255E+03  # The trilinear couplings
  1  1     5.00000001E+03   # A_d(Q) DRbar
  2  2     5.00000001E+03   # A_s(Q) DRbar
  3  3     5.00000001E+03   # A_b(Q) DRbar
#
BLOCK AE Q=  5.00074255E+03  # The trilinear couplings
  1  1     0.00000000E+00   # A_e(Q) DRbar
  2  2     2.49925866E-07   # A_mu(Q) DRbar
  3  3     2.49859110E-07   # A_tau(Q) DRbar
#
BLOCK Yu Q=  5.00074255E+03  # The Yukawa couplings
  1  1     0.00000000E+00   # y_u(Q) DRbar
  2  2     0.00000000E+00   # y_c(Q) DRbar
  3  3     8.21055333E-01   # y_t(Q) DRbar
#
BLOCK Yd Q=  5.00074255E+03  # The Yukawa couplings
  1  1     0.00000000E+00   # y_d(Q) DRbar
  2  2     0.00000000E+00   # y_s(Q) DRbar
  3  3     1.30984791E-01   # y_b(Q) DRbar
#
BLOCK Ye Q=  5.00074255E+03  # The Yukawa couplings
  1  1     0.00000000E+00   # y_e(Q) DRbar
  2  2     0.00000000E+00   # y_mu(Q) DRbar
  3  3     9.68489537E-02   # y_tau(Q) DRbar
#
BLOCK MSOFT Q=  5.00074255E+03  # The soft SUSY breaking masses at the scale Q
         1     6.00000000E+01   # M_1(Q)              
         2     3.00000000E+03   # M_2(Q)              
         3     2.13913500E+03   # M_3(Q)              
        21     7.74315452E+06   # mH1^2(Q)            
        22    -3.87593064E+05   # mH2^2(Q)            
        31     5.00000000E+03   # meL(Q)              
        32     5.00000000E+03   # mmuL(Q)             
        33     5.00000000E+03   # mtauL(Q)            
        34     5.00000000E+03   # meR(Q)              
        35     5.00000000E+03   # mmuR(Q)             
        36     5.00000000E+03   # mtauR(Q)            
        41     4.99999999E+03   # mqL1(Q)             
        42     4.99999999E+03   # mqL2(Q)             
        43     4.99999999E+03   # mqL3(Q)             
        44     4.99999999E+03   # muR(Q)              
        45     4.99999999E+03   # mcR(Q)              
        46     4.99999999E+03   # mtR(Q)              
        47     4.99999999E+03   # mdR(Q)              
        48     4.99999999E+03   # msR(Q)              
        49     4.99999999E+03   # mbR(Q)              
#
#
#
#                             =================
#                             |The decay table|
#                             =================
#
# - The QCD corrections to the decays gluino -> squark  + quark
#                                     squark -> gaugino + quark_prime
#                                     squark -> squark_prime + Higgs
#                                     squark -> gluino  + quark
#   are included.
#
# - The multi-body decays for the inos, stops and sbottoms are included.
#
# - The loop induced decays for the gluino, neutralinos and stops
#   are included.
#
# - The SUSY decays of the top quark are included.
#
#
#         PDG            Width
DECAY         6     1.40200970E+00   # top decays
#          BR         NDA      ID1       ID2
     1.00000000E+00    2           5        24   # BR(t ->  b    W+)
#
#         PDG            Width
DECAY   1000021     3.63041682E-03   # gluino decays
#          BR         NDA      ID1       ID2
     1.88061872E-06    2     1000022        21   # BR(~g -> ~chi_10 g)
     5.63559203E-03    2     1000023        21   # BR(~g -> ~chi_20 g)
     5.55050920E-03    2     1000025        21   # BR(~g -> ~chi_30 g)
#           BR         NDA      ID1       ID2       ID3
     2.08367129E-02    3     1000022         1        -1   # BR(~g -> ~chi_10 d  db)
     2.22242134E-05    3     1000023         1        -1   # BR(~g -> ~chi_20 d  db)
     1.29371118E-05    3     1000025         1        -1   # BR(~g -> ~chi_30 d  db)
     7.10533766E-02    3     1000022         2        -2   # BR(~g -> ~chi_10 u  ub)
     7.02902466E-05    3     1000023         2        -2   # BR(~g -> ~chi_20 u  ub)
     1.54294747E-05    3     1000025         2        -2   # BR(~g -> ~chi_30 u  ub)
     2.08367129E-02    3     1000022         3        -3   # BR(~g -> ~chi_10 s  sb)
     2.22242134E-05    3     1000023         3        -3   # BR(~g -> ~chi_20 s  sb)
     1.29371118E-05    3     1000025         3        -3   # BR(~g -> ~chi_30 s  sb)
     7.10533766E-02    3     1000022         4        -4   # BR(~g -> ~chi_10 c  cb)
     7.02902466E-05    3     1000023         4        -4   # BR(~g -> ~chi_20 c  cb)
     1.54294747E-05    3     1000025         4        -4   # BR(~g -> ~chi_30 c  cb)
     2.11416778E-02    3     1000022         5        -5   # BR(~g -> ~chi_10 b  bb)
     4.68447366E-03    3     1000023         5        -5   # BR(~g -> ~chi_20 b  bb)
     4.63420029E-03    3     1000025         5        -5   # BR(~g -> ~chi_30 b  bb)
     7.24390109E-02    3     1000022         6        -6   # BR(~g -> ~chi_10 t  tb)
     1.75541758E-01    3     1000023         6        -6   # BR(~g -> ~chi_20 t  tb)
     1.60644343E-01    3     1000025         6        -6   # BR(~g -> ~chi_30 t  tb)
     6.37939856E-05    3     1000024         1        -2   # BR(~g -> ~chi_1+ d  ub)
     6.37939856E-05    3    -1000024         2        -1   # BR(~g -> ~chi_1- u  db)
     6.37939856E-05    3     1000024         3        -4   # BR(~g -> ~chi_1+ s  cb)
     6.37939856E-05    3    -1000024         4        -3   # BR(~g -> ~chi_1- c  sb)
     1.82724718E-01    3     1000024         5        -6   # BR(~g -> ~chi_1+ b  tb)
     1.82724718E-01    3    -1000024         6        -5   # BR(~g -> ~chi_1- t  bb)
#
#         PDG            Width
DECAY   1000006     2.94315329E+02   # stop1 decays
#          BR         NDA      ID1       ID2
     3.01920894E-02    2     1000022         6   # BR(~t_1 -> ~chi_10 t )
     1.03356455E-01    2     1000023         6   # BR(~t_1 -> ~chi_20 t )
     9.93379874E-02    2     1000025         6   # BR(~t_1 -> ~chi_30 t )
     6.96530975E-03    2     1000035         6   # BR(~t_1 -> ~chi_40 t )
     1.51485922E-01    2     1000024         5   # BR(~t_1 -> ~chi_1+ b )
     1.38766439E-02    2     1000037         5   # BR(~t_1 -> ~chi_2+ b )
     5.94785593E-01    2     1000021         6   # BR(~t_1 -> ~g      t )
#
#         PDG            Width
DECAY   2000006     3.03539065E+02   # stop2 decays
#          BR         NDA      ID1       ID2
     1.12895918E-02    2     1000022         6   # BR(~t_2 -> ~chi_10 t )
     1.02697165E-01    2     1000023         6   # BR(~t_2 -> ~chi_20 t )
     1.06984901E-01    2     1000025         6   # BR(~t_2 -> ~chi_30 t )
     1.85125942E-02    2     1000035         6   # BR(~t_2 -> ~chi_40 t )
     6.00142946E-02    2     1000024         5   # BR(~t_2 -> ~chi_1+ b )
     3.68321064E-02    2     1000037         5   # BR(~t_2 -> ~chi_2+ b )
     6.59650425E-01    2     1000021         6   # BR(~t_2 -> ~g      t )
     9.17541266E-04    2     1000006        25   # BR(~t_2 -> ~t_1    h )
     3.10138140E-03    2     1000006        23   # BR(~t_2 -> ~t_1    Z )
#
#         PDG            Width
DECAY   1000005     2.78223082E+02   # sbottom1 decays
#          BR         NDA      ID1       ID2
     2.77119132E-03    2     1000022         5   # BR(~b_1 -> ~chi_10 b )
     2.87388090E-03    2     1000023         5   # BR(~b_1 -> ~chi_20 b )
     2.79833025E-03    2     1000025         5   # BR(~b_1 -> ~chi_30 b )
     2.72361186E-02    2     1000035         5   # BR(~b_1 -> ~chi_40 b )
     2.21850957E-01    2    -1000024         6   # BR(~b_1 -> ~chi_1- t )
     5.47247446E-02    2    -1000037         6   # BR(~b_1 -> ~chi_2- t )
     6.85794664E-01    2     1000021         5   # BR(~b_1 -> ~g      b )
     1.95011344E-03    2     1000006       -24   # BR(~b_1 -> ~t_1    W-)
#
#         PDG            Width
DECAY   2000005     2.00289618E+02   # sbottom2 decays
#          BR         NDA      ID1       ID2
     1.46399845E-02    2     1000022         5   # BR(~b_2 -> ~chi_10 b )
     3.97785630E-03    2     1000023         5   # BR(~b_2 -> ~chi_20 b )
     4.08213949E-03    2     1000025         5   # BR(~b_2 -> ~chi_30 b )
     2.17384604E-04    2     1000035         5   # BR(~b_2 -> ~chi_40 b )
     9.62130497E-03    2    -1000024         6   # BR(~b_2 -> ~chi_1- t )
     4.36735094E-04    2    -1000037         6   # BR(~b_2 -> ~chi_2- t )
     9.66956988E-01    2     1000021         5   # BR(~b_2 -> ~g      b )
     6.76067984E-05    2     1000006       -24   # BR(~b_2 -> ~t_1    W-)
#
#         PDG            Width
DECAY   1000002     2.19704195E+02   # sup_L decays
#          BR         NDA      ID1       ID2
     3.39032139E-03    2     1000022         2   # BR(~u_L -> ~chi_10 u)
     7.09759315E-05    2     1000023         2   # BR(~u_L -> ~chi_20 u)
     5.93166278E-06    2     1000025         2   # BR(~u_L -> ~chi_30 u)
     3.59283641E-02    2     1000035         2   # BR(~u_L -> ~chi_40 u)
     2.42981359E-04    2     1000024         1   # BR(~u_L -> ~chi_1+ d)
     7.18085155E-02    2     1000037         1   # BR(~u_L -> ~chi_2+ d)
     8.88552910E-01    2     1000021         2   # BR(~u_L -> ~g      u)
#
#         PDG            Width
DECAY   2000002     2.05553481E+02   # sup_R decays
#          BR         NDA      ID1       ID2
     5.76658127E-02    2     1000022         2   # BR(~u_R -> ~chi_10 u)
     4.84556301E-05    2     1000023         2   # BR(~u_R -> ~chi_20 u)
     5.77062218E-05    2     1000025         2   # BR(~u_R -> ~chi_30 u)
     3.74654893E-09    2     1000035         2   # BR(~u_R -> ~chi_40 u)
     9.42228022E-01    2     1000021         2   # BR(~u_R -> ~g      u)
#
#         PDG            Width
DECAY   1000001     2.19720832E+02   # sdown_L decays
#          BR         NDA      ID1       ID2
     3.37758478E-03    2     1000022         1   # BR(~d_L -> ~chi_10 d)
     2.55165245E-05    2     1000023         1   # BR(~d_L -> ~chi_20 d)
     3.74173815E-05    2     1000025         1   # BR(~d_L -> ~chi_30 d)
     3.59479243E-02    2     1000035         1   # BR(~d_L -> ~chi_40 d)
     1.21513354E-05    2    -1000024         2   # BR(~d_L -> ~chi_1- u)
     7.19259629E-02    2    -1000037         2   # BR(~d_L -> ~chi_2- u)
     8.88673443E-01    2     1000021         1   # BR(~d_L -> ~g      d)
#
#         PDG            Width
DECAY   2000001     1.96672180E+02   # sdown_R decays
#          BR         NDA      ID1       ID2
     1.50683336E-02    2     1000022         1   # BR(~d_R -> ~chi_10 d)
     1.26617831E-05    2     1000023         1   # BR(~d_R -> ~chi_20 d)
     1.50790257E-05    2     1000025         1   # BR(~d_R -> ~chi_30 d)
     9.79116765E-10    2     1000035         1   # BR(~d_R -> ~chi_40 d)
     9.84903925E-01    2     1000021         1   # BR(~d_R -> ~g      d)
#
#         PDG            Width
DECAY   1000004     2.19704195E+02   # scharm_L decays
#          BR         NDA      ID1       ID2
     3.39032139E-03    2     1000022         4   # BR(~c_L -> ~chi_10 c)
     7.09759315E-05    2     1000023         4   # BR(~c_L -> ~chi_20 c)
     5.93166278E-06    2     1000025         4   # BR(~c_L -> ~chi_30 c)
     3.59283641E-02    2     1000035         4   # BR(~c_L -> ~chi_40 c)
     2.42981359E-04    2     1000024         3   # BR(~c_L -> ~chi_1+ s)
     7.18085155E-02    2     1000037         3   # BR(~c_L -> ~chi_2+ s)
     8.88552910E-01    2     1000021         4   # BR(~c_L -> ~g      c)
#
#         PDG            Width
DECAY   2000004     2.05553481E+02   # scharm_R decays
#          BR         NDA      ID1       ID2
     5.76658127E-02    2     1000022         4   # BR(~c_R -> ~chi_10 c)
     4.84556301E-05    2     1000023         4   # BR(~c_R -> ~chi_20 c)
     5.77062218E-05    2     1000025         4   # BR(~c_R -> ~chi_30 c)
     3.74654893E-09    2     1000035         4   # BR(~c_R -> ~chi_40 c)
     9.42228022E-01    2     1000021         4   # BR(~c_R -> ~g      c)
#
#         PDG            Width
DECAY   1000003     2.19720832E+02   # sstrange_L decays
#          BR         NDA      ID1       ID2
     3.37758478E-03    2     1000022         3   # BR(~s_L -> ~chi_10 s)
     2.55165245E-05    2     1000023         3   # BR(~s_L -> ~chi_20 s)
     3.74173815E-05    2     1000025         3   # BR(~s_L -> ~chi_30 s)
     3.59479243E-02    2     1000035         3   # BR(~s_L -> ~chi_40 s)
     1.21513354E-05    2    -1000024         4   # BR(~s_L -> ~chi_1- c)
     7.19259629E-02    2    -1000037         4   # BR(~s_L -> ~chi_2- c)
     8.88673443E-01    2     1000021         3   # BR(~s_L -> ~g      s)
#
#         PDG            Width
DECAY   2000003     1.96672180E+02   # sstrange_R decays
#          BR         NDA      ID1       ID2
     1.50683336E-02    2     1000022         3   # BR(~s_R -> ~chi_10 s)
     1.26617831E-05    2     1000023         3   # BR(~s_R -> ~chi_20 s)
     1.50790257E-05    2     1000025         3   # BR(~s_R -> ~chi_30 s)
     9.79116765E-10    2     1000035         3   # BR(~s_R -> ~chi_40 s)
     9.84903925E-01    2     1000021         3   # BR(~s_R -> ~g      s)
#
#         PDG            Width
DECAY   1000011     3.02686218E+01   # selectron_L decays
#          BR         NDA      ID1       ID2
     2.26394845E-01    2     1000022        11   # BR(~e_L -> ~chi_10 e-)
     1.02968827E-03    2     1000023        11   # BR(~e_L -> ~chi_20 e-)
     1.14820623E-05    2     1000025        11   # BR(~e_L -> ~chi_30 e-)
     2.57312683E-01    2     1000035        11   # BR(~e_L -> ~chi_40 e-)
     8.98850549E-05    2    -1000024        12   # BR(~e_L -> ~chi_1- nu_e)
     5.15161416E-01    2    -1000037        12   # BR(~e_L -> ~chi_2- nu_e)
#
#         PDG            Width
DECAY   2000011     2.73716748E+01   # selectron_R decays
#          BR         NDA      ID1       ID2
     9.98169958E-01    2     1000022        11   # BR(~e_R -> ~chi_10 e-)
     8.35266424E-04    2     1000023        11   # BR(~e_R -> ~chi_20 e-)
     9.94713118E-04    2     1000025        11   # BR(~e_R -> ~chi_30 e-)
     6.26399935E-08    2     1000035        11   # BR(~e_R -> ~chi_40 e-)
#
#         PDG            Width
DECAY   1000013     3.02686218E+01   # smuon_L decays
#          BR         NDA      ID1       ID2
     2.26394845E-01    2     1000022        13   # BR(~mu_L -> ~chi_10 mu-)
     1.02968827E-03    2     1000023        13   # BR(~mu_L -> ~chi_20 mu-)
     1.14820623E-05    2     1000025        13   # BR(~mu_L -> ~chi_30 mu-)
     2.57312683E-01    2     1000035        13   # BR(~mu_L -> ~chi_40 mu-)
     8.98850549E-05    2    -1000024        14   # BR(~mu_L -> ~chi_1- nu_mu)
     5.15161416E-01    2    -1000037        14   # BR(~mu_L -> ~chi_2- nu_mu)
#
#         PDG            Width
DECAY   2000013     2.73716748E+01   # smuon_R decays
#          BR         NDA      ID1       ID2
     9.98169958E-01    2     1000022        13   # BR(~mu_R -> ~chi_10 mu-)
     8.35266424E-04    2     1000023        13   # BR(~mu_R -> ~chi_20 mu-)
     9.94713118E-04    2     1000025        13   # BR(~mu_R -> ~chi_30 mu-)
     6.26399935E-08    2     1000035        13   # BR(~mu_R -> ~chi_40 mu-)
#
#         PDG            Width
DECAY   1000015     2.91208113E+01   # stau_1 decays
#          BR         NDA      ID1       ID2
     9.29777416E-01    2     1000022        15   # BR(~tau_1 -> ~chi_10  tau-)
     1.56793492E-02    2     1000023        15   # BR(~tau_1 -> ~chi_20  tau-)
     1.49104542E-02    2     1000025        15   # BR(~tau_1 -> ~chi_30  tau-)
     3.35854278E-03    2     1000035        15   # BR(~tau_1 -> ~chi_40  tau-)
     2.95503965E-02    2    -1000024        16   # BR(~tau_1 -> ~chi_1-  nu_tau)
     6.72384092E-03    2    -1000037        16   # BR(~tau_1 -> ~chi_2-  nu_tau)
#
#         PDG            Width
DECAY   2000015     3.10901678E+01   # stau_2 decays
#          BR         NDA      ID1       ID2
     2.28212567E-01    2     1000022        15   # BR(~tau_2 -> ~chi_10  tau-)
     1.47535786E-02    2     1000023        15   # BR(~tau_2 -> ~chi_20  tau-)
     1.45677709E-02    2     1000025        15   # BR(~tau_2 -> ~chi_30  tau-)
     2.47285504E-01    2     1000035        15   # BR(~tau_2 -> ~chi_40  tau-)
     9.39428658E-05    2    -1000024        16   # BR(~tau_2 -> ~chi_1-  nu_tau)
     4.95086637E-01    2    -1000037        16   # BR(~tau_2 -> ~chi_2-  nu_tau)
#
#         PDG            Width
DECAY   1000012     3.02714146E+01   # snu_eL decays
#          BR         NDA      ID1       ID2
     2.26045957E-01    2     1000022        12   # BR(~nu_eL -> ~chi_10 nu_e)
     2.08194295E-05    2     1000023        12   # BR(~nu_eL -> ~chi_20 nu_e)
     7.09959965E-04    2     1000025        12   # BR(~nu_eL -> ~chi_30 nu_e)
     2.57365963E-01    2     1000035        12   # BR(~nu_eL -> ~chi_40 nu_e)
     1.79686368E-03    2     1000024        11   # BR(~nu_eL -> ~chi_1+ e-)
     5.14060436E-01    2     1000037        11   # BR(~nu_eL -> ~chi_2+ e-)
#
#         PDG            Width
DECAY   1000014     3.02714146E+01   # snu_muL decays
#          BR         NDA      ID1       ID2
     2.26045957E-01    2     1000022        14   # BR(~nu_muL -> ~chi_10 nu_mu)
     2.08194295E-05    2     1000023        14   # BR(~nu_muL -> ~chi_20 nu_mu)
     7.09959965E-04    2     1000025        14   # BR(~nu_muL -> ~chi_30 nu_mu)
     2.57365963E-01    2     1000035        14   # BR(~nu_muL -> ~chi_40 nu_mu)
     1.79686368E-03    2     1000024        13   # BR(~nu_muL -> ~chi_1+ mu-)
     5.14060436E-01    2     1000037        13   # BR(~nu_muL -> ~chi_2+ mu-)
#
#         PDG            Width
DECAY   1000016     3.11253940E+01   # snu_tauL decays
#          BR         NDA      ID1       ID2
     2.19820057E-01    2     1000022        16   # BR(~nu_tauL -> ~chi_10 nu_tau)
     2.02456447E-05    2     1000023        16   # BR(~nu_tauL -> ~chi_20 nu_tau)
     6.90393363E-04    2     1000025        16   # BR(~nu_tauL -> ~chi_30 nu_tau)
     2.50211986E-01    2     1000035        16   # BR(~nu_tauL -> ~chi_40 nu_tau)
     2.94865645E-02    2     1000024        15   # BR(~nu_tauL -> ~chi_1+ tau-)
     4.99770754E-01    2     1000037        15   # BR(~nu_tauL -> ~chi_2+ tau-)
#
#         PDG            Width
DECAY   1000024     6.08895818E-01   # chargino1+ decays
#          BR         NDA      ID1       ID2
     1.00000000E+00    2     1000022        24   # BR(~chi_1+ -> ~chi_10  W+)
#
#         PDG            Width
DECAY   1000037     2.04101127E+01   # chargino2+ decays
#          BR         NDA      ID1       ID2
     2.53194399E-01    2     1000024        23   # BR(~chi_2+ -> ~chi_1+  Z )
     1.97861521E-04    2     1000022        24   # BR(~chi_2+ -> ~chi_10  W+)
     2.44147162E-01    2     1000023        24   # BR(~chi_2+ -> ~chi_20  W+)
     2.44098130E-01    2     1000025        24   # BR(~chi_2+ -> ~chi_30  W+)
     2.58361278E-01    2     1000024        25   # BR(~chi_2+ -> ~chi_1+  h )
     1.16986004E-06    2     1000022        37   # BR(~chi_2+ -> ~chi_10  H+)
#
#         PDG            Width
DECAY   1000022     0.00000000E+00   # neutralino1 decays
#
#         PDG            Width
DECAY   1000023     6.35976273E-01   # neutralino2 decays
#          BR         NDA      ID1       ID2
     5.40218784E-01    2     1000022        23   # BR(~chi_20 -> ~chi_10   Z )
     4.59781216E-01    2     1000022        25   # BR(~chi_20 -> ~chi_10   h )
#
#         PDG            Width
DECAY   1000025     6.39019971E-01   # neutralino3 decays
#          BR         NDA      ID1       ID2
     4.50285027E-01    2     1000022        23   # BR(~chi_30 -> ~chi_10   Z )
     5.49714973E-01    2     1000022        25   # BR(~chi_30 -> ~chi_10   h )
#
#         PDG            Width
DECAY   1000035     2.04251322E+01   # neutralino4 decays
#          BR         NDA      ID1       ID2
     4.77413129E-05    2     1000022        23   # BR(~chi_40 -> ~chi_10   Z )
     7.27276790E-02    2     1000023        23   # BR(~chi_40 -> ~chi_20   Z )
     1.79752583E-01    2     1000025        23   # BR(~chi_40 -> ~chi_30   Z )
     2.44777676E-01    2     1000024       -24   # BR(~chi_40 -> ~chi_1+   W-)
     2.44777676E-01    2    -1000024        24   # BR(~chi_40 -> ~chi_1-   W+)
     1.51083210E-04    2     1000022        25   # BR(~chi_40 -> ~chi_10   h )
     1.09448300E-06    2     1000022        35   # BR(~chi_40 -> ~chi_10   H )
     1.34323563E-07    2     1000022        36   # BR(~chi_40 -> ~chi_10   A )
     1.84835725E-01    2     1000023        25   # BR(~chi_40 -> ~chi_20   h )
     7.29286084E-02    2     1000025        25   # BR(~chi_40 -> ~chi_30   h )
#
#         PDG            Width
DECAY        25     4.05831101E-03   # h decays
#          BR         NDA      ID1       ID2
     6.06937207E-01    2           5        -5   # BR(h -> b       bb     )
     6.39352396E-02    2         -15        15   # BR(h -> tau+    tau-   )
     2.26353793E-04    2         -13        13   # BR(h -> mu+     mu-    )
     4.79822327E-04    2           3        -3   # BR(h -> s       sb     )
     2.07914469E-02    2           4        -4   # BR(h -> c       cb     )
     6.73083210E-02    2          21        21   # BR(h -> g       g      )
     2.31520199E-03    2          22        22   # BR(h -> gam     gam    )
     1.49674045E-03    2          22        23   # BR(h -> Z       gam    )
     2.11257118E-01    2          24       -24   # BR(h -> W+      W-     )
     2.51948235E-02    2          23        23   # BR(h -> Z       Z      )
     5.77249865E-05    2     1000022   1000022   # BR(h -> ~chi_10 ~chi_10)
#
#         PDG            Width
DECAY        35     8.10483541E+00   # H decays
#          BR         NDA      ID1       ID2
     3.98622014E-01    2           5        -5   # BR(H -> b       bb     )
     6.87282762E-02    2         -15        15   # BR(H -> tau+    tau-   )
     2.43028644E-04    2         -13        13   # BR(H -> mu+     mu-    )
     2.97915861E-04    2           3        -3   # BR(H -> s       sb     )
     1.66693766E-06    2           4        -4   # BR(H -> c       cb     )
     1.66540274E-01    2           6        -6   # BR(H -> t       tb     )
     5.53434884E-05    2          21        21   # BR(H -> g       g      )
     2.68915212E-07    2          22        22   # BR(H -> gam     gam    )
     9.83439959E-08    2          23        22   # BR(H -> Z       gam    )
     7.68930629E-05    2          24       -24   # BR(H -> W+      W-     )
     3.83978691E-05    2          23        23   # BR(H -> Z       Z      )
     2.84622644E-04    2          25        25   # BR(H -> h       h      )
     1.70877613E-23    2          36        36   # BR(H -> A       A      )
     6.24898915E-19    2          23        36   # BR(H -> Z       A      )
     1.97412947E-03    2     1000024  -1000024   # BR(H -> ~chi_1+ ~chi_1-)
     1.78144366E-03    2     1000022   1000022   # BR(H -> ~chi_10 ~chi_10)
     3.94659340E-05    2     1000023   1000023   # BR(H -> ~chi_20 ~chi_20)
     5.43916123E-04    2     1000025   1000025   # BR(H -> ~chi_30 ~chi_30)
     2.16380103E-01    2     1000022   1000023   # BR(H -> ~chi_10 ~chi_20)
     1.43879718E-01    2     1000022   1000025   # BR(H -> ~chi_10 ~chi_30)
     5.12424202E-04    2     1000023   1000025   # BR(H -> ~chi_20 ~chi_30)
#
#         PDG            Width
DECAY        36     8.12113562E+00   # A decays
#          BR         NDA      ID1       ID2
     3.97956366E-01    2           5        -5   # BR(A -> b       bb     )
     6.85923873E-02    2         -15        15   # BR(A -> tau+    tau-   )
     2.42547791E-04    2         -13        13   # BR(A -> mu+     mu-    )
     2.97543739E-04    2           3        -3   # BR(A -> s       sb     )
     1.67039458E-06    2           4        -4   # BR(A -> c       cb     )
     1.66793570E-01    2           6        -6   # BR(A -> t       tb     )
     1.65047913E-04    2          21        21   # BR(A -> g       g      )
     5.74583350E-07    2          22        22   # BR(A -> gam     gam    )
     1.99906109E-07    2          23        22   # BR(A -> Z       gam    )
     7.64483252E-05    2          23        25   # BR(A -> Z       h      )
     3.22630056E-03    2     1000024  -1000024   # BR(A -> ~chi_1+ ~chi_1-)
     1.81427642E-03    2     1000022   1000022   # BR(A -> ~chi_10 ~chi_10)
     4.63520509E-05    2     1000023   1000023   # BR(A -> ~chi_20 ~chi_20)
     1.49948625E-03    2     1000025   1000025   # BR(A -> ~chi_30 ~chi_30)
     1.45649468E-01    2     1000022   1000023   # BR(A -> ~chi_10 ~chi_20)
     2.13491539E-01    2     1000022   1000025   # BR(A -> ~chi_10 ~chi_30)
     1.46221234E-04    2     1000023   1000025   # BR(A -> ~chi_20 ~chi_30)
#
#         PDG            Width
DECAY        37     8.09076793E+00   # H+ decays
#          BR         NDA      ID1       ID2
     6.41619836E-04    2           4        -5   # BR(H+ -> c       bb     )
     6.88759035E-02    2         -15        16   # BR(H+ -> tau+    nu_tau )
     2.43550325E-04    2         -13        14   # BR(H+ -> mu+     nu_mu  )
     4.10634574E-06    2           2        -5   # BR(H+ -> u       bb     )
     1.42908647E-05    2           2        -3   # BR(H+ -> u       sb     )
     2.95536423E-04    2           4        -3   # BR(H+ -> c       sb     )
     5.64944696E-01    2           6        -5   # BR(H+ -> t       bb     )
     7.68718313E-05    2          24        25   # BR(H+ -> W+      h      )
     3.06819669E-13    2          24        36   # BR(H+ -> W+      A      )
     3.63996914E-01    2     1000024   1000022   # BR(H+ -> ~chi_1+ ~chi_10)
     8.73774894E-04    2     1000024   1000023   # BR(H+ -> ~chi_1+ ~chi_20)
     3.27355922E-05    2     1000024   1000025   # BR(H+ -> ~chi_1+ ~chi_30)
