#
#                              ======================
#                              | THE SUSYHIT OUTPUT |
#                              ======================
#
#
#              ------------------------------------------------------
#              |     This is the output of the SUSY-HIT package     |
#              |  created by A.Djouadi, M.Muehlleitner and M.Spira. |
#              |  In case of problems with SUSY-HIT email to        |
#              |           margarete.muehlleitner@cern.ch           |
#              |           michael.spira@psi.ch                     |
#              |           abdelhak.djouadi@cern.ch                 |
#              ------------------------------------------------------
#
#              ------------------------------------------------------
#              |  SUSY Les Houches Accord - MSSM Spectrum + Decays  |
#              |              based on the decay programs           |
#              |                                                    |
#              |                     SDECAY 1.3b                    |
#              |                                                    |
#              |  Authors: M.Muhlleitner, A.Djouadi and Y.Mambrini  |
#              |  Ref.:    Comput.Phys.Commun.168(2005)46           |
#              |           [hep-ph/0311167]                         |
#              |                                                    |
#              |                     HDECAY 3.4                     |
#              |                                                    |
#              |  By: A.Djouadi,J.Kalinowski,M.Muhlleitner,M.Spira  |
#              |  Ref.:    Comput.Phys.Commun.108(1998)56           |
#              |           [hep-ph/9704448]                         |
#              |                                                    |
#              |                                                    |
#              |  If not stated otherwise all DRbar couplings and   |
#              |  soft SUSY breaking masses are given at the scale  |
#              |  Q=  0.91187600E+02
#              |                                                    |
#              ------------------------------------------------------
#
#
BLOCK DCINFO  # Decay Program information
     1   SDECAY/HDECAY # decay calculator
     2   1.3b  /3.4    # version number
#
BLOCK SPINFO  # Spectrum calculator information
     1   SuSpect     # RGE +Spectrum calculator            
     2   2.41         # version number                     
#
BLOCK MODSEL  # Model selection
     1     0   # #general MSSM low scale                           
#
BLOCK SMINPUTS  # Standard Model inputs
         1     1.27934000E+02   # alpha_em^-1(M_Z)^MSbar
         2     1.16639000E-05   # G_F [GeV^-2]
         3     1.17200000E-01   # alpha_S(M_Z)^MSbar
         4     9.11870000E+01   # M_Z pole mass
         5     4.25000000E+00   # mb(mb)^MSbar
         6     1.72500000E+02   # mt pole mass
         7     1.77700000E+00   # mtau pole mass
#
BLOCK MINPAR  # Input parameters - minimal models
#
BLOCK EXTPAR  # Input parameters - non-minimal models
         0     9.11876000E+01   # EWSB                
         1     5.00000000E+02   # M_1                 
         2     1.00000000E+05   # M_2                 
         3     1.00000000E+05   # M_3                 
        11     0.00000000E+00   # A_t                 
        12     0.00000000E+00   # A_b                 
        13     0.00000000E+00   # A_tau               
        14     0.00000000E+00   # A_u                 
        15     0.00000000E+00   # A_d                 
        16     0.00000000E+00   # A_e                 
        23     3.50000000E+03   # mu(EWSB)            
        25     1.50000000E+00   # tanbeta(in)         
        26     2.00000000E+03   # MA_pole             
        31     1.00000000E+05   # M_eL                
        32     1.00000000E+05   # M_muL               
        33     1.00000000E+05   # M_tauL              
        34     1.00000000E+05   # M_eR                
        35     1.00000000E+05   # M_muR               
        36     1.00000000E+05   # M_tauR              
        41     2.10000000E+03   # M_q1L               
        42     2.10000000E+03   # M_q2L               
        43     2.10000000E+03   # M_q3L               
        44     1.00000000E+05   # M_uR                
        45     1.00000000E+05   # M_cR                
        46     1.00000000E+05   # M_tR                
        47     2.10000000E+03   # M_dR                
        48     2.10000000E+03   # M_sR                
        49     2.10000000E+03   # M_bR                
#
BLOCK MASS  # Mass Spectrum
# PDG code           mass       particle
        24     8.05848693E+01   # W+
        25     1.25000000E+02   # h
        35     2.00406177E+03   # H
        36     2.00000000E+03   # A
        37     2.02368677E+03   # H+
         5     4.87877839E+00   # b-quark pole mass calculated from mb(mb)_Msbar
   1000001     2.10031559E+03   # ~d_L
   2000001     2.10006092E+03   # ~d_R
   1000002     2.09974529E+03   # ~u_L
   2000002     9.99999974E+04   # ~u_R
   1000003     2.10031559E+03   # ~s_L
   2000003     2.10006092E+03   # ~s_R
   1000004     2.09974529E+03   # ~c_L
   2000004     9.99999974E+04   # ~c_R
   1000005     2.09695084E+03   # ~b_1
   2000005     2.10342387E+03   # ~b_2
   1000006     2.10491658E+03   # ~t_1
   2000006     1.00000106E+05   # ~t_2
   1000011     1.00000004E+05   # ~e_L
   2000011     1.00000004E+05   # ~e_R
   1000012     9.99999921E+04   # ~nu_eL
   1000013     1.00000004E+05   # ~mu_L
   2000013     1.00000004E+05   # ~mu_R
   1000014     9.99999921E+04   # ~nu_muL
   1000015     9.99999574E+04   # ~tau_1
   2000015     1.00000051E+05   # ~tau_2
   1000016     9.99999921E+04   # ~nu_tauL
   1000021     1.00000000E+05   # ~g
   1000022     4.99379690E+02   # ~chi_10
   1000023    -3.50002150E+03   # ~chi_20
   1000025     3.50057745E+03   # ~chi_30
   1000035     1.00000064E+05   # ~chi_40
   1000024     3.49994026E+03   # ~chi_1+
   1000037     1.00000064E+05   # ~chi_2+
   1000039     1.00000000E-09   # ~gravitino
#
BLOCK NMIX  # Neutralino Mixing Matrix
  1  1     9.99891055E-01   # N_11
  1  2    -1.10118804E-05   # N_12
  1  3     1.18706823E-02   # N_13
  1  4    -8.77300802E-03   # N_14
  2  1     2.19039312E-03   # N_21
  2  2    -1.49544277E-04   # N_22
  2  3    -7.07094216E-01   # N_23
  2  4    -7.07115938E-01   # N_24
  3  1     1.45972953E-02   # N_31
  3  2     8.01822734E-04   # N_32
  3  3    -7.07019550E-01   # N_33
  3  4     7.07042878E-01   # N_34
  4  1     3.66202583E-07   # N_41
  4  2    -9.99999667E-01   # N_42
  4  3    -4.61293327E-04   # N_43
  4  4     6.72765026E-04   # N_44
#
BLOCK UMIX  # Chargino Mixing Matrix U
  1  1    -6.52367074E-04   # U_11
  1  2     9.99999787E-01   # U_12
  2  1     9.99999787E-01   # U_21
  2  2     6.52367074E-04   # U_22
#
BLOCK VMIX  # Chargino Mixing Matrix V
  1  1    -9.51433337E-04   # V_11
  1  2     9.99999547E-01   # V_12
  2  1     9.99999547E-01   # V_21
  2  2     9.51433337E-04   # V_22
#
BLOCK STOPMIX  # Stop Mixing Matrix
  1  1     9.99999999E-01   # cos(theta_t)
  1  2     4.47213589E-05   # sin(theta_t)
  2  1    -4.47213589E-05   # -sin(theta_t)
  2  2     9.99999999E-01   # cos(theta_t)
#
BLOCK SBOTMIX  # Sbottom Mixing Matrix
  1  1     6.93057208E-01   # cos(theta_b)
  1  2     7.20882589E-01   # sin(theta_b)
  2  1    -7.20882589E-01   # -sin(theta_b)
  2  2     6.93057208E-01   # cos(theta_b)
#
BLOCK STAUMIX  # Stau Mixing Matrix
  1  1     7.06226787E-01   # cos(theta_tau)
  1  2     7.07985682E-01   # sin(theta_tau)
  2  1    -7.07985682E-01   # -sin(theta_tau)
  2  2     7.06226787E-01   # cos(theta_tau)
#
BLOCK ALPHA  # Higgs mixing
          -5.90349555E-01   # Mixing angle in the neutral Higgs boson sector
#
BLOCK HMIX Q=  9.11876000E+01  # DRbar Higgs Parameters
         1     3.50000000E+03   # mu(Q)               
         2     1.49999982E+00   # tanbeta(Q)          
         3     2.54866471E+02   # vev(Q)              
         4    -6.80488025E+07   # MA^2(Q)             
#
BLOCK GAUGE Q=  9.11876000E+01  # The gauge couplings
     1     3.50555080E-01   # gprime(Q) DRbar
     2     6.19272950E-01   # g(Q) DRbar
     3     1.02169427E+00   # g3(Q) DRbar
#
BLOCK AU Q=  9.11876000E+01  # The trilinear couplings
  1  1     0.00000000E+00   # A_u(Q) DRbar
  2  2     0.00000000E+00   # A_c(Q) DRbar
  3  3     0.00000000E+00   # A_t(Q) DRbar
#
BLOCK AD Q=  9.11876000E+01  # The trilinear couplings
  1  1     0.00000000E+00   # A_d(Q) DRbar
  2  2     0.00000000E+00   # A_s(Q) DRbar
  3  3     0.00000000E+00   # A_b(Q) DRbar
#
BLOCK AE Q=  9.11876000E+01  # The trilinear couplings
  1  1     0.00000000E+00   # A_e(Q) DRbar
  2  2     0.00000000E+00   # A_mu(Q) DRbar
  3  3     0.00000000E+00   # A_tau(Q) DRbar
#
BLOCK Yu Q=  9.11876000E+01  # The Yukawa couplings
  1  1     0.00000000E+00   # y_u(Q) DRbar
  2  2     0.00000000E+00   # y_c(Q) DRbar
  3  3     9.83640158E-01   # y_t(Q) DRbar
#
BLOCK Yd Q=  9.11876000E+01  # The Yukawa couplings
  1  1     0.00000000E+00   # y_d(Q) DRbar
  2  2     0.00000000E+00   # y_s(Q) DRbar
  3  3     2.58829873E-02   # y_b(Q) DRbar
#
BLOCK Ye Q=  9.11876000E+01  # The Yukawa couplings
  1  1     0.00000000E+00   # y_e(Q) DRbar
  2  2     0.00000000E+00   # y_mu(Q) DRbar
  3  3     1.77407544E-02   # y_tau(Q) DRbar
#
BLOCK MSOFT Q=  9.11876000E+01  # The soft SUSY breaking masses at the scale Q
         1     5.00000000E+02   # M_1                 
         2     1.00000000E+05   # M_2                 
         3     1.00000000E+05   # M_3                 
        14     0.00000000E+00   # A_u                 
        15     0.00000000E+00   # A_d                 
        16     0.00000000E+00   # A_e                 
        21     6.29713211E+08   # M^2_Hd              
        22    -1.15133442E+09   # M^2_Hu              
        31     1.00000000E+05   # M_eL                
        32     1.00000000E+05   # M_muL               
        33     1.00000000E+05   # M_tauL              
        34     1.00000000E+05   # M_eR                
        35     1.00000000E+05   # M_muR               
        36     1.00000000E+05   # M_tauR              
        41     2.10000000E+03   # M_q1L               
        42     2.10000000E+03   # M_q2L               
        43     2.10000000E+03   # M_q3L               
        44     1.00000000E+05   # M_uR                
        45     1.00000000E+05   # M_cR                
        46     1.00000000E+05   # M_tR                
        47     2.10000000E+03   # M_dR                
        48     2.10000000E+03   # M_sR                
        49     2.10000000E+03   # M_bR                
#
#
#
#                             =================
#                             |The decay table|
#                             =================
#
# - The QCD corrections to the decays gluino -> squark  + quark
#                                     squark -> gaugino + quark_prime
#                                     squark -> squark_prime + Higgs
#                                     squark -> gluino  + quark
#   are included.
#
# - The multi-body decays for the inos, stops and sbottoms are included.
#
# - The loop induced decays for the gluino, neutralinos and stops
#   are included.
#
# - The SUSY decays of the top quark are included.
#
# - Possible decays of the NLSP in GMSB models are included.
#
#
#         PDG            Width
DECAY         6     1.32355668E+00   # top decays
#          BR         NDA      ID1       ID2
     1.00000000E+00    2           5        24   # BR(t ->  b    W+)
#
#         PDG            Width
DECAY   1000021     1.E-04   # gluino decays (OJ Mods)
#          BR         NDA      ID1       ID2
     3.68956868E-03    2     1000001        -1   # BR(~g -> ~d_L  db)
     3.68956868E-03    2    -1000001         1   # BR(~g -> ~d_L* d )
     3.68956947E-03    2     2000001        -1   # BR(~g -> ~d_R  db)
     3.68956947E-03    2    -2000001         1   # BR(~g -> ~d_R* d )
     3.68957045E-03    2     1000002        -2   # BR(~g -> ~u_L  ub)
     3.68957045E-03    2    -1000002         2   # BR(~g -> ~u_L* u )
     9.98540133E-18    2     2000002        -2   # BR(~g -> ~u_R  ub)
     9.98540133E-18    2    -2000002         2   # BR(~g -> ~u_R* u )
     3.68956868E-03    2     1000003        -3   # BR(~g -> ~s_L  sb)
     3.68956868E-03    2    -1000003         3   # BR(~g -> ~s_L* s )
     3.68956947E-03    2     2000003        -3   # BR(~g -> ~s_R  sb)
     3.68956947E-03    2    -2000003         3   # BR(~g -> ~s_R* s )
     3.68957045E-03    2     1000004        -4   # BR(~g -> ~c_L  cb)
     3.68957045E-03    2    -1000004         4   # BR(~g -> ~c_L* c )
     9.98540133E-18    2     2000004        -4   # BR(~g -> ~c_R  cb)
     9.98540133E-18    2    -2000004         4   # BR(~g -> ~c_R* c )
     2.08937318E-01    2     1000005        -5   # BR(~g -> ~b_1  bb)
     2.08937318E-01    2    -1000005         5   # BR(~g -> ~b_1* b )
     2.13439653E-01    2     2000005        -5   # BR(~g -> ~b_2  bb)
     2.13439653E-01    2    -2000005         5   # BR(~g -> ~b_2* b )
     3.63140702E-03    2     1000006        -6   # BR(~g -> ~t_1  tb)
     3.63140702E-03    2    -1000006         6   # BR(~g -> ~t_1* t )
     1.03708410E-01    2     1000039        21   # BR(~g -> ~G g)
#
#         PDG            Width
DECAY   1000006     2.99112847E-01   # stop1 decays
#          BR         NDA      ID1       ID2
     1.00000000E+00    2     1000022         6   # BR(~t_1 -> ~chi_10 t )
#
#         PDG            Width
DECAY   2000006     5.65018917E+04   # stop2 decays
#          BR         NDA      ID1       ID2
     3.68871282E-03    2     1000022         6   # BR(~t_2 -> ~chi_10 t )
     8.88860588E-03    2     1000023         6   # BR(~t_2 -> ~chi_20 t )
     8.88739513E-03    2     1000025         6   # BR(~t_2 -> ~chi_30 t )
     9.78834519E-01    2     1000024         5   # BR(~t_2 -> ~chi_1+ b )
    -2.39322157E-04    2     1000006        25   # BR(~t_2 -> ~t_1    h )
     2.50729524E-04    2     1000006        35   # BR(~t_2 -> ~t_1    H )
     2.50281823E-04    2     1000006        36   # BR(~t_2 -> ~t_1    A )
     2.35811399E-04    2     1000005        37   # BR(~t_2 -> ~b_1    H+)
     2.64747203E-04    2     2000005        37   # BR(~t_2 -> ~b_2    H+)
    -1.69914540E-04    2     1000006        23   # BR(~t_2 -> ~t_1    Z )
    -4.28253465E-04    2     1000005        24   # BR(~t_2 -> ~b_1    W+)
    -4.63313016E-04    2     2000005        24   # BR(~t_2 -> ~b_2    W+)
#
#         PDG            Width
DECAY   1000005     1.29984691E+01   # sbottom1 decays
#          BR         NDA      ID1       ID2
     1.00000000E+00    2     1000022         5   # BR(~b_1 -> ~chi_10 b )
#
#         PDG            Width
DECAY   2000005     1.20609251E+01   # sbottom2 decays
#          BR         NDA      ID1       ID2
     1.00000000E+00    2     1000022         5   # BR(~b_2 -> ~chi_10 b )
#
#         PDG            Width
DECAY   1000002     3.01674135E-01   # sup_L decays
#          BR         NDA      ID1       ID2
     1.00000000E+00    2     1000022         2   # BR(~u_L -> ~chi_10 u)
#
#         PDG            Width
DECAY   2000002     2.08408780E+02   # sup_R decays
#          BR         NDA      ID1       ID2
     9.99782369E-01    2     1000022         2   # BR(~u_R -> ~chi_10 u)
     4.79236758E-06    2     1000023         2   # BR(~u_R -> ~chi_20 u)
     2.12838682E-04    2     1000025         2   # BR(~u_R -> ~chi_30 u)
#
#         PDG            Width
DECAY   1000001     3.01841300E-01   # sdown_L decays
#          BR         NDA      ID1       ID2
     1.00000000E+00    2     1000022         1   # BR(~d_L -> ~chi_10 d)
#
#         PDG            Width
DECAY   2000001     1.20705152E+00   # sdown_R decays
#          BR         NDA      ID1       ID2
     1.00000000E+00    2     1000022         1   # BR(~d_R -> ~chi_10 d)
#
#         PDG            Width
DECAY   1000004     3.01674135E-01   # scharm_L decays
#          BR         NDA      ID1       ID2
     1.00000000E+00    2     1000022         4   # BR(~c_L -> ~chi_10 c)
#
#         PDG            Width
DECAY   2000004     2.08408780E+02   # scharm_R decays
#          BR         NDA      ID1       ID2
     9.99782369E-01    2     1000022         4   # BR(~c_R -> ~chi_10 c)
     4.79236758E-06    2     1000023         4   # BR(~c_R -> ~chi_20 c)
     2.12838682E-04    2     1000025         4   # BR(~c_R -> ~chi_30 c)
#
#         PDG            Width
DECAY   1000003     3.01841300E-01   # sstrange_L decays
#          BR         NDA      ID1       ID2
     1.00000000E+00    2     1000022         3   # BR(~s_L -> ~chi_10 s)
#
#         PDG            Width
DECAY   2000003     1.20705152E+00   # sstrange_R decays
#          BR         NDA      ID1       ID2
     1.00000000E+00    2     1000022         3   # BR(~s_R -> ~chi_10 s)
#
#         PDG            Width
DECAY   1000011     1.22234381E+02   # selectron_L decays
#          BR         NDA      ID1       ID2
     9.99737825E-01    2     1000022        11   # BR(~e_L -> ~chi_10 e-)
     3.70138688E-06    2     1000023        11   # BR(~e_L -> ~chi_20 e-)
     2.55823626E-04    2     1000025        11   # BR(~e_L -> ~chi_30 e-)
     2.64984477E-06    2    -1000024        12   # BR(~e_L -> ~chi_1- nu_e)
#
#         PDG            Width
DECAY   2000011     4.88934632E+02   # selectron_R decays
#          BR         NDA      ID1       ID2
     9.99782644E-01    2     1000022        11   # BR(~e_R -> ~chi_10 e-)
     4.78631563E-06    2     1000023        11   # BR(~e_R -> ~chi_20 e-)
     2.12569842E-04    2     1000025        11   # BR(~e_R -> ~chi_30 e-)
#
#         PDG            Width
DECAY   1000013     1.22234381E+02   # smuon_L decays
#          BR         NDA      ID1       ID2
     9.99737825E-01    2     1000022        13   # BR(~mu_L -> ~chi_10 mu-)
     3.70138688E-06    2     1000023        13   # BR(~mu_L -> ~chi_20 mu-)
     2.55823626E-04    2     1000025        13   # BR(~mu_L -> ~chi_30 mu-)
     2.64984477E-06    2    -1000024        14   # BR(~mu_L -> ~chi_1- nu_mu)
#
#         PDG            Width
DECAY   2000013     4.88934632E+02   # smuon_R decays
#          BR         NDA      ID1       ID2
     9.99782644E-01    2     1000022        13   # BR(~mu_R -> ~chi_10 mu-)
     4.78631563E-06    2     1000023        13   # BR(~mu_R -> ~chi_20 mu-)
     2.12569842E-04    2     1000025        13   # BR(~mu_R -> ~chi_30 mu-)
#
#         PDG            Width
DECAY   1000015     1.18199196E+04   # stau_1 decays
#          BR         NDA      ID1       ID2
     2.58948593E-02    2     1000022        15   # BR(~tau_1 -> ~chi_10  tau-)
     2.52578855E-05    2     1000023        15   # BR(~tau_1 -> ~chi_20  tau-)
     2.52615673E-05    2     1000025        15   # BR(~tau_1 -> ~chi_30  tau-)
     2.77046958E-05    2    -1000024        16   # BR(~tau_1 -> ~chi_1-  nu_tau)
     9.74026917E-01    2     1000039        15   # BR(~tau_1 -> ~G       tau-)
#
#         PDG            Width
DECAY   2000015     3.06043087E+02   # stau_2 decays
#          BR         NDA      ID1       ID2
     9.96446994E-01    2     1000022        15   # BR(~tau_2 -> ~chi_10  tau-)
     1.07447372E-03    2     1000023        15   # BR(~tau_2 -> ~chi_20  tau-)
     1.50655329E-03    2     1000025        15   # BR(~tau_2 -> ~chi_30  tau-)
     9.71978945E-04    2    -1000024        16   # BR(~tau_2 -> ~chi_1-  nu_tau)
#
#         PDG            Width
DECAY   1000012     1.22234439E+02   # snu_eL decays
#          BR         NDA      ID1       ID2
     9.99815037E-01    2     1000022        12   # BR(~nu_eL -> ~chi_10 nu_e)
     6.01042798E-06    2     1000023        12   # BR(~nu_eL -> ~chi_20 nu_e)
     1.73316506E-04    2     1000025        12   # BR(~nu_eL -> ~chi_30 nu_e)
     5.63628361E-06    2     1000024        11   # BR(~nu_eL -> ~chi_1+ e-)
#
#         PDG            Width
DECAY   1000014     1.22234439E+02   # snu_muL decays
#          BR         NDA      ID1       ID2
     9.99815037E-01    2     1000022        14   # BR(~nu_muL -> ~chi_10 nu_mu)
     6.01042798E-06    2     1000023        14   # BR(~nu_muL -> ~chi_20 nu_mu)
     1.73316506E-04    2     1000025        14   # BR(~nu_muL -> ~chi_30 nu_mu)
     5.63628361E-06    2     1000024        13   # BR(~nu_muL -> ~chi_1+ mu-)
#
#         PDG            Width
DECAY   1000016     1.22859050E+02   # snu_tauL decays
#          BR         NDA      ID1       ID2
     9.94732015E-01    2     1000022        16   # BR(~nu_tauL -> ~chi_10 nu_tau)
     5.97987119E-06    2     1000023        16   # BR(~nu_tauL -> ~chi_20 nu_tau)
     1.72435371E-04    2     1000025        16   # BR(~nu_tauL -> ~chi_30 nu_tau)
     5.08956929E-03    2     1000024        15   # BR(~nu_tauL -> ~chi_1+ tau-)
#
#         PDG            Width
DECAY   1000024     3.96870200E+01   # chargino1+ decays
#          BR         NDA      ID1       ID2
     4.53994480E-07    2     1000002        -1   # BR(~chi_1+ -> ~u_L     db)
     2.13318075E-07    2    -1000001         2   # BR(~chi_1+ -> ~d_L*    u )
     4.53994480E-07    2     1000004        -3   # BR(~chi_1+ -> ~c_L     sb)
     2.13318075E-07    2    -1000003         4   # BR(~chi_1+ -> ~s_L*    c )
     1.22530987E-02    2     1000006        -5   # BR(~chi_1+ -> ~t_1     bb)
     1.03245199E-01    2    -1000005         6   # BR(~chi_1+ -> ~b_1*    t )
     8.05318242E-01    2    -2000005         6   # BR(~chi_1+ -> ~b_2*    t )
     6.49647326E-02    2     1000022        24   # BR(~chi_1+ -> ~chi_10  W+)
     1.42082955E-02    2     1000022        37   # BR(~chi_1+ -> ~chi_10  H+)
     7.60193173E-06    2     1000039        24   # BR(~chi_1+ -> ~G       W+)
     1.49576360E-06    2     1000039        37   # BR(~chi_1+ -> ~G       H+)
#
#         PDG            Width
DECAY   1000037     4.07920726E+04   # chargino2+ decays
#          BR         NDA      ID1       ID2
     2.09781210E-02    2     1000002        -1   # BR(~chi_2+ -> ~u_L     db)
     2.09781262E-02    2    -1000001         2   # BR(~chi_2+ -> ~d_L*    u )
     2.09781210E-02    2     1000004        -3   # BR(~chi_2+ -> ~c_L     sb)
     2.09781262E-02    2    -1000003         4   # BR(~chi_2+ -> ~s_L*    c )
     6.42689507E-01    2     1000006        -5   # BR(~chi_2+ -> ~t_1     bb)
     4.64577741E-03    2    -1000005         6   # BR(~chi_2+ -> ~b_1*    t )
     1.98400323E-02    2    -2000005         6   # BR(~chi_2+ -> ~b_2*    t )
     1.50812640E-14    2     1000012       -11   # BR(~chi_2+ -> ~nu_eL   e+  )
     1.50812640E-14    2     1000014       -13   # BR(~chi_2+ -> ~nu_muL  mu+ )
     1.05022590E-14    2    -1000011        12   # BR(~chi_2+ -> ~e_L+    nu_e)
     1.05022590E-14    2    -1000013        14   # BR(~chi_2+ -> ~mu_L+   nu_mu)
     1.65335658E-14    2    -1000015        16   # BR(~chi_2+ -> ~tau_1+  nu_tau)
     2.47133871E-16    2    -2000015        16   # BR(~chi_2+ -> ~tau_2+  nu_tau)
     3.83913260E-03    2     1000024        23   # BR(~chi_2+ -> ~chi_1+  Z )
     6.37379275E-07    2     1000022        24   # BR(~chi_2+ -> ~chi_10  W+)
     3.72285040E-03    2     1000023        24   # BR(~chi_2+ -> ~chi_20  W+)
     3.72217281E-03    2     1000025        24   # BR(~chi_2+ -> ~chi_30  W+)
     3.88239220E-03    2     1000024        25   # BR(~chi_2+ -> ~chi_1+  h )
     3.40798983E-03    2     1000024        35   # BR(~chi_2+ -> ~chi_1+  H )
     3.40845106E-03    2     1000024        36   # BR(~chi_2+ -> ~chi_1+  A )
     8.31354236E-07    2     1000022        37   # BR(~chi_2+ -> ~chi_10  H+)
     3.40832663E-03    2     1000023        37   # BR(~chi_2+ -> ~chi_20  H+)
     3.40761856E-03    2     1000025        37   # BR(~chi_2+ -> ~chi_30  H+)
     2.20111724E-01    2     1000039        24   # BR(~chi_2+ -> ~G       W+)
     6.29770912E-08    2     1000039        37   # BR(~chi_2+ -> ~G       H+)
#
#         PDG            Width
DECAY   1000022     1.E-08   # neutralino1 decays (OJ Mods)
#          BR         NDA      ID1       ID2
     7.81299135E-01    2     1000039        22   # BR(~chi_10 -> ~G        gam)
     2.18700681E-01    2     1000039        23   # BR(~chi_10 -> ~G        Z)
     1.84339127E-07    2     1000039        25   # BR(~chi_10 -> ~G        h)
#
#         PDG            Width
DECAY   1000023     1.E-08   # neutralino2 decays (OJ Mods)
#          BR         NDA      ID1       ID2
     6.41508462E-02    2     1000022        23   # BR(~chi_20 -> ~chi_10   Z )
     1.42363484E-03    2     1000022        25   # BR(~chi_20 -> ~chi_10   h )
     1.30471831E-02    2     1000022        35   # BR(~chi_20 -> ~chi_10   H )
     1.25625140E-03    2     1000022        36   # BR(~chi_20 -> ~chi_10   A )
     2.00837712E-08    2     1000002        -2   # BR(~chi_20 -> ~u_L      ub)
     2.00837712E-08    2    -1000002         2   # BR(~chi_20 -> ~u_L*     u )
     9.14034206E-08    2     1000001        -1   # BR(~chi_20 -> ~d_L      db)
     9.14034206E-08    2    -1000001         1   # BR(~chi_20 -> ~d_L*     d )
     1.97191796E-07    2     2000001        -1   # BR(~chi_20 -> ~d_R      db)
     1.97191796E-07    2    -2000001         1   # BR(~chi_20 -> ~d_R*     d )
     2.00837712E-08    2     1000004        -4   # BR(~chi_20 -> ~c_L      cb)
     2.00837712E-08    2    -1000004         4   # BR(~chi_20 -> ~c_L*     c )
     9.14034206E-08    2     1000003        -3   # BR(~chi_20 -> ~s_L      sb)
     9.14034206E-08    2    -1000003         3   # BR(~chi_20 -> ~s_L*     s )
     1.97191796E-07    2     2000003        -3   # BR(~chi_20 -> ~s_R      sb)
     1.97191796E-07    2    -2000003         3   # BR(~chi_20 -> ~s_R*     s )
     4.43715127E-01    2     1000006        -6   # BR(~chi_20 -> ~t_1      tb)
     4.43715127E-01    2    -1000006         6   # BR(~chi_20 -> ~t_1*     t )
     7.98798206E-03    2     1000005        -5   # BR(~chi_20 -> ~b_1      bb)
     7.98798206E-03    2    -1000005         5   # BR(~chi_20 -> ~b_1*     b )
     8.35292662E-03    2     2000005        -5   # BR(~chi_20 -> ~b_2      bb)
     8.35292662E-03    2    -2000005         5   # BR(~chi_20 -> ~b_2*     b )
     5.01017403E-11    2     1000039        22   # BR(~chi_20 -> ~G        gam)
     2.86204820E-07    2     1000039        23   # BR(~chi_20 -> ~G        Z)
     7.14311605E-06    2     1000039        25   # BR(~chi_20 -> ~G        h)
     5.71857751E-08    2     1000039        35   # BR(~chi_20 -> ~G        H)
     1.47562551E-06    2     1000039        36   # BR(~chi_20 -> ~G        A)
#
#         PDG            Width
DECAY   1000025     4.05919311E+01   # neutralino3 decays
#          BR         NDA      ID1       ID2
     1.44407530E-03    2     1000022        23   # BR(~chi_30 -> ~chi_10   Z )
     6.46858151E-02    2     1000022        25   # BR(~chi_30 -> ~chi_10   h )
     1.22043383E-03    2     1000022        35   # BR(~chi_30 -> ~chi_10   H )
     1.30892971E-02    2     1000022        36   # BR(~chi_30 -> ~chi_10   A )
     3.64690782E-06    2     1000002        -2   # BR(~chi_30 -> ~u_L      ub)
     3.64690782E-06    2    -1000002         2   # BR(~chi_30 -> ~u_L*     u )
     1.09880759E-06    2     1000001        -1   # BR(~chi_30 -> ~d_L      db)
     1.09880759E-06    2    -1000001         1   # BR(~chi_30 -> ~d_L*     d )
     8.74837881E-06    2     2000001        -1   # BR(~chi_30 -> ~d_R      db)
     8.74837881E-06    2    -2000001         1   # BR(~chi_30 -> ~d_R*     d )
     3.64690782E-06    2     1000004        -4   # BR(~chi_30 -> ~c_L      cb)
     3.64690782E-06    2    -1000004         4   # BR(~chi_30 -> ~c_L*     c )
     1.09880759E-06    2     1000003        -3   # BR(~chi_30 -> ~s_L      sb)
     1.09880759E-06    2    -1000003         3   # BR(~chi_30 -> ~s_L*     s )
     8.74837881E-06    2     2000003        -3   # BR(~chi_30 -> ~s_R      sb)
     8.74837881E-06    2    -2000003         3   # BR(~chi_30 -> ~s_R*     s )
     4.43327866E-01    2     1000006        -6   # BR(~chi_30 -> ~t_1      tb)
     4.43327866E-01    2    -1000006         6   # BR(~chi_30 -> ~t_1*     t )
     7.07743109E-03    2     1000005        -5   # BR(~chi_30 -> ~b_1      bb)
     7.07743109E-03    2    -1000005         5   # BR(~chi_30 -> ~b_1*     b )
     9.34745829E-03    2     2000005        -5   # BR(~chi_30 -> ~b_2      bb)
     9.34745829E-03    2    -2000005         5   # BR(~chi_30 -> ~b_2*     b )
     2.55778315E-09    2     1000039        22   # BR(~chi_30 -> ~G        gam)
     7.14738025E-06    2     1000039        23   # BR(~chi_30 -> ~G        Z)
     2.78577333E-07    2     1000039        25   # BR(~chi_30 -> ~G        h)
     1.46490845E-06    2     1000039        35   # BR(~chi_30 -> ~G        H)
     5.89959868E-08    2     1000039        36   # BR(~chi_30 -> ~G        A)
#
#         PDG            Width
DECAY   1000035     4.07922144E+04   # neutralino4 decays
#          BR         NDA      ID1       ID2
     1.05233767E-09    2     1000022        23   # BR(~chi_40 -> ~chi_10   Z )
     3.71011966E-03    2     1000023        23   # BR(~chi_40 -> ~chi_20   Z )
     1.29004507E-04    2     1000025        23   # BR(~chi_40 -> ~chi_30   Z )
     3.72281688E-03    2     1000024       -24   # BR(~chi_40 -> ~chi_1+   W-)
     3.72281688E-03    2    -1000024        24   # BR(~chi_40 -> ~chi_1-   W+)
     6.64711907E-07    2     1000022        25   # BR(~chi_40 -> ~chi_10   h )
     9.10142545E-08    2     1000022        35   # BR(~chi_40 -> ~chi_10   H )
     7.39194638E-07    2     1000022        36   # BR(~chi_40 -> ~chi_10   A )
     1.27421377E-04    2     1000023        25   # BR(~chi_40 -> ~chi_20   h )
     3.26149546E-03    2     1000023        35   # BR(~chi_40 -> ~chi_20   H )
     1.49921579E-04    2     1000023        36   # BR(~chi_40 -> ~chi_20   A )
     3.75429957E-03    2     1000025        25   # BR(~chi_40 -> ~chi_30   h )
     1.46389937E-04    2     1000025        35   # BR(~chi_40 -> ~chi_30   H )
     3.25778100E-03    2     1000025        36   # BR(~chi_40 -> ~chi_30   A )
     3.40838117E-03    2     1000024       -37   # BR(~chi_40 -> ~chi_1+   H-)
     3.40838117E-03    2    -1000024        37   # BR(~chi_40 -> ~chi_1-   H+)
     1.00478709E-02    2     1000002        -2   # BR(~chi_40 -> ~u_L      ub)
     1.00478709E-02    2    -1000002         2   # BR(~chi_40 -> ~u_L*     u )
     1.56990564E-22    2     2000002        -2   # BR(~chi_40 -> ~u_R      ub)
     1.56990564E-22    2    -2000002         2   # BR(~chi_40 -> ~u_R*     u )
     1.00478740E-02    2     1000001        -1   # BR(~chi_40 -> ~d_L      db)
     1.00478740E-02    2    -1000001         1   # BR(~chi_40 -> ~d_L*     d )
     1.91903546E-16    2     2000001        -1   # BR(~chi_40 -> ~d_R      db)
     1.91903546E-16    2    -2000001         1   # BR(~chi_40 -> ~d_R*     d )
     1.00478709E-02    2     1000004        -4   # BR(~chi_40 -> ~c_L      cb)
     1.00478709E-02    2    -1000004         4   # BR(~chi_40 -> ~c_L*     c )
     1.56990564E-22    2     2000004        -4   # BR(~chi_40 -> ~c_R      cb)
     1.56990564E-22    2    -2000004         4   # BR(~chi_40 -> ~c_R*     c )
     1.00478740E-02    2     1000003        -3   # BR(~chi_40 -> ~s_L      sb)
     1.00478740E-02    2    -1000003         3   # BR(~chi_40 -> ~s_L*     s )
     1.91903546E-16    2     2000003        -3   # BR(~chi_40 -> ~s_R      sb)
     1.91903546E-16    2    -2000003         3   # BR(~chi_40 -> ~s_R*     s )
     1.22428669E-02    2     1000006        -6   # BR(~chi_40 -> ~t_1      tb)
     1.22428669E-02    2    -1000006         6   # BR(~chi_40 -> ~t_1*     t )
     1.50785467E-01    2     1000005        -5   # BR(~chi_40 -> ~b_1      bb)
     1.50785467E-01    2    -1000005         5   # BR(~chi_40 -> ~b_1*     b )
     1.70559777E-01    2     2000005        -5   # BR(~chi_40 -> ~b_2      bb)
     1.70559777E-01    2    -2000005         5   # BR(~chi_40 -> ~b_2*     b )
     5.25111184E-15    2     1000011       -11   # BR(~chi_40 -> ~e_L-     e+)
     5.25111184E-15    2    -1000011        11   # BR(~chi_40 -> ~e_L+     e-)
     9.02615619E-28    2     2000011       -11   # BR(~chi_40 -> ~e_R-     e+)
     9.02615619E-28    2    -2000011        11   # BR(~chi_40 -> ~e_R+     e-)
     5.25111184E-15    2     1000013       -13   # BR(~chi_40 -> ~mu_L-    mu+)
     5.25111184E-15    2    -1000013        13   # BR(~chi_40 -> ~mu_L+    mu-)
     9.02615619E-28    2     2000013       -13   # BR(~chi_40 -> ~mu_R-    mu+)
     9.02615619E-28    2    -2000013        13   # BR(~chi_40 -> ~mu_R+    mu-)
     7.54061654E-15    2     1000012       -12   # BR(~chi_40 -> ~nu_eL    nu_eb)
     7.54061654E-15    2    -1000012        12   # BR(~chi_40 -> ~nu_eL*   nu_e )
     7.54061654E-15    2     1000014       -14   # BR(~chi_40 -> ~nu_muL   nu_mub)
     7.54061654E-15    2    -1000014        14   # BR(~chi_40 -> ~nu_muL*  nu_mu )
     7.54061654E-15    2     1000016       -16   # BR(~chi_40 -> ~nu_tau1  nu_taub)
     7.54061654E-15    2    -1000016        16   # BR(~chi_40 -> ~nu_tau1* nu_tau )
     5.34160300E-02    2     1000039        22   # BR(~chi_40 -> ~G        gam)
     1.66695082E-01    2     1000039        23   # BR(~chi_40 -> ~G        Z)
     1.00452754E-08    2     1000039        25   # BR(~chi_40 -> ~G        h)
     6.30848644E-08    2     1000039        35   # BR(~chi_40 -> ~G        H)
     1.24308346E-11    2     1000039        36   # BR(~chi_40 -> ~G        A)
#
#
#
#
