#
#                              ======================
#                              | THE SUSYHIT OUTPUT |
#                              ======================
#
#
#              ------------------------------------------------------
#              |     This is the output of the SUSY-HIT package     |
#              |  created by A.Djouadi, M.Muehlleitner and M.Spira. |
#              |  In case of problems with SUSY-HIT email to        |
#              |           margarete.muehlleitner@cern.ch           |
#              |           michael.spira@psi.ch                     |
#              |           abdelhak.djouadi@cern.ch                 |
#              ------------------------------------------------------
#
#              ------------------------------------------------------
#              |  SUSY Les Houches Accord - MSSM Spectrum + Decays  |
#              |              based on the decay programs           |
#              |                                                    |
#              |                     SDECAY 1.3b                    |
#              |                                                    |
#              |  Authors: M.Muhlleitner, A.Djouadi and Y.Mambrini  |
#              |  Ref.:    Comput.Phys.Commun.168(2005)46           |
#              |           [hep-ph/0311167]                         |
#              |                                                    |
#              |                     HDECAY 3.4                     |
#              |                                                    |
#              |  By: A.Djouadi,J.Kalinowski,M.Muhlleitner,M.Spira  |
#              |  Ref.:    Comput.Phys.Commun.108(1998)56           |
#              |           [hep-ph/9704448]                         |
#              |                                                    |
#              |                                                    |
#              |  If not stated otherwise all DRbar couplings and   |
#              |  soft SUSY breaking masses are given at the scale  |
#              |  Q=  0.50007023E+04
#              |                                                    |
#              ------------------------------------------------------
#
#
BLOCK DCINFO  # Decay Program information
     1   SDECAY/HDECAY # decay calculator
     2   1.3b  /3.4    # version number
#
BLOCK SPINFO  # Spectrum calculator information
     1    SOFTSUSY    # spectrum calculator                
     2    3.4.0       # version number                     
#
BLOCK MODSEL  # Model selection
     1     0   #  nonUniversal                                     
#
BLOCK SMINPUTS  # Standard Model inputs
         1     1.25778332E+02   # alpha_em^-1(M_Z)^MSbar
         2     1.16570000E-05   # G_F [GeV^-2]
         3     1.17200002E-01   # alpha_S(M_Z)^MSbar
         4     9.11876000E+01   # M_Z pole mass
         5     4.25000000E+00   # mb(mb)^MSbar
         6     1.72500000E+02   # mt pole mass
         7     1.77682000E+00   # mtau pole mass
#
BLOCK MINPAR  # Input parameters - minimal models
         3     1.00000000E+01   # tanb                
#
BLOCK EXTPAR  # Input parameters - non-minimal models
         0    -1.00000000E+00   # Set                 
         1     6.00000000E+01   # M_1(MX)             
         2     3.00000000E+03   # M_2(MX)             
         3     1.66797800E+03   # M_3(MX)             
        11     5.00000000E+03   # At(MX)              
        12     5.00000000E+03   # Ab(MX)              
        13     0.00000000E+00   # Atau(MX)            
        23    -1.83876000E+03   # mu(MX)              
        26     3.00000000E+03   # mA(pole)            
        31     5.00000000E+03   # meL(MX)             
        32     5.00000000E+03   # mmuL(MX)            
        33     5.00000000E+03   # mtauL(MX)           
        34     5.00000000E+03   # meR(MX)             
        35     5.00000000E+03   # mmuR(MX)            
        36     5.00000000E+03   # mtauR(MX)           
        41     5.00000000E+03   # mqL1(MX)            
        42     5.00000000E+03   # mqL2(MX)            
        43     5.00000000E+03   # mqL3(MX)            
        44     5.00000000E+03   # muR(MX)             
        45     5.00000000E+03   # mcR(MX)             
        46     5.00000000E+03   # mtR(MX)             
        47     5.00000000E+03   # mdR(MX)             
        48     5.00000000E+03   # msR(MX)             
        49     5.00000000E+03   # mbR(MX)             
#
BLOCK MASS  # Mass Spectrum
# PDG code           mass       particle
        24     8.00971872E+01   # W+
        25     1.24772894E+02   # h
        35     3.00007724E+03   # H
        36     2.99999995E+03   # A
        37     3.00087277E+03   # H+
         5     4.87878001E+00   # b-quark pole mass calculated from mb(mb)_Msbar
   1000001     5.07186751E+03   # ~d_L
   2000001     5.05410420E+03   # ~d_R
   1000002     5.07139373E+03   # ~u_L
   2000002     5.05383469E+03   # ~u_R
   1000003     5.07186751E+03   # ~s_L
   2000003     5.05410420E+03   # ~s_R
   1000004     5.07139373E+03   # ~c_L
   2000004     5.05383469E+03   # ~c_R
   1000005     5.01843799E+03   # ~b_1
   2000005     5.05327797E+03   # ~b_2
   1000006     4.91046930E+03   # ~t_1
   2000006     5.06544237E+03   # ~t_2
   1000011     5.01903609E+03   # ~e_L
   2000011     5.00590336E+03   # ~e_R
   1000012     5.01808827E+03   # ~nu_eL
   1000013     5.01903609E+03   # ~mu_L
   2000013     5.00590336E+03   # ~mu_R
   1000014     5.01808827E+03   # ~nu_muL
   1000015     5.00412558E+03   # ~tau_1
   2000015     5.01925974E+03   # ~tau_2
   1000016     5.01755754E+03   # ~nu_tauL
   1000021     2.00000051E+03   # ~g
   1000022     6.03002573E+01   # ~chi_10
   1000023     1.89938991E+03   # ~chi_20
   1000025    -1.90224201E+03   # ~chi_30
   1000035     3.07443029E+03   # ~chi_40
   1000024     1.90000002E+03   # ~chi_1+
   1000037     3.07459805E+03   # ~chi_2+
#
BLOCK NMIX  # Neutralino Mixing Matrix
  1  1     9.99722540E-01   # N_11
  1  2     1.16362237E-04   # N_12
  1  3    -2.34917494E-02   # N_13
  1  4     1.72229393E-03   # N_14
  2  1     1.53867089E-02   # N_21
  2  2     4.14169066E-02   # N_22
  2  3     7.06771675E-01   # N_23
  2  4     7.06060683E-01   # N_24
  3  1    -1.78270323E-02   # N_31
  3  2     1.21851493E-02   # N_32
  3  3    -7.06749176E-01   # N_33
  3  4     7.07134585E-01   # N_34
  4  1    -5.36875348E-04   # N_41
  4  2     9.99067640E-01   # N_42
  4  3    -2.06769971E-02   # N_43
  4  4    -3.78949220E-02   # N_44
#
BLOCK UMIX  # Chargino Mixing Matrix U
  1  1     2.92029057E-02   # U_11
  1  2     9.99573504E-01   # U_12
  2  1    -9.99573504E-01   # U_21
  2  2     2.92029057E-02   # U_22
#
BLOCK VMIX  # Chargino Mixing Matrix V
  1  1     5.35556447E-02   # V_11
  1  2    -9.98564867E-01   # V_12
  2  1    -9.98564867E-01   # V_21
  2  2    -5.35556447E-02   # V_22
#
BLOCK STOPMIX  # Stop Mixing Matrix
  1  1    -5.15282381E-01   # cos(theta_t)
  1  2     8.57020459E-01   # sin(theta_t)
  2  1    -8.57020459E-01   # -sin(theta_t)
  2  2    -5.15282381E-01   # cos(theta_t)
#
BLOCK SBOTMIX  # Sbottom Mixing Matrix
  1  1     9.91575868E-01   # cos(theta_b)
  1  2    -1.29527209E-01   # sin(theta_b)
  2  1     1.29527209E-01   # -sin(theta_b)
  2  2     9.91575868E-01   # cos(theta_b)
#
BLOCK STAUMIX  # Stau Mixing Matrix
  1  1    -2.08908008E-01   # cos(theta_tau)
  1  2     9.77935297E-01   # sin(theta_tau)
  2  1    -9.77935297E-01   # -sin(theta_tau)
  2  2    -2.08908008E-01   # cos(theta_tau)
#
BLOCK ALPHA  # Higgs mixing
          -1.05456915E-01   # Mixing angle in the neutral Higgs boson sector
#
BLOCK HMIX Q=  5.00070229E+03  # DRbar Higgs Parameters
         1    -1.87248167E+03   # mu(Q)MSSM           
         2     9.47073978E+00   # tan                 
         3     2.42039172E+02   # higgs               
         4     8.33945205E+06   # mA^2(Q)MSSM         
#
BLOCK GAUGE Q=  5.00070229E+03  # The gauge couplings
     1     3.70646700E-01   # gprime(Q) DRbar
     2     6.31823261E-01   # g(Q) DRbar
     3     9.98493578E-01   # g3(Q) DRbar
#
BLOCK AU Q=  5.00070229E+03  # The trilinear couplings
  1  1     5.00000001E+03   # A_u(Q) DRbar
  2  2     5.00000001E+03   # A_c(Q) DRbar
  3  3     5.00000002E+03   # A_t(Q) DRbar
#
BLOCK AD Q=  5.00070229E+03  # The trilinear couplings
  1  1     5.00000001E+03   # A_d(Q) DRbar
  2  2     5.00000001E+03   # A_s(Q) DRbar
  3  3     5.00000001E+03   # A_b(Q) DRbar
#
BLOCK AE Q=  5.00070229E+03  # The trilinear couplings
  1  1     0.00000000E+00   # A_e(Q) DRbar
  2  2     1.78321887E-07   # A_mu(Q) DRbar
  3  3     1.77965517E-07   # A_tau(Q) DRbar
#
BLOCK Yu Q=  5.00070229E+03  # The Yukawa couplings
  1  1     0.00000000E+00   # y_u(Q) DRbar
  2  2     0.00000000E+00   # y_c(Q) DRbar
  3  3     8.19352075E-01   # y_t(Q) DRbar
#
BLOCK Yd Q=  5.00070229E+03  # The Yukawa couplings
  1  1     0.00000000E+00   # y_d(Q) DRbar
  2  2     0.00000000E+00   # y_s(Q) DRbar
  3  3     1.31809479E-01   # y_b(Q) DRbar
#
BLOCK Ye Q=  5.00070229E+03  # The Yukawa couplings
  1  1     0.00000000E+00   # y_e(Q) DRbar
  2  2     0.00000000E+00   # y_mu(Q) DRbar
  3  3     9.64876324E-02   # y_tau(Q) DRbar
#
BLOCK MSOFT Q=  5.00070229E+03  # The soft SUSY breaking masses at the scale Q
         1     6.00000000E+01   # M_1(Q)              
         2     3.00000000E+03   # M_2(Q)              
         3     1.66797800E+03   # M_3(Q)              
        21     5.14219572E+06   # mH1^2(Q)            
        22    -2.97178375E+06   # mH2^2(Q)            
        31     5.00000000E+03   # meL(Q)              
        32     5.00000000E+03   # mmuL(Q)             
        33     5.00000000E+03   # mtauL(Q)            
        34     5.00000000E+03   # meR(Q)              
        35     5.00000000E+03   # mmuR(Q)             
        36     5.00000000E+03   # mtauR(Q)            
        41     5.00000000E+03   # mqL1(Q)             
        42     5.00000000E+03   # mqL2(Q)             
        43     5.00000000E+03   # mqL3(Q)             
        44     5.00000000E+03   # muR(Q)              
        45     5.00000000E+03   # mcR(Q)              
        46     4.99999999E+03   # mtR(Q)              
        47     5.00000000E+03   # mdR(Q)              
        48     5.00000000E+03   # msR(Q)              
        49     5.00000000E+03   # mbR(Q)              
#
#
#
#                             =================
#                             |The decay table|
#                             =================
#
# - The QCD corrections to the decays gluino -> squark  + quark
#                                     squark -> gaugino + quark_prime
#                                     squark -> squark_prime + Higgs
#                                     squark -> gluino  + quark
#   are included.
#
# - The multi-body decays for the inos, stops and sbottoms are included.
#
# - The loop induced decays for the gluino, neutralinos and stops
#   are included.
#
# - The SUSY decays of the top quark are included.
#
#
#         PDG            Width
DECAY         6     1.39883909E+00   # top decays
#          BR         NDA      ID1       ID2
     1.00000000E+00    2           5        24   # BR(t ->  b    W+)
#
#         PDG            Width
DECAY   1000021     3.06979758E-04   # gluino decays
#          BR         NDA      ID1       ID2
     8.02238228E-06    2     1000022        21   # BR(~g -> ~chi_10 g)
     5.40630616E-05    2     1000023        21   # BR(~g -> ~chi_20 g)
     5.05989582E-05    2     1000025        21   # BR(~g -> ~chi_30 g)
#           BR         NDA      ID1       ID2       ID3
     7.61524665E-02    3     1000022         1        -1   # BR(~g -> ~chi_10 d  db)
     3.92463864E-09    3     1000023         1        -1   # BR(~g -> ~chi_20 d  db)
     2.21861102E-10    3     1000025         1        -1   # BR(~g -> ~chi_30 d  db)
     2.59605022E-01    3     1000022         2        -2   # BR(~g -> ~chi_10 u  ub)
     5.50746375E-09    3     1000023         2        -2   # BR(~g -> ~chi_20 u  ub)
     2.05632619E-10    3     1000025         2        -2   # BR(~g -> ~chi_30 u  ub)
     7.61524665E-02    3     1000022         3        -3   # BR(~g -> ~chi_10 s  sb)
     3.92463864E-09    3     1000023         3        -3   # BR(~g -> ~chi_20 s  sb)
     2.21861102E-10    3     1000025         3        -3   # BR(~g -> ~chi_30 s  sb)
     2.59605022E-01    3     1000022         4        -4   # BR(~g -> ~chi_10 c  cb)
     5.50746375E-09    3     1000023         4        -4   # BR(~g -> ~chi_20 c  cb)
     2.05632619E-10    3     1000025         4        -4   # BR(~g -> ~chi_30 c  cb)
     7.70307946E-02    3     1000022         5        -5   # BR(~g -> ~chi_10 b  bb)
     2.40534961E-07    3     1000023         5        -5   # BR(~g -> ~chi_20 b  bb)
     1.95026589E-07    3     1000025         5        -5   # BR(~g -> ~chi_30 b  bb)
     2.51341054E-01    3     1000022         6        -6   # BR(~g -> ~chi_10 t  tb)
     8.87953843E-09    3     1000024         1        -2   # BR(~g -> ~chi_1+ d  ub)
     8.87953843E-09    3    -1000024         2        -1   # BR(~g -> ~chi_1- u  db)
     8.87953843E-09    3     1000024         3        -4   # BR(~g -> ~chi_1+ s  cb)
     8.87953843E-09    3    -1000024         4        -3   # BR(~g -> ~chi_1- c  sb)
#
#         PDG            Width
DECAY   1000006     3.18520855E+02   # stop1 decays
#          BR         NDA      ID1       ID2
     2.75030861E-02    2     1000022         6   # BR(~t_1 -> ~chi_10 t )
     7.46753503E-02    2     1000023         6   # BR(~t_1 -> ~chi_20 t )
     7.16426971E-02    2     1000025         6   # BR(~t_1 -> ~chi_30 t )
     7.15901494E-03    2     1000035         6   # BR(~t_1 -> ~chi_40 t )
     1.06474486E-01    2     1000024         5   # BR(~t_1 -> ~chi_1+ b )
     1.41990916E-02    2     1000037         5   # BR(~t_1 -> ~chi_2+ b )
     6.98346274E-01    2     1000021         6   # BR(~t_1 -> ~g      t )
#
#         PDG            Width
DECAY   2000006     3.33070169E+02   # stop2 decays
#          BR         NDA      ID1       ID2
     1.07776196E-02    2     1000022         6   # BR(~t_2 -> ~chi_10 t )
     7.50182593E-02    2     1000023         6   # BR(~t_2 -> ~chi_20 t )
     7.82061349E-02    2     1000025         6   # BR(~t_2 -> ~chi_30 t )
     1.61191541E-02    2     1000035         6   # BR(~t_2 -> ~chi_40 t )
     4.73165001E-02    2     1000024         5   # BR(~t_2 -> ~chi_1+ b )
     3.18987321E-02    2     1000037         5   # BR(~t_2 -> ~chi_2+ b )
     7.36750142E-01    2     1000021         6   # BR(~t_2 -> ~g      t )
     8.44527673E-04    2     1000006        25   # BR(~t_2 -> ~t_1    h )
     3.06893043E-03    2     1000006        23   # BR(~t_2 -> ~t_1    Z )
#
#         PDG            Width
DECAY   1000005     3.10268280E+02   # sbottom1 decays
#          BR         NDA      ID1       ID2
     2.55687685E-03    2     1000022         5   # BR(~b_1 -> ~chi_10 b )
     2.20796593E-03    2     1000023         5   # BR(~b_1 -> ~chi_20 b )
     2.01470827E-03    2     1000025         5   # BR(~b_1 -> ~chi_30 b )
     2.39374054E-02    2     1000035         5   # BR(~b_1 -> ~chi_40 b )
     1.56082198E-01    2    -1000024         6   # BR(~b_1 -> ~chi_1- t )
     4.83409528E-02    2    -1000037         6   # BR(~b_1 -> ~chi_2- t )
     7.63136076E-01    2     1000021         5   # BR(~b_1 -> ~g      b )
     1.72381764E-03    2     1000006       -24   # BR(~b_1 -> ~t_1    W-)
#
#         PDG            Width
DECAY   2000005     2.46188511E+02   # sbottom2 decays
#          BR         NDA      ID1       ID2
     1.18368602E-02    2     1000022         5   # BR(~b_2 -> ~chi_10 b )
     2.53026369E-03    2     1000023         5   # BR(~b_2 -> ~chi_20 b )
     2.69970212E-03    2     1000025         5   # BR(~b_2 -> ~chi_30 b )
     5.59616087E-04    2     1000035         5   # BR(~b_2 -> ~chi_40 b )
     8.47310676E-03    2    -1000024         6   # BR(~b_2 -> ~chi_1- t )
     1.12895693E-03    2    -1000037         6   # BR(~b_2 -> ~chi_2- t )
     9.72611745E-01    2     1000021         5   # BR(~b_2 -> ~g      b )
     1.59749438E-04    2     1000006       -24   # BR(~b_2 -> ~t_1    W-)
#
#         PDG            Width
DECAY   1000002     2.65154221E+02   # sup_L decays
#          BR         NDA      ID1       ID2
     2.81333567E-03    2     1000022         2   # BR(~u_L -> ~chi_10 u)
     1.07548715E-04    2     1000023         2   # BR(~u_L -> ~chi_20 u)
     4.11974269E-06    2     1000025         2   # BR(~u_L -> ~chi_30 u)
     2.95234988E-02    2     1000035         2   # BR(~u_L -> ~chi_40 u)
     3.12526502E-04    2     1000024         1   # BR(~u_L -> ~chi_1+ d)
     5.89925520E-02    2     1000037         1   # BR(~u_L -> ~chi_2+ d)
     9.08246419E-01    2     1000021         2   # BR(~u_L -> ~g      u)
#
#         PDG            Width
DECAY   2000002     2.51260994E+02   # sup_R decays
#          BR         NDA      ID1       ID2
     4.72795745E-02    2     1000022         2   # BR(~u_R -> ~chi_10 u)
     8.28152555E-06    2     1000023         2   # BR(~u_R -> ~chi_20 u)
     1.11057757E-05    2     1000025         2   # BR(~u_R -> ~chi_30 u)
     5.44243630E-09    2     1000035         2   # BR(~u_R -> ~chi_40 u)
     9.52701033E-01    2     1000021         2   # BR(~u_R -> ~g      u)
#
#         PDG            Width
DECAY   1000001     2.65170792E+02   # sdown_L decays
#          BR         NDA      ID1       ID2
     2.80673521E-03    2     1000022         1   # BR(~d_L -> ~chi_10 d)
     8.03939986E-05    2     1000023         1   # BR(~d_L -> ~chi_20 d)
     1.33706353E-05    2     1000025         1   # BR(~d_L -> ~chi_30 d)
     2.95431941E-02    2     1000035         1   # BR(~d_L -> ~chi_40 d)
     9.29326960E-05    2    -1000024         2   # BR(~d_L -> ~chi_1- u)
     5.91263662E-02    2    -1000037         2   # BR(~d_L -> ~chi_2- u)
     9.08337007E-01    2     1000021         1   # BR(~d_L -> ~g      d)
#
#         PDG            Width
DECAY   2000001     2.42370112E+02   # sdown_R decays
#          BR         NDA      ID1       ID2
     1.22541451E-02    2     1000022         1   # BR(~d_R -> ~chi_10 d)
     2.14651949E-06    2     1000023         1   # BR(~d_R -> ~chi_20 d)
     2.87854776E-06    2     1000025         1   # BR(~d_R -> ~chi_30 d)
     1.41077119E-09    2     1000035         1   # BR(~d_R -> ~chi_40 d)
     9.87740828E-01    2     1000021         1   # BR(~d_R -> ~g      d)
#
#         PDG            Width
DECAY   1000004     2.65154221E+02   # scharm_L decays
#          BR         NDA      ID1       ID2
     2.81333567E-03    2     1000022         4   # BR(~c_L -> ~chi_10 c)
     1.07548715E-04    2     1000023         4   # BR(~c_L -> ~chi_20 c)
     4.11974269E-06    2     1000025         4   # BR(~c_L -> ~chi_30 c)
     2.95234988E-02    2     1000035         4   # BR(~c_L -> ~chi_40 c)
     3.12526502E-04    2     1000024         3   # BR(~c_L -> ~chi_1+ s)
     5.89925520E-02    2     1000037         3   # BR(~c_L -> ~chi_2+ s)
     9.08246419E-01    2     1000021         4   # BR(~c_L -> ~g      c)
#
#         PDG            Width
DECAY   2000004     2.51260994E+02   # scharm_R decays
#          BR         NDA      ID1       ID2
     4.72795745E-02    2     1000022         4   # BR(~c_R -> ~chi_10 c)
     8.28152555E-06    2     1000023         4   # BR(~c_R -> ~chi_20 c)
     1.11057757E-05    2     1000025         4   # BR(~c_R -> ~chi_30 c)
     5.44243630E-09    2     1000035         4   # BR(~c_R -> ~chi_40 c)
     9.52701033E-01    2     1000021         4   # BR(~c_R -> ~g      c)
#
#         PDG            Width
DECAY   1000003     2.65170792E+02   # sstrange_L decays
#          BR         NDA      ID1       ID2
     2.80673521E-03    2     1000022         3   # BR(~s_L -> ~chi_10 s)
     8.03939986E-05    2     1000023         3   # BR(~s_L -> ~chi_20 s)
     1.33706353E-05    2     1000025         3   # BR(~s_L -> ~chi_30 s)
     2.95431941E-02    2     1000035         3   # BR(~s_L -> ~chi_40 s)
     9.29326960E-05    2    -1000024         4   # BR(~s_L -> ~chi_1- c)
     5.91263662E-02    2    -1000037         4   # BR(~s_L -> ~chi_2- c)
     9.08337007E-01    2     1000021         3   # BR(~s_L -> ~g      s)
#
#         PDG            Width
DECAY   2000003     2.42370112E+02   # sstrange_R decays
#          BR         NDA      ID1       ID2
     1.22541451E-02    2     1000022         3   # BR(~s_R -> ~chi_10 s)
     2.14651949E-06    2     1000023         3   # BR(~s_R -> ~chi_20 s)
     2.87854776E-06    2     1000025         3   # BR(~s_R -> ~chi_30 s)
     1.41077119E-09    2     1000035         3   # BR(~s_R -> ~chi_40 s)
     9.87740828E-01    2     1000021         3   # BR(~s_R -> ~g      s)
#
#         PDG            Width
DECAY   1000011     3.02222278E+01   # selectron_L decays
#          BR         NDA      ID1       ID2
     2.26840280E-01    2     1000022        11   # BR(~e_L -> ~chi_10 e-)
     1.23178461E-03    2     1000023        11   # BR(~e_L -> ~chi_20 e-)
     1.44282542E-06    2     1000025        11   # BR(~e_L -> ~chi_30 e-)
     2.56774655E-01    2     1000035        11   # BR(~e_L -> ~chi_40 e-)
     8.25501862E-04    2    -1000024        12   # BR(~e_L -> ~chi_1- nu_e)
     5.14326336E-01    2    -1000037        12   # BR(~e_L -> ~chi_2- nu_e)
#
#         PDG            Width
DECAY   2000011     2.73509457E+01   # selectron_R decays
#          BR         NDA      ID1       ID2
     9.99593572E-01    2     1000022        11   # BR(~e_R -> ~chi_10 e-)
     1.73565296E-04    2     1000023        11   # BR(~e_R -> ~chi_20 e-)
     2.32750370E-04    2     1000025        11   # BR(~e_R -> ~chi_30 e-)
     1.11851938E-07    2     1000035        11   # BR(~e_R -> ~chi_40 e-)
#
#         PDG            Width
DECAY   1000013     3.02222278E+01   # smuon_L decays
#          BR         NDA      ID1       ID2
     2.26840280E-01    2     1000022        13   # BR(~mu_L -> ~chi_10 mu-)
     1.23178461E-03    2     1000023        13   # BR(~mu_L -> ~chi_20 mu-)
     1.44282542E-06    2     1000025        13   # BR(~mu_L -> ~chi_30 mu-)
     2.56774655E-01    2     1000035        13   # BR(~mu_L -> ~chi_40 mu-)
     8.25501862E-04    2    -1000024        14   # BR(~mu_L -> ~chi_1- nu_mu)
     5.14326336E-01    2    -1000037        14   # BR(~mu_L -> ~chi_2- nu_mu)
#
#         PDG            Width
DECAY   2000013     2.73509457E+01   # smuon_R decays
#          BR         NDA      ID1       ID2
     9.99593572E-01    2     1000022        13   # BR(~mu_R -> ~chi_10 mu-)
     1.73565296E-04    2     1000023        13   # BR(~mu_R -> ~chi_20 mu-)
     2.32750370E-04    2     1000025        13   # BR(~mu_R -> ~chi_30 mu-)
     1.11851938E-07    2     1000035        13   # BR(~mu_R -> ~chi_40 mu-)
#
#         PDG            Width
DECAY   1000015     2.88273239E+01   # stau_1 decays
#          BR         NDA      ID1       ID2
     9.17888567E-01    2     1000022        15   # BR(~tau_1 -> ~chi_10  tau-)
     1.30004778E-02    2     1000023        15   # BR(~tau_1 -> ~chi_20  tau-)
     1.12516160E-02    2     1000025        15   # BR(~tau_1 -> ~chi_30  tau-)
     1.11480914E-02    2     1000035        15   # BR(~tau_1 -> ~chi_40  tau-)
     2.43792997E-02    2    -1000024        16   # BR(~tau_1 -> ~chi_1-  nu_tau)
     2.23319485E-02    2    -1000037        16   # BR(~tau_1 -> ~chi_2-  nu_tau)
#
#         PDG            Width
DECAY   2000015     3.07718212E+01   # stau_2 decays
#          BR         NDA      ID1       ID2
     2.51184933E-01    2     1000022        15   # BR(~tau_2 -> ~chi_10  tau-)
     1.12824285E-02    2     1000023        15   # BR(~tau_2 -> ~chi_20  tau-)
     1.17492622E-02    2     1000025        15   # BR(~tau_2 -> ~chi_30  tau-)
     2.41683430E-01    2     1000035        15   # BR(~tau_2 -> ~chi_40  tau-)
     1.05480401E-05    2    -1000024        16   # BR(~tau_2 -> ~chi_1-  nu_tau)
     4.84089398E-01    2    -1000037        16   # BR(~tau_2 -> ~chi_2-  nu_tau)
#
#         PDG            Width
DECAY   1000012     3.02234696E+01   # snu_eL decays
#          BR         NDA      ID1       ID2
     2.26608180E-01    2     1000022        12   # BR(~nu_eL -> ~chi_10 nu_e)
     5.07706104E-04    2     1000023        12   # BR(~nu_eL -> ~chi_20 nu_e)
     2.47860222E-04    2     1000025        12   # BR(~nu_eL -> ~chi_30 nu_e)
     2.56922902E-01    2     1000035        12   # BR(~nu_eL -> ~chi_40 nu_e)
     2.77537497E-03    2     1000024        11   # BR(~nu_eL -> ~chi_1+ e-)
     5.12937977E-01    2     1000037        11   # BR(~nu_eL -> ~chi_2+ e-)
#
#         PDG            Width
DECAY   1000014     3.02234696E+01   # snu_muL decays
#          BR         NDA      ID1       ID2
     2.26608180E-01    2     1000022        14   # BR(~nu_muL -> ~chi_10 nu_mu)
     5.07706104E-04    2     1000023        14   # BR(~nu_muL -> ~chi_20 nu_mu)
     2.47860222E-04    2     1000025        14   # BR(~nu_muL -> ~chi_30 nu_mu)
     2.56922902E-01    2     1000035        14   # BR(~nu_muL -> ~chi_40 nu_mu)
     2.77537497E-03    2     1000024        13   # BR(~nu_muL -> ~chi_1+ mu-)
     5.12937977E-01    2     1000037        13   # BR(~nu_muL -> ~chi_2+ mu-)
#
#         PDG            Width
DECAY   1000016     3.08960360E+01   # snu_tauL decays
#          BR         NDA      ID1       ID2
     2.21651757E-01    2     1000022        16   # BR(~nu_tauL -> ~chi_10 nu_tau)
     4.96566340E-04    2     1000023        16   # BR(~nu_tauL -> ~chi_20 nu_tau)
     2.42421771E-04    2     1000025        16   # BR(~nu_tauL -> ~chi_30 nu_tau)
     2.51239550E-01    2     1000035        16   # BR(~nu_tauL -> ~chi_40 nu_tau)
     2.47718029E-02    2     1000024        15   # BR(~nu_tauL -> ~chi_1+ tau-)
     5.01597902E-01    2     1000037        15   # BR(~nu_tauL -> ~chi_2+ tau-)
#
#         PDG            Width
DECAY   1000024     1.17279660E+00   # chargino1+ decays
#          BR         NDA      ID1       ID2
     1.00000000E+00    2     1000022        24   # BR(~chi_1+ -> ~chi_10  W+)
#
#         PDG            Width
DECAY   1000037     1.61023734E+01   # chargino2+ decays
#          BR         NDA      ID1       ID2
     2.52102764E-01    2     1000024        23   # BR(~chi_2+ -> ~chi_1+  Z )
     4.06508999E-04    2     1000022        24   # BR(~chi_2+ -> ~chi_10  W+)
     2.44888918E-01    2     1000023        24   # BR(~chi_2+ -> ~chi_20  W+)
     2.43030245E-01    2     1000025        24   # BR(~chi_2+ -> ~chi_30  W+)
     2.59571477E-01    2     1000024        25   # BR(~chi_2+ -> ~chi_1+  h )
     8.63704111E-08    2     1000022        37   # BR(~chi_2+ -> ~chi_10  H+)
#
#         PDG            Width
DECAY   1000022     0.00000000E+00   # neutralino1 decays
#
#         PDG            Width
DECAY   1000023     1.23489895E+00   # neutralino2 decays
#          BR         NDA      ID1       ID2
     5.64023375E-01    2     1000022        23   # BR(~chi_20 -> ~chi_10   Z )
     4.35976625E-01    2     1000022        25   # BR(~chi_20 -> ~chi_10   h )
#
#         PDG            Width
DECAY   1000025     1.24967740E+00   # neutralino3 decays
#          BR         NDA      ID1       ID2
     4.16978671E-01    2     1000022        23   # BR(~chi_30 -> ~chi_10   Z )
     5.83021329E-01    2     1000022        25   # BR(~chi_30 -> ~chi_10   h )
#
#         PDG            Width
DECAY   1000035     1.60691765E+01   # neutralino4 decays
#          BR         NDA      ID1       ID2
     1.76030063E-04    2     1000022        23   # BR(~chi_40 -> ~chi_10   Z )
     2.04003429E-02    2     1000023        23   # BR(~chi_40 -> ~chi_20   Z )
     2.31971515E-01    2     1000025        23   # BR(~chi_40 -> ~chi_30   Z )
     2.43774069E-01    2     1000024       -24   # BR(~chi_40 -> ~chi_1+   W-)
     2.43774069E-01    2    -1000024        24   # BR(~chi_40 -> ~chi_1-   W+)
     2.45989280E-04    2     1000022        25   # BR(~chi_40 -> ~chi_10   h )
     7.13810777E-08    2     1000022        35   # BR(~chi_40 -> ~chi_10   H )
     1.82480613E-08    2     1000022        36   # BR(~chi_40 -> ~chi_10   A )
     2.39473220E-01    2     1000023        25   # BR(~chi_40 -> ~chi_20   h )
     2.01846758E-02    2     1000025        25   # BR(~chi_40 -> ~chi_30   h )
#
#         PDG            Width
DECAY        25     4.03511974E-03   # h decays
#          BR         NDA      ID1       ID2
     6.06103051E-01    2           5        -5   # BR(h -> b       bb     )
     6.42697314E-02    2         -15        15   # BR(h -> tau+    tau-   )
     2.27538219E-04    2         -13        13   # BR(h -> mu+     mu-    )
     4.82368807E-04    2           3        -3   # BR(h -> s       sb     )
     2.09047362E-02    2           4        -4   # BR(h -> c       cb     )
     6.76202344E-02    2          21        21   # BR(h -> g       g      )
     2.32521910E-03    2          22        22   # BR(h -> gam     gam    )
     1.49916697E-03    2          22        23   # BR(h -> Z       gam    )
     2.11352508E-01    2          24       -24   # BR(h -> W+      W-     )
     2.51927025E-02    2          23        23   # BR(h -> Z       Z      )
     2.27429664E-05    2     1000022   1000022   # BR(h -> ~chi_10 ~chi_10)
#
#         PDG            Width
DECAY        35     6.53560475E+00   # H decays
#          BR         NDA      ID1       ID2
     5.04001820E-01    2           5        -5   # BR(H -> b       bb     )
     8.52586852E-02    2         -15        15   # BR(H -> tau+    tau-   )
     3.01481483E-04    2         -13        13   # BR(H -> mu+     mu-    )
     3.69570192E-04    2           3        -3   # BR(H -> s       sb     )
     2.06619504E-06    2           4        -4   # BR(H -> c       cb     )
     2.06429242E-01    2           6        -6   # BR(H -> t       tb     )
     6.84759958E-05    2          21        21   # BR(H -> g       g      )
     3.91780894E-07    2          22        22   # BR(H -> gam     gam    )
     1.21931116E-07    2          23        22   # BR(H -> Z       gam    )
     9.00446096E-05    2          24       -24   # BR(H -> W+      W-     )
     4.49653273E-05    2          23        23   # BR(H -> Z       Z      )
     3.44568493E-04    2          25        25   # BR(H -> h       h      )
     2.37067928E-23    2          36        36   # BR(H -> A       A      )
     8.45495846E-19    2          23        36   # BR(H -> Z       A      )
     6.12561534E-04    2     1000022   1000022   # BR(H -> ~chi_10 ~chi_10)
     1.18796182E-01    2     1000022   1000023   # BR(H -> ~chi_10 ~chi_20)
     8.36798231E-02    2     1000022   1000025   # BR(H -> ~chi_10 ~chi_30)
#
#         PDG            Width
DECAY        36     6.53884092E+00   # A decays
#          BR         NDA      ID1       ID2
     5.03920326E-01    2           5        -5   # BR(A -> b       bb     )
     8.52190683E-02    2         -15        15   # BR(A -> tau+    tau-   )
     3.01340973E-04    2         -13        13   # BR(A -> mu+     mu-    )
     3.69667773E-04    2           3        -3   # BR(A -> s       sb     )
     2.07391308E-06    2           4        -4   # BR(A -> c       cb     )
     2.07086020E-01    2           6        -6   # BR(A -> t       tb     )
     2.04946951E-04    2          21        21   # BR(A -> g       g      )
     3.92632564E-07    2          22        22   # BR(A -> gam     gam    )
     2.48319956E-07    2          23        22   # BR(A -> Z       gam    )
     8.96603215E-05    2          23        25   # BR(A -> Z       h      )
     6.32578587E-04    2     1000022   1000022   # BR(A -> ~chi_10 ~chi_10)
     8.46806518E-02    2     1000022   1000023   # BR(A -> ~chi_10 ~chi_20)
     1.17493023E-01    2     1000022   1000025   # BR(A -> ~chi_10 ~chi_30)
#
#         PDG            Width
DECAY        37     6.55245918E+00   # H+ decays
#          BR         NDA      ID1       ID2
     8.12721380E-04    2           4        -5   # BR(H+ -> c       bb     )
     8.50666959E-02    2         -15        16   # BR(H+ -> tau+    nu_tau )
     3.00802173E-04    2         -13        14   # BR(H+ -> mu+     nu_mu  )
     5.20139050E-06    2           2        -5   # BR(H+ -> u       bb     )
     1.76504453E-05    2           2        -3   # BR(H+ -> u       sb     )
     3.65011542E-04    2           4        -3   # BR(H+ -> c       sb     )
     7.10266994E-01    2           6        -5   # BR(H+ -> t       bb     )
     8.96095430E-05    2          24        25   # BR(H+ -> W+      h      )
     1.01605253E-13    2          24        36   # BR(H+ -> W+      A      )
     2.03075314E-01    2     1000024   1000022   # BR(H+ -> ~chi_1+ ~chi_10)
