#
#                              ======================
#                              | THE SUSYHIT OUTPUT |
#                              ======================
#
#
#              ------------------------------------------------------
#              |     This is the output of the SUSY-HIT package     |
#              |  created by A.Djouadi, M.Muehlleitner and M.Spira. |
#              |  In case of problems with SUSY-HIT email to        |
#              |           margarete.muehlleitner@cern.ch           |
#              |           michael.spira@psi.ch                     |
#              |           abdelhak.djouadi@cern.ch                 |
#              ------------------------------------------------------
#
#              ------------------------------------------------------
#              |  SUSY Les Houches Accord - MSSM Spectrum + Decays  |
#              |              based on the decay programs           |
#              |                                                    |
#              |                     SDECAY 1.3b                    |
#              |                                                    |
#              |  Authors: M.Muhlleitner, A.Djouadi and Y.Mambrini  |
#              |  Ref.:    Comput.Phys.Commun.168(2005)46           |
#              |           [hep-ph/0311167]                         |
#              |                                                    |
#              |                     HDECAY 3.4                     |
#              |                                                    |
#              |  By: A.Djouadi,J.Kalinowski,M.Muhlleitner,M.Spira  |
#              |  Ref.:    Comput.Phys.Commun.108(1998)56           |
#              |           [hep-ph/9704448]                         |
#              |                                                    |
#              |                                                    |
#              |  If not stated otherwise all DRbar couplings and   |
#              |  soft SUSY breaking masses are given at the scale  |
#              |  Q=  0.50007518E+04
#              |                                                    |
#              ------------------------------------------------------
#
#
BLOCK DCINFO  # Decay Program information
     1   SDECAY/HDECAY # decay calculator
     2   1.3b  /3.4    # version number
#
BLOCK SPINFO  # Spectrum calculator information
     1    SOFTSUSY    # spectrum calculator                
     2    3.4.0       # version number                     
#
BLOCK MODSEL  # Model selection
     1     0   #  nonUniversal                                     
#
BLOCK SMINPUTS  # Standard Model inputs
         1     1.25778332E+02   # alpha_em^-1(M_Z)^MSbar
         2     1.16570000E-05   # G_F [GeV^-2]
         3     1.17200002E-01   # alpha_S(M_Z)^MSbar
         4     9.11876000E+01   # M_Z pole mass
         5     4.25000000E+00   # mb(mb)^MSbar
         6     1.72500000E+02   # mt pole mass
         7     1.77682000E+00   # mtau pole mass
#
BLOCK MINPAR  # Input parameters - minimal models
         3     1.00000000E+01   # tanb                
#
BLOCK EXTPAR  # Input parameters - non-minimal models
         0    -1.00000000E+00   # Set                 
         1     6.00000000E+01   # M_1(MX)             
         2     3.00000000E+03   # M_2(MX)             
         3     2.52553600E+03   # M_3(MX)             
        11     5.00000000E+03   # At(MX)              
        12     5.00000000E+03   # Ab(MX)              
        13     0.00000000E+00   # Atau(MX)            
        23    -7.64793000E+02   # mu(MX)              
        26     3.00000000E+03   # mA(pole)            
        31     5.00000000E+03   # meL(MX)             
        32     5.00000000E+03   # mmuL(MX)            
        33     5.00000000E+03   # mtauL(MX)           
        34     5.00000000E+03   # meR(MX)             
        35     5.00000000E+03   # mmuR(MX)            
        36     5.00000000E+03   # mtauR(MX)           
        41     5.00000000E+03   # mqL1(MX)            
        42     5.00000000E+03   # mqL2(MX)            
        43     5.00000000E+03   # mqL3(MX)            
        44     5.00000000E+03   # muR(MX)             
        45     5.00000000E+03   # mcR(MX)             
        46     5.00000000E+03   # mtR(MX)             
        47     5.00000000E+03   # mdR(MX)             
        48     5.00000000E+03   # msR(MX)             
        49     5.00000000E+03   # mbR(MX)             
#
BLOCK MASS  # Mass Spectrum
# PDG code           mass       particle
        24     8.00947971E+01   # W+
        25     1.24811070E+02   # h
        35     3.00008301E+03   # H
        36     2.99999764E+03   # A
        37     3.00136073E+03   # H+
         5     4.87878001E+00   # b-quark pole mass calculated from mb(mb)_Msbar
   1000001     5.08867974E+03   # ~d_L
   2000001     5.07092851E+03   # ~d_R
   1000002     5.08821095E+03   # ~u_L
   2000002     5.07063938E+03   # ~u_R
   1000003     5.08867974E+03   # ~s_L
   2000003     5.07092851E+03   # ~s_R
   1000004     5.08821095E+03   # ~c_L
   2000004     5.07063938E+03   # ~c_R
   1000005     5.03441855E+03   # ~b_1
   2000005     5.06928913E+03   # ~b_2
   1000006     4.92702869E+03   # ~t_1
   2000006     5.07741564E+03   # ~t_2
   1000011     5.01907909E+03   # ~e_L
   2000011     5.00593097E+03   # ~e_R
   1000012     5.01813017E+03   # ~nu_eL
   1000013     5.01907909E+03   # ~mu_L
   2000013     5.00593097E+03   # ~mu_R
   1000014     5.01813017E+03   # ~nu_muL
   1000015     5.00468688E+03   # ~tau_1
   2000015     5.01869486E+03   # ~tau_2
   1000016     5.01758183E+03   # ~nu_tauL
   1000021     2.90000073E+03   # ~g
   1000022     6.02875604E+01   # ~chi_10
   1000023     7.99842316E+02   # ~chi_20
   1000025    -8.02072440E+02   # ~chi_30
   1000035     3.07420104E+03   # ~chi_40
   1000024     8.00000184E+02   # ~chi_1+
   1000037     3.07436852E+03   # ~chi_2+
#
BLOCK NMIX  # Neutralino Mixing Matrix
  1  1     9.98451974E-01   # N_11
  1  2     2.07831743E-04   # N_12
  1  3    -5.55973021E-02   # N_13
  1  4     1.59790233E-03   # N_14
  2  1     3.81988854E-02   # N_21
  2  2     2.14524258E-02   # N_22
  2  3     7.06384685E-01   # N_23
  2  4     7.06471030E-01   # N_24
  3  1    -4.04270611E-02   # N_31
  3  2     1.56877899E-02   # N_32
  3  3    -7.05629521E-01   # N_33
  3  4     7.07252801E-01   # N_34
  4  1    -3.92896316E-04   # N_41
  4  2     9.99646759E-01   # N_42
  4  3    -4.07378154E-03   # N_43
  4  4    -2.62603590E-02   # N_44
#
BLOCK UMIX  # Chargino Mixing Matrix U
  1  1     5.77198254E-03   # U_11
  1  2     9.99983342E-01   # U_12
  2  1    -9.99983342E-01   # U_21
  2  2     5.77198254E-03   # U_22
#
BLOCK VMIX  # Chargino Mixing Matrix V
  1  1     3.71659946E-02   # V_11
  1  2    -9.99309106E-01   # V_12
  2  1    -9.99309106E-01   # V_21
  2  2    -3.71659946E-02   # V_22
#
BLOCK STOPMIX  # Stop Mixing Matrix
  1  1    -5.01917054E-01   # cos(theta_t)
  1  2     8.64915759E-01   # sin(theta_t)
  2  1    -8.64915759E-01   # -sin(theta_t)
  2  2    -5.01917054E-01   # cos(theta_t)
#
BLOCK SBOTMIX  # Sbottom Mixing Matrix
  1  1     9.97887033E-01   # cos(theta_b)
  1  2    -6.49728356E-02   # sin(theta_b)
  2  1     6.49728356E-02   # -sin(theta_b)
  2  2     9.97887033E-01   # cos(theta_b)
#
BLOCK STAUMIX  # Stau Mixing Matrix
  1  1    -9.13708536E-02   # cos(theta_tau)
  1  2     9.95816935E-01   # sin(theta_tau)
  2  1    -9.95816935E-01   # -sin(theta_tau)
  2  2    -9.13708536E-02   # cos(theta_tau)
#
BLOCK ALPHA  # Higgs mixing
          -1.05486868E-01   # Mixing angle in the neutral Higgs boson sector
#
BLOCK HMIX Q=  5.00075185E+03  # DRbar Higgs Parameters
         1    -7.78865506E+02   # mu(Q)MSSM           
         2     9.46886963E+00   # tan                 
         3     2.41819225E+02   # higgs               
         4     8.57872089E+06   # mA^2(Q)MSSM         
#
BLOCK GAUGE Q=  5.00075185E+03  # The gauge couplings
     1     3.70830447E-01   # gprime(Q) DRbar
     2     6.32744058E-01   # g(Q) DRbar
     3     9.92992754E-01   # g3(Q) DRbar
#
BLOCK AU Q=  5.00075185E+03  # The trilinear couplings
  1  1     5.00000002E+03   # A_u(Q) DRbar
  2  2     5.00000002E+03   # A_c(Q) DRbar
  3  3     5.00000003E+03   # A_t(Q) DRbar
#
BLOCK AD Q=  5.00075185E+03  # The trilinear couplings
  1  1     5.00000001E+03   # A_d(Q) DRbar
  2  2     5.00000001E+03   # A_s(Q) DRbar
  3  3     5.00000001E+03   # A_b(Q) DRbar
#
BLOCK AE Q=  5.00075185E+03  # The trilinear couplings
  1  1     0.00000000E+00   # A_e(Q) DRbar
  2  2     3.07597365E-07   # A_mu(Q) DRbar
  3  3     3.07760577E-07   # A_tau(Q) DRbar
#
BLOCK Yu Q=  5.00075185E+03  # The Yukawa couplings
  1  1     0.00000000E+00   # y_u(Q) DRbar
  2  2     0.00000000E+00   # y_c(Q) DRbar
  3  3     8.21632161E-01   # y_t(Q) DRbar
#
BLOCK Yd Q=  5.00075185E+03  # The Yukawa couplings
  1  1     0.00000000E+00   # y_d(Q) DRbar
  2  2     0.00000000E+00   # y_s(Q) DRbar
  3  3     1.30874002E-01   # y_b(Q) DRbar
#
BLOCK Ye Q=  5.00075185E+03  # The Yukawa couplings
  1  1     0.00000000E+00   # y_e(Q) DRbar
  2  2     0.00000000E+00   # y_mu(Q) DRbar
  3  3     9.69512688E-02   # y_tau(Q) DRbar
#
BLOCK MSOFT Q=  5.00075185E+03  # The soft SUSY breaking masses at the scale Q
         1     6.00000000E+01   # M_1(Q)              
         2     3.00000000E+03   # M_2(Q)              
         3     2.52553600E+03   # M_3(Q)              
        21     8.10296020E+06   # mH1^2(Q)            
        22    -3.37915753E+04   # mH2^2(Q)            
        31     5.00000000E+03   # meL(Q)              
        32     5.00000000E+03   # mmuL(Q)             
        33     5.00000000E+03   # mtauL(Q)            
        34     5.00000000E+03   # meR(Q)              
        35     5.00000000E+03   # mmuR(Q)             
        36     5.00000000E+03   # mtauR(Q)            
        41     4.99999999E+03   # mqL1(Q)             
        42     4.99999999E+03   # mqL2(Q)             
        43     4.99999999E+03   # mqL3(Q)             
        44     4.99999999E+03   # muR(Q)              
        45     4.99999999E+03   # mcR(Q)              
        46     4.99999999E+03   # mtR(Q)              
        47     4.99999999E+03   # mdR(Q)              
        48     4.99999999E+03   # msR(Q)              
        49     4.99999999E+03   # mbR(Q)              
#
#
#
#                             =================
#                             |The decay table|
#                             =================
#
# - The QCD corrections to the decays gluino -> squark  + quark
#                                     squark -> gaugino + quark_prime
#                                     squark -> squark_prime + Higgs
#                                     squark -> gluino  + quark
#   are included.
#
# - The multi-body decays for the inos, stops and sbottoms are included.
#
# - The loop induced decays for the gluino, neutralinos and stops
#   are included.
#
# - The SUSY decays of the top quark are included.
#
#
#         PDG            Width
DECAY         6     1.40302383E+00   # top decays
#          BR         NDA      ID1       ID2
     1.00000000E+00    2           5        24   # BR(t ->  b    W+)
#
#         PDG            Width
DECAY   1000021     1.32998187E-02   # gluino decays
#          BR         NDA      ID1       ID2
     9.78708574E-07    2     1000022        21   # BR(~g -> ~chi_10 g)
     3.41682935E-03    2     1000023        21   # BR(~g -> ~chi_20 g)
     3.34756644E-03    2     1000025        21   # BR(~g -> ~chi_30 g)
#           BR         NDA      ID1       ID2       ID3
     1.27572858E-02    3     1000022         1        -1   # BR(~g -> ~chi_10 d  db)
     2.16842764E-05    3     1000023         1        -1   # BR(~g -> ~chi_20 d  db)
     2.09122721E-05    3     1000025         1        -1   # BR(~g -> ~chi_30 d  db)
     4.35099619E-02    3     1000022         2        -2   # BR(~g -> ~chi_10 u  ub)
     8.94997805E-05    3     1000023         2        -2   # BR(~g -> ~chi_20 u  ub)
     2.77814273E-05    3     1000025         2        -2   # BR(~g -> ~chi_30 u  ub)
     1.27572858E-02    3     1000022         3        -3   # BR(~g -> ~chi_10 s  sb)
     2.16842764E-05    3     1000023         3        -3   # BR(~g -> ~chi_20 s  sb)
     2.09122721E-05    3     1000025         3        -3   # BR(~g -> ~chi_30 s  sb)
     4.35099619E-02    3     1000022         4        -4   # BR(~g -> ~chi_10 c  cb)
     8.94997805E-05    3     1000023         4        -4   # BR(~g -> ~chi_20 c  cb)
     2.77814273E-05    3     1000025         4        -4   # BR(~g -> ~chi_30 c  cb)
     1.29715932E-02    3     1000022         5        -5   # BR(~g -> ~chi_10 b  bb)
     5.13045582E-03    3     1000023         5        -5   # BR(~g -> ~chi_20 b  bb)
     5.09722538E-03    3     1000025         5        -5   # BR(~g -> ~chi_30 b  bb)
     4.54318032E-02    3     1000022         6        -6   # BR(~g -> ~chi_10 t  tb)
     2.02028705E-01    3     1000023         6        -6   # BR(~g -> ~chi_20 t  tb)
     1.92944429E-01    3     1000025         6        -6   # BR(~g -> ~chi_30 t  tb)
     6.01266969E-05    3     1000024         1        -2   # BR(~g -> ~chi_1+ d  ub)
     6.01266969E-05    3    -1000024         2        -1   # BR(~g -> ~chi_1- u  db)
     6.01266969E-05    3     1000024         3        -4   # BR(~g -> ~chi_1+ s  cb)
     6.01266969E-05    3    -1000024         4        -3   # BR(~g -> ~chi_1- c  sb)
     2.08267828E-01    3     1000024         5        -6   # BR(~g -> ~chi_1+ b  tb)
     2.08267828E-01    3    -1000024         6        -5   # BR(~g -> ~chi_1- t  bb)
#
#         PDG            Width
DECAY   1000006     2.57896006E+02   # stop1 decays
#          BR         NDA      ID1       ID2
     3.45776312E-02    2     1000022         6   # BR(~t_1 -> ~chi_10 t )
     1.21657466E-01    2     1000023         6   # BR(~t_1 -> ~chi_20 t )
     1.16641195E-01    2     1000025         6   # BR(~t_1 -> ~chi_30 t )
     7.79658506E-03    2     1000035         6   # BR(~t_1 -> ~chi_40 t )
     1.79449594E-01    2     1000024         5   # BR(~t_1 -> ~chi_1+ b )
     1.55379600E-02    2     1000037         5   # BR(~t_1 -> ~chi_2+ b )
     5.24339569E-01    2     1000021         6   # BR(~t_1 -> ~g      t )
#
#         PDG            Width
DECAY   2000006     2.66528783E+02   # stop2 decays
#          BR         NDA      ID1       ID2
     1.26325048E-02    2     1000022         6   # BR(~t_2 -> ~chi_10 t )
     1.19965334E-01    2     1000023         6   # BR(~t_2 -> ~chi_20 t )
     1.25358837E-01    2     1000025         6   # BR(~t_2 -> ~chi_30 t )
     2.13892042E-02    2     1000035         6   # BR(~t_2 -> ~chi_40 t )
     6.87537917E-02    2     1000024         5   # BR(~t_2 -> ~chi_1+ b )
     4.25736887E-02    2     1000037         5   # BR(~t_2 -> ~chi_2+ b )
     6.04924037E-01    2     1000021         6   # BR(~t_2 -> ~g      t )
     1.00879173E-03    2     1000006        25   # BR(~t_2 -> ~t_1    h )
     3.39381148E-03    2     1000006        23   # BR(~t_2 -> ~t_1    Z )
#
#         PDG            Width
DECAY   1000005     2.40916205E+02   # sbottom1 decays
#          BR         NDA      ID1       ID2
     3.19069824E-03    2     1000022         5   # BR(~b_1 -> ~chi_10 b )
     3.37467981E-03    2     1000023         5   # BR(~b_1 -> ~chi_20 b )
     3.31839885E-03    2     1000025         5   # BR(~b_1 -> ~chi_30 b )
     3.16875356E-02    2     1000035         5   # BR(~b_1 -> ~chi_40 b )
     2.63898307E-01    2    -1000024         6   # BR(~b_1 -> ~chi_1- t )
     6.36435108E-02    2    -1000037         6   # BR(~b_1 -> ~chi_2- t )
     6.28688602E-01    2     1000021         5   # BR(~b_1 -> ~g      b )
     2.19826741E-03    2     1000006       -24   # BR(~b_1 -> ~t_1    W-)
#
#         PDG            Width
DECAY   2000005     1.60981946E+02   # sbottom2 decays
#          BR         NDA      ID1       ID2
     1.82010498E-02    2     1000022         5   # BR(~b_2 -> ~chi_10 b )
     5.09930722E-03    2     1000023         5   # BR(~b_2 -> ~chi_20 b )
     5.20397803E-03    2     1000025         5   # BR(~b_2 -> ~chi_30 b )
     1.90411251E-04    2     1000035         5   # BR(~b_2 -> ~chi_40 b )
     1.16539650E-02    2    -1000024         6   # BR(~b_2 -> ~chi_1- t )
     3.82433722E-04    2    -1000037         6   # BR(~b_2 -> ~chi_2- t )
     9.59207691E-01    2     1000021         5   # BR(~b_2 -> ~g      b )
     6.11637793E-05    2     1000006       -24   # BR(~b_2 -> ~t_1    W-)
#
#         PDG            Width
DECAY   1000002     1.80636845E+02   # sup_L decays
#          BR         NDA      ID1       ID2
     4.11564109E-03    2     1000022         2   # BR(~u_L -> ~chi_10 u)
     8.60729711E-05    2     1000023         2   # BR(~u_L -> ~chi_20 u)
     6.24591496E-06    2     1000025         2   # BR(~u_L -> ~chi_30 u)
     4.39408392E-02    2     1000035         2   # BR(~u_L -> ~chi_40 u)
     2.84406529E-04    2     1000024         1   # BR(~u_L -> ~chi_1+ d)
     8.78249094E-02    2     1000037         1   # BR(~u_L -> ~chi_2+ d)
     8.63741885E-01    2     1000021         2   # BR(~u_L -> ~g      u)
#
#         PDG            Width
DECAY   2000002     1.66310448E+02   # sup_R decays
#          BR         NDA      ID1       ID2
     7.11179744E-02    2     1000022         2   # BR(~u_R -> ~chi_10 u)
     9.92436280E-05    2     1000023         2   # BR(~u_R -> ~chi_20 u)
     1.11128239E-04    2     1000025         2   # BR(~u_R -> ~chi_30 u)
     4.45142687E-09    2     1000035         2   # BR(~u_R -> ~chi_40 u)
     9.28671649E-01    2     1000021         2   # BR(~u_R -> ~g      u)
#
#         PDG            Width
DECAY   1000001     1.80654034E+02   # sdown_L decays
#          BR         NDA      ID1       ID2
     4.09813435E-03    2     1000022         1   # BR(~d_L -> ~chi_10 d)
     2.01497190E-05    2     1000023         1   # BR(~d_L -> ~chi_20 d)
     5.72529636E-05    2     1000025         1   # BR(~d_L -> ~chi_30 d)
     4.39634658E-02    2     1000035         1   # BR(~d_L -> ~chi_40 d)
     6.85964396E-06    2    -1000024         2   # BR(~d_L -> ~chi_1- u)
     8.79617293E-02    2    -1000037         2   # BR(~d_L -> ~chi_2- u)
     8.63892408E-01    2     1000021         1   # BR(~d_L -> ~g      d)
#
#         PDG            Width
DECAY   2000001     1.57439564E+02   # sdown_R decays
#          BR         NDA      ID1       ID2
     1.87823715E-02    2     1000022         1   # BR(~d_R -> ~chi_10 d)
     2.62105459E-05    2     1000023         1   # BR(~d_R -> ~chi_20 d)
     2.93493089E-05    2     1000025         1   # BR(~d_R -> ~chi_30 d)
     1.17578231E-09    2     1000035         1   # BR(~d_R -> ~chi_40 d)
     9.81162067E-01    2     1000021         1   # BR(~d_R -> ~g      d)
#
#         PDG            Width
DECAY   1000004     1.80636845E+02   # scharm_L decays
#          BR         NDA      ID1       ID2
     4.11564109E-03    2     1000022         4   # BR(~c_L -> ~chi_10 c)
     8.60729711E-05    2     1000023         4   # BR(~c_L -> ~chi_20 c)
     6.24591496E-06    2     1000025         4   # BR(~c_L -> ~chi_30 c)
     4.39408392E-02    2     1000035         4   # BR(~c_L -> ~chi_40 c)
     2.84406529E-04    2     1000024         3   # BR(~c_L -> ~chi_1+ s)
     8.78249094E-02    2     1000037         3   # BR(~c_L -> ~chi_2+ s)
     8.63741885E-01    2     1000021         4   # BR(~c_L -> ~g      c)
#
#         PDG            Width
DECAY   2000004     1.66310448E+02   # scharm_R decays
#          BR         NDA      ID1       ID2
     7.11179744E-02    2     1000022         4   # BR(~c_R -> ~chi_10 c)
     9.92436280E-05    2     1000023         4   # BR(~c_R -> ~chi_20 c)
     1.11128239E-04    2     1000025         4   # BR(~c_R -> ~chi_30 c)
     4.45142687E-09    2     1000035         4   # BR(~c_R -> ~chi_40 c)
     9.28671649E-01    2     1000021         4   # BR(~c_R -> ~g      c)
#
#         PDG            Width
DECAY   1000003     1.80654034E+02   # sstrange_L decays
#          BR         NDA      ID1       ID2
     4.09813435E-03    2     1000022         3   # BR(~s_L -> ~chi_10 s)
     2.01497190E-05    2     1000023         3   # BR(~s_L -> ~chi_20 s)
     5.72529636E-05    2     1000025         3   # BR(~s_L -> ~chi_30 s)
     4.39634658E-02    2     1000035         3   # BR(~s_L -> ~chi_40 s)
     6.85964396E-06    2    -1000024         4   # BR(~s_L -> ~chi_1- c)
     8.79617293E-02    2    -1000037         4   # BR(~s_L -> ~chi_2- c)
     8.63892408E-01    2     1000021         3   # BR(~s_L -> ~g      s)
#
#         PDG            Width
DECAY   2000003     1.57439564E+02   # sstrange_R decays
#          BR         NDA      ID1       ID2
     1.87823715E-02    2     1000022         3   # BR(~s_R -> ~chi_10 s)
     2.62105459E-05    2     1000023         3   # BR(~s_R -> ~chi_20 s)
     2.93493089E-05    2     1000025         3   # BR(~s_R -> ~chi_30 s)
     1.17578231E-09    2     1000035         3   # BR(~s_R -> ~chi_40 s)
     9.81162067E-01    2     1000021         3   # BR(~s_R -> ~g      s)
#
#         PDG            Width
DECAY   1000011     3.02865390E+01   # selectron_L decays
#          BR         NDA      ID1       ID2
     2.26080332E-01    2     1000022        11   # BR(~e_L -> ~chi_10 e-)
     1.20481169E-03    2     1000023        11   # BR(~e_L -> ~chi_20 e-)
     4.01608582E-05    2     1000025        11   # BR(~e_L -> ~chi_30 e-)
     2.57372094E-01    2     1000035        11   # BR(~e_L -> ~chi_40 e-)
     4.17694148E-05    2    -1000024        12   # BR(~e_L -> ~chi_1- nu_e)
     5.15260832E-01    2    -1000037        12   # BR(~e_L -> ~chi_2- nu_e)
#
#         PDG            Width
DECAY   2000011     2.73780293E+01   # selectron_R decays
#          BR         NDA      ID1       ID2
     9.97061516E-01    2     1000022        11   # BR(~e_R -> ~chi_10 e-)
     1.38622117E-03    2     1000023        11   # BR(~e_R -> ~chi_20 e-)
     1.55220261E-03    2     1000025        11   # BR(~e_R -> ~chi_30 e-)
     5.99155844E-08    2     1000035        11   # BR(~e_R -> ~chi_40 e-)
#
#         PDG            Width
DECAY   1000013     3.02865390E+01   # smuon_L decays
#          BR         NDA      ID1       ID2
     2.26080332E-01    2     1000022        13   # BR(~mu_L -> ~chi_10 mu-)
     1.20481169E-03    2     1000023        13   # BR(~mu_L -> ~chi_20 mu-)
     4.01608582E-05    2     1000025        13   # BR(~mu_L -> ~chi_30 mu-)
     2.57372094E-01    2     1000035        13   # BR(~mu_L -> ~chi_40 mu-)
     4.17694148E-05    2    -1000024        14   # BR(~mu_L -> ~chi_1- nu_mu)
     5.15260832E-01    2    -1000037        14   # BR(~mu_L -> ~chi_2- nu_mu)
#
#         PDG            Width
DECAY   2000013     2.73780293E+01   # smuon_R decays
#          BR         NDA      ID1       ID2
     9.97061516E-01    2     1000022        13   # BR(~mu_R -> ~chi_10 mu-)
     1.38622117E-03    2     1000023        13   # BR(~mu_R -> ~chi_20 mu-)
     1.55220261E-03    2     1000025        13   # BR(~mu_R -> ~chi_30 mu-)
     5.99155844E-08    2     1000035        13   # BR(~mu_R -> ~chi_40 mu-)
#
#         PDG            Width
DECAY   1000015     2.91700479E+01   # stau_1 decays
#          BR         NDA      ID1       ID2
     9.30693456E-01    2     1000022        15   # BR(~tau_1 -> ~chi_10  tau-)
     1.64841091E-02    2     1000023        15   # BR(~tau_1 -> ~chi_20  tau-)
     1.58992029E-02    2     1000025        15   # BR(~tau_1 -> ~chi_30  tau-)
     2.16691156E-03    2     1000035        15   # BR(~tau_1 -> ~chi_40  tau-)
     3.04183607E-02    2    -1000024        16   # BR(~tau_1 -> ~chi_1-  nu_tau)
     4.33795937E-03    2    -1000037        16   # BR(~tau_1 -> ~chi_2-  nu_tau)
#
#         PDG            Width
DECAY   2000015     3.11484861E+01   # stau_2 decays
#          BR         NDA      ID1       ID2
     2.24578417E-01    2     1000022        15   # BR(~tau_2 -> ~chi_10  tau-)
     1.54682640E-02    2     1000023        15   # BR(~tau_2 -> ~chi_20  tau-)
     1.49632185E-02    2     1000025        15   # BR(~tau_2 -> ~chi_30  tau-)
     2.48136123E-01    2     1000035        15   # BR(~tau_2 -> ~chi_40  tau-)
     8.30065770E-05    2    -1000024        16   # BR(~tau_2 -> ~chi_1-  nu_tau)
     4.96770970E-01    2    -1000037        16   # BR(~tau_2 -> ~chi_2-  nu_tau)
#
#         PDG            Width
DECAY   1000012     3.02895470E+01   # snu_eL decays
#          BR         NDA      ID1       ID2
     2.25694250E-01    2     1000022        12   # BR(~nu_eL -> ~chi_10 nu_e)
     5.47496971E-07    2     1000023        12   # BR(~nu_eL -> ~chi_20 nu_e)
     9.71617243E-04    2     1000025        12   # BR(~nu_eL -> ~chi_30 nu_e)
     2.57418103E-01    2     1000035        12   # BR(~nu_eL -> ~chi_40 nu_e)
     1.73127509E-03    2     1000024        11   # BR(~nu_eL -> ~chi_1+ e-)
     5.14184207E-01    2     1000037        11   # BR(~nu_eL -> ~chi_2+ e-)
#
#         PDG            Width
DECAY   1000014     3.02895470E+01   # snu_muL decays
#          BR         NDA      ID1       ID2
     2.25694250E-01    2     1000022        14   # BR(~nu_muL -> ~chi_10 nu_mu)
     5.47496971E-07    2     1000023        14   # BR(~nu_muL -> ~chi_20 nu_mu)
     9.71617243E-04    2     1000025        14   # BR(~nu_muL -> ~chi_30 nu_mu)
     2.57418103E-01    2     1000035        14   # BR(~nu_muL -> ~chi_40 nu_mu)
     1.73127509E-03    2     1000024        13   # BR(~nu_muL -> ~chi_1+ mu-)
     5.14184207E-01    2     1000037        13   # BR(~nu_muL -> ~chi_2+ mu-)
#
#         PDG            Width
DECAY   1000016     3.11712819E+01   # snu_tauL decays
#          BR         NDA      ID1       ID2
     2.19286109E-01    2     1000022        16   # BR(~nu_tauL -> ~chi_10 nu_tau)
     5.31945853E-07    2     1000023        16   # BR(~nu_tauL -> ~chi_20 nu_tau)
     9.44019341E-04    2     1000025        16   # BR(~nu_tauL -> ~chi_30 nu_tau)
     2.50043560E-01    2     1000035        16   # BR(~nu_tauL -> ~chi_40 nu_tau)
     3.02725459E-02    2     1000024        15   # BR(~nu_tauL -> ~chi_1+ tau-)
     4.99453233E-01    2     1000037        15   # BR(~nu_tauL -> ~chi_2+ tau-)
#
#         PDG            Width
DECAY   1000024     4.83256914E-01   # chargino1+ decays
#          BR         NDA      ID1       ID2
     1.00000000E+00    2     1000022        24   # BR(~chi_1+ -> ~chi_10  W+)
#
#         PDG            Width
DECAY   1000037     2.11096324E+01   # chargino2+ decays
#          BR         NDA      ID1       ID2
     2.53359365E-01    2     1000024        23   # BR(~chi_2+ -> ~chi_1+  Z )
     1.84748555E-04    2     1000022        24   # BR(~chi_2+ -> ~chi_10  W+)
     2.44400054E-01    2     1000023        24   # BR(~chi_2+ -> ~chi_20  W+)
     2.44216225E-01    2     1000025        24   # BR(~chi_2+ -> ~chi_30  W+)
     2.57837685E-01    2     1000024        25   # BR(~chi_2+ -> ~chi_1+  h )
     1.92233114E-06    2     1000022        37   # BR(~chi_2+ -> ~chi_10  H+)
#
#         PDG            Width
DECAY   1000022     0.00000000E+00   # neutralino1 decays
#
#         PDG            Width
DECAY   1000023     5.01654128E-01   # neutralino2 decays
#          BR         NDA      ID1       ID2
     5.29411066E-01    2     1000022        23   # BR(~chi_20 -> ~chi_10   Z )
     4.70588934E-01    2     1000022        25   # BR(~chi_20 -> ~chi_10   h )
#
#         PDG            Width
DECAY   1000025     5.01449316E-01   # neutralino3 decays
#          BR         NDA      ID1       ID2
     4.69496181E-01    2     1000022        23   # BR(~chi_30 -> ~chi_10   Z )
     5.30503819E-01    2     1000022        25   # BR(~chi_30 -> ~chi_10   h )
#
#         PDG            Width
DECAY   1000035     2.11253862E+01   # neutralino4 decays
#          BR         NDA      ID1       ID2
     3.18533292E-05    2     1000022        23   # BR(~chi_40 -> ~chi_10   Z )
     8.82318831E-02    2     1000023        23   # BR(~chi_40 -> ~chi_20   Z )
     1.64467379E-01    2     1000025        23   # BR(~chi_40 -> ~chi_30   Z )
     2.44936991E-01    2     1000024       -24   # BR(~chi_40 -> ~chi_1+   W-)
     2.44936991E-01    2    -1000024        24   # BR(~chi_40 -> ~chi_1-   W+)
     1.51506359E-04    2     1000022        25   # BR(~chi_40 -> ~chi_10   h )
     1.83110437E-06    2     1000022        35   # BR(~chi_40 -> ~chi_10   H )
     2.13424758E-07    2     1000022        36   # BR(~chi_40 -> ~chi_10   A )
     1.68742158E-01    2     1000023        25   # BR(~chi_40 -> ~chi_20   h )
     8.84991943E-02    2     1000025        25   # BR(~chi_40 -> ~chi_30   h )
#
#         PDG            Width
DECAY        25     4.05972989E-03   # h decays
#          BR         NDA      ID1       ID2
     6.07267027E-01    2           5        -5   # BR(h -> b       bb     )
     6.39109197E-02    2         -15        15   # BR(h -> tau+    tau-   )
     2.26267727E-04    2         -13        13   # BR(h -> mu+     mu-    )
     4.79645740E-04    2           3        -3   # BR(h -> s       sb     )
     2.07830857E-02    2           4        -4   # BR(h -> c       cb     )
     6.72723871E-02    2          21        21   # BR(h -> g       g      )
     2.31358046E-03    2          22        22   # BR(h -> gam     gam    )
     1.49508734E-03    2          22        23   # BR(h -> Z       gam    )
     2.11018727E-01    2          24       -24   # BR(h -> W+      W-     )
     2.51603836E-02    2          23        23   # BR(h -> Z       Z      )
     7.28877279E-05    2     1000022   1000022   # BR(h -> ~chi_10 ~chi_10)
#
#         PDG            Width
DECAY        35     8.36860410E+00   # H decays
#          BR         NDA      ID1       ID2
     3.84184000E-01    2           5        -5   # BR(H -> b       bb     )
     6.65579331E-02    2         -15        15   # BR(H -> tau+    tau-   )
     2.35354138E-04    2         -13        13   # BR(H -> mu+     mu-    )
     2.88508067E-04    2           3        -3   # BR(H -> s       sb     )
     1.61455351E-06    2           4        -4   # BR(H -> c       cb     )
     1.61306685E-01    2           6        -6   # BR(H -> t       tb     )
     5.36253146E-05    2          21        21   # BR(H -> g       g      )
     2.09654549E-07    2          22        22   # BR(H -> gam     gam    )
     9.52386285E-08    2          23        22   # BR(H -> Z       gam    )
     7.54927959E-05    2          24       -24   # BR(H -> W+      W-     )
     3.76986190E-05    2          23        23   # BR(H -> Z       Z      )
     2.77144372E-04    2          25        25   # BR(H -> h       h      )
     1.08886754E-23    2          36        36   # BR(H -> A       A      )
     8.20962244E-19    2          23        36   # BR(H -> Z       A      )
     2.57722572E-03    2     1000024  -1000024   # BR(H -> ~chi_1+ ~chi_1-)
     2.69782527E-03    2     1000022   1000022   # BR(H -> ~chi_10 ~chi_10)
     4.85906770E-07    2     1000023   1000023   # BR(H -> ~chi_20 ~chi_20)
     1.01744204E-03    2     1000025   1000025   # BR(H -> ~chi_30 ~chi_30)
     2.28913067E-01    2     1000022   1000023   # BR(H -> ~chi_10 ~chi_20)
     1.50713112E-01    2     1000022   1000025   # BR(H -> ~chi_10 ~chi_30)
     1.06248190E-03    2     1000023   1000025   # BR(H -> ~chi_20 ~chi_30)
#
#         PDG            Width
DECAY        36     8.38052195E+00   # A decays
#          BR         NDA      ID1       ID2
     3.83767567E-01    2           5        -5   # BR(A -> b       bb     )
     6.64652461E-02    2         -15        15   # BR(A -> tau+    tau-   )
     2.35026061E-04    2         -13        13   # BR(A -> mu+     mu-    )
     2.88316532E-04    2           3        -3   # BR(A -> s       sb     )
     1.61879367E-06    2           4        -4   # BR(A -> c       cb     )
     1.61641074E-01    2           6        -6   # BR(A -> t       tb     )
     1.59945288E-04    2          21        21   # BR(A -> g       g      )
     5.96140466E-07    2          22        22   # BR(A -> gam     gam    )
     1.93695146E-07    2          23        22   # BR(A -> Z       gam    )
     7.51000127E-05    2          23        25   # BR(A -> Z       h      )
     3.36804197E-03    2     1000024  -1000024   # BR(A -> ~chi_1+ ~chi_1-)
     2.73142742E-03    2     1000022   1000022   # BR(A -> ~chi_10 ~chi_10)
     4.43442458E-07    2     1000023   1000023   # BR(A -> ~chi_20 ~chi_20)
     2.17761724E-03    2     1000025   1000025   # BR(A -> ~chi_30 ~chi_30)
     1.53009924E-01    2     1000022   1000023   # BR(A -> ~chi_10 ~chi_20)
     2.25589330E-01    2     1000022   1000025   # BR(A -> ~chi_10 ~chi_30)
     4.88531234E-04    2     1000023   1000025   # BR(A -> ~chi_20 ~chi_30)
#
#         PDG            Width
DECAY        37     8.34738965E+00   # H+ decays
#          BR         NDA      ID1       ID2
     6.18406188E-04    2           4        -5   # BR(H+ -> c       bb     )
     6.67593780E-02    2         -15        16   # BR(H+ -> tau+    nu_tau )
     2.36066133E-04    2         -13        14   # BR(H+ -> mu+     nu_mu  )
     3.95777908E-06    2           2        -5   # BR(H+ -> u       bb     )
     1.38515775E-05    2           2        -3   # BR(H+ -> u       sb     )
     2.86452115E-04    2           4        -3   # BR(H+ -> c       sb     )
     5.45420187E-01    2           6        -5   # BR(H+ -> t       bb     )
     7.55495462E-05    2          24        25   # BR(H+ -> W+      h      )
     7.40788793E-13    2          24        36   # BR(H+ -> W+      A      )
     3.85123765E-01    2     1000024   1000022   # BR(H+ -> ~chi_1+ ~chi_10)
     1.43825666E-03    2     1000024   1000023   # BR(H+ -> ~chi_1+ ~chi_20)
     2.41298034E-05    2     1000024   1000025   # BR(H+ -> ~chi_1+ ~chi_30)
