#
#                              ======================
#                              | THE SUSYHIT OUTPUT |
#                              ======================
#
#
#              ------------------------------------------------------
#              |     This is the output of the SUSY-HIT package     |
#              |  created by A.Djouadi, M.Muehlleitner and M.Spira. |
#              |  In case of problems with SUSY-HIT email to        |
#              |           margarete.muehlleitner@cern.ch           |
#              |           michael.spira@psi.ch                     |
#              |           abdelhak.djouadi@cern.ch                 |
#              ------------------------------------------------------
#
#              ------------------------------------------------------
#              |  SUSY Les Houches Accord - MSSM Spectrum + Decays  |
#              |              based on the decay programs           |
#              |                                                    |
#              |                     SDECAY 1.3b                    |
#              |                                                    |
#              |  Authors: M.Muhlleitner, A.Djouadi and Y.Mambrini  |
#              |  Ref.:    Comput.Phys.Commun.168(2005)46           |
#              |           [hep-ph/0311167]                         |
#              |                                                    |
#              |                     HDECAY 3.4                     |
#              |                                                    |
#              |  By: A.Djouadi,J.Kalinowski,M.Muhlleitner,M.Spira  |
#              |  Ref.:    Comput.Phys.Commun.108(1998)56           |
#              |           [hep-ph/9704448]                         |
#              |                                                    |
#              |                                                    |
#              |  If not stated otherwise all DRbar couplings and   |
#              |  soft SUSY breaking masses are given at the scale  |
#              |  Q=  0.50007095E+04
#              |                                                    |
#              ------------------------------------------------------
#
#
BLOCK DCINFO  # Decay Program information
     1   SDECAY/HDECAY # decay calculator
     2   1.3b  /3.4    # version number
#
BLOCK SPINFO  # Spectrum calculator information
     1    SOFTSUSY    # spectrum calculator                
     2    3.4.0       # version number                     
#
BLOCK MODSEL  # Model selection
     1     0   #  nonUniversal                                     
#
BLOCK SMINPUTS  # Standard Model inputs
         1     1.25778332E+02   # alpha_em^-1(M_Z)^MSbar
         2     1.16570000E-05   # G_F [GeV^-2]
         3     1.17200002E-01   # alpha_S(M_Z)^MSbar
         4     9.11876000E+01   # M_Z pole mass
         5     4.25000000E+00   # mb(mb)^MSbar
         6     1.72500000E+02   # mt pole mass
         7     1.77682000E+00   # mtau pole mass
#
BLOCK MINPAR  # Input parameters - minimal models
         3     1.00000000E+01   # tanb                
#
BLOCK EXTPAR  # Input parameters - non-minimal models
         0    -1.00000000E+00   # Set                 
         1     6.00000000E+01   # M_1(MX)             
         2     3.00000000E+03   # M_2(MX)             
         3     2.23498000E+03   # M_3(MX)             
        11     5.00000000E+03   # At(MX)              
        12     5.00000000E+03   # Ab(MX)              
        13     0.00000000E+00   # Atau(MX)            
        23    -1.74040900E+03   # mu(MX)              
        26     3.00000000E+03   # mA(pole)            
        31     5.00000000E+03   # meL(MX)             
        32     5.00000000E+03   # mmuL(MX)            
        33     5.00000000E+03   # mtauL(MX)           
        34     5.00000000E+03   # meR(MX)             
        35     5.00000000E+03   # mmuR(MX)            
        36     5.00000000E+03   # mtauR(MX)           
        41     5.00000000E+03   # mqL1(MX)            
        42     5.00000000E+03   # mqL2(MX)            
        43     5.00000000E+03   # mqL3(MX)            
        44     5.00000000E+03   # muR(MX)             
        45     5.00000000E+03   # mcR(MX)             
        46     5.00000000E+03   # mtR(MX)             
        47     5.00000000E+03   # mdR(MX)             
        48     5.00000000E+03   # msR(MX)             
        49     5.00000000E+03   # mbR(MX)             
#
BLOCK MASS  # Mass Spectrum
# PDG code           mass       particle
        24     8.00974447E+01   # W+
        25     1.24830634E+02   # h
        35     3.00007871E+03   # H
        36     2.99999995E+03   # A
        37     3.00087227E+03   # H+
         5     4.87878001E+00   # b-quark pole mass calculated from mb(mb)_Msbar
   1000001     5.08187410E+03   # ~d_L
   2000001     5.06414567E+03   # ~d_R
   1000002     5.08140352E+03   # ~u_L
   2000002     5.06387598E+03   # ~u_R
   1000003     5.08187410E+03   # ~s_L
   2000003     5.06414567E+03   # ~s_R
   1000004     5.08140352E+03   # ~c_L
   2000004     5.06387598E+03   # ~c_R
   1000005     5.02822192E+03   # ~b_1
   2000005     5.06319011E+03   # ~b_2
   1000006     4.92104513E+03   # ~t_1
   2000006     5.07399346E+03   # ~t_2
   1000011     5.01903678E+03   # ~e_L
   2000011     5.00590488E+03   # ~e_R
   1000012     5.01808908E+03   # ~nu_eL
   1000013     5.01903678E+03   # ~mu_L
   2000013     5.00590488E+03   # ~mu_R
   1000014     5.01808908E+03   # ~nu_muL
   1000015     5.00419089E+03   # ~tau_1
   2000015     5.01918820E+03   # ~tau_2
   1000016     5.01755609E+03   # ~nu_tauL
   1000021     2.60000013E+03   # ~g
   1000022     6.03012913E+01   # ~chi_10
   1000023     1.79940045E+03   # ~chi_20
   1000025    -1.80211891E+03   # ~chi_30
   1000035     3.07438039E+03   # ~chi_40
   1000024     1.80000002E+03   # ~chi_1+
   1000037     3.07454802E+03   # ~chi_2+
#
BLOCK NMIX  # Neutralino Mixing Matrix
  1  1     9.99691073E-01   # N_11
  1  2     1.21513766E-04   # N_12
  1  3    -2.47912004E-02   # N_13
  1  4     1.77216500E-03   # N_14
  2  1     1.62720695E-02   # N_21
  2  2     3.81604418E-02   # N_22
  2  3     7.06828421E-01   # N_23
  2  4     7.06167532E-01   # N_24
  3  1    -1.87808249E-02   # N_31
  3  2     1.24382252E-02   # N_32
  3  3    -7.06716314E-01   # N_33
  3  4     7.07138333E-01   # N_34
  4  1    -5.09235800E-04   # N_41
  4  2     9.99194204E-01   # N_42
  4  3    -1.81942365E-02   # N_43
  4  4    -3.57722514E-02   # N_44
#
BLOCK UMIX  # Chargino Mixing Matrix U
  1  1     2.57121676E-02   # U_11
  1  2     9.99669388E-01   # U_12
  2  1    -9.99669388E-01   # U_21
  2  2     2.57121676E-02   # U_22
#
BLOCK VMIX  # Chargino Mixing Matrix V
  1  1     5.05759577E-02   # V_11
  1  2    -9.98720217E-01   # V_12
  2  1    -9.98720217E-01   # V_21
  2  2    -5.05759577E-02   # V_22
#
BLOCK STOPMIX  # Stop Mixing Matrix
  1  1    -5.11867587E-01   # cos(theta_t)
  1  2     8.59064359E-01   # sin(theta_t)
  2  1    -8.59064359E-01   # -sin(theta_t)
  2  2    -5.11867587E-01   # cos(theta_t)
#
BLOCK SBOTMIX  # Sbottom Mixing Matrix
  1  1     9.92426685E-01   # cos(theta_b)
  1  2    -1.22838410E-01   # sin(theta_b)
  2  1     1.22838410E-01   # -sin(theta_b)
  2  2     9.92426685E-01   # cos(theta_b)
#
BLOCK STAUMIX  # Stau Mixing Matrix
  1  1    -1.98999837E-01   # cos(theta_tau)
  1  2     9.79999523E-01   # sin(theta_tau)
  2  1    -9.79999523E-01   # -sin(theta_tau)
  2  2    -1.98999837E-01   # cos(theta_tau)
#
BLOCK ALPHA  # Higgs mixing
          -1.05467011E-01   # Mixing angle in the neutral Higgs boson sector
#
BLOCK HMIX Q=  5.00070950E+03  # DRbar Higgs Parameters
         1    -1.77250221E+03   # mu(Q)MSSM           
         2     9.46993234E+00   # tan                 
         3     2.42017655E+02   # higgs               
         4     8.35577700E+06   # mA^2(Q)MSSM         
#
BLOCK GAUGE Q=  5.00070950E+03  # The gauge couplings
     1     3.70647709E-01   # gprime(Q) DRbar
     2     6.31847813E-01   # g(Q) DRbar
     3     9.94620296E-01   # g3(Q) DRbar
#
BLOCK AU Q=  5.00070950E+03  # The trilinear couplings
  1  1     5.00000002E+03   # A_u(Q) DRbar
  2  2     5.00000002E+03   # A_c(Q) DRbar
  3  3     5.00000002E+03   # A_t(Q) DRbar
#
BLOCK AD Q=  5.00070950E+03  # The trilinear couplings
  1  1     5.00000001E+03   # A_d(Q) DRbar
  2  2     5.00000001E+03   # A_s(Q) DRbar
  3  3     5.00000001E+03   # A_b(Q) DRbar
#
BLOCK AE Q=  5.00070950E+03  # The trilinear couplings
  1  1     0.00000000E+00   # A_e(Q) DRbar
  2  2     2.70296245E-07   # A_mu(Q) DRbar
  3  3     2.70295954E-07   # A_tau(Q) DRbar
#
BLOCK Yu Q=  5.00070950E+03  # The Yukawa couplings
  1  1     0.00000000E+00   # y_u(Q) DRbar
  2  2     0.00000000E+00   # y_c(Q) DRbar
  3  3     8.20756041E-01   # y_t(Q) DRbar
#
BLOCK Yd Q=  5.00070950E+03  # The Yukawa couplings
  1  1     0.00000000E+00   # y_d(Q) DRbar
  2  2     0.00000000E+00   # y_s(Q) DRbar
  3  3     1.32254621E-01   # y_b(Q) DRbar
#
BLOCK Ye Q=  5.00070950E+03  # The Yukawa couplings
  1  1     0.00000000E+00   # y_e(Q) DRbar
  2  2     0.00000000E+00   # y_mu(Q) DRbar
  3  3     9.65142832E-02   # y_tau(Q) DRbar
#
BLOCK MSOFT Q=  5.00070950E+03  # The soft SUSY breaking masses at the scale Q
         1     6.00000000E+01   # M_1(Q)              
         2     3.00000000E+03   # M_2(Q)              
         3     2.23498000E+03   # M_3(Q)              
        21     5.51243649E+06   # mH1^2(Q)            
        22    -2.60160097E+06   # mH2^2(Q)            
        31     5.00000000E+03   # meL(Q)              
        32     5.00000000E+03   # mmuL(Q)             
        33     5.00000000E+03   # mtauL(Q)            
        34     5.00000000E+03   # meR(Q)              
        35     5.00000000E+03   # mmuR(Q)             
        36     5.00000000E+03   # mtauR(Q)            
        41     4.99999999E+03   # mqL1(Q)             
        42     4.99999999E+03   # mqL2(Q)             
        43     4.99999999E+03   # mqL3(Q)             
        44     4.99999999E+03   # muR(Q)              
        45     4.99999999E+03   # mcR(Q)              
        46     4.99999999E+03   # mtR(Q)              
        47     4.99999999E+03   # mdR(Q)              
        48     4.99999999E+03   # msR(Q)              
        49     4.99999999E+03   # mbR(Q)              
#
#
#
#                             =================
#                             |The decay table|
#                             =================
#
# - The QCD corrections to the decays gluino -> squark  + quark
#                                     squark -> gaugino + quark_prime
#                                     squark -> squark_prime + Higgs
#                                     squark -> gluino  + quark
#   are included.
#
# - The multi-body decays for the inos, stops and sbottoms are included.
#
# - The loop induced decays for the gluino, neutralinos and stops
#   are included.
#
# - The SUSY decays of the top quark are included.
#
#
#         PDG            Width
DECAY         6     1.39893657E+00   # top decays
#          BR         NDA      ID1       ID2
     1.00000000E+00    2           5        24   # BR(t ->  b    W+)
#
#         PDG            Width
DECAY   1000021     1.44786827E-03   # gluino decays
#          BR         NDA      ID1       ID2
     5.59211439E-06    2     1000022        21   # BR(~g -> ~chi_10 g)
     4.09552774E-03    2     1000023        21   # BR(~g -> ~chi_20 g)
     4.11301822E-03    2     1000025        21   # BR(~g -> ~chi_30 g)
#           BR         NDA      ID1       ID2       ID3
     6.45721183E-02    3     1000022         1        -1   # BR(~g -> ~chi_10 d  db)
     1.54489481E-05    3     1000023         1        -1   # BR(~g -> ~chi_20 d  db)
     1.32804230E-06    3     1000025         1        -1   # BR(~g -> ~chi_30 d  db)
     2.20156514E-01    3     1000022         2        -2   # BR(~g -> ~chi_10 u  ub)
     2.29016111E-05    3     1000023         2        -2   # BR(~g -> ~chi_20 u  ub)
     1.25228642E-06    3     1000025         2        -2   # BR(~g -> ~chi_30 u  ub)
     6.45721183E-02    3     1000022         3        -3   # BR(~g -> ~chi_10 s  sb)
     1.54489481E-05    3     1000023         3        -3   # BR(~g -> ~chi_20 s  sb)
     1.32804230E-06    3     1000025         3        -3   # BR(~g -> ~chi_30 s  sb)
     2.20156514E-01    3     1000022         4        -4   # BR(~g -> ~chi_10 c  cb)
     2.29016111E-05    3     1000023         4        -4   # BR(~g -> ~chi_20 c  cb)
     1.25228642E-06    3     1000025         4        -4   # BR(~g -> ~chi_30 c  cb)
     6.53586828E-02    3     1000022         5        -5   # BR(~g -> ~chi_10 b  bb)
     1.14249703E-03    3     1000023         5        -5   # BR(~g -> ~chi_20 b  bb)
     1.10479667E-03    3     1000025         5        -5   # BR(~g -> ~chi_30 b  bb)
     2.25427989E-01    3     1000022         6        -6   # BR(~g -> ~chi_10 t  tb)
     3.21612023E-02    3     1000023         6        -6   # BR(~g -> ~chi_20 t  tb)
     2.40166053E-02    3     1000025         6        -6   # BR(~g -> ~chi_30 t  tb)
     3.67660423E-05    3     1000024         1        -2   # BR(~g -> ~chi_1+ d  ub)
     3.67660423E-05    3    -1000024         2        -1   # BR(~g -> ~chi_1- u  db)
     3.67660423E-05    3     1000024         3        -4   # BR(~g -> ~chi_1+ s  cb)
     3.67660423E-05    3    -1000024         4        -3   # BR(~g -> ~chi_1- c  sb)
     3.64439494E-02    3     1000024         5        -6   # BR(~g -> ~chi_1+ b  tb)
     3.64439494E-02    3    -1000024         6        -5   # BR(~g -> ~chi_1- t  bb)
#
#         PDG            Width
DECAY   1000006     2.64611795E+02   # stop1 decays
#          BR         NDA      ID1       ID2
     3.33097531E-02    2     1000022         6   # BR(~t_1 -> ~chi_10 t )
     9.32646497E-02    2     1000023         6   # BR(~t_1 -> ~chi_20 t )
     8.95563810E-02    2     1000025         6   # BR(~t_1 -> ~chi_30 t )
     8.37262316E-03    2     1000035         6   # BR(~t_1 -> ~chi_40 t )
     1.34511091E-01    2     1000024         5   # BR(~t_1 -> ~chi_1+ b )
     1.66220703E-02    2     1000037         5   # BR(~t_1 -> ~chi_2+ b )
     6.24363431E-01    2     1000021         6   # BR(~t_1 -> ~g      t )
#
#         PDG            Width
DECAY   2000006     2.80619953E+02   # stop2 decays
#          BR         NDA      ID1       ID2
     1.25023313E-02    2     1000022         6   # BR(~t_2 -> ~chi_10 t )
     9.20723044E-02    2     1000023         6   # BR(~t_2 -> ~chi_20 t )
     9.59072781E-02    2     1000025         6   # BR(~t_2 -> ~chi_30 t )
     1.95112034E-02    2     1000035         6   # BR(~t_2 -> ~chi_40 t )
     5.65161071E-02    2     1000024         5   # BR(~t_2 -> ~chi_1+ b )
     3.86556180E-02    2     1000037         5   # BR(~t_2 -> ~chi_2+ b )
     6.80365453E-01    2     1000021         6   # BR(~t_2 -> ~g      t )
     9.76024419E-04    2     1000006        25   # BR(~t_2 -> ~t_1    h )
     3.49367976E-03    2     1000006        23   # BR(~t_2 -> ~t_1    Z )
#
#         PDG            Width
DECAY   1000005     2.56636998E+02   # sbottom1 decays
#          BR         NDA      ID1       ID2
     3.06896875E-03    2     1000022         5   # BR(~b_1 -> ~chi_10 b )
     2.74122870E-03    2     1000023         5   # BR(~b_1 -> ~chi_20 b )
     2.53217868E-03    2     1000025         5   # BR(~b_1 -> ~chi_30 b )
     2.91856482E-02    2     1000035         5   # BR(~b_1 -> ~chi_40 b )
     1.95781028E-01    2    -1000024         6   # BR(~b_1 -> ~chi_1- t )
     5.88766170E-02    2    -1000037         6   # BR(~b_1 -> ~chi_2- t )
     7.05782596E-01    2     1000021         5   # BR(~b_1 -> ~g      b )
     2.03173407E-03    2     1000006       -24   # BR(~b_1 -> ~t_1    W-)
#
#         PDG            Width
DECAY   2000005     1.90786963E+02   # sbottom2 decays
#          BR         NDA      ID1       ID2
     1.52672690E-02    2     1000022         5   # BR(~b_2 -> ~chi_10 b )
     3.41268259E-03    2     1000023         5   # BR(~b_2 -> ~chi_20 b )
     3.61406348E-03    2     1000025         5   # BR(~b_2 -> ~chi_30 b )
     6.39576193E-04    2     1000035         5   # BR(~b_2 -> ~chi_40 b )
     1.08561619E-02    2    -1000024         6   # BR(~b_2 -> ~chi_1- t )
     1.28916277E-03    2    -1000037         6   # BR(~b_2 -> ~chi_2- t )
     9.64735439E-01    2     1000021         5   # BR(~b_2 -> ~g      b )
     1.85644771E-04    2     1000006       -24   # BR(~b_2 -> ~t_1    W-)
#
#         PDG            Width
DECAY   1000002     2.10023832E+02   # sup_L decays
#          BR         NDA      ID1       ID2
     3.54529448E-03    2     1000022         2   # BR(~u_L -> ~chi_10 u)
     1.21675168E-04    2     1000023         2   # BR(~u_L -> ~chi_20 u)
     5.46552874E-06    2     1000025         2   # BR(~u_L -> ~chi_30 u)
     3.75077653E-02    2     1000035         2   # BR(~u_L -> ~chi_40 u)
     3.64124627E-04    2     1000024         1   # BR(~u_L -> ~chi_1+ d)
     7.49499587E-02    2     1000037         1   # BR(~u_L -> ~chi_2+ d)
     8.83505716E-01    2     1000021         2   # BR(~u_L -> ~g      u)
#
#         PDG            Width
DECAY   2000002     1.95871226E+02   # sup_R decays
#          BR         NDA      ID1       ID2
     6.05339285E-02    2     1000022         2   # BR(~u_R -> ~chi_10 u)
     1.22968772E-05    2     1000023         2   # BR(~u_R -> ~chi_20 u)
     1.63667112E-05    2     1000025         2   # BR(~u_R -> ~chi_30 u)
     6.31908942E-09    2     1000035         2   # BR(~u_R -> ~chi_40 u)
     9.39437402E-01    2     1000021         2   # BR(~u_R -> ~g      u)
#
#         PDG            Width
DECAY   1000001     2.10042675E+02   # sdown_L decays
#          BR         NDA      ID1       ID2
     3.53650695E-03    2     1000022         1   # BR(~d_L -> ~chi_10 d)
     8.71054475E-05    2     1000023         1   # BR(~d_L -> ~chi_20 d)
     1.84623129E-05    2     1000025         1   # BR(~d_L -> ~chi_30 d)
     3.75308049E-02    2     1000035         1   # BR(~d_L -> ~chi_40 d)
     9.41160947E-05    2    -1000024         2   # BR(~d_L -> ~chi_1- u)
     7.51086729E-02    2    -1000037         2   # BR(~d_L -> ~chi_2- u)
     8.83624331E-01    2     1000021         1   # BR(~d_L -> ~g      d)
#
#         PDG            Width
DECAY   2000001     1.86998367E+02   # sdown_R decays
#          BR         NDA      ID1       ID2
     1.58524102E-02    2     1000022         1   # BR(~d_R -> ~chi_10 d)
     3.22035966E-06    2     1000023         1   # BR(~d_R -> ~chi_20 d)
     4.28618592E-06    2     1000025         1   # BR(~d_R -> ~chi_30 d)
     1.65502339E-09    2     1000035         1   # BR(~d_R -> ~chi_40 d)
     9.84140082E-01    2     1000021         1   # BR(~d_R -> ~g      d)
#
#         PDG            Width
DECAY   1000004     2.10023832E+02   # scharm_L decays
#          BR         NDA      ID1       ID2
     3.54529448E-03    2     1000022         4   # BR(~c_L -> ~chi_10 c)
     1.21675168E-04    2     1000023         4   # BR(~c_L -> ~chi_20 c)
     5.46552874E-06    2     1000025         4   # BR(~c_L -> ~chi_30 c)
     3.75077653E-02    2     1000035         4   # BR(~c_L -> ~chi_40 c)
     3.64124627E-04    2     1000024         3   # BR(~c_L -> ~chi_1+ s)
     7.49499587E-02    2     1000037         3   # BR(~c_L -> ~chi_2+ s)
     8.83505716E-01    2     1000021         4   # BR(~c_L -> ~g      c)
#
#         PDG            Width
DECAY   2000004     1.95871226E+02   # scharm_R decays
#          BR         NDA      ID1       ID2
     6.05339285E-02    2     1000022         4   # BR(~c_R -> ~chi_10 c)
     1.22968772E-05    2     1000023         4   # BR(~c_R -> ~chi_20 c)
     1.63667112E-05    2     1000025         4   # BR(~c_R -> ~chi_30 c)
     6.31908942E-09    2     1000035         4   # BR(~c_R -> ~chi_40 c)
     9.39437402E-01    2     1000021         4   # BR(~c_R -> ~g      c)
#
#         PDG            Width
DECAY   1000003     2.10042675E+02   # sstrange_L decays
#          BR         NDA      ID1       ID2
     3.53650695E-03    2     1000022         3   # BR(~s_L -> ~chi_10 s)
     8.71054475E-05    2     1000023         3   # BR(~s_L -> ~chi_20 s)
     1.84623129E-05    2     1000025         3   # BR(~s_L -> ~chi_30 s)
     3.75308049E-02    2     1000035         3   # BR(~s_L -> ~chi_40 s)
     9.41160947E-05    2    -1000024         4   # BR(~s_L -> ~chi_1- c)
     7.51086729E-02    2    -1000037         4   # BR(~s_L -> ~chi_2- c)
     8.83624331E-01    2     1000021         3   # BR(~s_L -> ~g      s)
#
#         PDG            Width
DECAY   2000003     1.86998367E+02   # sstrange_R decays
#          BR         NDA      ID1       ID2
     1.58524102E-02    2     1000022         3   # BR(~s_R -> ~chi_10 s)
     3.22035966E-06    2     1000023         3   # BR(~s_R -> ~chi_20 s)
     4.28618592E-06    2     1000025         3   # BR(~s_R -> ~chi_30 s)
     1.65502339E-09    2     1000035         3   # BR(~s_R -> ~chi_40 s)
     9.84140082E-01    2     1000021         3   # BR(~s_R -> ~g      s)
#
#         PDG            Width
DECAY   1000011     3.02221617E+01   # selectron_L decays
#          BR         NDA      ID1       ID2
     2.26831750E-01    2     1000022        11   # BR(~e_L -> ~chi_10 e-)
     1.13989256E-03    2     1000023        11   # BR(~e_L -> ~chi_20 e-)
     1.01078280E-06    2     1000025        11   # BR(~e_L -> ~chi_30 e-)
     2.56878741E-01    2     1000035        11   # BR(~e_L -> ~chi_40 e-)
     6.62130785E-04    2    -1000024        12   # BR(~e_L -> ~chi_1- nu_e)
     5.14486475E-01    2    -1000037        12   # BR(~e_L -> ~chi_2- nu_e)
#
#         PDG            Width
DECAY   2000011     2.73510739E+01   # selectron_R decays
#          BR         NDA      ID1       ID2
     9.99531697E-01    2     1000022        11   # BR(~e_R -> ~chi_10 e-)
     2.00865393E-04    2     1000023        11   # BR(~e_R -> ~chi_20 e-)
     2.67336997E-04    2     1000025        11   # BR(~e_R -> ~chi_30 e-)
     1.00635752E-07    2     1000035        11   # BR(~e_R -> ~chi_40 e-)
#
#         PDG            Width
DECAY   1000013     3.02221617E+01   # smuon_L decays
#          BR         NDA      ID1       ID2
     2.26831750E-01    2     1000022        13   # BR(~mu_L -> ~chi_10 mu-)
     1.13989256E-03    2     1000023        13   # BR(~mu_L -> ~chi_20 mu-)
     1.01078280E-06    2     1000025        13   # BR(~mu_L -> ~chi_30 mu-)
     2.56878741E-01    2     1000035        13   # BR(~mu_L -> ~chi_40 mu-)
     6.62130785E-04    2    -1000024        14   # BR(~mu_L -> ~chi_1- nu_mu)
     5.14486475E-01    2    -1000037        14   # BR(~mu_L -> ~chi_2- nu_mu)
#
#         PDG            Width
DECAY   2000013     2.73510739E+01   # smuon_R decays
#          BR         NDA      ID1       ID2
     9.99531697E-01    2     1000022        13   # BR(~mu_R -> ~chi_10 mu-)
     2.00865393E-04    2     1000023        13   # BR(~mu_R -> ~chi_20 mu-)
     2.67336997E-04    2     1000025        13   # BR(~mu_R -> ~chi_30 mu-)
     1.00635752E-07    2     1000035        13   # BR(~mu_R -> ~chi_40 mu-)
#
#         PDG            Width
DECAY   1000015     2.88629688E+01   # stau_1 decays
#          BR         NDA      ID1       ID2
     9.19592667E-01    2     1000022        15   # BR(~tau_1 -> ~chi_10  tau-)
     1.32894121E-02    2     1000023        15   # BR(~tau_1 -> ~chi_20  tau-)
     1.16691928E-02    2     1000025        15   # BR(~tau_1 -> ~chi_30  tau-)
     1.01398241E-02    2     1000035        15   # BR(~tau_1 -> ~chi_40  tau-)
     2.49992908E-02    2    -1000024        16   # BR(~tau_1 -> ~chi_1-  nu_tau)
     2.03096137E-02    2    -1000037        16   # BR(~tau_1 -> ~chi_2-  nu_tau)
#
#         PDG            Width
DECAY   2000015     3.08082985E+01   # stau_2 decays
#          BR         NDA      ID1       ID2
     2.48172487E-01    2     1000022        15   # BR(~tau_2 -> ~chi_10  tau-)
     1.16999901E-02    2     1000023        15   # BR(~tau_2 -> ~chi_20  tau-)
     1.21391589E-02    2     1000025        15   # BR(~tau_2 -> ~chi_30  tau-)
     2.42426669E-01    2     1000035        15   # BR(~tau_2 -> ~chi_40  tau-)
     2.64564581E-05    2    -1000024        16   # BR(~tau_2 -> ~chi_1-  nu_tau)
     4.85535239E-01    2    -1000037        16   # BR(~tau_2 -> ~chi_2-  nu_tau)
#
#         PDG            Width
DECAY   1000012     3.02236195E+01   # snu_eL decays
#          BR         NDA      ID1       ID2
     2.26590071E-01    2     1000022        12   # BR(~nu_eL -> ~chi_10 nu_e)
     4.09978312E-04    2     1000023        12   # BR(~nu_eL -> ~chi_20 nu_e)
     2.75208703E-04    2     1000025        12   # BR(~nu_eL -> ~chi_30 nu_e)
     2.57008502E-01    2     1000035        12   # BR(~nu_eL -> ~chi_40 nu_e)
     2.56096261E-03    2     1000024        11   # BR(~nu_eL -> ~chi_1+ e-)
     5.13155277E-01    2     1000037        11   # BR(~nu_eL -> ~chi_2+ e-)
#
#         PDG            Width
DECAY   1000014     3.02236195E+01   # snu_muL decays
#          BR         NDA      ID1       ID2
     2.26590071E-01    2     1000022        14   # BR(~nu_muL -> ~chi_10 nu_mu)
     4.09978312E-04    2     1000023        14   # BR(~nu_muL -> ~chi_20 nu_mu)
     2.75208703E-04    2     1000025        14   # BR(~nu_muL -> ~chi_30 nu_mu)
     2.57008502E-01    2     1000035        14   # BR(~nu_muL -> ~chi_40 nu_mu)
     2.56096261E-03    2     1000024        13   # BR(~nu_muL -> ~chi_1+ mu-)
     5.13155277E-01    2     1000037        13   # BR(~nu_muL -> ~chi_2+ mu-)
#
#         PDG            Width
DECAY   1000016     3.09201791E+01   # snu_tauL decays
#          BR         NDA      ID1       ID2
     2.21461987E-01    2     1000022        16   # BR(~nu_tauL -> ~chi_10 nu_tau)
     4.00674769E-04    2     1000023        16   # BR(~nu_tauL -> ~chi_20 nu_tau)
     2.68963397E-04    2     1000025        16   # BR(~nu_tauL -> ~chi_30 nu_tau)
     2.51127883E-01    2     1000035        16   # BR(~nu_tauL -> ~chi_40 nu_tau)
     2.53220682E-02    2     1000024        15   # BR(~nu_tauL -> ~chi_1+ tau-)
     5.01418424E-01    2     1000037        15   # BR(~nu_tauL -> ~chi_2+ tau-)
#
#         PDG            Width
DECAY   1000024     1.11023966E+00   # chargino1+ decays
#          BR         NDA      ID1       ID2
     1.00000000E+00    2     1000022        24   # BR(~chi_1+ -> ~chi_10  W+)
#
#         PDG            Width
DECAY   1000037     1.67621503E+01   # chargino2+ decays
#          BR         NDA      ID1       ID2
     2.52285791E-01    2     1000024        23   # BR(~chi_2+ -> ~chi_1+  Z )
     3.54599511E-04    2     1000022        24   # BR(~chi_2+ -> ~chi_10  W+)
     2.44525170E-01    2     1000023        24   # BR(~chi_2+ -> ~chi_20  W+)
     2.43230476E-01    2     1000025        24   # BR(~chi_2+ -> ~chi_30  W+)
     2.59603823E-01    2     1000024        25   # BR(~chi_2+ -> ~chi_1+  h )
     1.39746358E-07    2     1000022        37   # BR(~chi_2+ -> ~chi_10  H+)
#
#         PDG            Width
DECAY   1000022     0.00000000E+00   # neutralino1 decays
#
#         PDG            Width
DECAY   1000023     1.16863836E+00   # neutralino2 decays
#          BR         NDA      ID1       ID2
     5.62410358E-01    2     1000022        23   # BR(~chi_20 -> ~chi_10   Z )
     4.37589642E-01    2     1000022        25   # BR(~chi_20 -> ~chi_10   h )
#
#         PDG            Width
DECAY   1000025     1.18202133E+00   # neutralino3 decays
#          BR         NDA      ID1       ID2
     4.18906038E-01    2     1000022        23   # BR(~chi_30 -> ~chi_10   Z )
     5.81093962E-01    2     1000022        25   # BR(~chi_30 -> ~chi_10   h )
#
#         PDG            Width
DECAY   1000035     1.67400426E+01   # neutralino4 decays
#          BR         NDA      ID1       ID2
     1.47301053E-04    2     1000022        23   # BR(~chi_40 -> ~chi_10   Z )
     2.45204964E-02    2     1000023        23   # BR(~chi_40 -> ~chi_20   Z )
     2.27739069E-01    2     1000025        23   # BR(~chi_40 -> ~chi_30   Z )
     2.43932837E-01    2     1000024       -24   # BR(~chi_40 -> ~chi_1+   W-)
     2.43932837E-01    2    -1000024        24   # BR(~chi_40 -> ~chi_1-   W+)
     2.19466693E-04    2     1000022        25   # BR(~chi_40 -> ~chi_10   h )
     1.20390304E-07    2     1000022        35   # BR(~chi_40 -> ~chi_10   H )
     2.46530962E-08    2     1000022        36   # BR(~chi_40 -> ~chi_10   A )
     2.35160303E-01    2     1000023        25   # BR(~chi_40 -> ~chi_20   h )
     2.43475450E-02    2     1000025        25   # BR(~chi_40 -> ~chi_30   h )
#
#         PDG            Width
DECAY        25     4.03427389E-03   # h decays
#          BR         NDA      ID1       ID2
     6.04366348E-01    2           5        -5   # BR(h -> b       bb     )
     6.43144488E-02    2         -15        15   # BR(h -> tau+    tau-   )
     2.27696280E-04    2         -13        13   # BR(h -> mu+     mu-    )
     4.82660240E-04    2           3        -3   # BR(h -> s       sb     )
     2.09168998E-02    2           4        -4   # BR(h -> c       cb     )
     6.77269640E-02    2          21        21   # BR(h -> g       g      )
     2.33019261E-03    2          22        22   # BR(h -> gam     gam    )
     1.50731704E-03    2          22        23   # BR(h -> Z       gam    )
     2.12720744E-01    2          24       -24   # BR(h -> W+      W-     )
     2.53814258E-02    2          23        23   # BR(h -> Z       Z      )
     2.53031638E-05    2     1000022   1000022   # BR(h -> ~chi_10 ~chi_10)
#
#         PDG            Width
DECAY        35     6.72728127E+00   # H decays
#          BR         NDA      ID1       ID2
     4.89846977E-01    2           5        -5   # BR(H -> b       bb     )
     8.28153554E-02    2         -15        15   # BR(H -> tau+    tau-   )
     2.92841675E-04    2         -13        13   # BR(H -> mu+     mu-    )
     3.58979067E-04    2           3        -3   # BR(H -> s       sb     )
     2.00771171E-06    2           4        -4   # BR(H -> c       cb     )
     2.00586297E-01    2           6        -6   # BR(H -> t       tb     )
     6.65593699E-05    2          21        21   # BR(H -> g       g      )
     3.86240838E-07    2          22        22   # BR(H -> gam     gam    )
     1.18497179E-07    2          23        22   # BR(H -> Z       gam    )
     8.82885869E-05    2          24       -24   # BR(H -> W+      W-     )
     4.40884284E-05    2          23        23   # BR(H -> Z       Z      )
     3.35536369E-04    2          25        25   # BR(H -> h       h      )
     1.23885399E-23    2          36        36   # BR(H -> A       A      )
     3.15781999E-19    2          23        36   # BR(H -> Z       A      )
     6.62954273E-04    2     1000022   1000022   # BR(H -> ~chi_10 ~chi_10)
     1.32466175E-01    2     1000022   1000023   # BR(H -> ~chi_10 ~chi_20)
     9.24334362E-02    2     1000022   1000025   # BR(H -> ~chi_10 ~chi_30)
#
#         PDG            Width
DECAY        36     6.73036189E+00   # A decays
#          BR         NDA      ID1       ID2
     4.89785591E-01    2           5        -5   # BR(A -> b       bb     )
     8.27799349E-02    2         -15        15   # BR(A -> tau+    tau-   )
     2.92716016E-04    2         -13        13   # BR(A -> mu+     mu-    )
     3.59087198E-04    2           3        -3   # BR(A -> s       sb     )
     2.01524086E-06    2           4        -4   # BR(A -> c       cb     )
     2.01227436E-01    2           6        -6   # BR(A -> t       tb     )
     1.99134762E-04    2          21        21   # BR(A -> g       g      )
     3.71903886E-07    2          22        22   # BR(A -> gam     gam    )
     2.41297633E-07    2          23        22   # BR(A -> Z       gam    )
     8.79145130E-05    2          23        25   # BR(A -> Z       h      )
     6.84115267E-04    2     1000022   1000022   # BR(A -> ~chi_10 ~chi_10)
     9.35092874E-02    2     1000022   1000023   # BR(A -> ~chi_10 ~chi_20)
     1.31072155E-01    2     1000022   1000025   # BR(A -> ~chi_10 ~chi_30)
#
#         PDG            Width
DECAY        37     6.75577268E+00   # H+ decays
#          BR         NDA      ID1       ID2
     7.91254794E-04    2           4        -5   # BR(H+ -> c       bb     )
     8.24925508E-02    2         -15        16   # BR(H+ -> tau+    nu_tau )
     2.91699804E-04    2         -13        14   # BR(H+ -> mu+     nu_mu  )
     5.06400512E-06    2           2        -5   # BR(H+ -> u       bb     )
     1.71163376E-05    2           2        -3   # BR(H+ -> u       sb     )
     3.53966841E-04    2           4        -3   # BR(H+ -> c       sb     )
     6.90792525E-01    2           6        -5   # BR(H+ -> t       bb     )
     8.77164942E-05    2          24        25   # BR(H+ -> W+      h      )
     9.82622805E-14    2          24        36   # BR(H+ -> W+      A      )
     2.25168106E-01    2     1000024   1000022   # BR(H+ -> ~chi_1+ ~chi_10)
