#
#                              ======================
#                              | THE SUSYHIT OUTPUT |
#                              ======================
#
#
#              ------------------------------------------------------
#              |     This is the output of the SUSY-HIT package     |
#              |  created by A.Djouadi, M.Muehlleitner and M.Spira. |
#              |  In case of problems with SUSY-HIT email to        |
#              |           margarete.muehlleitner@cern.ch           |
#              |           michael.spira@psi.ch                     |
#              |           abdelhak.djouadi@cern.ch                 |
#              ------------------------------------------------------
#
#              ------------------------------------------------------
#              |  SUSY Les Houches Accord - MSSM Spectrum + Decays  |
#              |              based on the decay programs           |
#              |                                                    |
#              |                     SDECAY 1.3b                    |
#              |                                                    |
#              |  Authors: M.Muhlleitner, A.Djouadi and Y.Mambrini  |
#              |  Ref.:    Comput.Phys.Commun.168(2005)46           |
#              |           [hep-ph/0311167]                         |
#              |                                                    |
#              |                     HDECAY 3.4                     |
#              |                                                    |
#              |  By: A.Djouadi,J.Kalinowski,M.Muhlleitner,M.Spira  |
#              |  Ref.:    Comput.Phys.Commun.108(1998)56           |
#              |           [hep-ph/9704448]                         |
#              |                                                    |
#              |                                                    |
#              |  If not stated otherwise all DRbar couplings and   |
#              |  soft SUSY breaking masses are given at the scale  |
#              |  Q=  0.50007597E+04
#              |                                                    |
#              ------------------------------------------------------
#
#
BLOCK DCINFO  # Decay Program information
     1   SDECAY/HDECAY # decay calculator
     2   1.3b  /3.4    # version number
#
BLOCK SPINFO  # Spectrum calculator information
     1    SOFTSUSY    # spectrum calculator                
     2    3.4.0       # version number                     
#
BLOCK MODSEL  # Model selection
     1     0   #  nonUniversal                                     
#
BLOCK SMINPUTS  # Standard Model inputs
         1     1.25778332E+02   # alpha_em^-1(M_Z)^MSbar
         2     1.16570000E-05   # G_F [GeV^-2]
         3     1.17200002E-01   # alpha_S(M_Z)^MSbar
         4     9.11876000E+01   # M_Z pole mass
         5     4.25000000E+00   # mb(mb)^MSbar
         6     1.72500000E+02   # mt pole mass
         7     1.77682000E+00   # mtau pole mass
#
BLOCK MINPAR  # Input parameters - minimal models
         3     1.00000000E+01   # tanb                
#
BLOCK EXTPAR  # Input parameters - non-minimal models
         0    -1.00000000E+00   # Set                 
         1     6.00000000E+01   # M_1(MX)             
         2     3.00000000E+03   # M_2(MX)             
         3     2.42817800E+03   # M_3(MX)             
        11     5.00000000E+03   # At(MX)              
        12     5.00000000E+03   # Ab(MX)              
        13     0.00000000E+00   # Atau(MX)            
        23    -5.71312000E+02   # mu(MX)              
        26     3.00000000E+03   # mA(pole)            
        31     5.00000000E+03   # meL(MX)             
        32     5.00000000E+03   # mmuL(MX)            
        33     5.00000000E+03   # mtauL(MX)           
        34     5.00000000E+03   # meR(MX)             
        35     5.00000000E+03   # mmuR(MX)            
        36     5.00000000E+03   # mtauR(MX)           
        41     5.00000000E+03   # mqL1(MX)            
        42     5.00000000E+03   # mqL2(MX)            
        43     5.00000000E+03   # mqL3(MX)            
        44     5.00000000E+03   # muR(MX)             
        45     5.00000000E+03   # mcR(MX)             
        46     5.00000000E+03   # mtR(MX)             
        47     5.00000000E+03   # mdR(MX)             
        48     5.00000000E+03   # msR(MX)             
        49     5.00000000E+03   # mbR(MX)             
#
BLOCK MASS  # Mass Spectrum
# PDG code           mass       particle
        24     8.00939008E+01   # W+
        25     1.24807668E+02   # h
        35     3.00008474E+03   # H
        36     2.99999920E+03   # A
        37     3.00140519E+03   # H+
         5     4.87878001E+00   # b-quark pole mass calculated from mb(mb)_Msbar
   1000001     5.08631258E+03   # ~d_L
   2000001     5.06853520E+03   # ~d_R
   1000002     5.08584282E+03   # ~u_L
   2000002     5.06823988E+03   # ~u_R
   1000003     5.08631258E+03   # ~s_L
   2000003     5.06853520E+03   # ~s_R
   1000004     5.08584282E+03   # ~c_L
   2000004     5.06823988E+03   # ~c_R
   1000005     5.03209312E+03   # ~b_1
   2000005     5.06679398E+03   # ~b_2
   1000006     4.92450455E+03   # ~t_1
   2000006     5.07489950E+03   # ~t_2
   1000011     5.01909547E+03   # ~e_L
   2000011     5.00593902E+03   # ~e_R
   1000012     5.01814587E+03   # ~nu_eL
   1000013     5.01909547E+03   # ~mu_L
   2000013     5.00593902E+03   # ~mu_R
   1000014     5.01814587E+03   # ~nu_muL
   1000015     5.00474847E+03   # ~tau_1
   2000015     5.01864666E+03   # ~tau_2
   1000016     5.01759535E+03   # ~nu_tauL
   1000021     2.80000060E+03   # ~g
   1000022     6.02510726E+01   # ~chi_10
   1000023     6.00199733E+02   # ~chi_20
   1000025    -6.02416956E+02   # ~chi_30
   1000035     3.07417270E+03   # ~chi_40
   1000024     6.00000706E+02   # ~chi_1+
   1000037     3.07434030E+03   # ~chi_2+
#
BLOCK NMIX  # Neutralino Mixing Matrix
  1  1     9.97249170E-01   # N_11
  1  2     2.27073994E-04   # N_12
  1  3    -7.41214093E-02   # N_13
  1  4     2.42778678E-04   # N_14
  2  1     5.22673854E-02   # N_21
  2  2     1.97521022E-02   # N_22
  2  3     7.05593616E-01   # N_23
  2  4     7.06410379E-01   # N_24
  3  1    -5.25553300E-02   # N_31
  3  2     1.65481136E-02   # N_32
  3  3    -7.04725878E-01   # N_33
  3  4     7.07336931E-01   # N_34
  4  1    -3.89277784E-04   # N_41
  4  2     9.99667926E-01   # N_42
  4  3    -2.25899240E-03   # N_43
  4  4    -2.56667603E-02   # N_44
#
BLOCK UMIX  # Chargino Mixing Matrix U
  1  1     3.20181826E-03   # U_11
  1  2     9.99994874E-01   # U_12
  2  1    -9.99994874E-01   # U_21
  2  2     3.20181826E-03   # U_22
#
BLOCK VMIX  # Chargino Mixing Matrix V
  1  1     3.63221817E-02   # V_11
  1  2    -9.99340132E-01   # V_12
  2  1    -9.99340132E-01   # V_21
  2  2    -3.63221817E-02   # V_22
#
BLOCK STOPMIX  # Stop Mixing Matrix
  1  1    -5.01147602E-01   # cos(theta_t)
  1  2     8.65361821E-01   # sin(theta_t)
  2  1    -8.65361821E-01   # -sin(theta_t)
  2  2    -5.01147602E-01   # cos(theta_t)
#
BLOCK SBOTMIX  # Sbottom Mixing Matrix
  1  1     9.98513517E-01   # cos(theta_b)
  1  2    -5.45046454E-02   # sin(theta_b)
  2  1     5.45046454E-02   # -sin(theta_b)
  2  2     9.98513517E-01   # cos(theta_b)
#
BLOCK STAUMIX  # Stau Mixing Matrix
  1  1    -6.84661768E-02   # cos(theta_tau)
  1  2     9.97653438E-01   # sin(theta_tau)
  2  1    -9.97653438E-01   # -sin(theta_tau)
  2  2    -6.84661768E-02   # cos(theta_tau)
#
BLOCK ALPHA  # Higgs mixing
          -1.05491322E-01   # Mixing angle in the neutral Higgs boson sector
#
BLOCK HMIX Q=  5.00075973E+03  # DRbar Higgs Parameters
         1    -5.81812194E+02   # mu(Q)MSSM           
         2     9.46864052E+00   # tan                 
         3     2.41774612E+02   # higgs               
         4     8.64409341E+06   # mA^2(Q)MSSM         
#
BLOCK GAUGE Q=  5.00075973E+03  # The gauge couplings
     1     3.70898323E-01   # gprime(Q) DRbar
     2     6.33074010E-01   # g(Q) DRbar
     3     9.93522286E-01   # g3(Q) DRbar
#
BLOCK AU Q=  5.00075973E+03  # The trilinear couplings
  1  1     5.00000002E+03   # A_u(Q) DRbar
  2  2     5.00000002E+03   # A_c(Q) DRbar
  3  3     5.00000003E+03   # A_t(Q) DRbar
#
BLOCK AD Q=  5.00075973E+03  # The trilinear couplings
  1  1     5.00000001E+03   # A_d(Q) DRbar
  2  2     5.00000001E+03   # A_s(Q) DRbar
  3  3     5.00000001E+03   # A_b(Q) DRbar
#
BLOCK AE Q=  5.00075973E+03  # The trilinear couplings
  1  1     0.00000000E+00   # A_e(Q) DRbar
  2  2     2.91517680E-07   # A_mu(Q) DRbar
  3  3     2.91619788E-07   # A_tau(Q) DRbar
#
BLOCK Yu Q=  5.00075973E+03  # The Yukawa couplings
  1  1     0.00000000E+00   # y_u(Q) DRbar
  2  2     0.00000000E+00   # y_c(Q) DRbar
  3  3     8.21673202E-01   # y_t(Q) DRbar
#
BLOCK Yd Q=  5.00075973E+03  # The Yukawa couplings
  1  1     0.00000000E+00   # y_d(Q) DRbar
  2  2     0.00000000E+00   # y_s(Q) DRbar
  3  3     1.30558056E-01   # y_b(Q) DRbar
#
BLOCK Ye Q=  5.00075973E+03  # The Yukawa couplings
  1  1     0.00000000E+00   # y_e(Q) DRbar
  2  2     0.00000000E+00   # y_mu(Q) DRbar
  3  3     9.70690876E-02   # y_tau(Q) DRbar
#
BLOCK MSOFT Q=  5.00075973E+03  # The soft SUSY breaking masses at the scale Q
         1     6.00000000E+01   # M_1(Q)              
         2     3.00000000E+03   # M_2(Q)              
         3     2.42817800E+03   # M_3(Q)              
        21     8.38126895E+06   # mH1^2(Q)            
        22     2.38384947E+05   # mH2^2(Q)            
        31     5.00000000E+03   # meL(Q)              
        32     5.00000000E+03   # mmuL(Q)             
        33     5.00000000E+03   # mtauL(Q)            
        34     5.00000000E+03   # meR(Q)              
        35     5.00000000E+03   # mmuR(Q)             
        36     5.00000000E+03   # mtauR(Q)            
        41     4.99999999E+03   # mqL1(Q)             
        42     4.99999999E+03   # mqL2(Q)             
        43     4.99999999E+03   # mqL3(Q)             
        44     4.99999999E+03   # muR(Q)              
        45     4.99999999E+03   # mcR(Q)              
        46     4.99999999E+03   # mtR(Q)              
        47     4.99999999E+03   # mdR(Q)              
        48     4.99999999E+03   # msR(Q)              
        49     4.99999999E+03   # mbR(Q)              
#
#
#
#                             =================
#                             |The decay table|
#                             =================
#
# - The QCD corrections to the decays gluino -> squark  + quark
#                                     squark -> gaugino + quark_prime
#                                     squark -> squark_prime + Higgs
#                                     squark -> gluino  + quark
#   are included.
#
# - The multi-body decays for the inos, stops and sbottoms are included.
#
# - The loop induced decays for the gluino, neutralinos and stops
#   are included.
#
# - The SUSY decays of the top quark are included.
#
#
#         PDG            Width
DECAY         6     1.40452670E+00   # top decays
#          BR         NDA      ID1       ID2
     1.00000000E+00    2           5        24   # BR(t ->  b    W+)
#
#         PDG            Width
DECAY   1000021     1.29051028E-02   # gluino decays
#          BR         NDA      ID1       ID2
     6.11007348E-07    2     1000022        21   # BR(~g -> ~chi_10 g)
     3.39783411E-03    2     1000023        21   # BR(~g -> ~chi_20 g)
     3.31242043E-03    2     1000025        21   # BR(~g -> ~chi_30 g)
#           BR         NDA      ID1       ID2       ID3
     1.08079509E-02    3     1000022         1        -1   # BR(~g -> ~chi_10 d  db)
     2.63203210E-05    3     1000023         1        -1   # BR(~g -> ~chi_20 d  db)
     3.26230103E-05    3     1000025         1        -1   # BR(~g -> ~chi_30 d  db)
     3.68626433E-02    3     1000022         2        -2   # BR(~g -> ~chi_10 u  ub)
     1.32588533E-04    3     1000023         2        -2   # BR(~g -> ~chi_20 u  ub)
     4.98672968E-05    3     1000025         2        -2   # BR(~g -> ~chi_30 u  ub)
     1.08079509E-02    3     1000022         3        -3   # BR(~g -> ~chi_10 s  sb)
     2.63203210E-05    3     1000023         3        -3   # BR(~g -> ~chi_20 s  sb)
     3.26230103E-05    3     1000025         3        -3   # BR(~g -> ~chi_30 s  sb)
     3.68626433E-02    3     1000022         4        -4   # BR(~g -> ~chi_10 c  cb)
     1.32588533E-04    3     1000023         4        -4   # BR(~g -> ~chi_20 c  cb)
     4.98672968E-05    3     1000025         4        -4   # BR(~g -> ~chi_30 c  cb)
     1.10270179E-02    3     1000022         5        -5   # BR(~g -> ~chi_10 b  bb)
     5.24596901E-03    3     1000023         5        -5   # BR(~g -> ~chi_20 b  bb)
     5.22190991E-03    3     1000025         5        -5   # BR(~g -> ~chi_30 b  bb)
     3.82153502E-02    3     1000022         6        -6   # BR(~g -> ~chi_10 t  tb)
     2.08297021E-01    3     1000023         6        -6   # BR(~g -> ~chi_20 t  tb)
     1.99687767E-01    3     1000025         6        -6   # BR(~g -> ~chi_30 t  tb)
     5.56219563E-05    3     1000024         1        -2   # BR(~g -> ~chi_1+ d  ub)
     5.56219563E-05    3    -1000024         2        -1   # BR(~g -> ~chi_1- u  db)
     5.56219563E-05    3     1000024         3        -4   # BR(~g -> ~chi_1+ s  cb)
     5.56219563E-05    3    -1000024         4        -3   # BR(~g -> ~chi_1- c  sb)
     2.14773813E-01    3     1000024         5        -6   # BR(~g -> ~chi_1+ b  tb)
     2.14773813E-01    3    -1000024         6        -5   # BR(~g -> ~chi_1- t  bb)
#
#         PDG            Width
DECAY   1000006     2.70659691E+02   # stop1 decays
#          BR         NDA      ID1       ID2
     3.28132053E-02    2     1000022         6   # BR(~t_1 -> ~chi_10 t )
     1.19332671E-01    2     1000023         6   # BR(~t_1 -> ~chi_20 t )
     1.13648661E-01    2     1000025         6   # BR(~t_1 -> ~chi_30 t )
     7.39025108E-03    2     1000035         6   # BR(~t_1 -> ~chi_40 t )
     1.75456956E-01    2     1000024         5   # BR(~t_1 -> ~chi_1+ b )
     1.47312209E-02    2     1000037         5   # BR(~t_1 -> ~chi_2+ b )
     5.36627035E-01    2     1000021         6   # BR(~t_1 -> ~g      t )
#
#         PDG            Width
DECAY   2000006     2.78268413E+02   # stop2 decays
#          BR         NDA      ID1       ID2
     1.21547591E-02    2     1000022         6   # BR(~t_2 -> ~chi_10 t )
     1.17080182E-01    2     1000023         6   # BR(~t_2 -> ~chi_20 t )
     1.23272518E-01    2     1000025         6   # BR(~t_2 -> ~chi_30 t )
     2.05109154E-02    2     1000035         6   # BR(~t_2 -> ~chi_40 t )
     6.71616308E-02    2     1000024         5   # BR(~t_2 -> ~chi_1+ b )
     4.08369208E-02    2     1000037         5   # BR(~t_2 -> ~chi_2+ b )
     6.14793093E-01    2     1000021         6   # BR(~t_2 -> ~g      t )
     9.67673451E-04    2     1000006        25   # BR(~t_2 -> ~t_1    h )
     3.22230746E-03    2     1000006        23   # BR(~t_2 -> ~t_1    Z )
#
#         PDG            Width
DECAY   1000005     2.52515399E+02   # sbottom1 decays
#          BR         NDA      ID1       ID2
     3.05414223E-03    2     1000022         5   # BR(~b_1 -> ~chi_10 b )
     3.24960343E-03    2     1000023         5   # BR(~b_1 -> ~chi_20 b )
     3.22956203E-03    2     1000025         5   # BR(~b_1 -> ~chi_30 b )
     3.02650357E-02    2     1000035         5   # BR(~b_1 -> ~chi_40 b )
     2.58121098E-01    2    -1000024         6   # BR(~b_1 -> ~chi_1- t )
     6.07705764E-02    2    -1000037         6   # BR(~b_1 -> ~chi_2- t )
     6.39209087E-01    2     1000021         5   # BR(~b_1 -> ~g      b )
     2.10089597E-03    2     1000006       -24   # BR(~b_1 -> ~t_1    W-)
#
#         PDG            Width
DECAY   2000005     1.70854319E+02   # sbottom2 decays
#          BR         NDA      ID1       ID2
     1.71440075E-02    2     1000022         5   # BR(~b_2 -> ~chi_10 b )
     4.92687684E-03    2     1000023         5   # BR(~b_2 -> ~chi_20 b )
     5.00075658E-03    2     1000025         5   # BR(~b_2 -> ~chi_30 b )
     1.22246456E-04    2     1000035         5   # BR(~b_2 -> ~chi_40 b )
     1.07433957E-02    2    -1000024         6   # BR(~b_2 -> ~chi_1- t )
     2.45485297E-04    2    -1000037         6   # BR(~b_2 -> ~chi_2- t )
     9.61777123E-01    2     1000021         5   # BR(~b_2 -> ~g      b )
     4.01091108E-05    2     1000006       -24   # BR(~b_2 -> ~t_1    W-)
#
#         PDG            Width
DECAY   1000002     1.90547835E+02   # sup_L decays
#          BR         NDA      ID1       ID2
     3.89563167E-03    2     1000022         2   # BR(~u_L -> ~chi_10 u)
     8.96108944E-05    2     1000023         2   # BR(~u_L -> ~chi_20 u)
     3.94241983E-06    2     1000025         2   # BR(~u_L -> ~chi_30 u)
     4.16496849E-02    2     1000035         2   # BR(~u_L -> ~chi_40 u)
     2.63437097E-04    2     1000024         1   # BR(~u_L -> ~chi_1+ d)
     8.32470569E-02    2     1000037         1   # BR(~u_L -> ~chi_2+ d)
     8.70850636E-01    2     1000021         2   # BR(~u_L -> ~g      u)
#
#         PDG            Width
DECAY   2000002     1.76235718E+02   # sup_R decays
#          BR         NDA      ID1       ID2
     6.69968736E-02    2     1000022         2   # BR(~u_R -> ~chi_10 u)
     1.79277158E-04    2     1000023         2   # BR(~u_R -> ~chi_20 u)
     1.81220859E-04    2     1000025         2   # BR(~u_R -> ~chi_30 u)
     4.12003648E-09    2     1000035         2   # BR(~u_R -> ~chi_40 u)
     9.32642624E-01    2     1000021         2   # BR(~u_R -> ~g      u)
#
#         PDG            Width
DECAY   1000001     1.90564663E+02   # sdown_L decays
#          BR         NDA      ID1       ID2
     3.87752944E-03    2     1000022         1   # BR(~d_L -> ~chi_10 d)
     9.09569584E-06    2     1000023         1   # BR(~d_L -> ~chi_20 d)
     7.17559769E-05    2     1000025         1   # BR(~d_L -> ~chi_30 d)
     4.16713366E-02    2     1000035         1   # BR(~d_L -> ~chi_40 d)
     2.04706308E-06    2    -1000024         2   # BR(~d_L -> ~chi_1- u)
     8.33741458E-02    2    -1000037         2   # BR(~d_L -> ~chi_2- u)
     8.70994089E-01    2     1000021         1   # BR(~d_L -> ~g      d)
#
#         PDG            Width
DECAY   2000001     1.67359220E+02   # sdown_R decays
#          BR         NDA      ID1       ID2
     1.76386255E-02    2     1000022         1   # BR(~d_R -> ~chi_10 d)
     4.71994013E-05    2     1000023         1   # BR(~d_R -> ~chi_20 d)
     4.77111327E-05    2     1000025         1   # BR(~d_R -> ~chi_30 d)
     1.08484887E-09    2     1000035         1   # BR(~d_R -> ~chi_40 d)
     9.82266463E-01    2     1000021         1   # BR(~d_R -> ~g      d)
#
#         PDG            Width
DECAY   1000004     1.90547835E+02   # scharm_L decays
#          BR         NDA      ID1       ID2
     3.89563167E-03    2     1000022         4   # BR(~c_L -> ~chi_10 c)
     8.96108944E-05    2     1000023         4   # BR(~c_L -> ~chi_20 c)
     3.94241983E-06    2     1000025         4   # BR(~c_L -> ~chi_30 c)
     4.16496849E-02    2     1000035         4   # BR(~c_L -> ~chi_40 c)
     2.63437097E-04    2     1000024         3   # BR(~c_L -> ~chi_1+ s)
     8.32470569E-02    2     1000037         3   # BR(~c_L -> ~chi_2+ s)
     8.70850636E-01    2     1000021         4   # BR(~c_L -> ~g      c)
#
#         PDG            Width
DECAY   2000004     1.76235718E+02   # scharm_R decays
#          BR         NDA      ID1       ID2
     6.69968736E-02    2     1000022         4   # BR(~c_R -> ~chi_10 c)
     1.79277158E-04    2     1000023         4   # BR(~c_R -> ~chi_20 c)
     1.81220859E-04    2     1000025         4   # BR(~c_R -> ~chi_30 c)
     4.12003648E-09    2     1000035         4   # BR(~c_R -> ~chi_40 c)
     9.32642624E-01    2     1000021         4   # BR(~c_R -> ~g      c)
#
#         PDG            Width
DECAY   1000003     1.90564663E+02   # sstrange_L decays
#          BR         NDA      ID1       ID2
     3.87752944E-03    2     1000022         3   # BR(~s_L -> ~chi_10 s)
     9.09569584E-06    2     1000023         3   # BR(~s_L -> ~chi_20 s)
     7.17559769E-05    2     1000025         3   # BR(~s_L -> ~chi_30 s)
     4.16713366E-02    2     1000035         3   # BR(~s_L -> ~chi_40 s)
     2.04706308E-06    2    -1000024         4   # BR(~s_L -> ~chi_1- c)
     8.33741458E-02    2    -1000037         4   # BR(~s_L -> ~chi_2- c)
     8.70994089E-01    2     1000021         3   # BR(~s_L -> ~g      s)
#
#         PDG            Width
DECAY   2000003     1.67359220E+02   # sstrange_R decays
#          BR         NDA      ID1       ID2
     1.76386255E-02    2     1000022         3   # BR(~s_R -> ~chi_10 s)
     4.71994013E-05    2     1000023         3   # BR(~s_R -> ~chi_20 s)
     4.77111327E-05    2     1000025         3   # BR(~s_R -> ~chi_30 s)
     1.08484887E-09    2     1000035         3   # BR(~s_R -> ~chi_40 s)
     9.82266463E-01    2     1000021         3   # BR(~s_R -> ~g      s)
#
#         PDG            Width
DECAY   1000011     3.03136515E+01   # selectron_L decays
#          BR         NDA      ID1       ID2
     2.25432640E-01    2     1000022        11   # BR(~e_L -> ~chi_10 e-)
     1.62741168E-03    2     1000023        11   # BR(~e_L -> ~chi_20 e-)
     1.30064785E-04    2     1000025        11   # BR(~e_L -> ~chi_30 e-)
     2.57430743E-01    2     1000035        11   # BR(~e_L -> ~chi_40 e-)
     1.31497472E-05    2    -1000024        12   # BR(~e_L -> ~chi_1- nu_e)
     5.15365991E-01    2    -1000037        12   # BR(~e_L -> ~chi_2- nu_e)
#
#         PDG            Width
DECAY   2000011     2.73880976E+01   # selectron_R decays
#          BR         NDA      ID1       ID2
     9.94661019E-01    2     1000022        11   # BR(~e_R -> ~chi_10 e-)
     2.65508342E-03    2     1000023        11   # BR(~e_R -> ~chi_20 e-)
     2.68383850E-03    2     1000025        11   # BR(~e_R -> ~chi_30 e-)
     5.88185748E-08    2     1000035        11   # BR(~e_R -> ~chi_40 e-)
#
#         PDG            Width
DECAY   1000013     3.03136515E+01   # smuon_L decays
#          BR         NDA      ID1       ID2
     2.25432640E-01    2     1000022        13   # BR(~mu_L -> ~chi_10 mu-)
     1.62741168E-03    2     1000023        13   # BR(~mu_L -> ~chi_20 mu-)
     1.30064785E-04    2     1000025        13   # BR(~mu_L -> ~chi_30 mu-)
     2.57430743E-01    2     1000035        13   # BR(~mu_L -> ~chi_40 mu-)
     1.31497472E-05    2    -1000024        14   # BR(~mu_L -> ~chi_1- nu_mu)
     5.15365991E-01    2    -1000037        14   # BR(~mu_L -> ~chi_2- nu_mu)
#
#         PDG            Width
DECAY   2000013     2.73880976E+01   # smuon_R decays
#          BR         NDA      ID1       ID2
     9.94661019E-01    2     1000022        13   # BR(~mu_R -> ~chi_10 mu-)
     2.65508342E-03    2     1000023        13   # BR(~mu_R -> ~chi_20 mu-)
     2.68383850E-03    2     1000025        13   # BR(~mu_R -> ~chi_30 mu-)
     5.88185748E-08    2     1000035        13   # BR(~mu_R -> ~chi_40 mu-)
#
#         PDG            Width
DECAY   1000015     2.92157257E+01   # stau_1 decays
#          BR         NDA      ID1       ID2
     9.29991552E-01    2     1000022        15   # BR(~tau_1 -> ~chi_10  tau-)
     1.78633997E-02    2     1000023        15   # BR(~tau_1 -> ~chi_20  tau-)
     1.73384908E-02    2     1000025        15   # BR(~tau_1 -> ~chi_30  tau-)
     1.22232398E-03    2     1000035        15   # BR(~tau_1 -> ~chi_40  tau-)
     3.11373653E-02    2    -1000024        16   # BR(~tau_1 -> ~chi_1-  nu_tau)
     2.44686773E-03    2    -1000037        16   # BR(~tau_1 -> ~chi_2-  nu_tau)
#
#         PDG            Width
DECAY   2000015     3.12078839E+01   # stau_2 decays
#          BR         NDA      ID1       ID2
     2.21373442E-01    2     1000022        15   # BR(~tau_2 -> ~chi_10  tau-)
     1.63081437E-02    2     1000023        15   # BR(~tau_2 -> ~chi_20  tau-)
     1.52950006E-02    2     1000025        15   # BR(~tau_2 -> ~chi_30  tau-)
     2.48822914E-01    2     1000035        15   # BR(~tau_2 -> ~chi_40  tau-)
     6.64544659E-05    2    -1000024        16   # BR(~tau_2 -> ~chi_1-  nu_tau)
     4.98134045E-01    2    -1000037        16   # BR(~tau_2 -> ~chi_2-  nu_tau)
#
#         PDG            Width
DECAY   1000012     3.03168087E+01   # snu_eL decays
#          BR         NDA      ID1       ID2
     2.25016405E-01    2     1000022        12   # BR(~nu_eL -> ~chi_10 nu_e)
     7.57514539E-05    2     1000023        12   # BR(~nu_eL -> ~chi_20 nu_e)
     1.43645430E-03    2     1000025        12   # BR(~nu_eL -> ~chi_30 nu_e)
     2.57473135E-01    2     1000035        12   # BR(~nu_eL -> ~chi_40 nu_e)
     1.69174823E-03    2     1000024        11   # BR(~nu_eL -> ~chi_1+ e-)
     5.14306506E-01    2     1000037        11   # BR(~nu_eL -> ~chi_2+ e-)
#
#         PDG            Width
DECAY   1000014     3.03168087E+01   # snu_muL decays
#          BR         NDA      ID1       ID2
     2.25016405E-01    2     1000022        14   # BR(~nu_muL -> ~chi_10 nu_mu)
     7.57514539E-05    2     1000023        14   # BR(~nu_muL -> ~chi_20 nu_mu)
     1.43645430E-03    2     1000025        14   # BR(~nu_muL -> ~chi_30 nu_mu)
     2.57473135E-01    2     1000035        14   # BR(~nu_muL -> ~chi_40 nu_mu)
     1.69174823E-03    2     1000024        13   # BR(~nu_muL -> ~chi_1+ mu-)
     5.14306506E-01    2     1000037        13   # BR(~nu_muL -> ~chi_2+ mu-)
#
#         PDG            Width
DECAY   1000016     3.12211798E+01   # snu_tauL decays
#          BR         NDA      ID1       ID2
     2.18474463E-01    2     1000022        16   # BR(~nu_tauL -> ~chi_10 nu_tau)
     7.35486546E-05    2     1000023        16   # BR(~nu_tauL -> ~chi_20 nu_tau)
     1.39468315E-03    2     1000025        16   # BR(~nu_tauL -> ~chi_30 nu_tau)
     2.49921679E-01    2     1000035        16   # BR(~nu_tauL -> ~chi_40 nu_tau)
     3.09138307E-02    2     1000024        15   # BR(~nu_tauL -> ~chi_1+ tau-)
     4.99221795E-01    2     1000037        15   # BR(~nu_tauL -> ~chi_2+ tau-)
#
#         PDG            Width
DECAY   1000024     3.57365615E-01   # chargino1+ decays
#          BR         NDA      ID1       ID2
     1.00000000E+00    2     1000022        24   # BR(~chi_1+ -> ~chi_10  W+)
#
#         PDG            Width
DECAY   1000037     2.18053568E+01   # chargino2+ decays
#          BR         NDA      ID1       ID2
     2.53501178E-01    2     1000024        23   # BR(~chi_2+ -> ~chi_1+  Z )
     1.69261823E-04    2     1000022        24   # BR(~chi_2+ -> ~chi_10  W+)
     2.44748434E-01    2     1000023        24   # BR(~chi_2+ -> ~chi_20  W+)
     2.44319637E-01    2     1000025        24   # BR(~chi_2+ -> ~chi_30  W+)
     2.57257943E-01    2     1000024        25   # BR(~chi_2+ -> ~chi_1+  h )
     3.54573544E-06    2     1000022        37   # BR(~chi_2+ -> ~chi_10  H+)
#
#         PDG            Width
DECAY   1000022     0.00000000E+00   # neutralino1 decays
#
#         PDG            Width
DECAY   1000023     3.66132899E-01   # neutralino2 decays
#          BR         NDA      ID1       ID2
     5.14073892E-01    2     1000022        23   # BR(~chi_20 -> ~chi_10   Z )
     4.85926108E-01    2     1000022        25   # BR(~chi_20 -> ~chi_10   h )
#
#         PDG            Width
DECAY   1000025     3.61759637E-01   # neutralino3 decays
#          BR         NDA      ID1       ID2
     5.03965426E-01    2     1000022        23   # BR(~chi_30 -> ~chi_10   Z )
     4.96034574E-01    2     1000022        25   # BR(~chi_30 -> ~chi_10   h )
#
#         PDG            Width
DECAY   1000035     2.18189287E+01   # neutralino4 decays
#          BR         NDA      ID1       ID2
     1.29184806E-05    2     1000022        23   # BR(~chi_40 -> ~chi_10   Z )
     1.04469861E-01    2     1000023        23   # BR(~chi_40 -> ~chi_20   Z )
     1.48495064E-01    2     1000025        23   # BR(~chi_40 -> ~chi_30   Z )
     2.45083194E-01    2     1000024       -24   # BR(~chi_40 -> ~chi_1+   W-)
     2.45083194E-01    2    -1000024        24   # BR(~chi_40 -> ~chi_1-   W+)
     1.51401815E-04    2     1000022        25   # BR(~chi_40 -> ~chi_10   h )
     3.40037439E-06    2     1000022        35   # BR(~chi_40 -> ~chi_10   H )
     3.78757797E-07    2     1000022        36   # BR(~chi_40 -> ~chi_10   A )
     1.51938580E-01    2     1000023        25   # BR(~chi_40 -> ~chi_20   h )
     1.04762009E-01    2     1000025        25   # BR(~chi_40 -> ~chi_30   h )
#
#         PDG            Width
DECAY        25     4.06684007E-03   # h decays
#          BR         NDA      ID1       ID2
     6.08007066E-01    2           5        -5   # BR(h -> b       bb     )
     6.37997532E-02    2         -15        15   # BR(h -> tau+    tau-   )
     2.25874173E-04    2         -13        13   # BR(h -> mu+     mu-    )
     4.78813792E-04    2           3        -3   # BR(h -> s       sb     )
     2.07462865E-02    2           4        -4   # BR(h -> c       cb     )
     6.71494515E-02    2          21        21   # BR(h -> g       g      )
     2.30896820E-03    2          22        22   # BR(h -> gam     gam    )
     1.49196828E-03    2          22        23   # BR(h -> Z       gam    )
     2.10599265E-01    2          24       -24   # BR(h -> W+      W-     )
     2.51056646E-02    2          23        23   # BR(h -> Z       Z      )
     8.68890644E-05    2     1000022   1000022   # BR(h -> ~chi_10 ~chi_10)
#
#         PDG            Width
DECAY        35     8.57741424E+00   # H decays
#          BR         NDA      ID1       ID2
     3.72812862E-01    2           5        -5   # BR(H -> b       bb     )
     6.49345030E-02    2         -15        15   # BR(H -> tau+    tau-   )
     2.29613560E-04    2         -13        13   # BR(H -> mu+     mu-    )
     2.81470973E-04    2           3        -3   # BR(H -> s       sb     )
     1.57538269E-06    2           4        -4   # BR(H -> c       cb     )
     1.57393211E-01    2           6        -6   # BR(H -> t       tb     )
     5.23430728E-05    2          21        21   # BR(H -> g       g      )
     1.64471868E-07    2          22        22   # BR(H -> gam     gam    )
     9.29081552E-08    2          23        22   # BR(H -> Z       gam    )
     7.47193511E-05    2          24       -24   # BR(H -> W+      W-     )
     3.73123826E-05    2          23        23   # BR(H -> Z       Z      )
     2.71822587E-04    2          25        25   # BR(H -> h       h      )
    -4.35436361E-23    2          36        36   # BR(H -> A       A      )
     4.09026497E-19    2          23        36   # BR(H -> Z       A      )
     3.01200262E-03    2     1000024  -1000024   # BR(H -> ~chi_1+ ~chi_1-)
     4.69236741E-03    2     1000022   1000022   # BR(H -> ~chi_10 ~chi_10)
     1.03144612E-04    2     1000023   1000023   # BR(H -> ~chi_20 ~chi_20)
     1.80813961E-03    2     1000025   1000025   # BR(H -> ~chi_30 ~chi_30)
     2.37475142E-01    2     1000022   1000023   # BR(H -> ~chi_10 ~chi_20)
     1.54609538E-01    2     1000022   1000025   # BR(H -> ~chi_10 ~chi_30)
     2.20997508E-03    2     1000023   1000025   # BR(H -> ~chi_20 ~chi_30)
#
#         PDG            Width
DECAY        36     8.58577761E+00   # A decays
#          BR         NDA      ID1       ID2
     3.72576523E-01    2           5        -5   # BR(A -> b       bb     )
     6.48731908E-02    2         -15        15   # BR(A -> tau+    tau-   )
     2.29396435E-04    2         -13        13   # BR(A -> mu+     mu-    )
     2.81410415E-04    2           3        -3   # BR(A -> s       sb     )
     1.58017120E-06    2           4        -4   # BR(A -> c       cb     )
     1.57784513E-01    2           6        -6   # BR(A -> t       tb     )
     1.56125959E-04    2          21        21   # BR(A -> g       g      )
     5.99303955E-07    2          22        22   # BR(A -> gam     gam    )
     1.89031150E-07    2          23        22   # BR(A -> Z       gam    )
     7.43639409E-05    2          23        25   # BR(A -> Z       h      )
     3.45123991E-03    2     1000024  -1000024   # BR(A -> ~chi_1+ ~chi_1-)
     4.70201542E-03    2     1000022   1000022   # BR(A -> ~chi_10 ~chi_10)
     8.02088203E-05    2     1000023   1000023   # BR(A -> ~chi_20 ~chi_20)
     3.29844714E-03    2     1000025   1000025   # BR(A -> ~chi_30 ~chi_30)
     1.57609523E-01    2     1000022   1000023   # BR(A -> ~chi_10 ~chi_20)
     2.33490144E-01    2     1000022   1000025   # BR(A -> ~chi_10 ~chi_30)
     1.39053016E-03    2     1000023   1000025   # BR(A -> ~chi_20 ~chi_30)
#
#         PDG            Width
DECAY        37     8.54329157E+00   # H+ decays
#          BR         NDA      ID1       ID2
     5.99259986E-04    2           4        -5   # BR(H+ -> c       bb     )
     6.52263620E-02    2         -15        16   # BR(H+ -> tau+    nu_tau )
     2.30645274E-04    2         -13        14   # BR(H+ -> mu+     nu_mu  )
     3.83524389E-06    2           2        -5   # BR(H+ -> u       bb     )
     1.35334735E-05    2           2        -3   # BR(H+ -> u       sb     )
     2.79873837E-04    2           4        -3   # BR(H+ -> c       sb     )
     5.29823948E-01    2           6        -5   # BR(H+ -> t       bb     )
     7.48870988E-05    2          24        25   # BR(H+ -> W+      h      )
     8.45086875E-13    2          24        36   # BR(H+ -> W+      A      )
     4.01122201E-01    2     1000024   1000022   # BR(H+ -> ~chi_1+ ~chi_10)
     2.48675486E-03    2     1000024   1000023   # BR(H+ -> ~chi_1+ ~chi_20)
     1.38699107E-04    2     1000024   1000025   # BR(H+ -> ~chi_1+ ~chi_30)
