#
#                              ======================
#                              | THE SUSYHIT OUTPUT |
#                              ======================
#
#
#              ------------------------------------------------------
#              |     This is the output of the SUSY-HIT package     |
#              |  created by A.Djouadi, M.Muehlleitner and M.Spira. |
#              |  In case of problems with SUSY-HIT email to        |
#              |           margarete.muehlleitner@cern.ch           |
#              |           michael.spira@psi.ch                     |
#              |           abdelhak.djouadi@cern.ch                 |
#              ------------------------------------------------------
#
#              ------------------------------------------------------
#              |  SUSY Les Houches Accord - MSSM Spectrum + Decays  |
#              |              based on the decay programs           |
#              |                                                    |
#              |                     SDECAY 1.3b                    |
#              |                                                    |
#              |  Authors: M.Muhlleitner, A.Djouadi and Y.Mambrini  |
#              |  Ref.:    Comput.Phys.Commun.168(2005)46           |
#              |           [hep-ph/0311167]                         |
#              |                                                    |
#              |                     HDECAY 3.4                     |
#              |                                                    |
#              |  By: A.Djouadi,J.Kalinowski,M.Muhlleitner,M.Spira  |
#              |  Ref.:    Comput.Phys.Commun.108(1998)56           |
#              |           [hep-ph/9704448]                         |
#              |                                                    |
#              |                                                    |
#              |  If not stated otherwise all DRbar couplings and   |
#              |  soft SUSY breaking masses are given at the scale  |
#              |  Q=  0.50007260E+04
#              |                                                    |
#              ------------------------------------------------------
#
#
BLOCK DCINFO  # Decay Program information
     1   SDECAY/HDECAY # decay calculator
     2   1.3b  /3.4    # version number
#
BLOCK SPINFO  # Spectrum calculator information
     1    SOFTSUSY    # spectrum calculator                
     2    3.4.0       # version number                     
#
BLOCK MODSEL  # Model selection
     1     0   #  nonUniversal                                     
#
BLOCK SMINPUTS  # Standard Model inputs
         1     1.25778332E+02   # alpha_em^-1(M_Z)^MSbar
         2     1.16570000E-05   # G_F [GeV^-2]
         3     1.17200002E-01   # alpha_S(M_Z)^MSbar
         4     9.11876000E+01   # M_Z pole mass
         5     4.25000000E+00   # mb(mb)^MSbar
         6     1.72500000E+02   # mt pole mass
         7     1.77682000E+00   # mtau pole mass
#
BLOCK MINPAR  # Input parameters - minimal models
         3     1.00000000E+01   # tanb                
#
BLOCK EXTPAR  # Input parameters - non-minimal models
         0    -1.00000000E+00   # Set                 
         1     6.00000000E+01   # M_1(MX)             
         2     3.00000000E+03   # M_2(MX)             
         3     2.13913800E+03   # M_3(MX)             
        11     5.00000000E+03   # At(MX)              
        12     5.00000000E+03   # Ab(MX)              
        13     0.00000000E+00   # Atau(MX)            
        23    -1.34876900E+03   # mu(MX)              
        26     3.00000000E+03   # mA(pole)            
        31     5.00000000E+03   # meL(MX)             
        32     5.00000000E+03   # mmuL(MX)            
        33     5.00000000E+03   # mtauL(MX)           
        34     5.00000000E+03   # meR(MX)             
        35     5.00000000E+03   # mmuR(MX)            
        36     5.00000000E+03   # mtauR(MX)           
        41     5.00000000E+03   # mqL1(MX)            
        42     5.00000000E+03   # mqL2(MX)            
        43     5.00000000E+03   # mqL3(MX)            
        44     5.00000000E+03   # muR(MX)             
        45     5.00000000E+03   # mcR(MX)             
        46     5.00000000E+03   # mtR(MX)             
        47     5.00000000E+03   # mdR(MX)             
        48     5.00000000E+03   # msR(MX)             
        49     5.00000000E+03   # mbR(MX)             
#
BLOCK MASS  # Mass Spectrum
# PDG code           mass       particle
        24     8.00965986E+01   # W+
        25     1.24825638E+02   # h
        35     3.00008423E+03   # H
        36     2.99999990E+03   # A
        37     3.00087267E+03   # H+
         5     4.87878001E+00   # b-quark pole mass calculated from mb(mb)_Msbar
   1000001     5.07991208E+03   # ~d_L
   2000001     5.06216104E+03   # ~d_R
   1000002     5.07944098E+03   # ~u_L
   2000002     5.06188497E+03   # ~u_R
   1000003     5.07991208E+03   # ~s_L
   2000003     5.06216104E+03   # ~s_R
   1000004     5.07944098E+03   # ~c_L
   2000004     5.06188497E+03   # ~c_R
   1000005     5.02577474E+03   # ~b_1
   2000005     5.06090941E+03   # ~b_2
   1000006     4.91784101E+03   # ~t_1
   2000006     5.07079016E+03   # ~t_2
   1000011     5.01905090E+03   # ~e_L
   2000011     5.00591294E+03   # ~e_R
   1000012     5.01810293E+03   # ~nu_eL
   1000013     5.01905090E+03   # ~mu_L
   2000013     5.00591294E+03   # ~mu_R
   1000014     5.01810293E+03   # ~nu_muL
   1000015     5.00442500E+03   # ~tau_1
   2000015     5.01894639E+03   # ~tau_2
   1000016     5.01756240E+03   # ~nu_tauL
   1000021     2.50000069E+03   # ~g
   1000022     6.03032379E+01   # ~chi_10
   1000023     1.39947329E+03   # ~chi_20
   1000025    -1.40186059E+03   # ~chi_30
   1000035     3.07431229E+03   # ~chi_40
   1000024     1.40000053E+03   # ~chi_1+
   1000037     3.07447972E+03   # ~chi_2+
#
BLOCK NMIX  # Neutralino Mixing Matrix
  1  1     9.99491104E-01   # N_11
  1  2     1.47268218E-04   # N_12
  1  3    -3.18381012E-02   # N_13
  1  4     1.96133184E-03   # N_14
  2  1     2.11271095E-02   # N_21
  2  2     2.90569136E-02   # N_22
  2  3     7.06893175E-01   # N_23
  2  4     7.06407375E-01   # N_24
  3  1    -2.38953410E-02   # N_31
  3  2     1.35647404E-02   # N_32
  3  3    -7.06518443E-01   # N_33
  3  4     7.07161014E-01   # N_34
  4  1    -4.37172609E-04   # N_41
  4  2     9.99485704E-01   # N_42
  4  3    -1.09573412E-02   # N_43
  4  4    -3.01342604E-02   # N_44
#
BLOCK UMIX  # Chargino Mixing Matrix U
  1  1     1.55086862E-02   # U_11
  1  2     9.99879733E-01   # U_12
  2  1    -9.99879733E-01   # U_21
  2  2     1.55086862E-02   # U_22
#
BLOCK VMIX  # Chargino Mixing Matrix V
  1  1     4.26400735E-02   # V_11
  1  2    -9.99090498E-01   # V_12
  2  1    -9.99090498E-01   # V_21
  2  2    -4.26400735E-02   # V_22
#
BLOCK STOPMIX  # Stop Mixing Matrix
  1  1    -5.08136218E-01   # cos(theta_t)
  1  2     8.61276717E-01   # sin(theta_t)
  2  1    -8.61276717E-01   # -sin(theta_t)
  2  2    -5.08136218E-01   # cos(theta_t)
#
BLOCK SBOTMIX  # Sbottom Mixing Matrix
  1  1     9.95140026E-01   # cos(theta_b)
  1  2    -9.84699378E-02   # sin(theta_b)
  2  1     9.84699378E-02   # -sin(theta_b)
  2  2     9.95140026E-01   # cos(theta_b)
#
BLOCK STAUMIX  # Stau Mixing Matrix
  1  1    -1.57629240E-01   # cos(theta_tau)
  1  2     9.87498366E-01   # sin(theta_tau)
  2  1    -9.87498366E-01   # -sin(theta_tau)
  2  2    -1.57629240E-01   # cos(theta_tau)
#
BLOCK ALPHA  # Higgs mixing
          -1.05473993E-01   # Mixing angle in the neutral Higgs boson sector
#
BLOCK HMIX Q=  5.00072598E+03  # DRbar Higgs Parameters
         1    -1.37361114E+03   # mu(Q)MSSM           
         2     9.46957156E+00   # tan                 
         3     2.41934558E+02   # higgs               
         4     8.42275462E+06   # mA^2(Q)MSSM         
#
BLOCK GAUGE Q=  5.00072598E+03  # The gauge couplings
     1     3.70709155E-01   # gprime(Q) DRbar
     2     6.32141340E-01   # g(Q) DRbar
     3     9.95208293E-01   # g3(Q) DRbar
#
BLOCK AU Q=  5.00072598E+03  # The trilinear couplings
  1  1     5.00000002E+03   # A_u(Q) DRbar
  2  2     5.00000002E+03   # A_c(Q) DRbar
  3  3     5.00000002E+03   # A_t(Q) DRbar
#
BLOCK AD Q=  5.00072598E+03  # The trilinear couplings
  1  1     5.00000001E+03   # A_d(Q) DRbar
  2  2     5.00000001E+03   # A_s(Q) DRbar
  3  3     5.00000001E+03   # A_b(Q) DRbar
#
BLOCK AE Q=  5.00072598E+03  # The trilinear couplings
  1  1     0.00000000E+00   # A_e(Q) DRbar
  2  2     2.52438928E-07   # A_mu(Q) DRbar
  3  3     2.52376304E-07   # A_tau(Q) DRbar
#
BLOCK Yu Q=  5.00072598E+03  # The Yukawa couplings
  1  1     0.00000000E+00   # y_u(Q) DRbar
  2  2     0.00000000E+00   # y_c(Q) DRbar
  3  3     8.20828597E-01   # y_t(Q) DRbar
#
BLOCK Yd Q=  5.00072598E+03  # The Yukawa couplings
  1  1     0.00000000E+00   # y_d(Q) DRbar
  2  2     0.00000000E+00   # y_s(Q) DRbar
  3  3     1.31565900E-01   # y_b(Q) DRbar
#
BLOCK Ye Q=  5.00072598E+03  # The Yukawa couplings
  1  1     0.00000000E+00   # y_e(Q) DRbar
  2  2     0.00000000E+00   # y_mu(Q) DRbar
  3  3     9.66655351E-02   # y_tau(Q) DRbar
#
BLOCK MSOFT Q=  5.00072598E+03  # The soft SUSY breaking masses at the scale Q
         1     6.00000000E+01   # M_1(Q)              
         2     3.00000000E+03   # M_2(Q)              
         3     2.13913800E+03   # M_3(Q)              
        21     6.78855249E+06   # mH1^2(Q)            
        22    -1.33310171E+06   # mH2^2(Q)            
        31     5.00000000E+03   # meL(Q)              
        32     5.00000000E+03   # mmuL(Q)             
        33     5.00000000E+03   # mtauL(Q)            
        34     5.00000000E+03   # meR(Q)              
        35     5.00000000E+03   # mmuR(Q)             
        36     5.00000000E+03   # mtauR(Q)            
        41     4.99999999E+03   # mqL1(Q)             
        42     4.99999999E+03   # mqL2(Q)             
        43     4.99999999E+03   # mqL3(Q)             
        44     4.99999999E+03   # muR(Q)              
        45     4.99999999E+03   # mcR(Q)              
        46     4.99999999E+03   # mtR(Q)              
        47     4.99999999E+03   # mdR(Q)              
        48     4.99999999E+03   # msR(Q)              
        49     4.99999999E+03   # mbR(Q)              
#
#
#
#                             =================
#                             |The decay table|
#                             =================
#
# - The QCD corrections to the decays gluino -> squark  + quark
#                                     squark -> gaugino + quark_prime
#                                     squark -> squark_prime + Higgs
#                                     squark -> gluino  + quark
#   are included.
#
# - The multi-body decays for the inos, stops and sbottoms are included.
#
# - The loop induced decays for the gluino, neutralinos and stops
#   are included.
#
# - The SUSY decays of the top quark are included.
#
#
#         PDG            Width
DECAY         6     1.40027357E+00   # top decays
#          BR         NDA      ID1       ID2
     1.00000000E+00    2           5        24   # BR(t ->  b    W+)
#
#         PDG            Width
DECAY   1000021     1.80297125E-03   # gluino decays
#          BR         NDA      ID1       ID2
     3.86415683E-06    2     1000022        21   # BR(~g -> ~chi_10 g)
     6.34850869E-03    2     1000023        21   # BR(~g -> ~chi_20 g)
     6.31509937E-03    2     1000025        21   # BR(~g -> ~chi_30 g)
#           BR         NDA      ID1       ID2       ID3
     4.19824123E-02    3     1000022         1        -1   # BR(~g -> ~chi_10 d  db)
     2.30520076E-05    3     1000023         1        -1   # BR(~g -> ~chi_20 d  db)
     5.19787514E-06    3     1000025         1        -1   # BR(~g -> ~chi_30 d  db)
     1.43144987E-01    3     1000022         2        -2   # BR(~g -> ~chi_10 u  ub)
     4.60348764E-05    3     1000023         2        -2   # BR(~g -> ~chi_20 u  ub)
     5.35737519E-06    3     1000025         2        -2   # BR(~g -> ~chi_30 u  ub)
     4.19824123E-02    3     1000022         3        -3   # BR(~g -> ~chi_10 s  sb)
     2.30520076E-05    3     1000023         3        -3   # BR(~g -> ~chi_20 s  sb)
     5.19787514E-06    3     1000025         3        -3   # BR(~g -> ~chi_30 s  sb)
     1.43144987E-01    3     1000022         4        -4   # BR(~g -> ~chi_10 c  cb)
     4.60348764E-05    3     1000023         4        -4   # BR(~g -> ~chi_20 c  cb)
     5.35737519E-06    3     1000025         4        -4   # BR(~g -> ~chi_30 c  cb)
     4.25262737E-02    3     1000022         5        -5   # BR(~g -> ~chi_10 b  bb)
     3.10583108E-03    3     1000023         5        -5   # BR(~g -> ~chi_20 b  bb)
     3.04788296E-03    3     1000025         5        -5   # BR(~g -> ~chi_30 b  bb)
     1.45821870E-01    3     1000022         6        -6   # BR(~g -> ~chi_10 t  tb)
     1.06151476E-01    3     1000023         6        -6   # BR(~g -> ~chi_20 t  tb)
     9.03431986E-02    3     1000025         6        -6   # BR(~g -> ~chi_30 t  tb)
     6.09138083E-05    3     1000024         1        -2   # BR(~g -> ~chi_1+ d  ub)
     6.09138083E-05    3    -1000024         2        -1   # BR(~g -> ~chi_1- u  db)
     6.09138083E-05    3     1000024         3        -4   # BR(~g -> ~chi_1+ s  cb)
     6.09138083E-05    3    -1000024         4        -3   # BR(~g -> ~chi_1- c  sb)
     1.12839129E-01    3     1000024         5        -6   # BR(~g -> ~chi_1+ b  tb)
     1.12839129E-01    3    -1000024         6        -5   # BR(~g -> ~chi_1- t  bb)
#
#         PDG            Width
DECAY   1000006     2.85500547E+02   # stop1 decays
#          BR         NDA      ID1       ID2
     3.10154879E-02    2     1000022         6   # BR(~t_1 -> ~chi_10 t )
     9.76280988E-02    2     1000023         6   # BR(~t_1 -> ~chi_20 t )
     9.38907897E-02    2     1000025         6   # BR(~t_1 -> ~chi_30 t )
     7.39940271E-03    2     1000035         6   # BR(~t_1 -> ~chi_40 t )
     1.42183067E-01    2     1000024         5   # BR(~t_1 -> ~chi_1+ b )
     1.47243781E-02    2     1000037         5   # BR(~t_1 -> ~chi_2+ b )
     6.13158776E-01    2     1000021         6   # BR(~t_1 -> ~g      t )
#
#         PDG            Width
DECAY   2000006     2.97675142E+02   # stop2 decays
#          BR         NDA      ID1       ID2
     1.16467748E-02    2     1000022         6   # BR(~t_2 -> ~chi_10 t )
     9.68668409E-02    2     1000023         6   # BR(~t_2 -> ~chi_20 t )
     1.00771130E-01    2     1000025         6   # BR(~t_2 -> ~chi_30 t )
     1.86671590E-02    2     1000035         6   # BR(~t_2 -> ~chi_40 t )
     5.77655018E-02    2     1000024         5   # BR(~t_2 -> ~chi_1+ b )
     3.70873844E-02    2     1000037         5   # BR(~t_2 -> ~chi_2+ b )
     6.73011808E-01    2     1000021         6   # BR(~t_2 -> ~g      t )
     9.37067628E-04    2     1000006        25   # BR(~t_2 -> ~t_1    h )
     3.24633276E-03    2     1000006        23   # BR(~t_2 -> ~t_1    Z )
#
#         PDG            Width
DECAY   1000005     2.72945902E+02   # sbottom1 decays
#          BR         NDA      ID1       ID2
     2.84723598E-03    2     1000022         5   # BR(~b_1 -> ~chi_10 b )
     2.77579209E-03    2     1000023         5   # BR(~b_1 -> ~chi_20 b )
     2.64646967E-03    2     1000025         5   # BR(~b_1 -> ~chi_30 b )
     2.76081826E-02    2     1000035         5   # BR(~b_1 -> ~chi_40 b )
     2.07538355E-01    2    -1000024         6   # BR(~b_1 -> ~chi_1- t )
     5.55463244E-02    2    -1000037         6   # BR(~b_1 -> ~chi_2- t )
     6.99066011E-01    2     1000021         5   # BR(~b_1 -> ~g      b )
     1.97162896E-03    2     1000006       -24   # BR(~b_1 -> ~t_1    W-)
#
#         PDG            Width
DECAY   2000005     2.00379412E+02   # sbottom2 decays
#          BR         NDA      ID1       ID2
     1.45984553E-02    2     1000022         5   # BR(~b_2 -> ~chi_10 b )
     3.66042231E-03    2     1000023         5   # BR(~b_2 -> ~chi_20 b )
     3.80357299E-03    2     1000025         5   # BR(~b_2 -> ~chi_30 b )
     3.79031307E-04    2     1000035         5   # BR(~b_2 -> ~chi_40 b )
     1.00248415E-02    2    -1000024         6   # BR(~b_2 -> ~chi_1- t )
     7.62327122E-04    2    -1000037         6   # BR(~b_2 -> ~chi_2- t )
     9.66656963E-01    2     1000021         5   # BR(~b_2 -> ~g      b )
     1.14386763E-04    2     1000006       -24   # BR(~b_2 -> ~t_1    W-)
#
#         PDG            Width
DECAY   1000002     2.19673539E+02   # sup_L decays
#          BR         NDA      ID1       ID2
     3.39132925E-03    2     1000022         2   # BR(~u_L -> ~chi_10 u)
     8.37061940E-05    2     1000023         2   # BR(~u_L -> ~chi_20 u)
     6.00831360E-06    2     1000025         2   # BR(~u_L -> ~chi_30 u)
     3.58781990E-02    2     1000035         2   # BR(~u_L -> ~chi_40 u)
     2.76337219E-04    2     1000024         1   # BR(~u_L -> ~chi_1+ d)
     7.17029706E-02    2     1000037         1   # BR(~u_L -> ~chi_2+ d)
     8.88661449E-01    2     1000021         2   # BR(~u_L -> ~g      u)
#
#         PDG            Width
DECAY   2000002     2.05547593E+02   # sup_R decays
#          BR         NDA      ID1       ID2
     5.76990117E-02    2     1000022         2   # BR(~u_R -> ~chi_10 u)
     2.20633953E-05    2     1000023         2   # BR(~u_R -> ~chi_20 u)
     2.82081719E-05    2     1000025         2   # BR(~u_R -> ~chi_30 u)
     4.43466600E-09    2     1000035         2   # BR(~u_R -> ~chi_40 u)
     9.42250712E-01    2     1000021         2   # BR(~u_R -> ~g      u)
#
#         PDG            Width
DECAY   1000001     2.19690997E+02   # sdown_L decays
#          BR         NDA      ID1       ID2
     3.38117054E-03    2     1000022         1   # BR(~d_L -> ~chi_10 d)
     4.72266714E-05    2     1000023         1   # BR(~d_L -> ~chi_20 d)
     2.52610789E-05    2     1000025         1   # BR(~d_L -> ~chi_30 d)
     3.58985967E-02    2     1000035         1   # BR(~d_L -> ~chi_40 d)
     3.65572023E-05    2    -1000024         2   # BR(~d_L -> ~chi_1- u)
     7.18325600E-02    2    -1000037         2   # BR(~d_L -> ~chi_2- u)
     8.88778628E-01    2     1000021         1   # BR(~d_L -> ~g      d)
#
#         PDG            Width
DECAY   2000001     1.96669282E+02   # sdown_R decays
#          BR         NDA      ID1       ID2
     1.50767727E-02    2     1000022         1   # BR(~d_R -> ~chi_10 d)
     5.76527465E-06    2     1000023         1   # BR(~d_R -> ~chi_20 d)
     7.37093572E-06    2     1000025         1   # BR(~d_R -> ~chi_30 d)
     1.15892543E-09    2     1000035         1   # BR(~d_R -> ~chi_40 d)
     9.84910090E-01    2     1000021         1   # BR(~d_R -> ~g      d)
#
#         PDG            Width
DECAY   1000004     2.19673539E+02   # scharm_L decays
#          BR         NDA      ID1       ID2
     3.39132925E-03    2     1000022         4   # BR(~c_L -> ~chi_10 c)
     8.37061940E-05    2     1000023         4   # BR(~c_L -> ~chi_20 c)
     6.00831360E-06    2     1000025         4   # BR(~c_L -> ~chi_30 c)
     3.58781990E-02    2     1000035         4   # BR(~c_L -> ~chi_40 c)
     2.76337219E-04    2     1000024         3   # BR(~c_L -> ~chi_1+ s)
     7.17029706E-02    2     1000037         3   # BR(~c_L -> ~chi_2+ s)
     8.88661449E-01    2     1000021         4   # BR(~c_L -> ~g      c)
#
#         PDG            Width
DECAY   2000004     2.05547593E+02   # scharm_R decays
#          BR         NDA      ID1       ID2
     5.76990117E-02    2     1000022         4   # BR(~c_R -> ~chi_10 c)
     2.20633953E-05    2     1000023         4   # BR(~c_R -> ~chi_20 c)
     2.82081719E-05    2     1000025         4   # BR(~c_R -> ~chi_30 c)
     4.43466600E-09    2     1000035         4   # BR(~c_R -> ~chi_40 c)
     9.42250712E-01    2     1000021         4   # BR(~c_R -> ~g      c)
#
#         PDG            Width
DECAY   1000003     2.19690997E+02   # sstrange_L decays
#          BR         NDA      ID1       ID2
     3.38117054E-03    2     1000022         3   # BR(~s_L -> ~chi_10 s)
     4.72266714E-05    2     1000023         3   # BR(~s_L -> ~chi_20 s)
     2.52610789E-05    2     1000025         3   # BR(~s_L -> ~chi_30 s)
     3.58985967E-02    2     1000035         3   # BR(~s_L -> ~chi_40 s)
     3.65572023E-05    2    -1000024         4   # BR(~s_L -> ~chi_1- c)
     7.18325600E-02    2    -1000037         4   # BR(~s_L -> ~chi_2- c)
     8.88778628E-01    2     1000021         3   # BR(~s_L -> ~g      s)
#
#         PDG            Width
DECAY   2000003     1.96669282E+02   # sstrange_R decays
#          BR         NDA      ID1       ID2
     1.50767727E-02    2     1000022         3   # BR(~s_R -> ~chi_10 s)
     5.76527465E-06    2     1000023         3   # BR(~s_R -> ~chi_20 s)
     7.37093572E-06    2     1000025         3   # BR(~s_R -> ~chi_30 s)
     1.15892543E-09    2     1000035         3   # BR(~s_R -> ~chi_40 s)
     9.84910090E-01    2     1000021         3   # BR(~s_R -> ~g      s)
#
#         PDG            Width
DECAY   1000011     3.02400153E+01   # selectron_L decays
#          BR         NDA      ID1       ID2
     2.26702883E-01    2     1000022        11   # BR(~e_L -> ~chi_10 e-)
     9.63928972E-04    2     1000023        11   # BR(~e_L -> ~chi_20 e-)
     1.12707772E-07    2     1000025        11   # BR(~e_L -> ~chi_30 e-)
     2.57153600E-01    2     1000035        11   # BR(~e_L -> ~chi_40 e-)
     2.69893675E-04    2    -1000024        12   # BR(~e_L -> ~chi_1- nu_e)
     5.14909581E-01    2    -1000037        12   # BR(~e_L -> ~chi_2- nu_e)
#
#         PDG            Width
DECAY   2000011     2.73600929E+01   # selectron_R decays
#          BR         NDA      ID1       ID2
     9.99135290E-01    2     1000022        11   # BR(~e_R -> ~chi_10 e-)
     3.79478755E-04    2     1000023        11   # BR(~e_R -> ~chi_20 e-)
     4.85156968E-04    2     1000025        11   # BR(~e_R -> ~chi_30 e-)
     7.41731673E-08    2     1000035        11   # BR(~e_R -> ~chi_40 e-)
#
#         PDG            Width
DECAY   1000013     3.02400153E+01   # smuon_L decays
#          BR         NDA      ID1       ID2
     2.26702883E-01    2     1000022        13   # BR(~mu_L -> ~chi_10 mu-)
     9.63928972E-04    2     1000023        13   # BR(~mu_L -> ~chi_20 mu-)
     1.12707772E-07    2     1000025        13   # BR(~mu_L -> ~chi_30 mu-)
     2.57153600E-01    2     1000035        13   # BR(~mu_L -> ~chi_40 mu-)
     2.69893675E-04    2    -1000024        14   # BR(~mu_L -> ~chi_1- nu_mu)
     5.14909581E-01    2    -1000037        14   # BR(~mu_L -> ~chi_2- nu_mu)
#
#         PDG            Width
DECAY   2000013     2.73600929E+01   # smuon_R decays
#          BR         NDA      ID1       ID2
     9.99135290E-01    2     1000022        13   # BR(~mu_R -> ~chi_10 mu-)
     3.79478755E-04    2     1000023        13   # BR(~mu_R -> ~chi_20 mu-)
     4.85156968E-04    2     1000025        13   # BR(~mu_R -> ~chi_30 mu-)
     7.41731673E-08    2     1000035        13   # BR(~mu_R -> ~chi_40 mu-)
#
#         PDG            Width
DECAY   1000015     2.90025426E+01   # stau_1 decays
#          BR         NDA      ID1       ID2
     9.25608539E-01    2     1000022        15   # BR(~tau_1 -> ~chi_10  tau-)
     1.44558797E-02    2     1000023        15   # BR(~tau_1 -> ~chi_20  tau-)
     1.32796774E-02    2     1000025        15   # BR(~tau_1 -> ~chi_30  tau-)
     6.40155988E-03    2     1000035        15   # BR(~tau_1 -> ~chi_40  tau-)
     2.74363247E-02    2    -1000024        16   # BR(~tau_1 -> ~chi_1-  nu_tau)
     1.28180189E-02    2    -1000037        16   # BR(~tau_1 -> ~chi_2-  nu_tau)
#
#         PDG            Width
DECAY   2000015     3.09575895E+01   # stau_2 decays
#          BR         NDA      ID1       ID2
     2.37161415E-01    2     1000022        15   # BR(~tau_2 -> ~chi_10  tau-)
     1.33015941E-02    2     1000023        15   # BR(~tau_2 -> ~chi_20  tau-)
     1.35185347E-02    2     1000025        15   # BR(~tau_2 -> ~chi_30  tau-)
     2.45120183E-01    2     1000035        15   # BR(~tau_2 -> ~chi_40  tau-)
     8.46224397E-05    2    -1000024        16   # BR(~tau_2 -> ~chi_1-  nu_tau)
     4.90813651E-01    2    -1000037        16   # BR(~tau_2 -> ~chi_2-  nu_tau)
#
#         PDG            Width
DECAY   1000012     3.02422280E+01   # snu_eL decays
#          BR         NDA      ID1       ID2
     2.26415791E-01    2     1000022        12   # BR(~nu_eL -> ~chi_10 nu_e)
     1.55831325E-04    2     1000023        12   # BR(~nu_eL -> ~chi_20 nu_e)
     4.26378048E-04    2     1000025        12   # BR(~nu_eL -> ~chi_30 nu_e)
     2.57233358E-01    2     1000035        12   # BR(~nu_eL -> ~chi_40 nu_e)
     2.03956277E-03    2     1000024        11   # BR(~nu_eL -> ~chi_1+ e-)
     5.13729079E-01    2     1000037        11   # BR(~nu_eL -> ~chi_2+ e-)
#
#         PDG            Width
DECAY   1000014     3.02422280E+01   # snu_muL decays
#          BR         NDA      ID1       ID2
     2.26415791E-01    2     1000022        14   # BR(~nu_muL -> ~chi_10 nu_mu)
     1.55831325E-04    2     1000023        14   # BR(~nu_muL -> ~chi_20 nu_mu)
     4.26378048E-04    2     1000025        14   # BR(~nu_muL -> ~chi_30 nu_mu)
     2.57233358E-01    2     1000035        14   # BR(~nu_muL -> ~chi_40 nu_mu)
     2.03956277E-03    2     1000024        13   # BR(~nu_muL -> ~chi_1+ mu-)
     5.13729079E-01    2     1000037        13   # BR(~nu_muL -> ~chi_2+ mu-)
#
#         PDG            Width
DECAY   1000016     3.10260323E+01   # snu_tauL decays
#          BR         NDA      ID1       ID2
     2.20672109E-01    2     1000022        16   # BR(~nu_tauL -> ~chi_10 nu_tau)
     1.51872709E-04    2     1000023        16   # BR(~nu_tauL -> ~chi_20 nu_tau)
     4.15546620E-04    2     1000025        16   # BR(~nu_tauL -> ~chi_30 nu_tau)
     2.50643005E-01    2     1000035        16   # BR(~nu_tauL -> ~chi_40 nu_tau)
     2.75493717E-02    2     1000024        15   # BR(~nu_tauL -> ~chi_1+ tau-)
     5.00568095E-01    2     1000037        15   # BR(~nu_tauL -> ~chi_2+ tau-)
#
#         PDG            Width
DECAY   1000024     8.59856667E-01   # chargino1+ decays
#          BR         NDA      ID1       ID2
     1.00000000E+00    2     1000022        24   # BR(~chi_1+ -> ~chi_10  W+)
#
#         PDG            Width
DECAY   1000037     1.88507567E+01   # chargino2+ decays
#          BR         NDA      ID1       ID2
     2.52813700E-01    2     1000024        23   # BR(~chi_2+ -> ~chi_1+  Z )
     2.42475715E-04    2     1000022        24   # BR(~chi_2+ -> ~chi_10  W+)
     2.43961295E-01    2     1000023        24   # BR(~chi_2+ -> ~chi_20  W+)
     2.43776116E-01    2     1000025        24   # BR(~chi_2+ -> ~chi_30  W+)
     2.59205947E-01    2     1000024        25   # BR(~chi_2+ -> ~chi_1+  h )
     4.67056011E-07    2     1000022        37   # BR(~chi_2+ -> ~chi_10  H+)
#
#         PDG            Width
DECAY   1000022     0.00000000E+00   # neutralino1 decays
#
#         PDG            Width
DECAY   1000023     9.02993104E-01   # neutralino2 decays
#          BR         NDA      ID1       ID2
     5.54023125E-01    2     1000022        23   # BR(~chi_20 -> ~chi_10   Z )
     4.45976875E-01    2     1000022        25   # BR(~chi_20 -> ~chi_10   h )
#
#         PDG            Width
DECAY   1000025     9.11350198E-01   # neutralino3 decays
#          BR         NDA      ID1       ID2
     4.29710753E-01    2     1000022        23   # BR(~chi_30 -> ~chi_10   Z )
     5.70289247E-01    2     1000022        25   # BR(~chi_30 -> ~chi_10   h )
#
#         PDG            Width
DECAY   1000035     1.88558595E+01   # neutralino4 decays
#          BR         NDA      ID1       ID2
     8.22962038E-05    2     1000022        23   # BR(~chi_40 -> ~chi_10   Z )
     4.53971373E-02    2     1000023        23   # BR(~chi_40 -> ~chi_20   Z )
     2.06799497E-01    2     1000025        23   # BR(~chi_40 -> ~chi_30   Z )
     2.44417631E-01    2     1000024       -24   # BR(~chi_40 -> ~chi_1+   W-)
     2.44417631E-01    2    -1000024        24   # BR(~chi_40 -> ~chi_1-   W+)
     1.65205147E-04    2     1000022        25   # BR(~chi_40 -> ~chi_10   h )
     4.23717692E-07    2     1000022        35   # BR(~chi_40 -> ~chi_10   H )
     6.02083617E-08    2     1000022        36   # BR(~chi_40 -> ~chi_10   A )
     2.13306938E-01    2     1000023        25   # BR(~chi_40 -> ~chi_20   h )
     4.54131798E-02    2     1000025        25   # BR(~chi_40 -> ~chi_30   h )
#
#         PDG            Width
DECAY        25     4.04702151E-03   # h decays
#          BR         NDA      ID1       ID2
     6.05714266E-01    2           5        -5   # BR(h -> b       bb     )
     6.41129197E-02    2         -15        15   # BR(h -> tau+    tau-   )
     2.26982816E-04    2         -13        13   # BR(h -> mu+     mu-    )
     4.81151266E-04    2           3        -3   # BR(h -> s       sb     )
     2.08503294E-02    2           4        -4   # BR(h -> c       cb     )
     6.75060031E-02    2          21        21   # BR(h -> g       g      )
     2.32236076E-03    2          22        22   # BR(h -> gam     gam    )
     1.50184803E-03    2          22        23   # BR(h -> Z       gam    )
     2.11961560E-01    2          24       -24   # BR(h -> W+      W-     )
     2.52856105E-02    2          23        23   # BR(h -> Z       Z      )
     3.69678946E-05    2     1000022   1000022   # BR(h -> ~chi_10 ~chi_10)
#
#         PDG            Width
DECAY        35     7.45308103E+00   # H decays
#          BR         NDA      ID1       ID2
     4.37776929E-01    2           5        -5   # BR(H -> b       bb     )
     7.47449823E-02    2         -15        15   # BR(H -> tau+    tau-   )
     2.64304195E-04    2         -13        13   # BR(H -> mu+     mu-    )
     3.23996395E-04    2           3        -3   # BR(H -> s       sb     )
     1.81243917E-06    2           4        -4   # BR(H -> c       cb     )
     1.81077031E-01    2           6        -6   # BR(H -> t       tb     )
     6.01296122E-05    2          21        21   # BR(H -> g       g      )
     3.84040327E-07    2          22        22   # BR(H -> gam     gam    )
     1.06953421E-07    2          23        22   # BR(H -> Z       gam    )
     8.15462910E-05    2          24       -24   # BR(H -> W+      W-     )
     4.07215432E-05    2          23        23   # BR(H -> Z       Z      )
     3.06211358E-04    2          25        25   # BR(H -> h       h      )
     1.57464920E-23    2          36        36   # BR(H -> A       A      )
     1.29424842E-18    2          23        36   # BR(H -> Z       A      )
     3.04065763E-04    2     1000024  -1000024   # BR(H -> ~chi_1+ ~chi_1-)
     9.88592292E-04    2     1000022   1000022   # BR(H -> ~chi_10 ~chi_10)
     2.94489598E-05    2     1000023   1000023   # BR(H -> ~chi_20 ~chi_20)
     4.25111219E-05    2     1000025   1000025   # BR(H -> ~chi_30 ~chi_30)
     1.81034293E-01    2     1000022   1000023   # BR(H -> ~chi_10 ~chi_20)
     1.22866807E-01    2     1000022   1000025   # BR(H -> ~chi_10 ~chi_30)
     5.61269931E-05    2     1000023   1000025   # BR(H -> ~chi_20 ~chi_30)
#
#         PDG            Width
DECAY        36     7.47223338E+00   # A decays
#          BR         NDA      ID1       ID2
     4.36800792E-01    2           5        -5   # BR(A -> b       bb     )
     7.45555488E-02    2         -15        15   # BR(A -> tau+    tau-   )
     2.63633974E-04    2         -13        13   # BR(A -> mu+     mu-    )
     3.23411030E-04    2           3        -3   # BR(A -> s       sb     )
     1.81529844E-06    2           4        -4   # BR(A -> c       cb     )
     1.81262626E-01    2           6        -6   # BR(A -> t       tb     )
     1.79371898E-04    2          21        21   # BR(A -> g       g      )
     4.26086990E-07    2          22        22   # BR(A -> gam     gam    )
     2.17309144E-07    2          23        22   # BR(A -> Z       gam    )
     8.10293181E-05    2          23        25   # BR(A -> Z       h      )
     2.01660671E-03    2     1000024  -1000024   # BR(A -> ~chi_1+ ~chi_1-)
     1.01375368E-03    2     1000022   1000022   # BR(A -> ~chi_10 ~chi_10)
     1.48281690E-04    2     1000023   1000023   # BR(A -> ~chi_20 ~chi_20)
     5.12119975E-04    2     1000025   1000025   # BR(A -> ~chi_30 ~chi_30)
     1.24036379E-01    2     1000022   1000023   # BR(A -> ~chi_10 ~chi_20)
     1.78803261E-01    2     1000022   1000025   # BR(A -> ~chi_10 ~chi_30)
     7.26669543E-07    2     1000023   1000025   # BR(A -> ~chi_20 ~chi_30)
#
#         PDG            Width
DECAY        37     7.46546782E+00   # H+ decays
#          BR         NDA      ID1       ID2
     7.05399595E-04    2           4        -5   # BR(H+ -> c       bb     )
     7.46448241E-02    2         -15        16   # BR(H+ -> tau+    nu_tau )
     2.63949658E-04    2         -13        14   # BR(H+ -> mu+     nu_mu  )
     4.51453436E-06    2           2        -5   # BR(H+ -> u       bb     )
     1.54880165E-05    2           2        -3   # BR(H+ -> u       sb     )
     3.20293333E-04    2           4        -3   # BR(H+ -> c       sb     )
     6.18499398E-01    2           6        -5   # BR(H+ -> t       bb     )
     8.12256324E-05    2          24        25   # BR(H+ -> W+      h      )
     8.91508683E-14    2          24        36   # BR(H+ -> W+      A      )
     3.05191987E-01    2     1000024   1000022   # BR(H+ -> ~chi_1+ ~chi_10)
     2.16376249E-04    2     1000024   1000023   # BR(H+ -> ~chi_1+ ~chi_20)
     5.65435451E-05    2     1000024   1000025   # BR(H+ -> ~chi_1+ ~chi_30)
