#
#                              ======================
#                              | THE SUSYHIT OUTPUT |
#                              ======================
#
#
#              ------------------------------------------------------
#              |     This is the output of the SUSY-HIT package     |
#              |  created by A.Djouadi, M.Muehlleitner and M.Spira. |
#              |  In case of problems with SUSY-HIT email to        |
#              |           margarete.muehlleitner@cern.ch           |
#              |           michael.spira@psi.ch                     |
#              |           abdelhak.djouadi@cern.ch                 |
#              ------------------------------------------------------
#
#              ------------------------------------------------------
#              |  SUSY Les Houches Accord - MSSM Spectrum + Decays  |
#              |              based on the decay programs           |
#              |                                                    |
#              |                     SDECAY 1.3b                    |
#              |                                                    |
#              |  Authors: M.Muhlleitner, A.Djouadi and Y.Mambrini  |
#              |  Ref.:    Comput.Phys.Commun.168(2005)46           |
#              |           [hep-ph/0311167]                         |
#              |                                                    |
#              |                     HDECAY 3.4                     |
#              |                                                    |
#              |  By: A.Djouadi,J.Kalinowski,M.Muhlleitner,M.Spira  |
#              |  Ref.:    Comput.Phys.Commun.108(1998)56           |
#              |           [hep-ph/9704448]                         |
#              |                                                    |
#              |                                                    |
#              |  If not stated otherwise all DRbar couplings and   |
#              |  soft SUSY breaking masses are given at the scale  |
#              |  Q=  0.50007339E+04
#              |                                                    |
#              ------------------------------------------------------
#
#
BLOCK DCINFO  # Decay Program information
     1   SDECAY/HDECAY # decay calculator
     2   1.3b  /3.4    # version number
#
BLOCK SPINFO  # Spectrum calculator information
     1    SOFTSUSY    # spectrum calculator                
     2    3.4.0       # version number                     
#
BLOCK MODSEL  # Model selection
     1     0   #  nonUniversal                                     
#
BLOCK SMINPUTS  # Standard Model inputs
         1     1.25778332E+02   # alpha_em^-1(M_Z)^MSbar
         2     1.16570000E-05   # G_F [GeV^-2]
         3     1.17200002E-01   # alpha_S(M_Z)^MSbar
         4     9.11876000E+01   # M_Z pole mass
         5     4.25000000E+00   # mb(mb)^MSbar
         6     1.72500000E+02   # mt pole mass
         7     1.77682000E+00   # mtau pole mass
#
BLOCK MINPAR  # Input parameters - minimal models
         3     1.00000000E+01   # tanb                
#
BLOCK EXTPAR  # Input parameters - non-minimal models
         0    -1.00000000E+00   # Set                 
         1     6.00000000E+01   # M_1(MX)             
         2     3.00000000E+03   # M_2(MX)             
         3     1.12229600E+03   # M_3(MX)             
        11     5.00000000E+03   # At(MX)              
        12     5.00000000E+03   # Ab(MX)              
        13     0.00000000E+00   # Atau(MX)            
        23    -9.59209000E+02   # mu(MX)              
        26     3.00000000E+03   # mA(pole)            
        31     5.00000000E+03   # meL(MX)             
        32     5.00000000E+03   # mmuL(MX)            
        33     5.00000000E+03   # mtauL(MX)           
        34     5.00000000E+03   # meR(MX)             
        35     5.00000000E+03   # mmuR(MX)            
        36     5.00000000E+03   # mtauR(MX)           
        41     5.00000000E+03   # mqL1(MX)            
        42     5.00000000E+03   # mqL2(MX)            
        43     5.00000000E+03   # mqL3(MX)            
        44     5.00000000E+03   # muR(MX)             
        45     5.00000000E+03   # mcR(MX)             
        46     5.00000000E+03   # mtR(MX)             
        47     5.00000000E+03   # mdR(MX)             
        48     5.00000000E+03   # msR(MX)             
        49     5.00000000E+03   # mbR(MX)             
#
BLOCK MASS  # Mass Spectrum
# PDG code           mass       particle
        24     8.00938820E+01   # W+
        25     1.24571841E+02   # h
        35     3.00008129E+03   # H
        36     2.99999854E+03   # A
        37     3.00111943E+03   # H+
         5     4.87878001E+00   # b-quark pole mass calculated from mb(mb)_Msbar
   1000001     5.06593086E+03   # ~d_L
   2000001     5.04810565E+03   # ~d_R
   1000002     5.06545486E+03   # ~u_L
   2000002     5.04781936E+03   # ~u_R
   1000003     5.06593086E+03   # ~s_L
   2000003     5.04810565E+03   # ~s_R
   1000004     5.06545486E+03   # ~c_L
   2000004     5.04781936E+03   # ~c_R
   1000005     5.01195221E+03   # ~b_1
   2000005     5.04665747E+03   # ~b_2
   1000006     4.90246122E+03   # ~t_1
   2000006     5.05758243E+03   # ~t_2
   1000011     5.01907260E+03   # ~e_L
   2000011     5.00592438E+03   # ~e_R
   1000012     5.01812366E+03   # ~nu_eL
   1000013     5.01907260E+03   # ~mu_L
   2000013     5.00592438E+03   # ~mu_R
   1000014     5.01812366E+03   # ~nu_muL
   1000015     5.00461217E+03   # ~tau_1
   2000015     5.01876729E+03   # ~tau_2
   1000016     5.01757747E+03   # ~nu_tauL
   1000021     1.40000070E+03   # ~g
   1000022     6.02984687E+01   # ~chi_10
   1000023     9.99651655E+02   # ~chi_20
   1000025    -1.00190637E+03   # ~chi_30
   1000035     3.07425762E+03   # ~chi_40
   1000024     1.00000004E+03   # ~chi_1+
   1000037     3.07442512E+03   # ~chi_2+
#
BLOCK NMIX  # Neutralino Mixing Matrix
  1  1     9.99006898E-01   # N_11
  1  2     1.84565887E-04   # N_12
  1  3    -4.45123192E-02   # N_13
  1  4     1.95897853E-03   # N_14
  2  1     3.00984815E-02   # N_21
  2  2     2.34956573E-02   # N_22
  2  3     7.06701176E-01   # N_23
  2  4     7.06481057E-01   # N_24
  3  1    -3.28502386E-02   # N_31
  3  2     1.49131245E-02   # N_32
  3  3    -7.06084466E-01   # N_33
  3  4     7.07208023E-01   # N_34
  4  1    -4.01822133E-04   # N_41
  4  2     9.99612684E-01   # N_42
  4  3    -6.06861806E-03   # N_43
  4  4    -2.71567979E-02   # N_44
#
BLOCK UMIX  # Chargino Mixing Matrix U
  1  1     8.59600737E-03   # U_11
  1  2     9.99963054E-01   # U_12
  2  1    -9.99963054E-01   # U_21
  2  2     8.59600737E-03   # U_22
#
BLOCK VMIX  # Chargino Mixing Matrix V
  1  1     3.84353229E-02   # V_11
  1  2    -9.99261090E-01   # V_12
  2  1    -9.99261090E-01   # V_21
  2  2    -3.84353229E-02   # V_22
#
BLOCK STOPMIX  # Stop Mixing Matrix
  1  1    -5.08987940E-01   # cos(theta_t)
  1  2     8.60773650E-01   # sin(theta_t)
  2  1    -8.60773650E-01   # -sin(theta_t)
  2  2    -5.08987940E-01   # cos(theta_t)
#
BLOCK SBOTMIX  # Sbottom Mixing Matrix
  1  1     9.97049041E-01   # cos(theta_b)
  1  2    -7.67672446E-02   # sin(theta_b)
  2  1     7.67672446E-02   # -sin(theta_b)
  2  2     9.97049041E-01   # cos(theta_b)
#
BLOCK STAUMIX  # Stau Mixing Matrix
  1  1    -1.13916261E-01   # cos(theta_tau)
  1  2     9.93490355E-01   # sin(theta_tau)
  2  1    -9.93490355E-01   # -sin(theta_tau)
  2  2    -1.13916261E-01   # cos(theta_tau)
#
BLOCK ALPHA  # Higgs mixing
          -1.05451357E-01   # Mixing angle in the neutral Higgs boson sector
#
BLOCK HMIX Q=  5.00073393E+03  # DRbar Higgs Parameters
         1    -9.76541770E+02   # mu(Q)MSSM           
         2     9.47183431E+00   # tan                 
         3     2.41883489E+02   # higgs               
         4     8.51295800E+06   # mA^2(Q)MSSM         
#
BLOCK GAUGE Q=  5.00073393E+03  # The gauge couplings
     1     3.70808716E-01   # gprime(Q) DRbar
     2     6.32583155E-01   # g(Q) DRbar
     3     1.00371580E+00   # g3(Q) DRbar
#
BLOCK AU Q=  5.00073393E+03  # The trilinear couplings
  1  1     5.00000001E+03   # A_u(Q) DRbar
  2  2     5.00000001E+03   # A_c(Q) DRbar
  3  3     5.00000001E+03   # A_t(Q) DRbar
#
BLOCK AD Q=  5.00073393E+03  # The trilinear couplings
  1  1     5.00000000E+03   # A_d(Q) DRbar
  2  2     5.00000000E+03   # A_s(Q) DRbar
  3  3     5.00000001E+03   # A_b(Q) DRbar
#
BLOCK AE Q=  5.00073393E+03  # The trilinear couplings
  1  1     0.00000000E+00   # A_e(Q) DRbar
  2  2     8.13613682E-08   # A_mu(Q) DRbar
  3  3     8.06366111E-08   # A_tau(Q) DRbar
#
BLOCK Yu Q=  5.00073393E+03  # The Yukawa couplings
  1  1     0.00000000E+00   # y_u(Q) DRbar
  2  2     0.00000000E+00   # y_c(Q) DRbar
  3  3     8.17185484E-01   # y_t(Q) DRbar
#
BLOCK Yd Q=  5.00073393E+03  # The Yukawa couplings
  1  1     0.00000000E+00   # y_d(Q) DRbar
  2  2     0.00000000E+00   # y_s(Q) DRbar
  3  3     1.29986405E-01   # y_b(Q) DRbar
#
BLOCK Ye Q=  5.00073393E+03  # The Yukawa couplings
  1  1     0.00000000E+00   # y_e(Q) DRbar
  2  2     0.00000000E+00   # y_mu(Q) DRbar
  3  3     9.68635070E-02   # y_tau(Q) DRbar
#
BLOCK MSOFT Q=  5.00073393E+03  # The soft SUSY breaking masses at the scale Q
         1     6.00000000E+01   # M_1(Q)              
         2     3.00000000E+03   # M_2(Q)              
         3     1.12229600E+03   # M_3(Q)              
        21     7.74264262E+06   # mH1^2(Q)            
        22    -3.91870592E+05   # mH2^2(Q)            
        31     5.00000000E+03   # meL(Q)              
        32     5.00000000E+03   # mmuL(Q)             
        33     5.00000000E+03   # mtauL(Q)            
        34     5.00000000E+03   # meR(Q)              
        35     5.00000000E+03   # mmuR(Q)             
        36     5.00000000E+03   # mtauR(Q)            
        41     5.00000000E+03   # mqL1(Q)             
        42     5.00000000E+03   # mqL2(Q)             
        43     5.00000000E+03   # mqL3(Q)             
        44     5.00000000E+03   # muR(Q)              
        45     5.00000000E+03   # mcR(Q)              
        46     5.00000000E+03   # mtR(Q)              
        47     5.00000000E+03   # mdR(Q)              
        48     5.00000000E+03   # msR(Q)              
        49     5.00000000E+03   # mbR(Q)              
#
#
#
#                             =================
#                             |The decay table|
#                             =================
#
# - The QCD corrections to the decays gluino -> squark  + quark
#                                     squark -> gaugino + quark_prime
#                                     squark -> squark_prime + Higgs
#                                     squark -> gluino  + quark
#   are included.
#
# - The multi-body decays for the inos, stops and sbottoms are included.
#
# - The loop induced decays for the gluino, neutralinos and stops
#   are included.
#
# - The SUSY decays of the top quark are included.
#
#
#         PDG            Width
DECAY         6     1.40235036E+00   # top decays
#          BR         NDA      ID1       ID2
     1.00000000E+00    2           5        24   # BR(t ->  b    W+)
#
#         PDG            Width
DECAY   1000021     5.08212266E-05   # gluino decays
#          BR         NDA      ID1       ID2
     1.17410464E-05    2     1000022        21   # BR(~g -> ~chi_10 g)
     1.23142388E-02    2     1000023        21   # BR(~g -> ~chi_20 g)
     1.20084392E-02    2     1000025        21   # BR(~g -> ~chi_30 g)
#           BR         NDA      ID1       ID2       ID3
     7.43284591E-02    3     1000022         1        -1   # BR(~g -> ~chi_10 d  db)
     3.90031978E-06    3     1000023         1        -1   # BR(~g -> ~chi_20 d  db)
     1.81128805E-06    3     1000025         1        -1   # BR(~g -> ~chi_30 d  db)
     2.53417515E-01    3     1000022         2        -2   # BR(~g -> ~chi_10 u  ub)
     1.23333771E-05    3     1000023         2        -2   # BR(~g -> ~chi_20 u  ub)
     2.15808697E-06    3     1000025         2        -2   # BR(~g -> ~chi_30 u  ub)
     7.43284591E-02    3     1000022         3        -3   # BR(~g -> ~chi_10 s  sb)
     3.90031978E-06    3     1000023         3        -3   # BR(~g -> ~chi_20 s  sb)
     1.81128805E-06    3     1000025         3        -3   # BR(~g -> ~chi_30 s  sb)
     2.53417515E-01    3     1000022         4        -4   # BR(~g -> ~chi_10 c  cb)
     1.23333771E-05    3     1000023         4        -4   # BR(~g -> ~chi_20 c  cb)
     2.15808697E-06    3     1000025         4        -4   # BR(~g -> ~chi_30 c  cb)
     7.53865348E-02    3     1000022         5        -5   # BR(~g -> ~chi_10 b  bb)
     7.63821406E-04    3     1000023         5        -5   # BR(~g -> ~chi_20 b  bb)
     7.37096772E-04    3     1000025         5        -5   # BR(~g -> ~chi_30 b  bb)
     2.14466522E-01    3     1000022         6        -6   # BR(~g -> ~chi_10 t  tb)
     2.49701864E-03    3     1000023         6        -6   # BR(~g -> ~chi_20 t  tb)
     7.49191047E-04    3     1000025         6        -6   # BR(~g -> ~chi_30 t  tb)
     1.08618029E-05    3     1000024         1        -2   # BR(~g -> ~chi_1+ d  ub)
     1.08618029E-05    3    -1000024         2        -1   # BR(~g -> ~chi_1- u  db)
     1.08618029E-05    3     1000024         3        -4   # BR(~g -> ~chi_1+ s  cb)
     1.08618029E-05    3    -1000024         4        -3   # BR(~g -> ~chi_1- c  sb)
     1.27447976E-02    3     1000024         5        -6   # BR(~g -> ~chi_1+ b  tb)
     1.27447976E-02    3    -1000024         6        -5   # BR(~g -> ~chi_1- t  bb)
#
#         PDG            Width
DECAY   1000006     3.89774723E+02   # stop1 decays
#          BR         NDA      ID1       ID2
     2.26092931E-02    2     1000022         6   # BR(~t_1 -> ~chi_10 t )
     7.78306891E-02    2     1000023         6   # BR(~t_1 -> ~chi_20 t )
     7.47505498E-02    2     1000025         6   # BR(~t_1 -> ~chi_30 t )
     5.39089486E-03    2     1000035         6   # BR(~t_1 -> ~chi_40 t )
     1.12536720E-01    2     1000024         5   # BR(~t_1 -> ~chi_1+ b )
     1.07401973E-02    2     1000037         5   # BR(~t_1 -> ~chi_2+ b )
     6.96141655E-01    2     1000021         6   # BR(~t_1 -> ~g      t )
#
#         PDG            Width
DECAY   2000006     3.93430125E+02   # stop2 decays
#          BR         NDA      ID1       ID2
     9.00557707E-03    2     1000022         6   # BR(~t_2 -> ~chi_10 t )
     7.88804903E-02    2     1000023         6   # BR(~t_2 -> ~chi_20 t )
     8.22249697E-02    2     1000025         6   # BR(~t_2 -> ~chi_30 t )
     1.39664635E-02    2     1000035         6   # BR(~t_2 -> ~chi_40 t )
     4.75878074E-02    2     1000024         5   # BR(~t_2 -> ~chi_1+ b )
     2.77873214E-02    2     1000037         5   # BR(~t_2 -> ~chi_2+ b )
     7.37270648E-01    2     1000021         6   # BR(~t_2 -> ~g      t )
     7.37052366E-04    2     1000006        25   # BR(~t_2 -> ~t_1    h )
     2.53967015E-03    2     1000006        23   # BR(~t_2 -> ~t_1    Z )
#
#         PDG            Width
DECAY   1000005     3.70410917E+02   # sbottom1 decays
#          BR         NDA      ID1       ID2
     2.09152458E-03    2     1000022         5   # BR(~b_1 -> ~chi_10 b )
     2.13849771E-03    2     1000023         5   # BR(~b_1 -> ~chi_20 b )
     2.08018932E-03    2     1000025         5   # BR(~b_1 -> ~chi_30 b )
     2.02662110E-02    2     1000035         5   # BR(~b_1 -> ~chi_40 b )
     1.65944339E-01    2    -1000024         6   # BR(~b_1 -> ~chi_1- t )
     4.07194539E-02    2    -1000037         6   # BR(~b_1 -> ~chi_2- t )
     7.65223578E-01    2     1000021         5   # BR(~b_1 -> ~g      b )
     1.53620707E-03    2     1000006       -24   # BR(~b_1 -> ~t_1    W-)
#
#         PDG            Width
DECAY   2000005     2.92431818E+02   # sbottom2 decays
#          BR         NDA      ID1       ID2
     1.00527778E-02    2     1000022         5   # BR(~b_2 -> ~chi_10 b )
     2.69746586E-03    2     1000023         5   # BR(~b_2 -> ~chi_20 b )
     2.77108310E-03    2     1000025         5   # BR(~b_2 -> ~chi_30 b )
     1.56762578E-04    2     1000035         5   # BR(~b_2 -> ~chi_40 b )
     6.60290925E-03    2    -1000024         6   # BR(~b_2 -> ~chi_1- t )
     3.14924408E-04    2    -1000037         6   # BR(~b_2 -> ~chi_2- t )
     9.77356771E-01    2     1000021         5   # BR(~b_2 -> ~g      b )
     4.73061510E-05    2     1000006       -24   # BR(~b_2 -> ~t_1    W-)
#
#         PDG            Width
DECAY   1000002     3.11403664E+02   # sup_L decays
#          BR         NDA      ID1       ID2
     2.39910207E-03    2     1000022         2   # BR(~u_L -> ~chi_10 u)
     5.01390120E-05    2     1000023         2   # BR(~u_L -> ~chi_20 u)
     4.19058305E-06    2     1000025         2   # BR(~u_L -> ~chi_30 u)
     2.51223110E-02    2     1000035         2   # BR(~u_L -> ~chi_40 u)
     1.71646822E-04    2     1000024         1   # BR(~u_L -> ~chi_1+ d)
     5.02108266E-02    2     1000037         1   # BR(~u_L -> ~chi_2+ d)
     9.22041784E-01    2     1000021         2   # BR(~u_L -> ~g      u)
#
#         PDG            Width
DECAY   2000002     2.97707294E+02   # sup_R decays
#          BR         NDA      ID1       ID2
     3.99354659E-02    2     1000022         2   # BR(~u_R -> ~chi_10 u)
     3.34941441E-05    2     1000023         2   # BR(~u_R -> ~chi_20 u)
     3.98838160E-05    2     1000025         2   # BR(~u_R -> ~chi_30 u)
     2.56427091E-09    2     1000035         2   # BR(~u_R -> ~chi_40 u)
     9.59991154E-01    2     1000021         2   # BR(~u_R -> ~g      u)
#
#         PDG            Width
DECAY   1000001     3.11414725E+02   # sdown_L decays
#          BR         NDA      ID1       ID2
     2.39018655E-03    2     1000022         1   # BR(~d_L -> ~chi_10 d)
     1.80279678E-05    2     1000023         1   # BR(~d_L -> ~chi_20 d)
     2.64301719E-05    2     1000025         1   # BR(~d_L -> ~chi_30 d)
     2.51371469E-02    2     1000035         1   # BR(~d_L -> ~chi_40 d)
     8.58618788E-06    2    -1000024         2   # BR(~d_L -> ~chi_1- u)
     5.02952870E-02    2    -1000037         2   # BR(~d_L -> ~chi_2- u)
     9.22124335E-01    2     1000021         1   # BR(~d_L -> ~g      d)
#
#         PDG            Width
DECAY   2000001     2.88795882E+02   # sdown_R decays
#          BR         NDA      ID1       ID2
     1.02925270E-02    2     1000022         1   # BR(~d_R -> ~chi_10 d)
     8.63249038E-06    2     1000023         1   # BR(~d_R -> ~chi_20 d)
     1.02793095E-05    2     1000025         1   # BR(~d_R -> ~chi_30 d)
     6.60974547E-10    2     1000035         1   # BR(~d_R -> ~chi_40 d)
     9.89688561E-01    2     1000021         1   # BR(~d_R -> ~g      d)
#
#         PDG            Width
DECAY   1000004     3.11403664E+02   # scharm_L decays
#          BR         NDA      ID1       ID2
     2.39910207E-03    2     1000022         4   # BR(~c_L -> ~chi_10 c)
     5.01390120E-05    2     1000023         4   # BR(~c_L -> ~chi_20 c)
     4.19058305E-06    2     1000025         4   # BR(~c_L -> ~chi_30 c)
     2.51223110E-02    2     1000035         4   # BR(~c_L -> ~chi_40 c)
     1.71646822E-04    2     1000024         3   # BR(~c_L -> ~chi_1+ s)
     5.02108266E-02    2     1000037         3   # BR(~c_L -> ~chi_2+ s)
     9.22041784E-01    2     1000021         4   # BR(~c_L -> ~g      c)
#
#         PDG            Width
DECAY   2000004     2.97707294E+02   # scharm_R decays
#          BR         NDA      ID1       ID2
     3.99354659E-02    2     1000022         4   # BR(~c_R -> ~chi_10 c)
     3.34941441E-05    2     1000023         4   # BR(~c_R -> ~chi_20 c)
     3.98838160E-05    2     1000025         4   # BR(~c_R -> ~chi_30 c)
     2.56427091E-09    2     1000035         4   # BR(~c_R -> ~chi_40 c)
     9.59991154E-01    2     1000021         4   # BR(~c_R -> ~g      c)
#
#         PDG            Width
DECAY   1000003     3.11414725E+02   # sstrange_L decays
#          BR         NDA      ID1       ID2
     2.39018655E-03    2     1000022         3   # BR(~s_L -> ~chi_10 s)
     1.80279678E-05    2     1000023         3   # BR(~s_L -> ~chi_20 s)
     2.64301719E-05    2     1000025         3   # BR(~s_L -> ~chi_30 s)
     2.51371469E-02    2     1000035         3   # BR(~s_L -> ~chi_40 s)
     8.58618788E-06    2    -1000024         4   # BR(~s_L -> ~chi_1- c)
     5.02952870E-02    2    -1000037         4   # BR(~s_L -> ~chi_2- c)
     9.22124335E-01    2     1000021         3   # BR(~s_L -> ~g      s)
#
#         PDG            Width
DECAY   2000003     2.88795882E+02   # sstrange_R decays
#          BR         NDA      ID1       ID2
     1.02925270E-02    2     1000022         3   # BR(~s_R -> ~chi_10 s)
     8.63249038E-06    2     1000023         3   # BR(~s_R -> ~chi_20 s)
     1.02793095E-05    2     1000025         3   # BR(~s_R -> ~chi_30 s)
     6.60974547E-10    2     1000035         3   # BR(~s_R -> ~chi_40 s)
     9.89688561E-01    2     1000021         3   # BR(~s_R -> ~g      s)
#
#         PDG            Width
DECAY   1000011     3.02737894E+01   # selectron_L decays
#          BR         NDA      ID1       ID2
     2.26382067E-01    2     1000022        11   # BR(~e_L -> ~chi_10 e-)
     1.03000209E-03    2     1000023        11   # BR(~e_L -> ~chi_20 e-)
     1.14754305E-05    2     1000025        11   # BR(~e_L -> ~chi_30 e-)
     2.57316777E-01    2     1000035        11   # BR(~e_L -> ~chi_40 e-)
     8.99357980E-05    2    -1000024        12   # BR(~e_L -> ~chi_1- nu_e)
     5.15169742E-01    2    -1000037        12   # BR(~e_L -> ~chi_2- nu_e)
#
#         PDG            Width
DECAY   2000011     2.73747961E+01   # selectron_R decays
#          BR         NDA      ID1       ID2
     9.98169601E-01    2     1000022        11   # BR(~e_R -> ~chi_10 e-)
     8.35479488E-04    2     1000023        11   # BR(~e_R -> ~chi_20 e-)
     9.94857184E-04    2     1000025        11   # BR(~e_R -> ~chi_30 e-)
     6.26658117E-08    2     1000035        11   # BR(~e_R -> ~chi_40 e-)
#
#         PDG            Width
DECAY   1000013     3.02737894E+01   # smuon_L decays
#          BR         NDA      ID1       ID2
     2.26382067E-01    2     1000022        13   # BR(~mu_L -> ~chi_10 mu-)
     1.03000209E-03    2     1000023        13   # BR(~mu_L -> ~chi_20 mu-)
     1.14754305E-05    2     1000025        13   # BR(~mu_L -> ~chi_30 mu-)
     2.57316777E-01    2     1000035        13   # BR(~mu_L -> ~chi_40 mu-)
     8.99357980E-05    2    -1000024        14   # BR(~mu_L -> ~chi_1- nu_mu)
     5.15169742E-01    2    -1000037        14   # BR(~mu_L -> ~chi_2- nu_mu)
#
#         PDG            Width
DECAY   2000013     2.73747961E+01   # smuon_R decays
#          BR         NDA      ID1       ID2
     9.98169601E-01    2     1000022        13   # BR(~mu_R -> ~chi_10 mu-)
     8.35479488E-04    2     1000023        13   # BR(~mu_R -> ~chi_20 mu-)
     9.94857184E-04    2     1000025        13   # BR(~mu_R -> ~chi_30 mu-)
     6.26658117E-08    2     1000035        13   # BR(~mu_R -> ~chi_40 mu-)
#
#         PDG            Width
DECAY   1000015     2.91244738E+01   # stau_1 decays
#          BR         NDA      ID1       ID2
     9.29766600E-01    2     1000022        15   # BR(~tau_1 -> ~chi_10  tau-)
     1.56822082E-02    2     1000023        15   # BR(~tau_1 -> ~chi_20  tau-)
     1.49129944E-02    2     1000025        15   # BR(~tau_1 -> ~chi_30  tau-)
     3.35859676E-03    2     1000035        15   # BR(~tau_1 -> ~chi_40  tau-)
     2.95556503E-02    2    -1000024        16   # BR(~tau_1 -> ~chi_1-  nu_tau)
     6.72395057E-03    2    -1000037        16   # BR(~tau_1 -> ~chi_2-  nu_tau)
#
#         PDG            Width
DECAY   2000015     3.10955663E+01   # stau_2 decays
#          BR         NDA      ID1       ID2
     2.28198605E-01    2     1000022        15   # BR(~tau_2 -> ~chi_10  tau-)
     1.47556028E-02    2     1000023        15   # BR(~tau_2 -> ~chi_20  tau-)
     1.45696030E-02    2     1000025        15   # BR(~tau_2 -> ~chi_30  tau-)
     2.47288840E-01    2     1000035        15   # BR(~tau_2 -> ~chi_40  tau-)
     9.39094647E-05    2    -1000024        16   # BR(~tau_2 -> ~chi_1-  nu_tau)
     4.95093440E-01    2    -1000037        16   # BR(~tau_2 -> ~chi_2-  nu_tau)
#
#         PDG            Width
DECAY   1000012     3.02765831E+01   # snu_eL decays
#          BR         NDA      ID1       ID2
     2.26033217E-01    2     1000022        12   # BR(~nu_eL -> ~chi_10 nu_e)
     2.08390335E-05    2     1000023        12   # BR(~nu_eL -> ~chi_20 nu_e)
     7.10083211E-04    2     1000025        12   # BR(~nu_eL -> ~chi_30 nu_e)
     2.57370019E-01    2     1000035        12   # BR(~nu_eL -> ~chi_40 nu_e)
     1.79748108E-03    2     1000024        11   # BR(~nu_eL -> ~chi_1+ e-)
     5.14068360E-01    2     1000037        11   # BR(~nu_eL -> ~chi_2+ e-)
#
#         PDG            Width
DECAY   1000014     3.02765831E+01   # snu_muL decays
#          BR         NDA      ID1       ID2
     2.26033217E-01    2     1000022        14   # BR(~nu_muL -> ~chi_10 nu_mu)
     2.08390335E-05    2     1000023        14   # BR(~nu_muL -> ~chi_20 nu_mu)
     7.10083211E-04    2     1000025        14   # BR(~nu_muL -> ~chi_30 nu_mu)
     2.57370019E-01    2     1000035        14   # BR(~nu_muL -> ~chi_40 nu_mu)
     1.79748108E-03    2     1000024        13   # BR(~nu_muL -> ~chi_1+ mu-)
     5.14068360E-01    2     1000037        13   # BR(~nu_muL -> ~chi_2+ mu-)
#
#         PDG            Width
DECAY   1000016     3.11308186E+01   # snu_tauL decays
#          BR         NDA      ID1       ID2
     2.19806883E-01    2     1000022        16   # BR(~nu_tauL -> ~chi_10 nu_tau)
     2.02646359E-05    2     1000023        16   # BR(~nu_tauL -> ~chi_20 nu_tau)
     6.90510743E-04    2     1000025        16   # BR(~nu_tauL -> ~chi_30 nu_tau)
     2.50215019E-01    2     1000035        16   # BR(~nu_tauL -> ~chi_40 nu_tau)
     2.94906823E-02    2     1000024        15   # BR(~nu_tauL -> ~chi_1+ tau-)
     4.99776641E-01    2     1000037        15   # BR(~nu_tauL -> ~chi_2+ tau-)
#
#         PDG            Width
DECAY   1000024     6.09155619E-01   # chargino1+ decays
#          BR         NDA      ID1       ID2
     1.00000000E+00    2     1000022        24   # BR(~chi_1+ -> ~chi_10  W+)
#
#         PDG            Width
DECAY   1000037     2.04198698E+01   # chargino2+ decays
#          BR         NDA      ID1       ID2
     2.53204075E-01    2     1000024        23   # BR(~chi_2+ -> ~chi_1+  Z )
     1.97864343E-04    2     1000022        24   # BR(~chi_2+ -> ~chi_10  W+)
     2.44171501E-01    2     1000023        24   # BR(~chi_2+ -> ~chi_20  W+)
     2.44122572E-01    2     1000025        24   # BR(~chi_2+ -> ~chi_30  W+)
     2.58302817E-01    2     1000024        25   # BR(~chi_2+ -> ~chi_1+  h )
     1.17143837E-06    2     1000022        37   # BR(~chi_2+ -> ~chi_10  H+)
#
#         PDG            Width
DECAY   1000022     0.00000000E+00   # neutralino1 decays
#
#         PDG            Width
DECAY   1000023     6.36173388E-01   # neutralino2 decays
#          BR         NDA      ID1       ID2
     5.40221270E-01    2     1000022        23   # BR(~chi_20 -> ~chi_10   Z )
     4.59778730E-01    2     1000022        25   # BR(~chi_20 -> ~chi_10   h )
#
#         PDG            Width
DECAY   1000025     6.39213511E-01   # neutralino3 decays
#          BR         NDA      ID1       ID2
     4.50341018E-01    2     1000022        23   # BR(~chi_30 -> ~chi_10   Z )
     5.49658982E-01    2     1000022        25   # BR(~chi_30 -> ~chi_10   h )
#
#         PDG            Width
DECAY   1000035     2.04348788E+01   # neutralino4 decays
#          BR         NDA      ID1       ID2
     4.77512022E-05    2     1000022        23   # BR(~chi_40 -> ~chi_10   Z )
     7.27251553E-02    2     1000023        23   # BR(~chi_40 -> ~chi_20   Z )
     1.79765081E-01    2     1000025        23   # BR(~chi_40 -> ~chi_30   Z )
     2.44801952E-01    2     1000024       -24   # BR(~chi_40 -> ~chi_1+   W-)
     2.44801952E-01    2    -1000024        24   # BR(~chi_40 -> ~chi_1-   W+)
     1.51044244E-04    2     1000022        25   # BR(~chi_40 -> ~chi_10   h )
     1.09494401E-06    2     1000022        35   # BR(~chi_40 -> ~chi_10   H )
     1.34462931E-07    2     1000022        36   # BR(~chi_40 -> ~chi_10   A )
     1.84799387E-01    2     1000023        25   # BR(~chi_40 -> ~chi_20   h )
     7.29064483E-02    2     1000025        25   # BR(~chi_40 -> ~chi_30   h )
#
#         PDG            Width
DECAY        25     4.04201108E-03   # h decays
#          BR         NDA      ID1       ID2
     6.12334937E-01    2           5        -5   # BR(h -> b       bb     )
     6.40644347E-02    2         -15        15   # BR(h -> tau+    tau-   )
     2.26812283E-04    2         -13        13   # BR(h -> mu+     mu-    )
     4.80980199E-04    2           3        -3   # BR(h -> s       sb     )
     2.08420029E-02    2           4        -4   # BR(h -> c       cb     )
     6.71862597E-02    2          21        21   # BR(h -> g       g      )
     2.30533204E-03    2          22        22   # BR(h -> gam     gam    )
     1.46948119E-03    2          22        23   # BR(h -> Z       gam    )
     2.06515755E-01    2          24       -24   # BR(h -> W+      W-     )
     2.45209490E-02    2          23        23   # BR(h -> Z       Z      )
     5.30553827E-05    2     1000022   1000022   # BR(h -> ~chi_10 ~chi_10)
#
#         PDG            Width
DECAY        35     8.10150878E+00   # H decays
#          BR         NDA      ID1       ID2
     3.98383346E-01    2           5        -5   # BR(H -> b       bb     )
     6.87953162E-02    2         -15        15   # BR(H -> tau+    tau-   )
     2.43265703E-04    2         -13        13   # BR(H -> mu+     mu-    )
     2.98206511E-04    2           3        -3   # BR(H -> s       sb     )
     1.66665220E-06    2           4        -4   # BR(H -> c       cb     )
     1.66511754E-01    2           6        -6   # BR(H -> t       tb     )
     5.53155321E-05    2          21        21   # BR(H -> g       g      )
     2.68796983E-07    2          22        22   # BR(H -> gam     gam    )
     9.82625544E-08    2          23        22   # BR(H -> Z       gam    )
     7.63471408E-05    2          24       -24   # BR(H -> W+      W-     )
     3.81252469E-05    2          23        23   # BR(H -> Z       Z      )
     2.84554023E-04    2          25        25   # BR(H -> h       h      )
    -2.16052908E-23    2          36        36   # BR(H -> A       A      )
     7.00992911E-19    2          23        36   # BR(H -> Z       A      )
     1.97549191E-03    2     1000024  -1000024   # BR(H -> ~chi_1+ ~chi_1-)
     1.78279655E-03    2     1000022   1000022   # BR(H -> ~chi_10 ~chi_10)
     3.94865912E-05    2     1000023   1000023   # BR(H -> ~chi_20 ~chi_20)
     5.44316296E-04    2     1000025   1000025   # BR(H -> ~chi_30 ~chi_30)
     2.16488119E-01    2     1000022   1000023   # BR(H -> ~chi_10 ~chi_20)
     1.43968789E-01    2     1000022   1000025   # BR(H -> ~chi_10 ~chi_30)
     5.12736778E-04    2     1000023   1000025   # BR(H -> ~chi_20 ~chi_30)
#
#         PDG            Width
DECAY        36     8.11783961E+00   # A decays
#          BR         NDA      ID1       ID2
     3.97716696E-01    2           5        -5   # BR(A -> b       bb     )
     6.86589662E-02    2         -15        15   # BR(A -> tau+    tau-   )
     2.42783219E-04    2         -13        13   # BR(A -> mu+     mu-    )
     2.97832476E-04    2           3        -3   # BR(A -> s       sb     )
     1.67013009E-06    2           4        -4   # BR(A -> c       cb     )
     1.66767160E-01    2           6        -6   # BR(A -> t       tb     )
     1.65060507E-04    2          21        21   # BR(A -> g       g      )
     5.74623880E-07    2          22        22   # BR(A -> gam     gam    )
     1.99830637E-07    2          23        22   # BR(A -> Z       gam    )
     7.59067748E-05    2          23        25   # BR(A -> Z       h      )
     3.22856377E-03    2     1000024  -1000024   # BR(A -> ~chi_1+ ~chi_1-)
     1.81561524E-03    2     1000022   1000022   # BR(A -> ~chi_10 ~chi_10)
     4.63816768E-05    2     1000023   1000023   # BR(A -> ~chi_20 ~chi_20)
     1.50040089E-03    2     1000025   1000025   # BR(A -> ~chi_30 ~chi_30)
     1.45739337E-01    2     1000022   1000023   # BR(A -> ~chi_10 ~chi_20)
     2.13596511E-01    2     1000022   1000025   # BR(A -> ~chi_10 ~chi_30)
     1.46340297E-04    2     1000023   1000025   # BR(A -> ~chi_20 ~chi_30)
#
#         PDG            Width
DECAY        37     8.06669321E+00   # H+ decays
#          BR         NDA      ID1       ID2
     6.38772493E-04    2           4        -5   # BR(H+ -> c       bb     )
     6.91201101E-02    2         -15        16   # BR(H+ -> tau+    nu_tau )
     2.44413858E-04    2         -13        14   # BR(H+ -> mu+     nu_mu  )
     4.08812273E-06    2           2        -5   # BR(H+ -> u       bb     )
     1.43415436E-05    2           2        -3   # BR(H+ -> u       sb     )
     2.96582648E-04    2           4        -3   # BR(H+ -> c       sb     )
     5.63564916E-01    2           6        -5   # BR(H+ -> t       bb     )
     7.65228760E-05    2          24        25   # BR(H+ -> W+      h      )
     2.88252925E-13    2          24        36   # BR(H+ -> W+      A      )
     3.65130765E-01    2     1000024   1000022   # BR(H+ -> ~chi_1+ ~chi_10)
     8.76647180E-04    2     1000024   1000023   # BR(H+ -> ~chi_1+ ~chi_20)
     3.28400571E-05    2     1000024   1000025   # BR(H+ -> ~chi_1+ ~chi_30)
