#
#                              ======================
#                              | THE SUSYHIT OUTPUT |
#                              ======================
#
#
#              ------------------------------------------------------
#              |     This is the output of the SUSY-HIT package     |
#              |  created by A.Djouadi, M.Muehlleitner and M.Spira. |
#              |  In case of problems with SUSY-HIT email to        |
#              |           margarete.muehlleitner@cern.ch           |
#              |           michael.spira@psi.ch                     |
#              |           abdelhak.djouadi@cern.ch                 |
#              ------------------------------------------------------
#
#              ------------------------------------------------------
#              |  SUSY Les Houches Accord - MSSM Spectrum + Decays  |
#              |              based on the decay programs           |
#              |                                                    |
#              |                     SDECAY 1.3b                    |
#              |                                                    |
#              |  Authors: M.Muhlleitner, A.Djouadi and Y.Mambrini  |
#              |  Ref.:    Comput.Phys.Commun.168(2005)46           |
#              |           [hep-ph/0311167]                         |
#              |                                                    |
#              |                     HDECAY 3.4                     |
#              |                                                    |
#              |  By: A.Djouadi,J.Kalinowski,M.Muhlleitner,M.Spira  |
#              |  Ref.:    Comput.Phys.Commun.108(1998)56           |
#              |           [hep-ph/9704448]                         |
#              |                                                    |
#              |                                                    |
#              |  If not stated otherwise all DRbar couplings and   |
#              |  soft SUSY breaking masses are given at the scale  |
#              |  Q=  0.50007150E+04
#              |                                                    |
#              ------------------------------------------------------
#
#
BLOCK DCINFO  # Decay Program information
     1   SDECAY/HDECAY # decay calculator
     2   1.3b  /3.4    # version number
#
BLOCK SPINFO  # Spectrum calculator information
     1    SOFTSUSY    # spectrum calculator                
     2    3.4.0       # version number                     
#
BLOCK MODSEL  # Model selection
     1     0   #  nonUniversal                                     
#
BLOCK SMINPUTS  # Standard Model inputs
         1     1.25778332E+02   # alpha_em^-1(M_Z)^MSbar
         2     1.16570000E-05   # G_F [GeV^-2]
         3     1.17200002E-01   # alpha_S(M_Z)^MSbar
         4     9.11876000E+01   # M_Z pole mass
         5     4.25000000E+00   # mb(mb)^MSbar
         6     1.72500000E+02   # mt pole mass
         7     1.77682000E+00   # mtau pole mass
#
BLOCK MINPAR  # Input parameters - minimal models
         3     1.00000000E+01   # tanb                
#
BLOCK EXTPAR  # Input parameters - non-minimal models
         0    -1.00000000E+00   # Set                 
         1     6.00000000E+01   # M_1(MX)             
         2     3.00000000E+03   # M_2(MX)             
         3     1.66797500E+03   # M_3(MX)             
        11     5.00000000E+03   # At(MX)              
        12     5.00000000E+03   # Ab(MX)              
        13     0.00000000E+00   # Atau(MX)            
        23    -1.54449700E+03   # mu(MX)              
        26     3.00000000E+03   # mA(pole)            
        31     5.00000000E+03   # meL(MX)             
        32     5.00000000E+03   # mmuL(MX)            
        33     5.00000000E+03   # mtauL(MX)           
        34     5.00000000E+03   # meR(MX)             
        35     5.00000000E+03   # mmuR(MX)            
        36     5.00000000E+03   # mtauR(MX)           
        41     5.00000000E+03   # mqL1(MX)            
        42     5.00000000E+03   # mqL2(MX)            
        43     5.00000000E+03   # mqL3(MX)            
        44     5.00000000E+03   # muR(MX)             
        45     5.00000000E+03   # mcR(MX)             
        46     5.00000000E+03   # mtR(MX)             
        47     5.00000000E+03   # mdR(MX)             
        48     5.00000000E+03   # msR(MX)             
        49     5.00000000E+03   # mbR(MX)             
#
BLOCK MASS  # Mass Spectrum
# PDG code           mass       particle
        24     8.00966350E+01   # W+
        25     1.24772669E+02   # h
        35     3.00008267E+03   # H
        36     2.99999995E+03   # A
        37     3.00087372E+03   # H+
         5     4.87878001E+00   # b-quark pole mass calculated from mb(mb)_Msbar
   1000001     5.07187986E+03   # ~d_L
   2000001     5.05410613E+03   # ~d_R
   1000002     5.07140618E+03   # ~u_L
   2000002     5.05383259E+03   # ~u_R
   1000003     5.07187986E+03   # ~s_L
   2000003     5.05410613E+03   # ~s_R
   1000004     5.07140618E+03   # ~c_L
   2000004     5.05383259E+03   # ~c_R
   1000005     5.01799503E+03   # ~b_1
   2000005     5.05303328E+03   # ~b_2
   1000006     4.90950863E+03   # ~t_1
   2000006     5.06425993E+03   # ~t_2
   1000011     5.01904559E+03   # ~e_L
   2000011     5.00590867E+03   # ~e_R
   1000012     5.01809765E+03   # ~nu_eL
   1000013     5.01904559E+03   # ~mu_L
   2000013     5.00590867E+03   # ~mu_R
   1000014     5.01809765E+03   # ~nu_muL
   1000015     5.00431354E+03   # ~tau_1
   2000015     5.01906225E+03   # ~tau_2
   1000016     5.01756052E+03   # ~nu_tauL
   1000021     2.00000022E+03   # ~g
   1000022     6.03025852E+01   # ~chi_10
   1000023     1.59942918E+03   # ~chi_20
   1000025    -1.60195025E+03   # ~chi_30
   1000035     3.07434260E+03   # ~chi_40
   1000024     1.60000086E+03   # ~chi_1+
   1000037     3.07451012E+03   # ~chi_2+
#
BLOCK NMIX  # Neutralino Mixing Matrix
  1  1     9.99609633E-01   # N_11
  1  2     1.33213389E-04   # N_12
  1  3    -2.78758090E-02   # N_13
  1  4     1.87142265E-03   # N_14
  2  1     1.83860613E-02   # N_21
  2  2     3.29872412E-02   # N_22
  2  3     7.06888687E-01   # N_23
  2  4     7.06315920E-01   # N_24
  3  1    -2.10312942E-02   # N_31
  3  2     1.29779113E-02   # N_32
  3  3    -7.06633583E-01   # N_33
  3  4     7.07147961E-01   # N_34
  4  1    -4.67018077E-04   # N_41
  4  2     9.99371501E-01   # N_42
  4  3    -1.41528613E-02   # N_43
  4  4    -3.24973910E-02   # N_44
#
BLOCK UMIX  # Chargino Mixing Matrix U
  1  1     2.00190541E-02   # U_11
  1  2     9.99799599E-01   # U_12
  2  1    -9.99799599E-01   # U_21
  2  2     2.00190541E-02   # U_22
#
BLOCK VMIX  # Chargino Mixing Matrix V
  1  1     4.59701647E-02   # V_11
  1  2    -9.98942813E-01   # V_12
  2  1    -9.98942813E-01   # V_21
  2  2    -4.59701647E-02   # V_22
#
BLOCK STOPMIX  # Stop Mixing Matrix
  1  1    -5.11948529E-01   # cos(theta_t)
  1  2     8.59016125E-01   # sin(theta_t)
  2  1    -8.59016125E-01   # -sin(theta_t)
  2  2    -5.11948529E-01   # cos(theta_t)
#
BLOCK SBOTMIX  # Sbottom Mixing Matrix
  1  1     9.93863856E-01   # cos(theta_b)
  1  2    -1.10610288E-01   # sin(theta_b)
  2  1     1.10610288E-01   # -sin(theta_b)
  2  2     9.93863856E-01   # cos(theta_b)
#
BLOCK STAUMIX  # Stau Mixing Matrix
  1  1    -1.78620238E-01   # cos(theta_tau)
  1  2     9.83918091E-01   # sin(theta_tau)
  2  1    -9.83918091E-01   # -sin(theta_tau)
  2  2    -1.78620238E-01   # cos(theta_tau)
#
BLOCK ALPHA  # Higgs mixing
          -1.05462535E-01   # Mixing angle in the neutral Higgs boson sector
#
BLOCK HMIX Q=  5.00071497E+03  # DRbar Higgs Parameters
         1    -1.57281344E+03   # mu(Q)MSSM           
         2     9.47043574E+00   # tan                 
         3     2.41977866E+02   # higgs               
         4     8.38342360E+06   # mA^2(Q)MSSM         
#
BLOCK GAUGE Q=  5.00071497E+03  # The gauge couplings
     1     3.70687524E-01   # gprime(Q) DRbar
     2     6.32019960E-01   # g(Q) DRbar
     3     9.98497172E-01   # g3(Q) DRbar
#
BLOCK AU Q=  5.00071497E+03  # The trilinear couplings
  1  1     5.00000001E+03   # A_u(Q) DRbar
  2  2     5.00000001E+03   # A_c(Q) DRbar
  3  3     5.00000002E+03   # A_t(Q) DRbar
#
BLOCK AD Q=  5.00071497E+03  # The trilinear couplings
  1  1     5.00000001E+03   # A_d(Q) DRbar
  2  2     5.00000001E+03   # A_s(Q) DRbar
  3  3     5.00000001E+03   # A_b(Q) DRbar
#
BLOCK AE Q=  5.00071497E+03  # The trilinear couplings
  1  1     0.00000000E+00   # A_e(Q) DRbar
  2  2     1.77022291E-07   # A_mu(Q) DRbar
  3  3     1.76664586E-07   # A_tau(Q) DRbar
#
BLOCK Yu Q=  5.00071497E+03  # The Yukawa couplings
  1  1     0.00000000E+00   # y_u(Q) DRbar
  2  2     0.00000000E+00   # y_c(Q) DRbar
  3  3     8.19527987E-01   # y_t(Q) DRbar
#
BLOCK Yd Q=  5.00071497E+03  # The Yukawa couplings
  1  1     0.00000000E+00   # y_d(Q) DRbar
  2  2     0.00000000E+00   # y_s(Q) DRbar
  3  3     1.31404085E-01   # y_b(Q) DRbar
#
BLOCK Ye Q=  5.00071497E+03  # The Yukawa couplings
  1  1     0.00000000E+00   # y_e(Q) DRbar
  2  2     0.00000000E+00   # y_mu(Q) DRbar
  3  3     9.65921597E-02   # y_tau(Q) DRbar
#
BLOCK MSOFT Q=  5.00071497E+03  # The soft SUSY breaking masses at the scale Q
         1     6.00000000E+01   # M_1(Q)              
         2     3.00000000E+03   # M_2(Q)              
         3     1.66797500E+03   # M_3(Q)              
        21     6.19090955E+06   # mH1^2(Q)            
        22    -1.92866899E+06   # mH2^2(Q)            
        31     5.00000000E+03   # meL(Q)              
        32     5.00000000E+03   # mmuL(Q)             
        33     5.00000000E+03   # mtauL(Q)            
        34     5.00000000E+03   # meR(Q)              
        35     5.00000000E+03   # mmuR(Q)             
        36     5.00000000E+03   # mtauR(Q)            
        41     5.00000000E+03   # mqL1(Q)             
        42     5.00000000E+03   # mqL2(Q)             
        43     5.00000000E+03   # mqL3(Q)             
        44     5.00000000E+03   # muR(Q)              
        45     5.00000000E+03   # mcR(Q)              
        46     4.99999999E+03   # mtR(Q)              
        47     5.00000000E+03   # mdR(Q)              
        48     5.00000000E+03   # msR(Q)              
        49     5.00000000E+03   # mbR(Q)              
#
#
#
#                             =================
#                             |The decay table|
#                             =================
#
# - The QCD corrections to the decays gluino -> squark  + quark
#                                     squark -> gaugino + quark_prime
#                                     squark -> squark_prime + Higgs
#                                     squark -> gluino  + quark
#   are included.
#
# - The multi-body decays for the inos, stops and sbottoms are included.
#
# - The loop induced decays for the gluino, neutralinos and stops
#   are included.
#
# - The SUSY decays of the top quark are included.
#
#
#         PDG            Width
DECAY         6     1.39973429E+00   # top decays
#          BR         NDA      ID1       ID2
     1.00000000E+00    2           5        24   # BR(t ->  b    W+)
#
#         PDG            Width
DECAY   1000021     3.10754309E-04   # gluino decays
#          BR         NDA      ID1       ID2
     8.18825486E-06    2     1000022        21   # BR(~g -> ~chi_10 g)
     2.57634548E-03    2     1000023        21   # BR(~g -> ~chi_20 g)
     2.55111124E-03    2     1000025        21   # BR(~g -> ~chi_30 g)
#           BR         NDA      ID1       ID2       ID3
     7.52248352E-02    3     1000022         1        -1   # BR(~g -> ~chi_10 d  db)
     1.74603598E-06    3     1000023         1        -1   # BR(~g -> ~chi_20 d  db)
     2.26388785E-07    3     1000025         1        -1   # BR(~g -> ~chi_30 d  db)
     2.56455175E-01    3     1000022         2        -2   # BR(~g -> ~chi_10 u  ub)
     2.95105642E-06    3     1000023         2        -2   # BR(~g -> ~chi_20 u  ub)
     2.21887147E-07    3     1000025         2        -2   # BR(~g -> ~chi_30 u  ub)
     7.52248352E-02    3     1000022         3        -3   # BR(~g -> ~chi_10 s  sb)
     1.74603598E-06    3     1000023         3        -3   # BR(~g -> ~chi_20 s  sb)
     2.26388785E-07    3     1000025         3        -3   # BR(~g -> ~chi_30 s  sb)
     2.56455175E-01    3     1000022         4        -4   # BR(~g -> ~chi_10 c  cb)
     2.95105642E-06    3     1000023         4        -4   # BR(~g -> ~chi_20 c  cb)
     2.21887147E-07    3     1000025         4        -4   # BR(~g -> ~chi_30 c  cb)
     7.61351949E-02    3     1000022         5        -5   # BR(~g -> ~chi_10 b  bb)
     1.73482212E-04    3     1000023         5        -5   # BR(~g -> ~chi_20 b  bb)
     1.65362134E-04    3     1000025         5        -5   # BR(~g -> ~chi_30 b  bb)
     2.48655516E-01    3     1000022         6        -6   # BR(~g -> ~chi_10 t  tb)
     5.60889485E-04    3     1000023         6        -6   # BR(~g -> ~chi_20 t  tb)
     1.68445724E-04    3     1000025         6        -6   # BR(~g -> ~chi_30 t  tb)
     4.33864370E-06    3     1000024         1        -2   # BR(~g -> ~chi_1+ d  ub)
     4.33864370E-06    3    -1000024         2        -1   # BR(~g -> ~chi_1- u  db)
     4.33864370E-06    3     1000024         3        -4   # BR(~g -> ~chi_1+ s  cb)
     4.33864370E-06    3    -1000024         4        -3   # BR(~g -> ~chi_1- c  sb)
     2.80889985E-03    3     1000024         5        -6   # BR(~g -> ~chi_1+ b  tb)
     2.80889985E-03    3    -1000024         6        -5   # BR(~g -> ~chi_1- t  bb)
#
#         PDG            Width
DECAY   1000006     3.27336252E+02   # stop1 decays
#          BR         NDA      ID1       ID2
     2.68811180E-02    2     1000022         6   # BR(~t_1 -> ~chi_10 t )
     8.05222241E-02    2     1000023         6   # BR(~t_1 -> ~chi_20 t )
     7.73490427E-02    2     1000025         6   # BR(~t_1 -> ~chi_30 t )
     6.66405123E-03    2     1000035         6   # BR(~t_1 -> ~chi_40 t )
     1.15938987E-01    2     1000024         5   # BR(~t_1 -> ~chi_1+ b )
     1.32482160E-02    2     1000037         5   # BR(~t_1 -> ~chi_2+ b )
     6.79396361E-01    2     1000021         6   # BR(~t_1 -> ~g      t )
#
#         PDG            Width
DECAY   2000006     3.39114964E+02   # stop2 decays
#          BR         NDA      ID1       ID2
     1.04598292E-02    2     1000022         6   # BR(~t_2 -> ~chi_10 t )
     8.07721322E-02    2     1000023         6   # BR(~t_2 -> ~chi_20 t )
     8.40999623E-02    2     1000025         6   # BR(~t_2 -> ~chi_30 t )
     1.60811075E-02    2     1000035         6   # BR(~t_2 -> ~chi_40 t )
     4.95689504E-02    2     1000024         5   # BR(~t_2 -> ~chi_1+ b )
     3.19122134E-02    2     1000037         5   # BR(~t_2 -> ~chi_2+ b )
     7.23294101E-01    2     1000021         6   # BR(~t_2 -> ~g      t )
     8.40324460E-04    2     1000006        25   # BR(~t_2 -> ~t_1    h )
     2.97137988E-03    2     1000006        23   # BR(~t_2 -> ~t_1    Z )
#
#         PDG            Width
DECAY   1000005     3.15587281E+02   # sbottom1 decays
#          BR         NDA      ID1       ID2
     2.48368499E-03    2     1000022         5   # BR(~b_1 -> ~chi_10 b )
     2.30792722E-03    2     1000023         5   # BR(~b_1 -> ~chi_20 b )
     2.16914983E-03    2     1000025         5   # BR(~b_1 -> ~chi_30 b )
     2.36792059E-02    2     1000035         5   # BR(~b_1 -> ~chi_40 b )
     1.69738502E-01    2    -1000024         6   # BR(~b_1 -> ~chi_1- t )
     4.76936879E-02    2    -1000037         6   # BR(~b_1 -> ~chi_2- t )
     7.50192102E-01    2     1000021         5   # BR(~b_1 -> ~g      b )
     1.73574021E-03    2     1000006       -24   # BR(~b_1 -> ~t_1    W-)
#
#         PDG            Width
DECAY   2000005     2.46136544E+02   # sbottom2 decays
#          BR         NDA      ID1       ID2
     1.18799117E-02    2     1000022         5   # BR(~b_2 -> ~chi_10 b )
     2.80820228E-03    2     1000023         5   # BR(~b_2 -> ~chi_20 b )
     2.94392313E-03    2     1000025         5   # BR(~b_2 -> ~chi_30 b )
     3.98675008E-04    2     1000035         5   # BR(~b_2 -> ~chi_40 b )
     8.32001108E-03    2    -1000024         6   # BR(~b_2 -> ~chi_1- t )
     8.02557503E-04    2    -1000037         6   # BR(~b_2 -> ~chi_2- t )
     9.72729115E-01    2     1000021         5   # BR(~b_2 -> ~g      b )
     1.17604617E-04    2     1000006       -24   # BR(~b_2 -> ~t_1    W-)
#
#         PDG            Width
DECAY   1000002     2.65167109E+02   # sup_L decays
#          BR         NDA      ID1       ID2
     2.81367536E-03    2     1000022         2   # BR(~u_L -> ~chi_10 u)
     8.00329818E-05    2     1000023         2   # BR(~u_L -> ~chi_20 u)
     4.69799963E-06    2     1000025         2   # BR(~u_L -> ~chi_30 u)
     2.95614114E-02    2     1000035         2   # BR(~u_L -> ~chi_40 u)
     2.52727665E-04    2     1000024         1   # BR(~u_L -> ~chi_1+ d)
     5.90754778E-02    2     1000037         1   # BR(~u_L -> ~chi_2+ d)
     9.08211977E-01    2     1000021         2   # BR(~u_L -> ~g      u)
#
#         PDG            Width
DECAY   2000002     2.51264938E+02   # sup_R decays
#          BR         NDA      ID1       ID2
     4.72785352E-02    2     1000022         2   # BR(~u_R -> ~chi_10 u)
     1.29823197E-05    2     1000023         2   # BR(~u_R -> ~chi_20 u)
     1.69747273E-05    2     1000025         2   # BR(~u_R -> ~chi_30 u)
     4.11937067E-09    2     1000035         2   # BR(~u_R -> ~chi_40 u)
     9.52691504E-01    2     1000021         2   # BR(~u_R -> ~g      u)
#
#         PDG            Width
DECAY   1000001     2.65182791E+02   # sdown_L decays
#          BR         NDA      ID1       ID2
     2.80611334E-03    2     1000022         1   # BR(~d_L -> ~chi_10 d)
     5.16714592E-05    2     1000023         1   # BR(~d_L -> ~chi_20 d)
     1.74556071E-05    2     1000025         1   # BR(~d_L -> ~chi_30 d)
     2.95796054E-02    2     1000035         1   # BR(~d_L -> ~chi_40 d)
     4.79314741E-05    2    -1000024         2   # BR(~d_L -> ~chi_1- u)
     5.91916467E-02    2    -1000037         2   # BR(~d_L -> ~chi_2- u)
     9.08305576E-01    2     1000021         1   # BR(~d_L -> ~g      d)
#
#         PDG            Width
DECAY   2000001     2.42372455E+02   # sdown_R decays
#          BR         NDA      ID1       ID2
     1.22539595E-02    2     1000022         1   # BR(~d_R -> ~chi_10 d)
     3.36492218E-06    2     1000023         1   # BR(~d_R -> ~chi_20 d)
     4.39972536E-06    2     1000025         1   # BR(~d_R -> ~chi_30 d)
     1.06781955E-09    2     1000035         1   # BR(~d_R -> ~chi_40 d)
     9.87738275E-01    2     1000021         1   # BR(~d_R -> ~g      d)
#
#         PDG            Width
DECAY   1000004     2.65167109E+02   # scharm_L decays
#          BR         NDA      ID1       ID2
     2.81367536E-03    2     1000022         4   # BR(~c_L -> ~chi_10 c)
     8.00329818E-05    2     1000023         4   # BR(~c_L -> ~chi_20 c)
     4.69799963E-06    2     1000025         4   # BR(~c_L -> ~chi_30 c)
     2.95614114E-02    2     1000035         4   # BR(~c_L -> ~chi_40 c)
     2.52727665E-04    2     1000024         3   # BR(~c_L -> ~chi_1+ s)
     5.90754778E-02    2     1000037         3   # BR(~c_L -> ~chi_2+ s)
     9.08211977E-01    2     1000021         4   # BR(~c_L -> ~g      c)
#
#         PDG            Width
DECAY   2000004     2.51264938E+02   # scharm_R decays
#          BR         NDA      ID1       ID2
     4.72785352E-02    2     1000022         4   # BR(~c_R -> ~chi_10 c)
     1.29823197E-05    2     1000023         4   # BR(~c_R -> ~chi_20 c)
     1.69747273E-05    2     1000025         4   # BR(~c_R -> ~chi_30 c)
     4.11937067E-09    2     1000035         4   # BR(~c_R -> ~chi_40 c)
     9.52691504E-01    2     1000021         4   # BR(~c_R -> ~g      c)
#
#         PDG            Width
DECAY   1000003     2.65182791E+02   # sstrange_L decays
#          BR         NDA      ID1       ID2
     2.80611334E-03    2     1000022         3   # BR(~s_L -> ~chi_10 s)
     5.16714592E-05    2     1000023         3   # BR(~s_L -> ~chi_20 s)
     1.74556071E-05    2     1000025         3   # BR(~s_L -> ~chi_30 s)
     2.95796054E-02    2     1000035         3   # BR(~s_L -> ~chi_40 s)
     4.79314741E-05    2    -1000024         4   # BR(~s_L -> ~chi_1- c)
     5.91916467E-02    2    -1000037         4   # BR(~s_L -> ~chi_2- c)
     9.08305576E-01    2     1000021         3   # BR(~s_L -> ~g      s)
#
#         PDG            Width
DECAY   2000003     2.42372455E+02   # sstrange_R decays
#          BR         NDA      ID1       ID2
     1.22539595E-02    2     1000022         3   # BR(~s_R -> ~chi_10 s)
     3.36492218E-06    2     1000023         3   # BR(~s_R -> ~chi_20 s)
     4.39972536E-06    2     1000025         3   # BR(~s_R -> ~chi_30 s)
     1.06781955E-09    2     1000035         3   # BR(~s_R -> ~chi_40 s)
     9.87738275E-01    2     1000021         3   # BR(~s_R -> ~g      s)
#
#         PDG            Width
DECAY   1000011     3.02327922E+01   # selectron_L decays
#          BR         NDA      ID1       ID2
     2.26773225E-01    2     1000022        11   # BR(~e_L -> ~chi_10 e-)
     1.02014405E-03    2     1000023        11   # BR(~e_L -> ~chi_20 e-)
     2.19851137E-07    2     1000025        11   # BR(~e_L -> ~chi_30 e-)
     2.57041463E-01    2     1000035        11   # BR(~e_L -> ~chi_40 e-)
     4.26714677E-04    2    -1000024        12   # BR(~e_L -> ~chi_1- nu_e)
     5.14738233E-01    2    -1000037        12   # BR(~e_L -> ~chi_2- nu_e)
#
#         PDG            Width
DECAY   2000011     2.73569194E+01   # selectron_R decays
#          BR         NDA      ID1       ID2
     9.99370726E-01    2     1000022        11   # BR(~e_R -> ~chi_10 e-)
     2.72671131E-04    2     1000023        11   # BR(~e_R -> ~chi_20 e-)
     3.56518555E-04    2     1000025        11   # BR(~e_R -> ~chi_30 e-)
     8.46440381E-08    2     1000035        11   # BR(~e_R -> ~chi_40 e-)
#
#         PDG            Width
DECAY   1000013     3.02327922E+01   # smuon_L decays
#          BR         NDA      ID1       ID2
     2.26773225E-01    2     1000022        13   # BR(~mu_L -> ~chi_10 mu-)
     1.02014405E-03    2     1000023        13   # BR(~mu_L -> ~chi_20 mu-)
     2.19851137E-07    2     1000025        13   # BR(~mu_L -> ~chi_30 mu-)
     2.57041463E-01    2     1000035        13   # BR(~mu_L -> ~chi_40 mu-)
     4.26714677E-04    2    -1000024        14   # BR(~mu_L -> ~chi_1- nu_mu)
     5.14738233E-01    2    -1000037        14   # BR(~mu_L -> ~chi_2- nu_mu)
#
#         PDG            Width
DECAY   2000013     2.73569194E+01   # smuon_R decays
#          BR         NDA      ID1       ID2
     9.99370726E-01    2     1000022        13   # BR(~mu_R -> ~chi_10 mu-)
     2.72671131E-04    2     1000023        13   # BR(~mu_R -> ~chi_20 mu-)
     3.56518555E-04    2     1000025        13   # BR(~mu_R -> ~chi_30 mu-)
     8.46440381E-08    2     1000035        13   # BR(~mu_R -> ~chi_40 mu-)
#
#         PDG            Width
DECAY   1000015     2.89369675E+01   # stau_1 decays
#          BR         NDA      ID1       ID2
     9.22779404E-01    2     1000022        15   # BR(~tau_1 -> ~chi_10  tau-)
     1.38745517E-02    2     1000023        15   # BR(~tau_1 -> ~chi_20  tau-)
     1.24856930E-02    2     1000025        15   # BR(~tau_1 -> ~chi_30  tau-)
     8.19894508E-03    2     1000035        15   # BR(~tau_1 -> ~chi_40  tau-)
     2.62423358E-02    2    -1000024        16   # BR(~tau_1 -> ~chi_1-  nu_tau)
     1.64190703E-02    2    -1000037        16   # BR(~tau_1 -> ~chi_2-  nu_tau)
#
#         PDG            Width
DECAY   2000015     3.08878636E+01   # stau_2 decays
#          BR         NDA      ID1       ID2
     2.42420578E-01    2     1000022        15   # BR(~tau_2 -> ~chi_10  tau-)
     1.25192856E-02    2     1000023        15   # BR(~tau_2 -> ~chi_20  tau-)
     1.28674220E-02    2     1000025        15   # BR(~tau_2 -> ~chi_30  tau-)
     2.43837876E-01    2     1000035        15   # BR(~tau_2 -> ~chi_40  tau-)
     6.01346782E-05    2    -1000024        16   # BR(~tau_2 -> ~chi_1-  nu_tau)
     4.88294704E-01    2    -1000037        16   # BR(~tau_2 -> ~chi_2-  nu_tau)
#
#         PDG            Width
DECAY   1000012     3.02346492E+01   # snu_eL decays
#          BR         NDA      ID1       ID2
     2.26510483E-01    2     1000022        12   # BR(~nu_eL -> ~chi_10 nu_e)
     2.62416553E-04    2     1000023        12   # BR(~nu_eL -> ~chi_20 nu_e)
     3.40818419E-04    2     1000025        12   # BR(~nu_eL -> ~chi_30 nu_e)
     2.57142289E-01    2     1000035        12   # BR(~nu_eL -> ~chi_40 nu_e)
     2.24934857E-03    2     1000024        11   # BR(~nu_eL -> ~chi_1+ e-)
     5.13494644E-01    2     1000037        11   # BR(~nu_eL -> ~chi_2+ e-)
#
#         PDG            Width
DECAY   1000014     3.02346492E+01   # snu_muL decays
#          BR         NDA      ID1       ID2
     2.26510483E-01    2     1000022        14   # BR(~nu_muL -> ~chi_10 nu_mu)
     2.62416553E-04    2     1000023        14   # BR(~nu_muL -> ~chi_20 nu_mu)
     3.40818419E-04    2     1000025        14   # BR(~nu_muL -> ~chi_30 nu_mu)
     2.57142289E-01    2     1000035        14   # BR(~nu_muL -> ~chi_40 nu_mu)
     2.24934857E-03    2     1000024        13   # BR(~nu_muL -> ~chi_1+ mu-)
     5.13494644E-01    2     1000037        13   # BR(~nu_muL -> ~chi_2+ mu-)
#
#         PDG            Width
DECAY   1000016     3.09768561E+01   # snu_tauL decays
#          BR         NDA      ID1       ID2
     2.21059603E-01    2     1000022        16   # BR(~nu_tauL -> ~chi_10 nu_tau)
     2.56089223E-04    2     1000023        16   # BR(~nu_tauL -> ~chi_20 nu_tau)
     3.32600625E-04    2     1000025        16   # BR(~nu_tauL -> ~chi_30 nu_tau)
     2.50889715E-01    2     1000035        16   # BR(~nu_tauL -> ~chi_40 nu_tau)
     2.64510649E-02    2     1000024        15   # BR(~nu_tauL -> ~chi_1+ tau-)
     5.01010927E-01    2     1000037        15   # BR(~nu_tauL -> ~chi_2+ tau-)
#
#         PDG            Width
DECAY   1000024     9.85299378E-01   # chargino1+ decays
#          BR         NDA      ID1       ID2
     1.00000000E+00    2     1000022        24   # BR(~chi_1+ -> ~chi_10  W+)
#
#         PDG            Width
DECAY   1000037     1.79049571E+01   # chargino2+ decays
#          BR         NDA      ID1       ID2
     2.52580565E-01    2     1000024        23   # BR(~chi_2+ -> ~chi_1+  Z )
     2.84939619E-04    2     1000022        24   # BR(~chi_2+ -> ~chi_10  W+)
     2.44115502E-01    2     1000023        24   # BR(~chi_2+ -> ~chi_20  W+)
     2.43552173E-01    2     1000025        24   # BR(~chi_2+ -> ~chi_30  W+)
     2.59466543E-01    2     1000024        25   # BR(~chi_2+ -> ~chi_1+  h )
     2.76937009E-07    2     1000022        37   # BR(~chi_2+ -> ~chi_10  H+)
#
#         PDG            Width
DECAY   1000022     0.00000000E+00   # neutralino1 decays
#
#         PDG            Width
DECAY   1000023     1.03609185E+00   # neutralino2 decays
#          BR         NDA      ID1       ID2
     5.58673420E-01    2     1000022        23   # BR(~chi_20 -> ~chi_10   Z )
     4.41326580E-01    2     1000022        25   # BR(~chi_20 -> ~chi_10   h )
#
#         PDG            Width
DECAY   1000025     1.04690655E+00   # neutralino3 decays
#          BR         NDA      ID1       ID2
     4.23598831E-01    2     1000022        23   # BR(~chi_30 -> ~chi_10   Z )
     5.76401169E-01    2     1000022        25   # BR(~chi_30 -> ~chi_10   h )
#
#         PDG            Width
DECAY   1000035     1.78993291E+01   # neutralino4 decays
#          BR         NDA      ID1       ID2
     1.07966830E-04    2     1000022        23   # BR(~chi_40 -> ~chi_10   Z )
     3.40849257E-02    2     1000023        23   # BR(~chi_40 -> ~chi_20   Z )
     2.18082911E-01    2     1000025        23   # BR(~chi_40 -> ~chi_30   Z )
     2.44207706E-01    2     1000024       -24   # BR(~chi_40 -> ~chi_1+   W-)
     2.44207706E-01    2    -1000024        24   # BR(~chi_40 -> ~chi_1-   W+)
     1.84762090E-04    2     1000022        25   # BR(~chi_40 -> ~chi_10   h )
     2.47261187E-07    2     1000022        35   # BR(~chi_40 -> ~chi_10   H )
     3.99573154E-08    2     1000022        36   # BR(~chi_40 -> ~chi_10   A )
     2.25122252E-01    2     1000023        25   # BR(~chi_40 -> ~chi_20   h )
     3.40014844E-02    2     1000025        25   # BR(~chi_40 -> ~chi_30   h )
#
#         PDG            Width
DECAY        25     4.04272900E-03   # h decays
#          BR         NDA      ID1       ID2
     6.06823958E-01    2           5        -5   # BR(h -> b       bb     )
     6.41513848E-02    2         -15        15   # BR(h -> tau+    tau-   )
     2.27119230E-04    2         -13        13   # BR(h -> mu+     mu-    )
     4.81480471E-04    2           3        -3   # BR(h -> s       sb     )
     2.08653488E-02    2           4        -4   # BR(h -> c       cb     )
     6.74929039E-02    2          21        21   # BR(h -> g       g      )
     2.32076169E-03    2          22        22   # BR(h -> gam     gam    )
     1.49628539E-03    2          22        23   # BR(h -> Z       gam    )
     2.10966445E-01    2          24       -24   # BR(h -> W+      W-     )
     2.51445734E-02    2          23        23   # BR(h -> Z       Z      )
     2.97395821E-05    2     1000022   1000022   # BR(h -> ~chi_10 ~chi_10)
#
#         PDG            Width
DECAY        35     7.08724064E+00   # H decays
#          BR         NDA      ID1       ID2
     4.61796941E-01    2           5        -5   # BR(H -> b       bb     )
     7.86176257E-02    2         -15        15   # BR(H -> tau+    tau-   )
     2.77998169E-04    2         -13        13   # BR(H -> mu+     mu-    )
     3.40783151E-04    2           3        -3   # BR(H -> s       sb     )
     1.90557928E-06    2           4        -4   # BR(H -> c       cb     )
     1.90382463E-01    2           6        -6   # BR(H -> t       tb     )
     6.31889899E-05    2          21        21   # BR(H -> g       g      )
     3.82442174E-07    2          22        22   # BR(H -> gam     gam    )
     1.12441084E-07    2          23        22   # BR(H -> Z       gam    )
     8.45005445E-05    2          24       -24   # BR(H -> W+      W-     )
     4.21968006E-05    2          23        23   # BR(H -> Z       Z      )
     3.20325799E-04    2          25        25   # BR(H -> h       h      )
     1.66334428E-23    2          36        36   # BR(H -> A       A      )
     9.12940665E-19    2          23        36   # BR(H -> Z       A      )
     7.96251214E-04    2     1000022   1000022   # BR(H -> ~chi_10 ~chi_10)
     1.58416368E-01    2     1000022   1000023   # BR(H -> ~chi_10 ~chi_20)
     1.08858957E-01    2     1000022   1000025   # BR(H -> ~chi_10 ~chi_30)
#
#         PDG            Width
DECAY        36     7.09000290E+00   # A decays
#          BR         NDA      ID1       ID2
     4.61771176E-01    2           5        -5   # BR(A -> b       bb     )
     7.85892702E-02    2         -15        15   # BR(A -> tau+    tau-   )
     2.77897513E-04    2         -13        13   # BR(A -> mu+     mu-    )
     3.40908694E-04    2           3        -3   # BR(A -> s       sb     )
     1.91281423E-06    2           4        -4   # BR(A -> c       cb     )
     1.90999850E-01    2           6        -6   # BR(A -> t       tb     )
     1.89021894E-04    2          21        21   # BR(A -> g       g      )
     3.23353670E-07    2          22        22   # BR(A -> gam     gam    )
     2.28996745E-07    2          23        22   # BR(A -> Z       gam    )
     8.41483210E-05    2          23        25   # BR(A -> Z       h      )
     8.20210784E-04    2     1000022   1000022   # BR(A -> ~chi_10 ~chi_10)
     1.10105687E-01    2     1000022   1000023   # BR(A -> ~chi_10 ~chi_20)
     1.56819365E-01    2     1000022   1000025   # BR(A -> ~chi_10 ~chi_30)
#
#         PDG            Width
DECAY        37     7.09579830E+00   # H+ decays
#          BR         NDA      ID1       ID2
     7.43562860E-04    2           4        -5   # BR(H+ -> c       bb     )
     7.85479545E-02    2         -15        16   # BR(H+ -> tau+    nu_tau )
     2.77751418E-04    2         -13        14   # BR(H+ -> mu+     nu_mu  )
     4.75877804E-06    2           2        -5   # BR(H+ -> u       bb     )
     1.62978743E-05    2           2        -3   # BR(H+ -> u       sb     )
     3.37040583E-04    2           4        -3   # BR(H+ -> c       sb     )
     6.51569661E-01    2           6        -5   # BR(H+ -> t       bb     )
     8.42070700E-05    2          24        25   # BR(H+ -> W+      h      )
     9.43329715E-14    2          24        36   # BR(H+ -> W+      A      )
     2.68418766E-01    2     1000024   1000022   # BR(H+ -> ~chi_1+ ~chi_10)
