#
#                              ======================
#                              | THE SUSYHIT OUTPUT |
#                              ======================
#
#
#              ------------------------------------------------------
#              |     This is the output of the SUSY-HIT package     |
#              |  created by A.Djouadi, M.Muehlleitner and M.Spira. |
#              |  In case of problems with SUSY-HIT email to        |
#              |           margarete.muehlleitner@cern.ch           |
#              |           michael.spira@psi.ch                     |
#              |           abdelhak.djouadi@cern.ch                 |
#              ------------------------------------------------------
#
#              ------------------------------------------------------
#              |  SUSY Les Houches Accord - MSSM Spectrum + Decays  |
#              |              based on the decay programs           |
#              |                                                    |
#              |                     SDECAY 1.3b                    |
#              |                                                    |
#              |  Authors: M.Muhlleitner, A.Djouadi and Y.Mambrini  |
#              |  Ref.:    Comput.Phys.Commun.168(2005)46           |
#              |           [hep-ph/0311167]                         |
#              |                                                    |
#              |                     HDECAY 3.4                     |
#              |                                                    |
#              |  By: A.Djouadi,J.Kalinowski,M.Muhlleitner,M.Spira  |
#              |  Ref.:    Comput.Phys.Commun.108(1998)56           |
#              |           [hep-ph/9704448]                         |
#              |                                                    |
#              |                                                    |
#              |  If not stated otherwise all DRbar couplings and   |
#              |  soft SUSY breaking masses are given at the scale  |
#              |  Q=  0.50007333E+04
#              |                                                    |
#              ------------------------------------------------------
#
#
BLOCK DCINFO  # Decay Program information
     1   SDECAY/HDECAY # decay calculator
     2   1.3b  /3.4    # version number
#
BLOCK SPINFO  # Spectrum calculator information
     1    SOFTSUSY    # spectrum calculator                
     2    3.4.0       # version number                     
#
BLOCK MODSEL  # Model selection
     1     0   #  nonUniversal                                     
#
BLOCK SMINPUTS  # Standard Model inputs
         1     1.25778332E+02   # alpha_em^-1(M_Z)^MSbar
         2     1.16570000E-05   # G_F [GeV^-2]
         3     1.17200002E-01   # alpha_S(M_Z)^MSbar
         4     9.11876000E+01   # M_Z pole mass
         5     4.25000000E+00   # mb(mb)^MSbar
         6     1.72500000E+02   # mt pole mass
         7     1.77682000E+00   # mtau pole mass
#
BLOCK MINPAR  # Input parameters - minimal models
         3     1.00000000E+01   # tanb                
#
BLOCK EXTPAR  # Input parameters - non-minimal models
         0    -1.00000000E+00   # Set                 
         1     6.00000000E+01   # M_1(MX)             
         2     3.00000000E+03   # M_2(MX)             
         3     8.59143000E+02   # M_3(MX)             
        11     5.00000000E+03   # At(MX)              
        12     5.00000000E+03   # Ab(MX)              
        13     0.00000000E+00   # Atau(MX)            
        23    -8.62196000E+02   # mu(MX)              
        26     3.00000000E+03   # mA(pole)            
        31     5.00000000E+03   # meL(MX)             
        32     5.00000000E+03   # mmuL(MX)            
        33     5.00000000E+03   # mtauL(MX)           
        34     5.00000000E+03   # meR(MX)             
        35     5.00000000E+03   # mmuR(MX)            
        36     5.00000000E+03   # mtauR(MX)           
        41     5.00000000E+03   # mqL1(MX)            
        42     5.00000000E+03   # mqL2(MX)            
        43     5.00000000E+03   # mqL3(MX)            
        44     5.00000000E+03   # muR(MX)             
        45     5.00000000E+03   # mcR(MX)             
        46     5.00000000E+03   # mtR(MX)             
        47     5.00000000E+03   # mdR(MX)             
        48     5.00000000E+03   # msR(MX)             
        49     5.00000000E+03   # mbR(MX)             
#
BLOCK MASS  # Mass Spectrum
# PDG code           mass       particle
        24     8.00924766E+01   # W+
        25     1.24388539E+02   # h
        35     3.00007536E+03   # H
        36     2.99999330E+03   # A
        37     3.00119227E+03   # H+
         5     4.87878001E+00   # b-quark pole mass calculated from mb(mb)_Msbar
   1000001     5.06420864E+03   # ~d_L
   2000001     5.04637014E+03   # ~d_R
   1000002     5.06373173E+03   # ~u_L
   2000002     5.04608106E+03   # ~u_R
   1000003     5.06420864E+03   # ~s_L
   2000003     5.04637014E+03   # ~s_R
   1000004     5.06373173E+03   # ~c_L
   2000004     5.04608106E+03   # ~c_R
   1000005     5.01048409E+03   # ~b_1
   2000005     5.04488142E+03   # ~b_2
   1000006     4.90092856E+03   # ~t_1
   2000006     5.05616260E+03   # ~t_2
   1000011     5.01907905E+03   # ~e_L
   2000011     5.00592780E+03   # ~e_R
   1000012     5.01812965E+03   # ~nu_eL
   1000013     5.01907905E+03   # ~mu_L
   2000013     5.00592780E+03   # ~mu_R
   1000014     5.01812965E+03   # ~nu_muL
   1000015     5.00465107E+03   # ~tau_1
   2000015     5.01873241E+03   # ~tau_2
   1000016     5.01758222E+03   # ~nu_tauL
   1000021     1.10000038E+03   # ~g
   1000022     6.02942848E+01   # ~chi_10
   1000023     8.99733017E+02   # ~chi_20
   1000025    -9.01975385E+02   # ~chi_30
   1000035     3.07423832E+03   # ~chi_40
   1000024     9.00000668E+02   # ~chi_1+
   1000037     3.07440588E+03   # ~chi_2+
#
BLOCK NMIX  # Neutralino Mixing Matrix
  1  1     9.98775174E-01   # N_11
  1  2     1.95953793E-04   # N_12
  1  3    -4.94442369E-02   # N_13
  1  4     1.83888388E-03   # N_14
  2  1     3.36738071E-02   # N_21
  2  2     2.24309241E-02   # N_22
  2  3     7.06575622E-01   # N_23
  2  4     7.06479878E-01   # N_24
  3  1    -3.62500994E-02   # N_31
  3  2     1.52932201E-02   # N_32
  3  3    -7.05890002E-01   # N_33
  3  4     7.07227935E-01   # N_34
  4  1    -3.96813912E-04   # N_41
  4  2     9.99631398E-01   # N_42
  4  3    -5.04598413E-03   # N_43
  4  4    -2.66729811E-02   # N_44
#
BLOCK UMIX  # Chargino Mixing Matrix U
  1  1     7.14848610E-03   # U_11
  1  2     9.99974449E-01   # U_12
  2  1    -9.99974449E-01   # U_21
  2  2     7.14848610E-03   # U_22
#
BLOCK VMIX  # Chargino Mixing Matrix V
  1  1     3.77506229E-02   # V_11
  1  2    -9.99287191E-01   # V_12
  2  1    -9.99287191E-01   # V_21
  2  2    -3.77506229E-02   # V_22
#
BLOCK STOPMIX  # Stop Mixing Matrix
  1  1    -5.09320280E-01   # cos(theta_t)
  1  2     8.60577046E-01   # sin(theta_t)
  2  1    -8.60577046E-01   # -sin(theta_t)
  2  2    -5.09320280E-01   # cos(theta_t)
#
BLOCK SBOTMIX  # Sbottom Mixing Matrix
  1  1     9.97425105E-01   # cos(theta_b)
  1  2    -7.17158275E-02   # sin(theta_b)
  2  1     7.17158275E-02   # -sin(theta_b)
  2  2     9.97425105E-01   # cos(theta_b)
#
BLOCK STAUMIX  # Stau Mixing Matrix
  1  1    -1.02697399E-01   # cos(theta_tau)
  1  2     9.94712644E-01   # sin(theta_tau)
  2  1    -9.94712644E-01   # -sin(theta_tau)
  2  2    -1.02697399E-01   # cos(theta_tau)
#
BLOCK ALPHA  # Higgs mixing
          -1.05433794E-01   # Mixing angle in the neutral Higgs boson sector
#
BLOCK HMIX Q=  5.00073331E+03  # DRbar Higgs Parameters
         1    -8.77597862E+02   # mu(Q)MSSM           
         2     9.47345879E+00   # tan                 
         3     2.41892628E+02   # higgs               
         4     8.53956836E+06   # mA^2(Q)MSSM         
#
BLOCK GAUGE Q=  5.00073331E+03  # The gauge couplings
     1     3.70838904E-01   # gprime(Q) DRbar
     2     6.32714614E-01   # g(Q) DRbar
     3     1.00724426E+00   # g3(Q) DRbar
#
BLOCK AU Q=  5.00073331E+03  # The trilinear couplings
  1  1     5.00000001E+03   # A_u(Q) DRbar
  2  2     5.00000001E+03   # A_c(Q) DRbar
  3  3     5.00000001E+03   # A_t(Q) DRbar
#
BLOCK AD Q=  5.00073331E+03  # The trilinear couplings
  1  1     5.00000000E+03   # A_d(Q) DRbar
  2  2     5.00000000E+03   # A_s(Q) DRbar
  3  3     5.00000001E+03   # A_b(Q) DRbar
#
BLOCK AE Q=  5.00073331E+03  # The trilinear couplings
  1  1     0.00000000E+00   # A_e(Q) DRbar
  2  2     3.30036064E-08   # A_mu(Q) DRbar
  3  3     3.20899451E-08   # A_tau(Q) DRbar
#
BLOCK Yu Q=  5.00073331E+03  # The Yukawa couplings
  1  1     0.00000000E+00   # y_u(Q) DRbar
  2  2     0.00000000E+00   # y_c(Q) DRbar
  3  3     8.15106745E-01   # y_t(Q) DRbar
#
BLOCK Yd Q=  5.00073331E+03  # The Yukawa couplings
  1  1     0.00000000E+00   # y_d(Q) DRbar
  2  2     0.00000000E+00   # y_s(Q) DRbar
  3  3     1.29465194E-01   # y_b(Q) DRbar
#
BLOCK Ye Q=  5.00073331E+03  # The Yukawa couplings
  1  1     0.00000000E+00   # y_e(Q) DRbar
  2  2     0.00000000E+00   # y_mu(Q) DRbar
  3  3     9.69208575E-02   # y_tau(Q) DRbar
#
BLOCK MSOFT Q=  5.00073331E+03  # The soft SUSY breaking masses at the scale Q
         1     6.00000000E+01   # M_1(Q)              
         2     3.00000000E+03   # M_2(Q)              
         3     8.59143000E+02   # M_3(Q)              
        21     7.93100015E+06   # mH1^2(Q)            
        22    -2.07509384E+05   # mH2^2(Q)            
        31     5.00000000E+03   # meL(Q)              
        32     5.00000000E+03   # mmuL(Q)             
        33     5.00000000E+03   # mtauL(Q)            
        34     5.00000000E+03   # meR(Q)              
        35     5.00000000E+03   # mmuR(Q)             
        36     5.00000000E+03   # mtauR(Q)            
        41     5.00000000E+03   # mqL1(Q)             
        42     5.00000000E+03   # mqL2(Q)             
        43     5.00000000E+03   # mqL3(Q)             
        44     5.00000000E+03   # muR(Q)              
        45     5.00000000E+03   # mcR(Q)              
        46     5.00000000E+03   # mtR(Q)              
        47     5.00000000E+03   # mdR(Q)              
        48     5.00000000E+03   # msR(Q)              
        49     5.00000000E+03   # mbR(Q)              
#
#
#
#                             =================
#                             |The decay table|
#                             =================
#
# - The QCD corrections to the decays gluino -> squark  + quark
#                                     squark -> gaugino + quark_prime
#                                     squark -> squark_prime + Higgs
#                                     squark -> gluino  + quark
#   are included.
#
# - The multi-body decays for the inos, stops and sbottoms are included.
#
# - The loop induced decays for the gluino, neutralinos and stops
#   are included.
#
# - The SUSY decays of the top quark are included.
#
#
#         PDG            Width
DECAY         6     1.40299474E+00   # top decays
#          BR         NDA      ID1       ID2
     1.00000000E+00    2           5        24   # BR(t ->  b    W+)
#
#         PDG            Width
DECAY   1000021     1.39700676E-05   # gluino decays
#          BR         NDA      ID1       ID2
     1.64519702E-05    2     1000022        21   # BR(~g -> ~chi_10 g)
     6.53985951E-03    2     1000023        21   # BR(~g -> ~chi_20 g)
     6.25789754E-03    2     1000025        21   # BR(~g -> ~chi_30 g)
#           BR         NDA      ID1       ID2       ID3
     8.04792009E-02    3     1000022         1        -1   # BR(~g -> ~chi_10 d  db)
     4.94829633E-07    3     1000023         1        -1   # BR(~g -> ~chi_20 d  db)
     2.61184747E-07    3     1000025         1        -1   # BR(~g -> ~chi_30 d  db)
     2.74389883E-01    3     1000022         2        -2   # BR(~g -> ~chi_10 u  ub)
     1.79030705E-06    3     1000023         2        -2   # BR(~g -> ~chi_20 u  ub)
     3.27117118E-07    3     1000025         2        -2   # BR(~g -> ~chi_30 u  ub)
     8.04792009E-02    3     1000022         3        -3   # BR(~g -> ~chi_10 s  sb)
     4.94829633E-07    3     1000023         3        -3   # BR(~g -> ~chi_20 s  sb)
     2.61184747E-07    3     1000025         3        -3   # BR(~g -> ~chi_30 s  sb)
     2.74389883E-01    3     1000022         4        -4   # BR(~g -> ~chi_10 c  cb)
     1.79030705E-06    3     1000023         4        -4   # BR(~g -> ~chi_20 c  cb)
     3.27117118E-07    3     1000025         4        -4   # BR(~g -> ~chi_30 c  cb)
     8.16977877E-02    3     1000022         5        -5   # BR(~g -> ~chi_10 b  bb)
     1.00430873E-04    3     1000023         5        -5   # BR(~g -> ~chi_20 b  bb)
     9.37352780E-05    3     1000025         5        -5   # BR(~g -> ~chi_30 b  bb)
     1.95506791E-01    3     1000022         6        -6   # BR(~g -> ~chi_10 t  tb)
     1.34329147E-06    3     1000024         1        -2   # BR(~g -> ~chi_1+ d  ub)
     1.34329147E-06    3    -1000024         2        -1   # BR(~g -> ~chi_1- u  db)
     1.34329147E-06    3     1000024         3        -4   # BR(~g -> ~chi_1+ s  cb)
     1.34329147E-06    3    -1000024         4        -3   # BR(~g -> ~chi_1- c  sb)
     1.88794844E-05    3     1000024         5        -6   # BR(~g -> ~chi_1+ b  tb)
     1.88794844E-05    3    -1000024         6        -5   # BR(~g -> ~chi_1- t  bb)
#
#         PDG            Width
DECAY   1000006     4.11500127E+02   # stop1 decays
#          BR         NDA      ID1       ID2
     2.13747405E-02    2     1000022         6   # BR(~t_1 -> ~chi_10 t )
     7.47256947E-02    2     1000023         6   # BR(~t_1 -> ~chi_20 t )
     7.16784423E-02    2     1000025         6   # BR(~t_1 -> ~chi_30 t )
     5.11289175E-03    2     1000035         6   # BR(~t_1 -> ~chi_40 t )
     1.07766807E-01    2     1000024         5   # BR(~t_1 -> ~chi_1+ b )
     1.01883294E-02    2     1000037         5   # BR(~t_1 -> ~chi_2+ b )
     7.09153094E-01    2     1000021         6   # BR(~t_1 -> ~g      t )
#
#         PDG            Width
DECAY   2000006     4.12674196E+02   # stop2 decays
#          BR         NDA      ID1       ID2
     8.63440952E-03    2     1000022         6   # BR(~t_2 -> ~chi_10 t )
     7.59756004E-02    2     1000023         6   # BR(~t_2 -> ~chi_20 t )
     7.93171110E-02    2     1000025         6   # BR(~t_2 -> ~chi_30 t )
     1.32816871E-02    2     1000035         6   # BR(~t_2 -> ~chi_40 t )
     4.60404142E-02    2     1000024         5   # BR(~t_2 -> ~chi_1+ b )
     2.64312492E-02    2     1000037         5   # BR(~t_2 -> ~chi_2+ b )
     7.47194192E-01    2     1000021         6   # BR(~t_2 -> ~g      t )
     7.01064336E-04    2     1000006        25   # BR(~t_2 -> ~t_1    h )
     2.42427217E-03    2     1000006        23   # BR(~t_2 -> ~t_1    Z )
#
#         PDG            Width
DECAY   1000005     3.90460356E+02   # sbottom1 decays
#          BR         NDA      ID1       ID2
     1.98452536E-03    2     1000022         5   # BR(~b_1 -> ~chi_10 b )
     2.03814204E-03    2     1000023         5   # BR(~b_1 -> ~chi_20 b )
     1.99145929E-03    2     1000025         5   # BR(~b_1 -> ~chi_30 b )
     1.92189669E-02    2     1000035         5   # BR(~b_1 -> ~chi_40 b )
     1.59385991E-01    2    -1000024         6   # BR(~b_1 -> ~chi_1- t )
     3.86064230E-02    2    -1000037         6   # BR(~b_1 -> ~chi_2- t )
     7.75315223E-01    2     1000021         5   # BR(~b_1 -> ~g      b )
     1.45926975E-03    2     1000006       -24   # BR(~b_1 -> ~t_1    W-)
#
#         PDG            Width
DECAY   2000005     3.11562387E+02   # sbottom2 decays
#          BR         NDA      ID1       ID2
     9.44122733E-03    2     1000022         5   # BR(~b_2 -> ~chi_10 b )
     2.56024962E-03    2     1000023         5   # BR(~b_2 -> ~chi_20 b )
     2.62395597E-03    2     1000025         5   # BR(~b_2 -> ~chi_30 b )
     1.28465777E-04    2     1000035         5   # BR(~b_2 -> ~chi_40 b )
     6.11488742E-03    2    -1000024         6   # BR(~b_2 -> ~chi_1- t )
     2.58026938E-04    2    -1000037         6   # BR(~b_2 -> ~chi_2- t )
     9.78834836E-01    2     1000021         5   # BR(~b_2 -> ~g      b )
     3.83507412E-05    2     1000006       -24   # BR(~b_2 -> ~t_1    W-)
#
#         PDG            Width
DECAY   1000002     3.30485995E+02   # sup_L decays
#          BR         NDA      ID1       ID2
     2.26111385E-03    2     1000022         2   # BR(~u_L -> ~chi_10 u)
     4.68025141E-05    2     1000023         2   # BR(~u_L -> ~chi_20 u)
     3.74833761E-06    2     1000025         2   # BR(~u_L -> ~chi_30 u)
     2.36430915E-02    2     1000035         2   # BR(~u_L -> ~chi_40 u)
     1.58504856E-04    2     1000024         1   # BR(~u_L -> ~chi_1+ d)
     4.72549714E-02    2     1000037         1   # BR(~u_L -> ~chi_2+ d)
     9.26631768E-01    2     1000021         2   # BR(~u_L -> ~g      u)
#
#         PDG            Width
DECAY   2000002     3.16877472E+02   # sup_R decays
#          BR         NDA      ID1       ID2
     3.75241145E-02    2     1000022         2   # BR(~u_R -> ~chi_10 u)
     4.00075258E-05    2     1000023         2   # BR(~u_R -> ~chi_20 u)
     4.63482174E-05    2     1000025         2   # BR(~u_R -> ~chi_30 u)
     2.34586956E-09    2     1000035         2   # BR(~u_R -> ~chi_40 u)
     9.62389527E-01    2     1000021         2   # BR(~u_R -> ~g      u)
#
#         PDG            Width
DECAY   1000001     3.30495483E+02   # sdown_L decays
#          BR         NDA      ID1       ID2
     2.25219762E-03    2     1000022         1   # BR(~d_L -> ~chi_10 d)
     1.39761828E-05    2     1000023         1   # BR(~d_L -> ~chi_20 d)
     2.78364661E-05    2     1000025         1   # BR(~d_L -> ~chi_30 d)
     2.36571456E-02    2     1000035         1   # BR(~d_L -> ~chi_40 d)
     5.68402961E-06    2    -1000024         2   # BR(~d_L -> ~chi_1- u)
     4.73334369E-02    2    -1000037         2   # BR(~d_L -> ~chi_2- u)
     9.26709723E-01    2     1000021         1   # BR(~d_L -> ~g      d)
#
#         PDG            Width
DECAY   2000001     3.07960167E+02   # sdown_R decays
#          BR         NDA      ID1       ID2
     9.65322095E-03    2     1000022         1   # BR(~d_R -> ~chi_10 d)
     1.02921645E-05    2     1000023         1   # BR(~d_R -> ~chi_20 d)
     1.19233441E-05    2     1000025         1   # BR(~d_R -> ~chi_30 d)
     6.03564860E-10    2     1000035         1   # BR(~d_R -> ~chi_40 d)
     9.90324563E-01    2     1000021         1   # BR(~d_R -> ~g      d)
#
#         PDG            Width
DECAY   1000004     3.30485995E+02   # scharm_L decays
#          BR         NDA      ID1       ID2
     2.26111385E-03    2     1000022         4   # BR(~c_L -> ~chi_10 c)
     4.68025141E-05    2     1000023         4   # BR(~c_L -> ~chi_20 c)
     3.74833761E-06    2     1000025         4   # BR(~c_L -> ~chi_30 c)
     2.36430915E-02    2     1000035         4   # BR(~c_L -> ~chi_40 c)
     1.58504856E-04    2     1000024         3   # BR(~c_L -> ~chi_1+ s)
     4.72549714E-02    2     1000037         3   # BR(~c_L -> ~chi_2+ s)
     9.26631768E-01    2     1000021         4   # BR(~c_L -> ~g      c)
#
#         PDG            Width
DECAY   2000004     3.16877472E+02   # scharm_R decays
#          BR         NDA      ID1       ID2
     3.75241145E-02    2     1000022         4   # BR(~c_R -> ~chi_10 c)
     4.00075258E-05    2     1000023         4   # BR(~c_R -> ~chi_20 c)
     4.63482174E-05    2     1000025         4   # BR(~c_R -> ~chi_30 c)
     2.34586956E-09    2     1000035         4   # BR(~c_R -> ~chi_40 c)
     9.62389527E-01    2     1000021         4   # BR(~c_R -> ~g      c)
#
#         PDG            Width
DECAY   1000003     3.30495483E+02   # sstrange_L decays
#          BR         NDA      ID1       ID2
     2.25219762E-03    2     1000022         3   # BR(~s_L -> ~chi_10 s)
     1.39761828E-05    2     1000023         3   # BR(~s_L -> ~chi_20 s)
     2.78364661E-05    2     1000025         3   # BR(~s_L -> ~chi_30 s)
     2.36571456E-02    2     1000035         3   # BR(~s_L -> ~chi_40 s)
     5.68402961E-06    2    -1000024         4   # BR(~s_L -> ~chi_1- c)
     4.73334369E-02    2    -1000037         4   # BR(~s_L -> ~chi_2- c)
     9.26709723E-01    2     1000021         3   # BR(~s_L -> ~g      s)
#
#         PDG            Width
DECAY   2000003     3.07960167E+02   # sstrange_R decays
#          BR         NDA      ID1       ID2
     9.65322095E-03    2     1000022         3   # BR(~s_R -> ~chi_10 s)
     1.02921645E-05    2     1000023         3   # BR(~s_R -> ~chi_20 s)
     1.19233441E-05    2     1000025         3   # BR(~s_R -> ~chi_30 s)
     6.03564860E-10    2     1000035         3   # BR(~s_R -> ~chi_40 s)
     9.90324563E-01    2     1000021         3   # BR(~s_R -> ~g      s)
#
#         PDG            Width
DECAY   1000011     3.02844872E+01   # selectron_L decays
#          BR         NDA      ID1       ID2
     2.26243110E-01    2     1000022        11   # BR(~e_L -> ~chi_10 e-)
     1.09926621E-03    2     1000023        11   # BR(~e_L -> ~chi_20 e-)
     2.19034411E-05    2     1000025        11   # BR(~e_L -> ~chi_30 e-)
     2.57348973E-01    2     1000035        11   # BR(~e_L -> ~chi_40 e-)
     6.31815372E-05    2    -1000024        12   # BR(~e_L -> ~chi_1- nu_e)
     5.15223566E-01    2    -1000037        12   # BR(~e_L -> ~chi_2- nu_e)
#
#         PDG            Width
DECAY   2000011     2.73792639E+01   # selectron_R decays
#          BR         NDA      ID1       ID2
     9.97706938E-01    2     1000022        11   # BR(~e_R -> ~chi_10 e-)
     1.06232093E-03    2     1000023        11   # BR(~e_R -> ~chi_20 e-)
     1.23067954E-03    2     1000025        11   # BR(~e_R -> ~chi_30 e-)
     6.11144902E-08    2     1000035        11   # BR(~e_R -> ~chi_40 e-)
#
#         PDG            Width
DECAY   1000013     3.02844872E+01   # smuon_L decays
#          BR         NDA      ID1       ID2
     2.26243110E-01    2     1000022        13   # BR(~mu_L -> ~chi_10 mu-)
     1.09926621E-03    2     1000023        13   # BR(~mu_L -> ~chi_20 mu-)
     2.19034411E-05    2     1000025        13   # BR(~mu_L -> ~chi_30 mu-)
     2.57348973E-01    2     1000035        13   # BR(~mu_L -> ~chi_40 mu-)
     6.31815372E-05    2    -1000024        14   # BR(~mu_L -> ~chi_1- nu_mu)
     5.15223566E-01    2    -1000037        14   # BR(~mu_L -> ~chi_2- nu_mu)
#
#         PDG            Width
DECAY   2000013     2.73792639E+01   # smuon_R decays
#          BR         NDA      ID1       ID2
     9.97706938E-01    2     1000022        13   # BR(~mu_R -> ~chi_10 mu-)
     1.06232093E-03    2     1000023        13   # BR(~mu_R -> ~chi_20 mu-)
     1.23067954E-03    2     1000025        13   # BR(~mu_R -> ~chi_30 mu-)
     6.11144902E-08    2     1000035        13   # BR(~mu_R -> ~chi_40 mu-)
#
#         PDG            Width
DECAY   1000015     2.91515751E+01   # stau_1 decays
#          BR         NDA      ID1       ID2
     9.30354970E-01    2     1000022        15   # BR(~tau_1 -> ~chi_10  tau-)
     1.60510538E-02    2     1000023        15   # BR(~tau_1 -> ~chi_20  tau-)
     1.53784157E-02    2     1000025        15   # BR(~tau_1 -> ~chi_30  tau-)
     2.73330780E-03    2     1000035        15   # BR(~tau_1 -> ~chi_40  tau-)
     3.00102854E-02    2    -1000024        16   # BR(~tau_1 -> ~chi_1-  nu_tau)
     5.47196768E-03    2    -1000037        16   # BR(~tau_1 -> ~chi_2-  nu_tau)
#
#         PDG            Width
DECAY   2000015     3.11276001E+01   # stau_2 decays
#          BR         NDA      ID1       ID2
     2.26310047E-01    2     1000022        15   # BR(~tau_2 -> ~chi_10  tau-)
     1.51094322E-02    2     1000023        15   # BR(~tau_2 -> ~chi_20  tau-)
     1.47786038E-02    2     1000025        15   # BR(~tau_2 -> ~chi_30  tau-)
     2.47735325E-01    2     1000035        15   # BR(~tau_2 -> ~chi_40  tau-)
     8.93827190E-05    2    -1000024        16   # BR(~tau_2 -> ~chi_1-  nu_tau)
     4.95977209E-01    2    -1000037        16   # BR(~tau_2 -> ~chi_2-  nu_tau)
#
#         PDG            Width
DECAY   1000012     3.02873964E+01   # snu_eL decays
#          BR         NDA      ID1       ID2
     2.25875921E-01    2     1000022        12   # BR(~nu_eL -> ~chi_10 nu_e)
     4.48697434E-06    2     1000023        12   # BR(~nu_eL -> ~chi_20 nu_e)
     8.24897429E-04    2     1000025        12   # BR(~nu_eL -> ~chi_30 nu_e)
     2.57398112E-01    2     1000035        12   # BR(~nu_eL -> ~chi_40 nu_e)
     1.76147094E-03    2     1000024        11   # BR(~nu_eL -> ~chi_1+ e-)
     5.14135112E-01    2     1000037        11   # BR(~nu_eL -> ~chi_2+ e-)
#
#         PDG            Width
DECAY   1000014     3.02873964E+01   # snu_muL decays
#          BR         NDA      ID1       ID2
     2.25875921E-01    2     1000022        14   # BR(~nu_muL -> ~chi_10 nu_mu)
     4.48697434E-06    2     1000023        14   # BR(~nu_muL -> ~chi_20 nu_mu)
     8.24897429E-04    2     1000025        14   # BR(~nu_muL -> ~chi_30 nu_mu)
     2.57398112E-01    2     1000035        14   # BR(~nu_muL -> ~chi_40 nu_mu)
     1.76147094E-03    2     1000024        13   # BR(~nu_muL -> ~chi_1+ mu-)
     5.14135112E-01    2     1000037        13   # BR(~nu_muL -> ~chi_2+ mu-)
#
#         PDG            Width
DECAY   1000016     3.11562836E+01   # snu_tauL decays
#          BR         NDA      ID1       ID2
     2.19552720E-01    2     1000022        16   # BR(~nu_tauL -> ~chi_10 nu_tau)
     4.36130243E-06    2     1000023        16   # BR(~nu_tauL -> ~chi_20 nu_tau)
     8.01793507E-04    2     1000025        16   # BR(~nu_tauL -> ~chi_30 nu_tau)
     2.50126893E-01    2     1000035        16   # BR(~nu_tauL -> ~chi_40 nu_tau)
     2.99033896E-02    2     1000024        15   # BR(~nu_tauL -> ~chi_1+ tau-)
     4.99610843E-01    2     1000037        15   # BR(~nu_tauL -> ~chi_2+ tau-)
#
#         PDG            Width
DECAY   1000024     5.46476516E-01   # chargino1+ decays
#          BR         NDA      ID1       ID2
     1.00000000E+00    2     1000022        24   # BR(~chi_1+ -> ~chi_10  W+)
#
#         PDG            Width
DECAY   1000037     2.07782309E+01   # chargino2+ decays
#          BR         NDA      ID1       ID2
     2.53296967E-01    2     1000024        23   # BR(~chi_2+ -> ~chi_1+  Z )
     1.91059443E-04    2     1000022        24   # BR(~chi_2+ -> ~chi_10  W+)
     2.44302993E-01    2     1000023        24   # BR(~chi_2+ -> ~chi_20  W+)
     2.44200878E-01    2     1000025        24   # BR(~chi_2+ -> ~chi_30  W+)
     2.58006610E-01    2     1000024        25   # BR(~chi_2+ -> ~chi_1+  h )
     1.49253281E-06    2     1000022        37   # BR(~chi_2+ -> ~chi_10  H+)
#
#         PDG            Width
DECAY   1000022     0.00000000E+00   # neutralino1 decays
#
#         PDG            Width
DECAY   1000023     5.69216323E-01   # neutralino2 decays
#          BR         NDA      ID1       ID2
     5.35265784E-01    2     1000022        23   # BR(~chi_20 -> ~chi_10   Z )
     4.64734216E-01    2     1000022        25   # BR(~chi_20 -> ~chi_10   h )
#
#         PDG            Width
DECAY   1000025     5.70714965E-01   # neutralino3 decays
#          BR         NDA      ID1       ID2
     4.58766207E-01    2     1000022        23   # BR(~chi_30 -> ~chi_10   Z )
     5.41233793E-01    2     1000022        25   # BR(~chi_30 -> ~chi_10   h )
#
#         PDG            Width
DECAY   1000035     2.07939332E+01   # neutralino4 decays
#          BR         NDA      ID1       ID2
     4.00214306E-05    2     1000022        23   # BR(~chi_40 -> ~chi_10   Z )
     8.03580846E-02    2     1000023        23   # BR(~chi_40 -> ~chi_20   Z )
     1.72244370E-01    2     1000025        23   # BR(~chi_40 -> ~chi_30   Z )
     2.44899688E-01    2     1000024       -24   # BR(~chi_40 -> ~chi_1+   W-)
     2.44899688E-01    2    -1000024        24   # BR(~chi_40 -> ~chi_1-   W+)
     1.50856493E-04    2     1000022        25   # BR(~chi_40 -> ~chi_10   h )
     1.40498047E-06    2     1000022        35   # BR(~chi_40 -> ~chi_10   H )
     1.68051142E-07    2     1000022        36   # BR(~chi_40 -> ~chi_10   A )
     1.76847463E-01    2     1000023        25   # BR(~chi_40 -> ~chi_20   h )
     8.05582552E-02    2     1000025        25   # BR(~chi_40 -> ~chi_30   h )
#
#         PDG            Width
DECAY        25     4.02590665E-03   # h decays
#          BR         NDA      ID1       ID2
     6.15878065E-01    2           5        -5   # BR(h -> b       bb     )
     6.42262982E-02    2         -15        15   # BR(h -> tau+    tau-   )
     2.27386158E-04    2         -13        13   # BR(h -> mu+     mu-    )
     4.82335535E-04    2           3        -3   # BR(h -> s       sb     )
     2.09005954E-02    2           4        -4   # BR(h -> c       cb     )
     6.71637030E-02    2          21        21   # BR(h -> g       g      )
     2.30028365E-03    2          22        22   # BR(h -> gam     gam    )
     1.45092222E-03    2          22        23   # BR(h -> Z       gam    )
     2.03259210E-01    2          24       -24   # BR(h -> W+      W-     )
     2.40551658E-02    2          23        23   # BR(h -> Z       Z      )
     5.60349390E-05    2     1000022   1000022   # BR(h -> ~chi_10 ~chi_10)
#
#         PDG            Width
DECAY        35     8.24077989E+00   # H decays
#          BR         NDA      ID1       ID2
     3.90844811E-01    2           5        -5   # BR(H -> b       bb     )
     6.76557221E-02    2         -15        15   # BR(H -> tau+    tau-   )
     2.39236007E-04    2         -13        13   # BR(H -> mu+     mu-    )
     2.93266827E-04    2           3        -3   # BR(H -> s       sb     )
     1.63793267E-06    2           4        -4   # BR(H -> c       cb     )
     1.63642439E-01    2           6        -6   # BR(H -> t       tb     )
     5.43621003E-05    2          21        21   # BR(H -> g       g      )
     2.37692147E-07    2          22        22   # BR(H -> gam     gam    )
     9.65205975E-08    2          23        22   # BR(H -> Z       gam    )
     7.52500200E-05    2          24       -24   # BR(H -> W+      W-     )
     3.75773751E-05    2          23        23   # BR(H -> Z       Z      )
     2.80325259E-04    2          25        25   # BR(H -> h       h      )
    -1.77615724E-23    2          36        36   # BR(H -> A       A      )
     6.11472027E-19    2          23        36   # BR(H -> Z       A      )
     2.30005647E-03    2     1000024  -1000024   # BR(H -> ~chi_1+ ~chi_1-)
     2.16487615E-03    2     1000022   1000022   # BR(H -> ~chi_10 ~chi_10)
     1.59489124E-05    2     1000023   1000023   # BR(H -> ~chi_20 ~chi_20)
     7.54961907E-04    2     1000025   1000025   # BR(H -> ~chi_30 ~chi_30)
     2.23184504E-01    2     1000022   1000023   # BR(H -> ~chi_10 ~chi_20)
     1.47711138E-01    2     1000022   1000025   # BR(H -> ~chi_10 ~chi_30)
     7.43552823E-04    2     1000023   1000025   # BR(H -> ~chi_20 ~chi_30)
#
#         PDG            Width
DECAY        36     8.25488398E+00   # A decays
#          BR         NDA      ID1       ID2
     3.90309736E-01    2           5        -5   # BR(A -> b       bb     )
     6.75421606E-02    2         -15        15   # BR(A -> tau+    tau-   )
     2.38834111E-04    2         -13        13   # BR(A -> mu+     mu-    )
     2.92987962E-04    2           3        -3   # BR(A -> s       sb     )
     1.64183753E-06    2           4        -4   # BR(A -> c       cb     )
     1.63942068E-01    2           6        -6   # BR(A -> t       tb     )
     1.62287782E-04    2          21        21   # BR(A -> g       g      )
     5.87730748E-07    2          22        22   # BR(A -> gam     gam    )
     1.96400037E-07    2          23        22   # BR(A -> Z       gam    )
     7.48398912E-05    2          23        25   # BR(A -> Z       h      )
     3.31178475E-03    2     1000024  -1000024   # BR(A -> ~chi_1+ ~chi_1-)
     2.19904265E-03    2     1000022   1000022   # BR(A -> ~chi_10 ~chi_10)
     1.62709447E-05    2     1000023   1000023   # BR(A -> ~chi_20 ~chi_20)
     1.80610068E-03    2     1000025   1000025   # BR(A -> ~chi_30 ~chi_30)
     1.49726255E-01    2     1000022   1000023   # BR(A -> ~chi_10 ~chi_20)
     2.20098107E-01    2     1000022   1000025   # BR(A -> ~chi_10 ~chi_30)
     2.77100151E-04    2     1000023   1000025   # BR(A -> ~chi_20 ~chi_30)
#
#         PDG            Width
DECAY        37     8.19408054E+00   # H+ decays
#          BR         NDA      ID1       ID2
     6.25716774E-04    2           4        -5   # BR(H+ -> c       bb     )
     6.80705453E-02    2         -15        16   # BR(H+ -> tau+    nu_tau )
     2.40702518E-04    2         -13        14   # BR(H+ -> mu+     nu_mu  )
     4.00456649E-06    2           2        -5   # BR(H+ -> u       bb     )
     1.41237279E-05    2           2        -3   # BR(H+ -> u       sb     )
     2.92077136E-04    2           4        -3   # BR(H+ -> c       sb     )
     5.52801028E-01    2           6        -5   # BR(H+ -> t       bb     )
     7.55342288E-05    2          24        25   # BR(H+ -> W+      h      )
     3.97357298E-13    2          24        36   # BR(H+ -> W+      A      )
     3.76728639E-01    2     1000024   1000022   # BR(H+ -> ~chi_1+ ~chi_10)
     1.12581427E-03    2     1000024   1000023   # BR(H+ -> ~chi_1+ ~chi_20)
     2.18145038E-05    2     1000024   1000025   # BR(H+ -> ~chi_1+ ~chi_30)
