#
#                              ======================
#                              | THE SUSYHIT OUTPUT |
#                              ======================
#
#
#              ------------------------------------------------------
#              |     This is the output of the SUSY-HIT package     |
#              |  created by A.Djouadi, M.Muehlleitner and M.Spira. |
#              |  In case of problems with SUSY-HIT email to        |
#              |           margarete.muehlleitner@cern.ch           |
#              |           michael.spira@psi.ch                     |
#              |           abdelhak.djouadi@cern.ch                 |
#              ------------------------------------------------------
#
#              ------------------------------------------------------
#              |  SUSY Les Houches Accord - MSSM Spectrum + Decays  |
#              |              based on the decay programs           |
#              |                                                    |
#              |                     SDECAY 1.3b                    |
#              |                                                    |
#              |  Authors: M.Muhlleitner, A.Djouadi and Y.Mambrini  |
#              |  Ref.:    Comput.Phys.Commun.168(2005)46           |
#              |           [hep-ph/0311167]                         |
#              |                                                    |
#              |                     HDECAY 3.4                     |
#              |                                                    |
#              |  By: A.Djouadi,J.Kalinowski,M.Muhlleitner,M.Spira  |
#              |  Ref.:    Comput.Phys.Commun.108(1998)56           |
#              |           [hep-ph/9704448]                         |
#              |                                                    |
#              |                                                    |
#              |  If not stated otherwise all DRbar couplings and   |
#              |  soft SUSY breaking masses are given at the scale  |
#              |  Q=  0.50007714E+04
#              |                                                    |
#              ------------------------------------------------------
#
#
BLOCK DCINFO  # Decay Program information
     1   SDECAY/HDECAY # decay calculator
     2   1.3b  /3.4    # version number
#
BLOCK SPINFO  # Spectrum calculator information
     1    SOFTSUSY    # spectrum calculator                
     2    3.4.0       # version number                     
#
BLOCK MODSEL  # Model selection
     1     0   #  nonUniversal                                     
#
BLOCK SMINPUTS  # Standard Model inputs
         1     1.25778332E+02   # alpha_em^-1(M_Z)^MSbar
         2     1.16570000E-05   # G_F [GeV^-2]
         3     1.17200002E-01   # alpha_S(M_Z)^MSbar
         4     9.11876000E+01   # M_Z pole mass
         5     4.25000000E+00   # mb(mb)^MSbar
         6     1.72500000E+02   # mt pole mass
         7     1.77682000E+00   # mtau pole mass
#
BLOCK MINPAR  # Input parameters - minimal models
         3     1.00000000E+01   # tanb                
#
BLOCK EXTPAR  # Input parameters - non-minimal models
         0    -1.00000000E+00   # Set                 
         1     6.00000000E+01   # M_1(MX)             
         2     3.00000000E+03   # M_2(MX)             
         3     2.33131900E+03   # M_3(MX)             
        11     5.00000000E+03   # At(MX)              
        12     5.00000000E+03   # Ab(MX)              
        13     0.00000000E+00   # Atau(MX)            
        23    -2.82770000E+02   # mu(MX)              
        26     3.00000000E+03   # mA(pole)            
        31     5.00000000E+03   # meL(MX)             
        32     5.00000000E+03   # mmuL(MX)            
        33     5.00000000E+03   # mtauL(MX)           
        34     5.00000000E+03   # meR(MX)             
        35     5.00000000E+03   # mmuR(MX)            
        36     5.00000000E+03   # mtauR(MX)           
        41     5.00000000E+03   # mqL1(MX)            
        42     5.00000000E+03   # mqL2(MX)            
        43     5.00000000E+03   # mqL3(MX)            
        44     5.00000000E+03   # muR(MX)             
        45     5.00000000E+03   # mcR(MX)             
        46     5.00000000E+03   # mtR(MX)             
        47     5.00000000E+03   # mdR(MX)             
        48     5.00000000E+03   # msR(MX)             
        49     5.00000000E+03   # mbR(MX)             
#
BLOCK MASS  # Mass Spectrum
# PDG code           mass       particle
        24     8.00919345E+01   # W+
        25     1.24800292E+02   # h
        35     3.00008912E+03   # H
        36     2.99999971E+03   # A
        37     3.00146928E+03   # H+
         5     4.87878001E+00   # b-quark pole mass calculated from mb(mb)_Msbar
   1000001     5.08411027E+03   # ~d_L
   2000001     5.06628240E+03   # ~d_R
   1000002     5.08363896E+03   # ~u_L
   2000002     5.06597708E+03   # ~u_R
   1000003     5.08411027E+03   # ~s_L
   2000003     5.06628240E+03   # ~s_R
   1000004     5.08363896E+03   # ~c_L
   2000004     5.06597708E+03   # ~c_R
   1000005     5.03004759E+03   # ~b_1
   2000005     5.06439671E+03   # ~b_2
   1000006     4.92235781E+03   # ~t_1
   2000006     5.07249166E+03   # ~t_2
   1000011     5.01913644E+03   # ~e_L
   2000011     5.00595371E+03   # ~e_R
   1000012     5.01818500E+03   # ~nu_eL
   1000013     5.01913644E+03   # ~mu_L
   2000013     5.00595371E+03   # ~mu_R
   1000014     5.01818500E+03   # ~nu_muL
   1000015     5.00481615E+03   # ~tau_1
   2000015     5.01861795E+03   # ~tau_2
   1000016     5.01763126E+03   # ~nu_tauL
   1000021     2.70000022E+03   # ~g
   1000022     5.97919724E+01   # ~chi_10
   1000023     3.01966738E+02   # ~chi_20
   1000025    -3.03835670E+02   # ~chi_30
   1000035     3.07422108E+03   # ~chi_40
   1000024     3.00000051E+02   # ~chi_1+
   1000037     3.07438900E+03   # ~chi_2+
#
BLOCK NMIX  # Neutralino Mixing Matrix
  1  1     9.88607252E-01   # N_11
  1  2     6.02079489E-05   # N_12
  1  3    -1.49796495E-01   # N_13
  1  4    -1.47210051E-02   # N_14
  2  1     1.16361501E-01   # N_21
  2  2     1.76943933E-02   # N_22
  2  3     6.98596152E-01   # N_23
  2  4     7.05769315E-01   # N_24
  3  1    -9.54753622E-02   # N_31
  3  2     1.80268648E-02   # N_32
  3  3    -6.99660174E-01   # N_33
  3  4     7.07838349E-01   # N_34
  4  1    -3.97473558E-04   # N_41
  4  2     9.99680918E-01   # N_42
  4  3     2.60546362E-04   # N_43
  4  4    -2.52554383E-02   # N_44
#
BLOCK UMIX  # Chargino Mixing Matrix U
  1  1    -3.65922548E-04   # U_11
  1  2     9.99999933E-01   # U_12
  2  1    -9.99999933E-01   # U_21
  2  2    -3.65922548E-04   # U_22
#
BLOCK VMIX  # Chargino Mixing Matrix V
  1  1     3.57256294E-02   # V_11
  1  2    -9.99361636E-01   # V_12
  2  1    -9.99361636E-01   # V_21
  2  2    -3.57256294E-02   # V_22
#
BLOCK STOPMIX  # Stop Mixing Matrix
  1  1    -5.00001129E-01   # cos(theta_t)
  1  2     8.66024752E-01   # sin(theta_t)
  2  1    -8.66024752E-01   # -sin(theta_t)
  2  2    -5.00001129E-01   # cos(theta_t)
#
BLOCK SBOTMIX  # Sbottom Mixing Matrix
  1  1     9.99231307E-01   # cos(theta_b)
  1  2    -3.92019784E-02   # sin(theta_b)
  2  1     3.92019784E-02   # -sin(theta_b)
  2  2     9.99231307E-01   # cos(theta_b)
#
BLOCK STAUMIX  # Stau Mixing Matrix
  1  1    -3.37592431E-02   # cos(theta_tau)
  1  2     9.99429994E-01   # sin(theta_tau)
  2  1    -9.99429994E-01   # -sin(theta_tau)
  2  2    -3.37592431E-02   # cos(theta_tau)
#
BLOCK ALPHA  # Higgs mixing
          -1.05498923E-01   # Mixing angle in the neutral Higgs boson sector
#
BLOCK HMIX Q=  5.00077138E+03  # DRbar Higgs Parameters
         1    -2.87951949E+02   # mu(Q)MSSM           
         2     9.46825882E+00   # tan                 
         3     2.41699059E+02   # higgs               
         4     8.75204928E+06   # mA^2(Q)MSSM         
#
BLOCK GAUGE Q=  5.00077138E+03  # The gauge couplings
     1     3.71056152E-01   # gprime(Q) DRbar
     2     6.33855782E-01   # g(Q) DRbar
     3     9.94069479E-01   # g3(Q) DRbar
#
BLOCK AU Q=  5.00077138E+03  # The trilinear couplings
  1  1     5.00000002E+03   # A_u(Q) DRbar
  2  2     5.00000002E+03   # A_c(Q) DRbar
  3  3     5.00000002E+03   # A_t(Q) DRbar
#
BLOCK AD Q=  5.00077138E+03  # The trilinear couplings
  1  1     5.00000001E+03   # A_d(Q) DRbar
  2  2     5.00000001E+03   # A_s(Q) DRbar
  3  3     5.00000001E+03   # A_b(Q) DRbar
#
BLOCK AE Q=  5.00077138E+03  # The trilinear couplings
  1  1     0.00000000E+00   # A_e(Q) DRbar
  2  2     2.74893846E-07   # A_mu(Q) DRbar
  3  3     2.74931220E-07   # A_tau(Q) DRbar
#
BLOCK Yu Q=  5.00077138E+03  # The Yukawa couplings
  1  1     0.00000000E+00   # y_u(Q) DRbar
  2  2     0.00000000E+00   # y_c(Q) DRbar
  3  3     8.21806072E-01   # y_t(Q) DRbar
#
BLOCK Yd Q=  5.00077138E+03  # The Yukawa couplings
  1  1     0.00000000E+00   # y_d(Q) DRbar
  2  2     0.00000000E+00   # y_s(Q) DRbar
  3  3     1.30140225E-01   # y_b(Q) DRbar
#
BLOCK Ye Q=  5.00077138E+03  # The Yukawa couplings
  1  1     0.00000000E+00   # y_e(Q) DRbar
  2  2     0.00000000E+00   # y_mu(Q) DRbar
  3  3     9.72693487E-02   # y_tau(Q) DRbar
#
BLOCK MSOFT Q=  5.00077138E+03  # The soft SUSY breaking masses at the scale Q
         1     6.00000000E+01   # M_1(Q)              
         2     3.00000000E+03   # M_2(Q)              
         3     2.33131900E+03   # M_3(Q)              
        21     8.64855908E+06   # mH1^2(Q)            
        22     4.98240277E+05   # mH2^2(Q)            
        31     5.00000000E+03   # meL(Q)              
        32     5.00000000E+03   # mmuL(Q)             
        33     5.00000000E+03   # mtauL(Q)            
        34     5.00000000E+03   # meR(Q)              
        35     5.00000000E+03   # mmuR(Q)             
        36     5.00000000E+03   # mtauR(Q)            
        41     4.99999999E+03   # mqL1(Q)             
        42     4.99999999E+03   # mqL2(Q)             
        43     4.99999999E+03   # mqL3(Q)             
        44     4.99999999E+03   # muR(Q)              
        45     4.99999999E+03   # mcR(Q)              
        46     4.99999999E+03   # mtR(Q)              
        47     4.99999999E+03   # mdR(Q)              
        48     4.99999999E+03   # msR(Q)              
        49     4.99999999E+03   # mbR(Q)              
#
#
#
#                             =================
#                             |The decay table|
#                             =================
#
# - The QCD corrections to the decays gluino -> squark  + quark
#                                     squark -> gaugino + quark_prime
#                                     squark -> squark_prime + Higgs
#                                     squark -> gluino  + quark
#   are included.
#
# - The multi-body decays for the inos, stops and sbottoms are included.
#
# - The loop induced decays for the gluino, neutralinos and stops
#   are included.
#
# - The SUSY decays of the top quark are included.
#
#
#         PDG            Width
DECAY         6     1.40808400E+00   # top decays
#          BR         NDA      ID1       ID2
     1.00000000E+00    2           5        24   # BR(t ->  b    W+)
#
#         PDG            Width
DECAY   1000021     1.28514374E-02   # gluino decays
#          BR         NDA      ID1       ID2
     3.43762378E-07    2     1000022        21   # BR(~g -> ~chi_10 g)
     3.31130366E-03    2     1000023        21   # BR(~g -> ~chi_20 g)
     3.20841699E-03    2     1000025        21   # BR(~g -> ~chi_30 g)
#           BR         NDA      ID1       ID2       ID3
     8.74909656E-03    3     1000022         1        -1   # BR(~g -> ~chi_10 d  db)
     1.02348390E-04    3     1000023         1        -1   # BR(~g -> ~chi_20 d  db)
     9.28911775E-05    3     1000025         1        -1   # BR(~g -> ~chi_30 d  db)
     2.98270981E-02    3     1000022         2        -2   # BR(~g -> ~chi_10 u  ub)
     4.83464596E-04    3     1000023         2        -2   # BR(~g -> ~chi_20 u  ub)
     1.90391161E-04    3     1000025         2        -2   # BR(~g -> ~chi_30 u  ub)
     8.74909656E-03    3     1000022         3        -3   # BR(~g -> ~chi_10 s  sb)
     1.02348390E-04    3     1000023         3        -3   # BR(~g -> ~chi_20 s  sb)
     9.28911775E-05    3     1000025         3        -3   # BR(~g -> ~chi_30 s  sb)
     2.98270981E-02    3     1000022         4        -4   # BR(~g -> ~chi_10 c  cb)
     4.83464596E-04    3     1000023         4        -4   # BR(~g -> ~chi_20 c  cb)
     1.90391161E-04    3     1000025         4        -4   # BR(~g -> ~chi_30 c  cb)
     9.13874730E-03    3     1000022         5        -5   # BR(~g -> ~chi_10 b  bb)
     5.31455200E-03    3     1000023         5        -5   # BR(~g -> ~chi_20 b  bb)
     5.31467837E-03    3     1000025         5        -5   # BR(~g -> ~chi_30 b  bb)
     3.01810697E-02    3     1000022         6        -6   # BR(~g -> ~chi_10 t  tb)
     2.15363813E-01    3     1000023         6        -6   # BR(~g -> ~chi_20 t  tb)
     2.06640909E-01    3     1000025         6        -6   # BR(~g -> ~chi_30 t  tb)
     5.22628764E-05    3     1000024         1        -2   # BR(~g -> ~chi_1+ d  ub)
     5.22628764E-05    3    -1000024         2        -1   # BR(~g -> ~chi_1- u  db)
     5.22628764E-05    3     1000024         3        -4   # BR(~g -> ~chi_1+ s  cb)
     5.22628764E-05    3    -1000024         4        -3   # BR(~g -> ~chi_1- c  sb)
     2.21213268E-01    3     1000024         5        -6   # BR(~g -> ~chi_1+ b  tb)
     2.21213268E-01    3    -1000024         6        -5   # BR(~g -> ~chi_1- t  bb)
#
#         PDG            Width
DECAY   1000006     2.83448290E+02   # stop1 decays
#          BR         NDA      ID1       ID2
     2.99849408E-02    2     1000022         6   # BR(~t_1 -> ~chi_10 t )
     1.19406344E-01    2     1000023         6   # BR(~t_1 -> ~chi_20 t )
     1.09901033E-01    2     1000025         6   # BR(~t_1 -> ~chi_30 t )
     7.02801394E-03    2     1000035         6   # BR(~t_1 -> ~chi_40 t )
     1.71833440E-01    2     1000024         5   # BR(~t_1 -> ~chi_1+ b )
     1.40106326E-02    2     1000037         5   # BR(~t_1 -> ~chi_2+ b )
     5.47835596E-01    2     1000021         6   # BR(~t_1 -> ~g      t )
#
#         PDG            Width
DECAY   2000006     2.89905240E+02   # stop2 decays
#          BR         NDA      ID1       ID2
     1.24276136E-02    2     1000022         6   # BR(~t_2 -> ~chi_10 t )
     1.12239168E-01    2     1000023         6   # BR(~t_2 -> ~chi_20 t )
     1.22864514E-01    2     1000025         6   # BR(~t_2 -> ~chi_30 t )
     1.97438773E-02    2     1000035         6   # BR(~t_2 -> ~chi_40 t )
     6.56328812E-02    2     1000024         5   # BR(~t_2 -> ~chi_1+ b )
     3.93187314E-02    2     1000037         5   # BR(~t_2 -> ~chi_2+ b )
     6.23806102E-01    2     1000021         6   # BR(~t_2 -> ~g      t )
     9.24009265E-04    2     1000006        25   # BR(~t_2 -> ~t_1    h )
     3.04310315E-03    2     1000006        23   # BR(~t_2 -> ~t_1    Z )
#
#         PDG            Width
DECAY   1000005     2.64113359E+02   # sbottom1 decays
#          BR         NDA      ID1       ID2
     3.01631886E-03    2     1000022         5   # BR(~b_1 -> ~chi_10 b )
     3.05224117E-03    2     1000023         5   # BR(~b_1 -> ~chi_20 b )
     3.13183107E-03    2     1000025         5   # BR(~b_1 -> ~chi_30 b )
     2.90156994E-02    2     1000035         5   # BR(~b_1 -> ~chi_40 b )
     2.52845478E-01    2    -1000024         6   # BR(~b_1 -> ~chi_1- t )
     5.82503654E-02    2    -1000037         6   # BR(~b_1 -> ~chi_2- t )
     6.48686076E-01    2     1000021         5   # BR(~b_1 -> ~g      b )
     2.00198983E-03    2     1000006       -24   # BR(~b_1 -> ~t_1    W-)
#
#         PDG            Width
DECAY   2000005     1.80646014E+02   # sbottom2 decays
#          BR         NDA      ID1       ID2
     1.60701027E-02    2     1000022         5   # BR(~b_2 -> ~chi_10 b )
     4.87329340E-03    2     1000023         5   # BR(~b_2 -> ~chi_20 b )
     4.85212495E-03    2     1000025         5   # BR(~b_2 -> ~chi_30 b )
     5.51408640E-05    2     1000035         5   # BR(~b_2 -> ~chi_40 b )
     9.83571444E-03    2    -1000024         6   # BR(~b_2 -> ~chi_1- t )
     1.10730140E-04    2    -1000037         6   # BR(~b_2 -> ~chi_2- t )
     9.64183639E-01    2     1000021         5   # BR(~b_2 -> ~g      b )
     1.92547233E-05    2     1000006       -24   # BR(~b_2 -> ~t_1    W-)
#
#         PDG            Width
DECAY   1000002     2.00441525E+02   # sup_L decays
#          BR         NDA      ID1       ID2
     3.63753942E-03    2     1000022         2   # BR(~u_L -> ~chi_10 u)
     1.58489856E-04    2     1000023         2   # BR(~u_L -> ~chi_20 u)
     3.53526646E-08    2     1000025         2   # BR(~u_L -> ~chi_30 u)
     3.96446939E-02    2     1000035         2   # BR(~u_L -> ~chi_40 u)
     2.47891220E-04    2     1000024         1   # BR(~u_L -> ~chi_1+ d)
     7.92411519E-02    2     1000037         1   # BR(~u_L -> ~chi_2+ d)
     8.77070198E-01    2     1000021         2   # BR(~u_L -> ~g      u)
#
#         PDG            Width
DECAY   2000002     1.86115018E+02   # sup_R decays
#          BR         NDA      ID1       ID2
     6.24191736E-02    2     1000022         2   # BR(~u_R -> ~chi_10 u)
     8.59551601E-04    2     1000023         2   # BR(~u_R -> ~chi_20 u)
     5.78628789E-04    2     1000025         2   # BR(~u_R -> ~chi_30 u)
     4.06567337E-09    2     1000035         2   # BR(~u_R -> ~chi_40 u)
     9.36142642E-01    2     1000021         2   # BR(~u_R -> ~g      u)
#
#         PDG            Width
DECAY   1000001     2.00457829E+02   # sdown_L decays
#          BR         NDA      ID1       ID2
     3.63304979E-03    2     1000022         1   # BR(~d_L -> ~chi_10 d)
     2.43872940E-06    2     1000023         1   # BR(~d_L -> ~chi_20 d)
     1.30473366E-04    2     1000025         1   # BR(~d_L -> ~chi_30 d)
     3.96658786E-02    2     1000035         1   # BR(~d_L -> ~chi_40 d)
     2.60067454E-08    2    -1000024         2   # BR(~d_L -> ~chi_1- u)
     7.93601760E-02    2    -1000037         2   # BR(~d_L -> ~chi_2- u)
     8.77207958E-01    2     1000021         1   # BR(~d_L -> ~g      d)
#
#         PDG            Width
DECAY   2000001     1.77228756E+02   # sdown_R decays
#          BR         NDA      ID1       ID2
     1.63882283E-02    2     1000022         1   # BR(~d_R -> ~chi_10 d)
     2.25676458E-04    2     1000023         1   # BR(~d_R -> ~chi_20 d)
     1.51919788E-04    2     1000025         1   # BR(~d_R -> ~chi_30 d)
     1.06759506E-09    2     1000035         1   # BR(~d_R -> ~chi_40 d)
     9.83234174E-01    2     1000021         1   # BR(~d_R -> ~g      d)
#
#         PDG            Width
DECAY   1000004     2.00441525E+02   # scharm_L decays
#          BR         NDA      ID1       ID2
     3.63753942E-03    2     1000022         4   # BR(~c_L -> ~chi_10 c)
     1.58489856E-04    2     1000023         4   # BR(~c_L -> ~chi_20 c)
     3.53526646E-08    2     1000025         4   # BR(~c_L -> ~chi_30 c)
     3.96446939E-02    2     1000035         4   # BR(~c_L -> ~chi_40 c)
     2.47891220E-04    2     1000024         3   # BR(~c_L -> ~chi_1+ s)
     7.92411519E-02    2     1000037         3   # BR(~c_L -> ~chi_2+ s)
     8.77070198E-01    2     1000021         4   # BR(~c_L -> ~g      c)
#
#         PDG            Width
DECAY   2000004     1.86115018E+02   # scharm_R decays
#          BR         NDA      ID1       ID2
     6.24191736E-02    2     1000022         4   # BR(~c_R -> ~chi_10 c)
     8.59551601E-04    2     1000023         4   # BR(~c_R -> ~chi_20 c)
     5.78628789E-04    2     1000025         4   # BR(~c_R -> ~chi_30 c)
     4.06567337E-09    2     1000035         4   # BR(~c_R -> ~chi_40 c)
     9.36142642E-01    2     1000021         4   # BR(~c_R -> ~g      c)
#
#         PDG            Width
DECAY   1000003     2.00457829E+02   # sstrange_L decays
#          BR         NDA      ID1       ID2
     3.63304979E-03    2     1000022         3   # BR(~s_L -> ~chi_10 s)
     2.43872940E-06    2     1000023         3   # BR(~s_L -> ~chi_20 s)
     1.30473366E-04    2     1000025         3   # BR(~s_L -> ~chi_30 s)
     3.96658786E-02    2     1000035         3   # BR(~s_L -> ~chi_40 s)
     2.60067454E-08    2    -1000024         4   # BR(~s_L -> ~chi_1- c)
     7.93601760E-02    2    -1000037         4   # BR(~s_L -> ~chi_2- c)
     8.77207958E-01    2     1000021         3   # BR(~s_L -> ~g      s)
#
#         PDG            Width
DECAY   2000003     1.77228756E+02   # sstrange_R decays
#          BR         NDA      ID1       ID2
     1.63882283E-02    2     1000022         3   # BR(~s_R -> ~chi_10 s)
     2.25676458E-04    2     1000023         3   # BR(~s_R -> ~chi_20 s)
     1.51919788E-04    2     1000025         3   # BR(~s_R -> ~chi_30 s)
     1.06759506E-09    2     1000035         3   # BR(~s_R -> ~chi_40 s)
     9.83234174E-01    2     1000021         3   # BR(~s_R -> ~g      s)
#
#         PDG            Width
DECAY   1000011     3.03771668E+01   # selectron_L decays
#          BR         NDA      ID1       ID2
     2.21144339E-01    2     1000022        11   # BR(~e_L -> ~chi_10 e-)
     4.82733896E-03    2     1000023        11   # BR(~e_L -> ~chi_20 e-)
     9.39779499E-04    2     1000025        11   # BR(~e_L -> ~chi_30 e-)
     2.57529076E-01    2     1000035        11   # BR(~e_L -> ~chi_40 e-)
     1.75574911E-07    2    -1000024        12   # BR(~e_L -> ~chi_1- nu_e)
     5.15559291E-01    2    -1000037        12   # BR(~e_L -> ~chi_2- nu_e)
#
#         PDG            Width
DECAY   2000011     2.74115270E+01   # selectron_R decays
#          BR         NDA      ID1       ID2
     9.77499791E-01    2     1000022        11   # BR(~e_R -> ~chi_10 e-)
     1.34476178E-02    2     1000023        11   # BR(~e_R -> ~chi_20 e-)
     9.05252993E-03    2     1000025        11   # BR(~e_R -> ~chi_30 e-)
     6.13193756E-08    2     1000035        11   # BR(~e_R -> ~chi_40 e-)
#
#         PDG            Width
DECAY   1000013     3.03771668E+01   # smuon_L decays
#          BR         NDA      ID1       ID2
     2.21144339E-01    2     1000022        13   # BR(~mu_L -> ~chi_10 mu-)
     4.82733896E-03    2     1000023        13   # BR(~mu_L -> ~chi_20 mu-)
     9.39779499E-04    2     1000025        13   # BR(~mu_L -> ~chi_30 mu-)
     2.57529076E-01    2     1000035        13   # BR(~mu_L -> ~chi_40 mu-)
     1.75574911E-07    2    -1000024        14   # BR(~mu_L -> ~chi_1- nu_mu)
     5.15559291E-01    2    -1000037        14   # BR(~mu_L -> ~chi_2- nu_mu)
#
#         PDG            Width
DECAY   2000013     2.74115270E+01   # smuon_R decays
#          BR         NDA      ID1       ID2
     9.77499791E-01    2     1000022        13   # BR(~mu_R -> ~chi_10 mu-)
     1.34476178E-02    2     1000023        13   # BR(~mu_R -> ~chi_20 mu-)
     9.05252993E-03    2     1000025        13   # BR(~mu_R -> ~chi_30 mu-)
     6.13193756E-08    2     1000035        13   # BR(~mu_R -> ~chi_40 mu-)
#
#         PDG            Width
DECAY   1000015     2.92779500E+01   # stau_1 decays
#          BR         NDA      ID1       ID2
     9.15784313E-01    2     1000022        15   # BR(~tau_1 -> ~chi_10  tau-)
     2.78166083E-02    2     1000023        15   # BR(~tau_1 -> ~chi_20  tau-)
     2.35872451E-02    2     1000025        15   # BR(~tau_1 -> ~chi_30  tau-)
     3.02641330E-04    2     1000035        15   # BR(~tau_1 -> ~chi_40  tau-)
     3.19034635E-02    2    -1000024        16   # BR(~tau_1 -> ~chi_1-  nu_tau)
     6.05728764E-04    2    -1000037        16   # BR(~tau_1 -> ~chi_2-  nu_tau)
#
#         PDG            Width
DECAY   2000015     3.13038647E+01   # stau_2 decays
#          BR         NDA      ID1       ID2
     2.15172812E-01    2     1000022        15   # BR(~tau_2 -> ~chi_10  tau-)
     1.96416468E-02    2     1000023        15   # BR(~tau_2 -> ~chi_20  tau-)
     1.60653364E-02    2     1000025        15   # BR(~tau_2 -> ~chi_30  tau-)
     2.49531735E-01    2     1000035        15   # BR(~tau_2 -> ~chi_40  tau-)
     3.91375270E-05    2    -1000024        16   # BR(~tau_2 -> ~chi_1-  nu_tau)
     4.99549332E-01    2    -1000037        16   # BR(~tau_2 -> ~chi_2-  nu_tau)
#
#         PDG            Width
DECAY   1000012     3.03802948E+01   # snu_eL decays
#          BR         NDA      ID1       ID2
     2.20987648E-01    2     1000022        12   # BR(~nu_eL -> ~chi_10 nu_e)
     1.66626299E-03    2     1000023        12   # BR(~nu_eL -> ~chi_20 nu_e)
     3.58048980E-03    2     1000025        12   # BR(~nu_eL -> ~chi_30 nu_e)
     2.57576216E-01    2     1000035        12   # BR(~nu_eL -> ~chi_40 nu_e)
     1.67307596E-03    2     1000024        11   # BR(~nu_eL -> ~chi_1+ e-)
     5.14516307E-01    2     1000037        11   # BR(~nu_eL -> ~chi_2+ e-)
#
#         PDG            Width
DECAY   1000014     3.03802948E+01   # snu_muL decays
#          BR         NDA      ID1       ID2
     2.20987648E-01    2     1000022        14   # BR(~nu_muL -> ~chi_10 nu_mu)
     1.66626299E-03    2     1000023        14   # BR(~nu_muL -> ~chi_20 nu_mu)
     3.58048980E-03    2     1000025        14   # BR(~nu_muL -> ~chi_30 nu_mu)
     2.57576216E-01    2     1000035        14   # BR(~nu_muL -> ~chi_40 nu_mu)
     1.67307596E-03    2     1000024        13   # BR(~nu_muL -> ~chi_1+ mu-)
     5.14516307E-01    2     1000037        13   # BR(~nu_muL -> ~chi_2+ mu-)
#
#         PDG            Width
DECAY   1000016     3.13084444E+01   # snu_tauL decays
#          BR         NDA      ID1       ID2
     2.14412718E-01    2     1000022        16   # BR(~nu_tauL -> ~chi_10 nu_tau)
     1.61668504E-03    2     1000023        16   # BR(~nu_tauL -> ~chi_20 nu_tau)
     3.47395592E-03    2     1000025        16   # BR(~nu_tauL -> ~chi_30 nu_tau)
     2.49846424E-01    2     1000035        16   # BR(~nu_tauL -> ~chi_40 nu_tau)
     3.15747062E-02    2     1000024        15   # BR(~nu_tauL -> ~chi_1+ tau-)
     4.99075511E-01    2     1000037        15   # BR(~nu_tauL -> ~chi_2+ tau-)
#
#         PDG            Width
DECAY   1000024     1.63051286E-01   # chargino1+ decays
#          BR         NDA      ID1       ID2
     1.00000000E+00    2     1000022        24   # BR(~chi_1+ -> ~chi_10  W+)
#
#         PDG            Width
DECAY   1000037     2.28959208E+01   # chargino2+ decays
#          BR         NDA      ID1       ID2
     2.53648189E-01    2     1000024        23   # BR(~chi_2+ -> ~chi_1+  Z )
     1.47795149E-04    2     1000022        24   # BR(~chi_2+ -> ~chi_10  W+)
     2.45426988E-01    2     1000023        24   # BR(~chi_2+ -> ~chi_20  W+)
     2.44531087E-01    2     1000025        24   # BR(~chi_2+ -> ~chi_30  W+)
     2.56230811E-01    2     1000024        25   # BR(~chi_2+ -> ~chi_1+  h )
     1.51295107E-05    2     1000022        37   # BR(~chi_2+ -> ~chi_10  H+)
#
#         PDG            Width
DECAY   1000022     0.00000000E+00   # neutralino1 decays
#
#         PDG            Width
DECAY   1000023     1.53403762E-01   # neutralino2 decays
#          BR         NDA      ID1       ID2
     4.91777098E-01    2     1000022        23   # BR(~chi_20 -> ~chi_10   Z )
     5.08222902E-01    2     1000022        25   # BR(~chi_20 -> ~chi_10   h )
#
#         PDG            Width
DECAY   1000025     1.38256198E-01   # neutralino3 decays
#          BR         NDA      ID1       ID2
     6.71457758E-01    2     1000022        23   # BR(~chi_30 -> ~chi_10   Z )
     3.28542242E-01    2     1000022        25   # BR(~chi_30 -> ~chi_10   h )
#
#         PDG            Width
DECAY   1000035     2.28974118E+01   # neutralino4 decays
#          BR         NDA      ID1       ID2
     6.90264010E-05    2     1000022        23   # BR(~chi_40 -> ~chi_10   Z )
     1.29012011E-01    2     1000023        23   # BR(~chi_40 -> ~chi_20   Z )
     1.24402040E-01    2     1000025        23   # BR(~chi_40 -> ~chi_30   Z )
     2.45257973E-01    2     1000024       -24   # BR(~chi_40 -> ~chi_1+   W-)
     2.45257973E-01    2    -1000024        24   # BR(~chi_40 -> ~chi_1-   W+)
     6.83389428E-05    2     1000022        25   # BR(~chi_40 -> ~chi_10   h )
     1.46040054E-05    2     1000022        35   # BR(~chi_40 -> ~chi_10   H )
     1.54771040E-06    2     1000022        36   # BR(~chi_40 -> ~chi_10   A )
     1.26597352E-01    2     1000023        25   # BR(~chi_40 -> ~chi_20   h )
     1.29319135E-01    2     1000025        25   # BR(~chi_40 -> ~chi_30   h )
#
#         PDG            Width
DECAY        25     4.07628520E-03   # h decays
#          BR         NDA      ID1       ID2
     6.09146758E-01    2           5        -5   # BR(h -> b       bb     )
     6.36522152E-02    2         -15        15   # BR(h -> tau+    tau-   )
     2.25351868E-04    2         -13        13   # BR(h -> mu+     mu-    )
     4.77711696E-04    2           3        -3   # BR(h -> s       sb     )
     2.06972161E-02    2           4        -4   # BR(h -> c       cb     )
     6.69822962E-02    2          21        21   # BR(h -> g       g      )
     2.30177440E-03    2          22        22   # BR(h -> gam     gam    )
     1.48741769E-03    2          22        23   # BR(h -> Z       gam    )
     2.10002715E-01    2          24       -24   # BR(h -> W+      W-     )
     2.50242948E-02    2          23        23   # BR(h -> Z       Z      )
     2.24951464E-06    2     1000022   1000022   # BR(h -> ~chi_10 ~chi_10)
#
#         PDG            Width
DECAY        35     8.77812290E+00   # H decays
#          BR         NDA      ID1       ID2
     3.61371674E-01    2           5        -5   # BR(H -> b       bb     )
     6.34447301E-02    2         -15        15   # BR(H -> tau+    tau-   )
     2.24345605E-04    2         -13        13   # BR(H -> mu+     mu-    )
     2.75013206E-04    2           3        -3   # BR(H -> s       sb     )
     1.53958646E-06    2           4        -4   # BR(H -> c       cb     )
     1.53816889E-01    2           6        -6   # BR(H -> t       tb     )
     5.11815205E-05    2          21        21   # BR(H -> g       g      )
     1.38380382E-07    2          22        22   # BR(H -> gam     gam    )
     9.07524875E-08    2          23        22   # BR(H -> Z       gam    )
     7.48591717E-05    2          24       -24   # BR(H -> W+      W-     )
     3.73821966E-05    2          23        23   # BR(H -> Z       Z      )
     2.67671143E-04    2          25        25   # BR(H -> h       h      )
    -3.01966452E-24    2          36        36   # BR(H -> A       A      )
     7.05865638E-19    2          23        36   # BR(H -> Z       A      )
     3.40710470E-03    2     1000024  -1000024   # BR(H -> ~chi_1+ ~chi_1-)
     1.88170072E-02    2     1000022   1000022   # BR(H -> ~chi_10 ~chi_10)
     3.33013624E-03    2     1000023   1000023   # BR(H -> ~chi_20 ~chi_20)
     5.10676855E-03    2     1000025   1000025   # BR(H -> ~chi_30 ~chi_30)
     2.32161015E-01    2     1000022   1000023   # BR(H -> ~chi_10 ~chi_20)
     1.48100180E-01    2     1000022   1000025   # BR(H -> ~chi_10 ~chi_30)
     9.51227315E-03    2     1000023   1000025   # BR(H -> ~chi_20 ~chi_30)
#
#         PDG            Width
DECAY        36     8.78345101E+00   # A decays
#          BR         NDA      ID1       ID2
     3.61276089E-01    2           5        -5   # BR(A -> b       bb     )
     6.34081043E-02    2         -15        15   # BR(A -> tau+    tau-   )
     2.24215780E-04    2         -13        13   # BR(A -> mu+     mu-    )
     2.75055087E-04    2           3        -3   # BR(A -> s       sb     )
     1.54473389E-06    2           4        -4   # BR(A -> c       cb     )
     1.54245998E-01    2           6        -6   # BR(A -> t       tb     )
     1.52619496E-04    2          21        21   # BR(A -> g       g      )
     5.64033603E-07    2          22        22   # BR(A -> gam     gam    )
     1.84701912E-07    2          23        22   # BR(A -> Z       gam    )
     7.45302431E-05    2          23        25   # BR(A -> Z       h      )
     3.56239234E-03    2     1000024  -1000024   # BR(A -> ~chi_1+ ~chi_1-)
     1.80690428E-02    2     1000022   1000022   # BR(A -> ~chi_10 ~chi_10)
     2.25886859E-03    2     1000023   1000023   # BR(A -> ~chi_20 ~chi_20)
     8.17879213E-03    2     1000025   1000025   # BR(A -> ~chi_30 ~chi_30)
     1.51228935E-01    2     1000022   1000023   # BR(A -> ~chi_10 ~chi_20)
     2.28704381E-01    2     1000022   1000025   # BR(A -> ~chi_10 ~chi_30)
     8.33868222E-03    2     1000023   1000025   # BR(A -> ~chi_20 ~chi_30)
#
#         PDG            Width
DECAY        37     8.72797092E+00   # H+ decays
#          BR         NDA      ID1       ID2
     5.79518250E-04    2           4        -5   # BR(H+ -> c       bb     )
     6.38424217E-02    2         -15        16   # BR(H+ -> tau+    nu_tau )
     2.25751558E-04    2         -13        14   # BR(H+ -> mu+     nu_mu  )
     3.70889726E-06    2           2        -5   # BR(H+ -> u       bb     )
     1.32462904E-05    2           2        -3   # BR(H+ -> u       sb     )
     2.73935097E-04    2           4        -3   # BR(H+ -> c       sb     )
     5.14221281E-01    2           6        -5   # BR(H+ -> t       bb     )
     7.51627069E-05    2          24        25   # BR(H+ -> W+      h      )
     1.03192543E-12    2          24        36   # BR(H+ -> W+      A      )
     4.09950232E-01    2     1000024   1000022   # BR(H+ -> ~chi_1+ ~chi_10)
     9.11000812E-03    2     1000024   1000023   # BR(H+ -> ~chi_1+ ~chi_20)
     1.70473362E-03    2     1000024   1000025   # BR(H+ -> ~chi_1+ ~chi_30)
