#
#                              ======================
#                              | THE SUSYHIT OUTPUT |
#                              ======================
#
#
#              ------------------------------------------------------
#              |     This is the output of the SUSY-HIT package     |
#              |  created by A.Djouadi, M.Muehlleitner and M.Spira. |
#              |  In case of problems with SUSY-HIT email to        |
#              |           margarete.muehlleitner@cern.ch           |
#              |           michael.spira@psi.ch                     |
#              |           abdelhak.djouadi@cern.ch                 |
#              ------------------------------------------------------
#
#              ------------------------------------------------------
#              |  SUSY Les Houches Accord - MSSM Spectrum + Decays  |
#              |              based on the decay programs           |
#              |                                                    |
#              |                     SDECAY 1.3b                    |
#              |                                                    |
#              |  Authors: M.Muhlleitner, A.Djouadi and Y.Mambrini  |
#              |  Ref.:    Comput.Phys.Commun.168(2005)46           |
#              |           [hep-ph/0311167]                         |
#              |                                                    |
#              |                     HDECAY 3.4                     |
#              |                                                    |
#              |  By: A.Djouadi,J.Kalinowski,M.Muhlleitner,M.Spira  |
#              |  Ref.:    Comput.Phys.Commun.108(1998)56           |
#              |           [hep-ph/9704448]                         |
#              |                                                    |
#              |                                                    |
#              |  If not stated otherwise all DRbar couplings and   |
#              |  soft SUSY breaking masses are given at the scale  |
#              |  Q=  0.50007218E+04
#              |                                                    |
#              ------------------------------------------------------
#
#
BLOCK DCINFO  # Decay Program information
     1   SDECAY/HDECAY # decay calculator
     2   1.3b  /3.4    # version number
#
BLOCK SPINFO  # Spectrum calculator information
     1    SOFTSUSY    # spectrum calculator                
     2    3.4.0       # version number                     
#
BLOCK MODSEL  # Model selection
     1     0   #  nonUniversal                                     
#
BLOCK SMINPUTS  # Standard Model inputs
         1     1.25778332E+02   # alpha_em^-1(M_Z)^MSbar
         2     1.16570000E-05   # G_F [GeV^-2]
         3     1.17200002E-01   # alpha_S(M_Z)^MSbar
         4     9.11876000E+01   # M_Z pole mass
         5     4.25000000E+00   # mb(mb)^MSbar
         6     1.72500000E+02   # mt pole mass
         7     1.77682000E+00   # mtau pole mass
#
BLOCK MINPAR  # Input parameters - minimal models
         3     1.00000000E+01   # tanb                
#
BLOCK EXTPAR  # Input parameters - non-minimal models
         0    -1.00000000E+00   # Set                 
         1     6.00000000E+01   # M_1(MX)             
         2     3.00000000E+03   # M_2(MX)             
         3     1.48350500E+03   # M_3(MX)             
        11     5.00000000E+03   # At(MX)              
        12     5.00000000E+03   # Ab(MX)              
        13     0.00000000E+00   # Atau(MX)            
        23    -1.34894600E+03   # mu(MX)              
        26     3.00000000E+03   # mA(pole)            
        31     5.00000000E+03   # meL(MX)             
        32     5.00000000E+03   # mmuL(MX)            
        33     5.00000000E+03   # mtauL(MX)           
        34     5.00000000E+03   # meR(MX)             
        35     5.00000000E+03   # mmuR(MX)            
        36     5.00000000E+03   # mtauR(MX)           
        41     5.00000000E+03   # mqL1(MX)            
        42     5.00000000E+03   # mqL2(MX)            
        43     5.00000000E+03   # mqL3(MX)            
        44     5.00000000E+03   # muR(MX)             
        45     5.00000000E+03   # mcR(MX)             
        46     5.00000000E+03   # mtR(MX)             
        47     5.00000000E+03   # mdR(MX)             
        48     5.00000000E+03   # msR(MX)             
        49     5.00000000E+03   # mbR(MX)             
#
BLOCK MASS  # Mass Spectrum
# PDG code           mass       particle
        24     8.00959007E+01   # W+
        25     1.24725790E+02   # h
        35     3.00008406E+03   # H
        36     2.99999990E+03   # A
        37     3.00087322E+03   # H+
         5     4.87878001E+00   # b-quark pole mass calculated from mb(mb)_Msbar
   1000001     5.06948875E+03   # ~d_L
   2000001     5.05169770E+03   # ~d_R
   1000002     5.06901426E+03   # ~u_L
   2000002     5.05142054E+03   # ~u_R
   1000003     5.06948875E+03   # ~s_L
   2000003     5.05169770E+03   # ~s_R
   1000004     5.06901426E+03   # ~c_L
   2000004     5.05142054E+03   # ~c_R
   1000005     5.01546948E+03   # ~b_1
   2000005     5.05049018E+03   # ~b_2
   1000006     4.90651583E+03   # ~t_1
   2000006     5.06154621E+03   # ~t_2
   1000011     5.01905347E+03   # ~e_L
   2000011     5.00591307E+03   # ~e_R
   1000012     5.01810530E+03   # ~nu_eL
   1000013     5.01905347E+03   # ~mu_L
   2000013     5.00591307E+03   # ~mu_R
   1000014     5.01810530E+03   # ~nu_muL
   1000015     5.00442498E+03   # ~tau_1
   2000015     5.01894892E+03   # ~tau_2
   1000016     5.01756470E+03   # ~nu_tauL
   1000021     1.80000001E+03   # ~g
   1000022     6.03031071E+01   # ~chi_10
   1000023     1.39947274E+03   # ~chi_20
   1000025    -1.40186125E+03   # ~chi_30
   1000035     3.07431940E+03   # ~chi_40
   1000024     1.40000059E+03   # ~chi_1+
   1000037     3.07448686E+03   # ~chi_2+
#
BLOCK NMIX  # Neutralino Mixing Matrix
  1  1     9.99491076E-01   # N_11
  1  2     1.47251752E-04   # N_12
  1  3    -3.18389989E-02   # N_13
  1  4     1.96098168E-03   # N_14
  2  1     2.11279963E-02   # N_21
  2  2     2.90591048E-02   # N_22
  2  3     7.06893276E-01   # N_23
  2  4     7.06407158E-01   # N_24
  3  1    -2.38957236E-02   # N_31
  3  2     1.35654736E-02   # N_32
  3  3    -7.06518286E-01   # N_33
  3  4     7.07161144E-01   # N_34
  4  1    -4.37205548E-04   # N_41
  4  2     9.99485630E-01   # N_42
  4  3    -1.09583790E-02   # N_43
  4  4    -3.01363255E-02   # N_44
#
BLOCK UMIX  # Chargino Mixing Matrix U
  1  1     1.55101618E-02   # U_11
  1  2     9.99879710E-01   # U_12
  2  1    -9.99879710E-01   # U_21
  2  2     1.55101618E-02   # U_22
#
BLOCK VMIX  # Chargino Mixing Matrix V
  1  1     4.26429747E-02   # V_11
  1  2    -9.99090375E-01   # V_12
  2  1    -9.99090375E-01   # V_21
  2  2    -4.26429747E-02   # V_22
#
BLOCK STOPMIX  # Stop Mixing Matrix
  1  1    -5.10754137E-01   # cos(theta_t)
  1  2     8.59726824E-01   # sin(theta_t)
  2  1    -8.59726824E-01   # -sin(theta_t)
  2  2    -5.10754137E-01   # cos(theta_t)
#
BLOCK SBOTMIX  # Sbottom Mixing Matrix
  1  1     9.95101040E-01   # cos(theta_b)
  1  2    -9.88631387E-02   # sin(theta_b)
  2  1     9.88631387E-02   # -sin(theta_b)
  2  2     9.95101040E-01   # cos(theta_b)
#
BLOCK STAUMIX  # Stau Mixing Matrix
  1  1    -1.57617178E-01   # cos(theta_tau)
  1  2     9.87500291E-01   # sin(theta_tau)
  2  1    -9.87500291E-01   # -sin(theta_tau)
  2  2    -1.57617178E-01   # cos(theta_tau)
#
BLOCK ALPHA  # Higgs mixing
          -1.05460721E-01   # Mixing angle in the neutral Higgs boson sector
#
BLOCK HMIX Q=  5.00072177E+03  # DRbar Higgs Parameters
         1    -1.37358591E+03   # mu(Q)MSSM           
         2     9.47072558E+00   # tan                 
         3     2.41942663E+02   # higgs               
         4     8.41922496E+06   # mA^2(Q)MSSM         
#
BLOCK GAUGE Q=  5.00072177E+03  # The gauge couplings
     1     3.70722760E-01   # gprime(Q) DRbar
     2     6.32182836E-01   # g(Q) DRbar
     3     1.00004198E+00   # g3(Q) DRbar
#
BLOCK AU Q=  5.00072177E+03  # The trilinear couplings
  1  1     5.00000001E+03   # A_u(Q) DRbar
  2  2     5.00000001E+03   # A_c(Q) DRbar
  3  3     5.00000002E+03   # A_t(Q) DRbar
#
BLOCK AD Q=  5.00072177E+03  # The trilinear couplings
  1  1     5.00000000E+03   # A_d(Q) DRbar
  2  2     5.00000000E+03   # A_s(Q) DRbar
  3  3     5.00000001E+03   # A_b(Q) DRbar
#
BLOCK AE Q=  5.00072177E+03  # The trilinear couplings
  1  1     0.00000000E+00   # A_e(Q) DRbar
  2  2     1.45180407E-07   # A_mu(Q) DRbar
  3  3     1.44701566E-07   # A_tau(Q) DRbar
#
BLOCK Yu Q=  5.00072177E+03  # The Yukawa couplings
  1  1     0.00000000E+00   # y_u(Q) DRbar
  2  2     0.00000000E+00   # y_c(Q) DRbar
  3  3     8.18929222E-01   # y_t(Q) DRbar
#
BLOCK Yd Q=  5.00072177E+03  # The Yukawa couplings
  1  1     0.00000000E+00   # y_d(Q) DRbar
  2  2     0.00000000E+00   # y_s(Q) DRbar
  3  3     1.30918979E-01   # y_b(Q) DRbar
#
BLOCK Ye Q=  5.00072177E+03  # The Yukawa couplings
  1  1     0.00000000E+00   # y_e(Q) DRbar
  2  2     0.00000000E+00   # y_mu(Q) DRbar
  3  3     9.66737495E-02   # y_tau(Q) DRbar
#
BLOCK MSOFT Q=  5.00072177E+03  # The soft SUSY breaking masses at the scale Q
         1     6.00000000E+01   # M_1(Q)              
         2     3.00000000E+03   # M_2(Q)              
         3     1.48350500E+03   # M_3(Q)              
        21     6.78828061E+06   # mH1^2(Q)            
        22    -1.33559595E+06   # mH2^2(Q)            
        31     5.00000000E+03   # meL(Q)              
        32     5.00000000E+03   # mmuL(Q)             
        33     5.00000000E+03   # mtauL(Q)            
        34     5.00000000E+03   # meR(Q)              
        35     5.00000000E+03   # mmuR(Q)             
        36     5.00000000E+03   # mtauR(Q)            
        41     5.00000000E+03   # mqL1(Q)             
        42     5.00000000E+03   # mqL2(Q)             
        43     5.00000000E+03   # mqL3(Q)             
        44     5.00000000E+03   # muR(Q)              
        45     5.00000000E+03   # mcR(Q)              
        46     4.99999999E+03   # mtR(Q)              
        47     5.00000000E+03   # mdR(Q)              
        48     5.00000000E+03   # msR(Q)              
        49     5.00000000E+03   # mbR(Q)              
#
#
#
#                             =================
#                             |The decay table|
#                             =================
#
# - The QCD corrections to the decays gluino -> squark  + quark
#                                     squark -> gaugino + quark_prime
#                                     squark -> squark_prime + Higgs
#                                     squark -> gluino  + quark
#   are included.
#
# - The multi-body decays for the inos, stops and sbottoms are included.
#
# - The loop induced decays for the gluino, neutralinos and stops
#   are included.
#
# - The SUSY decays of the top quark are included.
#
#
#         PDG            Width
DECAY         6     1.40048788E+00   # top decays
#          BR         NDA      ID1       ID2
     1.00000000E+00    2           5        24   # BR(t ->  b    W+)
#
#         PDG            Width
DECAY   1000021     1.80327393E-04   # gluino decays
#          BR         NDA      ID1       ID2
     9.23389436E-06    2     1000022        21   # BR(~g -> ~chi_10 g)
     4.11317951E-03    2     1000023        21   # BR(~g -> ~chi_20 g)
     4.05208045E-03    2     1000025        21   # BR(~g -> ~chi_30 g)
#           BR         NDA      ID1       ID2       ID3
     7.52642092E-02    3     1000022         1        -1   # BR(~g -> ~chi_10 d  db)
     2.06409597E-06    3     1000023         1        -1   # BR(~g -> ~chi_20 d  db)
     4.16743273E-07    3     1000025         1        -1   # BR(~g -> ~chi_30 d  db)
     2.56592315E-01    3     1000022         2        -2   # BR(~g -> ~chi_10 u  ub)
     4.12135900E-06    3     1000023         2        -2   # BR(~g -> ~chi_20 u  ub)
     4.29220529E-07    3     1000025         2        -2   # BR(~g -> ~chi_30 u  ub)
     7.52642092E-02    3     1000022         3        -3   # BR(~g -> ~chi_10 s  sb)
     2.06409597E-06    3     1000023         3        -3   # BR(~g -> ~chi_20 s  sb)
     4.16743273E-07    3     1000025         3        -3   # BR(~g -> ~chi_30 s  sb)
     2.56592315E-01    3     1000022         4        -4   # BR(~g -> ~chi_10 c  cb)
     4.12135900E-06    3     1000023         4        -4   # BR(~g -> ~chi_20 c  cb)
     4.29220529E-07    3     1000025         4        -4   # BR(~g -> ~chi_30 c  cb)
     7.62060026E-02    3     1000022         5        -5   # BR(~g -> ~chi_10 b  bb)
     2.68915069E-04    3     1000023         5        -5   # BR(~g -> ~chi_20 b  bb)
     2.57697880E-04    3     1000025         5        -5   # BR(~g -> ~chi_30 b  bb)
     2.41390672E-01    3     1000022         6        -6   # BR(~g -> ~chi_10 t  tb)
     8.75742264E-04    3     1000023         6        -6   # BR(~g -> ~chi_20 t  tb)
     2.63434226E-04    3     1000025         6        -6   # BR(~g -> ~chi_30 t  tb)
     5.39626301E-06    3     1000024         1        -2   # BR(~g -> ~chi_1+ d  ub)
     5.39626301E-06    3    -1000024         2        -1   # BR(~g -> ~chi_1- u  db)
     5.39626301E-06    3     1000024         3        -4   # BR(~g -> ~chi_1+ s  cb)
     5.39626301E-06    3    -1000024         4        -3   # BR(~g -> ~chi_1- c  sb)
     4.40717322E-03    3     1000024         5        -6   # BR(~g -> ~chi_1+ b  tb)
     4.40717322E-03    3    -1000024         6        -5   # BR(~g -> ~chi_1- t  bb)
#
#         PDG            Width
DECAY   1000006     3.49905250E+02   # stop1 decays
#          BR         NDA      ID1       ID2
     2.51729659E-02    2     1000022         6   # BR(~t_1 -> ~chi_10 t )
     7.96305594E-02    2     1000023         6   # BR(~t_1 -> ~chi_20 t )
     7.65430175E-02    2     1000025         6   # BR(~t_1 -> ~chi_30 t )
     6.12916144E-03    2     1000035         6   # BR(~t_1 -> ~chi_40 t )
     1.14943494E-01    2     1000024         5   # BR(~t_1 -> ~chi_1+ b )
     1.21966288E-02    2     1000037         5   # BR(~t_1 -> ~chi_2+ b )
     6.85384173E-01    2     1000021         6   # BR(~t_1 -> ~g      t )
#
#         PDG            Width
DECAY   2000006     3.58879819E+02   # stop2 decays
#          BR         NDA      ID1       ID2
     9.87299450E-03    2     1000022         6   # BR(~t_2 -> ~chi_10 t )
     8.02362570E-02    2     1000023         6   # BR(~t_2 -> ~chi_20 t )
     8.35041920E-02    2     1000025         6   # BR(~t_2 -> ~chi_30 t )
     1.52502591E-02    2     1000035         6   # BR(~t_2 -> ~chi_40 t )
     4.88280547E-02    2     1000024         5   # BR(~t_2 -> ~chi_1+ b )
     3.02984304E-02    2     1000037         5   # BR(~t_2 -> ~chi_2+ b )
     7.28399241E-01    2     1000021         6   # BR(~t_2 -> ~g      t )
     8.02862876E-04    2     1000006        25   # BR(~t_2 -> ~t_1    h )
     2.80770817E-03    2     1000006        23   # BR(~t_2 -> ~t_1    Z )
#
#         PDG            Width
DECAY   1000005     3.35406478E+02   # sbottom1 decays
#          BR         NDA      ID1       ID2
     2.32446758E-03    2     1000022         5   # BR(~b_1 -> ~chi_10 b )
     2.24571824E-03    2     1000023         5   # BR(~b_1 -> ~chi_20 b )
     2.13950806E-03    2     1000025         5   # BR(~b_1 -> ~chi_30 b )
     2.23171718E-02    2     1000035         5   # BR(~b_1 -> ~chi_40 b )
     1.68675613E-01    2    -1000024         6   # BR(~b_1 -> ~chi_1- t )
     4.49009742E-02    2    -1000037         6   # BR(~b_1 -> ~chi_2- t )
     7.55732418E-01    2     1000021         5   # BR(~b_1 -> ~g      b )
     1.66412916E-03    2     1000006       -24   # BR(~b_1 -> ~t_1    W-)
#
#         PDG            Width
DECAY   2000005     2.62735406E+02   # sbottom2 decays
#          BR         NDA      ID1       ID2
     1.11544636E-02    2     1000022         5   # BR(~b_2 -> ~chi_10 b )
     2.77340054E-03    2     1000023         5   # BR(~b_2 -> ~chi_20 b )
     2.88392272E-03    2     1000025         5   # BR(~b_2 -> ~chi_30 b )
     2.95116912E-04    2     1000035         5   # BR(~b_2 -> ~chi_40 b )
     7.66382832E-03    2    -1000024         6   # BR(~b_2 -> ~chi_1- t )
     5.93543957E-04    2    -1000037         6   # BR(~b_2 -> ~chi_2- t )
     9.74547550E-01    2     1000021         5   # BR(~b_2 -> ~g      b )
     8.81735657E-05    2     1000006       -24   # BR(~b_2 -> ~t_1    W-)
#
#         PDG            Width
DECAY   1000002     2.81735101E+02   # sup_L decays
#          BR         NDA      ID1       ID2
     2.64984810E-03    2     1000022         2   # BR(~u_L -> ~chi_10 u)
     6.52716630E-05    2     1000023         2   # BR(~u_L -> ~chi_20 u)
     4.68528451E-06    2     1000025         2   # BR(~u_L -> ~chi_30 u)
     2.77998844E-02    2     1000035         2   # BR(~u_L -> ~chi_40 u)
     2.15479634E-04    2     1000024         1   # BR(~u_L -> ~chi_1+ d)
     5.55583069E-02    2     1000037         1   # BR(~u_L -> ~chi_2+ d)
     9.13706524E-01    2     1000021         2   # BR(~u_L -> ~g      u)
#
#         PDG            Width
DECAY   2000002     2.67908848E+02   # sup_R decays
#          BR         NDA      ID1       ID2
     4.43624792E-02    2     1000022         2   # BR(~u_R -> ~chi_10 u)
     1.69269708E-05    2     1000023         2   # BR(~u_R -> ~chi_20 u)
     2.16399777E-05    2     1000025         2   # BR(~u_R -> ~chi_30 u)
     3.38111440E-09    2     1000035         2   # BR(~u_R -> ~chi_40 u)
     9.55598950E-01    2     1000021         2   # BR(~u_R -> ~g      u)
#
#         PDG            Width
DECAY   1000001     2.81749180E+02   # sdown_L decays
#          BR         NDA      ID1       ID2
     2.64198906E-03    2     1000022         1   # BR(~d_L -> ~chi_10 d)
     3.68284342E-05    2     1000023         1   # BR(~d_L -> ~chi_20 d)
     1.96971292E-05    2     1000025         1   # BR(~d_L -> ~chi_30 d)
     2.78166255E-02    2     1000035         1   # BR(~d_L -> ~chi_40 d)
     2.85086373E-05    2    -1000024         2   # BR(~d_L -> ~chi_1- u)
     5.56606014E-02    2    -1000037         2   # BR(~d_L -> ~chi_2- u)
     9.13795750E-01    2     1000021         1   # BR(~d_L -> ~g      d)
#
#         PDG            Width
DECAY   2000001     2.59009656E+02   # sdown_R decays
#          BR         NDA      ID1       ID2
     1.14723128E-02    2     1000022         1   # BR(~d_R -> ~chi_10 d)
     4.37746029E-06    2     1000023         1   # BR(~d_R -> ~chi_20 d)
     5.59628481E-06    2     1000025         1   # BR(~d_R -> ~chi_30 d)
     8.74481233E-10    2     1000035         1   # BR(~d_R -> ~chi_40 d)
     9.88517713E-01    2     1000021         1   # BR(~d_R -> ~g      d)
#
#         PDG            Width
DECAY   1000004     2.81735101E+02   # scharm_L decays
#          BR         NDA      ID1       ID2
     2.64984810E-03    2     1000022         4   # BR(~c_L -> ~chi_10 c)
     6.52716630E-05    2     1000023         4   # BR(~c_L -> ~chi_20 c)
     4.68528451E-06    2     1000025         4   # BR(~c_L -> ~chi_30 c)
     2.77998844E-02    2     1000035         4   # BR(~c_L -> ~chi_40 c)
     2.15479634E-04    2     1000024         3   # BR(~c_L -> ~chi_1+ s)
     5.55583069E-02    2     1000037         3   # BR(~c_L -> ~chi_2+ s)
     9.13706524E-01    2     1000021         4   # BR(~c_L -> ~g      c)
#
#         PDG            Width
DECAY   2000004     2.67908848E+02   # scharm_R decays
#          BR         NDA      ID1       ID2
     4.43624792E-02    2     1000022         4   # BR(~c_R -> ~chi_10 c)
     1.69269708E-05    2     1000023         4   # BR(~c_R -> ~chi_20 c)
     2.16399777E-05    2     1000025         4   # BR(~c_R -> ~chi_30 c)
     3.38111440E-09    2     1000035         4   # BR(~c_R -> ~chi_40 c)
     9.55598950E-01    2     1000021         4   # BR(~c_R -> ~g      c)
#
#         PDG            Width
DECAY   1000003     2.81749180E+02   # sstrange_L decays
#          BR         NDA      ID1       ID2
     2.64198906E-03    2     1000022         3   # BR(~s_L -> ~chi_10 s)
     3.68284342E-05    2     1000023         3   # BR(~s_L -> ~chi_20 s)
     1.96971292E-05    2     1000025         3   # BR(~s_L -> ~chi_30 s)
     2.78166255E-02    2     1000035         3   # BR(~s_L -> ~chi_40 s)
     2.85086373E-05    2    -1000024         4   # BR(~s_L -> ~chi_1- c)
     5.56606014E-02    2    -1000037         4   # BR(~s_L -> ~chi_2- c)
     9.13795750E-01    2     1000021         3   # BR(~s_L -> ~g      s)
#
#         PDG            Width
DECAY   2000003     2.59009656E+02   # sstrange_R decays
#          BR         NDA      ID1       ID2
     1.14723128E-02    2     1000022         3   # BR(~s_R -> ~chi_10 s)
     4.37746029E-06    2     1000023         3   # BR(~s_R -> ~chi_20 s)
     5.59628481E-06    2     1000025         3   # BR(~s_R -> ~chi_30 s)
     8.74481233E-10    2     1000035         3   # BR(~s_R -> ~chi_40 s)
     9.88517713E-01    2     1000021         3   # BR(~s_R -> ~g      s)
#
#         PDG            Width
DECAY   1000011     3.02435049E+01   # selectron_L decays
#          BR         NDA      ID1       ID2
     2.26693458E-01    2     1000022        11   # BR(~e_L -> ~chi_10 e-)
     9.64054515E-04    2     1000023        11   # BR(~e_L -> ~chi_20 e-)
     1.12250302E-07    2     1000025        11   # BR(~e_L -> ~chi_30 e-)
     2.57156662E-01    2     1000035        11   # BR(~e_L -> ~chi_40 e-)
     2.69949507E-04    2    -1000024        12   # BR(~e_L -> ~chi_1- nu_e)
     5.14915764E-01    2    -1000037        12   # BR(~e_L -> ~chi_2- nu_e)
#
#         PDG            Width
DECAY   2000011     2.73621017E+01   # selectron_R decays
#          BR         NDA      ID1       ID2
     9.99135243E-01    2     1000022        11   # BR(~e_R -> ~chi_10 e-)
     3.79510669E-04    2     1000023        11   # BR(~e_R -> ~chi_20 e-)
     4.85172434E-04    2     1000025        11   # BR(~e_R -> ~chi_30 e-)
     7.41839346E-08    2     1000035        11   # BR(~e_R -> ~chi_40 e-)
#
#         PDG            Width
DECAY   1000013     3.02435049E+01   # smuon_L decays
#          BR         NDA      ID1       ID2
     2.26693458E-01    2     1000022        13   # BR(~mu_L -> ~chi_10 mu-)
     9.64054515E-04    2     1000023        13   # BR(~mu_L -> ~chi_20 mu-)
     1.12250302E-07    2     1000025        13   # BR(~mu_L -> ~chi_30 mu-)
     2.57156662E-01    2     1000035        13   # BR(~mu_L -> ~chi_40 mu-)
     2.69949507E-04    2    -1000024        14   # BR(~mu_L -> ~chi_1- nu_mu)
     5.14915764E-01    2    -1000037        14   # BR(~mu_L -> ~chi_2- nu_mu)
#
#         PDG            Width
DECAY   2000013     2.73621017E+01   # smuon_R decays
#          BR         NDA      ID1       ID2
     9.99135243E-01    2     1000022        13   # BR(~mu_R -> ~chi_10 mu-)
     3.79510669E-04    2     1000023        13   # BR(~mu_R -> ~chi_20 mu-)
     4.85172434E-04    2     1000025        13   # BR(~mu_R -> ~chi_30 mu-)
     7.41839346E-08    2     1000035        13   # BR(~mu_R -> ~chi_40 mu-)
#
#         PDG            Width
DECAY   1000015     2.90048470E+01   # stau_1 decays
#          BR         NDA      ID1       ID2
     9.25605576E-01    2     1000022        15   # BR(~tau_1 -> ~chi_10  tau-)
     1.44572016E-02    2     1000023        15   # BR(~tau_1 -> ~chi_20  tau-)
     1.32809006E-02    2     1000025        15   # BR(~tau_1 -> ~chi_30  tau-)
     6.40083770E-03    2     1000035        15   # BR(~tau_1 -> ~chi_40  tau-)
     2.74389106E-02    2    -1000024        16   # BR(~tau_1 -> ~chi_1-  nu_tau)
     1.28165740E-02    2    -1000037        16   # BR(~tau_1 -> ~chi_2-  nu_tau)
#
#         PDG            Width
DECAY   2000015     3.09611845E+01   # stau_2 decays
#          BR         NDA      ID1       ID2
     2.37148860E-01    2     1000022        15   # BR(~tau_2 -> ~chi_10  tau-)
     1.33023834E-02    2     1000023        15   # BR(~tau_2 -> ~chi_20  tau-)
     1.35192076E-02    2     1000025        15   # BR(~tau_2 -> ~chi_30  tau-)
     2.45123879E-01    2     1000035        15   # BR(~tau_2 -> ~chi_40  tau-)
     8.45685841E-05    2    -1000024        16   # BR(~tau_2 -> ~chi_1-  nu_tau)
     4.90821101E-01    2    -1000037        16   # BR(~tau_2 -> ~chi_2-  nu_tau)
#
#         PDG            Width
DECAY   1000012     3.02457181E+01   # snu_eL decays
#          BR         NDA      ID1       ID2
     2.26406386E-01    2     1000022        12   # BR(~nu_eL -> ~chi_10 nu_e)
     1.55871877E-04    2     1000023        12   # BR(~nu_eL -> ~chi_20 nu_e)
     4.26402092E-04    2     1000025        12   # BR(~nu_eL -> ~chi_30 nu_e)
     2.57236396E-01    2     1000035        12   # BR(~nu_eL -> ~chi_40 nu_e)
     2.03987398E-03    2     1000024        11   # BR(~nu_eL -> ~chi_1+ e-)
     5.13735070E-01    2     1000037        11   # BR(~nu_eL -> ~chi_2+ e-)
#
#         PDG            Width
DECAY   1000014     3.02457181E+01   # snu_muL decays
#          BR         NDA      ID1       ID2
     2.26406386E-01    2     1000022        14   # BR(~nu_muL -> ~chi_10 nu_mu)
     1.55871877E-04    2     1000023        14   # BR(~nu_muL -> ~chi_20 nu_mu)
     4.26402092E-04    2     1000025        14   # BR(~nu_muL -> ~chi_30 nu_mu)
     2.57236396E-01    2     1000035        14   # BR(~nu_muL -> ~chi_40 nu_mu)
     2.03987398E-03    2     1000024        13   # BR(~nu_muL -> ~chi_1+ mu-)
     5.13735070E-01    2     1000037        13   # BR(~nu_muL -> ~chi_2+ mu-)
#
#         PDG            Width
DECAY   1000016     3.10296553E+01   # snu_tauL decays
#          BR         NDA      ID1       ID2
     2.20662638E-01    2     1000022        16   # BR(~nu_tauL -> ~chi_10 nu_tau)
     1.51912020E-04    2     1000023        16   # BR(~nu_tauL -> ~chi_20 nu_tau)
     4.15569477E-04    2     1000025        16   # BR(~nu_tauL -> ~chi_30 nu_tau)
     2.50645610E-01    2     1000035        16   # BR(~nu_tauL -> ~chi_40 nu_tau)
     2.75510460E-02    2     1000024        15   # BR(~nu_tauL -> ~chi_1+ tau-)
     5.00573225E-01    2     1000037        15   # BR(~nu_tauL -> ~chi_2+ tau-)
#
#         PDG            Width
DECAY   1000024     8.60031771E-01   # chargino1+ decays
#          BR         NDA      ID1       ID2
     1.00000000E+00    2     1000022        24   # BR(~chi_1+ -> ~chi_10  W+)
#
#         PDG            Width
DECAY   1000037     1.88556273E+01   # chargino2+ decays
#          BR         NDA      ID1       ID2
     2.52816439E-01    2     1000024        23   # BR(~chi_2+ -> ~chi_1+  Z )
     2.42474349E-04    2     1000022        24   # BR(~chi_2+ -> ~chi_10  W+)
     2.43972125E-01    2     1000023        24   # BR(~chi_2+ -> ~chi_20  W+)
     2.43786779E-01    2     1000025        24   # BR(~chi_2+ -> ~chi_30  W+)
     2.59181715E-01    2     1000024        25   # BR(~chi_2+ -> ~chi_1+  h )
     4.67198300E-07    2     1000022        37   # BR(~chi_2+ -> ~chi_10  H+)
#
#         PDG            Width
DECAY   1000022     0.00000000E+00   # neutralino1 decays
#
#         PDG            Width
DECAY   1000023     9.03119342E-01   # neutralino2 decays
#          BR         NDA      ID1       ID2
     5.54027651E-01    2     1000022        23   # BR(~chi_20 -> ~chi_10   Z )
     4.45972349E-01    2     1000022        25   # BR(~chi_20 -> ~chi_10   h )
#
#         PDG            Width
DECAY   1000025     9.11470404E-01   # neutralino3 decays
#          BR         NDA      ID1       ID2
     4.29740442E-01    2     1000022        23   # BR(~chi_30 -> ~chi_10   Z )
     5.70259558E-01    2     1000022        25   # BR(~chi_30 -> ~chi_10   h )
#
#         PDG            Width
DECAY   1000035     1.88607166E+01   # neutralino4 decays
#          BR         NDA      ID1       ID2
     8.22998403E-05    2     1000022        23   # BR(~chi_40 -> ~chi_10   Z )
     4.53960492E-02    2     1000023        23   # BR(~chi_40 -> ~chi_20   Z )
     2.06803621E-01    2     1000025        23   # BR(~chi_40 -> ~chi_30   Z )
     2.44428197E-01    2     1000024       -24   # BR(~chi_40 -> ~chi_1+   W-)
     2.44428197E-01    2    -1000024        24   # BR(~chi_40 -> ~chi_1-   W+)
     1.65186820E-04    2     1000022        25   # BR(~chi_40 -> ~chi_10   h )
     4.23835316E-07    2     1000022        35   # BR(~chi_40 -> ~chi_10   H )
     6.02500170E-08    2     1000022        36   # BR(~chi_40 -> ~chi_10   A )
     2.13288564E-01    2     1000023        25   # BR(~chi_40 -> ~chi_20   h )
     4.54074003E-02    2     1000025        25   # BR(~chi_40 -> ~chi_30   h )
#
#         PDG            Width
DECAY        25     4.04542624E-03   # h decays
#          BR         NDA      ID1       ID2
     6.08392064E-01    2           5        -5   # BR(h -> b       bb     )
     6.40861501E-02    2         -15        15   # BR(h -> tau+    tau-   )
     2.26888483E-04    2         -13        13   # BR(h -> mu+     mu-    )
     4.81026351E-04    2           3        -3   # BR(h -> s       sb     )
     2.08451265E-02    2           4        -4   # BR(h -> c       cb     )
     6.73735144E-02    2          21        21   # BR(h -> g       g      )
     2.31551113E-03    2          22        22   # BR(h -> gam     gam    )
     1.48893736E-03    2          22        23   # BR(h -> Z       gam    )
     2.09774959E-01    2          24       -24   # BR(h -> W+      W-     )
     2.49801128E-02    2          23        23   # BR(h -> Z       Z      )
     3.57092115E-05    2     1000022   1000022   # BR(h -> ~chi_10 ~chi_10)
#
#         PDG            Width
DECAY        35     7.44700114E+00   # H decays
#          BR         NDA      ID1       ID2
     4.37327793E-01    2           5        -5   # BR(H -> b       bb     )
     7.48242444E-02    2         -15        15   # BR(H -> tau+    tau-   )
     2.64584471E-04    2         -13        13   # BR(H -> mu+     mu-    )
     3.24339998E-04    2           3        -3   # BR(H -> s       sb     )
     1.81345915E-06    2           4        -4   # BR(H -> c       cb     )
     1.81178934E-01    2           6        -6   # BR(H -> t       tb     )
     6.01531426E-05    2          21        21   # BR(H -> g       g      )
     3.84204858E-07    2          22        22   # BR(H -> gam     gam    )
     1.06983079E-07    2          23        22   # BR(H -> Z       gam    )
     8.12736012E-05    2          24       -24   # BR(H -> W+      W-     )
     4.05853678E-05    2          23        23   # BR(H -> Z       Z      )
     3.06473063E-04    2          25        25   # BR(H -> h       h      )
     5.11967222E-23    2          36        36   # BR(H -> A       A      )
     9.25231620E-19    2          23        36   # BR(H -> Z       A      )
     3.04348077E-04    2     1000024  -1000024   # BR(H -> ~chi_1+ ~chi_1-)
     9.89520515E-04    2     1000022   1000022   # BR(H -> ~chi_10 ~chi_10)
     2.94763245E-05    2     1000023   1000023   # BR(H -> ~chi_20 ~chi_20)
     4.25505993E-05    2     1000025   1000025   # BR(H -> ~chi_30 ~chi_30)
     1.81189017E-01    2     1000022   1000023   # BR(H -> ~chi_10 ~chi_20)
     1.22978231E-01    2     1000022   1000025   # BR(H -> ~chi_10 ~chi_30)
     5.61708841E-05    2     1000023   1000025   # BR(H -> ~chi_20 ~chi_30)
#
#         PDG            Width
DECAY        36     7.46617001E+00   # A decays
#          BR         NDA      ID1       ID2
     4.36351235E-01    2           5        -5   # BR(A -> b       bb     )
     7.46342837E-02    2         -15        15   # BR(A -> tau+    tau-   )
     2.63912386E-04    2         -13        13   # BR(A -> mu+     mu-    )
     3.23752536E-04    2           3        -3   # BR(A -> s       sb     )
     1.81632994E-06    2           4        -4   # BR(A -> c       cb     )
     1.81365624E-01    2           6        -6   # BR(A -> t       tb     )
     1.79492010E-04    2          21        21   # BR(A -> g       g      )
     4.26352660E-07    2          22        22   # BR(A -> gam     gam    )
     2.17412119E-07    2          23        22   # BR(A -> Z       gam    )
     8.07586908E-05    2          23        25   # BR(A -> Z       h      )
     2.01850393E-03    2     1000024  -1000024   # BR(A -> ~chi_1+ ~chi_1-)
     1.01469233E-03    2     1000022   1000022   # BR(A -> ~chi_10 ~chi_10)
     1.48426111E-04    2     1000023   1000023   # BR(A -> ~chi_20 ~chi_20)
     5.12569982E-04    2     1000025   1000025   # BR(A -> ~chi_30 ~chi_30)
     1.24148436E-01    2     1000022   1000023   # BR(A -> ~chi_10 ~chi_20)
     1.78955126E-01    2     1000022   1000025   # BR(A -> ~chi_10 ~chi_30)
     7.27401211E-07    2     1000023   1000025   # BR(A -> ~chi_20 ~chi_30)
#
#         PDG            Width
DECAY        37     7.44437681E+00   # H+ decays
#          BR         NDA      ID1       ID2
     7.02877068E-04    2           4        -5   # BR(H+ -> c       bb     )
     7.48745636E-02    2         -15        16   # BR(H+ -> tau+    nu_tau )
     2.64762034E-04    2         -13        14   # BR(H+ -> mu+     nu_mu  )
     4.49839016E-06    2           2        -5   # BR(H+ -> u       bb     )
     1.55356846E-05    2           2        -3   # BR(H+ -> u       sb     )
     3.21278263E-04    2           4        -3   # BR(H+ -> c       sb     )
     6.17386677E-01    2           6        -5   # BR(H+ -> t       bb     )
     8.11178753E-05    2          24        25   # BR(H+ -> W+      h      )
     8.96870141E-14    2          24        36   # BR(H+ -> W+      A      )
     3.06074959E-01    2     1000024   1000022   # BR(H+ -> ~chi_1+ ~chi_10)
     2.17014206E-04    2     1000024   1000023   # BR(H+ -> ~chi_1+ ~chi_20)
     5.67169877E-05    2     1000024   1000025   # BR(H+ -> ~chi_1+ ~chi_30)
