#
#                              ======================
#                              | THE SUSYHIT OUTPUT |
#                              ======================
#
#
#              ------------------------------------------------------
#              |     This is the output of the SUSY-HIT package     |
#              |  created by A.Djouadi, M.Muehlleitner and M.Spira. |
#              |  In case of problems with SUSY-HIT email to        |
#              |           margarete.muehlleitner@kit.edu           |
#              |           michael.spira@psi.ch                     |
#              |           abdelhak.djouadi@cern.ch                 |
#              ------------------------------------------------------
#
#              ------------------------------------------------------
#              |  SUSY Les Houches Accord - MSSM Spectrum + Decays  |
#              |              based on the decay programs           |
#              |                                                    |
#              |                     SDECAY 1.5                     |
#              |                                                    |
#              |  Authors: M.Muhlleitner, A.Djouadi and Y.Mambrini  |
#              |  Ref.:    Comput.Phys.Commun.168(2005)46           |
#              |           [hep-ph/0311167]                         |
#              |                                                    |
#              |                     HDECAY 3.4                     |
#              |                                                    |
#              |  By: A.Djouadi,J.Kalinowski,M.Muhlleitner,M.Spira  |
#              |  Ref.:    Comput.Phys.Commun.108(1998)56           |
#              |           [hep-ph/9704448]                         |
#              |                                                    |
#              |                                                    |
#              |  If not stated otherwise all DRbar couplings and   |
#              |  soft SUSY breaking masses are given at the scale  |
#              |  Q=  0.91187600E+02
#              |                                                    |
#              ------------------------------------------------------
#
#
BLOCK DCINFO  # Decay Program information
     1   SDECAY/HDECAY # decay calculator
     2   1.5  /3.4    # version number
#
BLOCK SPINFO  # Spectrum calculator information
     1   SuSpect     # RGE +Spectrum calculator            
     2   2.43         # version number                     
#
BLOCK MODSEL  # Model selection
     1     2   # GMSB                                              
#
BLOCK SMINPUTS  # Standard Model inputs
         1     1.27932904E+02   # alpha_em^-1(M_Z)^MSbar
         2     1.16639000E-05   # G_F [GeV^-2]
         3     1.17200000E-01   # alpha_S(M_Z)^MSbar
         4     9.11870000E+01   # M_Z pole mass
         5     4.25000000E+00   # mb(mb)^MSbar
         6     1.72900000E+02   # mt pole mass
         7     1.77700000E+00   # mtau pole mass
#
BLOCK MINPAR  # Input parameters - minimal models
#
BLOCK EXTPAR  # Input parameters - non-minimal models
         0     9.11876000E+01   # EWSB                
         1     2.00700000E+03   # M_1                 
         2     3.00000000E+03   # M_2                 
         3     2.10000000E+03   # M_3                 
        11     0.00000000E+00   # A_t                 
        12     0.00000000E+00   # A_b                 
        13     0.00000000E+00   # A_tau               
        14     0.00000000E+00   # A_u                 
        15     0.00000000E+00   # A_d                 
        16     0.00000000E+00   # A_e                 
        23     2.02500000E+03   # mu(EWSB)            
        25     1.50000000E+00   # tanbeta(in)         
        26     2.00000000E+03   # MA_pole             
        31     5.00000000E+03   # M_eL                
        32     5.00000000E+03   # M_muL               
        33     5.00000000E+03   # M_tauL              
        34     5.00000000E+03   # M_eR                
        35     5.00000000E+03   # M_muR               
        36     5.00000000E+03   # M_tauR              
        41     5.00000000E+03   # M_q1L               
        42     5.00000000E+03   # M_q2L               
        43     5.00000000E+03   # M_q3L               
        44     5.00000000E+03   # M_uR                
        45     5.00000000E+03   # M_cR                
        46     5.00000000E+03   # M_tR                
        47     5.00000000E+03   # M_dR                
        48     5.00000000E+03   # M_sR                
        49     5.00000000E+03   # M_bR                
#
BLOCK MASS  # Mass Spectrum
# PDG code           mass       particle
        24     8.05421836E+01   # W+
        25     1.26000000E+02   # h
        35     2.00399165E+03   # H
        36     2.00000000E+03   # A
        37     2.00152006E+03   # H+
         5     4.87877839E+00   # b-quark pole mass calculated from mb(mb)_Msbar
   1000001     4.93206220E+03   # ~d_L
   2000001     4.93195194E+03   # ~d_R
   1000002     4.93181564E+03   # ~u_L
   2000002     4.93187384E+03   # ~u_R
   1000003     4.93206220E+03   # ~s_L
   2000003     4.93195194E+03   # ~s_R
   1000004     4.93181564E+03   # ~c_L
   2000004     4.93187384E+03   # ~c_R
   1000005     4.93116951E+03   # ~b_1
   2000005     4.93284597E+03   # ~b_2
   1000006     5.04033929E+03   # ~t_1
   2000006     5.32843593E+03   # ~t_2
   1000011     5.00008214E+03   # ~e_L
   2000011     5.00007617E+03   # ~e_R
   1000012     4.99984169E+03   # ~nu_eL
   1000013     5.00008214E+03   # ~mu_L
   2000013     5.00007617E+03   # ~mu_R
   1000014     4.99984169E+03   # ~nu_muL
   1000015     4.99953912E+03   # ~tau_1
   2000015     5.00061976E+03   # ~tau_2
   1000016     4.99984169E+03   # ~nu_tauL
   1000021     2.15114102E+03   # ~g
   1000022     2.09064882E+03   # ~chi_10
   1000023    -2.14499103E+03   # ~chi_20
   1000025     2.17809379E+03   # ~chi_30
   1000035     3.12485085E+03   # ~chi_40
   1000024     2.13883836E+03   # ~chi_1+
   1000037     3.12483908E+03   # ~chi_2+
   1000039     1.00000000E-09   # ~gravitino
#
BLOCK NMIX  # Neutralino Mixing Matrix
  1  1     7.41995294E-01   # N_11
  1  2    -5.03930083E-02   # N_12
  1  3     4.73916834E-01   # N_13
  1  4    -4.71493757E-01   # N_14
  2  1     2.04227583E-03   # N_21
  2  2    -2.94703677E-03   # N_22
  2  3    -7.07049882E-01   # N_23
  2  4    -7.07154586E-01   # N_24
  3  1     6.70392883E-01   # N_31
  3  2     6.09768430E-02   # N_32
  3  3    -5.22100095E-01   # N_33
  3  4     5.23704780E-01   # N_34
  4  1     3.49200615E-03   # N_41
  4  2    -9.96861918E-01   # N_42
  4  3    -5.38032474E-02   # N_43
  4  4     5.79597460E-02   # N_44
#
BLOCK UMIX  # Chargino Mixing Matrix U
  1  1    -7.59421278E-02   # U_11
  1  2     9.97112227E-01   # U_12
  2  1     9.97112227E-01   # U_21
  2  2     7.59421278E-02   # U_22
#
BLOCK VMIX  # Chargino Mixing Matrix V
  1  1    -8.18156943E-02   # V_11
  1  2     9.96647476E-01   # V_12
  2  1     9.96647476E-01   # V_21
  2  2     8.18156943E-02   # V_22
#
BLOCK STOPMIX  # Stop Mixing Matrix
  1  1     9.99763948E-01   # cos(theta_t)
  1  2     2.17266721E-02   # sin(theta_t)
  2  1    -2.17266721E-02   # -sin(theta_t)
  2  2     9.99763948E-01   # cos(theta_t)
#
BLOCK SBOTMIX  # Sbottom Mixing Matrix
  1  1     6.83457739E-01   # cos(theta_b)
  1  2     7.29990081E-01   # sin(theta_b)
  2  1    -7.29990081E-01   # -sin(theta_b)
  2  2     6.83457739E-01   # cos(theta_b)
#
BLOCK STAUMIX  # Stau Mixing Matrix
  1  1     7.05149462E-01   # cos(theta_tau)
  1  2     7.09058697E-01   # sin(theta_tau)
  2  1    -7.09058697E-01   # -sin(theta_tau)
  2  2     7.05149462E-01   # cos(theta_tau)
#
BLOCK ALPHA  # Higgs mixing
          -5.90197759E-01   # Mixing angle in the neutral Higgs boson sector
#
BLOCK HMIX Q=  9.11876000E+01  # DRbar Higgs Parameters
         1     2.02500000E+03   # mu(Q)               
         2     1.49999979E+00   # tanbeta(Q)          
         3     2.52344499E+02   # vev(Q)              
         4     3.01538331E+06   # MA^2(Q)             
#
BLOCK GAUGE Q=  9.11876000E+01  # The gauge couplings
     1     3.52702811E-01   # gprime(Q) DRbar
     2     6.26668037E-01   # g(Q) DRbar
     3     1.07966863E+00   # g3(Q) DRbar
#
BLOCK AU Q=  9.11876000E+01  # The trilinear couplings
  1  1     0.00000000E+00   # A_u(Q) DRbar
  2  2     0.00000000E+00   # A_c(Q) DRbar
  3  3     0.00000000E+00   # A_t(Q) DRbar
#
BLOCK AD Q=  9.11876000E+01  # The trilinear couplings
  1  1     0.00000000E+00   # A_d(Q) DRbar
  2  2     0.00000000E+00   # A_s(Q) DRbar
  3  3     0.00000000E+00   # A_b(Q) DRbar
#
BLOCK AE Q=  9.11876000E+01  # The trilinear couplings
  1  1     0.00000000E+00   # A_e(Q) DRbar
  2  2     0.00000000E+00   # A_mu(Q) DRbar
  3  3     0.00000000E+00   # A_tau(Q) DRbar
#
BLOCK Yu Q=  9.11876000E+01  # The Yukawa couplings
  1  1     0.00000000E+00   # y_u(Q) DRbar
  2  2     0.00000000E+00   # y_c(Q) DRbar
  3  3     1.02471480E+00   # y_t(Q) DRbar
#
BLOCK Yd Q=  9.11876000E+01  # The Yukawa couplings
  1  1     0.00000000E+00   # y_d(Q) DRbar
  2  2     0.00000000E+00   # y_s(Q) DRbar
  3  3     2.71316752E-02   # y_b(Q) DRbar
#
BLOCK Ye Q=  9.11876000E+01  # The Yukawa couplings
  1  1     0.00000000E+00   # y_e(Q) DRbar
  2  2     0.00000000E+00   # y_mu(Q) DRbar
  3  3     1.79720534E-02   # y_tau(Q) DRbar
#
BLOCK MSOFT Q=  9.11876000E+01  # The soft SUSY breaking masses at the scale Q
         1     2.00700000E+03   # M_1                 
         2     3.00000000E+03   # M_2                 
         3     2.10000000E+03   # M_3                 
        14     0.00000000E+00   # A_u                 
        15     0.00000000E+00   # A_d                 
        16     0.00000000E+00   # A_e                 
        21    -1.54378531E+06   # M^2_Hd              
        22    -9.18674299E+06   # M^2_Hu              
        31     5.00000000E+03   # M_eL                
        32     5.00000000E+03   # M_muL               
        33     5.00000000E+03   # M_tauL              
        34     5.00000000E+03   # M_eR                
        35     5.00000000E+03   # M_muR               
        36     5.00000000E+03   # M_tauR              
        41     5.00000000E+03   # M_q1L               
        42     5.00000000E+03   # M_q2L               
        43     5.00000000E+03   # M_q3L               
        44     5.00000000E+03   # M_uR                
        45     5.00000000E+03   # M_cR                
        46     5.00000000E+03   # M_tR                
        47     5.00000000E+03   # M_dR                
        48     5.00000000E+03   # M_sR                
        49     5.00000000E+03   # M_bR                
#
#
#
#                             =================
#                             |The decay table|
#                             =================
#
# - The QCD corrections to the decays gluino -> squark  + quark
#                                     squark -> gaugino + quark_prime
#                                     squark -> squark_prime + Higgs
#                                     squark -> gluino  + quark
#   are included.
#
# - The multi-body decays for the inos, stops and sbottoms are included.
#
# - The loop induced decays for the gluino, neutralinos and stops
#   are included.
#
# - The SUSY decays of the top quark are included.
#
# - Possible decays of the NLSP in GMSB models are included.
#
#
#         PDG            Width
DECAY         6     1.36822283E+00   # top decays
#          BR         NDA      ID1       ID2
     1.00000000E+00    2           5        24   # BR(t ->  b    W+)
#
#         PDG            Width
DECAY   1000021     5.30343791E-05   # gluino decays
#          BR         NDA      ID1       ID2
     5.96100984E-05    2     1000022        21   # BR(~g -> ~chi_10 g)
     1.47468746E-07    2     1000023        21   # BR(~g -> ~chi_20 g)
#          BR         NDA      ID1       ID2
0.0E+00    2     1000039    21 # BR(~g -> ~G      g)
#           BR         NDA      ID1       ID2       ID3
     1.94917281E-07    3     1000022         1        -1   # BR(~g -> ~chi_10 d  db)
     7.63507149E-17    3     1000023         1        -1   # BR(~g -> ~chi_20 d  db)
     5.46258169E-07    3     1000022         2        -2   # BR(~g -> ~chi_10 u  ub)
     5.83508571E-17    3     1000023         2        -2   # BR(~g -> ~chi_20 u  ub)
     1.94917281E-07    3     1000022         3        -3   # BR(~g -> ~chi_10 s  sb)
     7.63507149E-17    3     1000023         3        -3   # BR(~g -> ~chi_20 s  sb)
     5.46258169E-07    3     1000022         4        -4   # BR(~g -> ~chi_10 c  cb)
     5.83508571E-17    3     1000023         4        -4   # BR(~g -> ~chi_20 c  cb)
     1.74386240E-07    3     1000022         5        -5   # BR(~g -> ~chi_10 b  bb)
     7.77980153E-12    3     1000024         1        -2   # BR(~g -> ~chi_1+ d  ub)
     7.77980153E-12    3    -1000024         2        -1   # BR(~g -> ~chi_1- u  db)
     7.77980153E-12    3     1000024         3        -4   # BR(~g -> ~chi_1+ s  cb)
     7.77980153E-12    3    -1000024         4        -3   # BR(~g -> ~chi_1- c  sb)
#
#         PDG            Width
DECAY   1000006     2.50420875E+02   # stop1 decays
#          BR         NDA      ID1       ID2
     4.39720036E-02    2     1000022         6   # BR(~t_1 -> ~chi_10 t )
     9.65070196E-02    2     1000023         6   # BR(~t_1 -> ~chi_20 t )
     5.40462014E-02    2     1000025         6   # BR(~t_1 -> ~chi_30 t )
     2.94292869E-02    2     1000035         6   # BR(~t_1 -> ~chi_40 t )
     2.00302730E-04    2     1000024         5   # BR(~t_1 -> ~chi_1+ b )
     5.76393513E-02    2     1000037         5   # BR(~t_1 -> ~chi_2+ b )
     7.10281110E-01    2     1000021         6   # BR(~t_1 -> ~g      t )
     3.90593125E-03    2     1000005        24   # BR(~t_1 -> ~b_1    W+)
     4.01879275E-03    2     2000005        24   # BR(~t_1 -> ~b_2    W+)
#
#         PDG            Width
DECAY   2000006     3.10218366E+02   # stop2 decays
#          BR         NDA      ID1       ID2
     5.30718149E-02    2     1000022         6   # BR(~t_2 -> ~chi_10 t )
     8.69108411E-02    2     1000023         6   # BR(~t_2 -> ~chi_20 t )
     5.90410368E-02    2     1000025         6   # BR(~t_2 -> ~chi_30 t )
     2.29763485E-04    2     1000035         6   # BR(~t_2 -> ~chi_40 t )
     1.73833977E-01    2     1000024         5   # BR(~t_2 -> ~chi_1+ b )
     4.61898971E-04    2     1000037         5   # BR(~t_2 -> ~chi_2+ b )
     6.25903716E-01    2     1000021         6   # BR(~t_2 -> ~g      t )
     7.75279993E-06    2     1000006        25   # BR(~t_2 -> ~t_1    h )
     8.04870716E-05    2     1000006        23   # BR(~t_2 -> ~t_1    Z )
     2.15786928E-04    2     1000005        24   # BR(~t_2 -> ~b_1    W+)
     2.42925635E-04    2     2000005        24   # BR(~t_2 -> ~b_2    W+)
#
#         PDG            Width
DECAY   1000005     2.03351804E+02   # sbottom1 decays
#          BR         NDA      ID1       ID2
     4.36105879E-03    2     1000022         5   # BR(~b_1 -> ~chi_10 b )
     7.20281110E-05    2     1000023         5   # BR(~b_1 -> ~chi_20 b )
     1.69695873E-03    2     1000025         5   # BR(~b_1 -> ~chi_30 b )
     1.47272803E-02    2     1000035         5   # BR(~b_1 -> ~chi_40 b )
     1.01755701E-01    2    -1000024         6   # BR(~b_1 -> ~chi_1- t )
     3.00900354E-02    2    -1000037         6   # BR(~b_1 -> ~chi_2- t )
     8.47296938E-01    2     1000021         5   # BR(~b_1 -> ~g      b )
#
#         PDG            Width
DECAY   2000005     2.10009549E+02   # sbottom2 decays
#          BR         NDA      ID1       ID2
     2.61038576E-03    2     1000022         5   # BR(~b_2 -> ~chi_10 b )
     8.72498222E-05    2     1000023         5   # BR(~b_2 -> ~chi_20 b )
     2.31500050E-03    2     1000025         5   # BR(~b_2 -> ~chi_30 b )
     1.74713891E-02    2     1000035         5   # BR(~b_2 -> ~chi_40 b )
     1.21798957E-01    2    -1000024         6   # BR(~b_2 -> ~chi_1- t )
     3.57036685E-02    2    -1000037         6   # BR(~b_2 -> ~chi_2- t )
     8.20013350E-01    2     1000021         5   # BR(~b_2 -> ~g      b )
#
#         PDG            Width
DECAY   1000002     1.92872965E+02   # sup_L decays
#          BR         NDA      ID1       ID2
     5.11854755E-04    2     1000022         2   # BR(~u_L -> ~chi_10 u)
     4.16860214E-07    2     1000023         2   # BR(~u_L -> ~chi_20 u)
     2.17977212E-03    2     1000025         2   # BR(~u_L -> ~chi_30 u)
     3.44525609E-02    2     1000035         2   # BR(~u_L -> ~chi_40 u)
     8.51232723E-04    2     1000024         1   # BR(~u_L -> ~chi_1+ d)
     6.89667876E-02    2     1000037         1   # BR(~u_L -> ~chi_2+ d)
     8.93037375E-01    2     1000021         2   # BR(~u_L -> ~g      u)
#
#         PDG            Width
DECAY   2000002     1.79178694E+02   # sup_R decays
#          BR         NDA      ID1       ID2
     2.16586727E-02    2     1000022         2   # BR(~u_R -> ~chi_10 u)
     1.60337611E-07    2     1000023         2   # BR(~u_R -> ~chi_20 u)
     1.70284593E-02    2     1000025         2   # BR(~u_R -> ~chi_30 u)
     2.56623534E-07    2     1000035         2   # BR(~u_R -> ~chi_40 u)
     9.61312451E-01    2     1000021         2   # BR(~u_R -> ~g      u)
#
#         PDG            Width
DECAY   1000001     1.92882014E+02   # sdown_L decays
#          BR         NDA      ID1       ID2
     2.33290699E-03    2     1000022         1   # BR(~d_L -> ~chi_10 d)
     7.03314078E-07    2     1000023         1   # BR(~d_L -> ~chi_20 d)
     2.62416708E-04    2     1000025         1   # BR(~d_L -> ~chi_30 d)
     3.45479452E-02    2     1000035         1   # BR(~d_L -> ~chi_40 d)
     7.33435785E-04    2    -1000024         2   # BR(~d_L -> ~chi_1- u)
     6.90405109E-02    2    -1000037         2   # BR(~d_L -> ~chi_2- u)
     8.93082081E-01    2     1000021         1   # BR(~d_L -> ~g      d)
#
#         PDG            Width
DECAY   2000001     1.73985049E+02   # sdown_R decays
#          BR         NDA      ID1       ID2
     5.57646789E-03    2     1000022         1   # BR(~d_R -> ~chi_10 d)
     4.12822312E-08    2     1000023         1   # BR(~d_R -> ~chi_20 d)
     4.38433122E-03    2     1000025         1   # BR(~d_R -> ~chi_30 d)
     6.60748351E-08    2     1000035         1   # BR(~d_R -> ~chi_40 d)
     9.90039094E-01    2     1000021         1   # BR(~d_R -> ~g      d)
#
#         PDG            Width
DECAY   1000004     1.92872965E+02   # scharm_L decays
#          BR         NDA      ID1       ID2
     5.11854755E-04    2     1000022         4   # BR(~c_L -> ~chi_10 c)
     4.16860214E-07    2     1000023         4   # BR(~c_L -> ~chi_20 c)
     2.17977212E-03    2     1000025         4   # BR(~c_L -> ~chi_30 c)
     3.44525609E-02    2     1000035         4   # BR(~c_L -> ~chi_40 c)
     8.51232723E-04    2     1000024         3   # BR(~c_L -> ~chi_1+ s)
     6.89667876E-02    2     1000037         3   # BR(~c_L -> ~chi_2+ s)
     8.93037375E-01    2     1000021         4   # BR(~c_L -> ~g      c)
#
#         PDG            Width
DECAY   2000004     1.79178694E+02   # scharm_R decays
#          BR         NDA      ID1       ID2
     2.16586727E-02    2     1000022         4   # BR(~c_R -> ~chi_10 c)
     1.60337611E-07    2     1000023         4   # BR(~c_R -> ~chi_20 c)
     1.70284593E-02    2     1000025         4   # BR(~c_R -> ~chi_30 c)
     2.56623534E-07    2     1000035         4   # BR(~c_R -> ~chi_40 c)
     9.61312451E-01    2     1000021         4   # BR(~c_R -> ~g      c)
#
#         PDG            Width
DECAY   1000003     1.92882014E+02   # sstrange_L decays
#          BR         NDA      ID1       ID2
     2.33290699E-03    2     1000022         3   # BR(~s_L -> ~chi_10 s)
     7.03314078E-07    2     1000023         3   # BR(~s_L -> ~chi_20 s)
     2.62416708E-04    2     1000025         3   # BR(~s_L -> ~chi_30 s)
     3.45479452E-02    2     1000035         3   # BR(~s_L -> ~chi_40 s)
     7.33435785E-04    2    -1000024         4   # BR(~s_L -> ~chi_1- c)
     6.90405109E-02    2    -1000037         4   # BR(~s_L -> ~chi_2- c)
     8.93082081E-01    2     1000021         3   # BR(~s_L -> ~g      s)
#
#         PDG            Width
DECAY   2000003     1.73985049E+02   # sstrange_R decays
#          BR         NDA      ID1       ID2
     5.57646789E-03    2     1000022         3   # BR(~s_R -> ~chi_10 s)
     4.12822312E-08    2     1000023         3   # BR(~s_R -> ~chi_20 s)
     4.38433122E-03    2     1000025         3   # BR(~s_R -> ~chi_30 s)
     6.60748351E-08    2     1000035         3   # BR(~s_R -> ~chi_40 s)
     9.90039094E-01    2     1000021         3   # BR(~s_R -> ~g      s)
#
#         PDG            Width
DECAY   1000011     2.60125022E+01   # selectron_L decays
#          BR         NDA      ID1       ID2
     6.89461126E-02    2     1000022        11   # BR(~e_L -> ~chi_10 e-)
     1.61547497E-06    2     1000023        11   # BR(~e_L -> ~chi_20 e-)
     9.46937720E-02    2     1000025        11   # BR(~e_L -> ~chi_30 e-)
     2.76036675E-01    2     1000035        11   # BR(~e_L -> ~chi_40 e-)
     5.78138676E-03    2    -1000024        12   # BR(~e_L -> ~chi_1- nu_e)
     5.54540438E-01    2    -1000037        12   # BR(~e_L -> ~chi_2- nu_e)
#
#         PDG            Width
DECAY   2000011     1.65800372E+01   # selectron_R decays
#          BR         NDA      ID1       ID2
     5.59578782E-01    2     1000022        11   # BR(~e_R -> ~chi_10 e-)
     4.14516839E-06    2     1000023        11   # BR(~e_R -> ~chi_20 e-)
     4.40410312E-01    2     1000025        11   # BR(~e_R -> ~chi_30 e-)
     6.76018333E-06    2     1000035        11   # BR(~e_R -> ~chi_40 e-)
#
#         PDG            Width
DECAY   1000013     2.60125022E+01   # smuon_L decays
#          BR         NDA      ID1       ID2
     6.89461126E-02    2     1000022        13   # BR(~mu_L -> ~chi_10 mu-)
     1.61547497E-06    2     1000023        13   # BR(~mu_L -> ~chi_20 mu-)
     9.46937720E-02    2     1000025        13   # BR(~mu_L -> ~chi_30 mu-)
     2.76036675E-01    2     1000035        13   # BR(~mu_L -> ~chi_40 mu-)
     5.78138676E-03    2    -1000024        14   # BR(~mu_L -> ~chi_1- nu_mu)
     5.54540438E-01    2    -1000037        14   # BR(~mu_L -> ~chi_2- nu_mu)
#
#         PDG            Width
DECAY   2000013     1.65800372E+01   # smuon_R decays
#          BR         NDA      ID1       ID2
     5.59578782E-01    2     1000022        13   # BR(~mu_R -> ~chi_10 mu-)
     4.14516839E-06    2     1000023        13   # BR(~mu_R -> ~chi_20 mu-)
     4.40410312E-01    2     1000025        13   # BR(~mu_R -> ~chi_30 mu-)
     6.76018333E-06    2     1000035        13   # BR(~mu_R -> ~chi_40 mu-)
#
#         PDG            Width
DECAY   1000015     2.13442251E+01   # stau_1 decays
#          BR         NDA      ID1       ID2
     2.66169404E-01    2     1000022        15   # BR(~tau_1 -> ~chi_10  tau-)
     4.32131360E-04    2     1000023        15   # BR(~tau_1 -> ~chi_20  tau-)
     2.25658212E-01    2     1000025        15   # BR(~tau_1 -> ~chi_30  tau-)
     1.66473437E-01    2     1000035        15   # BR(~tau_1 -> ~chi_40  tau-)
     6.65742403E-03    2    -1000024        16   # BR(~tau_1 -> ~chi_1-  nu_tau)
     3.34440909E-01    2    -1000037        16   # BR(~tau_1 -> ~chi_2-  nu_tau)
     1.68482916E-04    2     1000039        15   # BR(~tau_1 -> ~G       tau-)
#
#         PDG            Width
DECAY   2000015     2.13160843E+01   # stau_2 decays
#          BR         NDA      ID1       ID2
     2.53320854E-01    2     1000022        15   # BR(~tau_2 -> ~chi_10  tau-)
     5.75859033E-04    2     1000023        15   # BR(~tau_2 -> ~chi_20  tau-)
     2.32704090E-01    2     1000025        15   # BR(~tau_2 -> ~chi_30  tau-)
     1.70170613E-01    2     1000035        15   # BR(~tau_2 -> ~chi_40  tau-)
     1.38819936E-03    2    -1000024        16   # BR(~tau_2 -> ~chi_1-  nu_tau)
     3.41840384E-01    2    -1000037        16   # BR(~tau_2 -> ~chi_2-  nu_tau)
#
#         PDG            Width
DECAY   1000012     2.60156276E+01   # snu_eL decays
#          BR         NDA      ID1       ID2
     1.11961826E-01    2     1000022        12   # BR(~nu_eL -> ~chi_10 nu_e)
     8.38771730E-06    2     1000023        12   # BR(~nu_eL -> ~chi_20 nu_e)
     4.93177191E-02    2     1000025        12   # BR(~nu_eL -> ~chi_30 nu_e)
     2.78141087E-01    2     1000035        12   # BR(~nu_eL -> ~chi_40 nu_e)
     6.70884825E-03    2     1000024        11   # BR(~nu_eL -> ~chi_1+ e-)
     5.53862133E-01    2     1000037        11   # BR(~nu_eL -> ~chi_2+ e-)
#
#         PDG            Width
DECAY   1000014     2.60156276E+01   # snu_muL decays
#          BR         NDA      ID1       ID2
     1.11961826E-01    2     1000022        14   # BR(~nu_muL -> ~chi_10 nu_mu)
     8.38771730E-06    2     1000023        14   # BR(~nu_muL -> ~chi_20 nu_mu)
     4.93177191E-02    2     1000025        14   # BR(~nu_muL -> ~chi_30 nu_mu)
     2.78141087E-01    2     1000035        14   # BR(~nu_muL -> ~chi_40 nu_mu)
     6.70884825E-03    2     1000024        13   # BR(~nu_muL -> ~chi_1+ mu-)
     5.53862133E-01    2     1000037        13   # BR(~nu_muL -> ~chi_2+ mu-)
#
#         PDG            Width
DECAY   1000016     2.60370085E+01   # snu_tauL decays
#          BR         NDA      ID1       ID2
     1.11869886E-01    2     1000022        16   # BR(~nu_tauL -> ~chi_10 nu_tau)
     8.38082953E-06    2     1000023        16   # BR(~nu_tauL -> ~chi_20 nu_tau)
     4.92772206E-02    2     1000025        16   # BR(~nu_tauL -> ~chi_30 nu_tau)
     2.77912684E-01    2     1000035        16   # BR(~nu_tauL -> ~chi_40 nu_tau)
     7.52048373E-03    2     1000024        15   # BR(~nu_tauL -> ~chi_1+ tau-)
     5.53411345E-01    2     1000037        15   # BR(~nu_tauL -> ~chi_2+ tau-)
#
#         PDG            Width
DECAY   1000024     1.86571244E-04   # chargino1+ decays
#          BR         NDA      ID1       ID2
     1.38180389E-01    2     1000039        24   # BR(~chi_1+ -> ~G       W+)
     3.27496576E-05    2     1000039        37   # BR(~chi_1+ -> ~G       H+)
#           BR         NDA      ID1       ID2       ID3
     2.87475579E-01    3     1000022         2        -1   # BR(~chi_1+ -> ~chi_10 u    db)
     2.87475579E-01    3     1000022         4        -3   # BR(~chi_1+ -> ~chi_10 c    sb)
     9.58252868E-02    3     1000022       -11        12   # BR(~chi_1+ -> ~chi_10 e+   nu_e)
     9.58252868E-02    3     1000022       -13        14   # BR(~chi_1+ -> ~chi_10 mu+  nu_mu)
     9.51851293E-02    3     1000022       -15        16   # BR(~chi_1+ -> ~chi_10 tau+ nu_tau)
#
#         PDG            Width
DECAY   1000037     3.40736669E+01   # chargino2+ decays
#          BR         NDA      ID1       ID2
     2.54326081E-01    2     1000024        23   # BR(~chi_2+ -> ~chi_1+  Z )
     1.02849025E-01    2     1000022        24   # BR(~chi_2+ -> ~chi_10  W+)
     2.46002490E-01    2     1000023        24   # BR(~chi_2+ -> ~chi_20  W+)
     1.45215322E-01    2     1000025        24   # BR(~chi_2+ -> ~chi_30  W+)
     2.51597068E-01    2     1000024        25   # BR(~chi_2+ -> ~chi_1+  h )
     1.00108892E-05    2     1000039        24   # BR(~chi_2+ -> ~G       W+)
     3.68485406E-09    2     1000039        37   # BR(~chi_2+ -> ~G       H+)
#
#         PDG            Width
DECAY   1000022    1.0E-05    # neutralino1 decays
#          BR         NDA      ID1       ID2
     5.00384641E-01    2     1000039        22   # BR(~chi_10 -> ~G        gam)
     4.89159589E-01    2     1000039        23   # BR(~chi_10 -> ~G        Z)
     1.04430822E-02    2     1000039        25   # BR(~chi_10 -> ~G        h)
     1.20965902E-05    2     1000039        35   # BR(~chi_10 -> ~G        H)
     5.90880938E-07    2     1000039        36   # BR(~chi_10 -> ~G        A)
#
#         PDG            Width
DECAY   1000023     2.66099528E-04   # neutralino2 decays
#          BR         NDA      ID1       ID2
     2.02691821E-04    2     1000022        22   # BR(~chi_20 -> ~chi_10 gam)
#          BR         NDA      ID1       ID2
     2.19561879E-08    2     1000039        22   # BR(~chi_20 -> ~G        gam)
     3.75601351E-03    2     1000039        23   # BR(~chi_20 -> ~G        Z)
     9.32369484E-02    2     1000039        25   # BR(~chi_20 -> ~G        h)
     9.65114117E-07    2     1000039        35   # BR(~chi_20 -> ~G        H)
     2.74943218E-05    2     1000039        36   # BR(~chi_20 -> ~G        A)
#           BR         NDA      ID1       ID2       ID3
     1.06839740E-01    3     1000022        -2         2   # BR(~chi_20 -> ~chi_10 ub      u)
     1.38352252E-01    3     1000022        -1         1   # BR(~chi_20 -> ~chi_10 db      d)
     1.06839740E-01    3     1000022        -4         4   # BR(~chi_20 -> ~chi_10 cb      c)
     1.38352252E-01    3     1000022        -3         3   # BR(~chi_20 -> ~chi_10 sb      s)
     1.28436819E-01    3     1000022        -5         5   # BR(~chi_20 -> ~chi_10 bb      b)
     3.16024793E-02    3     1000022       -11        11   # BR(~chi_20 -> ~chi_10 e+      e-)
     3.16024793E-02    3     1000022       -13        13   # BR(~chi_20 -> ~chi_10 mu+     mu-)
     3.13341758E-02    3     1000022       -15        15   # BR(~chi_20 -> ~chi_10 tau+    tau-)
     6.31152289E-02    3     1000022       -12        12   # BR(~chi_20 -> ~chi_10 nu_eb   nu_e)
     6.31152289E-02    3     1000022       -14        14   # BR(~chi_20 -> ~chi_10 nu_mub  nu_mu)
     6.31152289E-02    3     1000022       -16        16   # BR(~chi_20 -> ~chi_10 nu_taub nu_tau)
     1.21508904E-05    3     1000024        -2         1   # BR(~chi_20 -> ~chi_1+ ub      d)
     1.21508904E-05    3    -1000024        -1         2   # BR(~chi_20 -> ~chi_1- db      u)
     1.21508904E-05    3     1000024        -4         3   # BR(~chi_20 -> ~chi_1+ cb      s)
     1.21508904E-05    3    -1000024        -3         4   # BR(~chi_20 -> ~chi_1- sb      c)
     4.05029711E-06    3     1000024       -12        11   # BR(~chi_20 -> ~chi_1+ nu_eb   e-)
     4.05029711E-06    3    -1000024        12       -11   # BR(~chi_20 -> ~chi_1- nu_e    e+)
     4.05029711E-06    3     1000024       -14        13   # BR(~chi_20 -> ~chi_1+ nu_mub  mu-)
     4.05029711E-06    3    -1000024        14       -13   # BR(~chi_20 -> ~chi_1- nu_mu   mu+)
     2.71825700E-06    3     1000024       -16        15   # BR(~chi_20 -> ~chi_1+ nu_taub tau-)
     2.71825700E-06    3    -1000024        16       -15   # BR(~chi_20 -> ~chi_1- nu_tau  tau+)
#
#         PDG            Width
DECAY   1000025     1.92166796E-04   # neutralino3 decays
#          BR         NDA      ID1       ID2
     4.37798811E-04    2     1000022        22   # BR(~chi_30 -> ~chi_10 gam)
     4.83374327E-06    2     1000023        22   # BR(~chi_30 -> ~chi_20 gam)
#          BR         NDA      ID1       ID2
     1.10765543E-01    2     1000039        22   # BR(~chi_30 -> ~G        gam)
     9.88846927E-02    2     1000039        23   # BR(~chi_30 -> ~G        Z)
     3.02734705E-03    2     1000039        25   # BR(~chi_30 -> ~G        h)
     4.28538626E-05    2     1000039        35   # BR(~chi_30 -> ~G        H)
     1.84062093E-06    2     1000039        36   # BR(~chi_30 -> ~G        A)
#           BR         NDA      ID1       ID2       ID3
     1.88773809E-05    3     1000022        -2         2   # BR(~chi_30 -> ~chi_10 ub      u)
     2.25880286E-05    3     1000022        -1         1   # BR(~chi_30 -> ~chi_10 db      d)
     1.88773809E-05    3     1000022        -4         4   # BR(~chi_30 -> ~chi_10 cb      c)
     2.25880286E-05    3     1000022        -3         3   # BR(~chi_30 -> ~chi_10 sb      s)
     8.40626612E-05    3     1000022        -5         5   # BR(~chi_30 -> ~chi_10 bb      b)
     4.01015028E-06    3     1000022       -11        11   # BR(~chi_30 -> ~chi_10 e+      e-)
     4.01015028E-06    3     1000022       -13        13   # BR(~chi_30 -> ~chi_10 mu+     mu-)
     1.33535042E-05    3     1000022       -15        15   # BR(~chi_30 -> ~chi_10 tau+    tau-)
     1.09575258E-05    3     1000022       -12        12   # BR(~chi_30 -> ~chi_10 nu_eb   nu_e)
     1.09575258E-05    3     1000022       -14        14   # BR(~chi_30 -> ~chi_10 nu_mub  nu_mu)
     1.09575258E-05    3     1000022       -16        16   # BR(~chi_30 -> ~chi_10 nu_taub nu_tau)
     1.31627468E-02    3     1000023        -2         2   # BR(~chi_30 -> ~chi_20 ub      u)
     1.70451313E-02    3     1000023        -1         1   # BR(~chi_30 -> ~chi_20 db      d)
     1.31627468E-02    3     1000023        -4         4   # BR(~chi_30 -> ~chi_20 cb      c)
     1.70451313E-02    3     1000023        -3         3   # BR(~chi_30 -> ~chi_20 sb      s)
     1.40635775E-02    3     1000023        -5         5   # BR(~chi_30 -> ~chi_20 bb      b)
     3.89345891E-03    3     1000023       -11        11   # BR(~chi_30 -> ~chi_20 e+      e-)
     3.89345891E-03    3     1000023       -13        13   # BR(~chi_30 -> ~chi_20 mu+     mu-)
     3.82377606E-03    3     1000023       -15        15   # BR(~chi_30 -> ~chi_20 tau+    tau-)
     7.77583006E-03    3     1000023       -12        12   # BR(~chi_30 -> ~chi_20 nu_eb   nu_e)
     7.77583006E-03    3     1000023       -14        14   # BR(~chi_30 -> ~chi_20 nu_mub  nu_mu)
     7.77583006E-03    3     1000023       -16        16   # BR(~chi_30 -> ~chi_20 nu_taub nu_tau)
     1.12993207E-01    3     1000024        -2         1   # BR(~chi_30 -> ~chi_1+ ub      d)
     1.12993207E-01    3    -1000024        -1         2   # BR(~chi_30 -> ~chi_1- db      u)
     1.12993207E-01    3     1000024        -4         3   # BR(~chi_30 -> ~chi_1+ cb      s)
     1.12993207E-01    3    -1000024        -3         4   # BR(~chi_30 -> ~chi_1- sb      c)
     3.76643464E-02    3     1000024       -12        11   # BR(~chi_30 -> ~chi_1+ nu_eb   e-)
     3.76643464E-02    3    -1000024        12       -11   # BR(~chi_30 -> ~chi_1- nu_e    e+)
     3.76643464E-02    3     1000024       -14        13   # BR(~chi_30 -> ~chi_1+ nu_mub  mu-)
     3.76643464E-02    3    -1000024        14       -13   # BR(~chi_30 -> ~chi_1- nu_mu   mu+)
     3.72830327E-02    3     1000024       -16        15   # BR(~chi_30 -> ~chi_1+ nu_taub tau-)
     3.72830327E-02    3    -1000024        16       -15   # BR(~chi_30 -> ~chi_1- nu_tau  tau+)
     2.00239447E-08    3     1000021        -2         2   # BR(~chi_30 -> ~g      ub      u)
     4.69122286E-09    3     1000021        -1         1   # BR(~chi_30 -> ~g      db      d)
     2.00239447E-08    3     1000021        -4         4   # BR(~chi_30 -> ~g      cb      c)
     4.69122286E-09    3     1000021        -3         3   # BR(~chi_30 -> ~g      sb      s)
     2.89918385E-09    3     1000021        -5         5   # BR(~chi_30 -> ~g      bb      b)
#
#         PDG            Width
DECAY   1000035     3.40720396E+01   # neutralino4 decays
#          BR         NDA      ID1       ID2
     1.57987834E-04    2     1000022        23   # BR(~chi_40 -> ~chi_10   Z )
     2.52624080E-01    2     1000023        23   # BR(~chi_40 -> ~chi_20   Z )
     1.95409768E-04    2     1000025        23   # BR(~chi_40 -> ~chi_30   Z )
     2.47329535E-01    2     1000024       -24   # BR(~chi_40 -> ~chi_1+   W-)
     2.47329535E-01    2    -1000024        24   # BR(~chi_40 -> ~chi_1-   W+)
     1.04453121E-01    2     1000022        25   # BR(~chi_40 -> ~chi_10   h )
     3.39986826E-04    2     1000023        25   # BR(~chi_40 -> ~chi_20   h )
     1.47560331E-01    2     1000025        25   # BR(~chi_40 -> ~chi_30   h )
     2.37689810E-06    2     1000039        22   # BR(~chi_40 -> ~G        gam)
     7.63246820E-06    2     1000039        23   # BR(~chi_40 -> ~G        Z)
     1.65875562E-09    2     1000039        25   # BR(~chi_40 -> ~G        h)
     3.58136943E-09    2     1000039        35   # BR(~chi_40 -> ~G        H)
     9.73338018E-11    2     1000039        36   # BR(~chi_40 -> ~G        A)
#
#         PDG            Width
DECAY        25     4.22258861E-03   # h decays
#          BR         NDA      ID1       ID2
     6.02311370E-01    2           5        -5   # BR(h -> b       bb     )
     6.21756341E-02    2         -15        15   # BR(h -> tau+    tau-   )
     2.20074638E-04    2         -13        13   # BR(h -> mu+     mu-    )
     4.65635501E-04    2           3        -3   # BR(h -> s       sb     )
     2.00888122E-02    2           4        -4   # BR(h -> c       cb     )
     6.63437832E-02    2          21        21   # BR(h -> g       g      )
     2.30392818E-03    2          22        22   # BR(h -> gam     gam    )
     1.62506936E-03    2          22        23   # BR(h -> Z       gam    )
     2.16412870E-01    2          24       -24   # BR(h -> W+      W-     )
     2.80528223E-02    2          23        23   # BR(h -> Z       Z      )
#
#         PDG            Width
DECAY        35     3.78089674E+01   # H decays
#          BR         NDA      ID1       ID2
     1.46529240E-03    2           5        -5   # BR(H -> b       bb     )
     2.46434273E-04    2         -15        15   # BR(H -> tau+    tau-   )
     8.71236902E-07    2         -13        13   # BR(H -> mu+     mu-    )
     1.11550310E-06    2           3        -3   # BR(H -> s       sb     )
     1.00669153E-05    2           4        -4   # BR(H -> c       cb     )
     9.96074199E-01    2           6        -6   # BR(H -> t       tb     )
     7.97746747E-04    2          21        21   # BR(H -> g       g      )
     2.71824052E-06    2          22        22   # BR(H -> gam     gam    )
     1.16038282E-06    2          23        22   # BR(H -> Z       gam    )
     3.33332032E-04    2          24       -24   # BR(H -> W+      W-     )
     1.66211463E-04    2          23        23   # BR(H -> Z       Z      )
     9.00852081E-04    2          25        25   # BR(H -> h       h      )
     7.11085248E-24    2          36        36   # BR(H -> A       A      )
     2.89213472E-11    2          23        36   # BR(H -> Z       A      )
     6.41363872E-12    2          24       -37   # BR(H -> W+      H-     )
     6.41363872E-12    2         -24        37   # BR(H -> W-      H+     )
#
#         PDG            Width
DECAY        36     3.82379608E+01   # A decays
#          BR         NDA      ID1       ID2
     1.46820721E-03    2           5        -5   # BR(A -> b       bb     )
     2.43899418E-04    2         -15        15   # BR(A -> tau+    tau-   )
     8.62272551E-07    2         -13        13   # BR(A -> mu+     mu-    )
     1.13678187E-06    2           3        -3   # BR(A -> s       sb     )
     9.96183418E-06    2           4        -4   # BR(A -> c       cb     )
     9.97002933E-01    2           6        -6   # BR(A -> t       tb     )
     9.43682217E-04    2          21        21   # BR(A -> g       g      )
     3.12890055E-06    2          22        22   # BR(A -> gam     gam    )
     1.35297672E-06    2          23        22   # BR(A -> Z       gam    )
     3.24835338E-04    2          23        25   # BR(A -> Z       h      )
#
#         PDG            Width
DECAY        37     3.74471072E+01   # H+ decays
#          BR         NDA      ID1       ID2
     2.35145266E-06    2           4        -5   # BR(H+ -> c       bb     )
     2.49239669E-04    2         -15        16   # BR(H+ -> tau+    nu_tau )
     8.81152265E-07    2         -13        14   # BR(H+ -> mu+     nu_mu  )
     1.49494102E-08    2           2        -5   # BR(H+ -> u       bb     )
     5.45698463E-08    2           2        -3   # BR(H+ -> u       sb     )
     1.08732488E-05    2           4        -3   # BR(H+ -> c       sb     )
     9.99403661E-01    2           6        -5   # BR(H+ -> t       bb     )
     3.32923504E-04    2          24        25   # BR(H+ -> W+      h      )
     2.84995427E-13    2          24        36   # BR(H+ -> W+      A      )
