#
#                              ======================
#                              | THE SUSYHIT OUTPUT |
#                              ======================
#
#
#              ------------------------------------------------------
#              |     This is the output of the SUSY-HIT package     |
#              |  created by A.Djouadi, M.Muehlleitner and M.Spira. |
#              |  In case of problems with SUSY-HIT email to        |
#              |           margarete.muehlleitner@cern.ch           |
#              |           michael.spira@psi.ch                     |
#              |           abdelhak.djouadi@cern.ch                 |
#              ------------------------------------------------------
#
#              ------------------------------------------------------
#              |  SUSY Les Houches Accord - MSSM Spectrum + Decays  |
#              |              based on the decay programs           |
#              |                                                    |
#              |                     SDECAY 1.3b                    |
#              |                                                    |
#              |  Authors: M.Muhlleitner, A.Djouadi and Y.Mambrini  |
#              |  Ref.:    Comput.Phys.Commun.168(2005)46           |
#              |           [hep-ph/0311167]                         |
#              |                                                    |
#              |                     HDECAY 3.4                     |
#              |                                                    |
#              |  By: A.Djouadi,J.Kalinowski,M.Muhlleitner,M.Spira  |
#              |  Ref.:    Comput.Phys.Commun.108(1998)56           |
#              |           [hep-ph/9704448]                         |
#              |                                                    |
#              |                                                    |
#              |  If not stated otherwise all DRbar couplings and   |
#              |  soft SUSY breaking masses are given at the scale  |
#              |  Q=  0.50007559E+04
#              |                                                    |
#              ------------------------------------------------------
#
#
BLOCK DCINFO  # Decay Program information
     1   SDECAY/HDECAY # decay calculator
     2   1.3b  /3.4    # version number
#
BLOCK SPINFO  # Spectrum calculator information
     1    SOFTSUSY    # spectrum calculator                
     2    3.4.0       # version number                     
#
BLOCK MODSEL  # Model selection
     1     0   #  nonUniversal                                     
#
BLOCK SMINPUTS  # Standard Model inputs
         1     1.25778332E+02   # alpha_em^-1(M_Z)^MSbar
         2     1.16570000E-05   # G_F [GeV^-2]
         3     1.17200002E-01   # alpha_S(M_Z)^MSbar
         4     9.11876000E+01   # M_Z pole mass
         5     4.25000000E+00   # mb(mb)^MSbar
         6     1.72500000E+02   # mt pole mass
         7     1.77682000E+00   # mtau pole mass
#
BLOCK MINPAR  # Input parameters - minimal models
         3     1.00000000E+01   # tanb                
#
BLOCK EXTPAR  # Input parameters - non-minimal models
         0    -1.00000000E+00   # Set                 
         1     6.00000000E+01   # M_1(MX)             
         2     3.00000000E+03   # M_2(MX)             
         3     2.52553500E+03   # M_3(MX)             
        11     5.00000000E+03   # At(MX)              
        12     5.00000000E+03   # Ab(MX)              
        13     0.00000000E+00   # Atau(MX)            
        23    -6.67963000E+02   # mu(MX)              
        26     3.00000000E+03   # mA(pole)            
        31     5.00000000E+03   # meL(MX)             
        32     5.00000000E+03   # mmuL(MX)            
        33     5.00000000E+03   # mtauL(MX)           
        34     5.00000000E+03   # meR(MX)             
        35     5.00000000E+03   # mmuR(MX)            
        36     5.00000000E+03   # mtauR(MX)           
        41     5.00000000E+03   # mqL1(MX)            
        42     5.00000000E+03   # mqL2(MX)            
        43     5.00000000E+03   # mqL3(MX)            
        44     5.00000000E+03   # muR(MX)             
        45     5.00000000E+03   # mcR(MX)             
        46     5.00000000E+03   # mtR(MX)             
        47     5.00000000E+03   # mdR(MX)             
        48     5.00000000E+03   # msR(MX)             
        49     5.00000000E+03   # mbR(MX)             
#
BLOCK MASS  # Mass Spectrum
# PDG code           mass       particle
        24     8.00943716E+01   # W+
        25     1.24807693E+02   # h
        35     3.00008380E+03   # H
        36     2.99999874E+03   # A
        37     3.00137872E+03   # H+
         5     4.87878001E+00   # b-quark pole mass calculated from mb(mb)_Msbar
   1000001     5.08868890E+03   # ~d_L
   2000001     5.07092973E+03   # ~d_R
   1000002     5.08821999E+03   # ~u_L
   2000002     5.07063771E+03   # ~u_R
   1000003     5.08868890E+03   # ~s_L
   2000003     5.07092973E+03   # ~s_R
   1000004     5.08821999E+03   # ~c_L
   2000004     5.07063771E+03   # ~c_R
   1000005     5.03445120E+03   # ~b_1
   2000005     5.06923703E+03   # ~b_2
   1000006     4.92706677E+03   # ~t_1
   2000006     5.07725521E+03   # ~t_2
   1000011     5.01908641E+03   # ~e_L
   2000011     5.00593484E+03   # ~e_R
   1000012     5.01813719E+03   # ~nu_eL
   1000013     5.01908641E+03   # ~mu_L
   2000013     5.00593484E+03   # ~mu_R
   1000014     5.01813719E+03   # ~nu_muL
   1000015     5.00471932E+03   # ~tau_1
   2000015     5.01866808E+03   # ~tau_2
   1000016     5.01758775E+03   # ~nu_tauL
   1000021     2.90000046E+03   # ~g
   1000022     6.02749270E+01   # ~chi_10
   1000023     6.99990544E+02   # ~chi_20
   1000025    -7.02215390E+02   # ~chi_30
   1000035     3.07418333E+03   # ~chi_40
   1000024     7.00000860E+02   # ~chi_1+
   1000037     3.07435086E+03   # ~chi_2+
#
BLOCK NMIX  # Neutralino Mixing Matrix
  1  1     9.97979443E-01   # N_11
  1  2     2.19054971E-04   # N_12
  1  3    -6.35271625E-02   # N_13
  1  4     1.13242211E-03   # N_14
  2  1     4.41403420E-02   # N_21
  2  2     2.05649998E-02   # N_22
  2  3     7.06086279E-01   # N_23
  2  4     7.06449487E-01   # N_24
  3  1    -4.57002028E-02   # N_31
  3  2     1.61066930E-02   # N_32
  3  3    -7.05263464E-01   # N_33
  3  4     7.07287432E-01   # N_34
  4  1    -3.90412577E-04   # N_41
  4  2     9.99658745E-01   # N_42
  4  3    -3.14836054E-03   # N_43
  4  4    -2.59292916E-02   # N_44
#
BLOCK UMIX  # Chargino Mixing Matrix U
  1  1     4.46145625E-03   # U_11
  1  2     9.99990048E-01   # U_12
  2  1    -9.99990048E-01   # U_21
  2  2     4.46145625E-03   # U_22
#
BLOCK VMIX  # Chargino Mixing Matrix V
  1  1     3.66960286E-02   # V_11
  1  2    -9.99326474E-01   # V_12
  2  1    -9.99326474E-01   # V_21
  2  2    -3.66960286E-02   # V_22
#
BLOCK STOPMIX  # Stop Mixing Matrix
  1  1    -5.01301799E-01   # cos(theta_t)
  1  2     8.65272504E-01   # sin(theta_t)
  2  1    -8.65272504E-01   # -sin(theta_t)
  2  2    -5.01301799E-01   # cos(theta_t)
#
BLOCK SBOTMIX  # Sbottom Mixing Matrix
  1  1     9.98217450E-01   # cos(theta_b)
  1  2    -5.96818441E-02   # sin(theta_b)
  2  1     5.96818441E-02   # -sin(theta_b)
  2  2     9.98217450E-01   # cos(theta_b)
#
BLOCK STAUMIX  # Stau Mixing Matrix
  1  1    -7.99552614E-02   # cos(theta_tau)
  1  2     9.96798453E-01   # sin(theta_tau)
  2  1    -9.96798453E-01   # -sin(theta_tau)
  2  2    -7.99552614E-02   # cos(theta_tau)
#
BLOCK ALPHA  # Higgs mixing
          -1.05488994E-01   # Mixing angle in the neutral Higgs boson sector
#
BLOCK HMIX Q=  5.00075590E+03  # DRbar Higgs Parameters
         1    -6.80247376E+02   # mu(Q)MSSM           
         2     9.46876194E+00   # tan                 
         3     2.41798406E+02   # higgs               
         4     8.61075892E+06   # mA^2(Q)MSSM         
#
BLOCK GAUGE Q=  5.00075590E+03  # The gauge couplings
     1     3.70861009E-01   # gprime(Q) DRbar
     2     6.32893775E-01   # g(Q) DRbar
     3     9.92993449E-01   # g3(Q) DRbar
#
BLOCK AU Q=  5.00075590E+03  # The trilinear couplings
  1  1     5.00000002E+03   # A_u(Q) DRbar
  2  2     5.00000002E+03   # A_c(Q) DRbar
  3  3     5.00000003E+03   # A_t(Q) DRbar
#
BLOCK AD Q=  5.00075590E+03  # The trilinear couplings
  1  1     5.00000001E+03   # A_d(Q) DRbar
  2  2     5.00000001E+03   # A_s(Q) DRbar
  3  3     5.00000001E+03   # A_b(Q) DRbar
#
BLOCK AE Q=  5.00075590E+03  # The trilinear couplings
  1  1     0.00000000E+00   # A_e(Q) DRbar
  2  2     3.06832278E-07   # A_mu(Q) DRbar
  3  3     3.06993940E-07   # A_tau(Q) DRbar
#
BLOCK Yu Q=  5.00075590E+03  # The Yukawa couplings
  1  1     0.00000000E+00   # y_u(Q) DRbar
  2  2     0.00000000E+00   # y_c(Q) DRbar
  3  3     8.21691901E-01   # y_t(Q) DRbar
#
BLOCK Yd Q=  5.00075590E+03  # The Yukawa couplings
  1  1     0.00000000E+00   # y_d(Q) DRbar
  2  2     0.00000000E+00   # y_s(Q) DRbar
  3  3     1.30729839E-01   # y_b(Q) DRbar
#
BLOCK Ye Q=  5.00075590E+03  # The Yukawa couplings
  1  1     0.00000000E+00   # y_e(Q) DRbar
  2  2     0.00000000E+00   # y_mu(Q) DRbar
  3  3     9.70083020E-02   # y_tau(Q) DRbar
#
BLOCK MSOFT Q=  5.00075590E+03  # The soft SUSY breaking masses at the scale Q
         1     6.00000000E+01   # M_1(Q)              
         2     3.00000000E+03   # M_2(Q)              
         3     2.52553500E+03   # M_3(Q)              
        21     8.25222519E+06   # mH1^2(Q)            
        22     1.12431166E+05   # mH2^2(Q)            
        31     5.00000000E+03   # meL(Q)              
        32     5.00000000E+03   # mmuL(Q)             
        33     5.00000000E+03   # mtauL(Q)            
        34     5.00000000E+03   # meR(Q)              
        35     5.00000000E+03   # mmuR(Q)             
        36     5.00000000E+03   # mtauR(Q)            
        41     4.99999999E+03   # mqL1(Q)             
        42     4.99999999E+03   # mqL2(Q)             
        43     4.99999999E+03   # mqL3(Q)             
        44     4.99999999E+03   # muR(Q)              
        45     4.99999999E+03   # mcR(Q)              
        46     4.99999999E+03   # mtR(Q)              
        47     4.99999999E+03   # mdR(Q)              
        48     4.99999999E+03   # msR(Q)              
        49     4.99999999E+03   # mbR(Q)              
#
#
#
#                             =================
#                             |The decay table|
#                             =================
#
# - The QCD corrections to the decays gluino -> squark  + quark
#                                     squark -> gaugino + quark_prime
#                                     squark -> squark_prime + Higgs
#                                     squark -> gluino  + quark
#   are included.
#
# - The multi-body decays for the inos, stops and sbottoms are included.
#
# - The loop induced decays for the gluino, neutralinos and stops
#   are included.
#
# - The SUSY decays of the top quark are included.
#
#
#         PDG            Width
DECAY         6     1.40370648E+00   # top decays
#          BR         NDA      ID1       ID2
     1.00000000E+00    2           5        24   # BR(t ->  b    W+)
#
#         PDG            Width
DECAY   1000021     1.46952164E-02   # gluino decays
#          BR         NDA      ID1       ID2
     7.98107629E-07    2     1000022        21   # BR(~g -> ~chi_10 g)
     3.26371089E-03    2     1000023        21   # BR(~g -> ~chi_20 g)
     3.18935331E-03    2     1000025        21   # BR(~g -> ~chi_30 g)
#           BR         NDA      ID1       ID2       ID3
     1.15365284E-02    3     1000022         1        -1   # BR(~g -> ~chi_10 d  db)
     2.27987578E-05    3     1000023         1        -1   # BR(~g -> ~chi_20 d  db)
     2.59114006E-05    3     1000025         1        -1   # BR(~g -> ~chi_30 d  db)
     3.93477589E-02    3     1000022         2        -2   # BR(~g -> ~chi_10 u  ub)
     1.05645007E-04    3     1000023         2        -2   # BR(~g -> ~chi_20 u  ub)
     3.67527403E-05    3     1000025         2        -2   # BR(~g -> ~chi_30 u  ub)
     1.15365284E-02    3     1000022         3        -3   # BR(~g -> ~chi_10 s  sb)
     2.27987578E-05    3     1000023         3        -3   # BR(~g -> ~chi_20 s  sb)
     2.59114006E-05    3     1000025         3        -3   # BR(~g -> ~chi_30 s  sb)
     3.93477589E-02    3     1000022         4        -4   # BR(~g -> ~chi_10 c  cb)
     1.05645007E-04    3     1000023         4        -4   # BR(~g -> ~chi_20 c  cb)
     3.67527403E-05    3     1000025         4        -4   # BR(~g -> ~chi_30 c  cb)
     1.17467839E-02    3     1000022         5        -5   # BR(~g -> ~chi_10 b  bb)
     5.19758220E-03    3     1000023         5        -5   # BR(~g -> ~chi_20 b  bb)
     5.16953676E-03    3     1000025         5        -5   # BR(~g -> ~chi_30 b  bb)
     4.10614587E-02    3     1000022         6        -6   # BR(~g -> ~chi_10 t  tb)
     2.05977823E-01    3     1000023         6        -6   # BR(~g -> ~chi_20 t  tb)
     1.97491487E-01    3     1000025         6        -6   # BR(~g -> ~chi_30 t  tb)
     5.76275585E-05    3     1000024         1        -2   # BR(~g -> ~chi_1+ d  ub)
     5.76275585E-05    3    -1000024         2        -1   # BR(~g -> ~chi_1- u  db)
     5.76275585E-05    3     1000024         3        -4   # BR(~g -> ~chi_1+ s  cb)
     5.76275585E-05    3    -1000024         4        -3   # BR(~g -> ~chi_1- c  sb)
     2.12260083E-01    3     1000024         5        -6   # BR(~g -> ~chi_1+ b  tb)
     2.12260083E-01    3    -1000024         6        -5   # BR(~g -> ~chi_1- t  bb)
#
#         PDG            Width
DECAY   1000006     2.59356678E+02   # stop1 decays
#          BR         NDA      ID1       ID2
     3.43516959E-02    2     1000022         6   # BR(~t_1 -> ~chi_10 t )
     1.22750460E-01    2     1000023         6   # BR(~t_1 -> ~chi_20 t )
     1.17381125E-01    2     1000025         6   # BR(~t_1 -> ~chi_30 t )
     7.72095664E-03    2     1000035         6   # BR(~t_1 -> ~chi_40 t )
     1.80983045E-01    2     1000024         5   # BR(~t_1 -> ~chi_1+ b )
     1.53890770E-02    2     1000037         5   # BR(~t_1 -> ~chi_2+ b )
     5.21423641E-01    2     1000021         6   # BR(~t_1 -> ~g      t )
#
#         PDG            Width
DECAY   2000006     2.67470514E+02   # stop2 decays
#          BR         NDA      ID1       ID2
     1.25820558E-02    2     1000022         6   # BR(~t_2 -> ~chi_10 t )
     1.20782357E-01    2     1000023         6   # BR(~t_2 -> ~chi_20 t )
     1.26591867E-01    2     1000025         6   # BR(~t_2 -> ~chi_30 t )
     2.13554338E-02    2     1000035         6   # BR(~t_2 -> ~chi_40 t )
     6.90934545E-02    2     1000024         5   # BR(~t_2 -> ~chi_1+ b )
     4.25131651E-02    2     1000037         5   # BR(~t_2 -> ~chi_2+ b )
     6.02722933E-01    2     1000021         6   # BR(~t_2 -> ~g      t )
     1.00194461E-03    2     1000006        25   # BR(~t_2 -> ~t_1    h )
     3.35678837E-03    2     1000006        23   # BR(~t_2 -> ~t_1    Z )
#
#         PDG            Width
DECAY   1000005     2.41791258E+02   # sbottom1 decays
#          BR         NDA      ID1       ID2
     3.18140829E-03    2     1000022         5   # BR(~b_1 -> ~chi_10 b )
     3.38136772E-03    2     1000023         5   # BR(~b_1 -> ~chi_20 b )
     3.34183427E-03    2     1000025         5   # BR(~b_1 -> ~chi_30 b )
     3.16108485E-02    2     1000035         5   # BR(~b_1 -> ~chi_40 b )
     2.66383085E-01    2    -1000024         6   # BR(~b_1 -> ~chi_1- t )
     6.34801493E-02    2    -1000037         6   # BR(~b_1 -> ~chi_2- t )
     6.26434545E-01    2     1000021         5   # BR(~b_1 -> ~g      b )
     2.18676256E-03    2     1000006       -24   # BR(~b_1 -> ~t_1    W-)
#
#         PDG            Width
DECAY   2000005     1.60956331E+02   # sbottom2 decays
#          BR         NDA      ID1       ID2
     1.82019428E-02    2     1000022         5   # BR(~b_2 -> ~chi_10 b )
     5.16613966E-03    2     1000023         5   # BR(~b_2 -> ~chi_20 b )
     5.25826671E-03    2     1000025         5   # BR(~b_2 -> ~chi_30 b )
     1.57983989E-04    2     1000035         5   # BR(~b_2 -> ~chi_40 b )
     1.15225596E-02    2    -1000024         6   # BR(~b_2 -> ~chi_1- t )
     3.17272875E-04    2    -1000037         6   # BR(~b_2 -> ~chi_2- t )
     9.59324466E-01    2     1000021         5   # BR(~b_2 -> ~g      b )
     5.13683691E-05    2     1000006       -24   # BR(~b_2 -> ~t_1    W-)
#
#         PDG            Width
DECAY   1000002     1.80649532E+02   # sup_L decays
#          BR         NDA      ID1       ID2
     4.11262149E-03    2     1000022         2   # BR(~u_L -> ~chi_10 u)
     8.87546938E-05    2     1000023         2   # BR(~u_L -> ~chi_20 u)
     5.37029805E-06    2     1000025         2   # BR(~u_L -> ~chi_30 u)
     4.39604784E-02    2     1000035         2   # BR(~u_L -> ~chi_40 u)
     2.80600138E-04    2     1000024         1   # BR(~u_L -> ~chi_1+ d)
     8.78650189E-02    2     1000037         1   # BR(~u_L -> ~chi_2+ d)
     8.63687156E-01    2     1000021         2   # BR(~u_L -> ~g      u)
#
#         PDG            Width
DECAY   2000002     1.66312520E+02   # sup_R decays
#          BR         NDA      ID1       ID2
     7.10614789E-02    2     1000022         2   # BR(~u_R -> ~chi_10 u)
     1.34088650E-04    2     1000023         2   # BR(~u_R -> ~chi_20 u)
     1.43698475E-04    2     1000025         2   # BR(~u_R -> ~chi_30 u)
     4.39604744E-09    2     1000035         2   # BR(~u_R -> ~chi_40 u)
     9.28660730E-01    2     1000021         2   # BR(~u_R -> ~g      u)
#
#         PDG            Width
DECAY   1000001     1.80666585E+02   # sdown_L decays
#          BR         NDA      ID1       ID2
     4.09417682E-03    2     1000022         1   # BR(~d_L -> ~chi_10 d)
     1.48617206E-05    2     1000023         1   # BR(~d_L -> ~chi_20 d)
     6.52752923E-05    2     1000025         1   # BR(~d_L -> ~chi_30 d)
     4.39830638E-02    2     1000035         1   # BR(~d_L -> ~chi_40 d)
     4.14768661E-06    2    -1000024         2   # BR(~d_L -> ~chi_1- u)
     8.80000953E-02    2    -1000037         2   # BR(~d_L -> ~chi_2- u)
     8.63838379E-01    2     1000021         1   # BR(~d_L -> ~g      d)
#
#         PDG            Width
DECAY   2000001     1.57440424E+02   # sdown_R decays
#          BR         NDA      ID1       ID2
     1.87675932E-02    2     1000022         1   # BR(~d_R -> ~chi_10 d)
     3.54134448E-05    2     1000023         1   # BR(~d_R -> ~chi_20 d)
     3.79514461E-05    2     1000025         1   # BR(~d_R -> ~chi_30 d)
     1.16116492E-09    2     1000035         1   # BR(~d_R -> ~chi_40 d)
     9.81159041E-01    2     1000021         1   # BR(~d_R -> ~g      d)
#
#         PDG            Width
DECAY   1000004     1.80649532E+02   # scharm_L decays
#          BR         NDA      ID1       ID2
     4.11262149E-03    2     1000022         4   # BR(~c_L -> ~chi_10 c)
     8.87546938E-05    2     1000023         4   # BR(~c_L -> ~chi_20 c)
     5.37029805E-06    2     1000025         4   # BR(~c_L -> ~chi_30 c)
     4.39604784E-02    2     1000035         4   # BR(~c_L -> ~chi_40 c)
     2.80600138E-04    2     1000024         3   # BR(~c_L -> ~chi_1+ s)
     8.78650189E-02    2     1000037         3   # BR(~c_L -> ~chi_2+ s)
     8.63687156E-01    2     1000021         4   # BR(~c_L -> ~g      c)
#
#         PDG            Width
DECAY   2000004     1.66312520E+02   # scharm_R decays
#          BR         NDA      ID1       ID2
     7.10614789E-02    2     1000022         4   # BR(~c_R -> ~chi_10 c)
     1.34088650E-04    2     1000023         4   # BR(~c_R -> ~chi_20 c)
     1.43698475E-04    2     1000025         4   # BR(~c_R -> ~chi_30 c)
     4.39604744E-09    2     1000035         4   # BR(~c_R -> ~chi_40 c)
     9.28660730E-01    2     1000021         4   # BR(~c_R -> ~g      c)
#
#         PDG            Width
DECAY   1000003     1.80666585E+02   # sstrange_L decays
#          BR         NDA      ID1       ID2
     4.09417682E-03    2     1000022         3   # BR(~s_L -> ~chi_10 s)
     1.48617206E-05    2     1000023         3   # BR(~s_L -> ~chi_20 s)
     6.52752923E-05    2     1000025         3   # BR(~s_L -> ~chi_30 s)
     4.39830638E-02    2     1000035         3   # BR(~s_L -> ~chi_40 s)
     4.14768661E-06    2    -1000024         4   # BR(~s_L -> ~chi_1- c)
     8.80000953E-02    2    -1000037         4   # BR(~s_L -> ~chi_2- c)
     8.63838379E-01    2     1000021         3   # BR(~s_L -> ~g      s)
#
#         PDG            Width
DECAY   2000003     1.57440424E+02   # sstrange_R decays
#          BR         NDA      ID1       ID2
     1.87675932E-02    2     1000022         3   # BR(~s_R -> ~chi_10 s)
     3.54134448E-05    2     1000023         3   # BR(~s_R -> ~chi_20 s)
     3.79514461E-05    2     1000025         3   # BR(~s_R -> ~chi_30 s)
     1.16116492E-09    2     1000035         3   # BR(~s_R -> ~chi_40 s)
     9.81159041E-01    2     1000021         3   # BR(~s_R -> ~g      s)
#
#         PDG            Width
DECAY   1000011     3.02988320E+01   # selectron_L decays
#          BR         NDA      ID1       ID2
     2.25821090E-01    2     1000022        11   # BR(~e_L -> ~chi_10 e-)
     1.36804629E-03    2     1000023        11   # BR(~e_L -> ~chi_20 e-)
     7.22648433E-05    2     1000025        11   # BR(~e_L -> ~chi_30 e-)
     2.57401213E-01    2     1000035        11   # BR(~e_L -> ~chi_40 e-)
     2.52628431E-05    2    -1000024        12   # BR(~e_L -> ~chi_1- nu_e)
     5.15312123E-01    2    -1000037        12   # BR(~e_L -> ~chi_2- nu_e)
#
#         PDG            Width
DECAY   2000011     2.73825620E+01   # selectron_R decays
#          BR         NDA      ID1       ID2
     9.96118165E-01    2     1000022        11   # BR(~e_R -> ~chi_10 e-)
     1.87375676E-03    2     1000023        11   # BR(~e_R -> ~chi_20 e-)
     2.00801885E-03    2     1000025        11   # BR(~e_R -> ~chi_30 e-)
     5.91613915E-08    2     1000035        11   # BR(~e_R -> ~chi_40 e-)
#
#         PDG            Width
DECAY   1000013     3.02988320E+01   # smuon_L decays
#          BR         NDA      ID1       ID2
     2.25821090E-01    2     1000022        13   # BR(~mu_L -> ~chi_10 mu-)
     1.36804629E-03    2     1000023        13   # BR(~mu_L -> ~chi_20 mu-)
     7.22648433E-05    2     1000025        13   # BR(~mu_L -> ~chi_30 mu-)
     2.57401213E-01    2     1000035        13   # BR(~mu_L -> ~chi_40 mu-)
     2.52628431E-05    2    -1000024        14   # BR(~mu_L -> ~chi_1- nu_mu)
     5.15312123E-01    2    -1000037        14   # BR(~mu_L -> ~chi_2- nu_mu)
#
#         PDG            Width
DECAY   2000013     2.73825620E+01   # smuon_R decays
#          BR         NDA      ID1       ID2
     9.96118165E-01    2     1000022        13   # BR(~mu_R -> ~chi_10 mu-)
     1.87375676E-03    2     1000023        13   # BR(~mu_R -> ~chi_20 mu-)
     2.00801885E-03    2     1000025        13   # BR(~mu_R -> ~chi_30 mu-)
     5.91613915E-08    2     1000035        13   # BR(~mu_R -> ~chi_40 mu-)
#
#         PDG            Width
DECAY   1000015     2.91933208E+01   # stau_1 decays
#          BR         NDA      ID1       ID2
     9.30632904E-01    2     1000022        15   # BR(~tau_1 -> ~chi_10  tau-)
     1.70506936E-02    2     1000023        15   # BR(~tau_1 -> ~chi_20  tau-)
     1.65280439E-02    2     1000025        15   # BR(~tau_1 -> ~chi_30  tau-)
     1.66259497E-03    2     1000035        15   # BR(~tau_1 -> ~chi_40  tau-)
     3.07974759E-02    2    -1000024        16   # BR(~tau_1 -> ~chi_1-  nu_tau)
     3.32828770E-03    2    -1000037        16   # BR(~tau_1 -> ~chi_2-  nu_tau)
#
#         PDG            Width
DECAY   2000015     3.11779575E+01   # stau_2 decays
#          BR         NDA      ID1       ID2
     2.22938868E-01    2     1000022        15   # BR(~tau_2 -> ~chi_10  tau-)
     1.58575570E-02    2     1000023        15   # BR(~tau_2 -> ~chi_20  tau-)
     1.51338497E-02    2     1000025        15   # BR(~tau_2 -> ~chi_30  tau-)
     2.48500614E-01    2     1000035        15   # BR(~tau_2 -> ~chi_40  tau-)
     7.51886018E-05    2    -1000024        16   # BR(~tau_2 -> ~chi_1-  nu_tau)
     4.97493922E-01    2    -1000037        16   # BR(~tau_2 -> ~chi_2-  nu_tau)
#
#         PDG            Width
DECAY   1000012     3.03019245E+01   # snu_eL decays
#          BR         NDA      ID1       ID2
     2.25417310E-01    2     1000022        12   # BR(~nu_eL -> ~chi_10 nu_e)
     1.78218595E-05    2     1000023        12   # BR(~nu_eL -> ~chi_20 nu_e)
     1.16650536E-03    2     1000025        12   # BR(~nu_eL -> ~chi_30 nu_e)
     2.57444931E-01    2     1000035        12   # BR(~nu_eL -> ~chi_40 nu_e)
     1.70857518E-03    2     1000024        11   # BR(~nu_eL -> ~chi_1+ e-)
     5.14244856E-01    2     1000037        11   # BR(~nu_eL -> ~chi_2+ e-)
#
#         PDG            Width
DECAY   1000014     3.03019245E+01   # snu_muL decays
#          BR         NDA      ID1       ID2
     2.25417310E-01    2     1000022        14   # BR(~nu_muL -> ~chi_10 nu_mu)
     1.78218595E-05    2     1000023        14   # BR(~nu_muL -> ~chi_20 nu_mu)
     1.16650536E-03    2     1000025        14   # BR(~nu_muL -> ~chi_30 nu_mu)
     2.57444931E-01    2     1000035        14   # BR(~nu_muL -> ~chi_40 nu_mu)
     1.70857518E-03    2     1000024        13   # BR(~nu_muL -> ~chi_1+ mu-)
     5.14244856E-01    2     1000037        13   # BR(~nu_muL -> ~chi_2+ mu-)
#
#         PDG            Width
DECAY   1000016     3.11956333E+01   # snu_tauL decays
#          BR         NDA      ID1       ID2
     2.18935449E-01    2     1000022        16   # BR(~nu_tauL -> ~chi_10 nu_tau)
     1.73092437E-05    2     1000023        16   # BR(~nu_tauL -> ~chi_20 nu_tau)
     1.13295273E-03    2     1000025        16   # BR(~nu_tauL -> ~chi_30 nu_tau)
     2.49976339E-01    2     1000035        16   # BR(~nu_tauL -> ~chi_40 nu_tau)
     3.06121519E-02    2     1000024        15   # BR(~nu_tauL -> ~chi_1+ tau-)
     4.99325798E-01    2     1000037        15   # BR(~nu_tauL -> ~chi_2+ tau-)
#
#         PDG            Width
DECAY   1000024     4.20375226E-01   # chargino1+ decays
#          BR         NDA      ID1       ID2
     1.00000000E+00    2     1000022        24   # BR(~chi_1+ -> ~chi_10  W+)
#
#         PDG            Width
DECAY   1000037     2.14563223E+01   # chargino2+ decays
#          BR         NDA      ID1       ID2
     2.53433882E-01    2     1000024        23   # BR(~chi_2+ -> ~chi_1+  Z )
     1.77992727E-04    2     1000022        24   # BR(~chi_2+ -> ~chi_10  W+)
     2.44561679E-01    2     1000023        24   # BR(~chi_2+ -> ~chi_20  W+)
     2.44269330E-01    2     1000025        24   # BR(~chi_2+ -> ~chi_30  W+)
     2.57554553E-01    2     1000024        25   # BR(~chi_2+ -> ~chi_1+  h )
     2.56361337E-06    2     1000022        37   # BR(~chi_2+ -> ~chi_10  H+)
#
#         PDG            Width
DECAY   1000022     0.00000000E+00   # neutralino1 decays
#
#         PDG            Width
DECAY   1000023     4.34117535E-01   # neutralino2 decays
#          BR         NDA      ID1       ID2
     5.22419789E-01    2     1000022        23   # BR(~chi_20 -> ~chi_10   Z )
     4.77580211E-01    2     1000022        25   # BR(~chi_20 -> ~chi_10   h )
#
#         PDG            Width
DECAY   1000025     4.31988440E-01   # neutralino3 decays
#          BR         NDA      ID1       ID2
     4.83898166E-01    2     1000022        23   # BR(~chi_30 -> ~chi_10   Z )
     5.16101834E-01    2     1000022        25   # BR(~chi_30 -> ~chi_10   h )
#
#         PDG            Width
DECAY   1000035     2.14714096E+01   # neutralino4 decays
#          BR         NDA      ID1       ID2
     2.28874705E-05    2     1000022        23   # BR(~chi_40 -> ~chi_10   Z )
     9.62863255E-02    2     1000023        23   # BR(~chi_40 -> ~chi_20   Z )
     1.56539151E-01    2     1000025        23   # BR(~chi_40 -> ~chi_30   Z )
     2.45012487E-01    2     1000024       -24   # BR(~chi_40 -> ~chi_1+   W-)
     2.45012487E-01    2    -1000024        24   # BR(~chi_40 -> ~chi_1-   W+)
     1.52162183E-04    2     1000022        25   # BR(~chi_40 -> ~chi_10   h )
     2.44987327E-06    2     1000022        35   # BR(~chi_40 -> ~chi_10   H )
     2.78956497E-07    2     1000022        36   # BR(~chi_40 -> ~chi_10   A )
     1.60399041E-01    2     1000023        25   # BR(~chi_40 -> ~chi_20   h )
     9.65727292E-02    2     1000025        25   # BR(~chi_40 -> ~chi_30   h )
#
#         PDG            Width
DECAY        25     4.06269342E-03   # h decays
#          BR         NDA      ID1       ID2
     6.07627793E-01    2           5        -5   # BR(h -> b       bb     )
     6.38636957E-02    2         -15        15   # BR(h -> tau+    tau-   )
     2.26100552E-04    2         -13        13   # BR(h -> mu+     mu-    )
     4.79293775E-04    2           3        -3   # BR(h -> s       sb     )
     2.07674692E-02    2           4        -4   # BR(h -> c       cb     )
     6.72180369E-02    2          21        21   # BR(h -> g       g      )
     2.31150107E-03    2          22        22   # BR(h -> gam     gam    )
     1.49351958E-03    2          22        23   # BR(h -> Z       gam    )
     2.10800385E-01    2          24       -24   # BR(h -> W+      W-     )
     2.51313680E-02    2          23        23   # BR(h -> Z       Z      )
     8.08373486E-05    2     1000022   1000022   # BR(h -> ~chi_10 ~chi_10)
#
#         PDG            Width
DECAY        35     8.48013325E+00   # H decays
#          BR         NDA      ID1       ID2
     3.78114451E-01    2           5        -5   # BR(H -> b       bb     )
     6.56810856E-02    2         -15        15   # BR(H -> tau+    tau-   )
     2.32253536E-04    2         -13        13   # BR(H -> mu+     mu-    )
     2.84707192E-04    2           3        -3   # BR(H -> s       sb     )
     1.59338395E-06    2           4        -4   # BR(H -> c       cb     )
     1.59191679E-01    2           6        -6   # BR(H -> t       tb     )
     5.29317295E-05    2          21        21   # BR(H -> g       g      )
     1.84894753E-07    2          22        22   # BR(H -> gam     gam    )
     9.39803719E-08    2          23        22   # BR(H -> Z       gam    )
     7.50231335E-05    2          24       -24   # BR(H -> W+      W-     )
     3.74640833E-05    2          23        23   # BR(H -> Z       Z      )
     2.74226684E-04    2          25        25   # BR(H -> h       h      )
     6.13038306E-24    2          36        36   # BR(H -> A       A      )
     7.22726297E-19    2          23        36   # BR(H -> Z       A      )
     2.81398587E-03    2     1000024  -1000024   # BR(H -> ~chi_1+ ~chi_1-)
     3.48071572E-03    2     1000022   1000022   # BR(H -> ~chi_10 ~chi_10)
     1.48490816E-05    2     1000023   1000023   # BR(H -> ~chi_20 ~chi_20)
     1.35562938E-03    2     1000025   1000025   # BR(H -> ~chi_30 ~chi_30)
     2.33774128E-01    2     1000022   1000023   # BR(H -> ~chi_10 ~chi_20)
     1.53094639E-01    2     1000022   1000025   # BR(H -> ~chi_10 ~chi_30)
     1.52035830E-03    2     1000023   1000025   # BR(H -> ~chi_20 ~chi_30)
#
#         PDG            Width
DECAY        36     8.49013855E+00   # A decays
#          BR         NDA      ID1       ID2
     3.77797129E-01    2           5        -5   # BR(A -> b       bb     )
     6.56056418E-02    2         -15        15   # BR(A -> tau+    tau-   )
     2.31986436E-04    2         -13        13   # BR(A -> mu+     mu-    )
     2.84587684E-04    2           3        -3   # BR(A -> s       sb     )
     1.59793020E-06    2           4        -4   # BR(A -> c       cb     )
     1.59557799E-01    2           6        -6   # BR(A -> t       tb     )
     1.57882313E-04    2          21        21   # BR(A -> g       g      )
     5.99922521E-07    2          22        22   # BR(A -> gam     gam    )
     1.91178261E-07    2          23        22   # BR(A -> Z       gam    )
     7.46510436E-05    2          23        25   # BR(A -> Z       h      )
     3.41320270E-03    2     1000024  -1000024   # BR(A -> ~chi_1+ ~chi_1-)
     3.50869148E-03    2     1000022   1000022   # BR(A -> ~chi_10 ~chi_10)
     1.23992827E-05    2     1000023   1000023   # BR(A -> ~chi_20 ~chi_20)
     2.65470309E-03    2     1000025   1000025   # BR(A -> ~chi_30 ~chi_30)
     1.55719213E-01    2     1000022   1000023   # BR(A -> ~chi_10 ~chi_20)
     2.30150247E-01    2     1000022   1000025   # BR(A -> ~chi_10 ~chi_30)
     8.29478199E-04    2     1000023   1000025   # BR(A -> ~chi_20 ~chi_30)
#
#         PDG            Width
DECAY        37     8.45276217E+00   # H+ decays
#          BR         NDA      ID1       ID2
     6.08282792E-04    2           4        -5   # BR(H+ -> c       bb     )
     6.59260481E-02    2         -15        16   # BR(H+ -> tau+    nu_tau )
     2.33119417E-04    2         -13        14   # BR(H+ -> mu+     nu_mu  )
     3.89298962E-06    2           2        -5   # BR(H+ -> u       bb     )
     1.36786633E-05    2           2        -3   # BR(H+ -> u       sb     )
     2.82876301E-04    2           4        -3   # BR(H+ -> c       sb     )
     5.37118653E-01    2           6        -5   # BR(H+ -> t       bb     )
     7.51330218E-05    2          24        25   # BR(H+ -> W+      h      )
     7.78007374E-13    2          24        36   # BR(H+ -> W+      A      )
     3.93816511E-01    2     1000024   1000022   # BR(H+ -> ~chi_1+ ~chi_10)
     1.86739491E-03    2     1000024   1000023   # BR(H+ -> ~chi_1+ ~chi_20)
     5.44097294E-05    2     1000024   1000025   # BR(H+ -> ~chi_1+ ~chi_30)
