#
#                              ======================
#                              | THE SUSYHIT OUTPUT |
#                              ======================
#
#
#              ------------------------------------------------------
#              |     This is the output of the SUSY-HIT package     |
#              |  created by A.Djouadi, M.Muehlleitner and M.Spira. |
#              |  In case of problems with SUSY-HIT email to        |
#              |           margarete.muehlleitner@cern.ch           |
#              |           michael.spira@psi.ch                     |
#              |           abdelhak.djouadi@cern.ch                 |
#              ------------------------------------------------------
#
#              ------------------------------------------------------
#              |  SUSY Les Houches Accord - MSSM Spectrum + Decays  |
#              |              based on the decay programs           |
#              |                                                    |
#              |                     SDECAY 1.3b                    |
#              |                                                    |
#              |  Authors: M.Muhlleitner, A.Djouadi and Y.Mambrini  |
#              |  Ref.:    Comput.Phys.Commun.168(2005)46           |
#              |           [hep-ph/0311167]                         |
#              |                                                    |
#              |                     HDECAY 3.4                     |
#              |                                                    |
#              |  By: A.Djouadi,J.Kalinowski,M.Muhlleitner,M.Spira  |
#              |  Ref.:    Comput.Phys.Commun.108(1998)56           |
#              |           [hep-ph/9704448]                         |
#              |                                                    |
#              |                                                    |
#              |  If not stated otherwise all DRbar couplings and   |
#              |  soft SUSY breaking masses are given at the scale  |
#              |  Q=  0.50007049E+04
#              |                                                    |
#              ------------------------------------------------------
#
#
BLOCK DCINFO  # Decay Program information
     1   SDECAY/HDECAY # decay calculator
     2   1.3b  /3.4    # version number
#
BLOCK SPINFO  # Spectrum calculator information
     1    SOFTSUSY    # spectrum calculator                
     2    3.4.0       # version number                     
#
BLOCK MODSEL  # Model selection
     1     0   #  nonUniversal                                     
#
BLOCK SMINPUTS  # Standard Model inputs
         1     1.25778332E+02   # alpha_em^-1(M_Z)^MSbar
         2     1.16570000E-05   # G_F [GeV^-2]
         3     1.17200002E-01   # alpha_S(M_Z)^MSbar
         4     9.11876000E+01   # M_Z pole mass
         5     4.25000000E+00   # mb(mb)^MSbar
         6     1.72500000E+02   # mt pole mass
         7     1.77682000E+00   # mtau pole mass
#
BLOCK MINPAR  # Input parameters - minimal models
         3     1.00000000E+01   # tanb                
#
BLOCK EXTPAR  # Input parameters - non-minimal models
         0    -1.00000000E+00   # Set                 
         1     6.00000000E+01   # M_1(MX)             
         2     3.00000000E+03   # M_2(MX)             
         3     2.13914300E+03   # M_3(MX)             
        11     5.00000000E+03   # At(MX)              
        12     5.00000000E+03   # Ab(MX)              
        13     0.00000000E+00   # Atau(MX)            
        23    -1.83861300E+03   # mu(MX)              
        26     3.00000000E+03   # mA(pole)            
        31     5.00000000E+03   # meL(MX)             
        32     5.00000000E+03   # mmuL(MX)            
        33     5.00000000E+03   # mtauL(MX)           
        34     5.00000000E+03   # meR(MX)             
        35     5.00000000E+03   # mmuR(MX)            
        36     5.00000000E+03   # mtauR(MX)           
        41     5.00000000E+03   # mqL1(MX)            
        42     5.00000000E+03   # mqL2(MX)            
        43     5.00000000E+03   # mqL3(MX)            
        44     5.00000000E+03   # muR(MX)             
        45     5.00000000E+03   # mcR(MX)             
        46     5.00000000E+03   # mtR(MX)             
        47     5.00000000E+03   # mdR(MX)             
        48     5.00000000E+03   # msR(MX)             
        49     5.00000000E+03   # mbR(MX)             
#
BLOCK MASS  # Mass Spectrum
# PDG code           mass       particle
        24     8.00975906E+01   # W+
        25     1.24828042E+02   # h
        35     3.00007737E+03   # H
        36     2.99999995E+03   # A
        37     3.00087240E+03   # H+
         5     4.87878001E+00   # b-quark pole mass calculated from mb(mb)_Msbar
   1000001     5.07989016E+03   # ~d_L
   2000001     5.06215752E+03   # ~d_R
   1000002     5.07941895E+03   # ~u_L
   2000002     5.06188880E+03   # ~u_R
   1000003     5.07989016E+03   # ~s_L
   2000003     5.06215752E+03   # ~s_R
   1000004     5.07941895E+03   # ~c_L
   2000004     5.06188880E+03   # ~c_R
   1000005     5.02640725E+03   # ~b_1
   2000005     5.06129400E+03   # ~b_2
   1000006     4.91923379E+03   # ~t_1
   2000006     5.07261130E+03   # ~t_2
   1000011     5.01903416E+03   # ~e_L
   2000011     5.00590332E+03   # ~e_R
   1000012     5.01808648E+03   # ~nu_eL
   1000013     5.01903416E+03   # ~mu_L
   2000013     5.00590332E+03   # ~mu_R
   1000014     5.01808648E+03   # ~nu_muL
   1000015     5.00412562E+03   # ~tau_1
   2000015     5.01925786E+03   # ~tau_2
   1000016     5.01755578E+03   # ~nu_tauL
   1000021     2.50000082E+03   # ~g
   1000022     6.03003657E+01   # ~chi_10
   1000023     1.89939048E+03   # ~chi_20
   1000025    -1.90224176E+03   # ~chi_30
   1000035     3.07442515E+03   # ~chi_40
   1000024     1.90000017E+03   # ~chi_1+
   1000037     3.07459289E+03   # ~chi_2+
#
BLOCK NMIX  # Neutralino Mixing Matrix
  1  1     9.99722546E-01   # N_11
  1  2     1.16373006E-04   # N_12
  1  3    -2.34915137E-02   # N_13
  1  4     1.72247025E-03   # N_14
  2  1     1.53864164E-02   # N_21
  2  2     4.14152473E-02   # N_22
  2  3     7.06771644E-01   # N_23
  2  4     7.06060818E-01   # N_24
  3  1    -1.78269919E-02   # N_31
  3  2     1.21847881E-02   # N_32
  3  3    -7.06749243E-01   # N_33
  3  4     7.07134525E-01   # N_34
  4  1    -5.36855344E-04   # N_41
  4  2     9.99067713E-01   # N_42
  4  3    -2.06760749E-02   # N_43
  4  4    -3.78934958E-02   # N_44
#
BLOCK UMIX  # Chargino Mixing Matrix U
  1  1     2.92015691E-02   # U_11
  1  2     9.99573543E-01   # U_12
  2  1    -9.99573543E-01   # U_21
  2  2     2.92015691E-02   # U_22
#
BLOCK VMIX  # Chargino Mixing Matrix V
  1  1     5.35536330E-02   # V_11
  1  2    -9.98564975E-01   # V_12
  2  1    -9.98564975E-01   # V_21
  2  2    -5.35536330E-02   # V_22
#
BLOCK STOPMIX  # Stop Mixing Matrix
  1  1    -5.13445312E-01   # cos(theta_t)
  1  2     8.58122317E-01   # sin(theta_t)
  2  1    -8.58122317E-01   # -sin(theta_t)
  2  2    -5.13445312E-01   # cos(theta_t)
#
BLOCK SBOTMIX  # Sbottom Mixing Matrix
  1  1     9.91597889E-01   # cos(theta_b)
  1  2    -1.29358519E-01   # sin(theta_b)
  2  1     1.29358519E-01   # -sin(theta_b)
  2  2     9.91597889E-01   # cos(theta_b)
#
BLOCK STAUMIX  # Stau Mixing Matrix
  1  1    -2.08923734E-01   # cos(theta_tau)
  1  2     9.77931937E-01   # sin(theta_tau)
  2  1    -9.77931937E-01   # -sin(theta_tau)
  2  2    -2.08923734E-01   # cos(theta_tau)
#
BLOCK ALPHA  # Higgs mixing
          -1.05464514E-01   # Mixing angle in the neutral Higgs boson sector
#
BLOCK HMIX Q=  5.00070490E+03  # DRbar Higgs Parameters
         1    -1.87250449E+03   # mu(Q)MSSM           
         2     9.47008752E+00   # tan                 
         3     2.42036848E+02   # higgs               
         4     8.34247162E+06   # mA^2(Q)MSSM         
#
BLOCK GAUGE Q=  5.00070490E+03  # The gauge couplings
     1     3.70636892E-01   # gprime(Q) DRbar
     2     6.31792683E-01   # g(Q) DRbar
     3     9.95202693E-01   # g3(Q) DRbar
#
BLOCK AU Q=  5.00070490E+03  # The trilinear couplings
  1  1     5.00000002E+03   # A_u(Q) DRbar
  2  2     5.00000002E+03   # A_c(Q) DRbar
  3  3     5.00000002E+03   # A_t(Q) DRbar
#
BLOCK AD Q=  5.00070490E+03  # The trilinear couplings
  1  1     5.00000001E+03   # A_d(Q) DRbar
  2  2     5.00000001E+03   # A_s(Q) DRbar
  3  3     5.00000001E+03   # A_b(Q) DRbar
#
BLOCK AE Q=  5.00070490E+03  # The trilinear couplings
  1  1     0.00000000E+00   # A_e(Q) DRbar
  2  2     2.55709858E-07   # A_mu(Q) DRbar
  3  3     2.55651304E-07   # A_tau(Q) DRbar
#
BLOCK Yu Q=  5.00070490E+03  # The Yukawa couplings
  1  1     0.00000000E+00   # y_u(Q) DRbar
  2  2     0.00000000E+00   # y_c(Q) DRbar
  3  3     8.20546512E-01   # y_t(Q) DRbar
#
BLOCK Yd Q=  5.00070490E+03  # The Yukawa couplings
  1  1     0.00000000E+00   # y_d(Q) DRbar
  2  2     0.00000000E+00   # y_s(Q) DRbar
  3  3     1.32332764E-01   # y_b(Q) DRbar
#
BLOCK Ye Q=  5.00070490E+03  # The Yukawa couplings
  1  1     0.00000000E+00   # y_e(Q) DRbar
  2  2     0.00000000E+00   # y_mu(Q) DRbar
  3  3     9.64821887E-02   # y_tau(Q) DRbar
#
BLOCK MSOFT Q=  5.00070490E+03  # The soft SUSY breaking masses at the scale Q
         1     6.00000000E+01   # M_1(Q)              
         2     3.00000000E+03   # M_2(Q)              
         3     2.13914300E+03   # M_3(Q)              
        21     5.14241444E+06   # mH1^2(Q)            
        22    -2.97005531E+06   # mH2^2(Q)            
        31     5.00000000E+03   # meL(Q)              
        32     5.00000000E+03   # mmuL(Q)             
        33     5.00000000E+03   # mtauL(Q)            
        34     5.00000000E+03   # meR(Q)              
        35     5.00000000E+03   # mmuR(Q)             
        36     5.00000000E+03   # mtauR(Q)            
        41     4.99999999E+03   # mqL1(Q)             
        42     4.99999999E+03   # mqL2(Q)             
        43     4.99999999E+03   # mqL3(Q)             
        44     4.99999999E+03   # muR(Q)              
        45     4.99999999E+03   # mcR(Q)              
        46     4.99999999E+03   # mtR(Q)              
        47     4.99999999E+03   # mdR(Q)              
        48     4.99999999E+03   # msR(Q)              
        49     4.99999999E+03   # mbR(Q)              
#
#
#
#                             =================
#                             |The decay table|
#                             =================
#
# - The QCD corrections to the decays gluino -> squark  + quark
#                                     squark -> gaugino + quark_prime
#                                     squark -> squark_prime + Higgs
#                                     squark -> gluino  + quark
#   are included.
#
# - The multi-body decays for the inos, stops and sbottoms are included.
#
# - The loop induced decays for the gluino, neutralinos and stops
#   are included.
#
# - The SUSY decays of the top quark are included.
#
#
#         PDG            Width
DECAY         6     1.39868610E+00   # top decays
#          BR         NDA      ID1       ID2
     1.00000000E+00    2           5        24   # BR(t ->  b    W+)
#
#         PDG            Width
DECAY   1000021     1.05089409E-03   # gluino decays
#          BR         NDA      ID1       ID2
     6.32411617E-06    2     1000022        21   # BR(~g -> ~chi_10 g)
     2.66042861E-03    2     1000023        21   # BR(~g -> ~chi_20 g)
     2.67182519E-03    2     1000025        21   # BR(~g -> ~chi_30 g)
#           BR         NDA      ID1       ID2       ID3
     7.20366482E-02    3     1000022         1        -1   # BR(~g -> ~chi_10 d  db)
     6.87382306E-06    3     1000023         1        -1   # BR(~g -> ~chi_20 d  db)
     4.50572982E-07    3     1000025         1        -1   # BR(~g -> ~chi_30 d  db)
     2.45597228E-01    3     1000022         2        -2   # BR(~g -> ~chi_10 u  ub)
     9.64674702E-06    3     1000023         2        -2   # BR(~g -> ~chi_20 u  ub)
     4.17834254E-07    3     1000025         2        -2   # BR(~g -> ~chi_30 u  ub)
     7.20366482E-02    3     1000022         3        -3   # BR(~g -> ~chi_10 s  sb)
     6.87382306E-06    3     1000023         3        -3   # BR(~g -> ~chi_20 s  sb)
     4.50572982E-07    3     1000025         3        -3   # BR(~g -> ~chi_30 s  sb)
     2.45597228E-01    3     1000022         4        -4   # BR(~g -> ~chi_10 c  cb)
     9.64674702E-06    3     1000023         4        -4   # BR(~g -> ~chi_20 c  cb)
     4.17834254E-07    3     1000025         4        -4   # BR(~g -> ~chi_30 c  cb)
     7.28946871E-02    3     1000022         5        -5   # BR(~g -> ~chi_10 b  bb)
     4.25203072E-04    3     1000023         5        -5   # BR(~g -> ~chi_20 b  bb)
     4.06461909E-04    3     1000025         5        -5   # BR(~g -> ~chi_30 b  bb)
     2.49627832E-01    3     1000022         6        -6   # BR(~g -> ~chi_10 t  tb)
     8.35939493E-03    3     1000023         6        -6   # BR(~g -> ~chi_20 t  tb)
     5.05201921E-03    3     1000025         6        -6   # BR(~g -> ~chi_30 t  tb)
     1.59636551E-05    3     1000024         1        -2   # BR(~g -> ~chi_1+ d  ub)
     1.59636551E-05    3    -1000024         2        -1   # BR(~g -> ~chi_1- u  db)
     1.59636551E-05    3     1000024         3        -4   # BR(~g -> ~chi_1+ s  cb)
     1.59636551E-05    3    -1000024         4        -3   # BR(~g -> ~chi_1- c  sb)
     1.12647192E-02    3     1000024         5        -6   # BR(~g -> ~chi_1+ b  tb)
     1.12647192E-02    3    -1000024         6        -5   # BR(~g -> ~chi_1- t  bb)
#
#         PDG            Width
DECAY   1000006     2.71434066E+02   # stop1 decays
#          BR         NDA      ID1       ID2
     3.23956562E-02    2     1000022         6   # BR(~t_1 -> ~chi_10 t )
     8.76615451E-02    2     1000023         6   # BR(~t_1 -> ~chi_20 t )
     8.41401926E-02    2     1000025         6   # BR(~t_1 -> ~chi_30 t )
     8.31959219E-03    2     1000035         6   # BR(~t_1 -> ~chi_40 t )
     1.25807273E-01    2     1000024         5   # BR(~t_1 -> ~chi_1+ b )
     1.65013223E-02    2     1000037         5   # BR(~t_1 -> ~chi_2+ b )
     6.45174418E-01    2     1000021         6   # BR(~t_1 -> ~g      t )
#
#         PDG            Width
DECAY   2000006     2.88137651E+02   # stop2 decays
#          BR         NDA      ID1       ID2
     1.22686716E-02    2     1000022         6   # BR(~t_2 -> ~chi_10 t )
     8.68014972E-02    2     1000023         6   # BR(~t_2 -> ~chi_20 t )
     9.04597079E-02    2     1000025         6   # BR(~t_2 -> ~chi_30 t )
     1.88442190E-02    2     1000035         6   # BR(~t_2 -> ~chi_40 t )
     5.39959335E-02    2     1000024         5   # BR(~t_2 -> ~chi_1+ b )
     3.72922842E-02    2     1000037         5   # BR(~t_2 -> ~chi_2+ b )
     6.95945858E-01    2     1000021         6   # BR(~t_2 -> ~g      t )
     9.51888370E-04    2     1000006        25   # BR(~t_2 -> ~t_1    h )
     3.43994076E-03    2     1000006        23   # BR(~t_2 -> ~t_1    Z )
#
#         PDG            Width
DECAY   1000005     2.64488674E+02   # sbottom1 decays
#          BR         NDA      ID1       ID2
     2.99244693E-03    2     1000022         5   # BR(~b_1 -> ~chi_10 b )
     2.60381239E-03    2     1000023         5   # BR(~b_1 -> ~chi_20 b )
     2.37760977E-03    2     1000025         5   # BR(~b_1 -> ~chi_30 b )
     2.82229405E-02    2     1000035         5   # BR(~b_1 -> ~chi_40 b )
     1.83279293E-01    2    -1000024         6   # BR(~b_1 -> ~chi_1- t )
     5.69948763E-02    2    -1000037         6   # BR(~b_1 -> ~chi_2- t )
     7.21564285E-01    2     1000021         5   # BR(~b_1 -> ~g      b )
     1.96473621E-03    2     1000006       -24   # BR(~b_1 -> ~t_1    W-)
#
#         PDG            Width
DECAY   2000005     2.00477541E+02   # sbottom2 decays
#          BR         NDA      ID1       ID2
     1.45155637E-02    2     1000022         5   # BR(~b_2 -> ~chi_10 b )
     3.12640770E-03    2     1000023         5   # BR(~b_2 -> ~chi_20 b )
     3.33367371E-03    2     1000025         5   # BR(~b_2 -> ~chi_30 b )
     6.81832924E-04    2     1000035         5   # BR(~b_2 -> ~chi_40 b )
     1.03927493E-02    2    -1000024         6   # BR(~b_2 -> ~chi_1- t )
     1.37550476E-03    2    -1000037         6   # BR(~b_2 -> ~chi_2- t )
     9.66379117E-01    2     1000021         5   # BR(~b_2 -> ~g      b )
     1.95150522E-04    2     1000006       -24   # BR(~b_2 -> ~t_1    W-)
#
#         PDG            Width
DECAY   1000002     2.19649875E+02   # sup_L decays
#          BR         NDA      ID1       ID2
     3.39085500E-03    2     1000022         2   # BR(~u_L -> ~chi_10 u)
     1.29945265E-04    2     1000023         2   # BR(~u_L -> ~chi_20 u)
     4.97757111E-06    2     1000025         2   # BR(~u_L -> ~chi_30 u)
     3.58076032E-02    2     1000035         2   # BR(~u_L -> ~chi_40 u)
     3.77609021E-04    2     1000024         1   # BR(~u_L -> ~chi_1+ d)
     7.15492345E-02    2     1000037         1   # BR(~u_L -> ~chi_2+ d)
     8.88739775E-01    2     1000021         2   # BR(~u_L -> ~g      u)
#
#         PDG            Width
DECAY   2000002     2.05541473E+02   # sup_R decays
#          BR         NDA      ID1       ID2
     5.77050201E-02    2     1000022         2   # BR(~u_R -> ~chi_10 u)
     1.01336129E-05    2     1000023         2   # BR(~u_R -> ~chi_20 u)
     1.35900241E-05    2     1000025         2   # BR(~u_R -> ~chi_30 u)
     6.68463128E-09    2     1000035         2   # BR(~u_R -> ~chi_40 u)
     9.42271250E-01    2     1000021         2   # BR(~u_R -> ~g      u)
#
#         PDG            Width
DECAY   1000001     2.19668709E+02   # sdown_L decays
#          BR         NDA      ID1       ID2
     3.38282034E-03    2     1000022         1   # BR(~d_L -> ~chi_10 d)
     9.71321283E-05    2     1000023         1   # BR(~d_L -> ~chi_20 d)
     1.61553216E-05    2     1000025         1   # BR(~d_L -> ~chi_30 d)
     3.58305453E-02    2     1000035         1   # BR(~d_L -> ~chi_40 d)
     1.12281036E-04    2    -1000024         2   # BR(~d_L -> ~chi_1- u)
     7.17096299E-02    2    -1000037         2   # BR(~d_L -> ~chi_2- u)
     8.88851436E-01    2     1000021         1   # BR(~d_L -> ~g      d)
#
#         PDG            Width
DECAY   2000001     1.96665944E+02   # sdown_R decays
#          BR         NDA      ID1       ID2
     1.50781274E-02    2     1000022         1   # BR(~d_R -> ~chi_10 d)
     2.64796935E-06    2     1000023         1   # BR(~d_R -> ~chi_20 d)
     3.55114923E-06    2     1000025         1   # BR(~d_R -> ~chi_30 d)
     1.74688527E-09    2     1000035         1   # BR(~d_R -> ~chi_40 d)
     9.84915672E-01    2     1000021         1   # BR(~d_R -> ~g      d)
#
#         PDG            Width
DECAY   1000004     2.19649875E+02   # scharm_L decays
#          BR         NDA      ID1       ID2
     3.39085500E-03    2     1000022         4   # BR(~c_L -> ~chi_10 c)
     1.29945265E-04    2     1000023         4   # BR(~c_L -> ~chi_20 c)
     4.97757111E-06    2     1000025         4   # BR(~c_L -> ~chi_30 c)
     3.58076032E-02    2     1000035         4   # BR(~c_L -> ~chi_40 c)
     3.77609021E-04    2     1000024         3   # BR(~c_L -> ~chi_1+ s)
     7.15492345E-02    2     1000037         3   # BR(~c_L -> ~chi_2+ s)
     8.88739775E-01    2     1000021         4   # BR(~c_L -> ~g      c)
#
#         PDG            Width
DECAY   2000004     2.05541473E+02   # scharm_R decays
#          BR         NDA      ID1       ID2
     5.77050201E-02    2     1000022         4   # BR(~c_R -> ~chi_10 c)
     1.01336129E-05    2     1000023         4   # BR(~c_R -> ~chi_20 c)
     1.35900241E-05    2     1000025         4   # BR(~c_R -> ~chi_30 c)
     6.68463128E-09    2     1000035         4   # BR(~c_R -> ~chi_40 c)
     9.42271250E-01    2     1000021         4   # BR(~c_R -> ~g      c)
#
#         PDG            Width
DECAY   1000003     2.19668709E+02   # sstrange_L decays
#          BR         NDA      ID1       ID2
     3.38282034E-03    2     1000022         3   # BR(~s_L -> ~chi_10 s)
     9.71321283E-05    2     1000023         3   # BR(~s_L -> ~chi_20 s)
     1.61553216E-05    2     1000025         3   # BR(~s_L -> ~chi_30 s)
     3.58305453E-02    2     1000035         3   # BR(~s_L -> ~chi_40 s)
     1.12281036E-04    2    -1000024         4   # BR(~s_L -> ~chi_1- c)
     7.17096299E-02    2    -1000037         4   # BR(~s_L -> ~chi_2- c)
     8.88851436E-01    2     1000021         3   # BR(~s_L -> ~g      s)
#
#         PDG            Width
DECAY   2000003     1.96665944E+02   # sstrange_R decays
#          BR         NDA      ID1       ID2
     1.50781274E-02    2     1000022         3   # BR(~s_R -> ~chi_10 s)
     2.64796935E-06    2     1000023         3   # BR(~s_R -> ~chi_20 s)
     3.55114923E-06    2     1000025         3   # BR(~s_R -> ~chi_30 s)
     1.74688527E-09    2     1000035         3   # BR(~s_R -> ~chi_40 s)
     9.84915672E-01    2     1000021         3   # BR(~s_R -> ~g      s)
#
#         PDG            Width
DECAY   1000011     3.02196619E+01   # selectron_L decays
#          BR         NDA      ID1       ID2
     2.26847455E-01    2     1000022        11   # BR(~e_L -> ~chi_10 e-)
     1.23168918E-03    2     1000023        11   # BR(~e_L -> ~chi_20 e-)
     1.44186054E-06    2     1000025        11   # BR(~e_L -> ~chi_30 e-)
     2.56772337E-01    2     1000035        11   # BR(~e_L -> ~chi_40 e-)
     8.25415909E-04    2    -1000024        12   # BR(~e_L -> ~chi_1- nu_e)
     5.14321661E-01    2    -1000037        12   # BR(~e_L -> ~chi_2- nu_e)
#
#         PDG            Width
DECAY   2000011     2.73494981E+01   # selectron_R decays
#          BR         NDA      ID1       ID2
     9.99593580E-01    2     1000022        11   # BR(~e_R -> ~chi_10 e-)
     1.73558660E-04    2     1000023        11   # BR(~e_R -> ~chi_20 e-)
     2.32749334E-04    2     1000025        11   # BR(~e_R -> ~chi_30 e-)
     1.11844053E-07    2     1000035        11   # BR(~e_R -> ~chi_40 e-)
#
#         PDG            Width
DECAY   1000013     3.02196619E+01   # smuon_L decays
#          BR         NDA      ID1       ID2
     2.26847455E-01    2     1000022        13   # BR(~mu_L -> ~chi_10 mu-)
     1.23168918E-03    2     1000023        13   # BR(~mu_L -> ~chi_20 mu-)
     1.44186054E-06    2     1000025        13   # BR(~mu_L -> ~chi_30 mu-)
     2.56772337E-01    2     1000035        13   # BR(~mu_L -> ~chi_40 mu-)
     8.25415909E-04    2    -1000024        14   # BR(~mu_L -> ~chi_1- nu_mu)
     5.14321661E-01    2    -1000037        14   # BR(~mu_L -> ~chi_2- nu_mu)
#
#         PDG            Width
DECAY   2000013     2.73494981E+01   # smuon_R decays
#          BR         NDA      ID1       ID2
     9.99593580E-01    2     1000022        13   # BR(~mu_R -> ~chi_10 mu-)
     1.73558660E-04    2     1000023        13   # BR(~mu_R -> ~chi_20 mu-)
     2.32749334E-04    2     1000025        13   # BR(~mu_R -> ~chi_30 mu-)
     1.11844053E-07    2     1000035        13   # BR(~mu_R -> ~chi_40 mu-)
#
#         PDG            Width
DECAY   1000015     2.88256906E+01   # stau_1 decays
#          BR         NDA      ID1       ID2
     9.17887366E-01    2     1000022        15   # BR(~tau_1 -> ~chi_10  tau-)
     1.29997804E-02    2     1000023        15   # BR(~tau_1 -> ~chi_20  tau-)
     1.12509453E-02    2     1000025        15   # BR(~tau_1 -> ~chi_30  tau-)
     1.11494322E-02    2     1000035        15   # BR(~tau_1 -> ~chi_40  tau-)
     2.43778419E-02    2    -1000024        16   # BR(~tau_1 -> ~chi_1-  nu_tau)
     2.23346339E-02    2    -1000037        16   # BR(~tau_1 -> ~chi_2-  nu_tau)
#
#         PDG            Width
DECAY   2000015     3.07692125E+01   # stau_2 decays
#          BR         NDA      ID1       ID2
     2.51197213E-01    2     1000022        15   # BR(~tau_2 -> ~chi_10  tau-)
     1.12820116E-02    2     1000023        15   # BR(~tau_2 -> ~chi_20  tau-)
     1.17489784E-02    2     1000025        15   # BR(~tau_2 -> ~chi_30  tau-)
     2.41679577E-01    2     1000035        15   # BR(~tau_2 -> ~chi_40  tau-)
     1.05704094E-05    2    -1000024        16   # BR(~tau_2 -> ~chi_1-  nu_tau)
     4.84081650E-01    2    -1000037        16   # BR(~tau_2 -> ~chi_2-  nu_tau)
#
#         PDG            Width
DECAY   1000012     3.02209040E+01   # snu_eL decays
#          BR         NDA      ID1       ID2
     2.26615339E-01    2     1000022        12   # BR(~nu_eL -> ~chi_10 nu_e)
     5.07646814E-04    2     1000023        12   # BR(~nu_eL -> ~chi_20 nu_e)
     2.47853742E-04    2     1000025        12   # BR(~nu_eL -> ~chi_30 nu_e)
     2.56920599E-01    2     1000035        12   # BR(~nu_eL -> ~chi_40 nu_e)
     2.77513164E-03    2     1000024        11   # BR(~nu_eL -> ~chi_1+ e-)
     5.12933429E-01    2     1000037        11   # BR(~nu_eL -> ~chi_2+ e-)
#
#         PDG            Width
DECAY   1000014     3.02209040E+01   # snu_muL decays
#          BR         NDA      ID1       ID2
     2.26615339E-01    2     1000022        14   # BR(~nu_muL -> ~chi_10 nu_mu)
     5.07646814E-04    2     1000023        14   # BR(~nu_muL -> ~chi_20 nu_mu)
     2.47853742E-04    2     1000025        14   # BR(~nu_muL -> ~chi_30 nu_mu)
     2.56920599E-01    2     1000035        14   # BR(~nu_muL -> ~chi_40 nu_mu)
     2.77513164E-03    2     1000024        13   # BR(~nu_muL -> ~chi_1+ mu-)
     5.12933429E-01    2     1000037        13   # BR(~nu_muL -> ~chi_2+ mu-)
#
#         PDG            Width
DECAY   1000016     3.08933944E+01   # snu_tauL decays
#          BR         NDA      ID1       ID2
     2.21658897E-01    2     1000022        16   # BR(~nu_tauL -> ~chi_10 nu_tau)
     4.96508659E-04    2     1000023        16   # BR(~nu_tauL -> ~chi_20 nu_tau)
     2.42415583E-04    2     1000025        16   # BR(~nu_tauL -> ~chi_30 nu_tau)
     2.51237457E-01    2     1000035        16   # BR(~nu_tauL -> ~chi_40 nu_tau)
     2.47709511E-02    2     1000024        15   # BR(~nu_tauL -> ~chi_1+ tau-)
     5.01593771E-01    2     1000037        15   # BR(~nu_tauL -> ~chi_2+ tau-)
#
#         PDG            Width
DECAY   1000024     1.17264950E+00   # chargino1+ decays
#          BR         NDA      ID1       ID2
     1.00000000E+00    2     1000022        24   # BR(~chi_1+ -> ~chi_10  W+)
#
#         PDG            Width
DECAY   1000037     1.60995998E+01   # chargino2+ decays
#          BR         NDA      ID1       ID2
     2.52101858E-01    2     1000024        23   # BR(~chi_2+ -> ~chi_1+  Z )
     4.06512397E-04    2     1000022        24   # BR(~chi_2+ -> ~chi_10  W+)
     2.44882947E-01    2     1000023        24   # BR(~chi_2+ -> ~chi_20  W+)
     2.43024173E-01    2     1000025        24   # BR(~chi_2+ -> ~chi_30  W+)
     2.59584423E-01    2     1000024        25   # BR(~chi_2+ -> ~chi_1+  h )
     8.63501317E-08    2     1000022        37   # BR(~chi_2+ -> ~chi_10  H+)
#
#         PDG            Width
DECAY   1000022     0.00000000E+00   # neutralino1 decays
#
#         PDG            Width
DECAY   1000023     1.23479445E+00   # neutralino2 decays
#          BR         NDA      ID1       ID2
     5.64020651E-01    2     1000022        23   # BR(~chi_20 -> ~chi_10   Z )
     4.35979349E-01    2     1000022        25   # BR(~chi_20 -> ~chi_10   h )
#
#         PDG            Width
DECAY   1000025     1.24957730E+00   # neutralino3 decays
#          BR         NDA      ID1       ID2
     4.16960528E-01    2     1000022        23   # BR(~chi_30 -> ~chi_10   Z )
     5.83039472E-01    2     1000022        25   # BR(~chi_30 -> ~chi_10   h )
#
#         PDG            Width
DECAY   1000035     1.60664085E+01   # neutralino4 decays
#          BR         NDA      ID1       ID2
     1.76030185E-04    2     1000022        23   # BR(~chi_40 -> ~chi_10   Z )
     2.04006879E-02    2     1000023        23   # BR(~chi_40 -> ~chi_20   Z )
     2.31970506E-01    2     1000025        23   # BR(~chi_40 -> ~chi_30   Z )
     2.43767882E-01    2     1000024       -24   # BR(~chi_40 -> ~chi_1+   W-)
     2.43767882E-01    2    -1000024        24   # BR(~chi_40 -> ~chi_1-   W+)
     2.46004776E-04    2     1000022        25   # BR(~chi_40 -> ~chi_10   h )
     7.13668077E-08    2     1000022        35   # BR(~chi_40 -> ~chi_10   H )
     1.82394809E-08    2     1000022        36   # BR(~chi_40 -> ~chi_10   A )
     2.39484958E-01    2     1000023        25   # BR(~chi_40 -> ~chi_20   h )
     2.01859609E-02    2     1000025        25   # BR(~chi_40 -> ~chi_30   h )
#
#         PDG            Width
DECAY        25     4.03268511E-03   # h decays
#          BR         NDA      ID1       ID2
     6.04292823E-01    2           5        -5   # BR(h -> b       bb     )
     6.43374981E-02    2         -15        15   # BR(h -> tau+    tau-   )
     2.27777894E-04    2         -13        13   # BR(h -> mu+     mu-    )
     4.82835289E-04    2           3        -3   # BR(h -> s       sb     )
     2.09247945E-02    2           4        -4   # BR(h -> c       cb     )
     6.77493366E-02    2          21        21   # BR(h -> g       g      )
     2.33092766E-03    2          22        22   # BR(h -> gam     gam    )
     1.50756683E-03    2          22        23   # BR(h -> Z       gam    )
     2.12740079E-01    2          24       -24   # BR(h -> W+      W-     )
     2.53831632E-02    2          23        23   # BR(h -> Z       Z      )
     2.31977533E-05    2     1000022   1000022   # BR(h -> ~chi_10 ~chi_10)
#
#         PDG            Width
DECAY        35     6.54342774E+00   # H decays
#          BR         NDA      ID1       ID2
     5.04583470E-01    2           5        -5   # BR(H -> b       bb     )
     8.51450210E-02    2         -15        15   # BR(H -> tau+    tau-   )
     3.01079558E-04    2         -13        13   # BR(H -> mu+     mu-    )
     3.69077477E-04    2           3        -3   # BR(H -> s       sb     )
     2.06402434E-06    2           4        -4   # BR(H -> c       cb     )
     2.06212372E-01    2           6        -6   # BR(H -> t       tb     )
     6.84122813E-05    2          21        21   # BR(H -> g       g      )
     3.91427804E-07    2          22        22   # BR(H -> gam     gam    )
     1.21823188E-07    2          23        22   # BR(H -> Z       gam    )
     9.02203682E-05    2          24       -24   # BR(H -> W+      W-     )
     4.50530974E-05    2          23        23   # BR(H -> Z       Z      )
     3.44033247E-04    2          25        25   # BR(H -> h       h      )
     1.21376812E-24    2          36        36   # BR(H -> A       A      )
     7.30959578E-19    2          23        36   # BR(H -> Z       A      )
     6.11793340E-04    2     1000022   1000022   # BR(H -> ~chi_10 ~chi_10)
     1.18651461E-01    2     1000022   1000023   # BR(H -> ~chi_10 ~chi_20)
     8.35754300E-02    2     1000022   1000025   # BR(H -> ~chi_10 ~chi_30)
#
#         PDG            Width
DECAY        36     6.54665376E+00   # A decays
#          BR         NDA      ID1       ID2
     5.04502446E-01    2           5        -5   # BR(A -> b       bb     )
     8.51056432E-02    2         -15        15   # BR(A -> tau+    tau-   )
     3.00939894E-04    2         -13        13   # BR(A -> mu+     mu-    )
     3.69175774E-04    2           3        -3   # BR(A -> s       sb     )
     2.07172340E-06    2           4        -4   # BR(A -> c       cb     )
     2.06867375E-01    2           6        -6   # BR(A -> t       tb     )
     2.04718838E-04    2          21        21   # BR(A -> g       g      )
     3.92219296E-07    2          22        22   # BR(A -> gam     gam    )
     2.48071520E-07    2          23        22   # BR(A -> Z       gam    )
     8.98351005E-05    2          23        25   # BR(A -> Z       h      )
     6.31790264E-04    2     1000022   1000022   # BR(A -> ~chi_10 ~chi_10)
     8.45751311E-02    2     1000022   1000023   # BR(A -> ~chi_10 ~chi_20)
     1.17350233E-01    2     1000022   1000025   # BR(A -> ~chi_10 ~chi_30)
#
#         PDG            Width
DECAY        37     6.57305125E+00   # H+ decays
#          BR         NDA      ID1       ID2
     8.15172341E-04    2           4        -5   # BR(H+ -> c       bb     )
     8.47885082E-02    2         -15        16   # BR(H+ -> tau+    nu_tau )
     2.99818480E-04    2         -13        14   # BR(H+ -> mu+     nu_mu  )
     5.21707670E-06    2           2        -5   # BR(H+ -> u       bb     )
     1.75927245E-05    2           2        -3   # BR(H+ -> u       sb     )
     3.63818421E-04    2           4        -3   # BR(H+ -> c       sb     )
     7.11188291E-01    2           6        -5   # BR(H+ -> t       bb     )
     8.96098534E-05    2          24        25   # BR(H+ -> W+      h      )
     1.01068439E-13    2          24        36   # BR(H+ -> W+      A      )
     2.02431972E-01    2     1000024   1000022   # BR(H+ -> ~chi_1+ ~chi_10)
