#
#                              ======================
#                              | THE SUSYHIT OUTPUT |
#                              ======================
#
#
#              ------------------------------------------------------
#              |     This is the output of the SUSY-HIT package     |
#              |  created by A.Djouadi, M.Muehlleitner and M.Spira. |
#              |  In case of problems with SUSY-HIT email to        |
#              |           margarete.muehlleitner@kit.edu           |
#              |           michael.spira@psi.ch                     |
#              |           abdelhak.djouadi@cern.ch                 |
#              ------------------------------------------------------
#
#              ------------------------------------------------------
#              |  SUSY Les Houches Accord - MSSM Spectrum + Decays  |
#              |              based on the decay programs           |
#              |                                                    |
#              |                     SDECAY 1.5                     |
#              |                                                    |
#              |  Authors: M.Muhlleitner, A.Djouadi and Y.Mambrini  |
#              |  Ref.:    Comput.Phys.Commun.168(2005)46           |
#              |           [hep-ph/0311167]                         |
#              |                                                    |
#              |                     HDECAY 3.4                     |
#              |                                                    |
#              |  By: A.Djouadi,J.Kalinowski,M.Muhlleitner,M.Spira  |
#              |  Ref.:    Comput.Phys.Commun.108(1998)56           |
#              |           [hep-ph/9704448]                         |
#              |                                                    |
#              |                                                    |
#              |  If not stated otherwise all DRbar couplings and   |
#              |  soft SUSY breaking masses are given at the scale  |
#              |  Q=  0.91187600E+02
#              |                                                    |
#              ------------------------------------------------------
#
#
BLOCK DCINFO  # Decay Program information
     1   SDECAY/HDECAY # decay calculator
     2   1.5  /3.4    # version number
#
BLOCK SPINFO  # Spectrum calculator information
     1   SuSpect     # RGE +Spectrum calculator            
     2   2.43         # version number                     
#
BLOCK MODSEL  # Model selection
     1     2   # GMSB                                              
#
BLOCK SMINPUTS  # Standard Model inputs
         1     1.27932904E+02   # alpha_em^-1(M_Z)^MSbar
         2     1.16639000E-05   # G_F [GeV^-2]
         3     1.17200000E-01   # alpha_S(M_Z)^MSbar
         4     9.11870000E+01   # M_Z pole mass
         5     4.25000000E+00   # mb(mb)^MSbar
         6     1.72900000E+02   # mt pole mass
         7     1.77700000E+00   # mtau pole mass
#
BLOCK MINPAR  # Input parameters - minimal models
#
BLOCK EXTPAR  # Input parameters - non-minimal models
         0     9.11876000E+01   # EWSB                
         1     2.58000000E+02   # M_1                 
         2     3.00000000E+03   # M_2                 
         3     2.20000000E+03   # M_3                 
        11     0.00000000E+00   # A_t                 
        12     0.00000000E+00   # A_b                 
        13     0.00000000E+00   # A_tau               
        14     0.00000000E+00   # A_u                 
        15     0.00000000E+00   # A_d                 
        16     0.00000000E+00   # A_e                 
        23     2.00000000E+02   # mu(EWSB)            
        25     1.50000000E+00   # tanbeta(in)         
        26     2.00000000E+03   # MA_pole             
        31     5.00000000E+03   # M_eL                
        32     5.00000000E+03   # M_muL               
        33     5.00000000E+03   # M_tauL              
        34     5.00000000E+03   # M_eR                
        35     5.00000000E+03   # M_muR               
        36     5.00000000E+03   # M_tauR              
        41     5.00000000E+03   # M_q1L               
        42     5.00000000E+03   # M_q2L               
        43     5.00000000E+03   # M_q3L               
        44     5.00000000E+03   # M_uR                
        45     5.00000000E+03   # M_cR                
        46     5.00000000E+03   # M_tR                
        47     5.00000000E+03   # M_dR                
        48     5.00000000E+03   # M_sR                
        49     5.00000000E+03   # M_bR                
#
BLOCK MASS  # Mass Spectrum
# PDG code           mass       particle
        24     8.05373699E+01   # W+
        25     1.26000000E+02   # h
        35     2.00417027E+03   # H
        36     2.00000000E+03   # A
        37     2.00208957E+03   # H+
         5     4.87877839E+00   # b-quark pole mass calculated from mb(mb)_Msbar
   1000001     4.92095323E+03   # ~d_L
   2000001     4.92084235E+03   # ~d_R
   1000002     4.92070544E+03   # ~u_L
   2000002     4.92076431E+03   # ~u_R
   1000003     4.92095323E+03   # ~s_L
   2000003     4.92084235E+03   # ~s_R
   1000004     4.92070544E+03   # ~c_L
   2000004     4.92076431E+03   # ~c_R
   1000005     4.92079884E+03   # ~b_1
   2000005     4.92099823E+03   # ~b_2
   1000006     5.05372703E+03   # ~t_1
   2000006     5.35632783E+03   # ~t_2
   1000011     5.00008266E+03   # ~e_L
   2000011     5.00007599E+03   # ~e_R
   1000012     4.99984134E+03   # ~nu_eL
   1000013     5.00008266E+03   # ~mu_L
   2000013     5.00007599E+03   # ~mu_R
   1000014     4.99984134E+03   # ~nu_muL
   1000015     5.00002622E+03   # ~tau_1
   2000015     5.00013306E+03   # ~tau_2
   1000016     4.99984134E+03   # ~nu_tauL
   1000021     2.23872729E+03   # ~g
   1000022     1.91314422E+02   # ~chi_10
   1000023    -2.16764277E+02   # ~chi_20
   1000025     2.96413534E+02   # ~chi_30
   1000035     3.12904243E+03   # ~chi_40
   1000024     2.14534698E+02   # ~chi_1+
   1000037     3.12904202E+03   # ~chi_2+
   1000039     1.00000000E-09   # ~gravitino
#
BLOCK NMIX  # Neutralino Mixing Matrix
  1  1     4.69221447E-01   # N_11
  1  2    -2.32975194E-02   # N_12
  1  3     6.31886304E-01   # N_13
  1  4    -6.16448017E-01   # N_14
  2  1     1.80284586E-02   # N_21
  2  2    -4.70681861E-03   # N_22
  2  3    -7.05102553E-01   # N_23
  2  4    -7.08860501E-01   # N_24
  3  1     8.82896387E-01   # N_31
  3  2     1.29545492E-02   # N_32
  3  3    -3.21414993E-01   # N_33
  3  4     3.42079744E-01   # N_34
  4  1     4.21126543E-04   # N_41
  4  2    -9.99633558E-01   # N_42
  4  3    -1.55720862E-02   # N_43
  4  4     2.21377885E-02   # N_44
#
BLOCK UMIX  # Chargino Mixing Matrix U
  1  1    -2.20148436E-02   # U_11
  1  2     9.99757644E-01   # U_12
  2  1     9.99757644E-01   # U_21
  2  2     2.20148436E-02   # U_22
#
BLOCK VMIX  # Chargino Mixing Matrix V
  1  1    -3.13037087E-02   # V_11
  1  2     9.99509919E-01   # V_12
  2  1     9.99509919E-01   # V_21
  2  2     3.13037087E-02   # V_22
#
BLOCK STOPMIX  # Stop Mixing Matrix
  1  1     9.99661078E-01   # cos(theta_t)
  1  2    -2.60332313E-02   # sin(theta_t)
  2  1     2.60332313E-02   # -sin(theta_t)
  2  2     9.99661078E-01   # cos(theta_t)
#
BLOCK SBOTMIX  # Sbottom Mixing Matrix
  1  1     4.71088531E-01   # cos(theta_b)
  1  2     8.82085935E-01   # sin(theta_b)
  2  1    -8.82085935E-01   # -sin(theta_b)
  2  2     4.71088531E-01   # cos(theta_b)
#
BLOCK STAUMIX  # Stau Mixing Matrix
  1  1     6.84679562E-01   # cos(theta_tau)
  1  2     7.28844220E-01   # sin(theta_tau)
  2  1    -7.28844220E-01   # -sin(theta_tau)
  2  2     6.84679562E-01   # cos(theta_tau)
#
BLOCK ALPHA  # Higgs mixing
          -5.90211717E-01   # Mixing angle in the neutral Higgs boson sector
#
BLOCK HMIX Q=  9.11876000E+01  # DRbar Higgs Parameters
         1     2.00000000E+02   # mu(Q)               
         2     1.49999979E+00   # tanbeta(Q)          
         3     2.51770150E+02   # vev(Q)              
         4     3.85610564E+06   # MA^2(Q)             
#
BLOCK GAUGE Q=  9.11876000E+01  # The gauge couplings
     1     3.53099818E-01   # gprime(Q) DRbar
     2     6.29225368E-01   # g(Q) DRbar
     3     1.07892620E+00   # g3(Q) DRbar
#
BLOCK AU Q=  9.11876000E+01  # The trilinear couplings
  1  1     0.00000000E+00   # A_u(Q) DRbar
  2  2     0.00000000E+00   # A_c(Q) DRbar
  3  3     0.00000000E+00   # A_t(Q) DRbar
#
BLOCK AD Q=  9.11876000E+01  # The trilinear couplings
  1  1     0.00000000E+00   # A_d(Q) DRbar
  2  2     0.00000000E+00   # A_s(Q) DRbar
  3  3     0.00000000E+00   # A_b(Q) DRbar
#
BLOCK AE Q=  9.11876000E+01  # The trilinear couplings
  1  1     0.00000000E+00   # A_e(Q) DRbar
  2  2     0.00000000E+00   # A_mu(Q) DRbar
  3  3     0.00000000E+00   # A_tau(Q) DRbar
#
BLOCK Yu Q=  9.11876000E+01  # The Yukawa couplings
  1  1     0.00000000E+00   # y_u(Q) DRbar
  2  2     0.00000000E+00   # y_c(Q) DRbar
  3  3     1.02732391E+00   # y_t(Q) DRbar
#
BLOCK Yd Q=  9.11876000E+01  # The Yukawa couplings
  1  1     0.00000000E+00   # y_d(Q) DRbar
  2  2     0.00000000E+00   # y_s(Q) DRbar
  3  3     2.72362472E-02   # y_b(Q) DRbar
#
BLOCK Ye Q=  9.11876000E+01  # The Yukawa couplings
  1  1     0.00000000E+00   # y_e(Q) DRbar
  2  2     0.00000000E+00   # y_mu(Q) DRbar
  3  3     1.79965411E-02   # y_tau(Q) DRbar
#
BLOCK MSOFT Q=  9.11876000E+01  # The soft SUSY breaking masses at the scale Q
         1     2.58000000E+02   # M_1                 
         2     3.00000000E+03   # M_2                 
         3     2.20000000E+03   # M_3                 
        14     0.00000000E+00   # A_u                 
        15     0.00000000E+00   # A_d                 
        16     0.00000000E+00   # A_e                 
        21     3.02014855E+06   # M^2_Hd              
        22    -5.42370302E+06   # M^2_Hu              
        31     5.00000000E+03   # M_eL                
        32     5.00000000E+03   # M_muL               
        33     5.00000000E+03   # M_tauL              
        34     5.00000000E+03   # M_eR                
        35     5.00000000E+03   # M_muR               
        36     5.00000000E+03   # M_tauR              
        41     5.00000000E+03   # M_q1L               
        42     5.00000000E+03   # M_q2L               
        43     5.00000000E+03   # M_q3L               
        44     5.00000000E+03   # M_uR                
        45     5.00000000E+03   # M_cR                
        46     5.00000000E+03   # M_tR                
        47     5.00000000E+03   # M_dR                
        48     5.00000000E+03   # M_sR                
        49     5.00000000E+03   # M_bR                
#
#
#
#                             =================
#                             |The decay table|
#                             =================
#
# - The QCD corrections to the decays gluino -> squark  + quark
#                                     squark -> gaugino + quark_prime
#                                     squark -> squark_prime + Higgs
#                                     squark -> gluino  + quark
#   are included.
#
# - The multi-body decays for the inos, stops and sbottoms are included.
#
# - The loop induced decays for the gluino, neutralinos and stops
#   are included.
#
# - The SUSY decays of the top quark are included.
#
# - Possible decays of the NLSP in GMSB models are included.
#
#
#         PDG            Width
DECAY         6     1.37961900E+00   # top decays
#          BR         NDA      ID1       ID2
     1.00000000E+00    2           5        24   # BR(t ->  b    W+)
#
#         PDG            Width
DECAY   1000021     7.00709051E-03   # gluino decays
#          BR         NDA      ID1       ID2
     4.47737546E-03    2     1000022        21   # BR(~g -> ~chi_10 g)
     5.80177928E-03    2     1000023        21   # BR(~g -> ~chi_20 g)
     1.21289885E-03    2     1000025        21   # BR(~g -> ~chi_30 g)
#          BR         NDA      ID1       ID2
0.0E+00    2     1000039    21 # BR(~g -> ~G      g)
#           BR         NDA      ID1       ID2       ID3
     1.85417513E-03    3     1000022         1        -1   # BR(~g -> ~chi_10 d  db)
     3.43987792E-06    3     1000023         1        -1   # BR(~g -> ~chi_20 d  db)
     5.57523221E-03    3     1000025         1        -1   # BR(~g -> ~chi_30 d  db)
     5.47554281E-03    3     1000022         2        -2   # BR(~g -> ~chi_10 u  ub)
     5.70707006E-06    3     1000023         2        -2   # BR(~g -> ~chi_20 u  ub)
     1.97342135E-02    3     1000025         2        -2   # BR(~g -> ~chi_30 u  ub)
     1.85417513E-03    3     1000022         3        -3   # BR(~g -> ~chi_10 s  sb)
     3.43987792E-06    3     1000023         3        -3   # BR(~g -> ~chi_20 s  sb)
     5.57523221E-03    3     1000025         3        -3   # BR(~g -> ~chi_30 s  sb)
     5.47554281E-03    3     1000022         4        -4   # BR(~g -> ~chi_10 c  cb)
     5.70707006E-06    3     1000023         4        -4   # BR(~g -> ~chi_20 c  cb)
     1.97342135E-02    3     1000025         4        -4   # BR(~g -> ~chi_30 c  cb)
     2.01029068E-03    3     1000022         5        -5   # BR(~g -> ~chi_10 b  bb)
     2.10547603E-04    3     1000023         5        -5   # BR(~g -> ~chi_20 b  bb)
     5.62548569E-03    3     1000025         5        -5   # BR(~g -> ~chi_30 b  bb)
     1.57473272E-01    3     1000022         6        -6   # BR(~g -> ~chi_10 t  tb)
     2.09357829E-01    3     1000023         6        -6   # BR(~g -> ~chi_20 t  tb)
     6.80154535E-02    3     1000025         6        -6   # BR(~g -> ~chi_30 t  tb)
     6.23919568E-05    3     1000024         1        -2   # BR(~g -> ~chi_1+ d  ub)
     6.23919568E-05    3    -1000024         2        -1   # BR(~g -> ~chi_1- u  db)
     6.23919568E-05    3     1000024         3        -4   # BR(~g -> ~chi_1+ s  cb)
     6.23919568E-05    3    -1000024         4        -3   # BR(~g -> ~chi_1- c  sb)
     2.35514624E-01    3     1000024         5        -6   # BR(~g -> ~chi_1+ b  tb)
     2.35514624E-01    3    -1000024         6        -5   # BR(~g -> ~chi_1- t  bb)
#
#         PDG            Width
DECAY   1000006     2.73591362E+02   # stop1 decays
#          BR         NDA      ID1       ID2
     9.84989993E-02    2     1000022         6   # BR(~t_1 -> ~chi_10 t )
     1.32904995E-01    2     1000023         6   # BR(~t_1 -> ~chi_20 t )
     3.55238837E-02    2     1000025         6   # BR(~t_1 -> ~chi_30 t )
     2.69376218E-02    2     1000035         6   # BR(~t_1 -> ~chi_40 t )
     3.02948199E-04    2     1000024         5   # BR(~t_1 -> ~chi_1+ b )
     5.37223478E-02    2     1000037         5   # BR(~t_1 -> ~chi_2+ b )
     6.29490094E-01    2     1000021         6   # BR(~t_1 -> ~g      t )
     5.04687198E-03    2     1000005        24   # BR(~t_1 -> ~b_1    W+)
     1.75722381E-02    2     2000005        24   # BR(~t_1 -> ~b_2    W+)
#
#         PDG            Width
DECAY   2000006     3.56354485E+02   # stop2 decays
#          BR         NDA      ID1       ID2
     9.13937227E-02    2     1000022         6   # BR(~t_2 -> ~chi_10 t )
     1.09004572E-01    2     1000023         6   # BR(~t_2 -> ~chi_20 t )
     4.80469689E-02    2     1000025         6   # BR(~t_2 -> ~chi_30 t )
    -2.33599469E-05    2     1000035         6   # BR(~t_2 -> ~chi_40 t )
     2.17031322E-01    2     1000024         5   # BR(~t_2 -> ~chi_1+ b )
    -4.69278103E-05    2     1000037         5   # BR(~t_2 -> ~chi_2+ b )
     5.33848380E-01    2     1000021         6   # BR(~t_2 -> ~g      t )
    -4.51165066E-05    2     1000006        25   # BR(~t_2 -> ~t_1    h )
     1.12972666E-04    2     1000006        23   # BR(~t_2 -> ~t_1    Z )
     1.50413476E-04    2     1000005        24   # BR(~t_2 -> ~b_1    W+)
     5.27052487E-04    2     2000005        24   # BR(~t_2 -> ~b_2    W+)
#
#         PDG            Width
DECAY   1000005     1.17039628E+02   # sbottom1 decays
#          BR         NDA      ID1       ID2
     6.01722884E-03    2     1000022         5   # BR(~b_1 -> ~chi_10 b )
     2.28259700E-04    2     1000023         5   # BR(~b_1 -> ~chi_20 b )
     2.26583586E-02    2     1000025         5   # BR(~b_1 -> ~chi_30 b )
    -2.15858571E-02    2     1000035         5   # BR(~b_1 -> ~chi_40 b )
    -3.76626918E-01    2    -1000024         6   # BR(~b_1 -> ~chi_1- t )
    -4.33331437E-02    2    -1000037         6   # BR(~b_1 -> ~chi_2- t )
     1.41264207E+00    2     1000021         5   # BR(~b_1 -> ~g      b )
#
#         PDG            Width
DECAY   2000005     3.07770129E+02   # sbottom2 decays
#          BR         NDA      ID1       ID2
     4.45755222E-04    2     1000022         5   # BR(~b_2 -> ~chi_10 b )
     8.13433628E-05    2     1000023         5   # BR(~b_2 -> ~chi_20 b )
    -6.32130659E-04    2     1000025         5   # BR(~b_2 -> ~chi_30 b )
     2.98756113E-02    2     1000035         5   # BR(~b_2 -> ~chi_40 b )
     3.72473246E-01    2    -1000024         6   # BR(~b_2 -> ~chi_1- t )
     5.99303957E-02    2    -1000037         6   # BR(~b_2 -> ~chi_2- t )
     5.37825780E-01    2     1000021         5   # BR(~b_2 -> ~g      b )
#
#         PDG            Width
DECAY   1000002     1.86110960E+02   # sup_L decays
#          BR         NDA      ID1       ID2
     4.14844674E-04    2     1000022         2   # BR(~u_L -> ~chi_10 u)
     1.77595358E-07    2     1000023         2   # BR(~u_L -> ~chi_20 u)
     3.15343650E-03    2     1000025         2   # BR(~u_L -> ~chi_30 u)
     3.58090351E-02    2     1000035         2   # BR(~u_L -> ~chi_40 u)
     1.95455347E-04    2     1000024         1   # BR(~u_L -> ~chi_1+ d)
     7.16116665E-02    2     1000037         1   # BR(~u_L -> ~chi_2+ d)
     8.88815384E-01    2     1000021         2   # BR(~u_L -> ~g      u)
#
#         PDG            Width
DECAY   2000002     1.75789123E+02   # sup_R decays
#          BR         NDA      ID1       ID2
     1.30236562E-02    2     1000022         2   # BR(~u_R -> ~chi_10 u)
     1.92113110E-05    2     1000023         2   # BR(~u_R -> ~chi_20 u)
     4.59300250E-02    2     1000025         2   # BR(~u_R -> ~chi_30 u)
     3.76759129E-09    2     1000035         2   # BR(~u_R -> ~chi_40 u)
     9.41027104E-01    2     1000021         2   # BR(~u_R -> ~g      u)
#
#         PDG            Width
DECAY   1000001     1.86116832E+02   # sdown_L decays
#          BR         NDA      ID1       ID2
     1.23116869E-03    2     1000022         1   # BR(~d_L -> ~chi_10 d)
     6.50928394E-06    2     1000023         1   # BR(~d_L -> ~chi_20 d)
     2.30274915E-03    2     1000025         1   # BR(~d_L -> ~chi_30 d)
     3.58258516E-02    2     1000035         1   # BR(~d_L -> ~chi_40 d)
     9.66709288E-05    2    -1000024         2   # BR(~d_L -> ~chi_1- u)
     7.16582238E-02    2    -1000037         2   # BR(~d_L -> ~chi_2- u)
     8.88878827E-01    2     1000021         1   # BR(~d_L -> ~g      d)
#
#         PDG            Width
DECAY   2000001     1.68019433E+02   # sdown_R decays
#          BR         NDA      ID1       ID2
     3.40653197E-03    2     1000022         1   # BR(~d_R -> ~chi_10 d)
     5.02500569E-06    2     1000023         1   # BR(~d_R -> ~chi_20 d)
     1.20136861E-02    2     1000025         1   # BR(~d_R -> ~chi_30 d)
     9.85511506E-10    2     1000035         1   # BR(~d_R -> ~chi_40 d)
     9.84574756E-01    2     1000021         1   # BR(~d_R -> ~g      d)
#
#         PDG            Width
DECAY   1000004     1.86110960E+02   # scharm_L decays
#          BR         NDA      ID1       ID2
     4.14844674E-04    2     1000022         4   # BR(~c_L -> ~chi_10 c)
     1.77595358E-07    2     1000023         4   # BR(~c_L -> ~chi_20 c)
     3.15343650E-03    2     1000025         4   # BR(~c_L -> ~chi_30 c)
     3.58090351E-02    2     1000035         4   # BR(~c_L -> ~chi_40 c)
     1.95455347E-04    2     1000024         3   # BR(~c_L -> ~chi_1+ s)
     7.16116665E-02    2     1000037         3   # BR(~c_L -> ~chi_2+ s)
     8.88815384E-01    2     1000021         4   # BR(~c_L -> ~g      c)
#
#         PDG            Width
DECAY   2000004     1.75789123E+02   # scharm_R decays
#          BR         NDA      ID1       ID2
     1.30236562E-02    2     1000022         4   # BR(~c_R -> ~chi_10 c)
     1.92113110E-05    2     1000023         4   # BR(~c_R -> ~chi_20 c)
     4.59300250E-02    2     1000025         4   # BR(~c_R -> ~chi_30 c)
     3.76759129E-09    2     1000035         4   # BR(~c_R -> ~chi_40 c)
     9.41027104E-01    2     1000021         4   # BR(~c_R -> ~g      c)
#
#         PDG            Width
DECAY   1000003     1.86116832E+02   # sstrange_L decays
#          BR         NDA      ID1       ID2
     1.23116869E-03    2     1000022         3   # BR(~s_L -> ~chi_10 s)
     6.50928394E-06    2     1000023         3   # BR(~s_L -> ~chi_20 s)
     2.30274915E-03    2     1000025         3   # BR(~s_L -> ~chi_30 s)
     3.58258516E-02    2     1000035         3   # BR(~s_L -> ~chi_40 s)
     9.66709288E-05    2    -1000024         4   # BR(~s_L -> ~chi_1- c)
     7.16582238E-02    2    -1000037         4   # BR(~s_L -> ~chi_2- c)
     8.88878827E-01    2     1000021         3   # BR(~s_L -> ~g      s)
#
#         PDG            Width
DECAY   2000003     1.68019433E+02   # sstrange_R decays
#          BR         NDA      ID1       ID2
     3.40653197E-03    2     1000022         3   # BR(~s_R -> ~chi_10 s)
     5.02500569E-06    2     1000023         3   # BR(~s_R -> ~chi_20 s)
     1.20136861E-02    2     1000025         3   # BR(~s_R -> ~chi_30 s)
     9.85511506E-10    2     1000035         3   # BR(~s_R -> ~chi_40 s)
     9.84574756E-01    2     1000021         3   # BR(~s_R -> ~g      s)
#
#         PDG            Width
DECAY   1000011     2.80543598E+01   # selectron_L decays
#          BR         NDA      ID1       ID2
     4.03170187E-02    2     1000022        11   # BR(~e_L -> ~chi_10 e-)
     2.04678422E-05    2     1000023        11   # BR(~e_L -> ~chi_20 e-)
     1.80157642E-01    2     1000025        11   # BR(~e_L -> ~chi_30 e-)
     2.59484149E-01    2     1000035        11   # BR(~e_L -> ~chi_40 e-)
     6.77875791E-04    2    -1000024        12   # BR(~e_L -> ~chi_1- nu_e)
     5.19342847E-01    2    -1000037        12   # BR(~e_L -> ~chi_2- nu_e)
#
#         PDG            Width
DECAY   2000011     2.46528973E+01   # selectron_R decays
#          BR         NDA      ID1       ID2
     2.20875185E-01    2     1000022        11   # BR(~e_R -> ~chi_10 e-)
     3.25796929E-04    2     1000023        11   # BR(~e_R -> ~chi_20 e-)
     7.78798952E-01    2     1000025        11   # BR(~e_R -> ~chi_30 e-)
     6.60438881E-08    2     1000035        11   # BR(~e_R -> ~chi_40 e-)
#
#         PDG            Width
DECAY   1000013     2.80543598E+01   # smuon_L decays
#          BR         NDA      ID1       ID2
     4.03170187E-02    2     1000022        13   # BR(~mu_L -> ~chi_10 mu-)
     2.04678422E-05    2     1000023        13   # BR(~mu_L -> ~chi_20 mu-)
     1.80157642E-01    2     1000025        13   # BR(~mu_L -> ~chi_30 mu-)
     2.59484149E-01    2     1000035        13   # BR(~mu_L -> ~chi_40 mu-)
     6.77875791E-04    2    -1000024        14   # BR(~mu_L -> ~chi_1- nu_mu)
     5.19342847E-01    2    -1000037        14   # BR(~mu_L -> ~chi_2- nu_mu)
#
#         PDG            Width
DECAY   2000013     2.46528973E+01   # smuon_R decays
#          BR         NDA      ID1       ID2
     2.20875185E-01    2     1000022        13   # BR(~mu_R -> ~chi_10 mu-)
     3.25796929E-04    2     1000023        13   # BR(~mu_R -> ~chi_20 mu-)
     7.78798952E-01    2     1000025        13   # BR(~mu_R -> ~chi_30 mu-)
     6.60438881E-08    2     1000035        13   # BR(~mu_R -> ~chi_40 mu-)
#
#         PDG            Width
DECAY   1000015     2.63238560E+01   # stau_1 decays
#          BR         NDA      ID1       ID2
     1.35967931E-01    2     1000022        15   # BR(~tau_1 -> ~chi_10  tau-)
     4.64033543E-04    2     1000023        15   # BR(~tau_1 -> ~chi_20  tau-)
     4.72941389E-01    2     1000025        15   # BR(~tau_1 -> ~chi_30  tau-)
     1.29460046E-01    2     1000035        15   # BR(~tau_1 -> ~chi_40  tau-)
     1.92259513E-03    2    -1000024        16   # BR(~tau_1 -> ~chi_1-  nu_tau)
     2.59107327E-01    2    -1000037        16   # BR(~tau_1 -> ~chi_2-  nu_tau)
     1.36677904E-04    2     1000039        15   # BR(~tau_1 -> ~G       tau-)
#
#         PDG            Width
DECAY   2000015     2.64832727E+01   # stau_2 decays
#          BR         NDA      ID1       ID2
     1.14136987E-01    2     1000022        15   # BR(~tau_2 -> ~chi_10  tau-)
     1.06878355E-03    2     1000023        15   # BR(~tau_2 -> ~chi_20  tau-)
     4.45973398E-01    2     1000025        15   # BR(~tau_2 -> ~chi_30  tau-)
     1.46197385E-01    2     1000035        15   # BR(~tau_2 -> ~chi_40  tau-)
     1.84886534E-05    2    -1000024        16   # BR(~tau_2 -> ~chi_1-  nu_tau)
     2.92604958E-01    2    -1000037        16   # BR(~tau_2 -> ~chi_2-  nu_tau)
#
#         PDG            Width
DECAY   1000012     2.80529000E+01   # snu_eL decays
#          BR         NDA      ID1       ID2
     5.74905949E-02    2     1000022        12   # BR(~nu_eL -> ~chi_10 nu_e)
     1.53664852E-04    2     1000023        12   # BR(~nu_eL -> ~chi_20 nu_e)
     1.62263838E-01    2     1000025        12   # BR(~nu_eL -> ~chi_30 nu_e)
     2.59698343E-01    2     1000035        12   # BR(~nu_eL -> ~chi_40 nu_e)
     1.37060397E-03    2     1000024        11   # BR(~nu_eL -> ~chi_1+ e-)
     5.19022955E-01    2     1000037        11   # BR(~nu_eL -> ~chi_2+ e-)
#
#         PDG            Width
DECAY   1000014     2.80529000E+01   # snu_muL decays
#          BR         NDA      ID1       ID2
     5.74905949E-02    2     1000022        14   # BR(~nu_muL -> ~chi_10 nu_mu)
     1.53664852E-04    2     1000023        14   # BR(~nu_muL -> ~chi_20 nu_mu)
     1.62263838E-01    2     1000025        14   # BR(~nu_muL -> ~chi_30 nu_mu)
     2.59698343E-01    2     1000035        14   # BR(~nu_muL -> ~chi_40 nu_mu)
     1.37060397E-03    2     1000024        13   # BR(~nu_muL -> ~chi_1+ mu-)
     5.19022955E-01    2     1000037        13   # BR(~nu_muL -> ~chi_2+ mu-)
#
#         PDG            Width
DECAY   1000016     2.80849885E+01   # snu_tauL decays
#          BR         NDA      ID1       ID2
     5.74249090E-02    2     1000022        16   # BR(~nu_tauL -> ~chi_10 nu_tau)
     1.53489283E-04    2     1000023        16   # BR(~nu_tauL -> ~chi_20 nu_tau)
     1.62078444E-01    2     1000025        16   # BR(~nu_tauL -> ~chi_30 nu_tau)
     2.59401625E-01    2     1000035        16   # BR(~nu_tauL -> ~chi_40 nu_tau)
     2.51125788E-03    2     1000024        15   # BR(~nu_tauL -> ~chi_1+ tau-)
     5.18430275E-01    2     1000037        15   # BR(~nu_tauL -> ~chi_2+ tau-)
#
#         PDG            Width
DECAY   1000024     5.27121387E-06   # chargino1+ decays
#          BR         NDA      ID1       ID2
     2.76323334E-05    2     1000039        24   # BR(~chi_1+ -> ~G       W+)
#           BR         NDA      ID1       ID2       ID3
     3.34387677E-01    3     1000022         2        -1   # BR(~chi_1+ -> ~chi_10 u    db)
     3.34387677E-01    3     1000022         4        -3   # BR(~chi_1+ -> ~chi_10 c    sb)
     1.11462640E-01    3     1000022       -11        12   # BR(~chi_1+ -> ~chi_10 e+   nu_e)
     1.11462640E-01    3     1000022       -13        14   # BR(~chi_1+ -> ~chi_10 mu+  nu_mu)
     1.08271733E-01    3     1000022       -15        16   # BR(~chi_1+ -> ~chi_10 tau+ nu_tau)
#
#         PDG            Width
DECAY   1000037     3.38827645E+01   # chargino2+ decays
#          BR         NDA      ID1       ID2
     2.03051382E-01    2     1000024        23   # BR(~chi_2+ -> ~chi_1+  Z )
     1.48707352E-01    2     1000022        24   # BR(~chi_2+ -> ~chi_10  W+)
     1.98335516E-01    2     1000023        24   # BR(~chi_2+ -> ~chi_20  W+)
     4.91822935E-02    2     1000025        24   # BR(~chi_2+ -> ~chi_30  W+)
     2.03602900E-01    2     1000024        25   # BR(~chi_2+ -> ~chi_1+  h )
     4.91770613E-02    2     1000024        35   # BR(~chi_2+ -> ~chi_1+  H )
     4.94101685E-02    2     1000024        36   # BR(~chi_2+ -> ~chi_1+  A )
     3.96013585E-02    2     1000022        37   # BR(~chi_2+ -> ~chi_10  H+)
     4.90586501E-02    2     1000023        37   # BR(~chi_2+ -> ~chi_20  H+)
     9.86315529E-03    2     1000025        37   # BR(~chi_2+ -> ~chi_30  H+)
     1.01626787E-05    2     1000039        24   # BR(~chi_2+ -> ~G       W+)
     3.94987390E-10    2     1000039        37   # BR(~chi_2+ -> ~G       H+)
#
#         PDG            Width
DECAY   1000022    1.0E-05    # neutralino1 decays
#          BR         NDA      ID1       ID2
     5.02650462E-01    2     1000039        22   # BR(~chi_10 -> ~G        gam)
     4.93143862E-01    2     1000039        23   # BR(~chi_10 -> ~G        Z)
     4.20567562E-03    2     1000039        25   # BR(~chi_10 -> ~G        h)
#
#         PDG            Width
DECAY   1000023     6.65569608E-06   # neutralino2 decays
#          BR         NDA      ID1       ID2
     3.58953716E-03    2     1000022        22   # BR(~chi_20 -> ~chi_10 gam)
#          BR         NDA      ID1       ID2
     1.49057182E-08    2     1000039        22   # BR(~chi_20 -> ~G        gam)
     7.56088344E-07    2     1000039        23   # BR(~chi_20 -> ~G        Z)
     7.66112310E-06    2     1000039        25   # BR(~chi_20 -> ~G        h)
#           BR         NDA      ID1       ID2       ID3
     1.22027860E-01    3     1000022        -2         2   # BR(~chi_20 -> ~chi_10 ub      u)
     1.57941842E-01    3     1000022        -1         1   # BR(~chi_20 -> ~chi_10 db      d)
     1.22027860E-01    3     1000022        -4         4   # BR(~chi_20 -> ~chi_10 cb      c)
     1.57941842E-01    3     1000022        -3         3   # BR(~chi_20 -> ~chi_10 sb      s)
     1.13486812E-01    3     1000022        -5         5   # BR(~chi_20 -> ~chi_10 bb      b)
     3.60412196E-02    3     1000022       -11        11   # BR(~chi_20 -> ~chi_10 e+      e-)
     3.60412196E-02    3     1000022       -13        13   # BR(~chi_20 -> ~chi_10 mu+     mu-)
     3.50093008E-02    3     1000022       -15        15   # BR(~chi_20 -> ~chi_10 tau+    tau-)
     7.19559065E-02    3     1000022       -12        12   # BR(~chi_20 -> ~chi_10 nu_eb   nu_e)
     7.19559065E-02    3     1000022       -14        14   # BR(~chi_20 -> ~chi_10 nu_mub  nu_mu)
     7.19559065E-02    3     1000022       -16        16   # BR(~chi_20 -> ~chi_10 nu_taub nu_tau)
     3.05921167E-06    3     1000024        -2         1   # BR(~chi_20 -> ~chi_1+ ub      d)
     3.05921167E-06    3    -1000024        -1         2   # BR(~chi_20 -> ~chi_1- db      u)
     3.05921167E-06    3     1000024        -4         3   # BR(~chi_20 -> ~chi_1+ cb      s)
     3.05921167E-06    3    -1000024        -3         4   # BR(~chi_20 -> ~chi_1- sb      c)
     1.01973742E-06    3     1000024       -12        11   # BR(~chi_20 -> ~chi_1+ nu_eb   e-)
     1.01973742E-06    3    -1000024        12       -11   # BR(~chi_20 -> ~chi_1- nu_e    e+)
     1.01973742E-06    3     1000024       -14        13   # BR(~chi_20 -> ~chi_1+ nu_mub  mu-)
     1.01973742E-06    3    -1000024        14       -13   # BR(~chi_20 -> ~chi_1- nu_mu   mu+)
     1.95846959E-08    3     1000024       -16        15   # BR(~chi_20 -> ~chi_1+ nu_taub tau-)
     1.95846959E-08    3    -1000024        16       -15   # BR(~chi_20 -> ~chi_1- nu_tau  tau+)
#
#         PDG            Width
DECAY   1000025     2.58920041E-03   # neutralino3 decays
#          BR         NDA      ID1       ID2
     4.44257593E-02    2     1000022        23   # BR(~chi_30 -> ~chi_10   Z )
     4.77786715E-01    2     1000024       -24   # BR(~chi_30 -> ~chi_1+   W-)
     4.77786715E-01    2    -1000024        24   # BR(~chi_30 -> ~chi_1-   W+)
     6.13136944E-07    2     1000039        22   # BR(~chi_30 -> ~G        gam)
     1.94273783E-07    2     1000039        23   # BR(~chi_30 -> ~G        Z)
     2.54304809E-09    2     1000039        25   # BR(~chi_30 -> ~G        h)
#
#         PDG            Width
DECAY   1000035     3.38831289E+01   # neutralino4 decays
#          BR         NDA      ID1       ID2
     4.03628072E-03    2     1000022        23   # BR(~chi_40 -> ~chi_10   Z )
     1.97361832E-01    2     1000023        23   # BR(~chi_40 -> ~chi_20   Z )
     1.80777348E-03    2     1000025        23   # BR(~chi_40 -> ~chi_30   Z )
     1.97930862E-01    2     1000024       -24   # BR(~chi_40 -> ~chi_1+   W-)
     1.97930862E-01    2    -1000024        24   # BR(~chi_40 -> ~chi_1-   W+)
     1.49002636E-01    2     1000022        25   # BR(~chi_40 -> ~chi_10   h )
     2.49590595E-03    2     1000022        35   # BR(~chi_40 -> ~chi_10   H )
     3.70801904E-02    2     1000022        36   # BR(~chi_40 -> ~chi_10   A )
     6.00710161E-03    2     1000023        25   # BR(~chi_40 -> ~chi_20   h )
     4.60648870E-02    2     1000023        35   # BR(~chi_40 -> ~chi_20   H )
     2.91123387E-03    2     1000023        36   # BR(~chi_40 -> ~chi_20   A )
     4.88042612E-02    2     1000025        25   # BR(~chi_40 -> ~chi_30   h )
     4.81983168E-04    2     1000025        35   # BR(~chi_40 -> ~chi_30   H )
     9.37805937E-03    2     1000025        36   # BR(~chi_40 -> ~chi_30   A )
     4.93479839E-02    2     1000024       -37   # BR(~chi_40 -> ~chi_1+   H-)
     4.93479839E-02    2    -1000024        37   # BR(~chi_40 -> ~chi_1-   H+)
     2.43541251E-06    2     1000039        22   # BR(~chi_40 -> ~G        gam)
     7.72646282E-06    2     1000039        23   # BR(~chi_40 -> ~G        Z)
     4.78947202E-10    2     1000039        25   # BR(~chi_40 -> ~G        h)
     3.93284343E-10    2     1000039        35   # BR(~chi_40 -> ~G        H)
     2.85757087E-13    2     1000039        36   # BR(~chi_40 -> ~G        A)
#
#         PDG            Width
DECAY        25     4.21708991E-03   # h decays
#          BR         NDA      ID1       ID2
     6.01625949E-01    2           5        -5   # BR(h -> b       bb     )
     6.22593001E-02    2         -15        15   # BR(h -> tau+    tau-   )
     2.20370779E-04    2         -13        13   # BR(h -> mu+     mu-    )
     4.66261714E-04    2           3        -3   # BR(h -> s       sb     )
     2.01146300E-02    2           4        -4   # BR(h -> c       cb     )
     6.64290923E-02    2          21        21   # BR(h -> g       g      )
     2.32217291E-03    2          22        22   # BR(h -> gam     gam    )
     1.62691383E-03    2          22        23   # BR(h -> Z       gam    )
     2.16845911E-01    2          24       -24   # BR(h -> W+      W-     )
     2.80893989E-02    2          23        23   # BR(h -> Z       Z      )
#
#         PDG            Width
DECAY        35     4.01436808E+01   # H decays
#          BR         NDA      ID1       ID2
     1.38909474E-03    2           5        -5   # BR(H -> b       bb     )
     2.32118267E-04    2         -15        15   # BR(H -> tau+    tau-   )
     8.20624491E-07    2         -13        13   # BR(H -> mu+     mu-    )
     1.05068725E-06    2           3        -3   # BR(H -> s       sb     )
     9.48255757E-06    2           4        -4   # BR(H -> c       cb     )
     9.38259372E-01    2           6        -6   # BR(H -> t       tb     )
     7.51406917E-04    2          21        21   # BR(H -> g       g      )
     2.63472022E-06    2          22        22   # BR(H -> gam     gam    )
     1.09159977E-06    2          23        22   # BR(H -> Z       gam    )
     3.18037026E-04    2          24       -24   # BR(H -> W+      W-     )
     1.58584711E-04    2          23        23   # BR(H -> Z       Z      )
     8.52432674E-04    2          25        25   # BR(H -> h       h      )
     8.53674383E-24    2          36        36   # BR(H -> A       A      )
     3.38996299E-11    2          23        36   # BR(H -> Z       A      )
     2.55450288E-12    2          24       -37   # BR(H -> W+      H-     )
     2.55450288E-12    2         -24        37   # BR(H -> W-      H+     )
     7.49631485E-05    2     1000024  -1000024   # BR(H -> ~chi_1+ ~chi_1-)
     9.87540175E-04    2     1000022   1000022   # BR(H -> ~chi_10 ~chi_10)
     7.75213687E-05    2     1000023   1000023   # BR(H -> ~chi_20 ~chi_20)
     4.52470709E-04    2     1000025   1000025   # BR(H -> ~chi_30 ~chi_30)
     1.45529526E-02    2     1000022   1000023   # BR(H -> ~chi_10 ~chi_20)
     7.45395221E-04    2     1000022   1000025   # BR(H -> ~chi_10 ~chi_30)
     4.11330305E-02    2     1000023   1000025   # BR(H -> ~chi_20 ~chi_30)
#
#         PDG            Width
DECAY        36     4.05891574E+01   # A decays
#          BR         NDA      ID1       ID2
     1.39202793E-03    2           5        -5   # BR(A -> b       bb     )
     2.29771126E-04    2         -15        15   # BR(A -> tau+    tau-   )
     8.12323934E-07    2         -13        13   # BR(A -> mu+     mu-    )
     1.07093183E-06    2           3        -3   # BR(A -> s       sb     )
     9.38477784E-06    2           4        -4   # BR(A -> c       cb     )
     9.39249827E-01    2           6        -6   # BR(A -> t       tb     )
     8.89017805E-04    2          21        21   # BR(A -> g       g      )
     2.67561595E-06    2          22        22   # BR(A -> gam     gam    )
     1.27307541E-06    2          23        22   # BR(A -> Z       gam    )
     3.09922844E-04    2          23        25   # BR(A -> Z       h      )
     5.99370292E-04    2     1000024  -1000024   # BR(A -> ~chi_1+ ~chi_1-)
     2.30134532E-02    2     1000022   1000022   # BR(A -> ~chi_10 ~chi_10)
     3.12612530E-06    2     1000023   1000023   # BR(A -> ~chi_20 ~chi_20)
     1.74032377E-02    2     1000025   1000025   # BR(A -> ~chi_30 ~chi_30)
     3.19944052E-04    2     1000022   1000023   # BR(A -> ~chi_10 ~chi_20)
     1.48770252E-02    2     1000022   1000025   # BR(A -> ~chi_10 ~chi_30)
     1.69805988E-03    2     1000023   1000025   # BR(A -> ~chi_20 ~chi_30)
#
#         PDG            Width
DECAY        37     3.97853799E+01   # H+ decays
#          BR         NDA      ID1       ID2
     2.23348243E-06    2           4        -5   # BR(H+ -> c       bb     )
     2.34658066E-04    2         -15        16   # BR(H+ -> tau+    nu_tau )
     8.29601031E-07    2         -13        14   # BR(H+ -> mu+     nu_mu  )
     1.42002479E-08    2           2        -5   # BR(H+ -> u       bb     )
     5.13752947E-08    2           2        -3   # BR(H+ -> u       sb     )
     1.02367211E-05    2           4        -3   # BR(H+ -> c       sb     )
     9.40914899E-01    2           6        -5   # BR(H+ -> t       bb     )
     3.17628861E-04    2          24        25   # BR(H+ -> W+      h      )
     1.31645843E-12    2          24        36   # BR(H+ -> W+      A      )
     1.28637514E-02    2     1000024   1000022   # BR(H+ -> ~chi_1+ ~chi_10)
     1.26679963E-04    2     1000024   1000023   # BR(H+ -> ~chi_1+ ~chi_20)
     4.55290171E-02    2     1000024   1000025   # BR(H+ -> ~chi_1+ ~chi_30)
