#
#                              ======================
#                              | THE SUSYHIT OUTPUT |
#                              ======================
#
#
#              ------------------------------------------------------
#              |     This is the output of the SUSY-HIT package     |
#              |  created by A.Djouadi, M.Muehlleitner and M.Spira. |
#              |  In case of problems with SUSY-HIT email to        |
#              |           margarete.muehlleitner@cern.ch           |
#              |           michael.spira@psi.ch                     |
#              |           abdelhak.djouadi@cern.ch                 |
#              ------------------------------------------------------
#
#              ------------------------------------------------------
#              |  SUSY Les Houches Accord - MSSM Spectrum + Decays  |
#              |              based on the decay programs           |
#              |                                                    |
#              |                     SDECAY 1.3b                    |
#              |                                                    |
#              |  Authors: M.Muhlleitner, A.Djouadi and Y.Mambrini  |
#              |  Ref.:    Comput.Phys.Commun.168(2005)46           |
#              |           [hep-ph/0311167]                         |
#              |                                                    |
#              |                     HDECAY 3.4                     |
#              |                                                    |
#              |  By: A.Djouadi,J.Kalinowski,M.Muhlleitner,M.Spira  |
#              |  Ref.:    Comput.Phys.Commun.108(1998)56           |
#              |           [hep-ph/9704448]                         |
#              |                                                    |
#              |                                                    |
#              |  If not stated otherwise all DRbar couplings and   |
#              |  soft SUSY breaking masses are given at the scale  |
#              |  Q=  0.50007632E+04
#              |                                                    |
#              ------------------------------------------------------
#
#
BLOCK DCINFO  # Decay Program information
     1   SDECAY/HDECAY # decay calculator
     2   1.3b  /3.4    # version number
#
BLOCK SPINFO  # Spectrum calculator information
     1    SOFTSUSY    # spectrum calculator                
     2    3.4.0       # version number                     
#
BLOCK MODSEL  # Model selection
     1     0   #  nonUniversal                                     
#
BLOCK SMINPUTS  # Standard Model inputs
         1     1.25778332E+02   # alpha_em^-1(M_Z)^MSbar
         2     1.16570000E-05   # G_F [GeV^-2]
         3     1.17200002E-01   # alpha_S(M_Z)^MSbar
         4     9.11876000E+01   # M_Z pole mass
         5     4.25000000E+00   # mb(mb)^MSbar
         6     1.72500000E+02   # mt pole mass
         7     1.77682000E+00   # mtau pole mass
#
BLOCK MINPAR  # Input parameters - minimal models
         3     1.00000000E+01   # tanb                
#
BLOCK EXTPAR  # Input parameters - non-minimal models
         0    -1.00000000E+00   # Set                 
         1     6.00000000E+01   # M_1(MX)             
         2     3.00000000E+03   # M_2(MX)             
         3     2.23497000E+03   # M_3(MX)             
        11     5.00000000E+03   # At(MX)              
        12     5.00000000E+03   # Ab(MX)              
        13     0.00000000E+00   # Atau(MX)            
        23    -4.74870000E+02   # mu(MX)              
        26     3.00000000E+03   # mA(pole)            
        31     5.00000000E+03   # meL(MX)             
        32     5.00000000E+03   # mmuL(MX)            
        33     5.00000000E+03   # mtauL(MX)           
        34     5.00000000E+03   # meR(MX)             
        35     5.00000000E+03   # mmuR(MX)            
        36     5.00000000E+03   # mtauR(MX)           
        41     5.00000000E+03   # mqL1(MX)            
        42     5.00000000E+03   # mqL2(MX)            
        43     5.00000000E+03   # mqL3(MX)            
        44     5.00000000E+03   # muR(MX)             
        45     5.00000000E+03   # mcR(MX)             
        46     5.00000000E+03   # mtR(MX)             
        47     5.00000000E+03   # mdR(MX)             
        48     5.00000000E+03   # msR(MX)             
        49     5.00000000E+03   # mbR(MX)             
#
BLOCK MASS  # Mass Spectrum
# PDG code           mass       particle
        24     8.00933375E+01   # W+
        25     1.24805513E+02   # h
        35     3.00008593E+03   # H
        36     2.99999945E+03   # A
        37     3.00143029E+03   # H+
         5     4.87878001E+00   # b-quark pole mass calculated from mb(mb)_Msbar
   1000001     5.08196338E+03   # ~d_L
   2000001     5.06415851E+03   # ~d_R
   1000002     5.08149211E+03   # ~u_L
   2000002     5.06385951E+03   # ~u_R
   1000003     5.08196338E+03   # ~s_L
   2000003     5.06415851E+03   # ~s_R
   1000004     5.08149211E+03   # ~c_L
   2000004     5.06385951E+03   # ~c_R
   1000005     5.02776944E+03   # ~b_1
   2000005     5.06237278E+03   # ~b_2
   1000006     4.91979452E+03   # ~t_1
   2000006     5.07075611E+03   # ~t_2
   1000011     5.01910672E+03   # ~e_L
   2000011     5.00594358E+03   # ~e_R
   1000012     5.01815664E+03   # ~nu_eL
   1000013     5.01910672E+03   # ~mu_L
   2000013     5.00594358E+03   # ~mu_R
   1000014     5.01815664E+03   # ~nu_muL
   1000015     5.00477433E+03   # ~tau_1
   2000015     5.01863105E+03   # ~tau_2
   1000016     5.01760503E+03   # ~nu_tauL
   1000021     2.60000090E+03   # ~g
   1000022     6.02023781E+01   # ~chi_10
   1000023     5.00512705E+02   # ~chi_20
   1000025    -5.02707020E+02   # ~chi_30
   1000035     3.07417311E+03   # ~chi_40
   1000024     5.00000221E+02   # ~chi_1+
   1000037     3.07434079E+03   # ~chi_2+
#
BLOCK NMIX  # Neutralino Mixing Matrix
  1  1     9.96029255E-01   # N_11
  1  2     2.24967137E-04   # N_12
  1  3    -8.90132462E-02   # N_13
  1  4    -1.52166051E-03   # N_14
  2  1     6.40536955E-02   # N_21
  2  2     1.90061915E-02   # N_22
  2  3     7.04713339E-01   # N_23
  2  4     7.06339152E-01   # N_24
  3  1    -6.18279572E-02   # N_31
  3  2     1.70138963E-02   # N_32
  3  3    -7.03884789E-01   # N_33
  3  4     7.07413624E-01   # N_34
  4  1    -3.89683015E-04   # N_41
  4  2     9.99674568E-01   # N_42
  4  3    -1.39852394E-03   # N_43
  4  4    -2.54686253E-02   # N_44
#
BLOCK UMIX  # Chargino Mixing Matrix U
  1  1     1.98306236E-03   # U_11
  1  2     9.99998034E-01   # U_12
  2  1    -9.99998034E-01   # U_21
  2  2     1.98306236E-03   # U_22
#
BLOCK VMIX  # Chargino Mixing Matrix V
  1  1     3.60383430E-02   # V_11
  1  2    -9.99350408E-01   # V_12
  2  1    -9.99350408E-01   # V_21
  2  2    -3.60383430E-02   # V_22
#
BLOCK STOPMIX  # Stop Mixing Matrix
  1  1    -5.01444607E-01   # cos(theta_t)
  1  2     8.65189752E-01   # sin(theta_t)
  2  1    -8.65189752E-01   # -sin(theta_t)
  2  2    -5.01444607E-01   # cos(theta_t)
#
BLOCK SBOTMIX  # Sbottom Mixing Matrix
  1  1     9.98776724E-01   # cos(theta_b)
  1  2    -4.94475034E-02   # sin(theta_b)
  2  1     4.94475034E-02   # -sin(theta_b)
  2  2     9.98776724E-01   # cos(theta_b)
#
BLOCK STAUMIX  # Stau Mixing Matrix
  1  1    -5.69219088E-02   # cos(theta_tau)
  1  2     9.98378634E-01   # sin(theta_tau)
  2  1    -9.98378634E-01   # -sin(theta_tau)
  2  2    -5.69219088E-02   # cos(theta_tau)
#
BLOCK ALPHA  # Higgs mixing
          -1.05493183E-01   # Mixing angle in the neutral Higgs boson sector
#
BLOCK HMIX Q=  5.00076318E+03  # DRbar Higgs Parameters
         1    -4.83587653E+02   # mu(Q)MSSM           
         2     9.46856559E+00   # tan                 
         3     2.41748695E+02   # higgs               
         4     8.67869812E+06   # mA^2(Q)MSSM         
#
BLOCK GAUGE Q=  5.00076318E+03  # The gauge couplings
     1     3.70943921E-01   # gprime(Q) DRbar
     2     6.33292458E-01   # g(Q) DRbar
     3     9.94631753E-01   # g3(Q) DRbar
#
BLOCK AU Q=  5.00076318E+03  # The trilinear couplings
  1  1     5.00000002E+03   # A_u(Q) DRbar
  2  2     5.00000002E+03   # A_c(Q) DRbar
  3  3     5.00000002E+03   # A_t(Q) DRbar
#
BLOCK AD Q=  5.00076318E+03  # The trilinear couplings
  1  1     5.00000001E+03   # A_d(Q) DRbar
  2  2     5.00000001E+03   # A_s(Q) DRbar
  3  3     5.00000001E+03   # A_b(Q) DRbar
#
BLOCK AE Q=  5.00076318E+03  # The trilinear couplings
  1  1     0.00000000E+00   # A_e(Q) DRbar
  2  2     2.61604599E-07   # A_mu(Q) DRbar
  3  3     2.61588862E-07   # A_tau(Q) DRbar
#
BLOCK Yu Q=  5.00076318E+03  # The Yukawa couplings
  1  1     0.00000000E+00   # y_u(Q) DRbar
  2  2     0.00000000E+00   # y_c(Q) DRbar
  3  3     8.21514369E-01   # y_t(Q) DRbar
#
BLOCK Yd Q=  5.00076318E+03  # The Yukawa couplings
  1  1     0.00000000E+00   # y_d(Q) DRbar
  2  2     0.00000000E+00   # y_s(Q) DRbar
  3  3     1.30355285E-01   # y_b(Q) DRbar
#
BLOCK Ye Q=  5.00076318E+03  # The Yukawa couplings
  1  1     0.00000000E+00   # y_e(Q) DRbar
  2  2     0.00000000E+00   # y_mu(Q) DRbar
  3  3     9.71339458E-02   # y_tau(Q) DRbar
#
BLOCK MSOFT Q=  5.00076318E+03  # The soft SUSY breaking masses at the scale Q
         1     6.00000000E+01   # M_1(Q)              
         2     3.00000000E+03   # M_2(Q)              
         3     2.23497000E+03   # M_3(Q)              
        21     8.49024392E+06   # mH1^2(Q)            
        22     3.44148041E+05   # mH2^2(Q)            
        31     5.00000000E+03   # meL(Q)              
        32     5.00000000E+03   # mmuL(Q)             
        33     5.00000000E+03   # mtauL(Q)            
        34     5.00000000E+03   # meR(Q)              
        35     5.00000000E+03   # mmuR(Q)             
        36     5.00000000E+03   # mtauR(Q)            
        41     4.99999999E+03   # mqL1(Q)             
        42     4.99999999E+03   # mqL2(Q)             
        43     4.99999999E+03   # mqL3(Q)             
        44     4.99999999E+03   # muR(Q)              
        45     4.99999999E+03   # mcR(Q)              
        46     4.99999999E+03   # mtR(Q)              
        47     4.99999999E+03   # mdR(Q)              
        48     4.99999999E+03   # msR(Q)              
        49     4.99999999E+03   # mbR(Q)              
#
#
#
#                             =================
#                             |The decay table|
#                             =================
#
# - The QCD corrections to the decays gluino -> squark  + quark
#                                     squark -> gaugino + quark_prime
#                                     squark -> squark_prime + Higgs
#                                     squark -> gluino  + quark
#   are included.
#
# - The multi-body decays for the inos, stops and sbottoms are included.
#
# - The loop induced decays for the gluino, neutralinos and stops
#   are included.
#
# - The SUSY decays of the top quark are included.
#
#
#         PDG            Width
DECAY         6     1.40552083E+00   # top decays
#          BR         NDA      ID1       ID2
     1.00000000E+00    2           5        24   # BR(t ->  b    W+)
#
#         PDG            Width
DECAY   1000021     8.96219263E-03   # gluino decays
#          BR         NDA      ID1       ID2
     3.53733386E-07    2     1000022        21   # BR(~g -> ~chi_10 g)
     3.87083485E-03    2     1000023        21   # BR(~g -> ~chi_20 g)
     3.76515057E-03    2     1000025        21   # BR(~g -> ~chi_30 g)
#           BR         NDA      ID1       ID2       ID3
     1.03693666E-02    3     1000022         1        -1   # BR(~g -> ~chi_10 d  db)
     3.47135952E-05    3     1000023         1        -1   # BR(~g -> ~chi_20 d  db)
     4.24302146E-05    3     1000025         1        -1   # BR(~g -> ~chi_30 d  db)
     3.53648850E-02    3     1000022         2        -2   # BR(~g -> ~chi_10 u  ub)
     1.81107449E-04    3     1000023         2        -2   # BR(~g -> ~chi_20 u  ub)
     7.06424227E-05    3     1000025         2        -2   # BR(~g -> ~chi_30 u  ub)
     1.03693666E-02    3     1000022         3        -3   # BR(~g -> ~chi_10 s  sb)
     3.47135952E-05    3     1000023         3        -3   # BR(~g -> ~chi_20 s  sb)
     4.24302146E-05    3     1000025         3        -3   # BR(~g -> ~chi_30 s  sb)
     3.53648850E-02    3     1000022         4        -4   # BR(~g -> ~chi_10 c  cb)
     1.81107449E-04    3     1000023         4        -4   # BR(~g -> ~chi_20 c  cb)
     7.06424227E-05    3     1000025         4        -4   # BR(~g -> ~chi_30 c  cb)
     1.06143067E-02    3     1000022         5        -5   # BR(~g -> ~chi_10 b  bb)
     5.29284946E-03    3     1000023         5        -5   # BR(~g -> ~chi_20 b  bb)
     5.27171460E-03    3     1000025         5        -5   # BR(~g -> ~chi_30 b  bb)
     3.61283117E-02    3     1000022         6        -6   # BR(~g -> ~chi_10 t  tb)
     2.09607831E-01    3     1000023         6        -6   # BR(~g -> ~chi_20 t  tb)
     2.00108405E-01    3     1000025         6        -6   # BR(~g -> ~chi_30 t  tb)
     5.42242143E-05    3     1000024         1        -2   # BR(~g -> ~chi_1+ d  ub)
     5.42242143E-05    3    -1000024         2        -1   # BR(~g -> ~chi_1- u  db)
     5.42242143E-05    3     1000024         3        -4   # BR(~g -> ~chi_1+ s  cb)
     5.42242143E-05    3    -1000024         4        -3   # BR(~g -> ~chi_1- c  sb)
     2.16498527E-01    3     1000024         5        -6   # BR(~g -> ~chi_1+ b  tb)
     2.16498527E-01    3    -1000024         6        -5   # BR(~g -> ~chi_1- t  bb)
#
#         PDG            Width
DECAY   1000006     2.91742250E+02   # stop1 decays
#          BR         NDA      ID1       ID2
     3.02380457E-02    2     1000022         6   # BR(~t_1 -> ~chi_10 t )
     1.12343999E-01    2     1000023         6   # BR(~t_1 -> ~chi_20 t )
     1.06313068E-01    2     1000025         6   # BR(~t_1 -> ~chi_30 t )
     6.86989775E-03    2     1000035         6   # BR(~t_1 -> ~chi_40 t )
     1.64247920E-01    2     1000024         5   # BR(~t_1 -> ~chi_1+ b )
     1.36948225E-02    2     1000037         5   # BR(~t_1 -> ~chi_2+ b )
     5.66292248E-01    2     1000021         6   # BR(~t_1 -> ~g      t )
#
#         PDG            Width
DECAY   2000006     2.98649388E+02   # stop2 decays
#          BR         NDA      ID1       ID2
     1.14665937E-02    2     1000022         6   # BR(~t_2 -> ~chi_10 t )
     1.09722672E-01    2     1000023         6   # BR(~t_2 -> ~chi_20 t )
     1.16345005E-01    2     1000025         6   # BR(~t_2 -> ~chi_30 t )
     1.90486009E-02    2     1000035         6   # BR(~t_2 -> ~chi_40 t )
     6.34424518E-02    2     1000024         5   # BR(~t_2 -> ~chi_1+ b )
     3.79290231E-02    2     1000037         5   # BR(~t_2 -> ~chi_2+ b )
     6.38114595E-01    2     1000021         6   # BR(~t_2 -> ~g      t )
     9.12085928E-04    2     1000006        25   # BR(~t_2 -> ~t_1    h )
     3.01897350E-03    2     1000006        23   # BR(~t_2 -> ~t_1    Z )
#
#         PDG            Width
DECAY   1000005     2.72909293E+02   # sbottom1 decays
#          BR         NDA      ID1       ID2
     2.84127656E-03    2     1000022         5   # BR(~b_1 -> ~chi_10 b )
     3.00922513E-03    2     1000023         5   # BR(~b_1 -> ~chi_20 b )
     3.01075785E-03    2     1000025         5   # BR(~b_1 -> ~chi_30 b )
     2.79694233E-02    2     1000035         5   # BR(~b_1 -> ~chi_40 b )
     2.41377036E-01    2    -1000024         6   # BR(~b_1 -> ~chi_1- t )
     5.61561597E-02    2    -1000037         6   # BR(~b_1 -> ~chi_2- t )
     6.63674601E-01    2     1000021         5   # BR(~b_1 -> ~g      b )
     1.96152102E-03    2     1000006       -24   # BR(~b_1 -> ~t_1    W-)
#
#         PDG            Width
DECAY   2000005     1.90488228E+02   # sbottom2 decays
#          BR         NDA      ID1       ID2
     1.53683271E-02    2     1000022         5   # BR(~b_2 -> ~chi_10 b )
     4.47359641E-03    2     1000023         5   # BR(~b_2 -> ~chi_20 b )
     4.52559011E-03    2     1000025         5   # BR(~b_2 -> ~chi_30 b )
     8.91471935E-05    2     1000035         5   # BR(~b_2 -> ~chi_40 b )
     9.54607708E-03    2    -1000024         6   # BR(~b_2 -> ~chi_1- t )
     1.79009598E-04    2    -1000037         6   # BR(~b_2 -> ~chi_2- t )
     9.65788830E-01    2     1000021         5   # BR(~b_2 -> ~g      b )
     2.94221525E-05    2     1000006       -24   # BR(~b_2 -> ~t_1    W-)
#
#         PDG            Width
DECAY   1000002     2.10139548E+02   # sup_L decays
#          BR         NDA      ID1       ID2
     3.52688739E-03    2     1000022         2   # BR(~u_L -> ~chi_10 u)
     9.07548576E-05    2     1000023         2   # BR(~u_L -> ~chi_20 u)
     2.23191577E-06    2     1000025         2   # BR(~u_L -> ~chi_30 u)
     3.77046810E-02    2     1000035         2   # BR(~u_L -> ~chi_40 u)
     2.37400928E-04    2     1000024         1   # BR(~u_L -> ~chi_1+ d)
     7.53625268E-02    2     1000037         1   # BR(~u_L -> ~chi_2+ d)
     8.83075517E-01    2     1000021         2   # BR(~u_L -> ~g      u)
#
#         PDG            Width
DECAY   2000002     1.95892696E+02   # sup_R decays
#          BR         NDA      ID1       ID2
     6.01805481E-02    2     1000022         2   # BR(~u_R -> ~chi_10 u)
     2.44441217E-04    2     1000023         2   # BR(~u_R -> ~chi_20 u)
     2.27710502E-04    2     1000025         2   # BR(~u_R -> ~chi_30 u)
     3.70636917E-09    2     1000035         2   # BR(~u_R -> ~chi_40 u)
     9.39347296E-01    2     1000021         2   # BR(~u_R -> ~g      u)
#
#         PDG            Width
DECAY   1000001     2.10155814E+02   # sdown_L decays
#          BR         NDA      ID1       ID2
     3.51066578E-03    2     1000022         1   # BR(~d_L -> ~chi_10 d)
     3.86130984E-06    2     1000023         1   # BR(~d_L -> ~chi_20 d)
     7.73032673E-05    2     1000025         1   # BR(~d_L -> ~chi_30 d)
     3.77247673E-02    2     1000035         1   # BR(~d_L -> ~chi_40 d)
     7.18843663E-07    2    -1000024         2   # BR(~d_L -> ~chi_1- u)
     7.54774563E-02    2    -1000037         2   # BR(~d_L -> ~chi_2- u)
     8.83205227E-01    2     1000021         1   # BR(~d_L -> ~g      d)
#
#         PDG            Width
DECAY   2000001     1.87008233E+02   # sdown_R decays
#          BR         NDA      ID1       ID2
     1.57608574E-02    2     1000022         1   # BR(~d_R -> ~chi_10 d)
     6.40175512E-05    2     1000023         1   # BR(~d_R -> ~chi_20 d)
     5.96358880E-05    2     1000025         1   # BR(~d_R -> ~chi_30 d)
     9.70803505E-10    2     1000035         1   # BR(~d_R -> ~chi_40 d)
     9.84115488E-01    2     1000021         1   # BR(~d_R -> ~g      d)
#
#         PDG            Width
DECAY   1000004     2.10139548E+02   # scharm_L decays
#          BR         NDA      ID1       ID2
     3.52688739E-03    2     1000022         4   # BR(~c_L -> ~chi_10 c)
     9.07548576E-05    2     1000023         4   # BR(~c_L -> ~chi_20 c)
     2.23191577E-06    2     1000025         4   # BR(~c_L -> ~chi_30 c)
     3.77046810E-02    2     1000035         4   # BR(~c_L -> ~chi_40 c)
     2.37400928E-04    2     1000024         3   # BR(~c_L -> ~chi_1+ s)
     7.53625268E-02    2     1000037         3   # BR(~c_L -> ~chi_2+ s)
     8.83075517E-01    2     1000021         4   # BR(~c_L -> ~g      c)
#
#         PDG            Width
DECAY   2000004     1.95892696E+02   # scharm_R decays
#          BR         NDA      ID1       ID2
     6.01805481E-02    2     1000022         4   # BR(~c_R -> ~chi_10 c)
     2.44441217E-04    2     1000023         4   # BR(~c_R -> ~chi_20 c)
     2.27710502E-04    2     1000025         4   # BR(~c_R -> ~chi_30 c)
     3.70636917E-09    2     1000035         4   # BR(~c_R -> ~chi_40 c)
     9.39347296E-01    2     1000021         4   # BR(~c_R -> ~g      c)
#
#         PDG            Width
DECAY   1000003     2.10155814E+02   # sstrange_L decays
#          BR         NDA      ID1       ID2
     3.51066578E-03    2     1000022         3   # BR(~s_L -> ~chi_10 s)
     3.86130984E-06    2     1000023         3   # BR(~s_L -> ~chi_20 s)
     7.73032673E-05    2     1000025         3   # BR(~s_L -> ~chi_30 s)
     3.77247673E-02    2     1000035         3   # BR(~s_L -> ~chi_40 s)
     7.18843663E-07    2    -1000024         4   # BR(~s_L -> ~chi_1- c)
     7.54774563E-02    2    -1000037         4   # BR(~s_L -> ~chi_2- c)
     8.83205227E-01    2     1000021         3   # BR(~s_L -> ~g      s)
#
#         PDG            Width
DECAY   2000003     1.87008233E+02   # sstrange_R decays
#          BR         NDA      ID1       ID2
     1.57608574E-02    2     1000022         3   # BR(~s_R -> ~chi_10 s)
     6.40175512E-05    2     1000023         3   # BR(~s_R -> ~chi_20 s)
     5.96358880E-05    2     1000025         3   # BR(~s_R -> ~chi_30 s)
     9.70803505E-10    2     1000035         3   # BR(~s_R -> ~chi_40 s)
     9.84115488E-01    2     1000021         3   # BR(~s_R -> ~g      s)
#
#         PDG            Width
DECAY   1000011     3.03315603E+01   # selectron_L decays
#          BR         NDA      ID1       ID2
     2.24803168E-01    2     1000022        11   # BR(~e_L -> ~chi_10 e-)
     2.06747180E-03    2     1000023        11   # BR(~e_L -> ~chi_20 e-)
     2.38526532E-04    2     1000025        11   # BR(~e_L -> ~chi_30 e-)
     2.57461537E-01    2     1000035        11   # BR(~e_L -> ~chi_40 e-)
     5.08956012E-06    2    -1000024        12   # BR(~e_L -> ~chi_1- nu_e)
     5.15424207E-01    2    -1000037        12   # BR(~e_L -> ~chi_2- nu_e)
#
#         PDG            Width
DECAY   2000011     2.73948636E+01   # selectron_R decays
#          BR         NDA      ID1       ID2
     9.92229241E-01    2     1000022        11   # BR(~e_R -> ~chi_10 e-)
     4.02304692E-03    2     1000023        11   # BR(~e_R -> ~chi_20 e-)
     3.74765354E-03    2     1000025        11   # BR(~e_R -> ~chi_30 e-)
     5.89411937E-08    2     1000035        11   # BR(~e_R -> ~chi_40 e-)
#
#         PDG            Width
DECAY   1000013     3.03315603E+01   # smuon_L decays
#          BR         NDA      ID1       ID2
     2.24803168E-01    2     1000022        13   # BR(~mu_L -> ~chi_10 mu-)
     2.06747180E-03    2     1000023        13   # BR(~mu_L -> ~chi_20 mu-)
     2.38526532E-04    2     1000025        13   # BR(~mu_L -> ~chi_30 mu-)
     2.57461537E-01    2     1000035        13   # BR(~mu_L -> ~chi_40 mu-)
     5.08956012E-06    2    -1000024        14   # BR(~mu_L -> ~chi_1- nu_mu)
     5.15424207E-01    2    -1000037        14   # BR(~mu_L -> ~chi_2- nu_mu)
#
#         PDG            Width
DECAY   2000013     2.73948636E+01   # smuon_R decays
#          BR         NDA      ID1       ID2
     9.92229241E-01    2     1000022        13   # BR(~mu_R -> ~chi_10 mu-)
     4.02304692E-03    2     1000023        13   # BR(~mu_R -> ~chi_20 mu-)
     3.74765354E-03    2     1000025        13   # BR(~mu_R -> ~chi_30 mu-)
     5.89411937E-08    2     1000035        13   # BR(~mu_R -> ~chi_40 mu-)
#
#         PDG            Width
DECAY   1000015     2.92374590E+01   # stau_1 decays
#          BR         NDA      ID1       ID2
     9.28349642E-01    2     1000022        15   # BR(~tau_1 -> ~chi_10  tau-)
     1.91861226E-02    2     1000023        15   # BR(~tau_1 -> ~chi_20  tau-)
     1.84824033E-02    2     1000025        15   # BR(~tau_1 -> ~chi_30  tau-)
     8.47973610E-04    2     1000035        15   # BR(~tau_1 -> ~chi_40  tau-)
     3.14364201E-02    2    -1000024        16   # BR(~tau_1 -> ~chi_1-  nu_tau)
     1.69743826E-03    2    -1000037        16   # BR(~tau_1 -> ~chi_2-  nu_tau)
#
#         PDG            Width
DECAY   2000015     3.12387980E+01   # stau_2 decays
#          BR         NDA      ID1       ID2
     2.19792133E-01    2     1000022        15   # BR(~tau_2 -> ~chi_10  tau-)
     1.68942271E-02    2     1000023        15   # BR(~tau_2 -> ~chi_20  tau-)
     1.54637777E-02    2     1000025        15   # BR(~tau_2 -> ~chi_30  tau-)
     2.49102409E-01    2     1000035        15   # BR(~tau_2 -> ~chi_40  tau-)
     5.72628192E-05    2    -1000024        16   # BR(~tau_2 -> ~chi_1-  nu_tau)
     4.98690190E-01    2    -1000037        16   # BR(~tau_2 -> ~chi_2-  nu_tau)
#
#         PDG            Width
DECAY   1000012     3.03347560E+01   # snu_eL decays
#          BR         NDA      ID1       ID2
     2.24390540E-01    2     1000022        12   # BR(~nu_eL -> ~chi_10 nu_e)
     2.21697270E-04    2     1000023        12   # BR(~nu_eL -> ~chi_20 nu_e)
     1.83251307E-03    2     1000025        12   # BR(~nu_eL -> ~chi_30 nu_e)
     2.57503731E-01    2     1000035        12   # BR(~nu_eL -> ~chi_40 nu_e)
     1.68037367E-03    2     1000024        11   # BR(~nu_eL -> ~chi_1+ e-)
     5.14371144E-01    2     1000037        11   # BR(~nu_eL -> ~chi_2+ e-)
#
#         PDG            Width
DECAY   1000014     3.03347560E+01   # snu_muL decays
#          BR         NDA      ID1       ID2
     2.24390540E-01    2     1000022        14   # BR(~nu_muL -> ~chi_10 nu_mu)
     2.21697270E-04    2     1000023        14   # BR(~nu_muL -> ~chi_20 nu_mu)
     1.83251307E-03    2     1000025        14   # BR(~nu_muL -> ~chi_30 nu_mu)
     2.57503731E-01    2     1000035        14   # BR(~nu_muL -> ~chi_40 nu_mu)
     1.68037367E-03    2     1000024        13   # BR(~nu_muL -> ~chi_1+ mu-)
     5.14371144E-01    2     1000037        13   # BR(~nu_muL -> ~chi_2+ mu-)
#
#         PDG            Width
DECAY   1000016     3.12484570E+01   # snu_tauL decays
#          BR         NDA      ID1       ID2
     2.17805430E-01    2     1000022        16   # BR(~nu_tauL -> ~chi_10 nu_tau)
     2.15190261E-04    2     1000023        16   # BR(~nu_tauL -> ~chi_20 nu_tau)
     1.77872714E-03    2     1000025        16   # BR(~nu_tauL -> ~chi_30 nu_tau)
     2.49880848E-01    2     1000035        16   # BR(~nu_tauL -> ~chi_40 nu_tau)
     3.11760987E-02    2     1000024        15   # BR(~nu_tauL -> ~chi_1+ tau-)
     4.99143706E-01    2     1000037        15   # BR(~nu_tauL -> ~chi_2+ tau-)
#
#         PDG            Width
DECAY   1000024     2.94053889E-01   # chargino1+ decays
#          BR         NDA      ID1       ID2
     1.00000000E+00    2     1000022        24   # BR(~chi_1+ -> ~chi_10  W+)
#
#         PDG            Width
DECAY   1000037     2.21599323E+01   # chargino2+ decays
#          BR         NDA      ID1       ID2
     2.53559248E-01    2     1000024        23   # BR(~chi_2+ -> ~chi_1+  Z )
     1.56240131E-04    2     1000022        24   # BR(~chi_2+ -> ~chi_10  W+)
     2.44964605E-01    2     1000023        24   # BR(~chi_2+ -> ~chi_20  W+)
     2.44370442E-01    2     1000025        24   # BR(~chi_2+ -> ~chi_30  W+)
     2.56944285E-01    2     1000024        25   # BR(~chi_2+ -> ~chi_1+  h )
     5.17917667E-06    2     1000022        37   # BR(~chi_2+ -> ~chi_10  H+)
#
#         PDG            Width
DECAY   1000022     0.00000000E+00   # neutralino1 decays
#
#         PDG            Width
DECAY   1000023     2.97387920E-01   # neutralino2 decays
#          BR         NDA      ID1       ID2
     5.04349139E-01    2     1000022        23   # BR(~chi_20 -> ~chi_10   Z )
     4.95650861E-01    2     1000022        25   # BR(~chi_20 -> ~chi_10   h )
#
#         PDG            Width
DECAY   1000025     2.90288951E-01   # neutralino3 decays
#          BR         NDA      ID1       ID2
     5.33687447E-01    2     1000022        23   # BR(~chi_30 -> ~chi_10   Z )
     4.66312553E-01    2     1000022        25   # BR(~chi_30 -> ~chi_10   h )
#
#         PDG            Width
DECAY   1000035     2.21708839E+01   # neutralino4 decays
#          BR         NDA      ID1       ID2
     3.09991573E-06    2     1000022        23   # BR(~chi_40 -> ~chi_10   Z )
     1.12720378E-01    2     1000023        23   # BR(~chi_40 -> ~chi_20   Z )
     1.40400158E-01    2     1000025        23   # BR(~chi_40 -> ~chi_30   Z )
     2.45147438E-01    2     1000024       -24   # BR(~chi_40 -> ~chi_1+   W-)
     2.45147438E-01    2    -1000024        24   # BR(~chi_40 -> ~chi_1-   W+)
     1.45592083E-04    2     1000022        25   # BR(~chi_40 -> ~chi_10   h )
     4.98268311E-06    2     1000022        35   # BR(~chi_40 -> ~chi_10   H )
     5.43653864E-07    2     1000022        36   # BR(~chi_40 -> ~chi_10   A )
     1.43428825E-01    2     1000023        25   # BR(~chi_40 -> ~chi_20   h )
     1.13001545E-01    2     1000025        25   # BR(~chi_40 -> ~chi_30   h )
#
#         PDG            Width
DECAY        25     4.07137580E-03   # h decays
#          BR         NDA      ID1       ID2
     6.08488496E-01    2           5        -5   # BR(h -> b       bb     )
     6.37288164E-02    2         -15        15   # BR(h -> tau+    tau-   )
     2.25623041E-04    2         -13        13   # BR(h -> mu+     mu-    )
     4.78282922E-04    2           3        -3   # BR(h -> s       sb     )
     2.07228815E-02    2           4        -4   # BR(h -> c       cb     )
     6.70711555E-02    2          21        21   # BR(h -> g       g      )
     2.30598238E-03    2          22        22   # BR(h -> gam     gam    )
     1.48998680E-03    2          22        23   # BR(h -> Z       gam    )
     2.10332541E-01    2          24       -24   # BR(h -> W+      W-     )
     2.50709080E-02    2          23        23   # BR(h -> Z       Z      )
     8.53263779E-05    2     1000022   1000022   # BR(h -> ~chi_10 ~chi_10)
#
#         PDG            Width
DECAY        35     8.66012589E+00   # H decays
#          BR         NDA      ID1       ID2
     3.68285694E-01    2           5        -5   # BR(H -> b       bb     )
     6.43133162E-02    2         -15        15   # BR(H -> tau+    tau-   )
     2.27416994E-04    2         -13        13   # BR(H -> mu+     mu-    )
     2.78778304E-04    2           3        -3   # BR(H -> s       sb     )
     1.56039209E-06    2           4        -4   # BR(H -> c       cb     )
     1.55895533E-01    2           6        -6   # BR(H -> t       tb     )
     5.18539547E-05    2          21        21   # BR(H -> g       g      )
     1.49177958E-07    2          22        22   # BR(H -> gam     gam    )
     9.20110352E-08    2          23        22   # BR(H -> Z       gam    )
     7.45748365E-05    2          24       -24   # BR(H -> W+      W-     )
     3.72402145E-05    2          23        23   # BR(H -> Z       Z      )
     2.69900771E-04    2          25        25   # BR(H -> h       h      )
    -3.10536167E-23    2          36        36   # BR(H -> A       A      )
     7.97209840E-19    2          23        36   # BR(H -> Z       A      )
     3.17467073E-03    2     1000024  -1000024   # BR(H -> ~chi_1+ ~chi_1-)
     6.71553053E-03    2     1000022   1000022   # BR(H -> ~chi_10 ~chi_10)
     3.68953811E-04    2     1000023   1000023   # BR(H -> ~chi_20 ~chi_20)
     2.44862787E-03    2     1000025   1000025   # BR(H -> ~chi_30 ~chi_30)
     2.39582143E-01    2     1000022   1000023   # BR(H -> ~chi_10 ~chi_20)
     1.54949760E-01    2     1000022   1000025   # BR(H -> ~chi_10 ~chi_30)
     3.32420436E-03    2     1000023   1000025   # BR(H -> ~chi_20 ~chi_30)
#
#         PDG            Width
DECAY        36     8.66715220E+00   # A decays
#          BR         NDA      ID1       ID2
     3.68112708E-01    2           5        -5   # BR(A -> b       bb     )
     6.42630944E-02    2         -15        15   # BR(A -> tau+    tau-   )
     2.27239088E-04    2         -13        13   # BR(A -> mu+     mu-    )
     2.78763905E-04    2           3        -3   # BR(A -> s       sb     )
     1.56536010E-06    2           4        -4   # BR(A -> c       cb     )
     1.56305583E-01    2           6        -6   # BR(A -> t       tb     )
     1.54661543E-04    2          21        21   # BR(A -> g       g      )
     5.93889950E-07    2          22        22   # BR(A -> gam     gam    )
     1.87233606E-07    2          23        22   # BR(A -> Z       gam    )
     7.42321929E-05    2          23        25   # BR(A -> Z       h      )
     3.48661942E-03    2     1000024  -1000024   # BR(A -> ~chi_1+ ~chi_1-)
     6.67267725E-03    2     1000022   1000022   # BR(A -> ~chi_10 ~chi_10)
     2.71077363E-04    2     1000023   1000023   # BR(A -> ~chi_20 ~chi_20)
     4.22350167E-03    2     1000025   1000025   # BR(A -> ~chi_30 ~chi_30)
     1.58351114E-01    2     1000022   1000023   # BR(A -> ~chi_10 ~chi_20)
     2.35213509E-01    2     1000022   1000025   # BR(A -> ~chi_10 ~chi_30)
     2.36287216E-03    2     1000023   1000025   # BR(A -> ~chi_20 ~chi_30)
#
#         PDG            Width
DECAY        37     8.61869525E+00   # H+ decays
#          BR         NDA      ID1       ID2
     5.91359160E-04    2           4        -5   # BR(H+ -> c       bb     )
     6.46552237E-02    2         -15        16   # BR(H+ -> tau+    nu_tau )
     2.28625687E-04    2         -13        14   # BR(H+ -> mu+     nu_mu  )
     3.78467880E-06    2           2        -5   # BR(H+ -> u       bb     )
     1.34149565E-05    2           2        -3   # BR(H+ -> u       sb     )
     2.77422940E-04    2           4        -3   # BR(H+ -> c       sb     )
     5.23533395E-01    2           6        -5   # BR(H+ -> t       bb     )
     7.48045896E-05    2          24        25   # BR(H+ -> W+      h      )
     9.14380123E-13    2          24        36   # BR(H+ -> W+      A      )
     4.06827909E-01    2     1000024   1000022   # BR(H+ -> ~chi_1+ ~chi_10)
     3.46442720E-03    2     1000024   1000023   # BR(H+ -> ~chi_1+ ~chi_20)
     3.29632844E-04    2     1000024   1000025   # BR(H+ -> ~chi_1+ ~chi_30)
