#
#                              ======================
#                              | THE SUSYHIT OUTPUT |
#                              ======================
#
#
#              ------------------------------------------------------
#              |     This is the output of the SUSY-HIT package     |
#              |  created by A.Djouadi, M.Muehlleitner and M.Spira. |
#              |  In case of problems with SUSY-HIT email to        |
#              |           margarete.muehlleitner@cern.ch           |
#              |           michael.spira@psi.ch                     |
#              |           abdelhak.djouadi@cern.ch                 |
#              ------------------------------------------------------
#
#              ------------------------------------------------------
#              |  SUSY Les Houches Accord - MSSM Spectrum + Decays  |
#              |              based on the decay programs           |
#              |                                                    |
#              |                     SDECAY 1.3b                    |
#              |                                                    |
#              |  Authors: M.Muhlleitner, A.Djouadi and Y.Mambrini  |
#              |  Ref.:    Comput.Phys.Commun.168(2005)46           |
#              |           [hep-ph/0311167]                         |
#              |                                                    |
#              |                     HDECAY 3.4                     |
#              |                                                    |
#              |  By: A.Djouadi,J.Kalinowski,M.Muhlleitner,M.Spira  |
#              |  Ref.:    Comput.Phys.Commun.108(1998)56           |
#              |           [hep-ph/9704448]                         |
#              |                                                    |
#              |                                                    |
#              |  If not stated otherwise all DRbar couplings and   |
#              |  soft SUSY breaking masses are given at the scale  |
#              |  Q=  0.50007187E+04
#              |                                                    |
#              ------------------------------------------------------
#
#
BLOCK DCINFO  # Decay Program information
     1   SDECAY/HDECAY # decay calculator
     2   1.3b  /3.4    # version number
#
BLOCK SPINFO  # Spectrum calculator information
     1    SOFTSUSY    # spectrum calculator                
     2    3.4.0       # version number                     
#
BLOCK MODSEL  # Model selection
     1     0   #  nonUniversal                                     
#
BLOCK SMINPUTS  # Standard Model inputs
         1     1.25778332E+02   # alpha_em^-1(M_Z)^MSbar
         2     1.16570000E-05   # G_F [GeV^-2]
         3     1.17200002E-01   # alpha_S(M_Z)^MSbar
         4     9.11876000E+01   # M_Z pole mass
         5     4.25000000E+00   # mb(mb)^MSbar
         6     1.72500000E+02   # mt pole mass
         7     1.77682000E+00   # mtau pole mass
#
BLOCK MINPAR  # Input parameters - minimal models
         3     1.00000000E+01   # tanb                
#
BLOCK EXTPAR  # Input parameters - non-minimal models
         0    -1.00000000E+00   # Set                 
         1     6.00000000E+01   # M_1(MX)             
         2     3.00000000E+03   # M_2(MX)             
         3     9.46042000E+02   # M_3(MX)             
        11     5.00000000E+03   # At(MX)              
        12     5.00000000E+03   # Ab(MX)              
        13     0.00000000E+00   # Atau(MX)            
        23    -1.25164100E+03   # mu(MX)              
        26     3.00000000E+03   # mA(pole)            
        31     5.00000000E+03   # meL(MX)             
        32     5.00000000E+03   # mmuL(MX)            
        33     5.00000000E+03   # mtauL(MX)           
        34     5.00000000E+03   # meR(MX)             
        35     5.00000000E+03   # mmuR(MX)            
        36     5.00000000E+03   # mtauR(MX)           
        41     5.00000000E+03   # mqL1(MX)            
        42     5.00000000E+03   # mqL2(MX)            
        43     5.00000000E+03   # mqL3(MX)            
        44     5.00000000E+03   # muR(MX)             
        45     5.00000000E+03   # mcR(MX)             
        46     5.00000000E+03   # mtR(MX)             
        47     5.00000000E+03   # mdR(MX)             
        48     5.00000000E+03   # msR(MX)             
        49     5.00000000E+03   # mbR(MX)             
#
BLOCK MASS  # Mass Spectrum
# PDG code           mass       particle
        24     8.00940503E+01   # W+
        25     1.24462440E+02   # h
        35     3.00008129E+03   # H
        36     2.99999988E+03   # A
        37     3.00086963E+03   # H+
         5     4.87878001E+00   # b-quark pole mass calculated from mb(mb)_Msbar
   1000001     5.06467435E+03   # ~d_L
   2000001     5.04685978E+03   # ~d_R
   1000002     5.06419788E+03   # ~u_L
   2000002     5.04658031E+03   # ~u_R
   1000003     5.06467435E+03   # ~s_L
   2000003     5.04685978E+03   # ~s_R
   1000004     5.06419788E+03   # ~c_L
   2000004     5.04658031E+03   # ~c_R
   1000005     5.01095955E+03   # ~b_1
   2000005     5.04562669E+03   # ~b_2
   1000006     4.90158146E+03   # ~t_1
   2000006     5.05742499E+03   # ~t_2
   1000011     5.01905920E+03   # ~e_L
   2000011     5.00591553E+03   # ~e_R
   1000012     5.01811055E+03   # ~nu_eL
   1000013     5.01905920E+03   # ~mu_L
   2000013     5.00591553E+03   # ~mu_R
   1000014     5.01811055E+03   # ~nu_muL
   1000015     5.00447608E+03   # ~tau_1
   2000015     5.01889925E+03   # ~tau_2
   1000016     5.01756834E+03   # ~nu_tauL
   1000021     1.20000099E+03   # ~g
   1000022     6.03027205E+01   # ~chi_10
   1000023     1.29950249E+03   # ~chi_20
   1000025    -1.30184527E+03   # ~chi_30
   1000035     3.07430956E+03   # ~chi_40
   1000024     1.30000077E+03   # ~chi_1+
   1000037     3.07447706E+03   # ~chi_2+
#
BLOCK NMIX  # Neutralino Mixing Matrix
  1  1     9.99410242E-01   # N_11
  1  2     1.55306373E-04   # N_12
  1  3    -3.42807176E-02   # N_13
  1  4     1.99414176E-03   # N_14
  2  1     2.28326573E-02   # N_21
  2  2     2.74345649E-02   # N_22
  2  3     7.06875173E-01   # N_23
  2  4     7.06437190E-01   # N_24
  3  1    -2.56448189E-02   # N_31
  3  2     1.38809242E-02   # N_32
  3  3    -7.06442093E-01   # N_33
  3  4     7.07169875E-01   # N_34
  4  1    -4.25846346E-04   # N_41
  4  2     9.99527208E-01   # N_42
  4  3    -9.58595179E-03   # N_43
  4  4    -2.92110888E-02   # N_44
#
BLOCK UMIX  # Chargino Mixing Matrix U
  1  1     1.35709286E-02   # U_11
  1  2     9.99907911E-01   # U_12
  2  1    -9.99907911E-01   # U_21
  2  2     1.35709286E-02   # U_22
#
BLOCK VMIX  # Chargino Mixing Matrix V
  1  1     4.13375574E-02   # V_11
  1  2    -9.99145238E-01   # V_12
  2  1    -9.99145238E-01   # V_21
  2  2    -4.13375574E-02   # V_22
#
BLOCK STOPMIX  # Stop Mixing Matrix
  1  1    -5.11913421E-01   # cos(theta_t)
  1  2     8.59037048E-01   # sin(theta_t)
  2  1    -8.59037048E-01   # -sin(theta_t)
  2  2    -5.11913421E-01   # cos(theta_t)
#
BLOCK SBOTMIX  # Sbottom Mixing Matrix
  1  1     9.95600614E-01   # cos(theta_b)
  1  2    -9.36985454E-02   # sin(theta_b)
  2  1     9.36985454E-02   # -sin(theta_b)
  2  2     9.95600614E-01   # cos(theta_b)
#
BLOCK STAUMIX  # Stau Mixing Matrix
  1  1    -1.46905642E-01   # cos(theta_tau)
  1  2     9.89150510E-01   # sin(theta_tau)
  2  1    -9.89150510E-01   # -sin(theta_tau)
  2  2    -1.46905642E-01   # cos(theta_tau)
#
BLOCK ALPHA  # Higgs mixing
          -1.05433400E-01   # Mixing angle in the neutral Higgs boson sector
#
BLOCK HMIX Q=  5.00071869E+03  # DRbar Higgs Parameters
         1    -1.27411110E+03   # mu(Q)MSSM           
         2     9.47319427E+00   # tan                 
         3     2.41962875E+02   # higgs               
         4     8.43554119E+06   # mA^2(Q)MSSM         
#
BLOCK GAUGE Q=  5.00071869E+03  # The gauge couplings
     1     3.70751440E-01   # gprime(Q) DRbar
     2     6.32294490E-01   # g(Q) DRbar
     3     1.00596615E+00   # g3(Q) DRbar
#
BLOCK AU Q=  5.00071869E+03  # The trilinear couplings
  1  1     5.00000001E+03   # A_u(Q) DRbar
  2  2     5.00000001E+03   # A_c(Q) DRbar
  3  3     5.00000001E+03   # A_t(Q) DRbar
#
BLOCK AD Q=  5.00071869E+03  # The trilinear couplings
  1  1     5.00000000E+03   # A_d(Q) DRbar
  2  2     5.00000000E+03   # A_s(Q) DRbar
  3  3     5.00000001E+03   # A_b(Q) DRbar
#
BLOCK AE Q=  5.00071869E+03  # The trilinear couplings
  1  1     0.00000000E+00   # A_e(Q) DRbar
  2  2     4.97729628E-08   # A_mu(Q) DRbar
  3  3     4.89260758E-08   # A_tau(Q) DRbar
#
BLOCK Yu Q=  5.00071869E+03  # The Yukawa couplings
  1  1     0.00000000E+00   # y_u(Q) DRbar
  2  2     0.00000000E+00   # y_c(Q) DRbar
  3  3     8.15647443E-01   # y_t(Q) DRbar
#
BLOCK Yd Q=  5.00071869E+03  # The Yukawa couplings
  1  1     0.00000000E+00   # y_d(Q) DRbar
  2  2     0.00000000E+00   # y_s(Q) DRbar
  3  3     1.29944939E-01   # y_b(Q) DRbar
#
BLOCK Ye Q=  5.00071869E+03  # The Yukawa couplings
  1  1     0.00000000E+00   # y_e(Q) DRbar
  2  2     0.00000000E+00   # y_mu(Q) DRbar
  3  3     9.67257767E-02   # y_tau(Q) DRbar
#
BLOCK MSOFT Q=  5.00071869E+03  # The soft SUSY breaking masses at the scale Q
         1     6.00000000E+01   # M_1(Q)              
         2     3.00000000E+03   # M_2(Q)              
         3     9.46042000E+02   # M_3(Q)              
        21     7.05637418E+06   # mH1^2(Q)            
        22    -1.07190040E+06   # mH2^2(Q)            
        31     5.00000000E+03   # meL(Q)              
        32     5.00000000E+03   # mmuL(Q)             
        33     5.00000000E+03   # mtauL(Q)            
        34     5.00000000E+03   # meR(Q)              
        35     5.00000000E+03   # mmuR(Q)             
        36     5.00000000E+03   # mtauR(Q)            
        41     5.00000000E+03   # mqL1(Q)             
        42     5.00000000E+03   # mqL2(Q)             
        43     5.00000000E+03   # mqL3(Q)             
        44     5.00000000E+03   # muR(Q)              
        45     5.00000000E+03   # mcR(Q)              
        46     5.00000000E+03   # mtR(Q)              
        47     5.00000000E+03   # mdR(Q)              
        48     5.00000000E+03   # msR(Q)              
        49     5.00000000E+03   # mbR(Q)              
#
#
#
#                             =================
#                             |The decay table|
#                             =================
#
# - The QCD corrections to the decays gluino -> squark  + quark
#                                     squark -> gaugino + quark_prime
#                                     squark -> squark_prime + Higgs
#                                     squark -> gluino  + quark
#   are included.
#
# - The multi-body decays for the inos, stops and sbottoms are included.
#
# - The loop induced decays for the gluino, neutralinos and stops
#   are included.
#
# - The SUSY decays of the top quark are included.
#
#
#         PDG            Width
DECAY         6     1.40106344E+00   # top decays
#          BR         NDA      ID1       ID2
     1.00000000E+00    2           5        24   # BR(t ->  b    W+)
#
#         PDG            Width
DECAY   1000021     2.16532219E-05   # gluino decays
#          BR         NDA      ID1       ID2
     1.59809485E-05    2     1000022        21   # BR(~g -> ~chi_10 g)
#           BR         NDA      ID1       ID2       ID3
     8.03682910E-02    3     1000022         1        -1   # BR(~g -> ~chi_10 d  db)
     2.73981914E-01    3     1000022         2        -2   # BR(~g -> ~chi_10 u  ub)
     8.03682910E-02    3     1000022         3        -3   # BR(~g -> ~chi_10 s  sb)
     2.73981914E-01    3     1000022         4        -4   # BR(~g -> ~chi_10 c  cb)
     8.13936652E-02    3     1000022         5        -5   # BR(~g -> ~chi_10 b  bb)
     2.09889944E-01    3     1000022         6        -6   # BR(~g -> ~chi_10 t  tb)
#
#         PDG            Width
DECAY   1000006     3.97027419E+02   # stop1 decays
#          BR         NDA      ID1       ID2
     2.21135065E-02    2     1000022         6   # BR(~t_1 -> ~chi_10 t )
     7.15497120E-02    2     1000023         6   # BR(~t_1 -> ~chi_20 t )
     6.87684971E-02    2     1000025         6   # BR(~t_1 -> ~chi_30 t )
     5.42185740E-03    2     1000035         6   # BR(~t_1 -> ~chi_40 t )
     1.02786867E-01    2     1000024         5   # BR(~t_1 -> ~chi_1+ b )
     1.07932968E-02    2     1000037         5   # BR(~t_1 -> ~chi_2+ b )
     7.18566264E-01    2     1000021         6   # BR(~t_1 -> ~g      t )
#
#         PDG            Width
DECAY   2000006     4.01462332E+02   # stop2 decays
#          BR         NDA      ID1       ID2
     8.93925074E-03    2     1000022         6   # BR(~t_2 -> ~chi_10 t )
     7.28958709E-02    2     1000023         6   # BR(~t_2 -> ~chi_20 t )
     7.58804835E-02    2     1000025         6   # BR(~t_2 -> ~chi_30 t )
     1.35347536E-02    2     1000035         6   # BR(~t_2 -> ~chi_40 t )
     4.47838354E-02    2     1000024         5   # BR(~t_2 -> ~chi_1+ b )
     2.69025654E-02    2     1000037         5   # BR(~t_2 -> ~chi_2+ b )
     7.53787187E-01    2     1000021         6   # BR(~t_2 -> ~g      t )
     7.23338239E-04    2     1000006        25   # BR(~t_2 -> ~t_1    h )
     2.55271498E-03    2     1000006        23   # BR(~t_2 -> ~t_1    Z )
#
#         PDG            Width
DECAY   1000005     3.79528376E+02   # sbottom1 decays
#          BR         NDA      ID1       ID2
     2.05352912E-03    2     1000022         5   # BR(~b_1 -> ~chi_10 b )
     1.99572908E-03    2     1000023         5   # BR(~b_1 -> ~chi_20 b )
     1.91103013E-03    2     1000025         5   # BR(~b_1 -> ~chi_30 b )
     1.96748124E-02    2     1000035         5   # BR(~b_1 -> ~chi_40 b )
     1.51815976E-01    2    -1000024         6   # BR(~b_1 -> ~chi_1- t )
     3.95670483E-02    2    -1000037         6   # BR(~b_1 -> ~chi_2- t )
     7.81486492E-01    2     1000021         5   # BR(~b_1 -> ~g      b )
     1.49538373E-03    2     1000006       -24   # BR(~b_1 -> ~t_1    W-)
#
#         PDG            Width
DECAY   2000005     3.05549805E+02   # sbottom2 decays
#          BR         NDA      ID1       ID2
     9.60784870E-03    2     1000022         5   # BR(~b_2 -> ~chi_10 b )
     2.41595797E-03    2     1000023         5   # BR(~b_2 -> ~chi_20 b )
     2.50525750E-03    2     1000025         5   # BR(~b_2 -> ~chi_30 b )
     2.28937120E-04    2     1000035         5   # BR(~b_2 -> ~chi_40 b )
     6.50912267E-03    2    -1000024         6   # BR(~b_2 -> ~chi_1- t )
     4.60264224E-04    2    -1000037         6   # BR(~b_2 -> ~chi_2- t )
     9.78204990E-01    2     1000021         5   # BR(~b_2 -> ~g      b )
     6.76222516E-05    2     1000006       -24   # BR(~b_2 -> ~t_1    W-)
#
#         PDG            Width
DECAY   1000002     3.24383749E+02   # sup_L decays
#          BR         NDA      ID1       ID2
     2.30424270E-03    2     1000022         2   # BR(~u_L -> ~chi_10 u)
     5.35613662E-05    2     1000023         2   # BR(~u_L -> ~chi_20 u)
     4.13837839E-06    2     1000025         2   # BR(~u_L -> ~chi_30 u)
     2.40616074E-02    2     1000035         2   # BR(~u_L -> ~chi_40 u)
     1.79894156E-04    2     1000024         1   # BR(~u_L -> ~chi_1+ d)
     4.80883669E-02    2     1000037         1   # BR(~u_L -> ~chi_2+ d)
     9.25308189E-01    2     1000021         2   # BR(~u_L -> ~g      u)
#
#         PDG            Width
DECAY   2000002     3.10772775E+02   # sup_R decays
#          BR         NDA      ID1       ID2
     3.82872515E-02    2     1000022         2   # BR(~u_R -> ~chi_10 u)
     1.74314269E-05    2     1000023         2   # BR(~u_R -> ~chi_20 u)
     2.19784087E-05    2     1000025         2   # BR(~u_R -> ~chi_30 u)
     2.75479703E-09    2     1000035         2   # BR(~u_R -> ~chi_40 u)
     9.61673336E-01    2     1000021         2   # BR(~u_R -> ~g      u)
#
#         PDG            Width
DECAY   1000001     3.24394474E+02   # sdown_L decays
#          BR         NDA      ID1       ID2
     2.29706730E-03    2     1000022         1   # BR(~d_L -> ~chi_10 d)
     2.77827177E-05    2     1000023         1   # BR(~d_L -> ~chi_20 d)
     1.87834744E-05    2     1000025         1   # BR(~d_L -> ~chi_30 d)
     2.40763465E-02    2     1000035         1   # BR(~d_L -> ~chi_40 d)
     1.93903067E-05    2    -1000024         2   # BR(~d_L -> ~chi_1- u)
     4.81752633E-02    2    -1000037         2   # BR(~d_L -> ~chi_2- u)
     9.25385366E-01    2     1000021         1   # BR(~d_L -> ~g      d)
#
#         PDG            Width
DECAY   2000001     3.01860295E+02   # sdown_R decays
#          BR         NDA      ID1       ID2
     9.85497037E-03    2     1000022         1   # BR(~d_R -> ~chi_10 d)
     4.48684278E-06    2     1000023         1   # BR(~d_R -> ~chi_20 d)
     5.65723454E-06    2     1000025         1   # BR(~d_R -> ~chi_30 d)
     7.09164603E-10    2     1000035         1   # BR(~d_R -> ~chi_40 d)
     9.90134885E-01    2     1000021         1   # BR(~d_R -> ~g      d)
#
#         PDG            Width
DECAY   1000004     3.24383749E+02   # scharm_L decays
#          BR         NDA      ID1       ID2
     2.30424270E-03    2     1000022         4   # BR(~c_L -> ~chi_10 c)
     5.35613662E-05    2     1000023         4   # BR(~c_L -> ~chi_20 c)
     4.13837839E-06    2     1000025         4   # BR(~c_L -> ~chi_30 c)
     2.40616074E-02    2     1000035         4   # BR(~c_L -> ~chi_40 c)
     1.79894156E-04    2     1000024         3   # BR(~c_L -> ~chi_1+ s)
     4.80883669E-02    2     1000037         3   # BR(~c_L -> ~chi_2+ s)
     9.25308189E-01    2     1000021         4   # BR(~c_L -> ~g      c)
#
#         PDG            Width
DECAY   2000004     3.10772775E+02   # scharm_R decays
#          BR         NDA      ID1       ID2
     3.82872515E-02    2     1000022         4   # BR(~c_R -> ~chi_10 c)
     1.74314269E-05    2     1000023         4   # BR(~c_R -> ~chi_20 c)
     2.19784087E-05    2     1000025         4   # BR(~c_R -> ~chi_30 c)
     2.75479703E-09    2     1000035         4   # BR(~c_R -> ~chi_40 c)
     9.61673336E-01    2     1000021         4   # BR(~c_R -> ~g      c)
#
#         PDG            Width
DECAY   1000003     3.24394474E+02   # sstrange_L decays
#          BR         NDA      ID1       ID2
     2.29706730E-03    2     1000022         3   # BR(~s_L -> ~chi_10 s)
     2.77827177E-05    2     1000023         3   # BR(~s_L -> ~chi_20 s)
     1.87834744E-05    2     1000025         3   # BR(~s_L -> ~chi_30 s)
     2.40763465E-02    2     1000035         3   # BR(~s_L -> ~chi_40 s)
     1.93903067E-05    2    -1000024         4   # BR(~s_L -> ~chi_1- c)
     4.81752633E-02    2    -1000037         4   # BR(~s_L -> ~chi_2- c)
     9.25385366E-01    2     1000021         3   # BR(~s_L -> ~g      s)
#
#         PDG            Width
DECAY   2000003     3.01860295E+02   # sstrange_R decays
#          BR         NDA      ID1       ID2
     9.85497037E-03    2     1000022         3   # BR(~s_R -> ~chi_10 s)
     4.48684278E-06    2     1000023         3   # BR(~s_R -> ~chi_20 s)
     5.65723454E-06    2     1000025         3   # BR(~s_R -> ~chi_30 s)
     7.09164603E-10    2     1000035         3   # BR(~s_R -> ~chi_40 s)
     9.90134885E-01    2     1000021         3   # BR(~s_R -> ~g      s)
#
#         PDG            Width
DECAY   1000011     3.02518535E+01   # selectron_L decays
#          BR         NDA      ID1       ID2
     2.26635811E-01    2     1000022        11   # BR(~e_L -> ~chi_10 e-)
     9.57066605E-04    2     1000023        11   # BR(~e_L -> ~chi_20 e-)
     7.67247085E-07    2     1000025        11   # BR(~e_L -> ~chi_30 e-)
     2.57204334E-01    2     1000035        11   # BR(~e_L -> ~chi_40 e-)
     2.11514470E-04    2    -1000024        12   # BR(~e_L -> ~chi_1- nu_e)
     5.14990507E-01    2    -1000037        12   # BR(~e_L -> ~chi_2- nu_e)
#
#         PDG            Width
DECAY   2000011     2.73663300E+01   # selectron_R decays
#          BR         NDA      ID1       ID2
     9.98974333E-01    2     1000022        11   # BR(~e_R -> ~chi_10 e-)
     4.53635503E-04    2     1000023        11   # BR(~e_R -> ~chi_20 e-)
     5.71961583E-04    2     1000025        11   # BR(~e_R -> ~chi_30 e-)
     7.03798876E-08    2     1000035        11   # BR(~e_R -> ~chi_40 e-)
#
#         PDG            Width
DECAY   1000013     3.02518535E+01   # smuon_L decays
#          BR         NDA      ID1       ID2
     2.26635811E-01    2     1000022        13   # BR(~mu_L -> ~chi_10 mu-)
     9.57066605E-04    2     1000023        13   # BR(~mu_L -> ~chi_20 mu-)
     7.67247085E-07    2     1000025        13   # BR(~mu_L -> ~chi_30 mu-)
     2.57204334E-01    2     1000035        13   # BR(~mu_L -> ~chi_40 mu-)
     2.11514470E-04    2    -1000024        14   # BR(~mu_L -> ~chi_1- nu_mu)
     5.14990507E-01    2    -1000037        14   # BR(~mu_L -> ~chi_2- nu_mu)
#
#         PDG            Width
DECAY   2000013     2.73663300E+01   # smuon_R decays
#          BR         NDA      ID1       ID2
     9.98974333E-01    2     1000022        13   # BR(~mu_R -> ~chi_10 mu-)
     4.53635503E-04    2     1000023        13   # BR(~mu_R -> ~chi_20 mu-)
     5.71961583E-04    2     1000025        13   # BR(~mu_R -> ~chi_30 mu-)
     7.03798876E-08    2     1000035        13   # BR(~mu_R -> ~chi_40 mu-)
#
#         PDG            Width
DECAY   1000015     2.90385183E+01   # stau_1 decays
#          BR         NDA      ID1       ID2
     9.26847748E-01    2     1000022        15   # BR(~tau_1 -> ~chi_10  tau-)
     1.47510926E-02    2     1000023        15   # BR(~tau_1 -> ~chi_20  tau-)
     1.36775021E-02    2     1000025        15   # BR(~tau_1 -> ~chi_30  tau-)
     5.56669991E-03    2     1000035        15   # BR(~tau_1 -> ~chi_40  tau-)
     2.80111451E-02    2    -1000024        16   # BR(~tau_1 -> ~chi_1-  nu_tau)
     1.11458118E-02    2    -1000037        16   # BR(~tau_1 -> ~chi_2-  nu_tau)
#
#         PDG            Width
DECAY   2000015     3.09984040E+01   # stau_2 decays
#          BR         NDA      ID1       ID2
     2.34703456E-01    2     1000022        15   # BR(~tau_2 -> ~chi_10  tau-)
     1.36799717E-02    2     1000023        15   # BR(~tau_2 -> ~chi_20  tau-)
     1.38157775E-02    2     1000025        15   # BR(~tau_2 -> ~chi_30  tau-)
     2.45717856E-01    2     1000035        15   # BR(~tau_2 -> ~chi_40  tau-)
     9.17379890E-05    2    -1000024        16   # BR(~tau_2 -> ~chi_1-  nu_tau)
     4.91991201E-01    2    -1000037        16   # BR(~tau_2 -> ~chi_2-  nu_tau)
#
#         PDG            Width
DECAY   1000012     3.02542292E+01   # snu_eL decays
#          BR         NDA      ID1       ID2
     2.26335095E-01    2     1000022        12   # BR(~nu_eL -> ~chi_10 nu_e)
     1.13274272E-04    2     1000023        12   # BR(~nu_eL -> ~chi_20 nu_e)
     4.79854828E-04    2     1000025        12   # BR(~nu_eL -> ~chi_30 nu_e)
     2.57275730E-01    2     1000035        12   # BR(~nu_eL -> ~chi_40 nu_e)
     1.96187241E-03    2     1000024        11   # BR(~nu_eL -> ~chi_1+ e-)
     5.13834174E-01    2     1000037        11   # BR(~nu_eL -> ~chi_2+ e-)
#
#         PDG            Width
DECAY   1000014     3.02542292E+01   # snu_muL decays
#          BR         NDA      ID1       ID2
     2.26335095E-01    2     1000022        14   # BR(~nu_muL -> ~chi_10 nu_mu)
     1.13274272E-04    2     1000023        14   # BR(~nu_muL -> ~chi_20 nu_mu)
     4.79854828E-04    2     1000025        14   # BR(~nu_muL -> ~chi_30 nu_mu)
     2.57275730E-01    2     1000035        14   # BR(~nu_muL -> ~chi_40 nu_mu)
     1.96187241E-03    2     1000024        13   # BR(~nu_muL -> ~chi_1+ mu-)
     5.13834174E-01    2     1000037        13   # BR(~nu_muL -> ~chi_2+ mu-)
#
#         PDG            Width
DECAY   1000016     3.10575886E+01   # snu_tauL decays
#          BR         NDA      ID1       ID2
     2.20456701E-01    2     1000022        16   # BR(~nu_tauL -> ~chi_10 nu_tau)
     1.10328882E-04    2     1000023        16   # BR(~nu_tauL -> ~chi_20 nu_tau)
     4.67377449E-04    2     1000025        16   # BR(~nu_tauL -> ~chi_30 nu_tau)
     2.50528676E-01    2     1000035        16   # BR(~nu_tauL -> ~chi_40 nu_tau)
     2.80776682E-02    2     1000024        15   # BR(~nu_tauL -> ~chi_1+ tau-)
     5.00359249E-01    2     1000037        15   # BR(~nu_tauL -> ~chi_2+ tau-)
#
#         PDG            Width
DECAY   1000024     7.97609129E-01   # chargino1+ decays
#          BR         NDA      ID1       ID2
     1.00000000E+00    2     1000022        24   # BR(~chi_1+ -> ~chi_10  W+)
#
#         PDG            Width
DECAY   1000037     1.92854444E+01   # chargino2+ decays
#          BR         NDA      ID1       ID2
     2.52931607E-01    2     1000024        23   # BR(~chi_2+ -> ~chi_1+  Z )
     2.27560683E-04    2     1000022        24   # BR(~chi_2+ -> ~chi_10  W+)
     2.43992058E-01    2     1000023        24   # BR(~chi_2+ -> ~chi_20  W+)
     2.43904005E-01    2     1000025        24   # BR(~chi_2+ -> ~chi_30  W+)
     2.58944177E-01    2     1000024        25   # BR(~chi_2+ -> ~chi_1+  h )
     5.92119314E-07    2     1000022        37   # BR(~chi_2+ -> ~chi_10  H+)
#
#         PDG            Width
DECAY   1000022     0.00000000E+00   # neutralino1 decays
#
#         PDG            Width
DECAY   1000023     8.36697539E-01   # neutralino2 decays
#          BR         NDA      ID1       ID2
     5.51266834E-01    2     1000022        23   # BR(~chi_20 -> ~chi_10   Z )
     4.48733166E-01    2     1000022        25   # BR(~chi_20 -> ~chi_10   h )
#
#         PDG            Width
DECAY   1000025     8.43785503E-01   # neutralino3 decays
#          BR         NDA      ID1       ID2
     4.33653632E-01    2     1000022        23   # BR(~chi_30 -> ~chi_10   Z )
     5.66346368E-01    2     1000022        25   # BR(~chi_30 -> ~chi_10   h )
#
#         PDG            Width
DECAY   1000035     1.92942254E+01   # neutralino4 decays
#          BR         NDA      ID1       ID2
     7.23523835E-05    2     1000022        23   # BR(~chi_40 -> ~chi_10   Z )
     5.16749595E-02    2     1000023        23   # BR(~chi_40 -> ~chi_20   Z )
     2.00584676E-01    2     1000025        23   # BR(~chi_40 -> ~chi_30   Z )
     2.44547525E-01    2     1000024       -24   # BR(~chi_40 -> ~chi_1+   W-)
     2.44547525E-01    2    -1000024        24   # BR(~chi_40 -> ~chi_1-   W+)
     1.59092804E-04    2     1000022        25   # BR(~chi_40 -> ~chi_10   h )
     5.39911170E-07    2     1000022        35   # BR(~chi_40 -> ~chi_10   H )
     7.33273621E-08    2     1000022        36   # BR(~chi_40 -> ~chi_10   A )
     2.06692288E-01    2     1000023        25   # BR(~chi_40 -> ~chi_20   h )
     5.17209683E-02    2     1000025        25   # BR(~chi_40 -> ~chi_30   h )
#
#         PDG            Width
DECAY        25     4.02602340E-03   # h decays
#          BR         NDA      ID1       ID2
     6.13897066E-01    2           5        -5   # BR(h -> b       bb     )
     6.42586582E-02    2         -15        15   # BR(h -> tau+    tau-   )
     2.27500395E-04    2         -13        13   # BR(h -> mu+     mu-    )
     4.82522386E-04    2           3        -3   # BR(h -> s       sb     )
     2.09099941E-02    2           4        -4   # BR(h -> c       cb     )
     6.72787774E-02    2          21        21   # BR(h -> g       g      )
     2.30616575E-03    2          22        22   # BR(h -> gam     gam    )
     1.46074952E-03    2          22        23   # BR(h -> Z       gam    )
     2.04861863E-01    2          24       -24   # BR(h -> W+      W-     )
     2.42804622E-02    2          23        23   # BR(h -> Z       Z      )
     3.62407772E-05    2     1000022   1000022   # BR(h -> ~chi_10 ~chi_10)
#
#         PDG            Width
DECAY        35     7.61879012E+00   # H decays
#          BR         NDA      ID1       ID2
     4.26005606E-01    2           5        -5   # BR(H -> b       bb     )
     7.31751711E-02    2         -15        15   # BR(H -> tau+    tau-   )
     2.58753217E-04    2         -13        13   # BR(H -> mu+     mu-    )
     3.17191862E-04    2           3        -3   # BR(H -> s       sb     )
     1.77164266E-06    2           4        -4   # BR(H -> c       cb     )
     1.77001132E-01    2           6        -6   # BR(H -> t       tb     )
     5.87594018E-05    2          21        21   # BR(H -> g       g      )
     3.62474277E-07    2          22        22   # BR(H -> gam     gam    )
     1.04443480E-07    2          23        22   # BR(H -> Z       gam    )
     7.93752197E-05    2          24       -24   # BR(H -> W+      W-     )
     3.96373705E-05    2          23        23   # BR(H -> Z       Z      )
     3.00252407E-04    2          25        25   # BR(H -> h       h      )
    -9.57164616E-24    2          36        36   # BR(H -> A       A      )
     6.98416859E-19    2          23        36   # BR(H -> Z       A      )
     7.44503749E-04    2     1000024  -1000024   # BR(H -> ~chi_1+ ~chi_1-)
     1.12203344E-03    2     1000022   1000022   # BR(H -> ~chi_10 ~chi_10)
     5.62056498E-05    2     1000023   1000023   # BR(H -> ~chi_20 ~chi_20)
     1.24214645E-04    2     1000025   1000025   # BR(H -> ~chi_30 ~chi_30)
     1.91386896E-01    2     1000022   1000023   # BR(H -> ~chi_10 ~chi_20)
     1.29204941E-01    2     1000022   1000025   # BR(H -> ~chi_10 ~chi_30)
     1.23087615E-04    2     1000023   1000025   # BR(H -> ~chi_20 ~chi_30)
#
#         PDG            Width
DECAY        36     7.63986272E+00   # A decays
#          BR         NDA      ID1       ID2
     4.24974013E-01    2           5        -5   # BR(A -> b       bb     )
     7.29754981E-02    2         -15        15   # BR(A -> tau+    tau-   )
     2.58046797E-04    2         -13        13   # BR(A -> mu+     mu-    )
     3.16556896E-04    2           3        -3   # BR(A -> s       sb     )
     1.77411055E-06    2           4        -4   # BR(A -> c       cb     )
     1.77149900E-01    2           6        -6   # BR(A -> t       tb     )
     1.75357851E-04    2          21        21   # BR(A -> g       g      )
     4.87516404E-07    2          22        22   # BR(A -> gam     gam    )
     2.12297790E-07    2          23        22   # BR(A -> Z       gam    )
     7.88591827E-05    2          23        25   # BR(A -> Z       h      )
     2.59606619E-03    2     1000024  -1000024   # BR(A -> ~chi_1+ ~chi_1-)
     1.14868726E-03    2     1000022   1000022   # BR(A -> ~chi_10 ~chi_10)
     1.47001618E-04    2     1000023   1000023   # BR(A -> ~chi_20 ~chi_20)
     7.67580895E-04    2     1000025   1000025   # BR(A -> ~chi_30 ~chi_30)
     1.30451844E-01    2     1000022   1000023   # BR(A -> ~chi_10 ~chi_20)
     1.88951134E-01    2     1000022   1000025   # BR(A -> ~chi_10 ~chi_30)
     6.98062609E-06    2     1000023   1000025   # BR(A -> ~chi_20 ~chi_30)
#
#         PDG            Width
DECAY        37     7.59445405E+00   # H+ decays
#          BR         NDA      ID1       ID2
     6.82654298E-04    2           4        -5   # BR(H+ -> c       bb     )
     7.34331156E-02    2         -15        16   # BR(H+ -> tau+    nu_tau )
     2.59664966E-04    2         -13        14   # BR(H+ -> mu+     nu_mu  )
     4.36896494E-06    2           2        -5   # BR(H+ -> u       bb     )
     1.52366017E-05    2           2        -3   # BR(H+ -> u       sb     )
     3.15091436E-04    2           4        -3   # BR(H+ -> c       sb     )
     6.01142492E-01    2           6        -5   # BR(H+ -> t       bb     )
     7.94506603E-05    2          24        25   # BR(H+ -> W+      h      )
     8.61334411E-14    2          24        36   # BR(H+ -> W+      A      )
     3.23644174E-01    2     1000024   1000022   # BR(H+ -> ~chi_1+ ~chi_10)
     3.57332273E-04    2     1000024   1000023   # BR(H+ -> ~chi_1+ ~chi_20)
     6.64188017E-05    2     1000024   1000025   # BR(H+ -> ~chi_1+ ~chi_30)
