#
#                              ======================
#                              | THE SUSYHIT OUTPUT |
#                              ======================
#
#
#              ------------------------------------------------------
#              |     This is the output of the SUSY-HIT package     |
#              |  created by A.Djouadi, M.Muehlleitner and M.Spira. |
#              |  In case of problems with SUSY-HIT email to        |
#              |           margarete.muehlleitner@kit.edu           |
#              |           michael.spira@psi.ch                     |
#              |           abdelhak.djouadi@cern.ch                 |
#              ------------------------------------------------------
#
#              ------------------------------------------------------
#              |  SUSY Les Houches Accord - MSSM Spectrum + Decays  |
#              |              based on the decay programs           |
#              |                                                    |
#              |                     SDECAY 1.5                     |
#              |                                                    |
#              |  Authors: M.Muhlleitner, A.Djouadi and Y.Mambrini  |
#              |  Ref.:    Comput.Phys.Commun.168(2005)46           |
#              |           [hep-ph/0311167]                         |
#              |                                                    |
#              |                     HDECAY 3.4                     |
#              |                                                    |
#              |  By: A.Djouadi,J.Kalinowski,M.Muhlleitner,M.Spira  |
#              |  Ref.:    Comput.Phys.Commun.108(1998)56           |
#              |           [hep-ph/9704448]                         |
#              |                                                    |
#              |                                                    |
#              |  If not stated otherwise all DRbar couplings and   |
#              |  soft SUSY breaking masses are given at the scale  |
#              |  Q=  0.91187600E+02
#              |                                                    |
#              ------------------------------------------------------
#
#
BLOCK DCINFO  # Decay Program information
     1   SDECAY/HDECAY # decay calculator
     2   1.5  /3.4    # version number
#
BLOCK SPINFO  # Spectrum calculator information
     1   SuSpect     # RGE +Spectrum calculator            
     2   2.43         # version number                     
#
BLOCK MODSEL  # Model selection
     1     2   # GMSB                                              
#
BLOCK SMINPUTS  # Standard Model inputs
         1     1.27932904E+02   # alpha_em^-1(M_Z)^MSbar
         2     1.16639000E-05   # G_F [GeV^-2]
         3     1.17200000E-01   # alpha_S(M_Z)^MSbar
         4     9.11870000E+01   # M_Z pole mass
         5     4.25000000E+00   # mb(mb)^MSbar
         6     1.72900000E+02   # mt pole mass
         7     1.77700000E+00   # mtau pole mass
#
BLOCK MINPAR  # Input parameters - minimal models
#
BLOCK EXTPAR  # Input parameters - non-minimal models
         0     9.11876000E+01   # EWSB                
         1     8.54000000E+02   # M_1                 
         2     3.00000000E+03   # M_2                 
         3     2.40000000E+03   # M_3                 
        11     0.00000000E+00   # A_t                 
        12     0.00000000E+00   # A_b                 
        13     0.00000000E+00   # A_tau               
        14     0.00000000E+00   # A_u                 
        15     0.00000000E+00   # A_d                 
        16     0.00000000E+00   # A_e                 
        23     8.50000000E+02   # mu(EWSB)            
        25     1.50000000E+00   # tanbeta(in)         
        26     2.00000000E+03   # MA_pole             
        31     5.00000000E+03   # M_eL                
        32     5.00000000E+03   # M_muL               
        33     5.00000000E+03   # M_tauL              
        34     5.00000000E+03   # M_eR                
        35     5.00000000E+03   # M_muR               
        36     5.00000000E+03   # M_tauR              
        41     5.00000000E+03   # M_q1L               
        42     5.00000000E+03   # M_q2L               
        43     5.00000000E+03   # M_q3L               
        44     5.00000000E+03   # M_uR                
        45     5.00000000E+03   # M_cR                
        46     5.00000000E+03   # M_tR                
        47     5.00000000E+03   # M_dR                
        48     5.00000000E+03   # M_sR                
        49     5.00000000E+03   # M_bR                
#
BLOCK MASS  # Mass Spectrum
# PDG code           mass       particle
        24     8.05400799E+01   # W+
        25     1.26000000E+02   # h
        35     2.00404190E+03   # H
        36     2.00000000E+03   # A
        37     2.00148506E+03   # H+
         5     4.87877839E+00   # b-quark pole mass calculated from mb(mb)_Msbar
   1000001     4.89730108E+03   # ~d_L
   2000001     4.89719025E+03   # ~d_R
   1000002     4.89705330E+03   # ~u_L
   2000002     4.89711193E+03   # ~u_R
   1000003     4.89730108E+03   # ~s_L
   2000003     4.89719025E+03   # ~s_R
   1000004     4.89705330E+03   # ~c_L
   2000004     4.89711193E+03   # ~c_R
   1000005     4.89688915E+03   # ~b_1
   2000005     4.89760363E+03   # ~b_2
   1000006     5.02547881E+03   # ~t_1
   2000006     5.32778313E+03   # ~t_2
   1000011     5.00008227E+03   # ~e_L
   2000011     5.00007605E+03   # ~e_R
   1000012     4.99984168E+03   # ~nu_eL
   1000013     5.00008227E+03   # ~mu_L
   2000013     5.00007605E+03   # ~mu_R
   1000014     4.99984168E+03   # ~nu_muL
   1000015     4.99985276E+03   # ~tau_1
   2000015     5.00030618E+03   # ~tau_2
   1000016     4.99984168E+03   # ~nu_tauL
   1000021     2.41237256E+03   # ~g
   1000022     8.62254141E+02   # ~chi_10
   1000023    -9.09022337E+02   # ~chi_20
   1000025     9.49403310E+02   # ~chi_30
   1000035     3.12892920E+03   # ~chi_40
   1000024     9.06270884E+02   # ~chi_1+
   1000037     3.12892822E+03   # ~chi_2+
   1000039     1.00000000E-09   # ~gravitino
#
BLOCK NMIX  # Neutralino Mixing Matrix
  1  1     7.10196506E-01   # N_11
  1  2    -2.40772198E-02   # N_12
  1  3     5.00129163E-01   # N_13
  1  4    -4.94885877E-01   # N_14
  2  1     4.81283776E-03   # N_21
  2  2    -3.84922401E-03   # N_22
  2  3    -7.06895587E-01   # N_23
  2  4    -7.07291064E-01   # N_24
  3  1     7.03986697E-01   # N_31
  3  2     2.53095858E-02   # N_32
  3  3    -4.99686180E-01   # N_33
  3  4     5.04059397E-01   # N_34
  4  1     6.99961058E-04   # N_41
  4  2    -9.99382257E-01   # N_42
  4  3    -2.19811492E-02   # N_43
  4  4     2.74124662E-02   # N_44
#
BLOCK UMIX  # Chargino Mixing Matrix U
  1  1    -3.10721988E-02   # U_11
  1  2     9.99517143E-01   # U_12
  2  1     9.99517143E-01   # U_21
  2  2     3.10721988E-02   # U_22
#
BLOCK VMIX  # Chargino Mixing Matrix V
  1  1    -3.87553800E-02   # V_11
  1  2     9.99248728E-01   # V_12
  2  1     9.99248728E-01   # V_21
  2  2     3.87553800E-02   # V_22
#
BLOCK STOPMIX  # Stop Mixing Matrix
  1  1     9.99920872E-01   # cos(theta_t)
  1  2    -1.25797352E-02   # sin(theta_t)
  2  1     1.25797352E-02   # -sin(theta_t)
  2  2     9.99920872E-01   # cos(theta_t)
#
BLOCK SBOTMIX  # Sbottom Mixing Matrix
  1  1     6.49951750E-01   # cos(theta_b)
  1  2     7.59975475E-01   # sin(theta_b)
  2  1    -7.59975475E-01   # -sin(theta_b)
  2  2     6.49951750E-01   # cos(theta_b)
#
BLOCK STAUMIX  # Stau Mixing Matrix
  1  1     7.02237510E-01   # cos(theta_tau)
  1  2     7.11942750E-01   # sin(theta_tau)
  2  1    -7.11942750E-01   # -sin(theta_tau)
  2  2     7.02237510E-01   # cos(theta_tau)
#
BLOCK ALPHA  # Higgs mixing
          -5.90208502E-01   # Mixing angle in the neutral Higgs boson sector
#
BLOCK HMIX Q=  9.11876000E+01  # DRbar Higgs Parameters
         1     8.50000000E+02   # mu(Q)               
         2     1.49999979E+00   # tanbeta(Q)          
         3     2.52039293E+02   # vev(Q)              
         4     3.56796496E+06   # MA^2(Q)             
#
BLOCK GAUGE Q=  9.11876000E+01  # The gauge couplings
     1     3.52850569E-01   # gprime(Q) DRbar
     2     6.27604799E-01   # g(Q) DRbar
     3     1.07754526E+00   # g3(Q) DRbar
#
BLOCK AU Q=  9.11876000E+01  # The trilinear couplings
  1  1     0.00000000E+00   # A_u(Q) DRbar
  2  2     0.00000000E+00   # A_c(Q) DRbar
  3  3     0.00000000E+00   # A_t(Q) DRbar
#
BLOCK AD Q=  9.11876000E+01  # The trilinear couplings
  1  1     0.00000000E+00   # A_d(Q) DRbar
  2  2     0.00000000E+00   # A_s(Q) DRbar
  3  3     0.00000000E+00   # A_b(Q) DRbar
#
BLOCK AE Q=  9.11876000E+01  # The trilinear couplings
  1  1     0.00000000E+00   # A_e(Q) DRbar
  2  2     0.00000000E+00   # A_mu(Q) DRbar
  3  3     0.00000000E+00   # A_tau(Q) DRbar
#
BLOCK Yu Q=  9.11876000E+01  # The Yukawa couplings
  1  1     0.00000000E+00   # y_u(Q) DRbar
  2  2     0.00000000E+00   # y_c(Q) DRbar
  3  3     1.02617278E+00   # y_t(Q) DRbar
#
BLOCK Yd Q=  9.11876000E+01  # The Yukawa couplings
  1  1     0.00000000E+00   # y_d(Q) DRbar
  2  2     0.00000000E+00   # y_s(Q) DRbar
  3  3     2.71874421E-02   # y_b(Q) DRbar
#
BLOCK Ye Q=  9.11876000E+01  # The Yukawa couplings
  1  1     0.00000000E+00   # y_e(Q) DRbar
  2  2     0.00000000E+00   # y_mu(Q) DRbar
  3  3     1.79851510E-02   # y_tau(Q) DRbar
#
BLOCK MSOFT Q=  9.11876000E+01  # The soft SUSY breaking masses at the scale Q
         1     8.54000000E+02   # M_1                 
         2     3.00000000E+03   # M_2                 
         3     2.40000000E+03   # M_3                 
        14     0.00000000E+00   # A_u                 
        15     0.00000000E+00   # A_d                 
        16     0.00000000E+00   # A_e                 
        21     2.24402964E+06   # M^2_Hd              
        22    -6.01510170E+06   # M^2_Hu              
        31     5.00000000E+03   # M_eL                
        32     5.00000000E+03   # M_muL               
        33     5.00000000E+03   # M_tauL              
        34     5.00000000E+03   # M_eR                
        35     5.00000000E+03   # M_muR               
        36     5.00000000E+03   # M_tauR              
        41     5.00000000E+03   # M_q1L               
        42     5.00000000E+03   # M_q2L               
        43     5.00000000E+03   # M_q3L               
        44     5.00000000E+03   # M_uR                
        45     5.00000000E+03   # M_cR                
        46     5.00000000E+03   # M_tR                
        47     5.00000000E+03   # M_dR                
        48     5.00000000E+03   # M_sR                
        49     5.00000000E+03   # M_bR                
#
#
#
#                             =================
#                             |The decay table|
#                             =================
#
# - The QCD corrections to the decays gluino -> squark  + quark
#                                     squark -> gaugino + quark_prime
#                                     squark -> squark_prime + Higgs
#                                     squark -> gluino  + quark
#   are included.
#
# - The multi-body decays for the inos, stops and sbottoms are included.
#
# - The loop induced decays for the gluino, neutralinos and stops
#   are included.
#
# - The SUSY decays of the top quark are included.
#
# - Possible decays of the NLSP in GMSB models are included.
#
#
#         PDG            Width
DECAY         6     1.37240614E+00   # top decays
#          BR         NDA      ID1       ID2
     1.00000000E+00    2           5        24   # BR(t ->  b    W+)
#
#         PDG            Width
DECAY   1000021     4.36927001E-03   # gluino decays
#          BR         NDA      ID1       ID2
     4.21307071E-03    2     1000022        21   # BR(~g -> ~chi_10 g)
     7.99800893E-03    2     1000023        21   # BR(~g -> ~chi_20 g)
     3.73127512E-03    2     1000025        21   # BR(~g -> ~chi_30 g)
#          BR         NDA      ID1       ID2
0.0E+00    2     1000039    21 # BR(~g -> ~G      g)
#           BR         NDA      ID1       ID2       ID3
     5.37528748E-03    3     1000022         1        -1   # BR(~g -> ~chi_10 d  db)
     5.77001244E-07    3     1000023         1        -1   # BR(~g -> ~chi_20 d  db)
     3.83404156E-03    3     1000025         1        -1   # BR(~g -> ~chi_30 d  db)
     1.66131466E-02    3     1000022         2        -2   # BR(~g -> ~chi_10 u  ub)
     4.84938263E-07    3     1000023         2        -2   # BR(~g -> ~chi_20 u  ub)
     1.43553074E-02    3     1000025         2        -2   # BR(~g -> ~chi_30 u  ub)
     5.37528748E-03    3     1000022         3        -3   # BR(~g -> ~chi_10 s  sb)
     5.77001244E-07    3     1000023         3        -3   # BR(~g -> ~chi_20 s  sb)
     3.83404156E-03    3     1000025         3        -3   # BR(~g -> ~chi_30 s  sb)
     1.66131466E-02    3     1000022         4        -4   # BR(~g -> ~chi_10 c  cb)
     4.84938263E-07    3     1000023         4        -4   # BR(~g -> ~chi_20 c  cb)
     1.43553074E-02    3     1000025         4        -4   # BR(~g -> ~chi_30 c  cb)
     5.46936314E-03    3     1000022         5        -5   # BR(~g -> ~chi_10 b  bb)
     2.07999361E-04    3     1000023         5        -5   # BR(~g -> ~chi_20 b  bb)
     3.94346480E-03    3     1000025         5        -5   # BR(~g -> ~chi_30 b  bb)
     1.06375650E-01    3     1000022         6        -6   # BR(~g -> ~chi_10 t  tb)
     1.92676634E-01    3     1000023         6        -6   # BR(~g -> ~chi_20 t  tb)
     1.15256065E-01    3     1000025         6        -6   # BR(~g -> ~chi_30 t  tb)
     1.26712897E-04    3     1000024         1        -2   # BR(~g -> ~chi_1+ d  ub)
     1.26712897E-04    3    -1000024         2        -1   # BR(~g -> ~chi_1- u  db)
     1.26712897E-04    3     1000024         3        -4   # BR(~g -> ~chi_1+ s  cb)
     1.26712897E-04    3    -1000024         4        -3   # BR(~g -> ~chi_1- c  sb)
     2.28868070E-01    3     1000024         5        -6   # BR(~g -> ~chi_1+ b  tb)
     2.28868070E-01    3    -1000024         6        -5   # BR(~g -> ~chi_1- t  bb)
#
#         PDG            Width
DECAY   1000006     2.52801293E+02   # stop1 decays
#          BR         NDA      ID1       ID2
     6.41887607E-02    2     1000022         6   # BR(~t_1 -> ~chi_10 t )
     1.33136410E-01    2     1000023         6   # BR(~t_1 -> ~chi_20 t )
     7.11922135E-02    2     1000025         6   # BR(~t_1 -> ~chi_30 t )
     2.85187563E-02    2     1000035         6   # BR(~t_1 -> ~chi_40 t )
     2.33676435E-05    2     1000024         5   # BR(~t_1 -> ~chi_1+ b )
     5.67588142E-02    2     1000037         5   # BR(~t_1 -> ~chi_2+ b )
     6.25405750E-01    2     1000021         6   # BR(~t_1 -> ~g      t )
     8.91508785E-03    2     1000005        24   # BR(~t_1 -> ~b_1    W+)
     1.18608389E-02    2     2000005        24   # BR(~t_1 -> ~b_2    W+)
#
#         PDG            Width
DECAY   2000006     3.32296956E+02   # stop2 decays
#          BR         NDA      ID1       ID2
     7.14673779E-02    2     1000022         6   # BR(~t_2 -> ~chi_10 t )
     1.09082592E-01    2     1000023         6   # BR(~t_2 -> ~chi_20 t )
     6.93618346E-02    2     1000025         6   # BR(~t_2 -> ~chi_30 t )
    -3.18645567E-05    2     1000035         6   # BR(~t_2 -> ~chi_40 t )
     2.18412788E-01    2     1000024         5   # BR(~t_2 -> ~chi_1+ b )
    -6.34848616E-05    2     1000037         5   # BR(~t_2 -> ~chi_2+ b )
     5.31743778E-01    2     1000021         6   # BR(~t_2 -> ~g      t )
    -1.51048496E-04    2     1000006        25   # BR(~t_2 -> ~t_1    h )
     2.73724739E-05    2     1000006        23   # BR(~t_2 -> ~t_1    Z )
     6.37709937E-05    2     1000005        24   # BR(~t_2 -> ~b_1    W+)
     8.68836499E-05    2     2000005        24   # BR(~t_2 -> ~b_2    W+)
#
#         PDG            Width
DECAY   1000005     1.81396499E+02   # sbottom1 decays
#          BR         NDA      ID1       ID2
     6.29828861E-03    2     1000022         5   # BR(~b_1 -> ~chi_10 b )
     1.06332265E-04    2     1000023         5   # BR(~b_1 -> ~chi_20 b )
     3.80209062E-03    2     1000025         5   # BR(~b_1 -> ~chi_30 b )
     1.26608935E-02    2     1000035         5   # BR(~b_1 -> ~chi_40 b )
     1.17517897E-01    2    -1000024         6   # BR(~b_1 -> ~chi_1- t )
     2.54384982E-02    2    -1000037         6   # BR(~b_1 -> ~chi_2- t )
     8.34175999E-01    2     1000021         5   # BR(~b_1 -> ~g      b )
#
#         PDG            Width
DECAY   2000005     2.09213338E+02   # sbottom2 decays
#          BR         NDA      ID1       ID2
     2.56534369E-03    2     1000022         5   # BR(~b_2 -> ~chi_10 b )
     1.31031321E-04    2     1000023         5   # BR(~b_2 -> ~chi_20 b )
     3.43257000E-03    2     1000025         5   # BR(~b_2 -> ~chi_30 b )
     2.01527863E-02    2     1000035         5   # BR(~b_2 -> ~chi_40 b )
     2.10672210E-01    2    -1000024         6   # BR(~b_2 -> ~chi_1- t )
     4.05090871E-02    2    -1000037         6   # BR(~b_2 -> ~chi_2- t )
     7.22536971E-01    2     1000021         5   # BR(~b_2 -> ~g      b )
#
#         PDG            Width
DECAY   1000002     1.71432116E+02   # sup_L decays
#          BR         NDA      ID1       ID2
     1.20132769E-03    2     1000022         2   # BR(~u_L -> ~chi_10 u)
     8.71871947E-07    2     1000023         2   # BR(~u_L -> ~chi_20 u)
     2.46584044E-03    2     1000025         2   # BR(~u_L -> ~chi_30 u)
     3.79622681E-02    2     1000035         2   # BR(~u_L -> ~chi_40 u)
     3.01641761E-04    2     1000024         1   # BR(~u_L -> ~chi_1+ d)
     7.59242437E-02    2     1000037         1   # BR(~u_L -> ~chi_2+ d)
     8.82143806E-01    2     1000021         2   # BR(~u_L -> ~g      u)
#
#         PDG            Width
DECAY   2000002     1.60905116E+02   # sup_R decays
#          BR         NDA      ID1       ID2
     3.05237942E-02    2     1000022         2   # BR(~u_R -> ~chi_10 u)
     1.39197151E-06    2     1000023         2   # BR(~u_R -> ~chi_20 u)
     2.95922558E-02    2     1000025         2   # BR(~u_R -> ~chi_30 u)
     1.11526741E-08    2     1000035         2   # BR(~u_R -> ~chi_40 u)
     9.39882547E-01    2     1000021         2   # BR(~u_R -> ~g      u)
#
#         PDG            Width
DECAY   1000001     1.71439244E+02   # sdown_L decays
#          BR         NDA      ID1       ID2
     2.49703939E-03    2     1000022         1   # BR(~d_L -> ~chi_10 d)
     2.26580744E-06    2     1000023         1   # BR(~d_L -> ~chi_20 d)
     1.13379086E-03    2     1000025         1   # BR(~d_L -> ~chi_30 d)
     3.79878025E-02    2     1000035         1   # BR(~d_L -> ~chi_40 d)
     1.93900451E-04    2    -1000024         2   # BR(~d_L -> ~chi_1- u)
     7.59762339E-02    2    -1000037         2   # BR(~d_L -> ~chi_2- u)
     8.82208967E-01    2     1000021         1   # BR(~d_L -> ~g      d)
#
#         PDG            Width
DECAY   2000001     1.53655775E+02   # sdown_R decays
#          BR         NDA      ID1       ID2
     7.99111601E-03    2     1000022         1   # BR(~d_R -> ~chi_10 d)
     3.64417620E-07    2     1000023         1   # BR(~d_R -> ~chi_20 d)
     7.74724309E-03    2     1000025         1   # BR(~d_R -> ~chi_30 d)
     2.91988620E-09    2     1000035         1   # BR(~d_R -> ~chi_40 d)
     9.84261274E-01    2     1000021         1   # BR(~d_R -> ~g      d)
#
#         PDG            Width
DECAY   1000004     1.71432116E+02   # scharm_L decays
#          BR         NDA      ID1       ID2
     1.20132769E-03    2     1000022         4   # BR(~c_L -> ~chi_10 c)
     8.71871947E-07    2     1000023         4   # BR(~c_L -> ~chi_20 c)
     2.46584044E-03    2     1000025         4   # BR(~c_L -> ~chi_30 c)
     3.79622681E-02    2     1000035         4   # BR(~c_L -> ~chi_40 c)
     3.01641761E-04    2     1000024         3   # BR(~c_L -> ~chi_1+ s)
     7.59242437E-02    2     1000037         3   # BR(~c_L -> ~chi_2+ s)
     8.82143806E-01    2     1000021         4   # BR(~c_L -> ~g      c)
#
#         PDG            Width
DECAY   2000004     1.60905116E+02   # scharm_R decays
#          BR         NDA      ID1       ID2
     3.05237942E-02    2     1000022         4   # BR(~c_R -> ~chi_10 c)
     1.39197151E-06    2     1000023         4   # BR(~c_R -> ~chi_20 c)
     2.95922558E-02    2     1000025         4   # BR(~c_R -> ~chi_30 c)
     1.11526741E-08    2     1000035         4   # BR(~c_R -> ~chi_40 c)
     9.39882547E-01    2     1000021         4   # BR(~c_R -> ~g      c)
#
#         PDG            Width
DECAY   1000003     1.71439244E+02   # sstrange_L decays
#          BR         NDA      ID1       ID2
     2.49703939E-03    2     1000022         3   # BR(~s_L -> ~chi_10 s)
     2.26580744E-06    2     1000023         3   # BR(~s_L -> ~chi_20 s)
     1.13379086E-03    2     1000025         3   # BR(~s_L -> ~chi_30 s)
     3.79878025E-02    2     1000035         3   # BR(~s_L -> ~chi_40 s)
     1.93900451E-04    2    -1000024         4   # BR(~s_L -> ~chi_1- c)
     7.59762339E-02    2    -1000037         4   # BR(~s_L -> ~chi_2- c)
     8.82208967E-01    2     1000021         3   # BR(~s_L -> ~g      s)
#
#         PDG            Width
DECAY   2000003     1.53655775E+02   # sstrange_R decays
#          BR         NDA      ID1       ID2
     7.99111601E-03    2     1000022         3   # BR(~s_R -> ~chi_10 s)
     3.64417620E-07    2     1000023         3   # BR(~s_R -> ~chi_20 s)
     7.74724309E-03    2     1000025         3   # BR(~s_R -> ~chi_30 s)
     2.91988620E-09    2     1000035         3   # BR(~s_R -> ~chi_40 s)
     9.84261274E-01    2     1000021         3   # BR(~s_R -> ~g      s)
#
#         PDG            Width
DECAY   1000011     2.75860287E+01   # selectron_L decays
#          BR         NDA      ID1       ID2
     9.41200790E-02    2     1000022        11   # BR(~e_L -> ~chi_10 e-)
     8.68028326E-07    2     1000023        11   # BR(~e_L -> ~chi_20 e-)
     1.17015673E-01    2     1000025        11   # BR(~e_L -> ~chi_30 e-)
     2.62341686E-01    2     1000035        11   # BR(~e_L -> ~chi_40 e-)
     1.28268636E-03    2    -1000024        12   # BR(~e_L -> ~chi_1- nu_e)
     5.25239007E-01    2    -1000037        12   # BR(~e_L -> ~chi_2- nu_e)
#
#         PDG            Width
DECAY   2000011     2.31683004E+01   # selectron_R decays
#          BR         NDA      ID1       ID2
     5.07643679E-01    2     1000022        11   # BR(~e_R -> ~chi_10 e-)
     2.31543731E-05    2     1000023        11   # BR(~e_R -> ~chi_20 e-)
     4.92332973E-01    2     1000025        11   # BR(~e_R -> ~chi_30 e-)
     1.93890303E-07    2     1000035        11   # BR(~e_R -> ~chi_40 e-)
#
#         PDG            Width
DECAY   1000013     2.75860287E+01   # smuon_L decays
#          BR         NDA      ID1       ID2
     9.41200790E-02    2     1000022        13   # BR(~mu_L -> ~chi_10 mu-)
     8.68028326E-07    2     1000023        13   # BR(~mu_L -> ~chi_20 mu-)
     1.17015673E-01    2     1000025        13   # BR(~mu_L -> ~chi_30 mu-)
     2.62341686E-01    2     1000035        13   # BR(~mu_L -> ~chi_40 mu-)
     1.28268636E-03    2    -1000024        14   # BR(~mu_L -> ~chi_1- nu_mu)
     5.25239007E-01    2    -1000037        14   # BR(~mu_L -> ~chi_2- nu_mu)
#
#         PDG            Width
DECAY   2000013     2.31683004E+01   # smuon_R decays
#          BR         NDA      ID1       ID2
     5.07643679E-01    2     1000022        13   # BR(~mu_R -> ~chi_10 mu-)
     2.31543731E-05    2     1000023        13   # BR(~mu_R -> ~chi_20 mu-)
     4.92332973E-01    2     1000025        13   # BR(~mu_R -> ~chi_30 mu-)
     1.93890303E-07    2     1000035        13   # BR(~mu_R -> ~chi_40 mu-)
#
#         PDG            Width
DECAY   1000015     2.54262996E+01   # stau_1 decays
#          BR         NDA      ID1       ID2
     2.91345352E-01    2     1000022        15   # BR(~tau_1 -> ~chi_10  tau-)
     4.67170357E-04    2     1000023        15   # BR(~tau_1 -> ~chi_20  tau-)
     2.84932540E-01    2     1000025        15   # BR(~tau_1 -> ~chi_30  tau-)
     1.40082626E-01    2     1000035        15   # BR(~tau_1 -> ~chi_40  tau-)
     2.56824390E-03    2    -1000024        16   # BR(~tau_1 -> ~chi_1-  nu_tau)
     2.80462590E-01    2    -1000037        16   # BR(~tau_1 -> ~chi_2-  nu_tau)
     1.41478133E-04    2     1000039        15   # BR(~tau_1 -> ~G       tau-)
#
#         PDG            Width
DECAY   2000015     2.54218700E+01   # stau_2 decays
#          BR         NDA      ID1       ID2
     2.73972791E-01    2     1000022        15   # BR(~tau_2 -> ~chi_10  tau-)
     7.37469660E-04    2     1000023        15   # BR(~tau_2 -> ~chi_20  tau-)
     2.91273444E-01    2     1000025        15   # BR(~tau_2 -> ~chi_30  tau-)
     1.44568700E-01    2     1000035        15   # BR(~tau_2 -> ~chi_40  tau-)
     5.80995677E-06    2    -1000024        16   # BR(~tau_2 -> ~chi_1-  nu_tau)
     2.89441785E-01    2    -1000037        16   # BR(~tau_2 -> ~chi_2-  nu_tau)
#
#         PDG            Width
DECAY   1000012     2.75858306E+01   # snu_eL decays
#          BR         NDA      ID1       ID2
     1.19823623E-01    2     1000022        12   # BR(~nu_eL -> ~chi_10 nu_e)
     2.85301030E-05    2     1000023        12   # BR(~nu_eL -> ~chi_20 nu_e)
     9.05701499E-02    2     1000025        12   # BR(~nu_eL -> ~chi_30 nu_e)
     2.62711919E-01    2     1000035        12   # BR(~nu_eL -> ~chi_40 nu_e)
     1.99535367E-03    2     1000024        11   # BR(~nu_eL -> ~chi_1+ e-)
     5.24870424E-01    2     1000037        11   # BR(~nu_eL -> ~chi_2+ e-)
#
#         PDG            Width
DECAY   1000014     2.75858306E+01   # snu_muL decays
#          BR         NDA      ID1       ID2
     1.19823623E-01    2     1000022        14   # BR(~nu_muL -> ~chi_10 nu_mu)
     2.85301030E-05    2     1000023        14   # BR(~nu_muL -> ~chi_20 nu_mu)
     9.05701499E-02    2     1000025        14   # BR(~nu_muL -> ~chi_30 nu_mu)
     2.62711919E-01    2     1000035        14   # BR(~nu_muL -> ~chi_40 nu_mu)
     1.99535367E-03    2     1000024        13   # BR(~nu_muL -> ~chi_1+ mu-)
     5.24870424E-01    2     1000037        13   # BR(~nu_muL -> ~chi_2+ mu-)
#
#         PDG            Width
DECAY   1000016     2.76159064E+01   # snu_tauL decays
#          BR         NDA      ID1       ID2
     1.19693126E-01    2     1000022        16   # BR(~nu_tauL -> ~chi_10 nu_tau)
     2.84990316E-05    2     1000023        16   # BR(~nu_tauL -> ~chi_20 nu_tau)
     9.04715123E-02    2     1000025        16   # BR(~nu_tauL -> ~chi_30 nu_tau)
     2.62425806E-01    2     1000035        16   # BR(~nu_tauL -> ~chi_40 nu_tau)
     3.08151379E-03    2     1000024        15   # BR(~nu_tauL -> ~chi_1+ tau-)
     5.24299543E-01    2     1000037        15   # BR(~nu_tauL -> ~chi_2+ tau-)
#
#         PDG            Width
DECAY   1000024     1.03509477E-04   # chargino1+ decays
#          BR         NDA      ID1       ID2
     3.30123152E-03    2     1000039        24   # BR(~chi_1+ -> ~G       W+)
#           BR         NDA      ID1       ID2       ID3
     3.32529868E-01    3     1000022         2        -1   # BR(~chi_1+ -> ~chi_10 u    db)
     3.32529868E-01    3     1000022         4        -3   # BR(~chi_1+ -> ~chi_10 c    sb)
     1.10843421E-01    3     1000022       -11        12   # BR(~chi_1+ -> ~chi_10 e+   nu_e)
     1.10843421E-01    3     1000022       -13        14   # BR(~chi_1+ -> ~chi_10 mu+  nu_mu)
     1.09952192E-01    3     1000022       -15        16   # BR(~chi_1+ -> ~chi_10 tau+ nu_tau)
#
#         PDG            Width
DECAY   1000037     3.66904113E+01   # chargino2+ decays
#          BR         NDA      ID1       ID2
     2.44817844E-01    2     1000024        23   # BR(~chi_2+ -> ~chi_1+  Z )
     1.11750335E-01    2     1000022        24   # BR(~chi_2+ -> ~chi_10  W+)
     2.38470721E-01    2     1000023        24   # BR(~chi_2+ -> ~chi_20  W+)
     1.26917899E-01    2     1000025        24   # BR(~chi_2+ -> ~chi_30  W+)
     2.45919488E-01    2     1000024        25   # BR(~chi_2+ -> ~chi_1+  h )
     7.91267639E-03    2     1000024        35   # BR(~chi_2+ -> ~chi_1+  H )
     8.12687087E-03    2     1000024        36   # BR(~chi_2+ -> ~chi_1+  A )
     4.83493982E-03    2     1000022        37   # BR(~chi_2+ -> ~chi_10  H+)
     7.96485763E-03    2     1000023        37   # BR(~chi_2+ -> ~chi_20  H+)
     3.27498742E-03    2     1000025        37   # BR(~chi_2+ -> ~chi_30  H+)
     9.38105937E-06    2     1000039        24   # BR(~chi_2+ -> ~G       W+)
     6.48177241E-10    2     1000039        37   # BR(~chi_2+ -> ~G       H+)
#
#         PDG            Width
DECAY   1000022    1.0E-05    # neutralino1 decays
#          BR         NDA      ID1       ID2
     5.02340968E-01    2     1000039        22   # BR(~chi_10 -> ~G        gam)
     4.86636762E-01    2     1000039        23   # BR(~chi_10 -> ~G        Z)
     1.10222699E-02    2     1000039        25   # BR(~chi_10 -> ~G        h)
#
#         PDG            Width
DECAY   1000023     1.13202038E-04   # neutralino2 decays
#          BR         NDA      ID1       ID2
     3.10813012E-04    2     1000022        22   # BR(~chi_20 -> ~chi_10 gam)
#          BR         NDA      ID1       ID2
     3.36509216E-08    2     1000039        22   # BR(~chi_20 -> ~G        gam)
     1.17101855E-04    2     1000039        23   # BR(~chi_20 -> ~G        Z)
     2.81095022E-03    2     1000039        25   # BR(~chi_20 -> ~G        h)
#           BR         NDA      ID1       ID2       ID3
     1.18415421E-01    3     1000022        -2         2   # BR(~chi_20 -> ~chi_10 ub      u)
     1.53314666E-01    3     1000022        -1         1   # BR(~chi_20 -> ~chi_10 db      d)
     1.18415421E-01    3     1000022        -4         4   # BR(~chi_20 -> ~chi_10 cb      c)
     1.53314666E-01    3     1000022        -3         3   # BR(~chi_20 -> ~chi_10 sb      s)
     1.38922058E-01    3     1000022        -5         5   # BR(~chi_20 -> ~chi_10 bb      b)
     3.50073383E-02    3     1000022       -11        11   # BR(~chi_20 -> ~chi_10 e+      e-)
     3.50073383E-02    3     1000022       -13        13   # BR(~chi_20 -> ~chi_10 mu+     mu-)
     3.46405063E-02    3     1000022       -15        15   # BR(~chi_20 -> ~chi_10 tau+    tau-)
     6.99069675E-02    3     1000022       -12        12   # BR(~chi_20 -> ~chi_10 nu_eb   nu_e)
     6.99069675E-02    3     1000022       -14        14   # BR(~chi_20 -> ~chi_10 nu_mub  nu_mu)
     6.99069675E-02    3     1000022       -16        16   # BR(~chi_20 -> ~chi_10 nu_taub nu_tau)
     5.15043089E-07    3     1000024        -2         1   # BR(~chi_20 -> ~chi_1+ ub      d)
     5.15043089E-07    3    -1000024        -1         2   # BR(~chi_20 -> ~chi_1- db      u)
     5.15043089E-07    3     1000024        -4         3   # BR(~chi_20 -> ~chi_1+ cb      s)
     5.15043089E-07    3    -1000024        -3         4   # BR(~chi_20 -> ~chi_1- sb      c)
     1.71681041E-07    3     1000024       -12        11   # BR(~chi_20 -> ~chi_1+ nu_eb   e-)
     1.71681041E-07    3    -1000024        12       -11   # BR(~chi_20 -> ~chi_1- nu_e    e+)
     1.71681041E-07    3     1000024       -14        13   # BR(~chi_20 -> ~chi_1+ nu_mub  mu-)
     1.71681041E-07    3    -1000024        14       -13   # BR(~chi_20 -> ~chi_1- nu_mu   mu+)
     1.88518283E-08    3     1000024       -16        15   # BR(~chi_20 -> ~chi_1+ nu_taub tau-)
     1.88518283E-08    3    -1000024        16       -15   # BR(~chi_20 -> ~chi_1- nu_tau  tau+)
#
#         PDG            Width
DECAY   1000025     2.42900849E-04   # neutralino3 decays
#          BR         NDA      ID1       ID2
     3.44613260E-04    2     1000022        22   # BR(~chi_30 -> ~chi_10 gam)
     3.77803189E-04    2     1000023        22   # BR(~chi_30 -> ~chi_20 gam)
#          BR         NDA      ID1       ID2
     1.43296727E-03    2     1000039        22   # BR(~chi_30 -> ~G        gam)
     1.22213836E-03    2     1000039        23   # BR(~chi_30 -> ~G        Z)
     3.37017873E-05    2     1000039        25   # BR(~chi_30 -> ~G        h)
#           BR         NDA      ID1       ID2       ID3
     1.03441210E-05    3     1000022        -2         2   # BR(~chi_30 -> ~chi_10 ub      u)
     1.23609063E-05    3     1000022        -1         1   # BR(~chi_30 -> ~chi_10 db      d)
     1.03441210E-05    3     1000022        -4         4   # BR(~chi_30 -> ~chi_10 cb      c)
     1.23609063E-05    3     1000022        -3         3   # BR(~chi_30 -> ~chi_10 sb      s)
     1.60946625E-05    3     1000022        -5         5   # BR(~chi_30 -> ~chi_10 bb      b)
     2.20855983E-06    3     1000022       -11        11   # BR(~chi_30 -> ~chi_10 e+      e-)
     2.20855983E-06    3     1000022       -13        13   # BR(~chi_30 -> ~chi_10 mu+     mu-)
     2.80019546E-06    3     1000022       -15        15   # BR(~chi_30 -> ~chi_10 tau+    tau-)
     6.01554522E-06    3     1000022       -12        12   # BR(~chi_30 -> ~chi_10 nu_eb   nu_e)
     6.01554522E-06    3     1000022       -14        14   # BR(~chi_30 -> ~chi_10 nu_mub  nu_mu)
     6.01554522E-06    3     1000022       -16        16   # BR(~chi_30 -> ~chi_10 nu_taub nu_tau)
     2.60750926E-02    3     1000023        -2         2   # BR(~chi_30 -> ~chi_20 ub      u)
     3.37599809E-02    3     1000023        -1         1   # BR(~chi_30 -> ~chi_20 db      d)
     2.60750926E-02    3     1000023        -4         4   # BR(~chi_30 -> ~chi_20 cb      c)
     3.37599809E-02    3     1000023        -3         3   # BR(~chi_30 -> ~chi_20 sb      s)
     2.96327071E-02    3     1000023        -5         5   # BR(~chi_30 -> ~chi_20 bb      b)
     7.70866637E-03    3     1000023       -11        11   # BR(~chi_30 -> ~chi_20 e+      e-)
     7.70866637E-03    3     1000023       -13        13   # BR(~chi_30 -> ~chi_20 mu+     mu-)
     7.60819561E-03    3     1000023       -15        15   # BR(~chi_30 -> ~chi_20 tau+    tau-)
     1.53934828E-02    3     1000023       -12        12   # BR(~chi_30 -> ~chi_20 nu_eb   nu_e)
     1.53934828E-02    3     1000023       -14        14   # BR(~chi_30 -> ~chi_20 nu_mub  nu_mu)
     1.53934828E-02    3     1000023       -16        16   # BR(~chi_30 -> ~chi_20 nu_taub nu_tau)
     1.29786412E-01    3     1000024        -2         1   # BR(~chi_30 -> ~chi_1+ ub      d)
     1.29786412E-01    3    -1000024        -1         2   # BR(~chi_30 -> ~chi_1- db      u)
     1.29786412E-01    3     1000024        -4         3   # BR(~chi_30 -> ~chi_1+ cb      s)
     1.29786412E-01    3    -1000024        -3         4   # BR(~chi_30 -> ~chi_1- sb      c)
     4.32620672E-02    3     1000024       -12        11   # BR(~chi_30 -> ~chi_1+ nu_eb   e-)
     4.32620672E-02    3    -1000024        12       -11   # BR(~chi_30 -> ~chi_1- nu_e    e+)
     4.32620672E-02    3     1000024       -14        13   # BR(~chi_30 -> ~chi_1+ nu_mub  mu-)
     4.32620672E-02    3    -1000024        14       -13   # BR(~chi_30 -> ~chi_1- nu_mu   mu+)
     4.28996301E-02    3     1000024       -16        15   # BR(~chi_30 -> ~chi_1+ nu_taub tau-)
     4.28996301E-02    3    -1000024        16       -15   # BR(~chi_30 -> ~chi_1- nu_tau  tau+)
#
#         PDG            Width
DECAY   1000035     3.66908049E+01   # neutralino4 decays
#          BR         NDA      ID1       ID2
     1.35410431E-03    2     1000022        23   # BR(~chi_40 -> ~chi_10   Z )
     2.41966207E-01    2     1000023        23   # BR(~chi_40 -> ~chi_20   Z )
     1.55886341E-03    2     1000025        23   # BR(~chi_40 -> ~chi_30   Z )
     2.38395693E-01    2     1000024       -24   # BR(~chi_40 -> ~chi_1+   W-)
     2.38395693E-01    2    -1000024        24   # BR(~chi_40 -> ~chi_1-   W+)
     1.13937075E-01    2     1000022        25   # BR(~chi_40 -> ~chi_10   h )
     1.46222731E-03    2     1000022        35   # BR(~chi_40 -> ~chi_10   H )
     3.34199873E-03    2     1000022        36   # BR(~chi_40 -> ~chi_10   A )
     2.88088829E-03    2     1000023        25   # BR(~chi_40 -> ~chi_20   h )
     5.11690191E-03    2     1000023        35   # BR(~chi_40 -> ~chi_20   H )
     2.78460365E-03    2     1000023        36   # BR(~chi_40 -> ~chi_20   A )
     1.29387962E-01    2     1000025        25   # BR(~chi_40 -> ~chi_30   h )
     1.23258654E-03    2     1000025        35   # BR(~chi_40 -> ~chi_30   H )
     2.01615772E-03    2     1000025        36   # BR(~chi_40 -> ~chi_30   A )
     8.07982859E-03    2     1000024       -37   # BR(~chi_40 -> ~chi_1+   H-)
     8.07982859E-03    2    -1000024        37   # BR(~chi_40 -> ~chi_1-   H+)
     2.25168814E-06    2     1000039        22   # BR(~chi_40 -> ~G        gam)
     7.12849551E-06    2     1000039        23   # BR(~chi_40 -> ~G        Z)
     5.19487311E-10    2     1000039        25   # BR(~chi_40 -> ~G        h)
     6.39568798E-10    2     1000039        35   # BR(~chi_40 -> ~G        H)
     5.47433196E-12    2     1000039        36   # BR(~chi_40 -> ~G        A)
#
#         PDG            Width
DECAY        25     4.21915535E-03   # h decays
#          BR         NDA      ID1       ID2
     6.01917874E-01    2           5        -5   # BR(h -> b       bb     )
     6.22282244E-02    2         -15        15   # BR(h -> tau+    tau-   )
     2.20260785E-04    2         -13        13   # BR(h -> mu+     mu-    )
     4.66029071E-04    2           3        -3   # BR(h -> s       sb     )
     2.01048698E-02    2           4        -4   # BR(h -> c       cb     )
     6.63978687E-02    2          21        21   # BR(h -> g       g      )
     2.30810188E-03    2          22        22   # BR(h -> gam     gam    )
     1.62627243E-03    2          22        23   # BR(h -> Z       gam    )
     2.16654851E-01    2          24       -24   # BR(h -> W+      W-     )
     2.80756485E-02    2          23        23   # BR(h -> Z       Z      )
#
#         PDG            Width
DECAY        35     3.88095559E+01   # H decays
#          BR         NDA      ID1       ID2
     1.43307877E-03    2           5        -5   # BR(H -> b       bb     )
     2.40083265E-04    2         -15        15   # BR(H -> tau+    tau-   )
     8.48783726E-07    2         -13        13   # BR(H -> mu+     mu-    )
     1.08675071E-06    2           3        -3   # BR(H -> s       sb     )
     9.80789641E-06    2           4        -4   # BR(H -> c       cb     )
     9.70446840E-01    2           6        -6   # BR(H -> t       tb     )
     7.77222479E-04    2          21        21   # BR(H -> g       g      )
     2.63839551E-06    2          22        22   # BR(H -> gam     gam    )
     1.12987355E-06    2          23        22   # BR(H -> Z       gam    )
     3.27949430E-04    2          24       -24   # BR(H -> W+      W-     )
     1.63527442E-04    2          23        23   # BR(H -> Z       Z      )
     8.81060556E-04    2          25        25   # BR(H -> h       h      )
     7.51219606E-24    2          36        36   # BR(H -> A       A      )
     2.99927395E-11    2          23        36   # BR(H -> Z       A      )
     7.40261131E-12    2          24       -37   # BR(H -> W+      H-     )
     7.40261131E-12    2         -24        37   # BR(H -> W-      H+     )
     7.58176745E-06    2     1000024  -1000024   # BR(H -> ~chi_1+ ~chi_1-)
     1.83574449E-04    2     1000022   1000022   # BR(H -> ~chi_10 ~chi_10)
     1.29232293E-06    2     1000023   1000023   # BR(H -> ~chi_20 ~chi_20)
     3.16410686E-05    2     1000025   1000025   # BR(H -> ~chi_30 ~chi_30)
     1.58360901E-02    2     1000022   1000023   # BR(H -> ~chi_10 ~chi_20)
     4.61483970E-07    2     1000022   1000025   # BR(H -> ~chi_10 ~chi_30)
     9.65408523E-03    2     1000023   1000025   # BR(H -> ~chi_20 ~chi_30)
#
#         PDG            Width
DECAY        36     3.92440846E+01   # A decays
#          BR         NDA      ID1       ID2
     1.43607462E-03    2           5        -5   # BR(A -> b       bb     )
     2.37646425E-04    2         -15        15   # BR(A -> tau+    tau-   )
     8.40165959E-07    2         -13        13   # BR(A -> mu+     mu-    )
     1.10763752E-06    2           3        -3   # BR(A -> s       sb     )
     9.70643674E-06    2           4        -4   # BR(A -> c       cb     )
     9.71442179E-01    2           6        -6   # BR(A -> t       tb     )
     9.19488478E-04    2          21        21   # BR(A -> g       g      )
     2.99658597E-06    2          22        22   # BR(A -> gam     gam    )
     1.31759896E-06    2          23        22   # BR(A -> Z       gam    )
     3.19612957E-04    2          23        25   # BR(A -> Z       h      )
     4.48595893E-04    2     1000024  -1000024   # BR(A -> ~chi_1+ ~chi_1-)
     1.68678882E-02    2     1000022   1000022   # BR(A -> ~chi_10 ~chi_10)
     2.84480758E-07    2     1000023   1000023   # BR(A -> ~chi_20 ~chi_20)
     8.00073862E-03    2     1000025   1000025   # BR(A -> ~chi_30 ~chi_30)
     1.19373492E-04    2     1000022   1000023   # BR(A -> ~chi_10 ~chi_20)
     1.34302510E-04    2     1000022   1000025   # BR(A -> ~chi_10 ~chi_30)
     5.78472446E-05    2     1000023   1000025   # BR(A -> ~chi_20 ~chi_30)
#
#         PDG            Width
DECAY        37     3.84329015E+01   # H+ decays
#          BR         NDA      ID1       ID2
     2.30335162E-06    2           4        -5   # BR(H+ -> c       bb     )
     2.42842488E-04    2         -15        16   # BR(H+ -> tau+    nu_tau )
     8.58535917E-07    2         -13        14   # BR(H+ -> mu+     nu_mu  )
     1.46441269E-08    2           2        -5   # BR(H+ -> u       bb     )
     5.31693395E-08    2           2        -3   # BR(H+ -> u       sb     )
     1.05941926E-05    2           4        -3   # BR(H+ -> c       sb     )
     9.73761812E-01    2           6        -5   # BR(H+ -> t       bb     )
     3.27549709E-04    2          24        25   # BR(H+ -> W+      h      )
     2.47159448E-13    2          24        36   # BR(H+ -> W+      A      )
     1.42783514E-02    2     1000024   1000022   # BR(H+ -> ~chi_1+ ~chi_10)
     1.06584364E-04    2     1000024   1000023   # BR(H+ -> ~chi_1+ ~chi_20)
     1.12690357E-02    2     1000024   1000025   # BR(H+ -> ~chi_1+ ~chi_30)
