#
#                              ======================
#                              | THE SUSYHIT OUTPUT |
#                              ======================
#
#
#              ------------------------------------------------------
#              |     This is the output of the SUSY-HIT package     |
#              |  created by A.Djouadi, M.Muehlleitner and M.Spira. |
#              |  In case of problems with SUSY-HIT email to        |
#              |           margarete.muehlleitner@cern.ch           |
#              |           michael.spira@psi.ch                     |
#              |           abdelhak.djouadi@cern.ch                 |
#              ------------------------------------------------------
#
#              ------------------------------------------------------
#              |  SUSY Les Houches Accord - MSSM Spectrum + Decays  |
#              |              based on the decay programs           |
#              |                                                    |
#              |                     SDECAY 1.3b                    |
#              |                                                    |
#              |  Authors: M.Muhlleitner, A.Djouadi and Y.Mambrini  |
#              |  Ref.:    Comput.Phys.Commun.168(2005)46           |
#              |           [hep-ph/0311167]                         |
#              |                                                    |
#              |                     HDECAY 3.4                     |
#              |                                                    |
#              |  By: A.Djouadi,J.Kalinowski,M.Muhlleitner,M.Spira  |
#              |  Ref.:    Comput.Phys.Commun.108(1998)56           |
#              |           [hep-ph/9704448]                         |
#              |                                                    |
#              |                                                    |
#              |  If not stated otherwise all DRbar couplings and   |
#              |  soft SUSY breaking masses are given at the scale  |
#              |  Q=  0.50007637E+04
#              |                                                    |
#              ------------------------------------------------------
#
#
BLOCK DCINFO  # Decay Program information
     1   SDECAY/HDECAY # decay calculator
     2   1.3b  /3.4    # version number
#
BLOCK SPINFO  # Spectrum calculator information
     1    SOFTSUSY    # spectrum calculator                
     2    3.4.0       # version number                     
#
BLOCK MODSEL  # Model selection
     1     0   #  nonUniversal                                     
#
BLOCK SMINPUTS  # Standard Model inputs
         1     1.25778332E+02   # alpha_em^-1(M_Z)^MSbar
         2     1.16570000E-05   # G_F [GeV^-2]
         3     1.17200002E-01   # alpha_S(M_Z)^MSbar
         4     9.11876000E+01   # M_Z pole mass
         5     4.25000000E+00   # mb(mb)^MSbar
         6     1.72500000E+02   # mt pole mass
         7     1.77682000E+00   # mtau pole mass
#
BLOCK MINPAR  # Input parameters - minimal models
         3     1.00000000E+01   # tanb                
#
BLOCK EXTPAR  # Input parameters - non-minimal models
         0    -1.00000000E+00   # Set                 
         1     6.00000000E+01   # M_1(MX)             
         2     3.00000000E+03   # M_2(MX)             
         3     2.42817700E+03   # M_3(MX)             
        11     5.00000000E+03   # At(MX)              
        12     5.00000000E+03   # Ab(MX)              
        13     0.00000000E+00   # Atau(MX)            
        23    -4.74868000E+02   # mu(MX)              
        26     3.00000000E+03   # mA(pole)            
        31     5.00000000E+03   # meL(MX)             
        32     5.00000000E+03   # mmuL(MX)            
        33     5.00000000E+03   # mtauL(MX)           
        34     5.00000000E+03   # meR(MX)             
        35     5.00000000E+03   # mmuR(MX)            
        36     5.00000000E+03   # mtauR(MX)           
        41     5.00000000E+03   # mqL1(MX)            
        42     5.00000000E+03   # mqL2(MX)            
        43     5.00000000E+03   # mqL3(MX)            
        44     5.00000000E+03   # muR(MX)             
        45     5.00000000E+03   # mcR(MX)             
        46     5.00000000E+03   # mtR(MX)             
        47     5.00000000E+03   # mdR(MX)             
        48     5.00000000E+03   # msR(MX)             
        49     5.00000000E+03   # mbR(MX)             
#
BLOCK MASS  # Mass Spectrum
# PDG code           mass       particle
        24     8.00933467E+01   # W+
        25     1.24803930E+02   # h
        35     3.00008595E+03   # H
        36     2.99999945E+03   # A
        37     3.00143035E+03   # H+
         5     4.87878001E+00   # b-quark pole mass calculated from mb(mb)_Msbar
   1000001     5.08632487E+03   # ~d_L
   2000001     5.06853654E+03   # ~d_R
   1000002     5.08585489E+03   # ~u_L
   2000002     5.06823810E+03   # ~u_R
   1000003     5.08632487E+03   # ~s_L
   2000003     5.06853654E+03   # ~s_R
   1000004     5.08585489E+03   # ~c_L
   2000004     5.06823810E+03   # ~c_R
   1000005     5.03215239E+03   # ~b_1
   2000005     5.06674502E+03   # ~b_2
   1000006     4.92459249E+03   # ~t_1
   2000006     5.07477337E+03   # ~t_2
   1000011     5.01910585E+03   # ~e_L
   2000011     5.00594345E+03   # ~e_R
   1000012     5.01815579E+03   # ~nu_eL
   1000013     5.01910585E+03   # ~mu_L
   2000013     5.00594345E+03   # ~mu_R
   1000014     5.01815579E+03   # ~nu_muL
   1000015     5.00477425E+03   # ~tau_1
   2000015     5.01863019E+03   # ~tau_2
   1000016     5.01760420E+03   # ~nu_tauL
   1000021     2.80000028E+03   # ~g
   1000022     6.02023884E+01   # ~chi_10
   1000023     5.00512832E+02   # ~chi_20
   1000025    -5.02707031E+02   # ~chi_30
   1000035     3.07416985E+03   # ~chi_40
   1000024     5.00000241E+02   # ~chi_1+
   1000037     3.07433753E+03   # ~chi_2+
#
BLOCK NMIX  # Neutralino Mixing Matrix
  1  1     9.96029184E-01   # N_11
  1  2     2.24969470E-04   # N_12
  1  3    -8.90140381E-02   # N_13
  1  4    -1.52165901E-03   # N_14
  2  1     6.40542507E-02   # N_21
  2  2     1.90061283E-02   # N_22
  2  3     7.04713243E-01   # N_23
  2  4     7.06339200E-01   # N_24
  3  1    -6.18285221E-02   # N_31
  3  2     1.70138320E-02   # N_32
  3  3    -7.03884785E-01   # N_33
  3  4     7.07413580E-01   # N_34
  4  1    -3.89686193E-04   # N_41
  4  2     9.99674570E-01   # N_42
  4  3    -1.39852252E-03   # N_43
  4  4    -2.54685352E-02   # N_44
#
BLOCK UMIX  # Chargino Mixing Matrix U
  1  1     1.98306021E-03   # U_11
  1  2     9.99998034E-01   # U_12
  2  1    -9.99998034E-01   # U_21
  2  2     1.98306021E-03   # U_22
#
BLOCK VMIX  # Chargino Mixing Matrix V
  1  1     3.60382142E-02   # V_11
  1  2    -9.99350413E-01   # V_12
  2  1    -9.99350413E-01   # V_21
  2  2    -3.60382142E-02   # V_22
#
BLOCK STOPMIX  # Stop Mixing Matrix
  1  1    -5.00599722E-01   # cos(theta_t)
  1  2     8.65678877E-01   # sin(theta_t)
  2  1    -8.65678877E-01   # -sin(theta_t)
  2  2    -5.00599722E-01   # cos(theta_t)
#
BLOCK SBOTMIX  # Sbottom Mixing Matrix
  1  1     9.98782525E-01   # cos(theta_b)
  1  2    -4.93301911E-02   # sin(theta_b)
  2  1     4.93301911E-02   # -sin(theta_b)
  2  2     9.98782525E-01   # cos(theta_b)
#
BLOCK STAUMIX  # Stau Mixing Matrix
  1  1    -5.69250415E-02   # cos(theta_tau)
  1  2     9.98378455E-01   # sin(theta_tau)
  2  1    -9.98378455E-01   # -sin(theta_tau)
  2  2    -5.69250415E-02   # cos(theta_tau)
#
BLOCK ALPHA  # Higgs mixing
          -1.05493675E-01   # Mixing angle in the neutral Higgs boson sector
#
BLOCK HMIX Q=  5.00076374E+03  # DRbar Higgs Parameters
         1    -4.83589314E+02   # mu(Q)MSSM           
         2     9.46852295E+00   # tan                 
         3     2.41752343E+02   # higgs               
         4     8.67882243E+06   # mA^2(Q)MSSM         
#
BLOCK GAUGE Q=  5.00076374E+03  # The gauge couplings
     1     3.70939621E-01   # gprime(Q) DRbar
     2     6.33277694E-01   # g(Q) DRbar
     3     9.93522939E-01   # g3(Q) DRbar
#
BLOCK AU Q=  5.00076374E+03  # The trilinear couplings
  1  1     5.00000002E+03   # A_u(Q) DRbar
  2  2     5.00000002E+03   # A_c(Q) DRbar
  3  3     5.00000003E+03   # A_t(Q) DRbar
#
BLOCK AD Q=  5.00076374E+03  # The trilinear couplings
  1  1     5.00000001E+03   # A_d(Q) DRbar
  2  2     5.00000001E+03   # A_s(Q) DRbar
  3  3     5.00000001E+03   # A_b(Q) DRbar
#
BLOCK AE Q=  5.00076374E+03  # The trilinear couplings
  1  1     0.00000000E+00   # A_e(Q) DRbar
  2  2     2.90806828E-07   # A_mu(Q) DRbar
  3  3     2.90906976E-07   # A_tau(Q) DRbar
#
BLOCK Yu Q=  5.00076374E+03  # The Yukawa couplings
  1  1     0.00000000E+00   # y_u(Q) DRbar
  2  2     0.00000000E+00   # y_c(Q) DRbar
  3  3     8.21741222E-01   # y_t(Q) DRbar
#
BLOCK Yd Q=  5.00076374E+03  # The Yukawa couplings
  1  1     0.00000000E+00   # y_d(Q) DRbar
  2  2     0.00000000E+00   # y_s(Q) DRbar
  3  3     1.30423232E-01   # y_b(Q) DRbar
#
BLOCK Ye Q=  5.00076374E+03  # The Yukawa couplings
  1  1     0.00000000E+00   # y_e(Q) DRbar
  2  2     0.00000000E+00   # y_mu(Q) DRbar
  3  3     9.71320318E-02   # y_tau(Q) DRbar
#
BLOCK MSOFT Q=  5.00076374E+03  # The soft SUSY breaking masses at the scale Q
         1     6.00000000E+01   # M_1(Q)              
         2     3.00000000E+03   # M_2(Q)              
         3     2.42817700E+03   # M_3(Q)              
        21     8.49029590E+06   # mH1^2(Q)            
        22     3.44864570E+05   # mH2^2(Q)            
        31     5.00000000E+03   # meL(Q)              
        32     5.00000000E+03   # mmuL(Q)             
        33     5.00000000E+03   # mtauL(Q)            
        34     5.00000000E+03   # meR(Q)              
        35     5.00000000E+03   # mmuR(Q)             
        36     5.00000000E+03   # mtauR(Q)            
        41     4.99999999E+03   # mqL1(Q)             
        42     4.99999999E+03   # mqL2(Q)             
        43     4.99999999E+03   # mqL3(Q)             
        44     4.99999999E+03   # muR(Q)              
        45     4.99999999E+03   # mcR(Q)              
        46     4.99999999E+03   # mtR(Q)              
        47     4.99999999E+03   # mdR(Q)              
        48     4.99999999E+03   # msR(Q)              
        49     4.99999999E+03   # mbR(Q)              
#
#
#
#                             =================
#                             |The decay table|
#                             =================
#
# - The QCD corrections to the decays gluino -> squark  + quark
#                                     squark -> gaugino + quark_prime
#                                     squark -> squark_prime + Higgs
#                                     squark -> gluino  + quark
#   are included.
#
# - The multi-body decays for the inos, stops and sbottoms are included.
#
# - The loop induced decays for the gluino, neutralinos and stops
#   are included.
#
# - The SUSY decays of the top quark are included.
#
#
#         PDG            Width
DECAY         6     1.40545490E+00   # top decays
#          BR         NDA      ID1       ID2
     1.00000000E+00    2           5        24   # BR(t ->  b    W+)
#
#         PDG            Width
DECAY   1000021     1.40078382E-02   # gluino decays
#          BR         NDA      ID1       ID2
     3.46658958E-07    2     1000022        21   # BR(~g -> ~chi_10 g)
     3.26343504E-03    2     1000023        21   # BR(~g -> ~chi_20 g)
     3.17352261E-03    2     1000025        21   # BR(~g -> ~chi_30 g)
#           BR         NDA      ID1       ID2       ID3
     9.93476011E-03    3     1000022         1        -1   # BR(~g -> ~chi_10 d  db)
     3.41738475E-05    3     1000023         1        -1   # BR(~g -> ~chi_20 d  db)
     4.33000641E-05    3     1000025         1        -1   # BR(~g -> ~chi_30 d  db)
     3.38844340E-02    3     1000022         2        -2   # BR(~g -> ~chi_10 u  ub)
     1.78280067E-04    3     1000023         2        -2   # BR(~g -> ~chi_20 u  ub)
     7.21080800E-05    3     1000025         2        -2   # BR(~g -> ~chi_30 u  ub)
     9.93476011E-03    3     1000022         3        -3   # BR(~g -> ~chi_10 s  sb)
     3.41738475E-05    3     1000023         3        -3   # BR(~g -> ~chi_20 s  sb)
     4.33000641E-05    3     1000025         3        -3   # BR(~g -> ~chi_30 s  sb)
     3.38844340E-02    3     1000022         4        -4   # BR(~g -> ~chi_10 c  cb)
     1.78280067E-04    3     1000023         4        -4   # BR(~g -> ~chi_20 c  cb)
     7.21080800E-05    3     1000025         4        -4   # BR(~g -> ~chi_30 c  cb)
     1.01713117E-02    3     1000022         5        -5   # BR(~g -> ~chi_10 b  bb)
     5.28352391E-03    3     1000023         5        -5   # BR(~g -> ~chi_20 b  bb)
     5.26577606E-03    3     1000025         5        -5   # BR(~g -> ~chi_30 b  bb)
     3.50430000E-02    3     1000022         6        -6   # BR(~g -> ~chi_10 t  tb)
     2.11163376E-01    3     1000023         6        -6   # BR(~g -> ~chi_20 t  tb)
     2.02984914E-01    3     1000025         6        -6   # BR(~g -> ~chi_30 t  tb)
     5.39745332E-05    3     1000024         1        -2   # BR(~g -> ~chi_1+ d  ub)
     5.39745332E-05    3    -1000024         2        -1   # BR(~g -> ~chi_1- u  db)
     5.39745332E-05    3     1000024         3        -4   # BR(~g -> ~chi_1+ s  cb)
     5.39745332E-05    3    -1000024         4        -3   # BR(~g -> ~chi_1- c  sb)
     2.17570392E-01    3     1000024         5        -6   # BR(~g -> ~chi_1+ b  tb)
     2.17570392E-01    3    -1000024         6        -5   # BR(~g -> ~chi_1- t  bb)
#
#         PDG            Width
DECAY   1000006     2.71766268E+02   # stop1 decays
#          BR         NDA      ID1       ID2
     3.25172927E-02    2     1000022         6   # BR(~t_1 -> ~chi_10 t )
     1.20445423E-01    2     1000023         6   # BR(~t_1 -> ~chi_20 t )
     1.13999397E-01    2     1000025         6   # BR(~t_1 -> ~chi_30 t )
     7.33950746E-03    2     1000035         6   # BR(~t_1 -> ~chi_40 t )
     1.76577027E-01    2     1000024         5   # BR(~t_1 -> ~chi_1+ b )
     1.46309610E-02    2     1000037         5   # BR(~t_1 -> ~chi_2+ b )
     5.34490392E-01    2     1000021         6   # BR(~t_1 -> ~g      t )
#
#         PDG            Width
DECAY   2000006     2.78969726E+02   # stop2 decays
#          BR         NDA      ID1       ID2
     1.21886603E-02    2     1000022         6   # BR(~t_2 -> ~chi_10 t )
     1.17353811E-01    2     1000023         6   # BR(~t_2 -> ~chi_20 t )
     1.24416510E-01    2     1000025         6   # BR(~t_2 -> ~chi_30 t )
     2.04958850E-02    2     1000035         6   # BR(~t_2 -> ~chi_40 t )
     6.73906780E-02    2     1000024         5   # BR(~t_2 -> ~chi_1+ b )
     4.08110477E-02    2     1000037         5   # BR(~t_2 -> ~chi_2+ b )
     6.13192334E-01    2     1000021         6   # BR(~t_2 -> ~g      t )
     9.61252195E-04    2     1000006        25   # BR(~t_2 -> ~t_1    h )
     3.18982139E-03    2     1000006        23   # BR(~t_2 -> ~t_1    Z )
#
#         PDG            Width
DECAY   1000005     2.53183456E+02   # sbottom1 decays
#          BR         NDA      ID1       ID2
     3.05924474E-03    2     1000022         5   # BR(~b_1 -> ~chi_10 b )
     3.24196786E-03    2     1000023         5   # BR(~b_1 -> ~chi_20 b )
     3.24406130E-03    2     1000025         5   # BR(~b_1 -> ~chi_30 b )
     3.02224064E-02    2     1000035         5   # BR(~b_1 -> ~chi_40 b )
     2.59913066E-01    2    -1000024         6   # BR(~b_1 -> ~chi_1- t )
     6.06795517E-02    2    -1000037         6   # BR(~b_1 -> ~chi_2- t )
     6.37550100E-01    2     1000021         5   # BR(~b_1 -> ~g      b )
     2.08960223E-03    2     1000006       -24   # BR(~b_1 -> ~t_1    W-)
#
#         PDG            Width
DECAY   2000005     1.70827508E+02   # sbottom2 decays
#          BR         NDA      ID1       ID2
     1.71274234E-02    2     1000022         5   # BR(~b_2 -> ~chi_10 b )
     4.98533179E-03    2     1000023         5   # BR(~b_2 -> ~chi_20 b )
     5.04258237E-03    2     1000025         5   # BR(~b_2 -> ~chi_30 b )
     9.78354550E-05    2     1000035         5   # BR(~b_2 -> ~chi_40 b )
     1.06234011E-02    2    -1000024         6   # BR(~b_2 -> ~chi_1- t )
     1.96458581E-04    2    -1000037         6   # BR(~b_2 -> ~chi_2- t )
     9.61894298E-01    2     1000021         5   # BR(~b_2 -> ~g      b )
     3.26691528E-05    2     1000006       -24   # BR(~b_2 -> ~t_1    W-)
#
#         PDG            Width
DECAY   1000002     1.90564876E+02   # sup_L decays
#          BR         NDA      ID1       ID2
     3.88656319E-03    2     1000022         2   # BR(~u_L -> ~chi_10 u)
     1.00025636E-04    2     1000023         2   # BR(~u_L -> ~chi_20 u)
     2.45956795E-06    2     1000025         2   # BR(~u_L -> ~chi_30 u)
     4.16737236E-02    2     1000035         2   # BR(~u_L -> ~chi_40 u)
     2.61646765E-04    2     1000024         1   # BR(~u_L -> ~chi_1+ d)
     8.32957164E-02    2     1000037         1   # BR(~u_L -> ~chi_2+ d)
     8.70779865E-01    2     1000021         2   # BR(~u_L -> ~g      u)
#
#         PDG            Width
DECAY   2000002     1.76238495E+02   # sup_R decays
#          BR         NDA      ID1       ID2
     6.68468742E-02    2     1000022         2   # BR(~u_R -> ~chi_10 u)
     2.71568616E-04    2     1000023         2   # BR(~u_R -> ~chi_20 u)
     2.52981659E-04    2     1000025         2   # BR(~u_R -> ~chi_30 u)
     4.12954433E-09    2     1000035         2   # BR(~u_R -> ~chi_40 u)
     9.32628571E-01    2     1000021         2   # BR(~u_R -> ~g      u)
#
#         PDG            Width
DECAY   1000001     1.90581592E+02   # sdown_L decays
#          BR         NDA      ID1       ID2
     3.86864713E-03    2     1000022         1   # BR(~d_L -> ~chi_10 d)
     4.25523708E-06    2     1000023         1   # BR(~d_L -> ~chi_20 d)
     8.51991975E-05    2     1000025         1   # BR(~d_L -> ~chi_30 d)
     4.16954289E-02    2     1000035         1   # BR(~d_L -> ~chi_40 d)
     7.92255101E-07    2    -1000024         2   # BR(~d_L -> ~chi_1- u)
     8.34217516E-02    2    -1000037         2   # BR(~d_L -> ~chi_2- u)
     8.70923926E-01    2     1000021         1   # BR(~d_L -> ~g      d)
#
#         PDG            Width
DECAY   2000001     1.67360280E+02   # sdown_R decays
#          BR         NDA      ID1       ID2
     1.75993112E-02    2     1000022         1   # BR(~d_R -> ~chi_10 d)
     7.14981919E-05    2     1000023         1   # BR(~d_R -> ~chi_20 d)
     6.66046462E-05    2     1000025         1   # BR(~d_R -> ~chi_30 d)
     1.08736485E-09    2     1000035         1   # BR(~d_R -> ~chi_40 d)
     9.82262585E-01    2     1000021         1   # BR(~d_R -> ~g      d)
#
#         PDG            Width
DECAY   1000004     1.90564876E+02   # scharm_L decays
#          BR         NDA      ID1       ID2
     3.88656319E-03    2     1000022         4   # BR(~c_L -> ~chi_10 c)
     1.00025636E-04    2     1000023         4   # BR(~c_L -> ~chi_20 c)
     2.45956795E-06    2     1000025         4   # BR(~c_L -> ~chi_30 c)
     4.16737236E-02    2     1000035         4   # BR(~c_L -> ~chi_40 c)
     2.61646765E-04    2     1000024         3   # BR(~c_L -> ~chi_1+ s)
     8.32957164E-02    2     1000037         3   # BR(~c_L -> ~chi_2+ s)
     8.70779865E-01    2     1000021         4   # BR(~c_L -> ~g      c)
#
#         PDG            Width
DECAY   2000004     1.76238495E+02   # scharm_R decays
#          BR         NDA      ID1       ID2
     6.68468742E-02    2     1000022         4   # BR(~c_R -> ~chi_10 c)
     2.71568616E-04    2     1000023         4   # BR(~c_R -> ~chi_20 c)
     2.52981659E-04    2     1000025         4   # BR(~c_R -> ~chi_30 c)
     4.12954433E-09    2     1000035         4   # BR(~c_R -> ~chi_40 c)
     9.32628571E-01    2     1000021         4   # BR(~c_R -> ~g      c)
#
#         PDG            Width
DECAY   1000003     1.90581592E+02   # sstrange_L decays
#          BR         NDA      ID1       ID2
     3.86864713E-03    2     1000022         3   # BR(~s_L -> ~chi_10 s)
     4.25523708E-06    2     1000023         3   # BR(~s_L -> ~chi_20 s)
     8.51991975E-05    2     1000025         3   # BR(~s_L -> ~chi_30 s)
     4.16954289E-02    2     1000035         3   # BR(~s_L -> ~chi_40 s)
     7.92255101E-07    2    -1000024         4   # BR(~s_L -> ~chi_1- c)
     8.34217516E-02    2    -1000037         4   # BR(~s_L -> ~chi_2- c)
     8.70923926E-01    2     1000021         3   # BR(~s_L -> ~g      s)
#
#         PDG            Width
DECAY   2000003     1.67360280E+02   # sstrange_R decays
#          BR         NDA      ID1       ID2
     1.75993112E-02    2     1000022         3   # BR(~s_R -> ~chi_10 s)
     7.14981919E-05    2     1000023         3   # BR(~s_R -> ~chi_20 s)
     6.66046462E-05    2     1000025         3   # BR(~s_R -> ~chi_30 s)
     1.08736485E-09    2     1000035         3   # BR(~s_R -> ~chi_40 s)
     9.82262585E-01    2     1000021         3   # BR(~s_R -> ~g      s)
#
#         PDG            Width
DECAY   1000011     3.03303517E+01   # selectron_L decays
#          BR         NDA      ID1       ID2
     2.24806842E-01    2     1000022        11   # BR(~e_L -> ~chi_10 e-)
     2.06750872E-03    2     1000023        11   # BR(~e_L -> ~chi_20 e-)
     2.38545236E-04    2     1000025        11   # BR(~e_L -> ~chi_30 e-)
     2.57460294E-01    2     1000035        11   # BR(~e_L -> ~chi_40 e-)
     5.08951364E-06    2    -1000024        12   # BR(~e_L -> ~chi_1- nu_e)
     5.15421720E-01    2    -1000037        12   # BR(~e_L -> ~chi_2- nu_e)
#
#         PDG            Width
DECAY   2000011     2.73942277E+01   # selectron_R decays
#          BR         NDA      ID1       ID2
     9.92229102E-01    2     1000022        11   # BR(~e_R -> ~chi_10 e-)
     4.02311663E-03    2     1000023        11   # BR(~e_R -> ~chi_20 e-)
     3.74772203E-03    2     1000025        11   # BR(~e_R -> ~chi_30 e-)
     5.89423030E-08    2     1000035        11   # BR(~e_R -> ~chi_40 e-)
#
#         PDG            Width
DECAY   1000013     3.03303517E+01   # smuon_L decays
#          BR         NDA      ID1       ID2
     2.24806842E-01    2     1000022        13   # BR(~mu_L -> ~chi_10 mu-)
     2.06750872E-03    2     1000023        13   # BR(~mu_L -> ~chi_20 mu-)
     2.38545236E-04    2     1000025        13   # BR(~mu_L -> ~chi_30 mu-)
     2.57460294E-01    2     1000035        13   # BR(~mu_L -> ~chi_40 mu-)
     5.08951364E-06    2    -1000024        14   # BR(~mu_L -> ~chi_1- nu_mu)
     5.15421720E-01    2    -1000037        14   # BR(~mu_L -> ~chi_2- nu_mu)
#
#         PDG            Width
DECAY   2000013     2.73942277E+01   # smuon_R decays
#          BR         NDA      ID1       ID2
     9.92229102E-01    2     1000022        13   # BR(~mu_R -> ~chi_10 mu-)
     4.02311663E-03    2     1000023        13   # BR(~mu_R -> ~chi_20 mu-)
     3.74772203E-03    2     1000025        13   # BR(~mu_R -> ~chi_30 mu-)
     5.89423030E-08    2     1000035        13   # BR(~mu_R -> ~chi_40 mu-)
#
#         PDG            Width
DECAY   1000015     2.92367499E+01   # stau_1 decays
#          BR         NDA      ID1       ID2
     9.28350288E-01    2     1000022        15   # BR(~tau_1 -> ~chi_10  tau-)
     1.91859320E-02    2     1000023        15   # BR(~tau_1 -> ~chi_20  tau-)
     1.84822026E-02    2     1000025        15   # BR(~tau_1 -> ~chi_30  tau-)
     8.48050578E-04    2     1000035        15   # BR(~tau_1 -> ~chi_40  tau-)
     3.14359342E-02    2    -1000024        16   # BR(~tau_1 -> ~chi_1-  nu_tau)
     1.69759235E-03    2    -1000037        16   # BR(~tau_1 -> ~chi_2-  nu_tau)
#
#         PDG            Width
DECAY   2000015     3.12375544E+01   # stau_2 decays
#          BR         NDA      ID1       ID2
     2.19795906E-01    2     1000022        15   # BR(~tau_2 -> ~chi_10  tau-)
     1.68942822E-02    2     1000023        15   # BR(~tau_2 -> ~chi_20  tau-)
     1.54638377E-02    2     1000025        15   # BR(~tau_2 -> ~chi_30  tau-)
     2.49101110E-01    2     1000035        15   # BR(~tau_2 -> ~chi_40  tau-)
     5.72711471E-05    2    -1000024        16   # BR(~tau_2 -> ~chi_1-  nu_tau)
     4.98687593E-01    2    -1000037        16   # BR(~tau_2 -> ~chi_2-  nu_tau)
#
#         PDG            Width
DECAY   1000012     3.03335471E+01   # snu_eL decays
#          BR         NDA      ID1       ID2
     2.24394210E-01    2     1000022        12   # BR(~nu_eL -> ~chi_10 nu_e)
     2.21715562E-04    2     1000023        12   # BR(~nu_eL -> ~chi_20 nu_e)
     1.83254791E-03    2     1000025        12   # BR(~nu_eL -> ~chi_30 nu_e)
     2.57502498E-01    2     1000035        12   # BR(~nu_eL -> ~chi_40 nu_e)
     1.68034997E-03    2     1000024        11   # BR(~nu_eL -> ~chi_1+ e-)
     5.14368679E-01    2     1000037        11   # BR(~nu_eL -> ~chi_2+ e-)
#
#         PDG            Width
DECAY   1000014     3.03335471E+01   # snu_muL decays
#          BR         NDA      ID1       ID2
     2.24394210E-01    2     1000022        14   # BR(~nu_muL -> ~chi_10 nu_mu)
     2.21715562E-04    2     1000023        14   # BR(~nu_muL -> ~chi_20 nu_mu)
     1.83254791E-03    2     1000025        14   # BR(~nu_muL -> ~chi_30 nu_mu)
     2.57502498E-01    2     1000035        14   # BR(~nu_muL -> ~chi_40 nu_mu)
     1.68034997E-03    2     1000024        13   # BR(~nu_muL -> ~chi_1+ mu-)
     5.14368679E-01    2     1000037        13   # BR(~nu_muL -> ~chi_2+ mu-)
#
#         PDG            Width
DECAY   1000016     3.12472124E+01   # snu_tauL decays
#          BR         NDA      ID1       ID2
     2.17808989E-01    2     1000022        16   # BR(~nu_tauL -> ~chi_10 nu_tau)
     2.15208013E-04    2     1000023        16   # BR(~nu_tauL -> ~chi_20 nu_tau)
     1.77876093E-03    2     1000025        16   # BR(~nu_tauL -> ~chi_30 nu_tau)
     2.49879649E-01    2     1000035        16   # BR(~nu_tauL -> ~chi_40 nu_tau)
     3.11760830E-02    2     1000024        15   # BR(~nu_tauL -> ~chi_1+ tau-)
     4.99141310E-01    2     1000037        15   # BR(~nu_tauL -> ~chi_2+ tau-)
#
#         PDG            Width
DECAY   1000024     2.94045375E-01   # chargino1+ decays
#          BR         NDA      ID1       ID2
     1.00000000E+00    2     1000022        24   # BR(~chi_1+ -> ~chi_10  W+)
#
#         PDG            Width
DECAY   1000037     2.21587504E+01   # chargino2+ decays
#          BR         NDA      ID1       ID2
     2.53559809E-01    2     1000024        23   # BR(~chi_2+ -> ~chi_1+  Z )
     1.56243457E-04    2     1000022        24   # BR(~chi_2+ -> ~chi_10  W+)
     2.44963680E-01    2     1000023        24   # BR(~chi_2+ -> ~chi_20  W+)
     2.44369433E-01    2     1000025        24   # BR(~chi_2+ -> ~chi_30  W+)
     2.56945656E-01    2     1000024        25   # BR(~chi_2+ -> ~chi_1+  h )
     5.17833002E-06    2     1000022        37   # BR(~chi_2+ -> ~chi_10  H+)
#
#         PDG            Width
DECAY   1000022     0.00000000E+00   # neutralino1 decays
#
#         PDG            Width
DECAY   1000023     2.97381533E-01   # neutralino2 decays
#          BR         NDA      ID1       ID2
     5.04348865E-01    2     1000022        23   # BR(~chi_20 -> ~chi_10   Z )
     4.95651135E-01    2     1000022        25   # BR(~chi_20 -> ~chi_10   h )
#
#         PDG            Width
DECAY   1000025     2.90282827E-01   # neutralino3 decays
#          BR         NDA      ID1       ID2
     5.33686355E-01    2     1000022        23   # BR(~chi_30 -> ~chi_10   Z )
     4.66313645E-01    2     1000022        25   # BR(~chi_30 -> ~chi_10   h )
#
#         PDG            Width
DECAY   1000035     2.21697007E+01   # neutralino4 decays
#          BR         NDA      ID1       ID2
     3.10002895E-06    2     1000022        23   # BR(~chi_40 -> ~chi_10   Z )
     1.12720618E-01    2     1000023        23   # BR(~chi_40 -> ~chi_20   Z )
     1.40400500E-01    2     1000025        23   # BR(~chi_40 -> ~chi_30   Z )
     2.45146444E-01    2     1000024       -24   # BR(~chi_40 -> ~chi_1+   W-)
     2.45146444E-01    2    -1000024        24   # BR(~chi_40 -> ~chi_1-   W+)
     1.45596109E-04    2     1000022        25   # BR(~chi_40 -> ~chi_10   h )
     4.98204213E-06    2     1000022        35   # BR(~chi_40 -> ~chi_10   H )
     5.43470914E-07    2     1000022        36   # BR(~chi_40 -> ~chi_10   A )
     1.43429555E-01    2     1000023        25   # BR(~chi_40 -> ~chi_20   h )
     1.13002217E-01    2     1000025        25   # BR(~chi_40 -> ~chi_30   h )
#
#         PDG            Width
DECAY        25     4.06969936E-03   # h decays
#          BR         NDA      ID1       ID2
     6.08372461E-01    2           5        -5   # BR(h -> b       bb     )
     6.37542824E-02    2         -15        15   # BR(h -> tau+    tau-   )
     2.25713206E-04    2         -13        13   # BR(h -> mu+     mu-    )
     4.78475237E-04    2           3        -3   # BR(h -> s       sb     )
     2.07312062E-02    2           4        -4   # BR(h -> c       cb     )
     6.70964215E-02    2          21        21   # BR(h -> g       g      )
     2.30680745E-03    2          22        22   # BR(h -> gam     gam    )
     1.49038847E-03    2          22        23   # BR(h -> Z       gam    )
     2.10382677E-01    2          24       -24   # BR(h -> W+      W-     )
     2.50762485E-02    2          23        23   # BR(h -> Z       Z      )
     8.53189330E-05    2     1000022   1000022   # BR(h -> ~chi_10 ~chi_10)
#
#         PDG            Width
DECAY        35     8.65988713E+00   # H decays
#          BR         NDA      ID1       ID2
     3.68267700E-01    2           5        -5   # BR(H -> b       bb     )
     6.43145102E-02    2         -15        15   # BR(H -> tau+    tau-   )
     2.27421216E-04    2         -13        13   # BR(H -> mu+     mu-    )
     2.78783478E-04    2           3        -3   # BR(H -> s       sb     )
     1.56044977E-06    2           4        -4   # BR(H -> c       cb     )
     1.55901296E-01    2           6        -6   # BR(H -> t       tb     )
     5.18562924E-05    2          21        21   # BR(H -> g       g      )
     1.49186168E-07    2          22        22   # BR(H -> gam     gam    )
     9.20149647E-08    2          23        22   # BR(H -> Z       gam    )
     7.45888194E-05    2          24       -24   # BR(H -> W+      W-     )
     3.72471972E-05    2          23        23   # BR(H -> Z       Z      )
     2.69939736E-04    2          25        25   # BR(H -> h       h      )
    -1.08172643E-23    2          36        36   # BR(H -> A       A      )
     7.87791499E-19    2          23        36   # BR(H -> Z       A      )
     3.17473621E-03    2     1000024  -1000024   # BR(H -> ~chi_1+ ~chi_1-)
     6.71582816E-03    2     1000022   1000022   # BR(H -> ~chi_10 ~chi_10)
     3.68980434E-04    2     1000023   1000023   # BR(H -> ~chi_20 ~chi_20)
     2.44871482E-03    2     1000025   1000025   # BR(H -> ~chi_30 ~chi_30)
     2.39588606E-01    2     1000022   1000023   # BR(H -> ~chi_10 ~chi_20)
     1.54953640E-01    2     1000022   1000025   # BR(H -> ~chi_10 ~chi_30)
     3.32435053E-03    2     1000023   1000025   # BR(H -> ~chi_20 ~chi_30)
#
#         PDG            Width
DECAY        36     8.66691221E+00   # A decays
#          BR         NDA      ID1       ID2
     3.68094732E-01    2           5        -5   # BR(A -> b       bb     )
     6.42642950E-02    2         -15        15   # BR(A -> tau+    tau-   )
     2.27243334E-04    2         -13        13   # BR(A -> mu+     mu-    )
     2.78769115E-04    2           3        -3   # BR(A -> s       sb     )
     1.56541754E-06    2           4        -4   # BR(A -> c       cb     )
     1.56311319E-01    2           6        -6   # BR(A -> t       tb     )
     1.54666640E-04    2          21        21   # BR(A -> g       g      )
     5.93909163E-07    2          22        22   # BR(A -> gam     gam    )
     1.87240397E-07    2          23        22   # BR(A -> Z       gam    )
     7.42461289E-05    2          23        25   # BR(A -> Z       h      )
     3.48669119E-03    2     1000024  -1000024   # BR(A -> ~chi_1+ ~chi_1-)
     6.67297402E-03    2     1000022   1000022   # BR(A -> ~chi_10 ~chi_10)
     2.71096414E-04    2     1000023   1000023   # BR(A -> ~chi_20 ~chi_20)
     4.22366043E-03    2     1000025   1000025   # BR(A -> ~chi_30 ~chi_30)
     1.58355070E-01    2     1000022   1000023   # BR(A -> ~chi_10 ~chi_20)
     2.35219909E-01    2     1000022   1000025   # BR(A -> ~chi_10 ~chi_30)
     2.36298009E-03    2     1000023   1000025   # BR(A -> ~chi_20 ~chi_30)
#
#         PDG            Width
DECAY        37     8.62036320E+00   # H+ decays
#          BR         NDA      ID1       ID2
     5.91553475E-04    2           4        -5   # BR(H+ -> c       bb     )
     6.46421326E-02    2         -15        16   # BR(H+ -> tau+    nu_tau )
     2.28579396E-04    2         -13        14   # BR(H+ -> mu+     nu_mu  )
     3.78592242E-06    2           2        -5   # BR(H+ -> u       bb     )
     1.34122402E-05    2           2        -3   # BR(H+ -> u       sb     )
     2.77366795E-04    2           4        -3   # BR(H+ -> c       sb     )
     5.23626167E-01    2           6        -5   # BR(H+ -> t       bb     )
     7.48020894E-05    2          24        25   # BR(H+ -> W+      h      )
     9.14393858E-13    2          24        36   # BR(H+ -> W+      A      )
     4.06748830E-01    2     1000024   1000022   # BR(H+ -> ~chi_1+ ~chi_10)
     3.46378705E-03    2     1000024   1000023   # BR(H+ -> ~chi_1+ ~chi_20)
     3.29583721E-04    2     1000024   1000025   # BR(H+ -> ~chi_1+ ~chi_30)
