#
#                              ======================
#                              | THE SUSYHIT OUTPUT |
#                              ======================
#
#
#              ------------------------------------------------------
#              |     This is the output of the SUSY-HIT package     |
#              |  created by A.Djouadi, M.Muehlleitner and M.Spira. |
#              |  In case of problems with SUSY-HIT email to        |
#              |           margarete.muehlleitner@kit.edu           |
#              |           michael.spira@psi.ch                     |
#              |           abdelhak.djouadi@cern.ch                 |
#              ------------------------------------------------------
#
#              ------------------------------------------------------
#              |  SUSY Les Houches Accord - MSSM Spectrum + Decays  |
#              |              based on the decay programs           |
#              |                                                    |
#              |                     SDECAY 1.5                     |
#              |                                                    |
#              |  Authors: M.Muhlleitner, A.Djouadi and Y.Mambrini  |
#              |  Ref.:    Comput.Phys.Commun.168(2005)46           |
#              |           [hep-ph/0311167]                         |
#              |                                                    |
#              |                     HDECAY 3.4                     |
#              |                                                    |
#              |  By: A.Djouadi,J.Kalinowski,M.Muhlleitner,M.Spira  |
#              |  Ref.:    Comput.Phys.Commun.108(1998)56           |
#              |           [hep-ph/9704448]                         |
#              |                                                    |
#              |                                                    |
#              |  If not stated otherwise all DRbar couplings and   |
#              |  soft SUSY breaking masses are given at the scale  |
#              |  Q=  0.91187600E+02
#              |                                                    |
#              ------------------------------------------------------
#
#
BLOCK DCINFO  # Decay Program information
     1   SDECAY/HDECAY # decay calculator
     2   1.5  /3.4    # version number
#
BLOCK SPINFO  # Spectrum calculator information
     1   SuSpect     # RGE +Spectrum calculator            
     2   2.43         # version number                     
#
BLOCK MODSEL  # Model selection
     1     2   # GMSB                                              
#
BLOCK SMINPUTS  # Standard Model inputs
         1     1.27932904E+02   # alpha_em^-1(M_Z)^MSbar
         2     1.16639000E-05   # G_F [GeV^-2]
         3     1.17200000E-01   # alpha_S(M_Z)^MSbar
         4     9.11870000E+01   # M_Z pole mass
         5     4.25000000E+00   # mb(mb)^MSbar
         6     1.72900000E+02   # mt pole mass
         7     1.77700000E+00   # mtau pole mass
#
BLOCK MINPAR  # Input parameters - minimal models
#
BLOCK EXTPAR  # Input parameters - non-minimal models
         0     9.11876000E+01   # EWSB                
         1     1.05200000E+03   # M_1                 
         2     3.00000000E+03   # M_2                 
         3     1.60000000E+03   # M_3                 
        11     0.00000000E+00   # A_t                 
        12     0.00000000E+00   # A_b                 
        13     0.00000000E+00   # A_tau               
        14     0.00000000E+00   # A_u                 
        15     0.00000000E+00   # A_d                 
        16     0.00000000E+00   # A_e                 
        23     1.05000000E+03   # mu(EWSB)            
        25     1.50000000E+00   # tanbeta(in)         
        26     2.00000000E+03   # MA_pole             
        31     5.00000000E+03   # M_eL                
        32     5.00000000E+03   # M_muL               
        33     5.00000000E+03   # M_tauL              
        34     5.00000000E+03   # M_eR                
        35     5.00000000E+03   # M_muR               
        36     5.00000000E+03   # M_tauR              
        41     5.00000000E+03   # M_q1L               
        42     5.00000000E+03   # M_q2L               
        43     5.00000000E+03   # M_q3L               
        44     5.00000000E+03   # M_uR                
        45     5.00000000E+03   # M_cR                
        46     5.00000000E+03   # M_tR                
        47     5.00000000E+03   # M_dR                
        48     5.00000000E+03   # M_sR                
        49     5.00000000E+03   # M_bR                
#
BLOCK MASS  # Mass Spectrum
# PDG code           mass       particle
        24     8.05405928E+01   # W+
        25     1.26000000E+02   # h
        35     2.00408642E+03   # H
        36     2.00000000E+03   # A
        37     2.00156120E+03   # H+
         5     4.87877839E+00   # b-quark pole mass calculated from mb(mb)_Msbar
   1000001     4.98044641E+03   # ~d_L
   2000001     4.98033676E+03   # ~d_R
   1000002     4.98020126E+03   # ~u_L
   2000002     4.98025923E+03   # ~u_R
   1000003     4.98044641E+03   # ~s_L
   2000003     4.98033676E+03   # ~s_R
   1000004     4.98020126E+03   # ~c_L
   2000004     4.98025923E+03   # ~c_R
   1000005     4.97995731E+03   # ~b_1
   2000005     4.98082730E+03   # ~b_2
   1000006     5.10402939E+03   # ~t_1
   2000006     5.40062818E+03   # ~t_2
   1000011     5.00008223E+03   # ~e_L
   2000011     5.00007607E+03   # ~e_R
   1000012     4.99984170E+03   # ~nu_eL
   1000013     5.00008223E+03   # ~mu_L
   2000013     5.00007607E+03   # ~mu_R
   1000014     4.99984170E+03   # ~nu_muL
   1000015     4.99979938E+03   # ~tau_1
   2000015     5.00035953E+03   # ~tau_2
   1000016     4.99984170E+03   # ~nu_tauL
   1000021     1.70499336E+03   # ~g
   1000022     1.07293442E+03   # ~chi_10
   1000023    -1.12044711E+03   # ~chi_20
   1000025     1.16009740E+03   # ~chi_30
   1000035     3.12881468E+03   # ~chi_40
   1000024     1.11741901E+03   # ~chi_1+
   1000037     3.12881334E+03   # ~chi_2+
   1000039     1.00000000E-09   # ~gravitino
#
BLOCK NMIX  # Neutralino Mixing Matrix
  1  1     7.13936136E-01   # N_11
  1  2    -2.64081161E-02   # N_12
  1  3     4.96906447E-01   # N_13
  1  4    -4.92627434E-01   # N_14
  2  1     3.90431941E-03   # N_21
  2  2    -3.65604750E-03   # N_22
  2  3    -7.06953461E-01   # N_23
  2  4    -7.07239842E-01   # N_24
  3  1     7.00199418E-01   # N_31
  3  2     2.81623300E-02   # N_32
  3  3    -5.02682856E-01   # N_33
  3  4     5.06199175E-01   # N_34
  4  1     8.51905137E-04   # N_41
  4  2    -9.99247781E-01   # N_42
  4  3    -2.47130178E-02   # N_43
  4  4     2.98732844E-02   # N_44
#
BLOCK UMIX  # Chargino Mixing Matrix U
  1  1    -3.49313133E-02   # U_11
  1  2     9.99389715E-01   # U_12
  2  1     9.99389715E-01   # U_21
  2  2     3.49313133E-02   # U_22
#
BLOCK VMIX  # Chargino Mixing Matrix V
  1  1    -4.22306881E-02   # V_11
  1  2     9.99107887E-01   # V_12
  2  1     9.99107887E-01   # V_21
  2  2     4.22306881E-02   # V_22
#
BLOCK STOPMIX  # Stop Mixing Matrix
  1  1     9.99999994E-01   # cos(theta_t)
  1  2    -1.09544512E-04   # sin(theta_t)
  2  1     1.09544512E-04   # -sin(theta_t)
  2  2     9.99999994E-01   # cos(theta_t)
#
BLOCK SBOTMIX  # Sbottom Mixing Matrix
  1  1     6.61045746E-01   # cos(theta_b)
  1  2     7.50345602E-01   # sin(theta_b)
  2  1    -7.50345602E-01   # -sin(theta_b)
  2  2     6.61045746E-01   # cos(theta_b)
#
BLOCK STAUMIX  # Stau Mixing Matrix
  1  1     7.03207451E-01   # cos(theta_tau)
  1  2     7.10984726E-01   # sin(theta_tau)
  2  1    -7.10984726E-01   # -sin(theta_tau)
  2  2     7.03207451E-01   # cos(theta_tau)
#
BLOCK ALPHA  # Higgs mixing
          -5.90205463E-01   # Mixing angle in the neutral Higgs boson sector
#
BLOCK HMIX Q=  9.11876000E+01  # DRbar Higgs Parameters
         1     1.05000000E+03   # mu(Q)               
         2     1.49999979E+00   # tanbeta(Q)          
         3     2.52098987E+02   # vev(Q)              
         4     3.51184129E+06   # MA^2(Q)             
#
BLOCK GAUGE Q=  9.11876000E+01  # The gauge couplings
     1     3.52814016E-01   # gprime(Q) DRbar
     2     6.27372818E-01   # g(Q) DRbar
     3     1.08402971E+00   # g3(Q) DRbar
#
BLOCK AU Q=  9.11876000E+01  # The trilinear couplings
  1  1     0.00000000E+00   # A_u(Q) DRbar
  2  2     0.00000000E+00   # A_c(Q) DRbar
  3  3     0.00000000E+00   # A_t(Q) DRbar
#
BLOCK AD Q=  9.11876000E+01  # The trilinear couplings
  1  1     0.00000000E+00   # A_d(Q) DRbar
  2  2     0.00000000E+00   # A_s(Q) DRbar
  3  3     0.00000000E+00   # A_b(Q) DRbar
#
BLOCK AE Q=  9.11876000E+01  # The trilinear couplings
  1  1     0.00000000E+00   # A_e(Q) DRbar
  2  2     0.00000000E+00   # A_mu(Q) DRbar
  3  3     0.00000000E+00   # A_tau(Q) DRbar
#
BLOCK Yu Q=  9.11876000E+01  # The Yukawa couplings
  1  1     0.00000000E+00   # y_u(Q) DRbar
  2  2     0.00000000E+00   # y_c(Q) DRbar
  3  3     1.02565703E+00   # y_t(Q) DRbar
#
BLOCK Yd Q=  9.11876000E+01  # The Yukawa couplings
  1  1     0.00000000E+00   # y_d(Q) DRbar
  2  2     0.00000000E+00   # y_s(Q) DRbar
  3  3     2.71862606E-02   # y_b(Q) DRbar
#
BLOCK Ye Q=  9.11876000E+01  # The Yukawa couplings
  1  1     0.00000000E+00   # y_e(Q) DRbar
  2  2     0.00000000E+00   # y_mu(Q) DRbar
  3  3     1.79827734E-02   # y_tau(Q) DRbar
#
BLOCK MSOFT Q=  9.11876000E+01  # The soft SUSY breaking masses at the scale Q
         1     1.05200000E+03   # M_1                 
         2     3.00000000E+03   # M_2                 
         3     1.60000000E+03   # M_3                 
        14     0.00000000E+00   # A_u                 
        15     0.00000000E+00   # A_d                 
        16     0.00000000E+00   # A_e                 
        21     1.81549007E+06   # M^2_Hd              
        22    -6.47958317E+06   # M^2_Hu              
        31     5.00000000E+03   # M_eL                
        32     5.00000000E+03   # M_muL               
        33     5.00000000E+03   # M_tauL              
        34     5.00000000E+03   # M_eR                
        35     5.00000000E+03   # M_muR               
        36     5.00000000E+03   # M_tauR              
        41     5.00000000E+03   # M_q1L               
        42     5.00000000E+03   # M_q2L               
        43     5.00000000E+03   # M_q3L               
        44     5.00000000E+03   # M_uR                
        45     5.00000000E+03   # M_cR                
        46     5.00000000E+03   # M_tR                
        47     5.00000000E+03   # M_dR                
        48     5.00000000E+03   # M_sR                
        49     5.00000000E+03   # M_bR                
#
#
#
#                             =================
#                             |The decay table|
#                             =================
#
# - The QCD corrections to the decays gluino -> squark  + quark
#                                     squark -> gaugino + quark_prime
#                                     squark -> squark_prime + Higgs
#                                     squark -> gluino  + quark
#   are included.
#
# - The multi-body decays for the inos, stops and sbottoms are included.
#
# - The loop induced decays for the gluino, neutralinos and stops
#   are included.
#
# - The SUSY decays of the top quark are included.
#
# - Possible decays of the NLSP in GMSB models are included.
#
#
#         PDG            Width
DECAY         6     1.37136990E+00   # top decays
#          BR         NDA      ID1       ID2
     1.00000000E+00    2           5        24   # BR(t ->  b    W+)
#
#         PDG            Width
DECAY   1000021     6.06893785E-05   # gluino decays
#          BR         NDA      ID1       ID2
     3.08313540E-02    2     1000022        21   # BR(~g -> ~chi_10 g)
     5.27497082E-02    2     1000023        21   # BR(~g -> ~chi_20 g)
     2.24634766E-02    2     1000025        21   # BR(~g -> ~chi_30 g)
#          BR         NDA      ID1       ID2
0.0E+00    2     1000039    21 # BR(~g -> ~G      g)
#           BR         NDA      ID1       ID2       ID3
     7.52560616E-03    3     1000022         1        -1   # BR(~g -> ~chi_10 d  db)
     4.19617451E-07    3     1000023         1        -1   # BR(~g -> ~chi_20 d  db)
     3.28308016E-03    3     1000025         1        -1   # BR(~g -> ~chi_30 d  db)
     2.30548096E-02    3     1000022         2        -2   # BR(~g -> ~chi_10 u  ub)
     3.35832280E-07    3     1000023         2        -2   # BR(~g -> ~chi_20 u  ub)
     1.24276053E-02    3     1000025         2        -2   # BR(~g -> ~chi_30 u  ub)
     7.52560616E-03    3     1000022         3        -3   # BR(~g -> ~chi_10 s  sb)
     4.19617451E-07    3     1000023         3        -3   # BR(~g -> ~chi_20 s  sb)
     3.28308016E-03    3     1000025         3        -3   # BR(~g -> ~chi_30 s  sb)
     2.30548096E-02    3     1000022         4        -4   # BR(~g -> ~chi_10 c  cb)
     3.35832280E-07    3     1000023         4        -4   # BR(~g -> ~chi_20 c  cb)
     1.24276053E-02    3     1000025         4        -4   # BR(~g -> ~chi_30 c  cb)
     7.60635340E-03    3     1000022         5        -5   # BR(~g -> ~chi_10 b  bb)
     2.12667876E-04    3     1000023         5        -5   # BR(~g -> ~chi_20 b  bb)
     3.39206596E-03    3     1000025         5        -5   # BR(~g -> ~chi_30 b  bb)
     6.89643568E-02    3     1000022         6        -6   # BR(~g -> ~chi_10 t  tb)
     6.72013702E-02    3     1000023         6        -6   # BR(~g -> ~chi_20 t  tb)
     4.49806968E-02    3     1000025         6        -6   # BR(~g -> ~chi_30 t  tb)
     1.70061683E-04    3     1000024         1        -2   # BR(~g -> ~chi_1+ d  ub)
     1.70061683E-04    3    -1000024         2        -1   # BR(~g -> ~chi_1- u  db)
     1.70061683E-04    3     1000024         3        -4   # BR(~g -> ~chi_1+ s  cb)
     1.70061683E-04    3    -1000024         4        -3   # BR(~g -> ~chi_1- c  sb)
     1.67502035E-01    3     1000024         5        -6   # BR(~g -> ~chi_1+ b  tb)
     1.67502035E-01    3    -1000024         6        -5   # BR(~g -> ~chi_1- t  bb)
#
#         PDG            Width
DECAY   1000006     3.03070380E+02   # stop1 decays
#          BR         NDA      ID1       ID2
     5.32619270E-02    2     1000022         6   # BR(~t_1 -> ~chi_10 t )
     1.09526691E-01    2     1000023         6   # BR(~t_1 -> ~chi_20 t )
     5.81085429E-02    2     1000025         6   # BR(~t_1 -> ~chi_30 t )
     2.50780256E-02    2     1000035         6   # BR(~t_1 -> ~chi_40 t )
     1.32683264E-05    2     1000024         5   # BR(~t_1 -> ~chi_1+ b )
     4.98498591E-02    2     1000037         5   # BR(~t_1 -> ~chi_2+ b )
     6.90188596E-01    2     1000021         6   # BR(~t_1 -> ~g      t )
     6.23120545E-03    2     1000005        24   # BR(~t_1 -> ~b_1    W+)
     7.74188477E-03    2     2000005        24   # BR(~t_1 -> ~b_2    W+)
#
#         PDG            Width
DECAY   2000006     3.77622472E+02   # stop2 decays
#          BR         NDA      ID1       ID2
     6.09432642E-02    2     1000022         6   # BR(~t_2 -> ~chi_10 t )
     9.45165776E-02    2     1000023         6   # BR(~t_2 -> ~chi_20 t )
     6.11992379E-02    2     1000025         6   # BR(~t_2 -> ~chi_30 t )
     6.44471903E-06    2     1000035         6   # BR(~t_2 -> ~chi_40 t )
     1.89336121E-01    2     1000024         5   # BR(~t_2 -> ~chi_1+ b )
     1.34564552E-05    2     1000037         5   # BR(~t_2 -> ~chi_2+ b )
     5.94052500E-01    2     1000021         6   # BR(~t_2 -> ~g      t )
    -6.75042162E-05    2     1000006        25   # BR(~t_2 -> ~t_1    h )
    -5.54371953E-09    2     1000006        23   # BR(~t_2 -> ~t_1    Z )
    -4.10205275E-08    2     1000005        24   # BR(~t_2 -> ~b_1    W+)
    -5.18348744E-08    2     2000005        24   # BR(~t_2 -> ~b_2    W+)
#
#         PDG            Width
DECAY   1000005     2.38298347E+02   # sbottom1 decays
#          BR         NDA      ID1       ID2
     4.66489589E-03    2     1000022         5   # BR(~b_1 -> ~chi_10 b )
     8.13033218E-05    2     1000023         5   # BR(~b_1 -> ~chi_20 b )
     2.60470172E-03    2     1000025         5   # BR(~b_1 -> ~chi_30 b )
     1.15515217E-02    2     1000035         5   # BR(~b_1 -> ~chi_40 b )
     1.03967414E-01    2    -1000024         6   # BR(~b_1 -> ~chi_1- t )
     2.32428609E-02    2    -1000037         6   # BR(~b_1 -> ~chi_2- t )
     8.53887302E-01    2     1000021         5   # BR(~b_1 -> ~g      b )
#
#         PDG            Width
DECAY   2000005     2.57011355E+02   # sbottom2 decays
#          BR         NDA      ID1       ID2
     2.24687121E-03    2     1000022         5   # BR(~b_2 -> ~chi_10 b )
     1.03674241E-04    2     1000023         5   # BR(~b_2 -> ~chi_20 b )
     2.88741369E-03    2     1000025         5   # BR(~b_2 -> ~chi_30 b )
     1.62196281E-02    2     1000035         5   # BR(~b_2 -> ~chi_40 b )
     1.54533532E-01    2    -1000024         6   # BR(~b_2 -> ~chi_1- t )
     3.26433968E-02    2    -1000037         6   # BR(~b_2 -> ~chi_2- t )
     7.91365484E-01    2     1000021         5   # BR(~b_2 -> ~g      b )
#
#         PDG            Width
DECAY   1000002     2.24857241E+02   # sup_L decays
#          BR         NDA      ID1       ID2
     8.78759884E-04    2     1000022         2   # BR(~u_L -> ~chi_10 u)
     6.45434390E-07    2     1000023         2   # BR(~u_L -> ~chi_20 u)
     1.90369233E-03    2     1000025         2   # BR(~u_L -> ~chi_30 u)
     3.07550004E-02    2     1000035         2   # BR(~u_L -> ~chi_40 u)
     2.69392338E-04    2     1000024         1   # BR(~u_L -> ~chi_1+ d)
     6.15125070E-02    2     1000037         1   # BR(~u_L -> ~chi_2+ d)
     9.04680003E-01    2     1000021         2   # BR(~u_L -> ~g      u)
#
#         PDG            Width
DECAY   2000002     2.12977623E+02   # sup_R decays
#          BR         NDA      ID1       ID2
     2.30403069E-02    2     1000022         2   # BR(~u_R -> ~chi_10 u)
     6.83026038E-07    2     1000023         2   # BR(~u_R -> ~chi_20 u)
     2.18000867E-02    2     1000025         2   # BR(~u_R -> ~chi_30 u)
     1.32739266E-08    2     1000035         2   # BR(~u_R -> ~chi_40 u)
     9.55158910E-01    2     1000021         2   # BR(~u_R -> ~g      u)
#
#         PDG            Width
DECAY   1000001     2.24862577E+02   # sdown_L decays
#          BR         NDA      ID1       ID2
     1.95536484E-03    2     1000022         1   # BR(~d_L -> ~chi_10 d)
     1.45340238E-06    2     1000023         1   # BR(~d_L -> ~chi_20 d)
     7.96162388E-04    2     1000025         1   # BR(~d_L -> ~chi_30 d)
     3.07793684E-02    2     1000035         1   # BR(~d_L -> ~chi_40 d)
     1.84320856E-04    2    -1000024         2   # BR(~d_L -> ~chi_1- u)
     6.15566171E-02    2    -1000037         2   # BR(~d_L -> ~chi_2- u)
     9.04726713E-01    2     1000021         1   # BR(~d_L -> ~g      d)
#
#         PDG            Width
DECAY   2000001     2.05819905E+02   # sdown_R decays
#          BR         NDA      ID1       ID2
     5.96050405E-03    2     1000022         1   # BR(~d_R -> ~chi_10 d)
     1.76698194E-07    2     1000023         1   # BR(~d_R -> ~chi_20 d)
     5.63966337E-03    2     1000025         1   # BR(~d_R -> ~chi_30 d)
     3.43407886E-09    2     1000035         1   # BR(~d_R -> ~chi_40 d)
     9.88399652E-01    2     1000021         1   # BR(~d_R -> ~g      d)
#
#         PDG            Width
DECAY   1000004     2.24857241E+02   # scharm_L decays
#          BR         NDA      ID1       ID2
     8.78759884E-04    2     1000022         4   # BR(~c_L -> ~chi_10 c)
     6.45434390E-07    2     1000023         4   # BR(~c_L -> ~chi_20 c)
     1.90369233E-03    2     1000025         4   # BR(~c_L -> ~chi_30 c)
     3.07550004E-02    2     1000035         4   # BR(~c_L -> ~chi_40 c)
     2.69392338E-04    2     1000024         3   # BR(~c_L -> ~chi_1+ s)
     6.15125070E-02    2     1000037         3   # BR(~c_L -> ~chi_2+ s)
     9.04680003E-01    2     1000021         4   # BR(~c_L -> ~g      c)
#
#         PDG            Width
DECAY   2000004     2.12977623E+02   # scharm_R decays
#          BR         NDA      ID1       ID2
     2.30403069E-02    2     1000022         4   # BR(~c_R -> ~chi_10 c)
     6.83026038E-07    2     1000023         4   # BR(~c_R -> ~chi_20 c)
     2.18000867E-02    2     1000025         4   # BR(~c_R -> ~chi_30 c)
     1.32739266E-08    2     1000035         4   # BR(~c_R -> ~chi_40 c)
     9.55158910E-01    2     1000021         4   # BR(~c_R -> ~g      c)
#
#         PDG            Width
DECAY   1000003     2.24862577E+02   # sstrange_L decays
#          BR         NDA      ID1       ID2
     1.95536484E-03    2     1000022         3   # BR(~s_L -> ~chi_10 s)
     1.45340238E-06    2     1000023         3   # BR(~s_L -> ~chi_20 s)
     7.96162388E-04    2     1000025         3   # BR(~s_L -> ~chi_30 s)
     3.07793684E-02    2     1000035         3   # BR(~s_L -> ~chi_40 s)
     1.84320856E-04    2    -1000024         4   # BR(~s_L -> ~chi_1- c)
     6.15566171E-02    2    -1000037         4   # BR(~s_L -> ~chi_2- c)
     9.04726713E-01    2     1000021         3   # BR(~s_L -> ~g      s)
#
#         PDG            Width
DECAY   2000003     2.05819905E+02   # sstrange_R decays
#          BR         NDA      ID1       ID2
     5.96050405E-03    2     1000022         3   # BR(~s_R -> ~chi_10 s)
     1.76698194E-07    2     1000023         3   # BR(~s_R -> ~chi_20 s)
     5.63966337E-03    2     1000025         3   # BR(~s_R -> ~chi_30 s)
     3.43407886E-09    2     1000035         3   # BR(~s_R -> ~chi_40 s)
     9.88399652E-01    2     1000021         3   # BR(~s_R -> ~g      s)
#
#         PDG            Width
DECAY   1000011     2.73748378E+01   # selectron_L decays
#          BR         NDA      ID1       ID2
     9.15575924E-02    2     1000022        11   # BR(~e_L -> ~chi_10 e-)
     1.37582549E-06    2     1000023        11   # BR(~e_L -> ~chi_20 e-)
     1.13972095E-01    2     1000025        11   # BR(~e_L -> ~chi_30 e-)
     2.64078717E-01    2     1000035        11   # BR(~e_L -> ~chi_40 e-)
     1.57520090E-03    2    -1000024        12   # BR(~e_L -> ~chi_1- nu_e)
     5.28815019E-01    2    -1000037        12   # BR(~e_L -> ~chi_2- nu_e)
#
#         PDG            Width
DECAY   2000011     2.23567069E+01   # selectron_R decays
#          BR         NDA      ID1       ID2
     5.13799947E-01    2     1000022        11   # BR(~e_R -> ~chi_10 e-)
     1.52321879E-05    2     1000023        11   # BR(~e_R -> ~chi_20 e-)
     4.86184523E-01    2     1000025        11   # BR(~e_R -> ~chi_30 e-)
     2.97596687E-07    2     1000035        11   # BR(~e_R -> ~chi_40 e-)
#
#         PDG            Width
DECAY   1000013     2.73748378E+01   # smuon_L decays
#          BR         NDA      ID1       ID2
     9.15575924E-02    2     1000022        13   # BR(~mu_L -> ~chi_10 mu-)
     1.37582549E-06    2     1000023        13   # BR(~mu_L -> ~chi_20 mu-)
     1.13972095E-01    2     1000025        13   # BR(~mu_L -> ~chi_30 mu-)
     2.64078717E-01    2     1000035        13   # BR(~mu_L -> ~chi_40 mu-)
     1.57520090E-03    2    -1000024        14   # BR(~mu_L -> ~chi_1- nu_mu)
     5.28815019E-01    2    -1000037        14   # BR(~mu_L -> ~chi_2- nu_mu)
#
#         PDG            Width
DECAY   2000013     2.23567069E+01   # smuon_R decays
#          BR         NDA      ID1       ID2
     5.13799947E-01    2     1000022        13   # BR(~mu_R -> ~chi_10 mu-)
     1.52321879E-05    2     1000023        13   # BR(~mu_R -> ~chi_20 mu-)
     4.86184523E-01    2     1000025        13   # BR(~mu_R -> ~chi_30 mu-)
     2.97596687E-07    2     1000035        13   # BR(~mu_R -> ~chi_40 mu-)
#
#         PDG            Width
DECAY   1000015     2.49178225E+01   # stau_1 decays
#          BR         NDA      ID1       ID2
     2.89235985E-01    2     1000022        15   # BR(~tau_1 -> ~chi_10  tau-)
     4.70888994E-04    2     1000023        15   # BR(~tau_1 -> ~chi_20  tau-)
     2.77497292E-01    2     1000025        15   # BR(~tau_1 -> ~chi_30  tau-)
     1.43143757E-01    2     1000035        15   # BR(~tau_1 -> ~chi_40  tau-)
     2.86291458E-03    2    -1000024        16   # BR(~tau_1 -> ~chi_1-  nu_tau)
     2.86644804E-01    2    -1000037        16   # BR(~tau_1 -> ~chi_2-  nu_tau)
     1.44357453E-04    2     1000039        15   # BR(~tau_1 -> ~G       tau-)
#
#         PDG            Width
DECAY   2000015     2.49043655E+01   # stau_2 decays
#          BR         NDA      ID1       ID2
     2.73064654E-01    2     1000022        15   # BR(~tau_2 -> ~chi_10  tau-)
     7.08701550E-04    2     1000023        15   # BR(~tau_2 -> ~chi_20  tau-)
     2.84666505E-01    2     1000025        15   # BR(~tau_2 -> ~chi_30  tau-)
     1.47055049E-01    2     1000035        15   # BR(~tau_2 -> ~chi_40  tau-)
     3.12340268E-05    2    -1000024        16   # BR(~tau_2 -> ~chi_1-  nu_tau)
     2.94473857E-01    2    -1000037        16   # BR(~tau_2 -> ~chi_2-  nu_tau)
#
#         PDG            Width
DECAY   1000012     2.73751205E+01   # snu_eL decays
#          BR         NDA      ID1       ID2
     1.19149511E-01    2     1000022        12   # BR(~nu_eL -> ~chi_10 nu_e)
     2.20883865E-05    2     1000023        12   # BR(~nu_eL -> ~chi_20 nu_e)
     8.55683529E-02    2     1000025        12   # BR(~nu_eL -> ~chi_30 nu_e)
     2.64537422E-01    2     1000035        12   # BR(~nu_eL -> ~chi_40 nu_e)
     2.30214496E-03    2     1000024        11   # BR(~nu_eL -> ~chi_1+ e-)
     5.28420480E-01    2     1000037        11   # BR(~nu_eL -> ~chi_2+ e-)
#
#         PDG            Width
DECAY   1000014     2.73751205E+01   # snu_muL decays
#          BR         NDA      ID1       ID2
     1.19149511E-01    2     1000022        14   # BR(~nu_muL -> ~chi_10 nu_mu)
     2.20883865E-05    2     1000023        14   # BR(~nu_muL -> ~chi_20 nu_mu)
     8.55683529E-02    2     1000025        14   # BR(~nu_muL -> ~chi_30 nu_mu)
     2.64537422E-01    2     1000035        14   # BR(~nu_muL -> ~chi_40 nu_mu)
     2.30214496E-03    2     1000024        13   # BR(~nu_muL -> ~chi_1+ mu-)
     5.28420480E-01    2     1000037        13   # BR(~nu_muL -> ~chi_2+ mu-)
#
#         PDG            Width
DECAY   1000016     2.74041297E+01   # snu_tauL decays
#          BR         NDA      ID1       ID2
     1.19023383E-01    2     1000022        16   # BR(~nu_tauL -> ~chi_10 nu_tau)
     2.20650043E-05    2     1000023        16   # BR(~nu_tauL -> ~chi_20 nu_tau)
     8.54777726E-02    2     1000025        16   # BR(~nu_tauL -> ~chi_30 nu_tau)
     2.64257390E-01    2     1000035        16   # BR(~nu_tauL -> ~chi_40 nu_tau)
     3.35733739E-03    2     1000024        15   # BR(~nu_tauL -> ~chi_1+ tau-)
     5.27862052E-01    2     1000037        15   # BR(~nu_tauL -> ~chi_2+ tau-)
#
#         PDG            Width
DECAY   1000024     1.10442479E-04   # chargino1+ decays
#          BR         NDA      ID1       ID2
     8.91215884E-03    2     1000039        24   # BR(~chi_1+ -> ~G       W+)
#           BR         NDA      ID1       ID2       ID3
     3.30651576E-01    3     1000022         2        -1   # BR(~chi_1+ -> ~chi_10 u    db)
     3.30651576E-01    3     1000022         4        -3   # BR(~chi_1+ -> ~chi_10 c    sb)
     1.10217321E-01    3     1000022       -11        12   # BR(~chi_1+ -> ~chi_10 e+   nu_e)
     1.10217321E-01    3     1000022       -13        14   # BR(~chi_1+ -> ~chi_10 mu+  nu_mu)
     1.09350046E-01    3     1000022       -15        16   # BR(~chi_1+ -> ~chi_10 tau+ nu_tau)
#
#         PDG            Width
DECAY   1000037     3.73838648E+01   # chargino2+ decays
#          BR         NDA      ID1       ID2
     2.52226624E-01    2     1000024        23   # BR(~chi_2+ -> ~chi_1+  Z )
     1.13831102E-01    2     1000022        24   # BR(~chi_2+ -> ~chi_10  W+)
     2.45570110E-01    2     1000023        24   # BR(~chi_2+ -> ~chi_20  W+)
     1.32044766E-01    2     1000025        24   # BR(~chi_2+ -> ~chi_30  W+)
     2.53242190E-01    2     1000024        25   # BR(~chi_2+ -> ~chi_1+  h )
     6.05504304E-04    2     1000024        35   # BR(~chi_2+ -> ~chi_1+  H )
     7.98563770E-04    2     1000024        36   # BR(~chi_2+ -> ~chi_1+  A )
     1.07371987E-03    2     1000022        37   # BR(~chi_2+ -> ~chi_10  H+)
     5.98216329E-04    2     1000023        37   # BR(~chi_2+ -> ~chi_20  H+)
     9.20415020E-06    2     1000039        24   # BR(~chi_2+ -> ~G       W+)
     7.83640099E-10    2     1000039        37   # BR(~chi_2+ -> ~G       H+)
#
#         PDG            Width
DECAY   1000022    1.0E-05    # neutralino1 decays
#          BR         NDA      ID1       ID2
     4.99712677E-01    2     1000039        22   # BR(~chi_10 -> ~G        gam)
     4.89070382E-01    2     1000039        23   # BR(~chi_10 -> ~G        Z)
     1.12169403E-02    2     1000039        25   # BR(~chi_10 -> ~G        h)
#
#         PDG            Width
DECAY   1000023     1.24202316E-04   # neutralino2 decays
#          BR         NDA      ID1       ID2
     1.23977701E-03    2     1000022        22   # BR(~chi_20 -> ~chi_10 gam)
#          BR         NDA      ID1       ID2
     4.24822150E-08    2     1000039        22   # BR(~chi_20 -> ~G        gam)
     3.07551647E-04    2     1000039        23   # BR(~chi_20 -> ~G        Z)
     7.48590468E-03    2     1000039        25   # BR(~chi_20 -> ~G        h)
#           BR         NDA      ID1       ID2       ID3
     1.17669812E-01    3     1000022        -2         2   # BR(~chi_20 -> ~chi_10 ub      u)
     1.52356117E-01    3     1000022        -1         1   # BR(~chi_20 -> ~chi_10 db      d)
     1.17669812E-01    3     1000022        -4         4   # BR(~chi_20 -> ~chi_10 cb      c)
     1.52356117E-01    3     1000022        -3         3   # BR(~chi_20 -> ~chi_10 sb      s)
     1.38457337E-01    3     1000022        -5         5   # BR(~chi_20 -> ~chi_10 bb      b)
     3.47916179E-02    3     1000022       -11        11   # BR(~chi_20 -> ~chi_10 e+      e-)
     3.47916179E-02    3     1000022       -13        13   # BR(~chi_20 -> ~chi_10 mu+     mu-)
     3.44354219E-02    3     1000022       -15        15   # BR(~chi_20 -> ~chi_10 tau+    tau-)
     6.94782492E-02    3     1000022       -12        12   # BR(~chi_20 -> ~chi_10 nu_eb   nu_e)
     6.94782492E-02    3     1000022       -14        14   # BR(~chi_20 -> ~chi_10 nu_mub  nu_mu)
     6.94782492E-02    3     1000022       -16        16   # BR(~chi_20 -> ~chi_10 nu_taub nu_tau)
     7.57029837E-07    3     1000024        -2         1   # BR(~chi_20 -> ~chi_1+ ub      d)
     7.57029837E-07    3    -1000024        -1         2   # BR(~chi_20 -> ~chi_1- db      u)
     7.57029837E-07    3     1000024        -4         3   # BR(~chi_20 -> ~chi_1+ cb      s)
     7.57029837E-07    3    -1000024        -3         4   # BR(~chi_20 -> ~chi_1- sb      c)
     2.52343294E-07    3     1000024       -12        11   # BR(~chi_20 -> ~chi_1+ nu_eb   e-)
     2.52343294E-07    3    -1000024        12       -11   # BR(~chi_20 -> ~chi_1- nu_e    e+)
     2.52343294E-07    3     1000024       -14        13   # BR(~chi_20 -> ~chi_1+ nu_mub  mu-)
     2.52343294E-07    3    -1000024        14       -13   # BR(~chi_20 -> ~chi_1- nu_mu   mu+)
     4.35176849E-08    3     1000024       -16        15   # BR(~chi_20 -> ~chi_1+ nu_taub tau-)
     4.35176849E-08    3    -1000024        16       -15   # BR(~chi_20 -> ~chi_1- nu_tau  tau+)
#
#         PDG            Width
DECAY   1000025     2.33659974E-04   # neutralino3 decays
#          BR         NDA      ID1       ID2
     3.59296640E-04    2     1000022        22   # BR(~chi_30 -> ~chi_10 gam)
     7.91679720E-06    2     1000023        22   # BR(~chi_30 -> ~chi_20 gam)
#          BR         NDA      ID1       ID2
     4.03278018E-03    2     1000039        22   # BR(~chi_30 -> ~G        gam)
     3.50021905E-03    2     1000039        23   # BR(~chi_30 -> ~G        Z)
     9.78732346E-05    2     1000039        25   # BR(~chi_30 -> ~G        h)
#           BR         NDA      ID1       ID2       ID3
     9.39002065E-06    3     1000022        -2         2   # BR(~chi_30 -> ~chi_10 ub      u)
     1.11579382E-05    3     1000022        -1         1   # BR(~chi_30 -> ~chi_10 db      d)
     9.39002065E-06    3     1000022        -4         4   # BR(~chi_30 -> ~chi_10 cb      c)
     1.11579382E-05    3     1000022        -3         3   # BR(~chi_30 -> ~chi_10 sb      s)
     1.74261919E-05    3     1000022        -5         5   # BR(~chi_30 -> ~chi_10 bb      b)
     1.94359486E-06    3     1000022       -11        11   # BR(~chi_30 -> ~chi_10 e+      e-)
     1.94359486E-06    3     1000022       -13        13   # BR(~chi_30 -> ~chi_10 mu+     mu-)
     2.91459598E-06    3     1000022       -15        15   # BR(~chi_30 -> ~chi_10 tau+    tau-)
     5.46407241E-06    3     1000022       -12        12   # BR(~chi_30 -> ~chi_10 nu_eb   nu_e)
     5.46407241E-06    3     1000022       -14        14   # BR(~chi_30 -> ~chi_10 nu_mub  nu_mu)
     5.46407241E-06    3     1000022       -16        16   # BR(~chi_30 -> ~chi_10 nu_taub nu_tau)
     2.51603539E-02    3     1000023        -2         2   # BR(~chi_30 -> ~chi_20 ub      u)
     3.25770903E-02    3     1000023        -1         1   # BR(~chi_30 -> ~chi_20 db      d)
     2.51603539E-02    3     1000023        -4         4   # BR(~chi_30 -> ~chi_20 cb      c)
     3.25770903E-02    3     1000023        -3         3   # BR(~chi_30 -> ~chi_20 sb      s)
     2.84620066E-02    3     1000023        -5         5   # BR(~chi_30 -> ~chi_20 bb      b)
     7.43923420E-03    3     1000023       -11        11   # BR(~chi_30 -> ~chi_20 e+      e-)
     7.43923420E-03    3     1000023       -13        13   # BR(~chi_30 -> ~chi_20 mu+     mu-)
     7.33955197E-03    3     1000023       -15        15   # BR(~chi_30 -> ~chi_20 tau+    tau-)
     1.48559147E-02    3     1000023       -12        12   # BR(~chi_30 -> ~chi_20 nu_eb   nu_e)
     1.48559147E-02    3     1000023       -14        14   # BR(~chi_30 -> ~chi_20 nu_mub  nu_mu)
     1.48559147E-02    3     1000023       -16        16   # BR(~chi_30 -> ~chi_20 nu_taub nu_tau)
     1.30323578E-01    3     1000024        -2         1   # BR(~chi_30 -> ~chi_1+ ub      d)
     1.30323578E-01    3    -1000024        -1         2   # BR(~chi_30 -> ~chi_1- db      u)
     1.30323578E-01    3     1000024        -4         3   # BR(~chi_30 -> ~chi_1+ cb      s)
     1.30323578E-01    3    -1000024        -3         4   # BR(~chi_30 -> ~chi_1- sb      c)
     4.34411271E-02    3     1000024       -12        11   # BR(~chi_30 -> ~chi_1+ nu_eb   e-)
     4.34411271E-02    3    -1000024        12       -11   # BR(~chi_30 -> ~chi_1- nu_e    e+)
     4.34411271E-02    3     1000024       -14        13   # BR(~chi_30 -> ~chi_1+ nu_mub  mu-)
     4.34411271E-02    3    -1000024        14       -13   # BR(~chi_30 -> ~chi_1- nu_mu   mu+)
     4.30693590E-02    3     1000024       -16        15   # BR(~chi_30 -> ~chi_1+ nu_taub tau-)
     4.30693590E-02    3    -1000024        16       -15   # BR(~chi_30 -> ~chi_1- nu_tau  tau+)
#
#         PDG            Width
DECAY   1000035     3.73873813E+01   # neutralino4 decays
#          BR         NDA      ID1       ID2
     1.03766917E-03    2     1000022        23   # BR(~chi_40 -> ~chi_10   Z )
     2.49974046E-01    2     1000023        23   # BR(~chi_40 -> ~chi_20   Z )
     1.18968118E-03    2     1000025        23   # BR(~chi_40 -> ~chi_30   Z )
     2.45544464E-01    2     1000024       -24   # BR(~chi_40 -> ~chi_1+   W-)
     2.45544464E-01    2    -1000024        24   # BR(~chi_40 -> ~chi_1-   W+)
     1.16351198E-01    2     1000022        25   # BR(~chi_40 -> ~chi_10   h )
     7.40712518E-04    2     1000022        35   # BR(~chi_40 -> ~chi_10   H )
     3.06535947E-04    2     1000022        36   # BR(~chi_40 -> ~chi_10   A )
     2.19770445E-03    2     1000023        25   # BR(~chi_40 -> ~chi_20   h )
     1.38698923E-05    2     1000023        35   # BR(~chi_40 -> ~chi_20   H )
     6.34306780E-04    2     1000023        36   # BR(~chi_40 -> ~chi_20   A )
     1.34991025E-01    2     1000025        25   # BR(~chi_40 -> ~chi_30   h )
     7.32560108E-04    2     1000024       -37   # BR(~chi_40 -> ~chi_1+   H-)
     7.32560108E-04    2    -1000024        37   # BR(~chi_40 -> ~chi_1-   H+)
     2.20843548E-06    2     1000039        22   # BR(~chi_40 -> ~G        gam)
     6.99403022E-06    2     1000039        23   # BR(~chi_40 -> ~G        Z)
     5.61672432E-10    2     1000039        25   # BR(~chi_40 -> ~G        h)
     7.70950526E-10    2     1000039        35   # BR(~chi_40 -> ~G        H)
     8.99858284E-12    2     1000039        36   # BR(~chi_40 -> ~G        A)
#
#         PDG            Width
DECAY        25     4.21888176E-03   # h decays
#          BR         NDA      ID1       ID2
     6.01911475E-01    2           5        -5   # BR(h -> b       bb     )
     6.22316951E-02    2         -15        15   # BR(h -> tau+    tau-   )
     2.20273070E-04    2         -13        13   # BR(h -> mu+     mu-    )
     4.66055143E-04    2           3        -3   # BR(h -> s       sb     )
     2.01062554E-02    2           4        -4   # BR(h -> c       cb     )
     6.64000124E-02    2          21        21   # BR(h -> g       g      )
     2.30752159E-03    2          22        22   # BR(h -> gam     gam    )
     1.62640694E-03    2          22        23   # BR(h -> Z       gam    )
     2.16652836E-01    2          24       -24   # BR(h -> W+      W-     )
     2.80774695E-02    2          23        23   # BR(h -> Z       Z      )
#
#         PDG            Width
DECAY        35     3.78119512E+01   # H decays
#          BR         NDA      ID1       ID2
     1.47125198E-03    2           5        -5   # BR(H -> b       bb     )
     2.46423936E-04    2         -15        15   # BR(H -> tau+    tau-   )
     8.71200357E-07    2         -13        13   # BR(H -> mu+     mu-    )
     1.11544876E-06    2           3        -3   # BR(H -> s       sb     )
     1.00667626E-05    2           4        -4   # BR(H -> c       cb     )
     9.96061701E-01    2           6        -6   # BR(H -> t       tb     )
     7.97740999E-04    2          21        21   # BR(H -> g       g      )
     2.70805550E-06    2          22        22   # BR(H -> gam     gam    )
     1.15984159E-06    2          23        22   # BR(H -> Z       gam    )
     3.35697460E-04    2          24       -24   # BR(H -> W+      W-     )
     1.67390931E-04    2          23        23   # BR(H -> Z       Z      )
     9.03872084E-04    2          25        25   # BR(H -> h       h      )
     8.14142239E-24    2          36        36   # BR(H -> A       A      )
     3.25172714E-11    2          23        36   # BR(H -> Z       A      )
     7.13964984E-12    2          24       -37   # BR(H -> W+      H-     )
     7.13964984E-12    2         -24        37   # BR(H -> W-      H+     )
#
#         PDG            Width
DECAY        36     3.82382799E+01   # A decays
#          BR         NDA      ID1       ID2
     1.47417577E-03    2           5        -5   # BR(A -> b       bb     )
     2.43897383E-04    2         -15        15   # BR(A -> tau+    tau-   )
     8.62265354E-07    2         -13        13   # BR(A -> mu+     mu-    )
     1.13677238E-06    2           3        -3   # BR(A -> s       sb     )
     9.96175103E-06    2           4        -4   # BR(A -> c       cb     )
     9.96994611E-01    2           6        -6   # BR(A -> t       tb     )
     9.43674340E-04    2          21        21   # BR(A -> g       g      )
     3.21131924E-06    2          22        22   # BR(A -> gam     gam    )
     1.35242937E-06    2          23        22   # BR(A -> Z       gam    )
     3.27116722E-04    2          23        25   # BR(A -> Z       h      )
#
#         PDG            Width
DECAY        37     3.74481838E+01   # H+ decays
#          BR         NDA      ID1       ID2
     2.36467643E-06    2           4        -5   # BR(H+ -> c       bb     )
     2.49237627E-04    2         -15        16   # BR(H+ -> tau+    nu_tau )
     8.81145044E-07    2         -13        14   # BR(H+ -> mu+     nu_mu  )
     1.50340432E-08    2           2        -5   # BR(H+ -> u       bb     )
     5.45692473E-08    2           2        -3   # BR(H+ -> u       sb     )
     1.08731293E-05    2           4        -3   # BR(H+ -> c       sb     )
     9.99401298E-01    2           6        -5   # BR(H+ -> t       bb     )
     3.35275824E-04    2          24        25   # BR(H+ -> W+      h      )
     3.25691014E-13    2          24        36   # BR(H+ -> W+      A      )
