#
#                              ======================
#                              | THE SUSYHIT OUTPUT |
#                              ======================
#
#
#              ------------------------------------------------------
#              |     This is the output of the SUSY-HIT package     |
#              |  created by A.Djouadi, M.Muehlleitner and M.Spira. |
#              |  In case of problems with SUSY-HIT email to        |
#              |           margarete.muehlleitner@cern.ch           |
#              |           michael.spira@psi.ch                     |
#              |           abdelhak.djouadi@cern.ch                 |
#              ------------------------------------------------------
#
#              ------------------------------------------------------
#              |  SUSY Les Houches Accord - MSSM Spectrum + Decays  |
#              |              based on the decay programs           |
#              |                                                    |
#              |                     SDECAY 1.3b                    |
#              |                                                    |
#              |  Authors: M.Muhlleitner, A.Djouadi and Y.Mambrini  |
#              |  Ref.:    Comput.Phys.Commun.168(2005)46           |
#              |           [hep-ph/0311167]                         |
#              |                                                    |
#              |                     HDECAY 3.4                     |
#              |                                                    |
#              |  By: A.Djouadi,J.Kalinowski,M.Muhlleitner,M.Spira  |
#              |  Ref.:    Comput.Phys.Commun.108(1998)56           |
#              |           [hep-ph/9704448]                         |
#              |                                                    |
#              |                                                    |
#              |  If not stated otherwise all DRbar couplings and   |
#              |  soft SUSY breaking masses are given at the scale  |
#              |  Q=  0.50007516E+04
#              |                                                    |
#              ------------------------------------------------------
#
#
BLOCK DCINFO  # Decay Program information
     1   SDECAY/HDECAY # decay calculator
     2   1.3b  /3.4    # version number
#
BLOCK SPINFO  # Spectrum calculator information
     1    SOFTSUSY    # spectrum calculator                
     2    3.4.0       # version number                     
#
BLOCK MODSEL  # Model selection
     1     0   #  nonUniversal                                     
#
BLOCK SMINPUTS  # Standard Model inputs
         1     1.25778332E+02   # alpha_em^-1(M_Z)^MSbar
         2     1.16570000E-05   # G_F [GeV^-2]
         3     1.17200002E-01   # alpha_S(M_Z)^MSbar
         4     9.11876000E+01   # M_Z pole mass
         5     4.25000000E+00   # mb(mb)^MSbar
         6     1.72500000E+02   # mt pole mass
         7     1.77682000E+00   # mtau pole mass
#
BLOCK MINPAR  # Input parameters - minimal models
         3     1.00000000E+01   # tanb                
#
BLOCK EXTPAR  # Input parameters - non-minimal models
         0    -1.00000000E+00   # Set                 
         1     6.00000000E+01   # M_1(MX)             
         2     3.00000000E+03   # M_2(MX)             
         3     2.42817900E+03   # M_3(MX)             
        11     5.00000000E+03   # At(MX)              
        12     5.00000000E+03   # Ab(MX)              
        13     0.00000000E+00   # Atau(MX)            
        23    -7.64793000E+02   # mu(MX)              
        26     3.00000000E+03   # mA(pole)            
        31     5.00000000E+03   # meL(MX)             
        32     5.00000000E+03   # mmuL(MX)            
        33     5.00000000E+03   # mtauL(MX)           
        34     5.00000000E+03   # meR(MX)             
        35     5.00000000E+03   # mmuR(MX)            
        36     5.00000000E+03   # mtauR(MX)           
        41     5.00000000E+03   # mqL1(MX)            
        42     5.00000000E+03   # mqL2(MX)            
        43     5.00000000E+03   # mqL3(MX)            
        44     5.00000000E+03   # muR(MX)             
        45     5.00000000E+03   # mcR(MX)             
        46     5.00000000E+03   # mtR(MX)             
        47     5.00000000E+03   # mdR(MX)             
        48     5.00000000E+03   # msR(MX)             
        49     5.00000000E+03   # mbR(MX)             
#
BLOCK MASS  # Mass Spectrum
# PDG code           mass       particle
        24     8.00948145E+01   # W+
        25     1.24814685E+02   # h
        35     3.00008300E+03   # H
        36     2.99999764E+03   # A
        37     3.00136073E+03   # H+
         5     4.87878001E+00   # b-quark pole mass calculated from mb(mb)_Msbar
   1000001     5.08629291E+03   # ~d_L
   2000001     5.06853268E+03   # ~d_R
   1000002     5.08582344E+03   # ~u_L
   2000002     5.06824326E+03   # ~u_R
   1000003     5.08629291E+03   # ~s_L
   2000003     5.06853268E+03   # ~s_R
   1000004     5.08582344E+03   # ~c_L
   2000004     5.06824326E+03   # ~c_R
   1000005     5.03201399E+03   # ~b_1
   2000005     5.06689698E+03   # ~b_2
   1000006     4.92440225E+03   # ~t_1
   2000006     5.07520309E+03   # ~t_2
   1000011     5.01907955E+03   # ~e_L
   2000011     5.00593104E+03   # ~e_R
   1000012     5.01813062E+03   # ~nu_eL
   1000013     5.01907955E+03   # ~mu_L
   2000013     5.00593104E+03   # ~mu_R
   1000014     5.01813062E+03   # ~nu_muL
   1000015     5.00468693E+03   # ~tau_1
   2000015     5.01869530E+03   # ~tau_2
   1000016     5.01758227E+03   # ~nu_tauL
   1000021     2.80000017E+03   # ~g
   1000022     6.02875578E+01   # ~chi_10
   1000023     7.99842858E+02   # ~chi_20
   1000025    -8.02073021E+02   # ~chi_30
   1000035     3.07420277E+03   # ~chi_40
   1000024     8.00000769E+02   # ~chi_1+
   1000037     3.07437026E+03   # ~chi_2+
#
BLOCK NMIX  # Neutralino Mixing Matrix
  1  1     9.98451995E-01   # N_11
  1  2     2.07831102E-04   # N_12
  1  3    -5.55969114E-02   # N_13
  1  4     1.59790369E-03   # N_14
  2  1     3.81986086E-02   # N_21
  2  2     2.14524238E-02   # N_22
  2  3     7.06384709E-01   # N_23
  2  4     7.06471020E-01   # N_24
  3  1    -4.04267855E-02   # N_31
  3  2     1.56877964E-02   # N_32
  3  3    -7.05629528E-01   # N_33
  3  4     7.07252810E-01   # N_34
  4  1    -3.92893724E-04   # N_41
  4  2     9.99646759E-01   # N_42
  4  3    -4.07377602E-03   # N_43
  4  4    -2.62603621E-02   # N_44
#
BLOCK UMIX  # Chargino Mixing Matrix U
  1  1     5.77197489E-03   # U_11
  1  2     9.99983342E-01   # U_12
  2  1    -9.99983342E-01   # U_21
  2  2     5.77197489E-03   # U_22
#
BLOCK VMIX  # Chargino Mixing Matrix V
  1  1     3.71659994E-02   # V_11
  1  2    -9.99309106E-01   # V_12
  2  1    -9.99309106E-01   # V_21
  2  2    -3.71659994E-02   # V_22
#
BLOCK STOPMIX  # Stop Mixing Matrix
  1  1    -5.02339509E-01   # cos(theta_t)
  1  2     8.64670468E-01   # sin(theta_t)
  2  1    -8.64670468E-01   # -sin(theta_t)
  2  2    -5.02339509E-01   # cos(theta_t)
#
BLOCK SBOTMIX  # Sbottom Mixing Matrix
  1  1     9.97883739E-01   # cos(theta_b)
  1  2    -6.50234069E-02   # sin(theta_b)
  2  1     6.50234069E-02   # -sin(theta_b)
  2  2     9.97883739E-01   # cos(theta_b)
#
BLOCK STAUMIX  # Stau Mixing Matrix
  1  1    -9.13680719E-02   # cos(theta_tau)
  1  2     9.95817190E-01   # sin(theta_tau)
  2  1    -9.95817190E-01   # -sin(theta_tau)
  2  2    -9.13680719E-02   # cos(theta_tau)
#
BLOCK ALPHA  # Higgs mixing
          -1.05486971E-01   # Mixing angle in the neutral Higgs boson sector
#
BLOCK HMIX Q=  5.00075164E+03  # DRbar Higgs Parameters
         1    -7.78865008E+02   # mu(Q)MSSM           
         2     9.46885936E+00   # tan                 
         3     2.41816762E+02   # higgs               
         4     8.57868568E+06   # mA^2(Q)MSSM         
#
BLOCK GAUGE Q=  5.00075164E+03  # The gauge couplings
     1     3.70832645E-01   # gprime(Q) DRbar
     2     6.32751767E-01   # g(Q) DRbar
     3     9.93520923E-01   # g3(Q) DRbar
#
BLOCK AU Q=  5.00075164E+03  # The trilinear couplings
  1  1     5.00000002E+03   # A_u(Q) DRbar
  2  2     5.00000002E+03   # A_c(Q) DRbar
  3  3     5.00000003E+03   # A_t(Q) DRbar
#
BLOCK AD Q=  5.00075164E+03  # The trilinear couplings
  1  1     5.00000001E+03   # A_d(Q) DRbar
  2  2     5.00000001E+03   # A_s(Q) DRbar
  3  3     5.00000001E+03   # A_b(Q) DRbar
#
BLOCK AE Q=  5.00075164E+03  # The trilinear couplings
  1  1     0.00000000E+00   # A_e(Q) DRbar
  2  2     2.92958276E-07   # A_mu(Q) DRbar
  3  3     2.93063604E-07   # A_tau(Q) DRbar
#
BLOCK Yu Q=  5.00075164E+03  # The Yukawa couplings
  1  1     0.00000000E+00   # y_u(Q) DRbar
  2  2     0.00000000E+00   # y_c(Q) DRbar
  3  3     8.21550059E-01   # y_t(Q) DRbar
#
BLOCK Yd Q=  5.00075164E+03  # The Yukawa couplings
  1  1     0.00000000E+00   # y_d(Q) DRbar
  2  2     0.00000000E+00   # y_s(Q) DRbar
  3  3     1.30838640E-01   # y_b(Q) DRbar
#
BLOCK Ye Q=  5.00075164E+03  # The Yukawa couplings
  1  1     0.00000000E+00   # y_e(Q) DRbar
  2  2     0.00000000E+00   # y_mu(Q) DRbar
  3  3     9.69521499E-02   # y_tau(Q) DRbar
#
BLOCK MSOFT Q=  5.00075164E+03  # The soft SUSY breaking masses at the scale Q
         1     6.00000000E+01   # M_1(Q)              
         2     3.00000000E+03   # M_2(Q)              
         3     2.42817900E+03   # M_3(Q)              
        21     8.10292968E+06   # mH1^2(Q)            
        22    -3.41599118E+04   # mH2^2(Q)            
        31     5.00000000E+03   # meL(Q)              
        32     5.00000000E+03   # mmuL(Q)             
        33     5.00000000E+03   # mtauL(Q)            
        34     5.00000000E+03   # meR(Q)              
        35     5.00000000E+03   # mmuR(Q)             
        36     5.00000000E+03   # mtauR(Q)            
        41     4.99999999E+03   # mqL1(Q)             
        42     4.99999999E+03   # mqL2(Q)             
        43     4.99999999E+03   # mqL3(Q)             
        44     4.99999999E+03   # muR(Q)              
        45     4.99999999E+03   # mcR(Q)              
        46     4.99999999E+03   # mtR(Q)              
        47     4.99999999E+03   # mdR(Q)              
        48     4.99999999E+03   # msR(Q)              
        49     4.99999999E+03   # mbR(Q)              
#
#
#
#                             =================
#                             |The decay table|
#                             =================
#
# - The QCD corrections to the decays gluino -> squark  + quark
#                                     squark -> gaugino + quark_prime
#                                     squark -> squark_prime + Higgs
#                                     squark -> gluino  + quark
#   are included.
#
# - The multi-body decays for the inos, stops and sbottoms are included.
#
# - The loop induced decays for the gluino, neutralinos and stops
#   are included.
#
# - The SUSY decays of the top quark are included.
#
#
#         PDG            Width
DECAY         6     1.40305725E+00   # top decays
#          BR         NDA      ID1       ID2
     1.00000000E+00    2           5        24   # BR(t ->  b    W+)
#
#         PDG            Width
DECAY   1000021     1.05430672E-02   # gluino decays
#          BR         NDA      ID1       ID2
     1.02961333E-06    2     1000022        21   # BR(~g -> ~chi_10 g)
     3.73235726E-03    2     1000023        21   # BR(~g -> ~chi_20 g)
     3.65707028E-03    2     1000025        21   # BR(~g -> ~chi_30 g)
#           BR         NDA      ID1       ID2       ID3
     1.32573500E-02    3     1000022         1        -1   # BR(~g -> ~chi_10 d  db)
     2.17641135E-05    3     1000023         1        -1   # BR(~g -> ~chi_20 d  db)
     2.05812816E-05    3     1000025         1        -1   # BR(~g -> ~chi_30 d  db)
     4.52141546E-02    3     1000022         2        -2   # BR(~g -> ~chi_10 u  ub)
     8.98283925E-05    3     1000023         2        -2   # BR(~g -> ~chi_20 u  ub)
     2.73374375E-05    3     1000025         2        -2   # BR(~g -> ~chi_30 u  ub)
     1.32573500E-02    3     1000022         3        -3   # BR(~g -> ~chi_10 s  sb)
     2.17641135E-05    3     1000023         3        -3   # BR(~g -> ~chi_20 s  sb)
     2.05812816E-05    3     1000025         3        -3   # BR(~g -> ~chi_30 s  sb)
     4.52141546E-02    3     1000022         4        -4   # BR(~g -> ~chi_10 c  cb)
     8.98283925E-05    3     1000023         4        -4   # BR(~g -> ~chi_20 c  cb)
     2.73374375E-05    3     1000025         4        -4   # BR(~g -> ~chi_30 c  cb)
     1.34784638E-02    3     1000022         5        -5   # BR(~g -> ~chi_10 b  bb)
     5.11427080E-03    3     1000023         5        -5   # BR(~g -> ~chi_20 b  bb)
     5.07940826E-03    3     1000025         5        -5   # BR(~g -> ~chi_30 b  bb)
     4.69591661E-02    3     1000022         6        -6   # BR(~g -> ~chi_10 t  tb)
     2.00371919E-01    3     1000023         6        -6   # BR(~g -> ~chi_20 t  tb)
     1.90501576E-01    3     1000025         6        -6   # BR(~g -> ~chi_30 t  tb)
     6.01066948E-05    3     1000024         1        -2   # BR(~g -> ~chi_1+ d  ub)
     6.01066948E-05    3    -1000024         2        -1   # BR(~g -> ~chi_1- u  db)
     6.01066948E-05    3     1000024         3        -4   # BR(~g -> ~chi_1+ s  cb)
     6.01066948E-05    3    -1000024         4        -3   # BR(~g -> ~chi_1- c  sb)
     2.06801140E-01    3     1000024         5        -6   # BR(~g -> ~chi_1+ b  tb)
     2.06801140E-01    3    -1000024         6        -5   # BR(~g -> ~chi_1- t  bb)
#
#         PDG            Width
DECAY   1000006     2.67911640E+02   # stop1 decays
#          BR         NDA      ID1       ID2
     3.32558759E-02    2     1000022         6   # BR(~t_1 -> ~chi_10 t )
     1.17194431E-01    2     1000023         6   # BR(~t_1 -> ~chi_20 t )
     1.12353291E-01    2     1000025         6   # BR(~t_1 -> ~chi_30 t )
     7.52230642E-03    2     1000035         6   # BR(~t_1 -> ~chi_40 t )
     1.72629252E-01    2     1000024         5   # BR(~t_1 -> ~chi_1+ b )
     1.49913602E-02    2     1000037         5   # BR(~t_1 -> ~chi_2+ b )
     5.42053484E-01    2     1000021         6   # BR(~t_1 -> ~g      t )
#
#         PDG            Width
DECAY   2000006     2.76500549E+02   # stop2 decays
#          BR         NDA      ID1       ID2
     1.22205696E-02    2     1000022         6   # BR(~t_2 -> ~chi_10 t )
     1.15704619E-01    2     1000023         6   # BR(~t_2 -> ~chi_20 t )
     1.20914944E-01    2     1000025         6   # BR(~t_2 -> ~chi_30 t )
     2.05639431E-02    2     1000035         6   # BR(~t_2 -> ~chi_40 t )
     6.65384291E-02    2     1000024         5   # BR(~t_2 -> ~chi_1+ b )
     4.09309783E-02    2     1000037         5   # BR(~t_2 -> ~chi_2+ b )
     6.18854149E-01    2     1000021         6   # BR(~t_2 -> ~g      t )
     9.80638520E-04    2     1000006        25   # BR(~t_2 -> ~t_1    h )
     3.29172934E-03    2     1000006        23   # BR(~t_2 -> ~t_1    Z )
#
#         PDG            Width
DECAY   1000005     2.50866408E+02   # sbottom1 decays
#          BR         NDA      ID1       ID2
     3.06568345E-03    2     1000022         5   # BR(~b_1 -> ~chi_10 b )
     3.24178322E-03    2     1000023         5   # BR(~b_1 -> ~chi_20 b )
     3.18748882E-03    2     1000025         5   # BR(~b_1 -> ~chi_30 b )
     3.03907433E-02    2     1000035         5   # BR(~b_1 -> ~chi_40 b )
     2.53584503E-01    2    -1000024         6   # BR(~b_1 -> ~chi_1- t )
     6.10389244E-02    2    -1000037         6   # BR(~b_1 -> ~chi_2- t )
     6.43368038E-01    2     1000021         5   # BR(~b_1 -> ~g      b )
     2.12283608E-03    2     1000006       -24   # BR(~b_1 -> ~t_1    W-)
#
#         PDG            Width
DECAY   2000005     1.70906681E+02   # sbottom2 decays
#          BR         NDA      ID1       ID2
     1.71490619E-02    2     1000022         5   # BR(~b_2 -> ~chi_10 b )
     4.80452962E-03    2     1000023         5   # BR(~b_2 -> ~chi_20 b )
     4.90350035E-03    2     1000025         5   # BR(~b_2 -> ~chi_30 b )
     1.80275477E-04    2     1000035         5   # BR(~b_2 -> ~chi_40 b )
     1.09899144E-02    2    -1000024         6   # BR(~b_2 -> ~chi_1- t )
     3.62074414E-04    2    -1000037         6   # BR(~b_2 -> ~chi_2- t )
     9.61552995E-01    2     1000021         5   # BR(~b_2 -> ~g      b )
     5.76483332E-05    2     1000006       -24   # BR(~b_2 -> ~t_1    W-)
#
#         PDG            Width
DECAY   1000002     1.90520689E+02   # sup_L decays
#          BR         NDA      ID1       ID2
     3.90340907E-03    2     1000022         2   # BR(~u_L -> ~chi_10 u)
     8.16222903E-05    2     1000023         2   # BR(~u_L -> ~chi_20 u)
     5.92315516E-06    2     1000025         2   # BR(~u_L -> ~chi_30 u)
     4.16099533E-02    2     1000035         2   # BR(~u_L -> ~chi_40 u)
     2.69702345E-04    2     1000024         1   # BR(~u_L -> ~chi_1+ d)
     8.31661298E-02    2     1000037         1   # BR(~u_L -> ~chi_2+ d)
     8.70963260E-01    2     1000021         2   # BR(~u_L -> ~g      u)
#
#         PDG            Width
DECAY   2000002     1.76231350E+02   # sup_R decays
#          BR         NDA      ID1       ID2
     6.71365076E-02    2     1000022         2   # BR(~u_R -> ~chi_10 u)
     9.36716844E-05    2     1000023         2   # BR(~u_R -> ~chi_20 u)
     1.04889071E-04    2     1000025         2   # BR(~u_R -> ~chi_30 u)
     4.19546542E-09    2     1000035         2   # BR(~u_R -> ~chi_40 u)
     9.32664927E-01    2     1000021         2   # BR(~u_R -> ~g      u)
#
#         PDG            Width
DECAY   1000001     1.90537775E+02   # sdown_L decays
#          BR         NDA      ID1       ID2
     3.88682653E-03    2     1000022         1   # BR(~d_L -> ~chi_10 d)
     1.91083245E-05    2     1000023         1   # BR(~d_L -> ~chi_20 d)
     5.42927238E-05    2     1000025         1   # BR(~d_L -> ~chi_30 d)
     4.16316421E-02    2     1000035         1   # BR(~d_L -> ~chi_40 d)
     6.50500877E-06    2    -1000024         2   # BR(~d_L -> ~chi_1- u)
     8.32962176E-02    2    -1000037         2   # BR(~d_L -> ~chi_2- u)
     8.71105408E-01    2     1000021         1   # BR(~d_L -> ~g      d)
#
#         PDG            Width
DECAY   2000001     1.67357489E+02   # sdown_R decays
#          BR         NDA      ID1       ID2
     1.76751113E-02    2     1000022         1   # BR(~d_R -> ~chi_10 d)
     2.46611961E-05    2     1000023         1   # BR(~d_R -> ~chi_20 d)
     2.76144284E-05    2     1000025         1   # BR(~d_R -> ~chi_30 d)
     1.10468989E-09    2     1000035         1   # BR(~d_R -> ~chi_40 d)
     9.82272612E-01    2     1000021         1   # BR(~d_R -> ~g      d)
#
#         PDG            Width
DECAY   1000004     1.90520689E+02   # scharm_L decays
#          BR         NDA      ID1       ID2
     3.90340907E-03    2     1000022         4   # BR(~c_L -> ~chi_10 c)
     8.16222903E-05    2     1000023         4   # BR(~c_L -> ~chi_20 c)
     5.92315516E-06    2     1000025         4   # BR(~c_L -> ~chi_30 c)
     4.16099533E-02    2     1000035         4   # BR(~c_L -> ~chi_40 c)
     2.69702345E-04    2     1000024         3   # BR(~c_L -> ~chi_1+ s)
     8.31661298E-02    2     1000037         3   # BR(~c_L -> ~chi_2+ s)
     8.70963260E-01    2     1000021         4   # BR(~c_L -> ~g      c)
#
#         PDG            Width
DECAY   2000004     1.76231350E+02   # scharm_R decays
#          BR         NDA      ID1       ID2
     6.71365076E-02    2     1000022         4   # BR(~c_R -> ~chi_10 c)
     9.36716844E-05    2     1000023         4   # BR(~c_R -> ~chi_20 c)
     1.04889071E-04    2     1000025         4   # BR(~c_R -> ~chi_30 c)
     4.19546542E-09    2     1000035         4   # BR(~c_R -> ~chi_40 c)
     9.32664927E-01    2     1000021         4   # BR(~c_R -> ~g      c)
#
#         PDG            Width
DECAY   1000003     1.90537775E+02   # sstrange_L decays
#          BR         NDA      ID1       ID2
     3.88682653E-03    2     1000022         3   # BR(~s_L -> ~chi_10 s)
     1.91083245E-05    2     1000023         3   # BR(~s_L -> ~chi_20 s)
     5.42927238E-05    2     1000025         3   # BR(~s_L -> ~chi_30 s)
     4.16316421E-02    2     1000035         3   # BR(~s_L -> ~chi_40 s)
     6.50500877E-06    2    -1000024         4   # BR(~s_L -> ~chi_1- c)
     8.32962176E-02    2    -1000037         4   # BR(~s_L -> ~chi_2- c)
     8.71105408E-01    2     1000021         3   # BR(~s_L -> ~g      s)
#
#         PDG            Width
DECAY   2000003     1.67357489E+02   # sstrange_R decays
#          BR         NDA      ID1       ID2
     1.76751113E-02    2     1000022         3   # BR(~s_R -> ~chi_10 s)
     2.46611961E-05    2     1000023         3   # BR(~s_R -> ~chi_20 s)
     2.76144284E-05    2     1000025         3   # BR(~s_R -> ~chi_30 s)
     1.10468989E-09    2     1000035         3   # BR(~s_R -> ~chi_40 s)
     9.82272612E-01    2     1000021         3   # BR(~s_R -> ~g      s)
#
#         PDG            Width
DECAY   1000011     3.02871673E+01   # selectron_L decays
#          BR         NDA      ID1       ID2
     2.26078354E-01    2     1000022        11   # BR(~e_L -> ~chi_10 e-)
     1.20479937E-03    2     1000023        11   # BR(~e_L -> ~chi_20 e-)
     4.01578317E-05    2     1000025        11   # BR(~e_L -> ~chi_30 e-)
     2.57372761E-01    2     1000035        11   # BR(~e_L -> ~chi_40 e-)
     4.17694564E-05    2    -1000024        12   # BR(~e_L -> ~chi_1- nu_e)
     5.15262159E-01    2    -1000037        12   # BR(~e_L -> ~chi_2- nu_e)
#
#         PDG            Width
DECAY   2000011     2.73783542E+01   # selectron_R decays
#          BR         NDA      ID1       ID2
     9.97061558E-01    2     1000022        11   # BR(~e_R -> ~chi_10 e-)
     1.38620099E-03    2     1000023        11   # BR(~e_R -> ~chi_20 e-)
     1.55218133E-03    2     1000025        11   # BR(~e_R -> ~chi_30 e-)
     5.99147142E-08    2     1000035        11   # BR(~e_R -> ~chi_40 e-)
#
#         PDG            Width
DECAY   1000013     3.02871673E+01   # smuon_L decays
#          BR         NDA      ID1       ID2
     2.26078354E-01    2     1000022        13   # BR(~mu_L -> ~chi_10 mu-)
     1.20479937E-03    2     1000023        13   # BR(~mu_L -> ~chi_20 mu-)
     4.01578317E-05    2     1000025        13   # BR(~mu_L -> ~chi_30 mu-)
     2.57372761E-01    2     1000035        13   # BR(~mu_L -> ~chi_40 mu-)
     4.17694564E-05    2    -1000024        14   # BR(~mu_L -> ~chi_1- nu_mu)
     5.15262159E-01    2    -1000037        14   # BR(~mu_L -> ~chi_2- nu_mu)
#
#         PDG            Width
DECAY   2000013     2.73783542E+01   # smuon_R decays
#          BR         NDA      ID1       ID2
     9.97061558E-01    2     1000022        13   # BR(~mu_R -> ~chi_10 mu-)
     1.38620099E-03    2     1000023        13   # BR(~mu_R -> ~chi_20 mu-)
     1.55218133E-03    2     1000025        13   # BR(~mu_R -> ~chi_30 mu-)
     5.99147142E-08    2     1000035        13   # BR(~mu_R -> ~chi_40 mu-)
#
#         PDG            Width
DECAY   1000015     2.91704061E+01   # stau_1 decays
#          BR         NDA      ID1       ID2
     9.30693433E-01    2     1000022        15   # BR(~tau_1 -> ~chi_10  tau-)
     1.64841853E-02    2     1000023        15   # BR(~tau_1 -> ~chi_20  tau-)
     1.58992924E-02    2     1000025        15   # BR(~tau_1 -> ~chi_30  tau-)
     2.16680184E-03    2     1000035        15   # BR(~tau_1 -> ~chi_40  tau-)
     3.04185475E-02    2    -1000024        16   # BR(~tau_1 -> ~chi_1-  nu_tau)
     4.33773964E-03    2    -1000037        16   # BR(~tau_1 -> ~chi_2-  nu_tau)
#
#         PDG            Width
DECAY   2000015     3.11491288E+01   # stau_2 decays
#          BR         NDA      ID1       ID2
     2.24576168E-01    2     1000022        15   # BR(~tau_2 -> ~chi_10  tau-)
     1.54682127E-02    2     1000023        15   # BR(~tau_2 -> ~chi_20  tau-)
     1.49631554E-02    2     1000025        15   # BR(~tau_2 -> ~chi_30  tau-)
     2.48136916E-01    2     1000035        15   # BR(~tau_2 -> ~chi_40  tau-)
     8.29975663E-05    2    -1000024        16   # BR(~tau_2 -> ~chi_1-  nu_tau)
     4.96772550E-01    2    -1000037        16   # BR(~tau_2 -> ~chi_2-  nu_tau)
#
#         PDG            Width
DECAY   1000012     3.02901753E+01   # snu_eL decays
#          BR         NDA      ID1       ID2
     2.25692273E-01    2     1000022        12   # BR(~nu_eL -> ~chi_10 nu_e)
     5.47147245E-07    2     1000023        12   # BR(~nu_eL -> ~chi_20 nu_e)
     9.71605822E-04    2     1000025        12   # BR(~nu_eL -> ~chi_30 nu_e)
     2.57418765E-01    2     1000035        12   # BR(~nu_eL -> ~chi_40 nu_e)
     1.73128185E-03    2     1000024        11   # BR(~nu_eL -> ~chi_1+ e-)
     5.14185528E-01    2     1000037        11   # BR(~nu_eL -> ~chi_2+ e-)
#
#         PDG            Width
DECAY   1000014     3.02901753E+01   # snu_muL decays
#          BR         NDA      ID1       ID2
     2.25692273E-01    2     1000022        14   # BR(~nu_muL -> ~chi_10 nu_mu)
     5.47147245E-07    2     1000023        14   # BR(~nu_muL -> ~chi_20 nu_mu)
     9.71605822E-04    2     1000025        14   # BR(~nu_muL -> ~chi_30 nu_mu)
     2.57418765E-01    2     1000035        14   # BR(~nu_muL -> ~chi_40 nu_mu)
     1.73128185E-03    2     1000024        13   # BR(~nu_muL -> ~chi_1+ mu-)
     5.14185528E-01    2     1000037        13   # BR(~nu_muL -> ~chi_2+ mu-)
#
#         PDG            Width
DECAY   1000016     3.11719261E+01   # snu_tauL decays
#          BR         NDA      ID1       ID2
     2.19284206E-01    2     1000022        16   # BR(~nu_tauL -> ~chi_10 nu_tau)
     5.31606101E-07    2     1000023        16   # BR(~nu_tauL -> ~chi_20 nu_tau)
     9.44008317E-04    2     1000025        16   # BR(~nu_tauL -> ~chi_30 nu_tau)
     2.50044221E-01    2     1000035        16   # BR(~nu_tauL -> ~chi_40 nu_tau)
     3.02724821E-02    2     1000024        15   # BR(~nu_tauL -> ~chi_1+ tau-)
     4.99454552E-01    2     1000037        15   # BR(~nu_tauL -> ~chi_2+ tau-)
#
#         PDG            Width
DECAY   1000024     4.83262767E-01   # chargino1+ decays
#          BR         NDA      ID1       ID2
     1.00000000E+00    2     1000022        24   # BR(~chi_1+ -> ~chi_10  W+)
#
#         PDG            Width
DECAY   1000037     2.11101547E+01   # chargino2+ decays
#          BR         NDA      ID1       ID2
     2.53358919E-01    2     1000024        23   # BR(~chi_2+ -> ~chi_1+  Z )
     1.84746644E-04    2     1000022        24   # BR(~chi_2+ -> ~chi_10  W+)
     2.44400287E-01    2     1000023        24   # BR(~chi_2+ -> ~chi_20  W+)
     2.44216479E-01    2     1000025        24   # BR(~chi_2+ -> ~chi_30  W+)
     2.57837646E-01    2     1000024        25   # BR(~chi_2+ -> ~chi_1+  h )
     1.92249328E-06    2     1000022        37   # BR(~chi_2+ -> ~chi_10  H+)
#
#         PDG            Width
DECAY   1000022     0.00000000E+00   # neutralino1 decays
#
#         PDG            Width
DECAY   1000023     5.01658941E-01   # neutralino2 decays
#          BR         NDA      ID1       ID2
     5.29411104E-01    2     1000022        23   # BR(~chi_20 -> ~chi_10   Z )
     4.70588896E-01    2     1000022        25   # BR(~chi_20 -> ~chi_10   h )
#
#         PDG            Width
DECAY   1000025     5.01454035E-01   # neutralino3 decays
#          BR         NDA      ID1       ID2
     4.69495931E-01    2     1000022        23   # BR(~chi_30 -> ~chi_10   Z )
     5.30504069E-01    2     1000022        25   # BR(~chi_30 -> ~chi_10   h )
#
#         PDG            Width
DECAY   1000035     2.11259088E+01   # neutralino4 decays
#          BR         NDA      ID1       ID2
     3.18528284E-05    2     1000022        23   # BR(~chi_40 -> ~chi_10   Z )
     8.82317770E-02    2     1000023        23   # BR(~chi_40 -> ~chi_20   Z )
     1.64467036E-01    2     1000025        23   # BR(~chi_40 -> ~chi_30   Z )
     2.44937241E-01    2     1000024       -24   # BR(~chi_40 -> ~chi_1+   W-)
     2.44937241E-01    2    -1000024        24   # BR(~chi_40 -> ~chi_1-   W+)
     1.51504656E-04    2     1000022        25   # BR(~chi_40 -> ~chi_10   h )
     1.83122647E-06    2     1000022        35   # BR(~chi_40 -> ~chi_10   H )
     2.13462712E-07    2     1000022        36   # BR(~chi_40 -> ~chi_10   A )
     1.68742111E-01    2     1000023        25   # BR(~chi_40 -> ~chi_20   h )
     8.84991917E-02    2     1000025        25   # BR(~chi_40 -> ~chi_30   h )
#
#         PDG            Width
DECAY        25     4.06107891E-03   # h decays
#          BR         NDA      ID1       ID2
     6.07294788E-01    2           5        -5   # BR(h -> b       bb     )
     6.38915319E-02    2         -15        15   # BR(h -> tau+    tau-   )
     2.26199072E-04    2         -13        13   # BR(h -> mu+     mu-    )
     4.79497499E-04    2           3        -3   # BR(h -> s       sb     )
     2.07766663E-02    2           4        -4   # BR(h -> c       cb     )
     6.72556952E-02    2          21        21   # BR(h -> g       g      )
     2.31309361E-03    2          22        22   # BR(h -> gam     gam    )
     1.49507843E-03    2          22        23   # BR(h -> Z       gam    )
     2.11031048E-01    2          24       -24   # BR(h -> W+      W-     )
     2.51634485E-02    2          23        23   # BR(h -> Z       Z      )
     7.29535551E-05    2     1000022   1000022   # BR(h -> ~chi_10 ~chi_10)
#
#         PDG            Width
DECAY        35     8.36842146E+00   # H decays
#          BR         NDA      ID1       ID2
     3.84171050E-01    2           5        -5   # BR(H -> b       bb     )
     6.65592413E-02    2         -15        15   # BR(H -> tau+    tau-   )
     2.35358764E-04    2         -13        13   # BR(H -> mu+     mu-    )
     2.88513737E-04    2           3        -3   # BR(H -> s       sb     )
     1.61459192E-06    2           4        -4   # BR(H -> c       cb     )
     1.61310522E-01    2           6        -6   # BR(H -> t       tb     )
     5.36264252E-05    2          21        21   # BR(H -> g       g      )
     2.09656613E-07    2          22        22   # BR(H -> gam     gam    )
     9.52414209E-08    2          23        22   # BR(H -> Z       gam    )
     7.54886432E-05    2          24       -24   # BR(H -> W+      W-     )
     3.76965453E-05    2          23        23   # BR(H -> Z       Z      )
     2.77144051E-04    2          25        25   # BR(H -> h       h      )
     9.54281550E-24    2          36        36   # BR(H -> A       A      )
     1.04315387E-18    2          23        36   # BR(H -> Z       A      )
     2.57728139E-03    2     1000024  -1000024   # BR(H -> ~chi_1+ ~chi_1-)
     2.69784218E-03    2     1000022   1000022   # BR(H -> ~chi_10 ~chi_10)
     4.86163840E-07    2     1000023   1000023   # BR(H -> ~chi_20 ~chi_20)
     1.01745467E-03    2     1000025   1000025   # BR(H -> ~chi_30 ~chi_30)
     2.28917748E-01    2     1000022   1000023   # BR(H -> ~chi_10 ~chi_20)
     1.50716137E-01    2     1000022   1000025   # BR(H -> ~chi_10 ~chi_30)
     1.06248832E-03    2     1000023   1000025   # BR(H -> ~chi_20 ~chi_30)
#
#         PDG            Width
DECAY        36     8.38033988E+00   # A decays
#          BR         NDA      ID1       ID2
     3.83754622E-01    2           5        -5   # BR(A -> b       bb     )
     6.64665460E-02    2         -15        15   # BR(A -> tau+    tau-   )
     2.35030657E-04    2         -13        13   # BR(A -> mu+     mu-    )
     2.88322171E-04    2           3        -3   # BR(A -> s       sb     )
     1.61883235E-06    2           4        -4   # BR(A -> c       cb     )
     1.61644937E-01    2           6        -6   # BR(A -> t       tb     )
     1.59948966E-04    2          21        21   # BR(A -> g       g      )
     5.96154274E-07    2          22        22   # BR(A -> gam     gam    )
     1.93700448E-07    2          23        22   # BR(A -> Z       gam    )
     7.50958524E-05    2          23        25   # BR(A -> Z       h      )
     3.36811647E-03    2     1000024  -1000024   # BR(A -> ~chi_1+ ~chi_1-)
     2.73144457E-03    2     1000022   1000022   # BR(A -> ~chi_10 ~chi_10)
     4.43677071E-07    2     1000023   1000023   # BR(A -> ~chi_20 ~chi_20)
     2.17764631E-03    2     1000025   1000025   # BR(A -> ~chi_30 ~chi_30)
     1.53012978E-01    2     1000022   1000023   # BR(A -> ~chi_10 ~chi_20)
     2.25593928E-01    2     1000022   1000025   # BR(A -> ~chi_10 ~chi_30)
     4.88531679E-04    2     1000023   1000025   # BR(A -> ~chi_20 ~chi_30)
#
#         PDG            Width
DECAY        37     8.34606913E+00   # H+ decays
#          BR         NDA      ID1       ID2
     6.18251652E-04    2           4        -5   # BR(H+ -> c       bb     )
     6.67697959E-02    2         -15        16   # BR(H+ -> tau+    nu_tau )
     2.36102972E-04    2         -13        14   # BR(H+ -> mu+     nu_mu  )
     3.95679004E-06    2           2        -5   # BR(H+ -> u       bb     )
     1.38537390E-05    2           2        -3   # BR(H+ -> u       sb     )
     2.86496823E-04    2           4        -3   # BR(H+ -> c       sb     )
     5.45349325E-01    2           6        -5   # BR(H+ -> t       bb     )
     7.55556723E-05    2          24        25   # BR(H+ -> W+      h      )
     7.40906009E-13    2          24        36   # BR(H+ -> W+      A      )
     3.85184057E-01    2     1000024   1000022   # BR(H+ -> ~chi_1+ ~chi_10)
     1.43847124E-03    2     1000024   1000023   # BR(H+ -> ~chi_1+ ~chi_20)
     2.41330007E-05    2     1000024   1000025   # BR(H+ -> ~chi_1+ ~chi_30)
