#
#                              ======================
#                              | THE SUSYHIT OUTPUT |
#                              ======================
#
#
#              ------------------------------------------------------
#              |     This is the output of the SUSY-HIT package     |
#              |  created by A.Djouadi, M.Muehlleitner and M.Spira. |
#              |  In case of problems with SUSY-HIT email to        |
#              |           margarete.muehlleitner@cern.ch           |
#              |           michael.spira@psi.ch                     |
#              |           abdelhak.djouadi@cern.ch                 |
#              ------------------------------------------------------
#
#              ------------------------------------------------------
#              |  SUSY Les Houches Accord - MSSM Spectrum + Decays  |
#              |              based on the decay programs           |
#              |                                                    |
#              |                     SDECAY 1.3b                    |
#              |                                                    |
#              |  Authors: M.Muhlleitner, A.Djouadi and Y.Mambrini  |
#              |  Ref.:    Comput.Phys.Commun.168(2005)46           |
#              |           [hep-ph/0311167]                         |
#              |                                                    |
#              |                     HDECAY 3.4                     |
#              |                                                    |
#              |  By: A.Djouadi,J.Kalinowski,M.Muhlleitner,M.Spira  |
#              |  Ref.:    Comput.Phys.Commun.108(1998)56           |
#              |           [hep-ph/9704448]                         |
#              |                                                    |
#              |                                                    |
#              |  If not stated otherwise all DRbar couplings and   |
#              |  soft SUSY breaking masses are given at the scale  |
#              |  Q=  0.50007435E+04
#              |                                                    |
#              ------------------------------------------------------
#
#
BLOCK DCINFO  # Decay Program information
     1   SDECAY/HDECAY # decay calculator
     2   1.3b  /3.4    # version number
#
BLOCK SPINFO  # Spectrum calculator information
     1    SOFTSUSY    # spectrum calculator                
     2    3.4.0       # version number                     
#
BLOCK MODSEL  # Model selection
     1     0   #  nonUniversal                                     
#
BLOCK SMINPUTS  # Standard Model inputs
         1     1.25778332E+02   # alpha_em^-1(M_Z)^MSbar
         2     1.16570000E-05   # G_F [GeV^-2]
         3     1.17200002E-01   # alpha_S(M_Z)^MSbar
         4     9.11876000E+01   # M_Z pole mass
         5     4.25000000E+00   # mb(mb)^MSbar
         6     1.72500000E+02   # mt pole mass
         7     1.77682000E+00   # mtau pole mass
#
BLOCK MINPAR  # Input parameters - minimal models
         3     1.00000000E+01   # tanb                
#
BLOCK EXTPAR  # Input parameters - non-minimal models
         0    -1.00000000E+00   # Set                 
         1     6.00000000E+01   # M_1(MX)             
         2     3.00000000E+03   # M_2(MX)             
         3     2.42818100E+03   # M_3(MX)             
        11     5.00000000E+03   # At(MX)              
        12     5.00000000E+03   # Ab(MX)              
        13     0.00000000E+00   # Atau(MX)            
        23    -9.58923000E+02   # mu(MX)              
        26     3.00000000E+03   # mA(pole)            
        31     5.00000000E+03   # meL(MX)             
        32     5.00000000E+03   # mmuL(MX)            
        33     5.00000000E+03   # mtauL(MX)           
        34     5.00000000E+03   # meR(MX)             
        35     5.00000000E+03   # mmuR(MX)            
        36     5.00000000E+03   # mtauR(MX)           
        41     5.00000000E+03   # mqL1(MX)            
        42     5.00000000E+03   # mqL2(MX)            
        43     5.00000000E+03   # mqL3(MX)            
        44     5.00000000E+03   # muR(MX)             
        45     5.00000000E+03   # mcR(MX)             
        46     5.00000000E+03   # mtR(MX)             
        47     5.00000000E+03   # mdR(MX)             
        48     5.00000000E+03   # msR(MX)             
        49     5.00000000E+03   # mbR(MX)             
#
BLOCK MASS  # Mass Spectrum
# PDG code           mass       particle
        24     8.00955347E+01   # W+
        25     1.24820263E+02   # h
        35     3.00008152E+03   # H
        36     2.99999864E+03   # A
        37     3.00113553E+03   # H+
         5     4.87878001E+00   # b-quark pole mass calculated from mb(mb)_Msbar
   1000001     5.08627741E+03   # ~d_L
   2000001     5.06853038E+03   # ~d_R
   1000002     5.08580810E+03   # ~u_L
   2000002     5.06824642E+03   # ~u_R
   1000003     5.08627741E+03   # ~s_L
   2000003     5.06853038E+03   # ~s_R
   1000004     5.08580810E+03   # ~c_L
   2000004     5.06824642E+03   # ~c_R
   1000005     5.03199179E+03   # ~b_1
   2000005     5.06700776E+03   # ~b_2
   1000006     4.92441068E+03   # ~t_1
   2000006     5.07558342E+03   # ~t_2
   1000011     5.01906758E+03   # ~e_L
   2000011     5.00592394E+03   # ~e_R
   1000012     5.01811912E+03   # ~nu_eL
   1000013     5.01906758E+03   # ~mu_L
   2000013     5.00592394E+03   # ~mu_R
   1000014     5.01811912E+03   # ~nu_muL
   1000015     5.00461210E+03   # ~tau_1
   2000015     5.01876238E+03   # ~tau_2
   1000016     5.01757309E+03   # ~nu_tauL
   1000021     2.80000066E+03   # ~g
   1000022     6.02986920E+01   # ~chi_10
   1000023     9.99653638E+02   # ~chi_20
   1000025    -1.00190574E+03   # ~chi_30
   1000035     3.07424273E+03   # ~chi_40
   1000024     1.00000077E+03   # ~chi_1+
   1000037     3.07441016E+03   # ~chi_2+
#
BLOCK NMIX  # Neutralino Mixing Matrix
  1  1     9.99007068E-01   # N_11
  1  2     1.84604324E-04   # N_12
  1  3    -4.45084491E-02   # N_13
  1  4     1.96004040E-03   # N_14
  2  1     3.00949733E-02   # N_21
  2  2     2.34912805E-02   # N_22
  2  3     7.06700882E-01   # N_23
  2  4     7.06481646E-01   # N_24
  3  1    -3.28482734E-02   # N_31
  3  2     1.49110904E-02   # N_32
  3  3    -7.06085019E-01   # N_33
  3  4     7.07207605E-01   # N_34
  4  1    -4.01742457E-04   # N_41
  4  2     9.99612818E-01   # N_42
  4  3    -6.06694362E-03   # N_43
  4  4    -2.71522698E-02   # N_44
#
BLOCK UMIX  # Chargino Mixing Matrix U
  1  1     8.59363207E-03   # U_11
  1  2     9.99963074E-01   # U_12
  2  1    -9.99963074E-01   # U_21
  2  2     8.59363207E-03   # U_22
#
BLOCK VMIX  # Chargino Mixing Matrix V
  1  1     3.84289309E-02   # V_11
  1  2    -9.99261336E-01   # V_12
  2  1    -9.99261336E-01   # V_21
  2  2    -3.84289309E-02   # V_22
#
BLOCK STOPMIX  # Stop Mixing Matrix
  1  1    -5.03684257E-01   # cos(theta_t)
  1  2     8.63887822E-01   # sin(theta_t)
  2  1    -8.63887822E-01   # -sin(theta_t)
  2  2    -5.03684257E-01   # cos(theta_t)
#
BLOCK SBOTMIX  # Sbottom Mixing Matrix
  1  1     9.97123076E-01   # cos(theta_b)
  1  2    -7.57995469E-02   # sin(theta_b)
  2  1     7.57995469E-02   # -sin(theta_b)
  2  2     9.97123076E-01   # cos(theta_b)
#
BLOCK STAUMIX  # Stau Mixing Matrix
  1  1    -1.13927009E-01   # cos(theta_tau)
  1  2     9.93489123E-01   # sin(theta_tau)
  2  1    -9.93489123E-01   # -sin(theta_tau)
  2  2    -1.13927009E-01   # cos(theta_tau)
#
BLOCK ALPHA  # Higgs mixing
          -1.05482935E-01   # Mixing angle in the neutral Higgs boson sector
#
BLOCK HMIX Q=  5.00074346E+03  # DRbar Higgs Parameters
         1    -9.76581758E+02   # mu(Q)MSSM           
         2     9.46906856E+00   # tan                 
         3     2.41857766E+02   # higgs               
         4     8.51834232E+06   # mA^2(Q)MSSM         
#
BLOCK GAUGE Q=  5.00074346E+03  # The gauge couplings
     1     3.70781240E-01   # gprime(Q) DRbar
     2     6.32500754E-01   # g(Q) DRbar
     3     9.93519418E-01   # g3(Q) DRbar
#
BLOCK AU Q=  5.00074346E+03  # The trilinear couplings
  1  1     5.00000002E+03   # A_u(Q) DRbar
  2  2     5.00000002E+03   # A_c(Q) DRbar
  3  3     5.00000003E+03   # A_t(Q) DRbar
#
BLOCK AD Q=  5.00074346E+03  # The trilinear couplings
  1  1     5.00000001E+03   # A_d(Q) DRbar
  2  2     5.00000001E+03   # A_s(Q) DRbar
  3  3     5.00000001E+03   # A_b(Q) DRbar
#
BLOCK AE Q=  5.00074346E+03  # The trilinear couplings
  1  1     0.00000000E+00   # A_e(Q) DRbar
  2  2     2.94430324E-07   # A_mu(Q) DRbar
  3  3     2.94538400E-07   # A_tau(Q) DRbar
#
BLOCK Yu Q=  5.00074346E+03  # The Yukawa couplings
  1  1     0.00000000E+00   # y_u(Q) DRbar
  2  2     0.00000000E+00   # y_c(Q) DRbar
  3  3     8.21435069E-01   # y_t(Q) DRbar
#
BLOCK Yd Q=  5.00074346E+03  # The Yukawa couplings
  1  1     0.00000000E+00   # y_d(Q) DRbar
  2  2     0.00000000E+00   # y_s(Q) DRbar
  3  3     1.31131415E-01   # y_b(Q) DRbar
#
BLOCK Ye Q=  5.00074346E+03  # The Yukawa couplings
  1  1     0.00000000E+00   # y_e(Q) DRbar
  2  2     0.00000000E+00   # y_mu(Q) DRbar
  3  3     9.68460730E-02   # y_tau(Q) DRbar
#
BLOCK MSOFT Q=  5.00074346E+03  # The soft SUSY breaking masses at the scale Q
         1     6.00000000E+01   # M_1(Q)              
         2     3.00000000E+03   # M_2(Q)              
         3     2.42818100E+03   # M_3(Q)              
        21     7.74325827E+06   # mH1^2(Q)            
        22    -3.86525369E+05   # mH2^2(Q)            
        31     5.00000000E+03   # meL(Q)              
        32     5.00000000E+03   # mmuL(Q)             
        33     5.00000000E+03   # mtauL(Q)            
        34     5.00000000E+03   # meR(Q)              
        35     5.00000000E+03   # mmuR(Q)             
        36     5.00000000E+03   # mtauR(Q)            
        41     4.99999999E+03   # mqL1(Q)             
        42     4.99999999E+03   # mqL2(Q)             
        43     4.99999999E+03   # mqL3(Q)             
        44     4.99999999E+03   # muR(Q)              
        45     4.99999999E+03   # mcR(Q)              
        46     4.99999999E+03   # mtR(Q)              
        47     4.99999999E+03   # mdR(Q)              
        48     4.99999999E+03   # msR(Q)              
        49     4.99999999E+03   # mbR(Q)              
#
#
#
#                             =================
#                             |The decay table|
#                             =================
#
# - The QCD corrections to the decays gluino -> squark  + quark
#                                     squark -> gaugino + quark_prime
#                                     squark -> squark_prime + Higgs
#                                     squark -> gluino  + quark
#   are included.
#
# - The multi-body decays for the inos, stops and sbottoms are included.
#
# - The loop induced decays for the gluino, neutralinos and stops
#   are included.
#
# - The SUSY decays of the top quark are included.
#
#
#         PDG            Width
DECAY         6     1.40191281E+00   # top decays
#          BR         NDA      ID1       ID2
     1.00000000E+00    2           5        24   # BR(t ->  b    W+)
#
#         PDG            Width
DECAY   1000021     8.21741233E-03   # gluino decays
#          BR         NDA      ID1       ID2
     1.44234325E-06    2     1000022        21   # BR(~g -> ~chi_10 g)
     4.14178733E-03    2     1000023        21   # BR(~g -> ~chi_20 g)
     4.07922054E-03    2     1000025        21   # BR(~g -> ~chi_30 g)
#           BR         NDA      ID1       ID2       ID3
     1.70245202E-02    3     1000022         1        -1   # BR(~g -> ~chi_10 d  db)
     2.26964026E-05    3     1000023         1        -1   # BR(~g -> ~chi_20 d  db)
     1.40298047E-05    3     1000025         1        -1   # BR(~g -> ~chi_30 d  db)
     5.80581556E-02    3     1000022         2        -2   # BR(~g -> ~chi_10 u  ub)
     7.17893600E-05    3     1000023         2        -2   # BR(~g -> ~chi_20 u  ub)
     1.67398280E-05    3     1000025         2        -2   # BR(~g -> ~chi_30 u  ub)
     1.70245202E-02    3     1000022         3        -3   # BR(~g -> ~chi_10 s  sb)
     2.26964026E-05    3     1000023         3        -3   # BR(~g -> ~chi_20 s  sb)
     1.40298047E-05    3     1000025         3        -3   # BR(~g -> ~chi_30 s  sb)
     5.80581556E-02    3     1000022         4        -4   # BR(~g -> ~chi_10 c  cb)
     7.17893600E-05    3     1000023         4        -4   # BR(~g -> ~chi_20 c  cb)
     1.67398280E-05    3     1000025         4        -4   # BR(~g -> ~chi_30 c  cb)
     1.72788843E-02    3     1000022         5        -5   # BR(~g -> ~chi_10 b  bb)
     4.88062428E-03    3     1000023         5        -5   # BR(~g -> ~chi_20 b  bb)
     4.83578330E-03    3     1000025         5        -5   # BR(~g -> ~chi_30 b  bb)
     6.03179905E-02    3     1000022         6        -6   # BR(~g -> ~chi_10 t  tb)
     1.88146805E-01    3     1000023         6        -6   # BR(~g -> ~chi_20 t  tb)
     1.76764016E-01    3     1000025         6        -6   # BR(~g -> ~chi_30 t  tb)
     6.57275482E-05    3     1000024         1        -2   # BR(~g -> ~chi_1+ d  ub)
     6.57275482E-05    3    -1000024         2        -1   # BR(~g -> ~chi_1- u  db)
     6.57275482E-05    3     1000024         3        -4   # BR(~g -> ~chi_1+ s  cb)
     6.57275482E-05    3    -1000024         4        -3   # BR(~g -> ~chi_1- c  sb)
     1.94437337E-01    3     1000024         5        -6   # BR(~g -> ~chi_1+ b  tb)
     1.94437337E-01    3    -1000024         6        -5   # BR(~g -> ~chi_1- t  bb)
#
#         PDG            Width
DECAY   1000006     2.64472977E+02   # stop1 decays
#          BR         NDA      ID1       ID2
     3.36826770E-02    2     1000022         6   # BR(~t_1 -> ~chi_10 t )
     1.14835949E-01    2     1000023         6   # BR(~t_1 -> ~chi_20 t )
     1.10397214E-01    2     1000025         6   # BR(~t_1 -> ~chi_30 t )
     7.69836666E-03    2     1000035         6   # BR(~t_1 -> ~chi_40 t )
     1.68996744E-01    2     1000024         5   # BR(~t_1 -> ~chi_1+ b )
     1.53371241E-02    2     1000037         5   # BR(~t_1 -> ~chi_2+ b )
     5.49051925E-01    2     1000021         6   # BR(~t_1 -> ~g      t )
#
#         PDG            Width
DECAY   2000006     2.74257707E+02   # stop2 decays
#          BR         NDA      ID1       ID2
     1.23653203E-02    2     1000022         6   # BR(~t_2 -> ~chi_10 t )
     1.13535558E-01    2     1000023         6   # BR(~t_2 -> ~chi_20 t )
     1.18252180E-01    2     1000025         6   # BR(~t_2 -> ~chi_30 t )
     2.06429131E-02    2     1000035         6   # BR(~t_2 -> ~chi_40 t )
     6.56987904E-02    2     1000024         5   # BR(~t_2 -> ~chi_1+ b )
     4.10709732E-02    2     1000037         5   # BR(~t_2 -> ~chi_2+ b )
     6.24074073E-01    2     1000021         6   # BR(~t_2 -> ~g      t )
     9.93456692E-04    2     1000006        25   # BR(~t_2 -> ~t_1    h )
     3.36673479E-03    2     1000006        23   # BR(~t_2 -> ~t_1    Z )
#
#         PDG            Width
DECAY   1000005     2.48809532E+02   # sbottom1 decays
#          BR         NDA      ID1       ID2
     3.09417418E-03    2     1000022         5   # BR(~b_1 -> ~chi_10 b )
     3.21350755E-03    2     1000023         5   # BR(~b_1 -> ~chi_20 b )
     3.12974651E-03    2     1000025         5   # BR(~b_1 -> ~chi_30 b )
     3.05663006E-02    2     1000035         5   # BR(~b_1 -> ~chi_40 b )
     2.47778222E-01    2    -1000024         6   # BR(~b_1 -> ~chi_1- t )
     6.14157326E-02    2    -1000037         6   # BR(~b_1 -> ~chi_2- t )
     6.48659671E-01    2     1000021         5   # BR(~b_1 -> ~g      b )
     2.14264560E-03    2     1000006       -24   # BR(~b_1 -> ~t_1    W-)
#
#         PDG            Width
DECAY   2000005     1.70956123E+02   # sbottom2 decays
#          BR         NDA      ID1       ID2
     1.71366988E-02    2     1000022         5   # BR(~b_2 -> ~chi_10 b )
     4.66079623E-03    2     1000023         5   # BR(~b_2 -> ~chi_20 b )
     4.78186975E-03    2     1000025         5   # BR(~b_2 -> ~chi_30 b )
     2.51546531E-04    2     1000035         5   # BR(~b_2 -> ~chi_40 b )
     1.12391988E-02    2    -1000024         6   # BR(~b_2 -> ~chi_1- t )
     5.05371832E-04    2    -1000037         6   # BR(~b_2 -> ~chi_2- t )
     9.61345591E-01    2     1000021         5   # BR(~b_2 -> ~g      b )
     7.89273963E-05    2     1000006       -24   # BR(~b_2 -> ~t_1    W-)
#
#         PDG            Width
DECAY   1000002     1.90499506E+02   # sup_L decays
#          BR         NDA      ID1       ID2
     3.90615408E-03    2     1000022         2   # BR(~u_L -> ~chi_10 u)
     8.18242623E-05    2     1000023         2   # BR(~u_L -> ~chi_20 u)
     6.83783818E-06    2     1000025         2   # BR(~u_L -> ~chi_30 u)
     4.15769579E-02    2     1000035         2   # BR(~u_L -> ~chi_40 u)
     2.80116176E-04    2     1000024         1   # BR(~u_L -> ~chi_1+ d)
     8.30981743E-02    2     1000037         1   # BR(~u_L -> ~chi_2+ d)
     8.71049935E-01    2     1000021         2   # BR(~u_L -> ~g      u)
#
#         PDG            Width
DECAY   2000002     1.76227776E+02   # sup_R decays
#          BR         NDA      ID1       ID2
     6.71939514E-02    2     1000022         2   # BR(~u_R -> ~chi_10 u)
     5.64994119E-05    2     1000023         2   # BR(~u_R -> ~chi_20 u)
     6.72860145E-05    2     1000025         2   # BR(~u_R -> ~chi_30 u)
     4.38532446E-09    2     1000035         2   # BR(~u_R -> ~chi_40 u)
     9.32682259E-01    2     1000021         2   # BR(~u_R -> ~g      u)
#
#         PDG            Width
DECAY   1000001     1.90516907E+02   # sdown_L decays
#          BR         NDA      ID1       ID2
     3.89141841E-03    2     1000022         1   # BR(~d_L -> ~chi_10 d)
     2.94150835E-05    2     1000023         1   # BR(~d_L -> ~chi_20 d)
     4.31361703E-05    2     1000025         1   # BR(~d_L -> ~chi_30 d)
     4.15988483E-02    2     1000035         1   # BR(~d_L -> ~chi_40 d)
     1.40082092E-05    2    -1000024         2   # BR(~d_L -> ~chi_1- u)
     8.32325938E-02    2    -1000037         2   # BR(~d_L -> ~chi_2- u)
     8.71190580E-01    2     1000021         1   # BR(~d_L -> ~g      d)
#
#         PDG            Width
DECAY   2000001     1.67355895E+02   # sdown_R decays
#          BR         NDA      ID1       ID2
     1.76900249E-02    2     1000022         1   # BR(~d_R -> ~chi_10 d)
     1.48746229E-05    2     1000023         1   # BR(~d_R -> ~chi_20 d)
     1.77144168E-05    2     1000025         1   # BR(~d_R -> ~chi_30 d)
     1.15466432E-09    2     1000035         1   # BR(~d_R -> ~chi_40 d)
     9.82277385E-01    2     1000021         1   # BR(~d_R -> ~g      d)
#
#         PDG            Width
DECAY   1000004     1.90499506E+02   # scharm_L decays
#          BR         NDA      ID1       ID2
     3.90615408E-03    2     1000022         4   # BR(~c_L -> ~chi_10 c)
     8.18242623E-05    2     1000023         4   # BR(~c_L -> ~chi_20 c)
     6.83783818E-06    2     1000025         4   # BR(~c_L -> ~chi_30 c)
     4.15769579E-02    2     1000035         4   # BR(~c_L -> ~chi_40 c)
     2.80116176E-04    2     1000024         3   # BR(~c_L -> ~chi_1+ s)
     8.30981743E-02    2     1000037         3   # BR(~c_L -> ~chi_2+ s)
     8.71049935E-01    2     1000021         4   # BR(~c_L -> ~g      c)
#
#         PDG            Width
DECAY   2000004     1.76227776E+02   # scharm_R decays
#          BR         NDA      ID1       ID2
     6.71939514E-02    2     1000022         4   # BR(~c_R -> ~chi_10 c)
     5.64994119E-05    2     1000023         4   # BR(~c_R -> ~chi_20 c)
     6.72860145E-05    2     1000025         4   # BR(~c_R -> ~chi_30 c)
     4.38532446E-09    2     1000035         4   # BR(~c_R -> ~chi_40 c)
     9.32682259E-01    2     1000021         4   # BR(~c_R -> ~g      c)
#
#         PDG            Width
DECAY   1000003     1.90516907E+02   # sstrange_L decays
#          BR         NDA      ID1       ID2
     3.89141841E-03    2     1000022         3   # BR(~s_L -> ~chi_10 s)
     2.94150835E-05    2     1000023         3   # BR(~s_L -> ~chi_20 s)
     4.31361703E-05    2     1000025         3   # BR(~s_L -> ~chi_30 s)
     4.15988483E-02    2     1000035         3   # BR(~s_L -> ~chi_40 s)
     1.40082092E-05    2    -1000024         4   # BR(~s_L -> ~chi_1- c)
     8.32325938E-02    2    -1000037         4   # BR(~s_L -> ~chi_2- c)
     8.71190580E-01    2     1000021         3   # BR(~s_L -> ~g      s)
#
#         PDG            Width
DECAY   2000003     1.67355895E+02   # sstrange_R decays
#          BR         NDA      ID1       ID2
     1.76900249E-02    2     1000022         3   # BR(~s_R -> ~chi_10 s)
     1.48746229E-05    2     1000023         3   # BR(~s_R -> ~chi_20 s)
     1.77144168E-05    2     1000025         3   # BR(~s_R -> ~chi_30 s)
     1.15466432E-09    2     1000035         3   # BR(~s_R -> ~chi_40 s)
     9.82277385E-01    2     1000021         3   # BR(~s_R -> ~g      s)
#
#         PDG            Width
DECAY   1000011     3.02668559E+01   # selectron_L decays
#          BR         NDA      ID1       ID2
     2.26400243E-01    2     1000022        11   # BR(~e_L -> ~chi_10 e-)
     1.02969563E-03    2     1000023        11   # BR(~e_L -> ~chi_20 e-)
     1.14854362E-05    2     1000025        11   # BR(~e_L -> ~chi_30 e-)
     2.57310880E-01    2     1000035        11   # BR(~e_L -> ~chi_40 e-)
     8.98831562E-05    2    -1000024        12   # BR(~e_L -> ~chi_1- nu_e)
     5.15157812E-01    2    -1000037        12   # BR(~e_L -> ~chi_2- nu_e)
#
#         PDG            Width
DECAY   2000011     2.73707377E+01   # selectron_R decays
#          BR         NDA      ID1       ID2
     9.98169915E-01    2     1000022        11   # BR(~e_R -> ~chi_10 e-)
     8.35284430E-04    2     1000023        11   # BR(~e_R -> ~chi_20 e-)
     9.94738224E-04    2     1000025        11   # BR(~e_R -> ~chi_30 e-)
     6.26416826E-08    2     1000035        11   # BR(~e_R -> ~chi_40 e-)
#
#         PDG            Width
DECAY   1000013     3.02668559E+01   # smuon_L decays
#          BR         NDA      ID1       ID2
     2.26400243E-01    2     1000022        13   # BR(~mu_L -> ~chi_10 mu-)
     1.02969563E-03    2     1000023        13   # BR(~mu_L -> ~chi_20 mu-)
     1.14854362E-05    2     1000025        13   # BR(~mu_L -> ~chi_30 mu-)
     2.57310880E-01    2     1000035        13   # BR(~mu_L -> ~chi_40 mu-)
     8.98831562E-05    2    -1000024        14   # BR(~mu_L -> ~chi_1- nu_mu)
     5.15157812E-01    2    -1000037        14   # BR(~mu_L -> ~chi_2- nu_mu)
#
#         PDG            Width
DECAY   2000013     2.73707377E+01   # smuon_R decays
#          BR         NDA      ID1       ID2
     9.98169915E-01    2     1000022        13   # BR(~mu_R -> ~chi_10 mu-)
     8.35284430E-04    2     1000023        13   # BR(~mu_R -> ~chi_20 mu-)
     9.94738224E-04    2     1000025        13   # BR(~mu_R -> ~chi_30 mu-)
     6.26416826E-08    2     1000035        13   # BR(~mu_R -> ~chi_40 mu-)
#
#         PDG            Width
DECAY   1000015     2.91197662E+01   # stau_1 decays
#          BR         NDA      ID1       ID2
     9.29777575E-01    2     1000022        15   # BR(~tau_1 -> ~chi_10  tau-)
     1.56790081E-02    2     1000023        15   # BR(~tau_1 -> ~chi_20  tau-)
     1.49100828E-02    2     1000025        15   # BR(~tau_1 -> ~chi_30  tau-)
     3.35897162E-03    2     1000035        15   # BR(~tau_1 -> ~chi_40  tau-)
     2.95496628E-02    2    -1000024        16   # BR(~tau_1 -> ~chi_1-  nu_tau)
     6.72469957E-03    2    -1000037        16   # BR(~tau_1 -> ~chi_2-  nu_tau)
#
#         PDG            Width
DECAY   2000015     3.10883571E+01   # stau_2 decays
#          BR         NDA      ID1       ID2
     2.28219249E-01    2     1000022        15   # BR(~tau_2 -> ~chi_10  tau-)
     1.47535654E-02    2     1000023        15   # BR(~tau_2 -> ~chi_20  tau-)
     1.45678145E-02    2     1000025        15   # BR(~tau_2 -> ~chi_30  tau-)
     2.47283256E-01    2     1000035        15   # BR(~tau_2 -> ~chi_40  tau-)
     9.39730978E-05    2    -1000024        16   # BR(~tau_2 -> ~chi_1-  nu_tau)
     4.95082142E-01    2    -1000037        16   # BR(~tau_2 -> ~chi_2-  nu_tau)
#
#         PDG            Width
DECAY   1000012     3.02696484E+01   # snu_eL decays
#          BR         NDA      ID1       ID2
     2.26051347E-01    2     1000022        12   # BR(~nu_eL -> ~chi_10 nu_e)
     2.08147753E-05    2     1000023        12   # BR(~nu_eL -> ~chi_20 nu_e)
     7.09972728E-04    2     1000025        12   # BR(~nu_eL -> ~chi_30 nu_e)
     2.57364175E-01    2     1000035        12   # BR(~nu_eL -> ~chi_40 nu_e)
     1.79682461E-03    2     1000024        11   # BR(~nu_eL -> ~chi_1+ e-)
     5.14056865E-01    2     1000037        11   # BR(~nu_eL -> ~chi_2+ e-)
#
#         PDG            Width
DECAY   1000014     3.02696484E+01   # snu_muL decays
#          BR         NDA      ID1       ID2
     2.26051347E-01    2     1000022        14   # BR(~nu_muL -> ~chi_10 nu_mu)
     2.08147753E-05    2     1000023        14   # BR(~nu_muL -> ~chi_20 nu_mu)
     7.09972728E-04    2     1000025        14   # BR(~nu_muL -> ~chi_30 nu_mu)
     2.57364175E-01    2     1000035        14   # BR(~nu_muL -> ~chi_40 nu_mu)
     1.79682461E-03    2     1000024        13   # BR(~nu_muL -> ~chi_1+ mu-)
     5.14056865E-01    2     1000037        13   # BR(~nu_muL -> ~chi_2+ mu-)
#
#         PDG            Width
DECAY   1000016     3.11235772E+01   # snu_tauL decays
#          BR         NDA      ID1       ID2
     2.19825304E-01    2     1000022        16   # BR(~nu_tauL -> ~chi_10 nu_tau)
     2.02411193E-05    2     1000023        16   # BR(~nu_tauL -> ~chi_20 nu_tau)
     6.90405795E-04    2     1000025        16   # BR(~nu_tauL -> ~chi_30 nu_tau)
     2.50210258E-01    2     1000035        16   # BR(~nu_tauL -> ~chi_40 nu_tau)
     2.94864863E-02    2     1000024        15   # BR(~nu_tauL -> ~chi_1+ tau-)
     4.99767304E-01    2     1000037        15   # BR(~nu_tauL -> ~chi_2+ tau-)
#
#         PDG            Width
DECAY   1000024     6.08868793E-01   # chargino1+ decays
#          BR         NDA      ID1       ID2
     1.00000000E+00    2     1000022        24   # BR(~chi_1+ -> ~chi_10  W+)
#
#         PDG            Width
DECAY   1000037     2.04084783E+01   # chargino2+ decays
#          BR         NDA      ID1       ID2
     2.53195225E-01    2     1000024        23   # BR(~chi_2+ -> ~chi_1+  Z )
     1.97868372E-04    2     1000022        24   # BR(~chi_2+ -> ~chi_10  W+)
     2.44145644E-01    2     1000023        24   # BR(~chi_2+ -> ~chi_20  W+)
     2.44096569E-01    2     1000025        24   # BR(~chi_2+ -> ~chi_30  W+)
     2.58363525E-01    2     1000024        25   # BR(~chi_2+ -> ~chi_1+  h )
     1.16951363E-06    2     1000022        37   # BR(~chi_2+ -> ~chi_10  H+)
#
#         PDG            Width
DECAY   1000022     0.00000000E+00   # neutralino1 decays
#
#         PDG            Width
DECAY   1000023     6.35954139E-01   # neutralino2 decays
#          BR         NDA      ID1       ID2
     5.40219752E-01    2     1000022        23   # BR(~chi_20 -> ~chi_10   Z )
     4.59780248E-01    2     1000022        25   # BR(~chi_20 -> ~chi_10   h )
#
#         PDG            Width
DECAY   1000025     6.38997812E-01   # neutralino3 decays
#          BR         NDA      ID1       ID2
     4.50284043E-01    2     1000022        23   # BR(~chi_30 -> ~chi_10   Z )
     5.49715957E-01    2     1000022        25   # BR(~chi_30 -> ~chi_10   h )
#
#         PDG            Width
DECAY   1000035     2.04234978E+01   # neutralino4 decays
#          BR         NDA      ID1       ID2
     4.77429840E-05    2     1000022        23   # BR(~chi_40 -> ~chi_10   Z )
     7.27278977E-02    2     1000023        23   # BR(~chi_40 -> ~chi_20   Z )
     1.79753161E-01    2     1000025        23   # BR(~chi_40 -> ~chi_30   Z )
     2.44776140E-01    2     1000024       -24   # BR(~chi_40 -> ~chi_1+   W-)
     2.44776140E-01    2    -1000024        24   # BR(~chi_40 -> ~chi_1-   W+)
     1.51089306E-04    2     1000022        25   # BR(~chi_40 -> ~chi_10   h )
     1.09428393E-06    2     1000022        35   # BR(~chi_40 -> ~chi_10   H )
     1.34259725E-07    2     1000022        36   # BR(~chi_40 -> ~chi_10   A )
     1.84837267E-01    2     1000023        25   # BR(~chi_40 -> ~chi_20   h )
     7.29293330E-02    2     1000025        25   # BR(~chi_40 -> ~chi_30   h )
#
#         PDG            Width
DECAY        25     4.05522046E-03   # h decays
#          BR         NDA      ID1       ID2
     6.06607292E-01    2           5        -5   # BR(h -> b       bb     )
     6.39846183E-02    2         -15        15   # BR(h -> tau+    tau-   )
     2.26528607E-04    2         -13        13   # BR(h -> mu+     mu-    )
     4.80192072E-04    2           3        -3   # BR(h -> s       sb     )
     2.08074375E-02    2           4        -4   # BR(h -> c       cb     )
     6.73615505E-02    2          21        21   # BR(h -> g       g      )
     2.31704749E-03    2          22        22   # BR(h -> gam     gam    )
     1.49802931E-03    2          22        23   # BR(h -> Z       gam    )
     2.11442051E-01    2          24       -24   # BR(h -> W+      W-     )
     2.52174607E-02    2          23        23   # BR(h -> Z       Z      )
     5.77926563E-05    2     1000022   1000022   # BR(h -> ~chi_10 ~chi_10)
#
#         PDG            Width
DECAY        35     8.10594697E+00   # H decays
#          BR         NDA      ID1       ID2
     3.98703338E-01    2           5        -5   # BR(H -> b       bb     )
     6.87174894E-02    2         -15        15   # BR(H -> tau+    tau-   )
     2.42990501E-04    2         -13        13   # BR(H -> mu+     mu-    )
     2.97869100E-04    2           3        -3   # BR(H -> s       sb     )
     1.66674459E-06    2           4        -4   # BR(H -> c       cb     )
     1.66520985E-01    2           6        -6   # BR(H -> t       tb     )
     5.53385303E-05    2          21        21   # BR(H -> g       g      )
     2.68900018E-07    2          22        22   # BR(H -> gam     gam    )
     9.83342754E-08    2          23        22   # BR(H -> Z       gam    )
     7.69295530E-05    2          24       -24   # BR(H -> W+      W-     )
     3.84160912E-05    2          23        23   # BR(H -> Z       Z      )
     2.84595647E-04    2          25        25   # BR(H -> h       h      )
     1.13777494E-23    2          36        36   # BR(H -> A       A      )
     1.06286141E-18    2          23        36   # BR(H -> Z       A      )
     1.97383652E-03    2     1000024  -1000024   # BR(H -> ~chi_1+ ~chi_1-)
     1.78123530E-03    2     1000022   1000022   # BR(H -> ~chi_10 ~chi_10)
     3.94574479E-05    2     1000023   1000023   # BR(H -> ~chi_20 ~chi_20)
     5.43843629E-04    2     1000025   1000025   # BR(H -> ~chi_30 ~chi_30)
     2.16350120E-01    2     1000022   1000023   # BR(H -> ~chi_10 ~chi_20)
     1.43859153E-01    2     1000022   1000025   # BR(H -> ~chi_10 ~chi_30)
     5.12368106E-04    2     1000023   1000025   # BR(H -> ~chi_20 ~chi_30)
#
#         PDG            Width
DECAY        36     8.12224431E+00   # A decays
#          BR         NDA      ID1       ID2
     3.98037693E-01    2           5        -5   # BR(A -> b       bb     )
     6.85816658E-02    2         -15        15   # BR(A -> tau+    tau-   )
     2.42509879E-04    2         -13        13   # BR(A -> mu+     mu-    )
     2.97497233E-04    2           3        -3   # BR(A -> s       sb     )
     1.67019967E-06    2           4        -4   # BR(A -> c       cb     )
     1.66774108E-01    2           6        -6   # BR(A -> t       tb     )
     1.65027294E-04    2          21        21   # BR(A -> g       g      )
     5.74511503E-07    2          22        22   # BR(A -> gam     gam    )
     1.99883202E-07    2          23        22   # BR(A -> Z       gam    )
     7.64846442E-05    2          23        25   # BR(A -> Z       h      )
     3.22582210E-03    2     1000024  -1000024   # BR(A -> ~chi_1+ ~chi_1-)
     1.81406639E-03    2     1000022   1000022   # BR(A -> ~chi_10 ~chi_10)
     4.63419407E-05    2     1000023   1000023   # BR(A -> ~chi_20 ~chi_20)
     1.49929451E-03    2     1000025   1000025   # BR(A -> ~chi_30 ~chi_30)
     1.45628736E-01    2     1000022   1000023   # BR(A -> ~chi_10 ~chi_20)
     2.13462103E-01    2     1000022   1000025   # BR(A -> ~chi_10 ~chi_30)
     1.46206140E-04    2     1000023   1000025   # BR(A -> ~chi_20 ~chi_30)
#
#         PDG            Width
DECAY        37     8.09609984E+00   # H+ decays
#          BR         NDA      ID1       ID2
     6.42249001E-04    2           4        -5   # BR(H+ -> c       bb     )
     6.88292082E-02    2         -15        16   # BR(H+ -> tau+    nu_tau )
     2.43385207E-04    2         -13        14   # BR(H+ -> mu+     nu_mu  )
     4.11037241E-06    2           2        -5   # BR(H+ -> u       bb     )
     1.42811752E-05    2           2        -3   # BR(H+ -> u       sb     )
     2.95336108E-04    2           4        -3   # BR(H+ -> c       sb     )
     5.65232312E-01    2           6        -5   # BR(H+ -> t       bb     )
     7.68682895E-05    2          24        25   # BR(H+ -> W+      h      )
     3.08294770E-13    2          24        36   # BR(H+ -> W+      A      )
     3.63756335E-01    2     1000024   1000022   # BR(H+ -> ~chi_1+ ~chi_10)
     8.73203374E-04    2     1000024   1000023   # BR(H+ -> ~chi_1+ ~chi_20)
     3.27117362E-05    2     1000024   1000025   # BR(H+ -> ~chi_1+ ~chi_30)
