#
#                              ======================
#                              | THE SUSYHIT OUTPUT |
#                              ======================
#
#
#              ------------------------------------------------------
#              |     This is the output of the SUSY-HIT package     |
#              |  created by A.Djouadi, M.Muehlleitner and M.Spira. |
#              |  In case of problems with SUSY-HIT email to        |
#              |           margarete.muehlleitner@cern.ch           |
#              |           michael.spira@psi.ch                     |
#              |           abdelhak.djouadi@cern.ch                 |
#              ------------------------------------------------------
#
#              ------------------------------------------------------
#              |  SUSY Les Houches Accord - MSSM Spectrum + Decays  |
#              |              based on the decay programs           |
#              |                                                    |
#              |                     SDECAY 1.3b                    |
#              |                                                    |
#              |  Authors: M.Muhlleitner, A.Djouadi and Y.Mambrini  |
#              |  Ref.:    Comput.Phys.Commun.168(2005)46           |
#              |           [hep-ph/0311167]                         |
#              |                                                    |
#              |                     HDECAY 3.4                     |
#              |                                                    |
#              |  By: A.Djouadi,J.Kalinowski,M.Muhlleitner,M.Spira  |
#              |  Ref.:    Comput.Phys.Commun.108(1998)56           |
#              |           [hep-ph/9704448]                         |
#              |                                                    |
#              |                                                    |
#              |  If not stated otherwise all DRbar couplings and   |
#              |  soft SUSY breaking masses are given at the scale  |
#              |  Q=  0.50007384E+04
#              |                                                    |
#              ------------------------------------------------------
#
#
BLOCK DCINFO  # Decay Program information
     1   SDECAY/HDECAY # decay calculator
     2   1.3b  /3.4    # version number
#
BLOCK SPINFO  # Spectrum calculator information
     1    SOFTSUSY    # spectrum calculator                
     2    3.4.0       # version number                     
#
BLOCK MODSEL  # Model selection
     1     0   #  nonUniversal                                     
#
BLOCK SMINPUTS  # Standard Model inputs
         1     1.25778332E+02   # alpha_em^-1(M_Z)^MSbar
         2     1.16570000E-05   # G_F [GeV^-2]
         3     1.17200002E-01   # alpha_S(M_Z)^MSbar
         4     9.11876000E+01   # M_Z pole mass
         5     4.25000000E+00   # mb(mb)^MSbar
         6     1.72500000E+02   # mt pole mass
         7     1.77682000E+00   # mtau pole mass
#
BLOCK MINPAR  # Input parameters - minimal models
         3     1.00000000E+01   # tanb                
#
BLOCK EXTPAR  # Input parameters - non-minimal models
         0    -1.00000000E+00   # Set                 
         1     6.00000000E+01   # M_1(MX)             
         2     3.00000000E+03   # M_2(MX)             
         3     2.13913500E+03   # M_3(MX)             
        11     5.00000000E+03   # At(MX)              
        12     5.00000000E+03   # Ab(MX)              
        13     0.00000000E+00   # Atau(MX)            
        23    -1.05620900E+03   # mu(MX)              
        26     3.00000000E+03   # mA(pole)            
        31     5.00000000E+03   # meL(MX)             
        32     5.00000000E+03   # mmuL(MX)            
        33     5.00000000E+03   # mtauL(MX)           
        34     5.00000000E+03   # meR(MX)             
        35     5.00000000E+03   # mmuR(MX)            
        36     5.00000000E+03   # mtauR(MX)           
        41     5.00000000E+03   # mqL1(MX)            
        42     5.00000000E+03   # mqL2(MX)            
        43     5.00000000E+03   # mqL3(MX)            
        44     5.00000000E+03   # muR(MX)             
        45     5.00000000E+03   # mcR(MX)             
        46     5.00000000E+03   # mtR(MX)             
        47     5.00000000E+03   # mdR(MX)             
        48     5.00000000E+03   # msR(MX)             
        49     5.00000000E+03   # mbR(MX)             
#
BLOCK MASS  # Mass Spectrum
# PDG code           mass       particle
        24     8.00958126E+01   # W+
        25     1.24821314E+02   # h
        35     3.00008317E+03   # H
        36     2.99999755E+03   # A
        37     3.00103193E+03   # H+
         5     4.87878001E+00   # b-quark pole mass calculated from mb(mb)_Msbar
   1000001     5.07992914E+03   # ~d_L
   2000001     5.06216375E+03   # ~d_R
   1000002     5.07945799E+03   # ~u_L
   2000002     5.06188144E+03   # ~u_R
   1000003     5.07992914E+03   # ~s_L
   2000003     5.06216375E+03   # ~s_R
   1000004     5.07945799E+03   # ~c_L
   2000004     5.06188144E+03   # ~c_R
   1000005     5.02563492E+03   # ~b_1
   2000005     5.06071533E+03   # ~b_2
   1000006     4.91748445E+03   # ~t_1
   2000006     5.06998436E+03   # ~t_2
   1000011     5.01906377E+03   # ~e_L
   2000011     5.00592098E+03   # ~e_R
   1000012     5.01811544E+03   # ~nu_eL
   1000013     5.01906377E+03   # ~mu_L
   2000013     5.00592098E+03   # ~mu_R
   1000014     5.01811544E+03   # ~nu_muL
   1000015     5.00457005E+03   # ~tau_1
   2000015     5.01880342E+03   # ~tau_2
   1000016     5.01757063E+03   # ~nu_tauL
   1000021     2.50000018E+03   # ~g
   1000022     6.03010577E+01   # ~chi_10
   1000023     1.09959095E+03   # ~chi_20
   1000025    -1.10186390E+03   # ~chi_30
   1000035     3.07426697E+03   # ~chi_40
   1000024     1.10000062E+03   # ~chi_1+
   1000037     3.07443439E+03   # ~chi_2+
#
BLOCK NMIX  # Neutralino Mixing Matrix
  1  1     9.99178425E-01   # N_11
  1  2     1.73974199E-04   # N_12
  1  3    -4.04773031E-02   # N_13
  1  4     2.00809389E-03   # N_14
  2  1     2.72081409E-02   # N_21
  2  2     2.46688008E-02   # N_22
  2  3     7.06784893E-01   # N_23
  2  4     7.06474545E-01   # N_24
  3  1    -3.00337348E-02   # N_31
  3  2     1.45505228E-02   # N_32
  3  3    -7.06233321E-01   # N_33
  3  4     7.07192161E-01   # N_34
  4  1    -4.08184380E-04   # N_41
  4  2     9.99589767E-01   # N_42
  4  3    -7.15536501E-03   # N_43
  4  4    -2.77296205E-02   # N_44
#
BLOCK UMIX  # Chargino Mixing Matrix U
  1  1     1.01337739E-02   # U_11
  1  2     9.99948652E-01   # U_12
  2  1    -9.99948652E-01   # U_21
  2  2     1.01337739E-02   # U_22
#
BLOCK VMIX  # Chargino Mixing Matrix V
  1  1     3.92452627E-02   # V_11
  1  2    -9.99229608E-01   # V_12
  2  1    -9.99229608E-01   # V_21
  2  2    -3.92452627E-02   # V_22
#
BLOCK STOPMIX  # Stop Mixing Matrix
  1  1    -5.05646833E-01   # cos(theta_t)
  1  2     8.62740564E-01   # sin(theta_t)
  2  1    -8.62740564E-01   # -sin(theta_t)
  2  2    -5.05646833E-01   # cos(theta_t)
#
BLOCK SBOTMIX  # Sbottom Mixing Matrix
  1  1     9.96677985E-01   # cos(theta_b)
  1  2    -8.14431963E-02   # sin(theta_b)
  2  1     8.14431963E-02   # -sin(theta_b)
  2  2     9.96677985E-01   # cos(theta_b)
#
BLOCK STAUMIX  # Stau Mixing Matrix
  1  1    -1.25037576E-01   # cos(theta_tau)
  1  2     9.92152007E-01   # sin(theta_tau)
  2  1    -9.92152007E-01   # -sin(theta_tau)
  2  2    -1.25037576E-01   # cos(theta_tau)
#
BLOCK ALPHA  # Higgs mixing
          -1.05479830E-01   # Mixing angle in the neutral Higgs boson sector
#
BLOCK HMIX Q=  5.00073844E+03  # DRbar Higgs Parameters
         1    -1.07564776E+03   # mu(Q)MSSM           
         2     9.46926489E+00   # tan                 
         3     2.41873267E+02   # higgs               
         4     8.49135420E+06   # mA^2(Q)MSSM         
#
BLOCK GAUGE Q=  5.00073844E+03  # The gauge couplings
     1     3.70765481E-01   # gprime(Q) DRbar
     2     6.32414671E-01   # g(Q) DRbar
     3     9.95211051E-01   # g3(Q) DRbar
#
BLOCK AU Q=  5.00073844E+03  # The trilinear couplings
  1  1     5.00000002E+03   # A_u(Q) DRbar
  2  2     5.00000002E+03   # A_c(Q) DRbar
  3  3     5.00000002E+03   # A_t(Q) DRbar
#
BLOCK AD Q=  5.00073844E+03  # The trilinear couplings
  1  1     5.00000001E+03   # A_d(Q) DRbar
  2  2     5.00000001E+03   # A_s(Q) DRbar
  3  3     5.00000001E+03   # A_b(Q) DRbar
#
BLOCK AE Q=  5.00073844E+03  # The trilinear couplings
  1  1     0.00000000E+00   # A_e(Q) DRbar
  2  2     2.50545028E-07   # A_mu(Q) DRbar
  3  3     2.50479340E-07   # A_tau(Q) DRbar
#
BLOCK Yu Q=  5.00073844E+03  # The Yukawa couplings
  1  1     0.00000000E+00   # y_u(Q) DRbar
  2  2     0.00000000E+00   # y_c(Q) DRbar
  3  3     8.20998174E-01   # y_t(Q) DRbar
#
BLOCK Yd Q=  5.00073844E+03  # The Yukawa couplings
  1  1     0.00000000E+00   # y_d(Q) DRbar
  2  2     0.00000000E+00   # y_s(Q) DRbar
  3  3     1.31126869E-01   # y_b(Q) DRbar
#
BLOCK Ye Q=  5.00073844E+03  # The Yukawa couplings
  1  1     0.00000000E+00   # y_e(Q) DRbar
  2  2     0.00000000E+00   # y_mu(Q) DRbar
  3  3     9.67996572E-02   # y_tau(Q) DRbar
#
BLOCK MSOFT Q=  5.00073844E+03  # The soft SUSY breaking masses at the scale Q
         1     6.00000000E+01   # M_1(Q)              
         2     3.00000000E+03   # M_2(Q)              
         3     2.13913500E+03   # M_3(Q)              
        21     7.53440148E+06   # mH1^2(Q)            
        22    -5.93806415E+05   # mH2^2(Q)            
        31     5.00000000E+03   # meL(Q)              
        32     5.00000000E+03   # mmuL(Q)             
        33     5.00000000E+03   # mtauL(Q)            
        34     5.00000000E+03   # meR(Q)              
        35     5.00000000E+03   # mmuR(Q)             
        36     5.00000000E+03   # mtauR(Q)            
        41     4.99999999E+03   # mqL1(Q)             
        42     4.99999999E+03   # mqL2(Q)             
        43     4.99999999E+03   # mqL3(Q)             
        44     4.99999999E+03   # muR(Q)              
        45     4.99999999E+03   # mcR(Q)              
        46     4.99999999E+03   # mtR(Q)              
        47     4.99999999E+03   # mdR(Q)              
        48     4.99999999E+03   # msR(Q)              
        49     4.99999999E+03   # mbR(Q)              
#
#
#
#                             =================
#                             |The decay table|
#                             =================
#
# - The QCD corrections to the decays gluino -> squark  + quark
#                                     squark -> gaugino + quark_prime
#                                     squark -> squark_prime + Higgs
#                                     squark -> gluino  + quark
#   are included.
#
# - The multi-body decays for the inos, stops and sbottoms are included.
#
# - The loop induced decays for the gluino, neutralinos and stops
#   are included.
#
# - The SUSY decays of the top quark are included.
#
#
#         PDG            Width
DECAY         6     1.40151910E+00   # top decays
#          BR         NDA      ID1       ID2
     1.00000000E+00    2           5        24   # BR(t ->  b    W+)
#
#         PDG            Width
DECAY   1000021     3.06044860E-03   # gluino decays
#          BR         NDA      ID1       ID2
     2.26855112E-06    2     1000022        21   # BR(~g -> ~chi_10 g)
     5.94585748E-03    2     1000023        21   # BR(~g -> ~chi_20 g)
     5.87080853E-03    2     1000025        21   # BR(~g -> ~chi_30 g)
#           BR         NDA      ID1       ID2       ID3
     2.47233360E-02    3     1000022         1        -1   # BR(~g -> ~chi_10 d  db)
     2.29152129E-05    3     1000023         1        -1   # BR(~g -> ~chi_20 d  db)
     1.05699122E-05    3     1000025         1        -1   # BR(~g -> ~chi_30 d  db)
     8.43042136E-02    3     1000022         2        -2   # BR(~g -> ~chi_10 u  ub)
     6.36481448E-05    3     1000023         2        -2   # BR(~g -> ~chi_20 u  ub)
     1.20656327E-05    3     1000025         2        -2   # BR(~g -> ~chi_30 u  ub)
     2.47233360E-02    3     1000022         3        -3   # BR(~g -> ~chi_10 s  sb)
     2.29152129E-05    3     1000023         3        -3   # BR(~g -> ~chi_20 s  sb)
     1.05699122E-05    3     1000025         3        -3   # BR(~g -> ~chi_30 s  sb)
     8.43042136E-02    3     1000022         4        -4   # BR(~g -> ~chi_10 c  cb)
     6.36481448E-05    3     1000023         4        -4   # BR(~g -> ~chi_20 c  cb)
     1.20656327E-05    3     1000025         4        -4   # BR(~g -> ~chi_30 c  cb)
     2.50711763E-02    3     1000022         5        -5   # BR(~g -> ~chi_10 b  bb)
     4.41433440E-03    3     1000023         5        -5   # BR(~g -> ~chi_20 b  bb)
     4.36003186E-03    3     1000025         5        -5   # BR(~g -> ~chi_30 b  bb)
     8.59422492E-02    3     1000022         6        -6   # BR(~g -> ~chi_10 t  tb)
     1.62827979E-01    3     1000023         6        -6   # BR(~g -> ~chi_20 t  tb)
     1.47098615E-01    3     1000025         6        -6   # BR(~g -> ~chi_30 t  tb)
     6.51316819E-05    3     1000024         1        -2   # BR(~g -> ~chi_1+ d  ub)
     6.51316819E-05    3    -1000024         2        -1   # BR(~g -> ~chi_1- u  db)
     6.51316819E-05    3     1000024         3        -4   # BR(~g -> ~chi_1+ s  cb)
     6.51316819E-05    3    -1000024         4        -3   # BR(~g -> ~chi_1- c  sb)
     1.69966328E-01    3     1000024         5        -6   # BR(~g -> ~chi_1+ b  tb)
     1.69966328E-01    3    -1000024         6        -5   # BR(~g -> ~chi_1- t  bb)
#
#         PDG            Width
DECAY   1000006     2.92343145E+02   # stop1 decays
#          BR         NDA      ID1       ID2
     3.03773508E-02    2     1000022         6   # BR(~t_1 -> ~chi_10 t )
     1.02087804E-01    2     1000023         6   # BR(~t_1 -> ~chi_20 t )
     9.81767900E-02    2     1000025         6   # BR(~t_1 -> ~chi_30 t )
     7.05558240E-03    2     1000035         6   # BR(~t_1 -> ~chi_40 t )
     1.49460811E-01    2     1000024         5   # BR(~t_1 -> ~chi_1+ b )
     1.40534141E-02    2     1000037         5   # BR(~t_1 -> ~chi_2+ b )
     5.98788247E-01    2     1000021         6   # BR(~t_1 -> ~g      t )
#
#         PDG            Width
DECAY   2000006     3.02236338E+02   # stop2 decays
#          BR         NDA      ID1       ID2
     1.13666056E-02    2     1000022         6   # BR(~t_2 -> ~chi_10 t )
     1.01444293E-01    2     1000023         6   # BR(~t_2 -> ~chi_20 t )
     1.05592558E-01    2     1000025         6   # BR(~t_2 -> ~chi_30 t )
     1.85473822E-02    2     1000035         6   # BR(~t_2 -> ~chi_40 t )
     5.95251711E-02    2     1000024         5   # BR(~t_2 -> ~chi_1+ b )
     3.68914014E-02    2     1000037         5   # BR(~t_2 -> ~chi_2+ b )
     6.62573460E-01    2     1000021         6   # BR(~t_2 -> ~g      t )
     9.22811615E-04    2     1000006        25   # BR(~t_2 -> ~t_1    h )
     3.13631704E-03    2     1000006        23   # BR(~t_2 -> ~t_1    Z )
#
#         PDG            Width
DECAY   1000005     2.77042748E+02   # sbottom1 decays
#          BR         NDA      ID1       ID2
     2.78676854E-03    2     1000022         5   # BR(~b_1 -> ~chi_10 b )
     2.85401950E-03    2     1000023         5   # BR(~b_1 -> ~chi_20 b )
     2.76562904E-03    2     1000025         5   # BR(~b_1 -> ~chi_30 b )
     2.73166393E-02    2     1000035         5   # BR(~b_1 -> ~chi_40 b )
     2.18706748E-01    2    -1000024         6   # BR(~b_1 -> ~chi_1- t )
     5.49004821E-02    2    -1000037         6   # BR(~b_1 -> ~chi_2- t )
     6.88712594E-01    2     1000021         5   # BR(~b_1 -> ~g      b )
     1.95711979E-03    2     1000006       -24   # BR(~b_1 -> ~t_1    W-)
#
#         PDG            Width
DECAY   2000005     2.00313359E+02   # sbottom2 decays
#          BR         NDA      ID1       ID2
     1.46318913E-02    2     1000022         5   # BR(~b_2 -> ~chi_10 b )
     3.90745667E-03    2     1000023         5   # BR(~b_2 -> ~chi_20 b )
     4.02107051E-03    2     1000025         5   # BR(~b_2 -> ~chi_30 b )
     2.52524136E-04    2     1000035         5   # BR(~b_2 -> ~chi_40 b )
     9.72655978E-03    2    -1000024         6   # BR(~b_2 -> ~chi_1- t )
     5.07436251E-04    2    -1000037         6   # BR(~b_2 -> ~chi_2- t )
     9.66875107E-01    2     1000021         5   # BR(~b_2 -> ~g      b )
     7.79543317E-05    2     1000006       -24   # BR(~b_2 -> ~t_1    W-)
#
#         PDG            Width
DECAY   1000002     2.19695327E+02   # sup_L decays
#          BR         NDA      ID1       ID2
     3.39084212E-03    2     1000022         2   # BR(~u_L -> ~chi_10 u)
     7.27193309E-05    2     1000023         2   # BR(~u_L -> ~chi_20 u)
     6.09261344E-06    2     1000025         2   # BR(~u_L -> ~chi_30 u)
     3.59151629E-02    2     1000035         2   # BR(~u_L -> ~chi_40 u)
     2.49108527E-04    2     1000024         1   # BR(~u_L -> ~chi_1+ d)
     7.17810670E-02    2     1000037         1   # BR(~u_L -> ~chi_2+ d)
     8.88585007E-01    2     1000021         2   # BR(~u_L -> ~g      u)
#
#         PDG            Width
DECAY   2000002     2.05551945E+02   # sup_R decays
#          BR         NDA      ID1       ID2
     5.76791679E-02    2     1000022         2   # BR(~u_R -> ~chi_10 u)
     3.89370867E-05    2     1000023         2   # BR(~u_R -> ~chi_20 u)
     4.74250892E-05    2     1000025         2   # BR(~u_R -> ~chi_30 u)
     3.86726854E-09    2     1000035         2   # BR(~u_R -> ~chi_40 u)
     9.42234466E-01    2     1000021         2   # BR(~u_R -> ~g      u)
#
#         PDG            Width
DECAY   1000001     2.19712146E+02   # sdown_L decays
#          BR         NDA      ID1       ID2
     3.37883971E-03    2     1000022         1   # BR(~d_L -> ~chi_10 d)
     3.02879085E-05    2     1000023         1   # BR(~d_L -> ~chi_20 d)
     3.37100645E-05    2     1000025         1   # BR(~d_L -> ~chi_30 d)
     3.59348678E-02    2     1000035         1   # BR(~d_L -> ~chi_40 d)
     1.66100904E-05    2    -1000024         2   # BR(~d_L -> ~chi_1- u)
     7.19008984E-02    2    -1000037         2   # BR(~d_L -> ~chi_2- u)
     8.88704786E-01    2     1000021         1   # BR(~d_L -> ~g      d)
#
#         PDG            Width
DECAY   2000001     1.96671491E+02   # sdown_R decays
#          BR         NDA      ID1       ID2
     1.50717562E-02    2     1000022         1   # BR(~d_R -> ~chi_10 d)
     1.01744974E-05    2     1000023         1   # BR(~d_R -> ~chi_20 d)
     1.23924646E-05    2     1000025         1   # BR(~d_R -> ~chi_30 d)
     1.01065981E-09    2     1000035         1   # BR(~d_R -> ~chi_40 d)
     9.84905676E-01    2     1000021         1   # BR(~d_R -> ~g      d)
#
#         PDG            Width
DECAY   1000004     2.19695327E+02   # scharm_L decays
#          BR         NDA      ID1       ID2
     3.39084212E-03    2     1000022         4   # BR(~c_L -> ~chi_10 c)
     7.27193309E-05    2     1000023         4   # BR(~c_L -> ~chi_20 c)
     6.09261344E-06    2     1000025         4   # BR(~c_L -> ~chi_30 c)
     3.59151629E-02    2     1000035         4   # BR(~c_L -> ~chi_40 c)
     2.49108527E-04    2     1000024         3   # BR(~c_L -> ~chi_1+ s)
     7.17810670E-02    2     1000037         3   # BR(~c_L -> ~chi_2+ s)
     8.88585007E-01    2     1000021         4   # BR(~c_L -> ~g      c)
#
#         PDG            Width
DECAY   2000004     2.05551945E+02   # scharm_R decays
#          BR         NDA      ID1       ID2
     5.76791679E-02    2     1000022         4   # BR(~c_R -> ~chi_10 c)
     3.89370867E-05    2     1000023         4   # BR(~c_R -> ~chi_20 c)
     4.74250892E-05    2     1000025         4   # BR(~c_R -> ~chi_30 c)
     3.86726854E-09    2     1000035         4   # BR(~c_R -> ~chi_40 c)
     9.42234466E-01    2     1000021         4   # BR(~c_R -> ~g      c)
#
#         PDG            Width
DECAY   1000003     2.19712146E+02   # sstrange_L decays
#          BR         NDA      ID1       ID2
     3.37883971E-03    2     1000022         3   # BR(~s_L -> ~chi_10 s)
     3.02879085E-05    2     1000023         3   # BR(~s_L -> ~chi_20 s)
     3.37100645E-05    2     1000025         3   # BR(~s_L -> ~chi_30 s)
     3.59348678E-02    2     1000035         3   # BR(~s_L -> ~chi_40 s)
     1.66100904E-05    2    -1000024         4   # BR(~s_L -> ~chi_1- c)
     7.19008984E-02    2    -1000037         4   # BR(~s_L -> ~chi_2- c)
     8.88704786E-01    2     1000021         3   # BR(~s_L -> ~g      s)
#
#         PDG            Width
DECAY   2000003     1.96671491E+02   # sstrange_R decays
#          BR         NDA      ID1       ID2
     1.50717562E-02    2     1000022         3   # BR(~s_R -> ~chi_10 s)
     1.01744974E-05    2     1000023         3   # BR(~s_R -> ~chi_20 s)
     1.23924646E-05    2     1000025         3   # BR(~s_R -> ~chi_30 s)
     1.01065981E-09    2     1000035         3   # BR(~s_R -> ~chi_40 s)
     9.84905676E-01    2     1000021         3   # BR(~s_R -> ~g      s)
#
#         PDG            Width
DECAY   1000011     3.02601460E+01   # selectron_L decays
#          BR         NDA      ID1       ID2
     2.26500448E-01    2     1000022        11   # BR(~e_L -> ~chi_10 e-)
     9.86765991E-04    2     1000023        11   # BR(~e_L -> ~chi_20 e-)
     5.58777501E-06    2     1000025        11   # BR(~e_L -> ~chi_30 e-)
     2.57278523E-01    2     1000035        11   # BR(~e_L -> ~chi_40 e-)
     1.22820779E-04    2    -1000024        12   # BR(~e_L -> ~chi_1- nu_e)
     5.15105854E-01    2    -1000037        12   # BR(~e_L -> ~chi_2- nu_e)
#
#         PDG            Width
DECAY   2000011     2.73684054E+01   # selectron_R decays
#          BR         NDA      ID1       ID2
     9.98511966E-01    2     1000022        11   # BR(~e_R -> ~chi_10 e-)
     6.70867933E-04    2     1000023        11   # BR(~e_R -> ~chi_20 e-)
     8.17100978E-04    2     1000025        11   # BR(~e_R -> ~chi_30 e-)
     6.46653501E-08    2     1000035        11   # BR(~e_R -> ~chi_40 e-)
#
#         PDG            Width
DECAY   1000013     3.02601460E+01   # smuon_L decays
#          BR         NDA      ID1       ID2
     2.26500448E-01    2     1000022        13   # BR(~mu_L -> ~chi_10 mu-)
     9.86765991E-04    2     1000023        13   # BR(~mu_L -> ~chi_20 mu-)
     5.58777501E-06    2     1000025        13   # BR(~mu_L -> ~chi_30 mu-)
     2.57278523E-01    2     1000035        13   # BR(~mu_L -> ~chi_40 mu-)
     1.22820779E-04    2    -1000024        14   # BR(~mu_L -> ~chi_1- nu_mu)
     5.15105854E-01    2    -1000037        14   # BR(~mu_L -> ~chi_2- nu_mu)
#
#         PDG            Width
DECAY   2000013     2.73684054E+01   # smuon_R decays
#          BR         NDA      ID1       ID2
     9.98511966E-01    2     1000022        13   # BR(~mu_R -> ~chi_10 mu-)
     6.70867933E-04    2     1000023        13   # BR(~mu_R -> ~chi_20 mu-)
     8.17100978E-04    2     1000025        13   # BR(~mu_R -> ~chi_30 mu-)
     6.46653501E-08    2     1000035        13   # BR(~mu_R -> ~chi_40 mu-)
#
#         PDG            Width
DECAY   1000015     2.90933596E+01   # stau_1 decays
#          BR         NDA      ID1       ID2
     9.28969640E-01    2     1000022        15   # BR(~tau_1 -> ~chi_10  tau-)
     1.53510679E-02    2     1000023        15   # BR(~tau_1 -> ~chi_20  tau-)
     1.44818046E-02    2     1000025        15   # BR(~tau_1 -> ~chi_30  tau-)
     4.04138644E-03    2     1000035        15   # BR(~tau_1 -> ~chi_40  tau-)
     2.90649492E-02    2    -1000024        16   # BR(~tau_1 -> ~chi_1-  nu_tau)
     8.09115204E-03    2    -1000037        16   # BR(~tau_1 -> ~chi_2-  nu_tau)
#
#         PDG            Width
DECAY   2000015     3.10584990E+01   # stau_2 decays
#          BR         NDA      ID1       ID2
     2.30240592E-01    2     1000022        15   # BR(~tau_2 -> ~chi_10  tau-)
     1.44011881E-02    2     1000023        15   # BR(~tau_2 -> ~chi_20  tau-)
     1.43383320E-02    2     1000025        15   # BR(~tau_2 -> ~chi_30  tau-)
     2.46799002E-01    2     1000035        15   # BR(~tau_2 -> ~chi_40  tau-)
     9.61383703E-05    2    -1000024        16   # BR(~tau_2 -> ~chi_1-  nu_tau)
     4.94124748E-01    2    -1000037        16   # BR(~tau_2 -> ~chi_2-  nu_tau)
#
#         PDG            Width
DECAY   1000012     3.02628111E+01   # snu_eL decays
#          BR         NDA      ID1       ID2
     2.26168843E-01    2     1000022        12   # BR(~nu_eL -> ~chi_10 nu_e)
     4.54337592E-05    2     1000023        12   # BR(~nu_eL -> ~chi_20 nu_e)
     6.18019837E-04    2     1000025        12   # BR(~nu_eL -> ~chi_30 nu_e)
     2.57336827E-01    2     1000035        12   # BR(~nu_eL -> ~chi_40 nu_e)
     1.84148009E-03    2     1000024        11   # BR(~nu_eL -> ~chi_1+ e-)
     5.13989396E-01    2     1000037        11   # BR(~nu_eL -> ~chi_2+ e-)
#
#         PDG            Width
DECAY   1000014     3.02628111E+01   # snu_muL decays
#          BR         NDA      ID1       ID2
     2.26168843E-01    2     1000022        14   # BR(~nu_muL -> ~chi_10 nu_mu)
     4.54337592E-05    2     1000023        14   # BR(~nu_muL -> ~chi_20 nu_mu)
     6.18019837E-04    2     1000025        14   # BR(~nu_muL -> ~chi_30 nu_mu)
     2.57336827E-01    2     1000035        14   # BR(~nu_muL -> ~chi_40 nu_mu)
     1.84148009E-03    2     1000024        13   # BR(~nu_muL -> ~chi_1+ mu-)
     5.13989396E-01    2     1000037        13   # BR(~nu_muL -> ~chi_2+ mu-)
#
#         PDG            Width
DECAY   1000016     3.11010058E+01   # snu_tauL decays
#          BR         NDA      ID1       ID2
     2.20049522E-01    2     1000022        16   # BR(~nu_tauL -> ~chi_10 nu_tau)
     4.42035183E-05    2     1000023        16   # BR(~nu_tauL -> ~chi_20 nu_tau)
     6.01285235E-04    2     1000025        16   # BR(~nu_tauL -> ~chi_30 nu_tau)
     2.50308893E-01    2     1000035        16   # BR(~nu_tauL -> ~chi_40 nu_tau)
     2.90440993E-02    2     1000024        15   # BR(~nu_tauL -> ~chi_1+ tau-)
     4.99951997E-01    2     1000037        15   # BR(~nu_tauL -> ~chi_2+ tau-)
#
#         PDG            Width
DECAY   1000024     6.71663588E-01   # chargino1+ decays
#          BR         NDA      ID1       ID2
     1.00000000E+00    2     1000022        24   # BR(~chi_1+ -> ~chi_10  W+)
#
#         PDG            Width
DECAY   1000037     2.00471767E+01   # chargino2+ decays
#          BR         NDA      ID1       ID2
     2.53106432E-01    2     1000024        23   # BR(~chi_2+ -> ~chi_1+  Z )
     2.05841484E-04    2     1000022        24   # BR(~chi_2+ -> ~chi_10  W+)
     2.44055599E-01    2     1000023        24   # BR(~chi_2+ -> ~chi_20  W+)
     2.44029663E-01    2     1000025        24   # BR(~chi_2+ -> ~chi_30  W+)
     2.58601534E-01    2     1000024        25   # BR(~chi_2+ -> ~chi_1+  h )
     9.29754342E-07    2     1000022        37   # BR(~chi_2+ -> ~chi_10  H+)
#
#         PDG            Width
DECAY   1000022     0.00000000E+00   # neutralino1 decays
#
#         PDG            Width
DECAY   1000023     7.02880684E-01   # neutralino2 decays
#          BR         NDA      ID1       ID2
     5.44441180E-01    2     1000022        23   # BR(~chi_20 -> ~chi_10   Z )
     4.55558820E-01    2     1000022        25   # BR(~chi_20 -> ~chi_10   h )
#
#         PDG            Width
DECAY   1000025     7.07354801E-01   # neutralino3 decays
#          BR         NDA      ID1       ID2
     4.43578050E-01    2     1000022        23   # BR(~chi_30 -> ~chi_10   Z )
     5.56421950E-01    2     1000022        25   # BR(~chi_30 -> ~chi_10   h )
#
#         PDG            Width
DECAY   1000035     2.00608520E+01   # neutralino4 decays
#          BR         NDA      ID1       ID2
     5.54566804E-05    2     1000022        23   # BR(~chi_40 -> ~chi_10   Z )
     6.53758570E-02    2     1000023        23   # BR(~chi_40 -> ~chi_20   Z )
     1.87012548E-01    2     1000025        23   # BR(~chi_40 -> ~chi_30   Z )
     2.44693035E-01    2     1000024       -24   # BR(~chi_40 -> ~chi_1+   W-)
     2.44693035E-01    2    -1000024        24   # BR(~chi_40 -> ~chi_1-   W+)
     1.52343508E-04    2     1000022        25   # BR(~chi_40 -> ~chi_10   h )
     8.62154472E-07    2     1000022        35   # BR(~chi_40 -> ~chi_10   H )
     1.08992379E-07    2     1000022        36   # BR(~chi_40 -> ~chi_10   A )
     1.92482004E-01    2     1000023        25   # BR(~chi_40 -> ~chi_20   h )
     6.55347495E-02    2     1000025        25   # BR(~chi_40 -> ~chi_30   h )
#
#         PDG            Width
DECAY        25     4.05553133E-03   # h decays
#          BR         NDA      ID1       ID2
     6.06623677E-01    2           5        -5   # BR(h -> b       bb     )
     6.39791248E-02    2         -15        15   # BR(h -> tau+    tau-   )
     2.26509153E-04    2         -13        13   # BR(h -> mu+     mu-    )
     4.80150159E-04    2           3        -3   # BR(h -> s       sb     )
     2.08059877E-02    2           4        -4   # BR(h -> c       cb     )
     6.73577603E-02    2          21        21   # BR(h -> g       g      )
     2.31701847E-03    2          22        22   # BR(h -> gam     gam    )
     1.49807113E-03    2          22        23   # BR(h -> Z       gam    )
     2.11441481E-01    2          24       -24   # BR(h -> W+      W-     )
     2.52188560E-02    2          23        23   # BR(h -> Z       Z      )
     5.13640678E-05    2     1000022   1000022   # BR(h -> ~chi_10 ~chi_10)
#
#         PDG            Width
DECAY        35     7.95566666E+00   # H decays
#          BR         NDA      ID1       ID2
     4.07114224E-01    2           5        -5   # BR(H -> b       bb     )
     7.00184994E-02    2         -15        15   # BR(H -> tau+    tau-   )
     2.47590975E-04    2         -13        13   # BR(H -> mu+     mu-    )
     3.03508559E-04    2           3        -3   # BR(H -> s       sb     )
     1.69812936E-06    2           4        -4   # BR(H -> c       cb     )
     1.69656574E-01    2           6        -6   # BR(H -> t       tb     )
     5.63686420E-05    2          21        21   # BR(H -> g       g      )
     3.01277208E-07    2          22        22   # BR(H -> gam     gam    )
     1.00191130E-07    2          23        22   # BR(H -> Z       gam    )
     7.78299595E-05    2          24       -24   # BR(H -> W+      W-     )
     3.88657258E-05    2          23        23   # BR(H -> Z       Z      )
     2.89188921E-04    2          25        25   # BR(H -> h       h      )
     1.66761936E-23    2          36        36   # BR(H -> A       A      )
     1.15771677E-18    2          23        36   # BR(H -> Z       A      )
     1.60318916E-03    2     1000024  -1000024   # BR(H -> ~chi_1+ ~chi_1-)
     1.49978169E-03    2     1000022   1000022   # BR(H -> ~chi_10 ~chi_10)
     5.86851858E-05    2     1000023   1000023   # BR(H -> ~chi_20 ~chi_20)
     3.73068038E-04    2     1000025   1000025   # BR(H -> ~chi_30 ~chi_30)
     2.08801089E-01    2     1000022   1000023   # BR(H -> ~chi_10 ~chi_20)
     1.39517089E-01    2     1000022   1000025   # BR(H -> ~chi_10 ~chi_30)
     3.42348035E-04    2     1000023   1000025   # BR(H -> ~chi_20 ~chi_30)
#
#         PDG            Width
DECAY        36     7.97413997E+00   # A decays
#          BR         NDA      ID1       ID2
     4.06307680E-01    2           5        -5   # BR(A -> b       bb     )
     6.98583099E-02    2         -15        15   # BR(A -> tau+    tau-   )
     2.47024187E-04    2         -13        13   # BR(A -> mu+     mu-    )
     3.03035137E-04    2           3        -3   # BR(A -> s       sb     )
     1.70114934E-06    2           4        -4   # BR(A -> c       cb     )
     1.69864519E-01    2           6        -6   # BR(A -> t       tb     )
     1.68088299E-04    2          21        21   # BR(A -> g       g      )
     5.55021339E-07    2          22        22   # BR(A -> gam     gam    )
     2.03602969E-07    2          23        22   # BR(A -> Z       gam    )
     7.73555788E-05    2          23        25   # BR(A -> Z       h      )
     3.10234214E-03    2     1000024  -1000024   # BR(A -> ~chi_1+ ~chi_1-)
     1.53055173E-03    2     1000022   1000022   # BR(A -> ~chi_10 ~chi_10)
     8.27931720E-05    2     1000023   1000023   # BR(A -> ~chi_20 ~chi_20)
     1.23671557E-03    2     1000025   1000025   # BR(A -> ~chi_30 ~chi_30)
     1.41076488E-01    2     1000022   1000023   # BR(A -> ~chi_10 ~chi_20)
     2.06073951E-01    2     1000022   1000025   # BR(A -> ~chi_10 ~chi_30)
     6.86868720E-05    2     1000023   1000025   # BR(A -> ~chi_20 ~chi_30)
#
#         PDG            Width
DECAY        37     7.94803318E+00   # H+ decays
#          BR         NDA      ID1       ID2
     6.55511266E-04    2           4        -5   # BR(H+ -> c       bb     )
     7.01119383E-02    2         -15        16   # BR(H+ -> tau+    nu_tau )
     2.47921036E-04    2         -13        14   # BR(H+ -> mu+     nu_mu  )
     4.19525050E-06    2           2        -5   # BR(H+ -> u       bb     )
     1.45473903E-05    2           2        -3   # BR(H+ -> u       sb     )
     3.00841326E-04    2           4        -3   # BR(H+ -> c       sb     )
     5.76559942E-01    2           6        -5   # BR(H+ -> t       bb     )
     7.77398804E-05    2          24        25   # BR(H+ -> W+      h      )
     1.95795185E-13    2          24        36   # BR(H+ -> W+      A      )
     3.51306529E-01    2     1000024   1000022   # BR(H+ -> ~chi_1+ ~chi_10)
     6.72804644E-04    2     1000024   1000023   # BR(H+ -> ~chi_1+ ~chi_20)
     4.80303145E-05    2     1000024   1000025   # BR(H+ -> ~chi_1+ ~chi_30)
