#
#                              ======================
#                              | THE SUSYHIT OUTPUT |
#                              ======================
#
#
#              ------------------------------------------------------
#              |     This is the output of the SUSY-HIT package     |
#              |  created by A.Djouadi, M.Muehlleitner and M.Spira. |
#              |  In case of problems with SUSY-HIT email to        |
#              |           margarete.muehlleitner@kit.edu           |
#              |           michael.spira@psi.ch                     |
#              |           abdelhak.djouadi@cern.ch                 |
#              ------------------------------------------------------
#
#              ------------------------------------------------------
#              |  SUSY Les Houches Accord - MSSM Spectrum + Decays  |
#              |              based on the decay programs           |
#              |                                                    |
#              |                     SDECAY 1.5                     |
#              |                                                    |
#              |  Authors: M.Muhlleitner, A.Djouadi and Y.Mambrini  |
#              |  Ref.:    Comput.Phys.Commun.168(2005)46           |
#              |           [hep-ph/0311167]                         |
#              |                                                    |
#              |                     HDECAY 3.4                     |
#              |                                                    |
#              |  By: A.Djouadi,J.Kalinowski,M.Muhlleitner,M.Spira  |
#              |  Ref.:    Comput.Phys.Commun.108(1998)56           |
#              |           [hep-ph/9704448]                         |
#              |                                                    |
#              |                                                    |
#              |  If not stated otherwise all DRbar couplings and   |
#              |  soft SUSY breaking masses are given at the scale  |
#              |  Q=  0.91187600E+02
#              |                                                    |
#              ------------------------------------------------------
#
#
BLOCK DCINFO  # Decay Program information
     1   SDECAY/HDECAY # decay calculator
     2   1.5  /3.4    # version number
#
BLOCK SPINFO  # Spectrum calculator information
     1   SuSpect     # RGE +Spectrum calculator            
     2   2.43         # version number                     
#
BLOCK MODSEL  # Model selection
     1     2   # GMSB                                              
#
BLOCK SMINPUTS  # Standard Model inputs
         1     1.27932904E+02   # alpha_em^-1(M_Z)^MSbar
         2     1.16639000E-05   # G_F [GeV^-2]
         3     1.17200000E-01   # alpha_S(M_Z)^MSbar
         4     9.11870000E+01   # M_Z pole mass
         5     4.25000000E+00   # mb(mb)^MSbar
         6     1.72900000E+02   # mt pole mass
         7     1.77700000E+00   # mtau pole mass
#
BLOCK MINPAR  # Input parameters - minimal models
#
BLOCK EXTPAR  # Input parameters - non-minimal models
         0     9.11876000E+01   # EWSB                
         1     1.92900000E+03   # M_1                 
         2     3.00000000E+03   # M_2                 
         3     2.00000000E+03   # M_3                 
        11     0.00000000E+00   # A_t                 
        12     0.00000000E+00   # A_b                 
        13     0.00000000E+00   # A_tau               
        14     0.00000000E+00   # A_u                 
        15     0.00000000E+00   # A_d                 
        16     0.00000000E+00   # A_e                 
        23     1.94500000E+03   # mu(EWSB)            
        25     1.50000000E+00   # tanbeta(in)         
        26     2.00000000E+03   # MA_pole             
        31     5.00000000E+03   # M_eL                
        32     5.00000000E+03   # M_muL               
        33     5.00000000E+03   # M_tauL              
        34     5.00000000E+03   # M_eR                
        35     5.00000000E+03   # M_muR               
        36     5.00000000E+03   # M_tauR              
        41     5.00000000E+03   # M_q1L               
        42     5.00000000E+03   # M_q2L               
        43     5.00000000E+03   # M_q3L               
        44     5.00000000E+03   # M_uR                
        45     5.00000000E+03   # M_cR                
        46     5.00000000E+03   # M_tR                
        47     5.00000000E+03   # M_dR                
        48     5.00000000E+03   # M_sR                
        49     5.00000000E+03   # M_bR                
#
BLOCK MASS  # Mass Spectrum
# PDG code           mass       particle
        24     8.05420893E+01   # W+
        25     1.26000000E+02   # h
        35     2.00399446E+03   # H
        36     2.00000000E+03   # A
        37     2.00151883E+03   # H+
         5     4.87877839E+00   # b-quark pole mass calculated from mb(mb)_Msbar
   1000001     4.94269495E+03   # ~d_L
   2000001     4.94258483E+03   # ~d_R
   1000002     4.94244871E+03   # ~u_L
   2000002     4.94250684E+03   # ~u_R
   1000003     4.94269495E+03   # ~s_L
   2000003     4.94258483E+03   # ~s_R
   1000004     4.94244871E+03   # ~c_L
   2000004     4.94250684E+03   # ~c_R
   1000005     4.94183624E+03   # ~b_1
   2000005     4.94344489E+03   # ~b_2
   1000006     5.05237246E+03   # ~t_1
   2000006     5.34118163E+03   # ~t_2
   1000011     5.00008215E+03   # ~e_L
   2000011     5.00007616E+03   # ~e_R
   1000012     4.99984169E+03   # ~nu_eL
   1000013     5.00008215E+03   # ~mu_L
   2000013     5.00007616E+03   # ~mu_R
   1000014     4.99984169E+03   # ~nu_muL
   1000015     4.99956048E+03   # ~tau_1
   2000015     5.00059840E+03   # ~tau_2
   1000016     4.99984169E+03   # ~nu_tauL
   1000021     2.06305831E+03   # ~g
   1000022     2.00761849E+03   # ~chi_10
   1000023    -2.06128420E+03   # ~chi_20
   1000025     2.09506209E+03   # ~chi_30
   1000035     3.12509658E+03   # ~chi_40
   1000024     2.05561497E+03   # ~chi_1+
   1000037     3.12508737E+03   # ~chi_2+
   1000039     1.00000000E-09   # ~gravitino
#
BLOCK NMIX  # Neutralino Mixing Matrix
  1  1     7.40507016E-01   # N_11
  1  2    -4.67289761E-02   # N_12
  1  3     4.75307351E-01   # N_13
  1  4    -4.72809353E-01   # N_14
  2  1     2.12501001E-03   # N_21
  2  2    -2.99430297E-03   # N_22
  2  3    -7.07046288E-01   # N_23
  2  4    -7.07157737E-01   # N_24
  3  1     6.72038701E-01   # N_31
  3  2     5.59086350E-02   # N_32
  3  3    -5.21278407E-01   # N_33
  3  4     5.22978997E-01   # N_34
  4  1     2.97118027E-03   # N_41
  4  2    -9.97337286E-01   # N_42
  4  3    -4.93689346E-02   # N_43
  4  4     5.35930864E-02   # N_44
#
BLOCK UMIX  # Chargino Mixing Matrix U
  1  1    -6.97028008E-02   # U_11
  1  2     9.97567802E-01   # U_12
  2  1     9.97567802E-01   # U_21
  2  2     6.97028008E-02   # U_22
#
BLOCK VMIX  # Chargino Mixing Matrix V
  1  1    -7.56732475E-02   # V_11
  1  2     9.97132669E-01   # V_12
  2  1     9.97132669E-01   # V_21
  2  2     7.56732475E-02   # V_22
#
BLOCK STOPMIX  # Stop Mixing Matrix
  1  1     9.99793236E-01   # cos(theta_t)
  1  2     2.03343367E-02   # sin(theta_t)
  2  1    -2.03343367E-02   # -sin(theta_t)
  2  2     9.99793236E-01   # cos(theta_t)
#
BLOCK SBOTMIX  # Sbottom Mixing Matrix
  1  1     6.82476070E-01   # cos(theta_b)
  1  2     7.30907938E-01   # sin(theta_b)
  2  1    -7.30907938E-01   # -sin(theta_b)
  2  2     6.82476070E-01   # cos(theta_b)
#
BLOCK STAUMIX  # Stau Mixing Matrix
  1  1     7.05065004E-01   # cos(theta_tau)
  1  2     7.09142680E-01   # sin(theta_tau)
  2  1    -7.09142680E-01   # -sin(theta_tau)
  2  2     7.05065004E-01   # cos(theta_tau)
#
BLOCK ALPHA  # Higgs mixing
          -5.90199005E-01   # Mixing angle in the neutral Higgs boson sector
#
BLOCK HMIX Q=  9.11876000E+01  # DRbar Higgs Parameters
         1     1.94500000E+03   # mu(Q)               
         2     1.49999979E+00   # tanbeta(Q)          
         3     2.52327064E+02   # vev(Q)              
         4     3.06452795E+06   # MA^2(Q)             
#
BLOCK GAUGE Q=  9.11876000E+01  # The gauge couplings
     1     3.52709470E-01   # gprime(Q) DRbar
     2     6.26710334E-01   # g(Q) DRbar
     3     1.08044708E+00   # g3(Q) DRbar
#
BLOCK AU Q=  9.11876000E+01  # The trilinear couplings
  1  1     0.00000000E+00   # A_u(Q) DRbar
  2  2     0.00000000E+00   # A_c(Q) DRbar
  3  3     0.00000000E+00   # A_t(Q) DRbar
#
BLOCK AD Q=  9.11876000E+01  # The trilinear couplings
  1  1     0.00000000E+00   # A_d(Q) DRbar
  2  2     0.00000000E+00   # A_s(Q) DRbar
  3  3     0.00000000E+00   # A_b(Q) DRbar
#
BLOCK AE Q=  9.11876000E+01  # The trilinear couplings
  1  1     0.00000000E+00   # A_e(Q) DRbar
  2  2     0.00000000E+00   # A_mu(Q) DRbar
  3  3     0.00000000E+00   # A_tau(Q) DRbar
#
BLOCK Yu Q=  9.11876000E+01  # The Yukawa couplings
  1  1     0.00000000E+00   # y_u(Q) DRbar
  2  2     0.00000000E+00   # y_c(Q) DRbar
  3  3     1.02480364E+00   # y_t(Q) DRbar
#
BLOCK Yd Q=  9.11876000E+01  # The Yukawa couplings
  1  1     0.00000000E+00   # y_d(Q) DRbar
  2  2     0.00000000E+00   # y_s(Q) DRbar
  3  3     2.71381611E-02   # y_b(Q) DRbar
#
BLOCK Ye Q=  9.11876000E+01  # The Yukawa couplings
  1  1     0.00000000E+00   # y_e(Q) DRbar
  2  2     0.00000000E+00   # y_mu(Q) DRbar
  3  3     1.79728586E-02   # y_tau(Q) DRbar
#
BLOCK MSOFT Q=  9.11876000E+01  # The soft SUSY breaking masses at the scale Q
         1     1.92900000E+03   # M_1                 
         2     3.00000000E+03   # M_2                 
         3     2.00000000E+03   # M_3                 
        14     0.00000000E+00   # A_u                 
        15     0.00000000E+00   # A_d                 
        16     0.00000000E+00   # A_e                 
        21    -1.18941468E+06   # M^2_Hd              
        22    -8.90852759E+06   # M^2_Hu              
        31     5.00000000E+03   # M_eL                
        32     5.00000000E+03   # M_muL               
        33     5.00000000E+03   # M_tauL              
        34     5.00000000E+03   # M_eR                
        35     5.00000000E+03   # M_muR               
        36     5.00000000E+03   # M_tauR              
        41     5.00000000E+03   # M_q1L               
        42     5.00000000E+03   # M_q2L               
        43     5.00000000E+03   # M_q3L               
        44     5.00000000E+03   # M_uR                
        45     5.00000000E+03   # M_cR                
        46     5.00000000E+03   # M_tR                
        47     5.00000000E+03   # M_dR                
        48     5.00000000E+03   # M_sR                
        49     5.00000000E+03   # M_bR                
#
#
#
#                             =================
#                             |The decay table|
#                             =================
#
# - The QCD corrections to the decays gluino -> squark  + quark
#                                     squark -> gaugino + quark_prime
#                                     squark -> squark_prime + Higgs
#                                     squark -> gluino  + quark
#   are included.
#
# - The multi-body decays for the inos, stops and sbottoms are included.
#
# - The loop induced decays for the gluino, neutralinos and stops
#   are included.
#
# - The SUSY decays of the top quark are included.
#
# - Possible decays of the NLSP in GMSB models are included.
#
#
#         PDG            Width
DECAY         6     1.36841154E+00   # top decays
#          BR         NDA      ID1       ID2
     1.00000000E+00    2           5        24   # BR(t ->  b    W+)
#
#         PDG            Width
DECAY   1000021     4.30297176E-05   # gluino decays
#          BR         NDA      ID1       ID2
     5.53239900E-05    2     1000022        21   # BR(~g -> ~chi_10 g)
     4.25053715E-09    2     1000023        21   # BR(~g -> ~chi_20 g)
#          BR         NDA      ID1       ID2
0.0E+00    2     1000039    21 # BR(~g -> ~G      g)
#           BR         NDA      ID1       ID2       ID3
     1.46510654E-07    3     1000022         1        -1   # BR(~g -> ~chi_10 d  db)
     1.87478454E-19    3     1000023         1        -1   # BR(~g -> ~chi_20 d  db)
     4.16349464E-07    3     1000022         2        -2   # BR(~g -> ~chi_10 u  ub)
     1.43253192E-19    3     1000023         2        -2   # BR(~g -> ~chi_20 u  ub)
     1.46510654E-07    3     1000022         3        -3   # BR(~g -> ~chi_10 s  sb)
     1.87478454E-19    3     1000023         3        -3   # BR(~g -> ~chi_20 s  sb)
     4.16349464E-07    3     1000022         4        -4   # BR(~g -> ~chi_10 c  cb)
     1.43253192E-19    3     1000023         4        -4   # BR(~g -> ~chi_20 c  cb)
     1.28820600E-07    3     1000022         5        -5   # BR(~g -> ~chi_10 b  bb)
     6.33094215E-13    3     1000024         1        -2   # BR(~g -> ~chi_1+ d  ub)
     6.33094215E-13    3    -1000024         2        -1   # BR(~g -> ~chi_1- u  db)
     6.33094215E-13    3     1000024         3        -4   # BR(~g -> ~chi_1+ s  cb)
     6.33094215E-13    3    -1000024         4        -3   # BR(~g -> ~chi_1- c  sb)
#
#         PDG            Width
DECAY   1000006     2.59284029E+02   # stop1 decays
#          BR         NDA      ID1       ID2
     4.43396357E-02    2     1000022         6   # BR(~t_1 -> ~chi_10 t )
     9.68713692E-02    2     1000023         6   # BR(~t_1 -> ~chi_20 t )
     5.40851045E-02    2     1000025         6   # BR(~t_1 -> ~chi_30 t )
     2.85984661E-02    2     1000035         6   # BR(~t_1 -> ~chi_40 t )
     1.56423957E-04    2     1000024         5   # BR(~t_1 -> ~chi_1+ b )
     5.61622940E-02    2     1000037         5   # BR(~t_1 -> ~chi_2+ b )
     7.11489468E-01    2     1000021         6   # BR(~t_1 -> ~g      t )
     4.06086083E-03    2     1000005        24   # BR(~t_1 -> ~b_1    W+)
     4.23637749E-03    2     2000005        24   # BR(~t_1 -> ~b_2    W+)
#
#         PDG            Width
DECAY   2000006     3.20457162E+02   # stop2 decays
#          BR         NDA      ID1       ID2
     5.32921317E-02    2     1000022         6   # BR(~t_2 -> ~chi_10 t )
     8.70100205E-02    2     1000023         6   # BR(~t_2 -> ~chi_20 t )
     5.90000684E-02    2     1000025         6   # BR(~t_2 -> ~chi_30 t )
     1.84346751E-04    2     1000035         6   # BR(~t_2 -> ~chi_40 t )
     1.74108864E-01    2     1000024         5   # BR(~t_2 -> ~chi_1+ b )
     3.70866601E-04    2     1000037         5   # BR(~t_2 -> ~chi_2+ b )
     6.25566250E-01    2     1000021         6   # BR(~t_2 -> ~g      t )
     4.75209793E-06    2     1000006        25   # BR(~t_2 -> ~t_1    h )
     6.86184325E-05    2     1000006        23   # BR(~t_2 -> ~t_1    Z )
     1.84799978E-04    2     1000005        24   # BR(~t_2 -> ~b_1    W+)
     2.09281635E-04    2     2000005        24   # BR(~t_2 -> ~b_2    W+)
#
#         PDG            Width
DECAY   1000005     2.10816573E+02   # sbottom1 decays
#          BR         NDA      ID1       ID2
     4.31792207E-03    2     1000022         5   # BR(~b_1 -> ~chi_10 b )
     7.21238680E-05    2     1000023         5   # BR(~b_1 -> ~chi_20 b )
     1.73137586E-03    2     1000025         5   # BR(~b_1 -> ~chi_30 b )
     1.42727579E-02    2     1000035         5   # BR(~b_1 -> ~chi_40 b )
     1.01694965E-01    2    -1000024         6   # BR(~b_1 -> ~chi_1- t )
     2.90812424E-02    2    -1000037         6   # BR(~b_1 -> ~chi_2- t )
     8.48829613E-01    2     1000021         5   # BR(~b_1 -> ~g      b )
#
#         PDG            Width
DECAY   2000005     2.17978028E+02   # sbottom2 decays
#          BR         NDA      ID1       ID2
     2.55481667E-03    2     1000022         5   # BR(~b_2 -> ~chi_10 b )
     8.77204347E-05    2     1000023         5   # BR(~b_2 -> ~chi_20 b )
     2.35420242E-03    2     1000025         5   # BR(~b_2 -> ~chi_30 b )
     1.70309009E-02    2     1000035         5   # BR(~b_2 -> ~chi_40 b )
     1.22716252E-01    2    -1000024         6   # BR(~b_2 -> ~chi_1- t )
     3.47080333E-02    2    -1000037         6   # BR(~b_2 -> ~chi_2- t )
     8.20548074E-01    2     1000021         5   # BR(~b_2 -> ~g      b )
#
#         PDG            Width
DECAY   1000002     1.99688856E+02   # sup_L decays
#          BR         NDA      ID1       ID2
     5.53288514E-04    2     1000022         2   # BR(~u_L -> ~chi_10 u)
     4.29323032E-07    2     1000023         2   # BR(~u_L -> ~chi_20 u)
     2.08119425E-03    2     1000025         2   # BR(~u_L -> ~chi_30 u)
     3.35762545E-02    2     1000035         2   # BR(~u_L -> ~chi_40 u)
     7.31483134E-04    2     1000024         1   # BR(~u_L -> ~chi_1+ d)
     6.72005721E-02    2     1000037         1   # BR(~u_L -> ~chi_2+ d)
     8.95856778E-01    2     1000021         2   # BR(~u_L -> ~g      u)
#
#         PDG            Width
DECAY   2000002     1.86102145E+02   # sup_R decays
#          BR         NDA      ID1       ID2
     2.15696055E-02    2     1000022         2   # BR(~u_R -> ~chi_10 u)
     1.73861020E-07    2     1000023         2   # BR(~u_R -> ~chi_20 u)
     1.71488277E-02    2     1000025         2   # BR(~u_R -> ~chi_30 u)
     1.80256428E-07    2     1000035         2   # BR(~u_R -> ~chi_40 u)
     9.61281213E-01    2     1000021         2   # BR(~u_R -> ~g      u)
#
#         PDG            Width
DECAY   1000001     1.99697394E+02   # sdown_L decays
#          BR         NDA      ID1       ID2
     2.24382885E-03    2     1000022         1   # BR(~d_L -> ~chi_10 d)
     7.33612959E-07    2     1000023         1   # BR(~d_L -> ~chi_20 d)
     3.09396522E-04    2     1000025         1   # BR(~d_L -> ~chi_30 d)
     3.36560631E-02    2     1000035         1   # BR(~d_L -> ~chi_40 d)
     6.20642139E-04    2    -1000024         2   # BR(~d_L -> ~chi_1- u)
     6.72685586E-02    2    -1000037         2   # BR(~d_L -> ~chi_2- u)
     8.95900777E-01    2     1000021         1   # BR(~d_L -> ~g      d)
#
#         PDG            Width
DECAY   2000001     1.80703165E+02   # sdown_R decays
#          BR         NDA      ID1       ID2
     5.55367063E-03    2     1000022         1   # BR(~d_R -> ~chi_10 d)
     4.47651961E-08    2     1000023         1   # BR(~d_R -> ~chi_20 d)
     4.41542931E-03    2     1000025         1   # BR(~d_R -> ~chi_30 d)
     4.64131810E-08    2     1000035         1   # BR(~d_R -> ~chi_40 d)
     9.90030809E-01    2     1000021         1   # BR(~d_R -> ~g      d)
#
#         PDG            Width
DECAY   1000004     1.99688856E+02   # scharm_L decays
#          BR         NDA      ID1       ID2
     5.53288514E-04    2     1000022         4   # BR(~c_L -> ~chi_10 c)
     4.29323032E-07    2     1000023         4   # BR(~c_L -> ~chi_20 c)
     2.08119425E-03    2     1000025         4   # BR(~c_L -> ~chi_30 c)
     3.35762545E-02    2     1000035         4   # BR(~c_L -> ~chi_40 c)
     7.31483134E-04    2     1000024         3   # BR(~c_L -> ~chi_1+ s)
     6.72005721E-02    2     1000037         3   # BR(~c_L -> ~chi_2+ s)
     8.95856778E-01    2     1000021         4   # BR(~c_L -> ~g      c)
#
#         PDG            Width
DECAY   2000004     1.86102145E+02   # scharm_R decays
#          BR         NDA      ID1       ID2
     2.15696055E-02    2     1000022         4   # BR(~c_R -> ~chi_10 c)
     1.73861020E-07    2     1000023         4   # BR(~c_R -> ~chi_20 c)
     1.71488277E-02    2     1000025         4   # BR(~c_R -> ~chi_30 c)
     1.80256428E-07    2     1000035         4   # BR(~c_R -> ~chi_40 c)
     9.61281213E-01    2     1000021         4   # BR(~c_R -> ~g      c)
#
#         PDG            Width
DECAY   1000003     1.99697394E+02   # sstrange_L decays
#          BR         NDA      ID1       ID2
     2.24382885E-03    2     1000022         3   # BR(~s_L -> ~chi_10 s)
     7.33612959E-07    2     1000023         3   # BR(~s_L -> ~chi_20 s)
     3.09396522E-04    2     1000025         3   # BR(~s_L -> ~chi_30 s)
     3.36560631E-02    2     1000035         3   # BR(~s_L -> ~chi_40 s)
     6.20642139E-04    2    -1000024         4   # BR(~s_L -> ~chi_1- c)
     6.72685586E-02    2    -1000037         4   # BR(~s_L -> ~chi_2- c)
     8.95900777E-01    2     1000021         3   # BR(~s_L -> ~g      s)
#
#         PDG            Width
DECAY   2000003     1.80703165E+02   # sstrange_R decays
#          BR         NDA      ID1       ID2
     5.55367063E-03    2     1000022         3   # BR(~s_R -> ~chi_10 s)
     4.47651961E-08    2     1000023         3   # BR(~s_R -> ~chi_20 s)
     4.41542931E-03    2     1000025         3   # BR(~s_R -> ~chi_30 s)
     4.64131810E-08    2     1000035         3   # BR(~s_R -> ~chi_40 s)
     9.90030809E-01    2     1000021         3   # BR(~s_R -> ~g      s)
#
#         PDG            Width
DECAY   1000011     2.61435375E+01   # selectron_L decays
#          BR         NDA      ID1       ID2
     7.19794260E-02    2     1000022        11   # BR(~e_L -> ~chi_10 e-)
     1.66497330E-06    2     1000023        11   # BR(~e_L -> ~chi_20 e-)
     9.57184782E-02    2     1000025        11   # BR(~e_L -> ~chi_30 e-)
     2.75059331E-01    2     1000035        11   # BR(~e_L -> ~chi_40 e-)
     5.01374035E-03    2    -1000024        12   # BR(~e_L -> ~chi_1- nu_e)
     5.52227360E-01    2    -1000037        12   # BR(~e_L -> ~chi_2- nu_e)
#
#         PDG            Width
DECAY   2000011     1.71460386E+01   # selectron_R decays
#          BR         NDA      ID1       ID2
     5.56884913E-01    2     1000022        11   # BR(~e_R -> ~chi_10 e-)
     4.49093865E-06    2     1000023        11   # BR(~e_R -> ~chi_20 e-)
     4.43105864E-01    2     1000025        11   # BR(~e_R -> ~chi_30 e-)
     4.73169803E-06    2     1000035        11   # BR(~e_R -> ~chi_40 e-)
#
#         PDG            Width
DECAY   1000013     2.61435375E+01   # smuon_L decays
#          BR         NDA      ID1       ID2
     7.19794260E-02    2     1000022        13   # BR(~mu_L -> ~chi_10 mu-)
     1.66497330E-06    2     1000023        13   # BR(~mu_L -> ~chi_20 mu-)
     9.57184782E-02    2     1000025        13   # BR(~mu_L -> ~chi_30 mu-)
     2.75059331E-01    2     1000035        13   # BR(~mu_L -> ~chi_40 mu-)
     5.01374035E-03    2    -1000024        14   # BR(~mu_L -> ~chi_1- nu_mu)
     5.52227360E-01    2    -1000037        14   # BR(~mu_L -> ~chi_2- nu_mu)
#
#         PDG            Width
DECAY   2000013     1.71460386E+01   # smuon_R decays
#          BR         NDA      ID1       ID2
     5.56884913E-01    2     1000022        13   # BR(~mu_R -> ~chi_10 mu-)
     4.49093865E-06    2     1000023        13   # BR(~mu_R -> ~chi_20 mu-)
     4.43105864E-01    2     1000025        13   # BR(~mu_R -> ~chi_30 mu-)
     4.73169803E-06    2     1000035        13   # BR(~mu_R -> ~chi_40 mu-)
#
#         PDG            Width
DECAY   1000015     2.16937345E+01   # stau_1 decays
#          BR         NDA      ID1       ID2
     2.70373646E-01    2     1000022        15   # BR(~tau_1 -> ~chi_10  tau-)
     4.38472515E-04    2     1000023        15   # BR(~tau_1 -> ~chi_20  tau-)
     2.29594712E-01    2     1000025        15   # BR(~tau_1 -> ~chi_30  tau-)
     1.64056812E-01    2     1000035        15   # BR(~tau_1 -> ~chi_40  tau-)
     5.99423308E-03    2    -1000024        16   # BR(~tau_1 -> ~chi_1-  nu_tau)
     3.29376353E-01    2    -1000037        16   # BR(~tau_1 -> ~chi_2-  nu_tau)
     1.65772015E-04    2     1000039        15   # BR(~tau_1 -> ~G       tau-)
#
#         PDG            Width
DECAY   2000015     2.16658513E+01   # stau_2 decays
#          BR         NDA      ID1       ID2
     2.57309810E-01    2     1000022        15   # BR(~tau_2 -> ~chi_10  tau-)
     5.88145208E-04    2     1000023        15   # BR(~tau_2 -> ~chi_20  tau-)
     2.36830297E-01    2     1000025        15   # BR(~tau_2 -> ~chi_30  tau-)
     1.67645698E-01    2     1000035        15   # BR(~tau_2 -> ~chi_40  tau-)
     1.06619112E-03    2    -1000024        16   # BR(~tau_2 -> ~chi_1-  nu_tau)
     3.36559859E-01    2    -1000037        16   # BR(~tau_2 -> ~chi_2-  nu_tau)
#
#         PDG            Width
DECAY   1000012     2.61463976E+01   # snu_eL decays
#          BR         NDA      ID1       ID2
     1.12909234E-01    2     1000022        12   # BR(~nu_eL -> ~chi_10 nu_e)
     9.03751440E-06    2     1000023        12   # BR(~nu_eL -> ~chi_20 nu_e)
     5.27501873E-02    2     1000025        12   # BR(~nu_eL -> ~chi_30 nu_e)
     2.76832474E-01    2     1000035        12   # BR(~nu_eL -> ~chi_40 nu_e)
     5.90827547E-03    2     1000024        11   # BR(~nu_eL -> ~chi_1+ e-)
     5.51590792E-01    2     1000037        11   # BR(~nu_eL -> ~chi_2+ e-)
#
#         PDG            Width
DECAY   1000014     2.61463976E+01   # snu_muL decays
#          BR         NDA      ID1       ID2
     1.12909234E-01    2     1000022        14   # BR(~nu_muL -> ~chi_10 nu_mu)
     9.03751440E-06    2     1000023        14   # BR(~nu_muL -> ~chi_20 nu_mu)
     5.27501873E-02    2     1000025        14   # BR(~nu_muL -> ~chi_30 nu_mu)
     2.76832474E-01    2     1000035        14   # BR(~nu_muL -> ~chi_40 nu_mu)
     5.90827547E-03    2     1000024        13   # BR(~nu_muL -> ~chi_1+ mu-)
     5.51590792E-01    2     1000037        13   # BR(~nu_muL -> ~chi_2+ mu-)
#
#         PDG            Width
DECAY   1000016     2.61685254E+01   # snu_tauL decays
#          BR         NDA      ID1       ID2
     1.12813759E-01    2     1000022        16   # BR(~nu_tauL -> ~chi_10 nu_tau)
     9.02987236E-06    2     1000023        16   # BR(~nu_tauL -> ~chi_20 nu_tau)
     5.27055823E-02    2     1000025        16   # BR(~nu_tauL -> ~chi_30 nu_tau)
     2.76598387E-01    2     1000035        16   # BR(~nu_tauL -> ~chi_40 nu_tau)
     6.74541891E-03    2     1000024        15   # BR(~nu_tauL -> ~chi_1+ tau-)
     5.51127823E-01    2     1000037        15   # BR(~nu_tauL -> ~chi_2+ tau-)
#
#         PDG            Width
DECAY   1000024     1.78688174E-04   # chargino1+ decays
#          BR         NDA      ID1       ID2
     1.18145639E-01    2     1000039        24   # BR(~chi_1+ -> ~G       W+)
     8.56142382E-07    2     1000039        37   # BR(~chi_1+ -> ~G       H+)
#           BR         NDA      ID1       ID2       ID3
     2.94171237E-01    3     1000022         2        -1   # BR(~chi_1+ -> ~chi_10 u    db)
     2.94171237E-01    3     1000022         4        -3   # BR(~chi_1+ -> ~chi_10 c    sb)
     9.80571793E-02    3     1000022       -11        12   # BR(~chi_1+ -> ~chi_10 e+   nu_e)
     9.80571793E-02    3     1000022       -13        14   # BR(~chi_1+ -> ~chi_10 mu+  nu_mu)
     9.73966729E-02    3     1000022       -15        16   # BR(~chi_1+ -> ~chi_10 tau+ nu_tau)
#
#         PDG            Width
DECAY   1000037     3.53501124E+01   # chargino2+ decays
#          BR         NDA      ID1       ID2
     2.54057414E-01    2     1000024        23   # BR(~chi_2+ -> ~chi_1+  Z )
     1.03632665E-01    2     1000022        24   # BR(~chi_2+ -> ~chi_10  W+)
     2.46061657E-01    2     1000023        24   # BR(~chi_2+ -> ~chi_20  W+)
     1.44131873E-01    2     1000025        24   # BR(~chi_2+ -> ~chi_30  W+)
     2.52106730E-01    2     1000024        25   # BR(~chi_2+ -> ~chi_1+  h )
     9.65773767E-06    2     1000039        24   # BR(~chi_2+ -> ~G       W+)
     3.01046164E-09    2     1000039        37   # BR(~chi_2+ -> ~G       H+)
#
#         PDG            Width
DECAY   1000022    1.0E-05    # neutralino1 decays
#          BR         NDA      ID1       ID2
     5.02206935E-01    2     1000039        22   # BR(~chi_10 -> ~G        gam)
     4.87289889E-01    2     1000039        23   # BR(~chi_10 -> ~G        Z)
     1.05031757E-02    2     1000039        25   # BR(~chi_10 -> ~G        h)
     4.75103526E-11    2     1000039        35   # BR(~chi_10 -> ~G        H)
     3.78757919E-11    2     1000039        36   # BR(~chi_10 -> ~G        A)
#
#         PDG            Width
DECAY   1000023     2.46306974E-04   # neutralino2 decays
#          BR         NDA      ID1       ID2
     2.34892616E-04    2     1000022        22   # BR(~chi_20 -> ~chi_10 gam)
#          BR         NDA      ID1       ID2
     2.55547454E-08    2     1000039        22   # BR(~chi_20 -> ~G        gam)
     3.32375952E-03    2     1000039        23   # BR(~chi_20 -> ~G        Z)
     8.24555056E-02    2     1000039        25   # BR(~chi_20 -> ~G        h)
     2.95131496E-08    2     1000039        35   # BR(~chi_20 -> ~G        H)
     9.84602228E-07    2     1000039        36   # BR(~chi_20 -> ~G        A)
#           BR         NDA      ID1       ID2       ID3
     1.08197674E-01    3     1000022        -2         2   # BR(~chi_20 -> ~chi_10 ub      u)
     1.40109581E-01    3     1000022        -1         1   # BR(~chi_20 -> ~chi_10 db      d)
     1.08197674E-01    3     1000022        -4         4   # BR(~chi_20 -> ~chi_10 cb      c)
     1.40109581E-01    3     1000022        -3         3   # BR(~chi_20 -> ~chi_10 sb      s)
     1.29839903E-01    3     1000022        -5         5   # BR(~chi_20 -> ~chi_10 bb      b)
     3.20033544E-02    3     1000022       -11        11   # BR(~chi_20 -> ~chi_10 e+      e-)
     3.20033544E-02    3     1000022       -13        13   # BR(~chi_20 -> ~chi_10 mu+     mu-)
     3.17269969E-02    3     1000022       -15        15   # BR(~chi_20 -> ~chi_10 tau+    tau-)
     6.39155005E-02    3     1000022       -12        12   # BR(~chi_20 -> ~chi_10 nu_eb   nu_e)
     6.39155005E-02    3     1000022       -14        14   # BR(~chi_20 -> ~chi_10 nu_mub  nu_mu)
     6.39155005E-02    3     1000022       -16        16   # BR(~chi_20 -> ~chi_10 nu_taub nu_tau)
     8.72698946E-06    3     1000024        -2         1   # BR(~chi_20 -> ~chi_1+ ub      d)
     8.72698946E-06    3    -1000024        -1         2   # BR(~chi_20 -> ~chi_1- db      u)
     8.72698946E-06    3     1000024        -4         3   # BR(~chi_20 -> ~chi_1+ cb      s)
     8.72698946E-06    3    -1000024        -3         4   # BR(~chi_20 -> ~chi_1- sb      c)
     2.90899670E-06    3     1000024       -12        11   # BR(~chi_20 -> ~chi_1+ nu_eb   e-)
     2.90899670E-06    3    -1000024        12       -11   # BR(~chi_20 -> ~chi_1- nu_e    e+)
     2.90899670E-06    3     1000024       -14        13   # BR(~chi_20 -> ~chi_1+ nu_mub  mu-)
     2.90899670E-06    3    -1000024        14       -13   # BR(~chi_20 -> ~chi_1- nu_mu   mu+)
     1.81907101E-06    3     1000024       -16        15   # BR(~chi_20 -> ~chi_1+ nu_taub tau-)
     1.81907101E-06    3    -1000024        16       -15   # BR(~chi_20 -> ~chi_1- nu_tau  tau+)
#
#         PDG            Width
DECAY   1000025     1.89712037E-04   # neutralino3 decays
#          BR         NDA      ID1       ID2
     4.43390245E-04    2     1000022        22   # BR(~chi_30 -> ~chi_10 gam)
     5.58140617E-06    2     1000023        22   # BR(~chi_30 -> ~chi_20 gam)
#          BR         NDA      ID1       ID2
     9.20681583E-02    2     1000039        22   # BR(~chi_30 -> ~G        gam)
     8.29449785E-02    2     1000039        23   # BR(~chi_30 -> ~G        Z)
     2.51706398E-03    2     1000039        25   # BR(~chi_30 -> ~G        h)
     3.35980487E-06    2     1000039        35   # BR(~chi_30 -> ~G        H)
     1.56333560E-07    2     1000039        36   # BR(~chi_30 -> ~G        A)
#           BR         NDA      ID1       ID2       ID3
     1.83004918E-05    3     1000022        -2         2   # BR(~chi_30 -> ~chi_10 ub      u)
     2.18919493E-05    3     1000022        -1         1   # BR(~chi_30 -> ~chi_10 db      d)
     1.83004918E-05    3     1000022        -4         4   # BR(~chi_30 -> ~chi_10 cb      c)
     2.18919493E-05    3     1000022        -3         3   # BR(~chi_30 -> ~chi_10 sb      s)
     7.64562882E-05    3     1000022        -5         5   # BR(~chi_30 -> ~chi_10 bb      b)
     3.88404844E-06    3     1000022       -11        11   # BR(~chi_30 -> ~chi_10 e+      e-)
     3.88404844E-06    3     1000022       -13        13   # BR(~chi_30 -> ~chi_10 mu+     mu-)
     1.21781600E-05    3     1000022       -15        15   # BR(~chi_30 -> ~chi_10 tau+    tau-)
     1.06297752E-05    3     1000022       -12        12   # BR(~chi_30 -> ~chi_10 nu_eb   nu_e)
     1.06297752E-05    3     1000022       -14        14   # BR(~chi_30 -> ~chi_10 nu_mub  nu_mu)
     1.06297752E-05    3     1000022       -16        16   # BR(~chi_30 -> ~chi_10 nu_taub nu_tau)
     1.47398430E-02    3     1000023        -2         2   # BR(~chi_30 -> ~chi_20 ub      u)
     1.90872426E-02    3     1000023        -1         1   # BR(~chi_30 -> ~chi_20 db      d)
     1.47398430E-02    3     1000023        -4         4   # BR(~chi_30 -> ~chi_20 cb      c)
     1.90872426E-02    3     1000023        -3         3   # BR(~chi_30 -> ~chi_20 sb      s)
     1.58679442E-02    3     1000023        -5         5   # BR(~chi_30 -> ~chi_20 bb      b)
     4.35984669E-03    3     1000023       -11        11   # BR(~chi_30 -> ~chi_20 e+      e-)
     4.35984669E-03    3     1000023       -13        13   # BR(~chi_30 -> ~chi_20 mu+     mu-)
     4.28438404E-03    3     1000023       -15        15   # BR(~chi_30 -> ~chi_20 tau+    tau-)
     8.70723011E-03    3     1000023       -12        12   # BR(~chi_30 -> ~chi_20 nu_eb   nu_e)
     8.70723011E-03    3     1000023       -14        14   # BR(~chi_30 -> ~chi_20 nu_mub  nu_mu)
     8.70723011E-03    3     1000023       -16        16   # BR(~chi_30 -> ~chi_20 nu_taub nu_tau)
     1.16656779E-01    3     1000024        -2         1   # BR(~chi_30 -> ~chi_1+ ub      d)
     1.16656779E-01    3    -1000024        -1         2   # BR(~chi_30 -> ~chi_1- db      u)
     1.16656779E-01    3     1000024        -4         3   # BR(~chi_30 -> ~chi_1+ cb      s)
     1.16656779E-01    3    -1000024        -3         4   # BR(~chi_30 -> ~chi_1- sb      c)
     3.88855370E-02    3     1000024       -12        11   # BR(~chi_30 -> ~chi_1+ nu_eb   e-)
     3.88855370E-02    3    -1000024        12       -11   # BR(~chi_30 -> ~chi_1- nu_e    e+)
     3.88855370E-02    3     1000024       -14        13   # BR(~chi_30 -> ~chi_1+ nu_mub  mu-)
     3.88855370E-02    3    -1000024        14       -13   # BR(~chi_30 -> ~chi_1- nu_mu   mu+)
     3.84956835E-02    3     1000024       -16        15   # BR(~chi_30 -> ~chi_1+ nu_taub tau-)
     3.84956835E-02    3    -1000024        16       -15   # BR(~chi_30 -> ~chi_1- nu_tau  tau+)
     4.54596951E-08    3     1000021        -2         2   # BR(~chi_30 -> ~g      ub      u)
     1.08331105E-08    3     1000021        -1         1   # BR(~chi_30 -> ~g      db      d)
     4.54596951E-08    3     1000021        -4         4   # BR(~chi_30 -> ~g      cb      c)
     1.08331105E-08    3     1000021        -3         3   # BR(~chi_30 -> ~g      sb      s)
     7.53668765E-09    3     1000021        -5         5   # BR(~chi_30 -> ~g      bb      b)
#
#         PDG            Width
DECAY   1000035     3.53489615E+01   # neutralino4 decays
#          BR         NDA      ID1       ID2
     1.91780471E-04    2     1000022        23   # BR(~chi_40 -> ~chi_10   Z )
     2.52564820E-01    2     1000023        23   # BR(~chi_40 -> ~chi_20   Z )
     2.37009349E-04    2     1000025        23   # BR(~chi_40 -> ~chi_30   Z )
     2.47107734E-01    2     1000024       -24   # BR(~chi_40 -> ~chi_1+   W-)
     2.47107734E-01    2    -1000024        24   # BR(~chi_40 -> ~chi_1-   W+)
     1.05527997E-01    2     1000022        25   # BR(~chi_40 -> ~chi_10   h )
     4.14495672E-04    2     1000023        25   # BR(~chi_40 -> ~chi_20   h )
     1.46838769E-01    2     1000025        25   # BR(~chi_40 -> ~chi_30   h )
     2.29825351E-06    2     1000039        22   # BR(~chi_40 -> ~G        gam)
     7.35808047E-06    2     1000039        23   # BR(~chi_40 -> ~G        Z)
     1.40216188E-09    2     1000039        25   # BR(~chi_40 -> ~G        h)
     2.92767822E-09    2     1000039        35   # BR(~chi_40 -> ~G        H)
     7.59790037E-11    2     1000039        36   # BR(~chi_40 -> ~G        A)
#
#         PDG            Width
DECAY        25     4.22211190E-03   # h decays
#          BR         NDA      ID1       ID2
     6.02263676E-01    2           5        -5   # BR(h -> b       bb     )
     6.21828856E-02    2         -15        15   # BR(h -> tau+    tau-   )
     2.20100305E-04    2         -13        13   # BR(h -> mu+     mu-    )
     4.65689775E-04    2           3        -3   # BR(h -> s       sb     )
     2.00910469E-02    2           4        -4   # BR(h -> c       cb     )
     6.63508480E-02    2          21        21   # BR(h -> g       g      )
     2.30426152E-03    2          22        22   # BR(h -> gam     gam    )
     1.62524760E-03    2          22        23   # BR(h -> Z       gam    )
     2.16440255E-01    2          24       -24   # BR(h -> W+      W-     )
     2.80559896E-02    2          23        23   # BR(h -> Z       Z      )
#
#         PDG            Width
DECAY        35     3.78092179E+01   # H decays
#          BR         NDA      ID1       ID2
     1.46602538E-03    2           5        -5   # BR(H -> b       bb     )
     2.46432574E-04    2         -15        15   # BR(H -> tau+    tau-   )
     8.71230897E-07    2         -13        13   # BR(H -> mu+     mu-    )
     1.11549516E-06    2           3        -3   # BR(H -> s       sb     )
     1.00668982E-05    2           4        -4   # BR(H -> c       cb     )
     9.96072586E-01    2           6        -6   # BR(H -> t       tb     )
     7.97750184E-04    2          21        21   # BR(H -> g       g      )
     2.71792830E-06    2          22        22   # BR(H -> gam     gam    )
     1.16034769E-06    2          23        22   # BR(H -> Z       gam    )
     3.33709767E-04    2          24       -24   # BR(H -> W+      W-     )
     1.66399813E-04    2          23        23   # BR(H -> Z       Z      )
     9.01164183E-04    2          25        25   # BR(H -> h       h      )
     7.17153359E-24    2          36        36   # BR(H -> A       A      )
     2.90230222E-11    2          23        36   # BR(H -> Z       A      )
     6.46617666E-12    2          24       -37   # BR(H -> W+      H-     )
     6.46617666E-12    2         -24        37   # BR(H -> W-      H+     )
#
#         PDG            Width
DECAY        36     3.82380031E+01   # A decays
#          BR         NDA      ID1       ID2
     1.46894277E-03    2           5        -5   # BR(A -> b       bb     )
     2.43899148E-04    2         -15        15   # BR(A -> tau+    tau-   )
     8.62271596E-07    2         -13        13   # BR(A -> mu+     mu-    )
     1.13678061E-06    2           3        -3   # BR(A -> s       sb     )
     9.96182314E-06    2           4        -4   # BR(A -> c       cb     )
     9.97001828E-01    2           6        -6   # BR(A -> t       tb     )
     9.43681171E-04    2          21        21   # BR(A -> g       g      )
     3.13102864E-06    2          22        22   # BR(A -> gam     gam    )
     1.35294344E-06    2          23        22   # BR(A -> Z       gam    )
     3.25203854E-04    2          23        25   # BR(A -> Z       h      )
#
#         PDG            Width
DECAY        37     3.74471393E+01   # H+ decays
#          BR         NDA      ID1       ID2
     2.35308824E-06    2           4        -5   # BR(H+ -> c       bb     )
     2.49239302E-04    2         -15        16   # BR(H+ -> tau+    nu_tau )
     8.81150968E-07    2         -13        14   # BR(H+ -> mu+     nu_mu  )
     1.49598780E-08    2           2        -5   # BR(H+ -> u       bb     )
     5.45697705E-08    2           2        -3   # BR(H+ -> u       sb     )
     1.08732337E-05    2           4        -3   # BR(H+ -> c       sb     )
     9.99403283E-01    2           6        -5   # BR(H+ -> t       bb     )
     3.33300663E-04    2          24        25   # BR(H+ -> W+      h      )
     2.83844131E-13    2          24        36   # BR(H+ -> W+      A      )
