#
#                              ======================
#                              | THE SUSYHIT OUTPUT |
#                              ======================
#
#
#              ------------------------------------------------------
#              |     This is the output of the SUSY-HIT package     |
#              |  created by A.Djouadi, M.Muehlleitner and M.Spira. |
#              |  In case of problems with SUSY-HIT email to        |
#              |           margarete.muehlleitner@cern.ch           |
#              |           michael.spira@psi.ch                     |
#              |           abdelhak.djouadi@cern.ch                 |
#              ------------------------------------------------------
#
#              ------------------------------------------------------
#              |  SUSY Les Houches Accord - MSSM Spectrum + Decays  |
#              |              based on the decay programs           |
#              |                                                    |
#              |                     SDECAY 1.3b                    |
#              |                                                    |
#              |  Authors: M.Muhlleitner, A.Djouadi and Y.Mambrini  |
#              |  Ref.:    Comput.Phys.Commun.168(2005)46           |
#              |           [hep-ph/0311167]                         |
#              |                                                    |
#              |                     HDECAY 3.4                     |
#              |                                                    |
#              |  By: A.Djouadi,J.Kalinowski,M.Muhlleitner,M.Spira  |
#              |  Ref.:    Comput.Phys.Commun.108(1998)56           |
#              |           [hep-ph/9704448]                         |
#              |                                                    |
#              |                                                    |
#              |  If not stated otherwise all DRbar couplings and   |
#              |  soft SUSY breaking masses are given at the scale  |
#              |  Q=  0.50007162E+04
#              |                                                    |
#              ------------------------------------------------------
#
#
BLOCK DCINFO  # Decay Program information
     1   SDECAY/HDECAY # decay calculator
     2   1.3b  /3.4    # version number
#
BLOCK SPINFO  # Spectrum calculator information
     1    SOFTSUSY    # spectrum calculator                
     2    3.4.0       # version number                     
#
BLOCK MODSEL  # Model selection
     1     0   #  nonUniversal                                     
#
BLOCK SMINPUTS  # Standard Model inputs
         1     1.25778332E+02   # alpha_em^-1(M_Z)^MSbar
         2     1.16570000E-05   # G_F [GeV^-2]
         3     1.17200002E-01   # alpha_S(M_Z)^MSbar
         4     9.11876000E+01   # M_Z pole mass
         5     4.25000000E+00   # mb(mb)^MSbar
         6     1.72500000E+02   # mt pole mass
         7     1.77682000E+00   # mtau pole mass
#
BLOCK MINPAR  # Input parameters - minimal models
         3     1.00000000E+01   # tanb                
#
BLOCK EXTPAR  # Input parameters - non-minimal models
         0    -1.00000000E+00   # Set                 
         1     6.00000000E+01   # M_1(MX)             
         2     3.00000000E+03   # M_2(MX)             
         3     1.85478900E+03   # M_3(MX)             
        11     5.00000000E+03   # At(MX)              
        12     5.00000000E+03   # Ab(MX)              
        13     0.00000000E+00   # Atau(MX)            
        23    -1.54443400E+03   # mu(MX)              
        26     3.00000000E+03   # mA(pole)            
        31     5.00000000E+03   # meL(MX)             
        32     5.00000000E+03   # mmuL(MX)            
        33     5.00000000E+03   # mtauL(MX)           
        34     5.00000000E+03   # meR(MX)             
        35     5.00000000E+03   # mmuR(MX)            
        36     5.00000000E+03   # mtauR(MX)           
        41     5.00000000E+03   # mqL1(MX)            
        42     5.00000000E+03   # mqL2(MX)            
        43     5.00000000E+03   # mqL3(MX)            
        44     5.00000000E+03   # muR(MX)             
        45     5.00000000E+03   # mcR(MX)             
        46     5.00000000E+03   # mtR(MX)             
        47     5.00000000E+03   # mdR(MX)             
        48     5.00000000E+03   # msR(MX)             
        49     5.00000000E+03   # mbR(MX)             
#
BLOCK MASS  # Mass Spectrum
# PDG code           mass       particle
        24     8.00968534E+01   # W+
        25     1.24803648E+02   # h
        35     3.00008272E+03   # H
        36     2.99999995E+03   # A
        37     3.00087354E+03   # H+
         5     4.87878001E+00   # b-quark pole mass calculated from mb(mb)_Msbar
   1000001     5.07472750E+03   # ~d_L
   2000001     5.05696472E+03   # ~d_R
   1000002     5.07425476E+03   # ~u_L
   2000002     5.05669146E+03   # ~u_R
   1000003     5.07472750E+03   # ~s_L
   2000003     5.05696472E+03   # ~s_R
   1000004     5.07425476E+03   # ~c_L
   2000004     5.05669146E+03   # ~c_R
   1000005     5.02080436E+03   # ~b_1
   2000005     5.05587809E+03   # ~b_2
   1000006     4.91259916E+03   # ~t_1
   2000006     5.06677138E+03   # ~t_2
   1000011     5.01904486E+03   # ~e_L
   2000011     5.00590866E+03   # ~e_R
   1000012     5.01809698E+03   # ~nu_eL
   1000013     5.01904486E+03   # ~mu_L
   2000013     5.00590866E+03   # ~mu_R
   1000014     5.01809698E+03   # ~nu_muL
   1000015     5.00431357E+03   # ~tau_1
   2000015     5.01906153E+03   # ~tau_2
   1000016     5.01755987E+03   # ~nu_tauL
   1000021     2.20000090E+03   # ~g
   1000022     6.03026303E+01   # ~chi_10
   1000023     1.59942897E+03   # ~chi_20
   1000025    -1.60194967E+03   # ~chi_30
   1000035     3.07434075E+03   # ~chi_40
   1000024     1.60000046E+03   # ~chi_1+
   1000037     3.07450826E+03   # ~chi_2+
#
BLOCK NMIX  # Neutralino Mixing Matrix
  1  1     9.99609640E-01   # N_11
  1  2     1.33218482E-04   # N_12
  1  3    -2.78755527E-02   # N_13
  1  4     1.87151843E-03   # N_14
  2  1     1.83858115E-02   # N_21
  2  2     3.29864795E-02   # N_22
  2  3     7.06888664E-01   # N_23
  2  4     7.06315985E-01   # N_24
  3  1    -2.10311818E-02   # N_31
  3  2     1.29777031E-02   # N_32
  3  3    -7.06633624E-01   # N_33
  3  4     7.07147927E-01   # N_34
  4  1    -4.67006739E-04   # N_41
  4  2     9.99371529E-01   # N_42
  4  3    -1.41524679E-02   # N_43
  4  4    -3.24967062E-02   # N_44
#
BLOCK UMIX  # Chargino Mixing Matrix U
  1  1     2.00184941E-02   # U_11
  1  2     9.99799610E-01   # U_12
  2  1    -9.99799610E-01   # U_21
  2  2     2.00184941E-02   # U_22
#
BLOCK VMIX  # Chargino Mixing Matrix V
  1  1     4.59692040E-02   # V_11
  1  2    -9.98942857E-01   # V_12
  2  1    -9.98942857E-01   # V_21
  2  2    -4.59692040E-02   # V_22
#
BLOCK STOPMIX  # Stop Mixing Matrix
  1  1    -5.11215743E-01   # cos(theta_t)
  1  2     8.59452421E-01   # sin(theta_t)
  2  1    -8.59452421E-01   # -sin(theta_t)
  2  2    -5.11215743E-01   # cos(theta_t)
#
BLOCK SBOTMIX  # Sbottom Mixing Matrix
  1  1     9.93875291E-01   # cos(theta_b)
  1  2    -1.10507493E-01   # sin(theta_b)
  2  1     1.10507493E-01   # -sin(theta_b)
  2  2     9.93875291E-01   # cos(theta_b)
#
BLOCK STAUMIX  # Stau Mixing Matrix
  1  1    -1.78623846E-01   # cos(theta_tau)
  1  2     9.83917436E-01   # sin(theta_tau)
  2  1    -9.83917436E-01   # -sin(theta_tau)
  2  2    -1.78623846E-01   # cos(theta_tau)
#
BLOCK ALPHA  # Higgs mixing
          -1.05466578E-01   # Mixing angle in the neutral Higgs boson sector
#
BLOCK HMIX Q=  5.00071622E+03  # DRbar Higgs Parameters
         1    -1.57282166E+03   # mu(Q)MSSM           
         2     9.47008481E+00   # tan                 
         3     2.41975077E+02   # higgs               
         4     8.38464875E+06   # mA^2(Q)MSSM         
#
BLOCK GAUGE Q=  5.00071622E+03  # The gauge couplings
     1     3.70683677E-01   # gprime(Q) DRbar
     2     6.32008408E-01   # g(Q) DRbar
     3     9.97096576E-01   # g3(Q) DRbar
#
BLOCK AU Q=  5.00071622E+03  # The trilinear couplings
  1  1     5.00000001E+03   # A_u(Q) DRbar
  2  2     5.00000001E+03   # A_c(Q) DRbar
  3  3     5.00000002E+03   # A_t(Q) DRbar
#
BLOCK AD Q=  5.00071622E+03  # The trilinear couplings
  1  1     5.00000001E+03   # A_d(Q) DRbar
  2  2     5.00000001E+03   # A_s(Q) DRbar
  3  3     5.00000001E+03   # A_b(Q) DRbar
#
BLOCK AE Q=  5.00071622E+03  # The trilinear couplings
  1  1     0.00000000E+00   # A_e(Q) DRbar
  2  2     2.07896642E-07   # A_mu(Q) DRbar
  3  3     2.07658142E-07   # A_tau(Q) DRbar
#
BLOCK Yu Q=  5.00071622E+03  # The Yukawa couplings
  1  1     0.00000000E+00   # y_u(Q) DRbar
  2  2     0.00000000E+00   # y_c(Q) DRbar
  3  3     8.20096838E-01   # y_t(Q) DRbar
#
BLOCK Yd Q=  5.00071622E+03  # The Yukawa couplings
  1  1     0.00000000E+00   # y_d(Q) DRbar
  2  2     0.00000000E+00   # y_s(Q) DRbar
  3  3     1.31611815E-01   # y_b(Q) DRbar
#
BLOCK Ye Q=  5.00071622E+03  # The Yukawa couplings
  1  1     0.00000000E+00   # y_e(Q) DRbar
  2  2     0.00000000E+00   # y_mu(Q) DRbar
  3  3     9.65898013E-02   # y_tau(Q) DRbar
#
BLOCK MSOFT Q=  5.00071622E+03  # The soft SUSY breaking masses at the scale Q
         1     6.00000000E+01   # M_1(Q)              
         2     3.00000000E+03   # M_2(Q)              
         3     1.85478900E+03   # M_3(Q)              
        21     6.19099280E+06   # mH1^2(Q)            
        22    -1.92796380E+06   # mH2^2(Q)            
        31     5.00000000E+03   # meL(Q)              
        32     5.00000000E+03   # mmuL(Q)             
        33     5.00000000E+03   # mtauL(Q)            
        34     5.00000000E+03   # meR(Q)              
        35     5.00000000E+03   # mmuR(Q)             
        36     5.00000000E+03   # mtauR(Q)            
        41     5.00000000E+03   # mqL1(Q)             
        42     5.00000000E+03   # mqL2(Q)             
        43     4.99999999E+03   # mqL3(Q)             
        44     5.00000000E+03   # muR(Q)              
        45     5.00000000E+03   # mcR(Q)              
        46     4.99999999E+03   # mtR(Q)              
        47     5.00000000E+03   # mdR(Q)              
        48     5.00000000E+03   # msR(Q)              
        49     5.00000000E+03   # mbR(Q)              
#
#
#
#                             =================
#                             |The decay table|
#                             =================
#
# - The QCD corrections to the decays gluino -> squark  + quark
#                                     squark -> gaugino + quark_prime
#                                     squark -> squark_prime + Higgs
#                                     squark -> gluino  + quark
#   are included.
#
# - The multi-body decays for the inos, stops and sbottoms are included.
#
# - The loop induced decays for the gluino, neutralinos and stops
#   are included.
#
# - The SUSY decays of the top quark are included.
#
#
#         PDG            Width
DECAY         6     1.39967359E+00   # top decays
#          BR         NDA      ID1       ID2
     1.00000000E+00    2           5        24   # BR(t ->  b    W+)
#
#         PDG            Width
DECAY   1000021     5.45561198E-04   # gluino decays
#          BR         NDA      ID1       ID2
     7.04221638E-06    2     1000022        21   # BR(~g -> ~chi_10 g)
     4.48815571E-03    2     1000023        21   # BR(~g -> ~chi_20 g)
     4.47006242E-03    2     1000025        21   # BR(~g -> ~chi_30 g)
#           BR         NDA      ID1       ID2       ID3
     7.04530269E-02    3     1000022         1        -1   # BR(~g -> ~chi_10 d  db)
     6.79436703E-06    3     1000023         1        -1   # BR(~g -> ~chi_20 d  db)
     9.06636128E-07    3     1000025         1        -1   # BR(~g -> ~chi_30 d  db)
     2.40195299E-01    3     1000022         2        -2   # BR(~g -> ~chi_10 u  ub)
     1.14838964E-05    3     1000023         2        -2   # BR(~g -> ~chi_20 u  ub)
     8.88780691E-07    3     1000025         2        -2   # BR(~g -> ~chi_30 u  ub)
     7.04530269E-02    3     1000022         3        -3   # BR(~g -> ~chi_10 s  sb)
     6.79436703E-06    3     1000023         3        -3   # BR(~g -> ~chi_20 s  sb)
     9.06636128E-07    3     1000025         3        -3   # BR(~g -> ~chi_30 s  sb)
     2.40195299E-01    3     1000022         4        -4   # BR(~g -> ~chi_10 c  cb)
     1.14838964E-05    3     1000023         4        -4   # BR(~g -> ~chi_20 c  cb)
     8.88780691E-07    3     1000025         4        -4   # BR(~g -> ~chi_30 c  cb)
     7.13142986E-02    3     1000022         5        -5   # BR(~g -> ~chi_10 b  bb)
     6.79917641E-04    3     1000023         5        -5   # BR(~g -> ~chi_20 b  bb)
     6.56840445E-04    3     1000025         5        -5   # BR(~g -> ~chi_30 b  bb)
     2.38339918E-01    3     1000022         6        -6   # BR(~g -> ~chi_10 t  tb)
     1.36011061E-02    3     1000023         6        -6   # BR(~g -> ~chi_20 t  tb)
     8.21553274E-03    3     1000025         6        -6   # BR(~g -> ~chi_30 t  tb)
     1.69385029E-05    3     1000024         1        -2   # BR(~g -> ~chi_1+ d  ub)
     1.69385029E-05    3    -1000024         2        -1   # BR(~g -> ~chi_1- u  db)
     1.69385029E-05    3     1000024         3        -4   # BR(~g -> ~chi_1+ s  cb)
     1.69385029E-05    3    -1000024         4        -3   # BR(~g -> ~chi_1- c  sb)
     1.84112865E-02    3     1000024         5        -6   # BR(~g -> ~chi_1+ b  tb)
     1.84112865E-02    3    -1000024         6        -5   # BR(~g -> ~chi_1- t  bb)
#
#         PDG            Width
DECAY   1000006     3.09059188E+02   # stop1 decays
#          BR         NDA      ID1       ID2
     2.85132319E-02    2     1000022         6   # BR(~t_1 -> ~chi_10 t )
     8.53076568E-02    2     1000023         6   # BR(~t_1 -> ~chi_20 t )
     8.19582491E-02    2     1000025         6   # BR(~t_1 -> ~chi_30 t )
     7.02887111E-03    2     1000035         6   # BR(~t_1 -> ~chi_40 t )
     1.23140359E-01    2     1000024         5   # BR(~t_1 -> ~chi_1+ b )
     1.39734835E-02    2     1000037         5   # BR(~t_1 -> ~chi_2+ b )
     6.60078149E-01    2     1000021         6   # BR(~t_1 -> ~g      t )
#
#         PDG            Width
DECAY   2000006     3.21822254E+02   # stop2 decays
#          BR         NDA      ID1       ID2
     1.09550853E-02    2     1000022         6   # BR(~t_2 -> ~chi_10 t )
     8.51592668E-02    2     1000023         6   # BR(~t_2 -> ~chi_20 t )
     8.86576108E-02    2     1000025         6   # BR(~t_2 -> ~chi_30 t )
     1.70179139E-02    2     1000035         6   # BR(~t_2 -> ~chi_40 t )
     5.19689941E-02    2     1000024         5   # BR(~t_2 -> ~chi_1+ b )
     3.37713097E-02    2     1000037         5   # BR(~t_2 -> ~chi_2+ b )
     7.08497897E-01    2     1000021         6   # BR(~t_2 -> ~g      t )
     8.77829230E-04    2     1000006        25   # BR(~t_2 -> ~t_1    h )
     3.09409284E-03    2     1000006        23   # BR(~t_2 -> ~t_1    Z )
#
#         PDG            Width
DECAY   1000005     2.97899374E+02   # sbottom1 decays
#          BR         NDA      ID1       ID2
     2.62875505E-03    2     1000022         5   # BR(~b_1 -> ~chi_10 b )
     2.45003413E-03    2     1000023         5   # BR(~b_1 -> ~chi_20 b )
     2.30327810E-03    2     1000025         5   # BR(~b_1 -> ~chi_30 b )
     2.51319230E-02    2     1000035         5   # BR(~b_1 -> ~chi_40 b )
     1.79913301E-01    2    -1000024         6   # BR(~b_1 -> ~chi_1- t )
     5.06198221E-02    2    -1000037         6   # BR(~b_1 -> ~chi_2- t )
     7.35133233E-01    2     1000021         5   # BR(~b_1 -> ~g      b )
     1.81965381E-03    2     1000006       -24   # BR(~b_1 -> ~t_1    W-)
#
#         PDG            Width
DECAY   2000005     2.28476442E+02   # sbottom2 decays
#          BR         NDA      ID1       ID2
     1.27914183E-02    2     1000022         5   # BR(~b_2 -> ~chi_10 b )
     3.03237174E-03    2     1000023         5   # BR(~b_2 -> ~chi_20 b )
     3.17820537E-03    2     1000025         5   # BR(~b_2 -> ~chi_30 b )
     4.27424020E-04    2     1000035         5   # BR(~b_2 -> ~chi_40 b )
     8.95933668E-03    2    -1000024         6   # BR(~b_2 -> ~chi_1- t )
     8.60435921E-04    2    -1000037         6   # BR(~b_2 -> ~chi_2- t )
     9.70624471E-01    2     1000021         5   # BR(~b_2 -> ~g      b )
     1.26337187E-04    2     1000006       -24   # BR(~b_2 -> ~t_1    W-)
#
#         PDG            Width
DECAY   1000002     2.47590524E+02   # sup_L decays
#          BR         NDA      ID1       ID2
     3.01162449E-03    2     1000022         2   # BR(~u_L -> ~chi_10 u)
     8.57239615E-05    2     1000023         2   # BR(~u_L -> ~chi_20 u)
     5.03204088E-06    2     1000025         2   # BR(~u_L -> ~chi_30 u)
     3.17152699E-02    2     1000035         2   # BR(~u_L -> ~chi_40 u)
     2.70698988E-04    2     1000024         1   # BR(~u_L -> ~chi_1+ d)
     6.33797657E-02    2     1000037         1   # BR(~u_L -> ~chi_2+ d)
     9.01531885E-01    2     1000021         2   # BR(~u_L -> ~g      u)
#
#         PDG            Width
DECAY   2000002     2.33601937E+02   # sup_R decays
#          BR         NDA      ID1       ID2
     5.08227733E-02    2     1000022         2   # BR(~u_R -> ~chi_10 u)
     1.39659332E-05    2     1000023         2   # BR(~u_R -> ~chi_20 u)
     1.82611631E-05    2     1000025         2   # BR(~u_R -> ~chi_30 u)
     4.43855241E-09    2     1000035         2   # BR(~u_R -> ~chi_40 u)
     9.49144995E-01    2     1000021         2   # BR(~u_R -> ~g      u)
#
#         PDG            Width
DECAY   1000001     2.47607224E+02   # sdown_L decays
#          BR         NDA      ID1       ID2
     3.00350528E-03    2     1000022         1   # BR(~d_L -> ~chi_10 d)
     5.53448113E-05    2     1000023         1   # BR(~d_L -> ~chi_20 d)
     1.86970807E-05    2     1000025         1   # BR(~d_L -> ~chi_30 d)
     3.17344893E-02    2     1000035         1   # BR(~d_L -> ~chi_40 d)
     5.13386888E-05    2    -1000024         2   # BR(~d_L -> ~chi_1- u)
     6.35037941E-02    2    -1000037         2   # BR(~d_L -> ~chi_2- u)
     9.01632831E-01    2     1000021         1   # BR(~d_L -> ~g      d)
#
#         PDG            Width
DECAY   2000001     2.24715401E+02   # sdown_R decays
#          BR         NDA      ID1       ID2
     1.32088737E-02    2     1000022         1   # BR(~d_R -> ~chi_10 d)
     3.62984123E-06    2     1000023         1   # BR(~d_R -> ~chi_20 d)
     4.74620117E-06    2     1000025         1   # BR(~d_R -> ~chi_30 d)
     1.15372713E-09    2     1000035         1   # BR(~d_R -> ~chi_40 d)
     9.86782749E-01    2     1000021         1   # BR(~d_R -> ~g      d)
#
#         PDG            Width
DECAY   1000004     2.47590524E+02   # scharm_L decays
#          BR         NDA      ID1       ID2
     3.01162449E-03    2     1000022         4   # BR(~c_L -> ~chi_10 c)
     8.57239615E-05    2     1000023         4   # BR(~c_L -> ~chi_20 c)
     5.03204088E-06    2     1000025         4   # BR(~c_L -> ~chi_30 c)
     3.17152699E-02    2     1000035         4   # BR(~c_L -> ~chi_40 c)
     2.70698988E-04    2     1000024         3   # BR(~c_L -> ~chi_1+ s)
     6.33797657E-02    2     1000037         3   # BR(~c_L -> ~chi_2+ s)
     9.01531885E-01    2     1000021         4   # BR(~c_L -> ~g      c)
#
#         PDG            Width
DECAY   2000004     2.33601937E+02   # scharm_R decays
#          BR         NDA      ID1       ID2
     5.08227733E-02    2     1000022         4   # BR(~c_R -> ~chi_10 c)
     1.39659332E-05    2     1000023         4   # BR(~c_R -> ~chi_20 c)
     1.82611631E-05    2     1000025         4   # BR(~c_R -> ~chi_30 c)
     4.43855241E-09    2     1000035         4   # BR(~c_R -> ~chi_40 c)
     9.49144995E-01    2     1000021         4   # BR(~c_R -> ~g      c)
#
#         PDG            Width
DECAY   1000003     2.47607224E+02   # sstrange_L decays
#          BR         NDA      ID1       ID2
     3.00350528E-03    2     1000022         3   # BR(~s_L -> ~chi_10 s)
     5.53448113E-05    2     1000023         3   # BR(~s_L -> ~chi_20 s)
     1.86970807E-05    2     1000025         3   # BR(~s_L -> ~chi_30 s)
     3.17344893E-02    2     1000035         3   # BR(~s_L -> ~chi_40 s)
     5.13386888E-05    2    -1000024         4   # BR(~s_L -> ~chi_1- c)
     6.35037941E-02    2    -1000037         4   # BR(~s_L -> ~chi_2- c)
     9.01632831E-01    2     1000021         3   # BR(~s_L -> ~g      s)
#
#         PDG            Width
DECAY   2000003     2.24715401E+02   # sstrange_R decays
#          BR         NDA      ID1       ID2
     1.32088737E-02    2     1000022         3   # BR(~s_R -> ~chi_10 s)
     3.62984123E-06    2     1000023         3   # BR(~s_R -> ~chi_20 s)
     4.74620117E-06    2     1000025         3   # BR(~s_R -> ~chi_30 s)
     1.15372713E-09    2     1000035         3   # BR(~s_R -> ~chi_40 s)
     9.86782749E-01    2     1000021         3   # BR(~s_R -> ~g      s)
#
#         PDG            Width
DECAY   1000011     3.02318158E+01   # selectron_L decays
#          BR         NDA      ID1       ID2
     2.26775815E-01    2     1000022        11   # BR(~e_L -> ~chi_10 e-)
     1.02010119E-03    2     1000023        11   # BR(~e_L -> ~chi_20 e-)
     2.19686240E-07    2     1000025        11   # BR(~e_L -> ~chi_30 e-)
     2.57040629E-01    2     1000035        11   # BR(~e_L -> ~chi_40 e-)
     4.26688945E-04    2    -1000024        12   # BR(~e_L -> ~chi_1- nu_e)
     5.14736546E-01    2    -1000037        12   # BR(~e_L -> ~chi_2- nu_e)
#
#         PDG            Width
DECAY   2000011     2.73563516E+01   # selectron_R decays
#          BR         NDA      ID1       ID2
     9.99370737E-01    2     1000022        11   # BR(~e_R -> ~chi_10 e-)
     2.72663737E-04    2     1000023        11   # BR(~e_R -> ~chi_20 e-)
     3.56514802E-04    2     1000025        11   # BR(~e_R -> ~chi_30 e-)
     8.46400510E-08    2     1000035        11   # BR(~e_R -> ~chi_40 e-)
#
#         PDG            Width
DECAY   1000013     3.02318158E+01   # smuon_L decays
#          BR         NDA      ID1       ID2
     2.26775815E-01    2     1000022        13   # BR(~mu_L -> ~chi_10 mu-)
     1.02010119E-03    2     1000023        13   # BR(~mu_L -> ~chi_20 mu-)
     2.19686240E-07    2     1000025        13   # BR(~mu_L -> ~chi_30 mu-)
     2.57040629E-01    2     1000035        13   # BR(~mu_L -> ~chi_40 mu-)
     4.26688945E-04    2    -1000024        14   # BR(~mu_L -> ~chi_1- nu_mu)
     5.14736546E-01    2    -1000037        14   # BR(~mu_L -> ~chi_2- nu_mu)
#
#         PDG            Width
DECAY   2000013     2.73563516E+01   # smuon_R decays
#          BR         NDA      ID1       ID2
     9.99370737E-01    2     1000022        13   # BR(~mu_R -> ~chi_10 mu-)
     2.72663737E-04    2     1000023        13   # BR(~mu_R -> ~chi_20 mu-)
     3.56514802E-04    2     1000025        13   # BR(~mu_R -> ~chi_30 mu-)
     8.46400510E-08    2     1000035        13   # BR(~mu_R -> ~chi_40 mu-)
#
#         PDG            Width
DECAY   1000015     2.89363169E+01   # stau_1 decays
#          BR         NDA      ID1       ID2
     9.22780099E-01    2     1000022        15   # BR(~tau_1 -> ~chi_10  tau-)
     1.38741827E-02    2     1000023        15   # BR(~tau_1 -> ~chi_20  tau-)
     1.24853588E-02    2     1000025        15   # BR(~tau_1 -> ~chi_30  tau-)
     8.19918901E-03    2     1000035        15   # BR(~tau_1 -> ~chi_40  tau-)
     2.62416120E-02    2    -1000024        16   # BR(~tau_1 -> ~chi_1-  nu_tau)
     1.64195583E-02    2    -1000037        16   # BR(~tau_1 -> ~chi_2-  nu_tau)
#
#         PDG            Width
DECAY   2000015     3.08868611E+01   # stau_2 decays
#          BR         NDA      ID1       ID2
     2.42424245E-01    2     1000022        15   # BR(~tau_2 -> ~chi_10  tau-)
     1.25190561E-02    2     1000023        15   # BR(~tau_2 -> ~chi_20  tau-)
     1.28672259E-02    2     1000025        15   # BR(~tau_2 -> ~chi_30  tau-)
     2.43836797E-01    2     1000035        15   # BR(~tau_2 -> ~chi_40  tau-)
     6.01494392E-05    2    -1000024        16   # BR(~tau_2 -> ~chi_1-  nu_tau)
     4.88292526E-01    2    -1000037        16   # BR(~tau_2 -> ~chi_2-  nu_tau)
#
#         PDG            Width
DECAY   1000012     3.02336727E+01   # snu_eL decays
#          BR         NDA      ID1       ID2
     2.26513067E-01    2     1000022        12   # BR(~nu_eL -> ~chi_10 nu_e)
     2.62398845E-04    2     1000023        12   # BR(~nu_eL -> ~chi_20 nu_e)
     3.40812200E-04    2     1000025        12   # BR(~nu_eL -> ~chi_30 nu_e)
     2.57141461E-01    2     1000035        12   # BR(~nu_eL -> ~chi_40 nu_e)
     2.24924479E-03    2     1000024        11   # BR(~nu_eL -> ~chi_1+ e-)
     5.13493016E-01    2     1000037        11   # BR(~nu_eL -> ~chi_2+ e-)
#
#         PDG            Width
DECAY   1000014     3.02336727E+01   # snu_muL decays
#          BR         NDA      ID1       ID2
     2.26513067E-01    2     1000022        14   # BR(~nu_muL -> ~chi_10 nu_mu)
     2.62398845E-04    2     1000023        14   # BR(~nu_muL -> ~chi_20 nu_mu)
     3.40812200E-04    2     1000025        14   # BR(~nu_muL -> ~chi_30 nu_mu)
     2.57141461E-01    2     1000035        14   # BR(~nu_muL -> ~chi_40 nu_mu)
     2.24924479E-03    2     1000024        13   # BR(~nu_muL -> ~chi_1+ mu-)
     5.13493016E-01    2     1000037        13   # BR(~nu_muL -> ~chi_2+ mu-)
#
#         PDG            Width
DECAY   1000016     3.09758435E+01   # snu_tauL decays
#          BR         NDA      ID1       ID2
     2.21062212E-01    2     1000022        16   # BR(~nu_tauL -> ~chi_10 nu_tau)
     2.56072044E-04    2     1000023        16   # BR(~nu_tauL -> ~chi_20 nu_tau)
     3.32594688E-04    2     1000025        16   # BR(~nu_tauL -> ~chi_30 nu_tau)
     2.50889009E-01    2     1000035        16   # BR(~nu_tauL -> ~chi_40 nu_tau)
     2.64505716E-02    2     1000024        15   # BR(~nu_tauL -> ~chi_1+ tau-)
     5.01009541E-01    2     1000037        15   # BR(~nu_tauL -> ~chi_2+ tau-)
#
#         PDG            Width
DECAY   1000024     9.85239680E-01   # chargino1+ decays
#          BR         NDA      ID1       ID2
     1.00000000E+00    2     1000022        24   # BR(~chi_1+ -> ~chi_10  W+)
#
#         PDG            Width
DECAY   1000037     1.79036011E+01   # chargino2+ decays
#          BR         NDA      ID1       ID2
     2.52579719E-01    2     1000024        23   # BR(~chi_2+ -> ~chi_1+  Z )
     2.84939036E-04    2     1000022        24   # BR(~chi_2+ -> ~chi_10  W+)
     2.44112248E-01    2     1000023        24   # BR(~chi_2+ -> ~chi_20  W+)
     2.43549004E-01    2     1000025        24   # BR(~chi_2+ -> ~chi_30  W+)
     2.59473813E-01    2     1000024        25   # BR(~chi_2+ -> ~chi_1+  h )
     2.76916270E-07    2     1000022        37   # BR(~chi_2+ -> ~chi_10  H+)
#
#         PDG            Width
DECAY   1000022     0.00000000E+00   # neutralino1 decays
#
#         PDG            Width
DECAY   1000023     1.03604983E+00   # neutralino2 decays
#          BR         NDA      ID1       ID2
     5.58671630E-01    2     1000022        23   # BR(~chi_20 -> ~chi_10   Z )
     4.41328370E-01    2     1000022        25   # BR(~chi_20 -> ~chi_10   h )
#
#         PDG            Width
DECAY   1000025     1.04686696E+00   # neutralino3 decays
#          BR         NDA      ID1       ID2
     4.23589193E-01    2     1000022        23   # BR(~chi_30 -> ~chi_10   Z )
     5.76410807E-01    2     1000022        25   # BR(~chi_30 -> ~chi_10   h )
#
#         PDG            Width
DECAY   1000035     1.78979782E+01   # neutralino4 decays
#          BR         NDA      ID1       ID2
     1.07965220E-04    2     1000022        23   # BR(~chi_40 -> ~chi_10   Z )
     3.40852236E-02    2     1000023        23   # BR(~chi_40 -> ~chi_20   Z )
     2.18081679E-01    2     1000025        23   # BR(~chi_40 -> ~chi_30   Z )
     2.44204552E-01    2     1000024       -24   # BR(~chi_40 -> ~chi_1+   W-)
     2.44204552E-01    2    -1000024        24   # BR(~chi_40 -> ~chi_1-   W+)
     1.84767361E-04    2     1000022        25   # BR(~chi_40 -> ~chi_10   h )
     2.47244010E-07    2     1000022        35   # BR(~chi_40 -> ~chi_10   H )
     3.99504354E-08    2     1000022        36   # BR(~chi_40 -> ~chi_10   A )
     2.25128176E-01    2     1000023        25   # BR(~chi_40 -> ~chi_20   h )
     3.40027969E-02    2     1000025        25   # BR(~chi_40 -> ~chi_30   h )
#
#         PDG            Width
DECAY        25     4.04315456E-03   # h decays
#          BR         NDA      ID1       ID2
     6.05985034E-01    2           5        -5   # BR(h -> b       bb     )
     6.41607956E-02    2         -15        15   # BR(h -> tau+    tau-   )
     2.27152411E-04    2         -13        13   # BR(h -> mu+     mu-    )
     4.81527504E-04    2           3        -3   # BR(h -> s       sb     )
     2.08673201E-02    2           4        -4   # BR(h -> c       cb     )
     6.75351909E-02    2          21        21   # BR(h -> g       g      )
     2.32292924E-03    2          22        22   # BR(h -> gam     gam    )
     1.50032323E-03    2          22        23   # BR(h -> Z       gam    )
     2.11649678E-01    2          24       -24   # BR(h -> W+      W-     )
     2.52399893E-02    2          23        23   # BR(h -> Z       Z      )
     3.00601460E-05    2     1000022   1000022   # BR(h -> ~chi_10 ~chi_10)
#
#         PDG            Width
DECAY        35     7.08958684E+00   # H decays
#          BR         NDA      ID1       ID2
     4.61970972E-01    2           5        -5   # BR(H -> b       bb     )
     7.85857821E-02    2         -15        15   # BR(H -> tau+    tau-   )
     2.77885568E-04    2         -13        13   # BR(H -> mu+     mu-    )
     3.40645112E-04    2           3        -3   # BR(H -> s       sb     )
     1.90509575E-06    2           4        -4   # BR(H -> c       cb     )
     1.90334155E-01    2           6        -6   # BR(H -> t       tb     )
     6.31763096E-05    2          21        21   # BR(H -> g       g      )
     3.82362605E-07    2          22        22   # BR(H -> gam     gam    )
     1.12422523E-07    2          23        22   # BR(H -> Z       gam    )
     8.45849453E-05    2          24       -24   # BR(H -> W+      W-     )
     4.22389486E-05    2          23        23   # BR(H -> Z       Z      )
     3.20201078E-04    2          25        25   # BR(H -> h       h      )
     5.55906501E-23    2          36        36   # BR(H -> A       A      )
     5.80194174E-19    2          23        36   # BR(H -> Z       A      )
     7.95956601E-04    2     1000022   1000022   # BR(H -> ~chi_10 ~chi_10)
     1.58362078E-01    2     1000022   1000023   # BR(H -> ~chi_10 ~chi_20)
     1.08819925E-01    2     1000022   1000025   # BR(H -> ~chi_10 ~chi_30)
#
#         PDG            Width
DECAY        36     7.09234468E+00   # A decays
#          BR         NDA      ID1       ID2
     4.61945383E-01    2           5        -5   # BR(A -> b       bb     )
     7.85574990E-02    2         -15        15   # BR(A -> tau+    tau-   )
     2.77785168E-04    2         -13        13   # BR(A -> mu+     mu-    )
     3.40770886E-04    2           3        -3   # BR(A -> s       sb     )
     1.91232437E-06    2           4        -4   # BR(A -> c       cb     )
     1.90950936E-01    2           6        -6   # BR(A -> t       tb     )
     1.88967663E-04    2          21        21   # BR(A -> g       g      )
     3.23272981E-07    2          22        22   # BR(A -> gam     gam    )
     2.28944999E-07    2          23        22   # BR(A -> Z       gam    )
     8.42322131E-05    2          23        25   # BR(A -> Z       h      )
     8.19910230E-04    2     1000022   1000022   # BR(A -> ~chi_10 ~chi_10)
     1.10066259E-01    2     1000022   1000023   # BR(A -> ~chi_10 ~chi_20)
     1.56765792E-01    2     1000022   1000025   # BR(A -> ~chi_10 ~chi_30)
#
#         PDG            Width
DECAY        37     7.10291019E+00   # H+ decays
#          BR         NDA      ID1       ID2
     7.44415071E-04    2           4        -5   # BR(H+ -> c       bb     )
     7.84634872E-02    2         -15        16   # BR(H+ -> tau+    nu_tau )
     2.77452735E-04    2         -13        14   # BR(H+ -> mu+     nu_mu  )
     4.76423221E-06    2           2        -5   # BR(H+ -> u       bb     )
     1.62803483E-05    2           2        -3   # BR(H+ -> u       sb     )
     3.36678418E-04    2           4        -3   # BR(H+ -> c       sb     )
     6.51927619E-01    2           6        -5   # BR(H+ -> t       bb     )
     8.42344202E-05    2          24        25   # BR(H+ -> W+      h      )
     9.41430617E-14    2          24        36   # BR(H+ -> W+      A      )
     2.68145068E-01    2     1000024   1000022   # BR(H+ -> ~chi_1+ ~chi_10)
