#
#                              ======================
#                              | THE SUSYHIT OUTPUT |
#                              ======================
#
#
#              ------------------------------------------------------
#              |     This is the output of the SUSY-HIT package     |
#              |  created by A.Djouadi, M.Muehlleitner and M.Spira. |
#              |  In case of problems with SUSY-HIT email to        |
#              |           margarete.muehlleitner@cern.ch           |
#              |           michael.spira@psi.ch                     |
#              |           abdelhak.djouadi@cern.ch                 |
#              ------------------------------------------------------
#
#              ------------------------------------------------------
#              |  SUSY Les Houches Accord - MSSM Spectrum + Decays  |
#              |              based on the decay programs           |
#              |                                                    |
#              |                     SDECAY 1.3b                    |
#              |                                                    |
#              |  Authors: M.Muhlleitner, A.Djouadi and Y.Mambrini  |
#              |  Ref.:    Comput.Phys.Commun.168(2005)46           |
#              |           [hep-ph/0311167]                         |
#              |                                                    |
#              |                     HDECAY 3.4                     |
#              |                                                    |
#              |  By: A.Djouadi,J.Kalinowski,M.Muhlleitner,M.Spira  |
#              |  Ref.:    Comput.Phys.Commun.108(1998)56           |
#              |           [hep-ph/9704448]                         |
#              |                                                    |
#              |                                                    |
#              |  If not stated otherwise all DRbar couplings and   |
#              |  soft SUSY breaking masses are given at the scale  |
#              |  Q=  0.50006910E+04
#              |                                                    |
#              ------------------------------------------------------
#
#
BLOCK DCINFO  # Decay Program information
     1   SDECAY/HDECAY # decay calculator
     2   1.3b  /3.4    # version number
#
BLOCK SPINFO  # Spectrum calculator information
     1    SOFTSUSY    # spectrum calculator                
     2    3.4.0       # version number                     
#
BLOCK MODSEL  # Model selection
     1     0   #  nonUniversal                                     
#
BLOCK SMINPUTS  # Standard Model inputs
         1     1.25778332E+02   # alpha_em^-1(M_Z)^MSbar
         2     1.16570000E-05   # G_F [GeV^-2]
         3     1.17200002E-01   # alpha_S(M_Z)^MSbar
         4     9.11876000E+01   # M_Z pole mass
         5     4.25000000E+00   # mb(mb)^MSbar
         6     1.72500000E+02   # mt pole mass
         7     1.77682000E+00   # mtau pole mass
#
BLOCK MINPAR  # Input parameters - minimal models
         3     1.00000000E+01   # tanb                
#
BLOCK EXTPAR  # Input parameters - non-minimal models
         0    -1.00000000E+00   # Set                 
         1     6.00000000E+01   # M_1(MX)             
         2     3.00000000E+03   # M_2(MX)             
         3     1.03378000E+03   # M_3(MX)             
        11     5.00000000E+03   # At(MX)              
        12     5.00000000E+03   # Ab(MX)              
        13     0.00000000E+00   # Atau(MX)            
        23    -1.93761700E+03   # mu(MX)              
        26     3.00000000E+03   # mA(pole)            
        31     5.00000000E+03   # meL(MX)             
        32     5.00000000E+03   # mmuL(MX)            
        33     5.00000000E+03   # mtauL(MX)           
        34     5.00000000E+03   # meR(MX)             
        35     5.00000000E+03   # mmuR(MX)            
        36     5.00000000E+03   # mtauR(MX)           
        41     5.00000000E+03   # mqL1(MX)            
        42     5.00000000E+03   # mqL2(MX)            
        43     5.00000000E+03   # mqL3(MX)            
        44     5.00000000E+03   # muR(MX)             
        45     5.00000000E+03   # mcR(MX)             
        46     5.00000000E+03   # mtR(MX)             
        47     5.00000000E+03   # mdR(MX)             
        48     5.00000000E+03   # msR(MX)             
        49     5.00000000E+03   # mbR(MX)             
#
BLOCK MASS  # Mass Spectrum
# PDG code           mass       particle
        24     8.00957735E+01   # W+
        25     1.24521600E+02   # h
        35     3.00007582E+03   # H
        36     2.99999995E+03   # A
        37     3.00087400E+03   # H+
         5     4.87878001E+00   # b-quark pole mass calculated from mb(mb)_Msbar
   1000001     5.06521913E+03   # ~d_L
   2000001     5.04743292E+03   # ~d_R
   1000002     5.06474278E+03   # ~u_L
   2000002     5.04716415E+03   # ~u_R
   1000003     5.06521913E+03   # ~s_L
   2000003     5.04743292E+03   # ~s_R
   1000004     5.06474278E+03   # ~c_L
   2000004     5.04716415E+03   # ~c_R
   1000005     5.01233472E+03   # ~b_1
   2000005     5.04675803E+03   # ~b_2
   1000006     4.90402109E+03   # ~t_1
   2000006     5.06041903E+03   # ~t_2
   1000011     5.01903544E+03   # ~e_L
   2000011     5.00590168E+03   # ~e_R
   1000012     5.01808727E+03   # ~nu_eL
   1000013     5.01903544E+03   # ~mu_L
   2000013     5.00590168E+03   # ~mu_R
   1000014     5.01808727E+03   # ~nu_muL
   1000015     5.00405716E+03   # ~tau_1
   2000015     5.01933479E+03   # ~tau_2
   1000016     5.01755898E+03   # ~nu_tauL
   1000021     1.30000022E+03   # ~g
   1000022     6.02989141E+01   # ~chi_10
   1000023     1.99938117E+03   # ~chi_20
   1000025    -2.00239877E+03   # ~chi_30
   1000035     3.07450293E+03   # ~chi_40
   1000024     2.00000035E+03   # ~chi_1+
   1000037     3.07467088E+03   # ~chi_2+
#
BLOCK NMIX  # Neutralino Mixing Matrix
  1  1     9.99749382E-01   # N_11
  1  2     1.11607277E-04   # N_12
  1  3    -2.23240285E-02   # N_13
  1  4     1.67315365E-03   # N_14
  2  1     1.45936518E-02   # N_21
  2  2     4.52913051E-02   # N_22
  2  3     7.06689851E-01   # N_23
  2  4     7.05921510E-01   # N_24
  3  1    -1.69668490E-02   # N_31
  3  2     1.19430103E-02   # N_32
  3  3    -7.06777645E-01   # N_33
  3  4     7.07131424E-01   # N_34
  4  1    -5.70535800E-04   # N_41
  4  2     9.98902423E-01   # N_42
  4  3    -2.35892525E-02   # N_43
  4  4    -4.04619812E-02   # N_44
#
BLOCK UMIX  # Chargino Mixing Matrix U
  1  1     3.32906105E-02   # U_11
  1  2     9.99445714E-01   # U_12
  2  1    -9.99445714E-01   # U_21
  2  2     3.32906105E-02   # U_22
#
BLOCK VMIX  # Chargino Mixing Matrix V
  1  1     5.71532102E-02   # V_11
  1  2    -9.98365419E-01   # V_12
  2  1    -9.98365419E-01   # V_21
  2  2    -5.71532102E-02   # V_22
#
BLOCK STOPMIX  # Stop Mixing Matrix
  1  1    -5.18829986E-01   # cos(theta_t)
  1  2     8.54877445E-01   # sin(theta_t)
  2  1    -8.54877445E-01   # -sin(theta_t)
  2  2    -5.18829986E-01   # cos(theta_t)
#
BLOCK SBOTMIX  # Sbottom Mixing Matrix
  1  1     9.90615769E-01   # cos(theta_b)
  1  2    -1.36676253E-01   # sin(theta_b)
  2  1     1.36676253E-01   # -sin(theta_b)
  2  2     9.90615769E-01   # cos(theta_b)
#
BLOCK STAUMIX  # Stau Mixing Matrix
  1  1    -2.18669459E-01   # cos(theta_tau)
  1  2     9.75798989E-01   # sin(theta_tau)
  2  1    -9.75798989E-01   # -sin(theta_tau)
  2  2    -2.18669459E-01   # cos(theta_tau)
#
BLOCK ALPHA  # Higgs mixing
          -1.05426952E-01   # Mixing angle in the neutral Higgs boson sector
#
BLOCK HMIX Q=  5.00069095E+03  # DRbar Higgs Parameters
         1    -1.97254551E+03   # mu(Q)MSSM           
         2     9.47329708E+00   # tan                 
         3     2.42096178E+02   # higgs               
         4     8.32011062E+06   # mA^2(Q)MSSM         
#
BLOCK GAUGE Q=  5.00069095E+03  # The gauge couplings
     1     3.70647523E-01   # gprime(Q) DRbar
     2     6.31797963E-01   # g(Q) DRbar
     3     1.00478744E+00   # g3(Q) DRbar
#
BLOCK AU Q=  5.00069095E+03  # The trilinear couplings
  1  1     5.00000001E+03   # A_u(Q) DRbar
  2  2     5.00000001E+03   # A_c(Q) DRbar
  3  3     5.00000001E+03   # A_t(Q) DRbar
#
BLOCK AD Q=  5.00069095E+03  # The trilinear couplings
  1  1     5.00000000E+03   # A_d(Q) DRbar
  2  2     5.00000000E+03   # A_s(Q) DRbar
  3  3     5.00000001E+03   # A_b(Q) DRbar
#
BLOCK AE Q=  5.00069095E+03  # The trilinear couplings
  1  1     0.00000000E+00   # A_e(Q) DRbar
  2  2     6.70832779E-08   # A_mu(Q) DRbar
  3  3     6.63013090E-08   # A_tau(Q) DRbar
#
BLOCK Yu Q=  5.00069095E+03  # The Yukawa couplings
  1  1     0.00000000E+00   # y_u(Q) DRbar
  2  2     0.00000000E+00   # y_c(Q) DRbar
  3  3     8.15926440E-01   # y_t(Q) DRbar
#
BLOCK Yd Q=  5.00069095E+03  # The Yukawa couplings
  1  1     0.00000000E+00   # y_d(Q) DRbar
  2  2     0.00000000E+00   # y_s(Q) DRbar
  3  3     1.30778377E-01   # y_b(Q) DRbar
#
BLOCK Ye Q=  5.00069095E+03  # The Yukawa couplings
  1  1     0.00000000E+00   # y_e(Q) DRbar
  2  2     0.00000000E+00   # y_mu(Q) DRbar
  3  3     9.64659534E-02   # y_tau(Q) DRbar
#
BLOCK MSOFT Q=  5.00069095E+03  # The soft SUSY breaking masses at the scale Q
         1     6.00000000E+01   # M_1(Q)              
         2     3.00000000E+03   # M_2(Q)              
         3     1.03378000E+03   # M_3(Q)              
        21     4.75141064E+06   # mH1^2(Q)            
        22    -3.36331503E+06   # mH2^2(Q)            
        31     5.00000000E+03   # meL(Q)              
        32     5.00000000E+03   # mmuL(Q)             
        33     5.00000000E+03   # mtauL(Q)            
        34     5.00000000E+03   # meR(Q)              
        35     5.00000000E+03   # mmuR(Q)             
        36     5.00000000E+03   # mtauR(Q)            
        41     5.00000000E+03   # mqL1(Q)             
        42     5.00000000E+03   # mqL2(Q)             
        43     5.00000000E+03   # mqL3(Q)             
        44     5.00000000E+03   # muR(Q)              
        45     5.00000000E+03   # mcR(Q)              
        46     5.00000000E+03   # mtR(Q)              
        47     5.00000000E+03   # mdR(Q)              
        48     5.00000000E+03   # msR(Q)              
        49     5.00000000E+03   # mbR(Q)              
#
#
#
#                             =================
#                             |The decay table|
#                             =================
#
# - The QCD corrections to the decays gluino -> squark  + quark
#                                     squark -> gaugino + quark_prime
#                                     squark -> squark_prime + Higgs
#                                     squark -> gluino  + quark
#   are included.
#
# - The multi-body decays for the inos, stops and sbottoms are included.
#
# - The loop induced decays for the gluino, neutralinos and stops
#   are included.
#
# - The SUSY decays of the top quark are included.
#
#
#         PDG            Width
DECAY         6     1.39878871E+00   # top decays
#          BR         NDA      ID1       ID2
     1.00000000E+00    2           5        24   # BR(t ->  b    W+)
#
#         PDG            Width
DECAY   1000021     3.27364708E-05   # gluino decays
#          BR         NDA      ID1       ID2
     1.33785242E-05    2     1000022        21   # BR(~g -> ~chi_10 g)
#           BR         NDA      ID1       ID2       ID3
     7.94876020E-02    3     1000022         1        -1   # BR(~g -> ~chi_10 d  db)
     2.70947838E-01    3     1000022         2        -2   # BR(~g -> ~chi_10 u  ub)
     7.94876020E-02    3     1000022         3        -3   # BR(~g -> ~chi_10 s  sb)
     2.70947838E-01    3     1000022         4        -4   # BR(~g -> ~chi_10 c  cb)
     8.03701590E-02    3     1000022         5        -5   # BR(~g -> ~chi_10 b  bb)
     2.18745582E-01    3     1000022         6        -6   # BR(~g -> ~chi_10 t  tb)
#
#         PDG            Width
DECAY   1000006     3.70806966E+02   # stop1 decays
#          BR         NDA      ID1       ID2
     2.34696625E-02    2     1000022         6   # BR(~t_1 -> ~chi_10 t )
     6.12872609E-02    2     1000023         6   # BR(~t_1 -> ~chi_20 t )
     5.87663963E-02    2     1000025         6   # BR(~t_1 -> ~chi_30 t )
     6.35072540E-03    2     1000035         6   # BR(~t_1 -> ~chi_40 t )
     8.63224413E-02    2     1000024         5   # BR(~t_1 -> ~chi_1+ b )
     1.25813507E-02    2     1000037         5   # BR(~t_1 -> ~chi_2+ b )
     7.51222163E-01    2     1000021         6   # BR(~t_1 -> ~g      t )
#
#         PDG            Width
DECAY   2000006     3.81941597E+02   # stop2 decays
#          BR         NDA      ID1       ID2
     9.61509225E-03    2     1000022         6   # BR(~t_2 -> ~chi_10 t )
     6.27738402E-02    2     1000023         6   # BR(~t_2 -> ~chi_20 t )
     6.54789849E-02    2     1000025         6   # BR(~t_2 -> ~chi_30 t )
     1.37796385E-02    2     1000035         6   # BR(~t_2 -> ~chi_40 t )
     4.07253533E-02    2     1000024         5   # BR(~t_2 -> ~chi_1+ b )
     2.72315916E-02    2     1000037         5   # BR(~t_2 -> ~chi_2+ b )
     7.76880634E-01    2     1000021         6   # BR(~t_2 -> ~g      t )
     7.41878690E-04    2     1000006        25   # BR(~t_2 -> ~t_1    h )
     2.77298657E-03    2     1000006        23   # BR(~t_2 -> ~t_1    Z )
#
#         PDG            Width
DECAY   1000005     3.61369417E+02   # sbottom1 decays
#          BR         NDA      ID1       ID2
     2.21200411E-03    2     1000022         5   # BR(~b_1 -> ~chi_10 b )
     1.82947739E-03    2     1000023         5   # BR(~b_1 -> ~chi_20 b )
     1.64352050E-03    2     1000025         5   # BR(~b_1 -> ~chi_30 b )
     2.03953737E-02    2     1000035         5   # BR(~b_1 -> ~chi_40 b )
     1.28070407E-01    2    -1000024         6   # BR(~b_1 -> ~chi_1- t )
     4.12407994E-02    2    -1000037         6   # BR(~b_1 -> ~chi_2- t )
     8.03109874E-01    2     1000021         5   # BR(~b_1 -> ~g      b )
     1.49854361E-03    2     1000006       -24   # BR(~b_1 -> ~t_1    W-)
#
#         PDG            Width
DECAY   2000005     2.99282375E+02   # sbottom2 decays
#          BR         NDA      ID1       ID2
     9.73647645E-03    2     1000022         5   # BR(~b_2 -> ~chi_10 b )
     1.96373802E-03    2     1000023         5   # BR(~b_2 -> ~chi_20 b )
     2.11506040E-03    2     1000025         5   # BR(~b_2 -> ~chi_30 b )
     5.20597852E-04    2     1000035         5   # BR(~b_2 -> ~chi_40 b )
     6.96844275E-03    2    -1000024         6   # BR(~b_2 -> ~chi_1- t )
     1.05131354E-03    2    -1000037         6   # BR(~b_2 -> ~chi_2- t )
     9.77499305E-01    2     1000021         5   # BR(~b_2 -> ~g      b )
     1.45066402E-04    2     1000006       -24   # BR(~b_2 -> ~t_1    W-)
#
#         PDG            Width
DECAY   1000002     3.17995932E+02   # sup_L decays
#          BR         NDA      ID1       ID2
     2.34941135E-03    2     1000022         2   # BR(~u_L -> ~chi_10 u)
     1.01478971E-04    2     1000023         2   # BR(~u_L -> ~chi_20 u)
     3.25324525E-06    2     1000025         2   # BR(~u_L -> ~chi_30 u)
     2.44840817E-02    2     1000035         2   # BR(~u_L -> ~chi_40 u)
     2.85945634E-04    2     1000024         1   # BR(~u_L -> ~chi_1+ d)
     4.89202530E-02    2     1000037         1   # BR(~u_L -> ~chi_2+ d)
     9.23855576E-01    2     1000021         2   # BR(~u_L -> ~g      u)
#
#         PDG            Width
DECAY   2000002     3.04377177E+02   # sup_R decays
#          BR         NDA      ID1       ID2
     3.90908775E-02    2     1000022         2   # BR(~u_R -> ~chi_10 u)
     5.92409337E-06    2     1000023         2   # BR(~u_R -> ~chi_20 u)
     7.99848865E-06    2     1000025         2   # BR(~u_R -> ~chi_30 u)
     5.04802527E-09    2     1000035         2   # BR(~u_R -> ~chi_40 u)
     9.60895195E-01    2     1000021         2   # BR(~u_R -> ~g      u)
#
#         PDG            Width
DECAY   1000001     3.18009126E+02   # sdown_L decays
#          BR         NDA      ID1       ID2
     2.34417689E-03    2     1000022         1   # BR(~d_L -> ~chi_10 d)
     7.88540388E-05    2     1000023         1   # BR(~d_L -> ~chi_20 d)
     1.01859353E-05    2     1000025         1   # BR(~d_L -> ~chi_30 d)
     2.45016540E-02    2     1000035         1   # BR(~d_L -> ~chi_40 d)
     9.70283747E-05    2    -1000024         2   # BR(~d_L -> ~chi_1- u)
     4.90394540E-02    2    -1000037         2   # BR(~d_L -> ~chi_2- u)
     9.23928647E-01    2     1000021         1   # BR(~d_L -> ~g      d)
#
#         PDG            Width
DECAY   2000001     2.95470380E+02   # sdown_R decays
#          BR         NDA      ID1       ID2
     1.00678515E-02    2     1000022         1   # BR(~d_R -> ~chi_10 d)
     1.52580977E-06    2     1000023         1   # BR(~d_R -> ~chi_20 d)
     2.06009141E-06    2     1000025         1   # BR(~d_R -> ~chi_30 d)
     1.30028041E-09    2     1000035         1   # BR(~d_R -> ~chi_40 d)
     9.89928561E-01    2     1000021         1   # BR(~d_R -> ~g      d)
#
#         PDG            Width
DECAY   1000004     3.17995932E+02   # scharm_L decays
#          BR         NDA      ID1       ID2
     2.34941135E-03    2     1000022         4   # BR(~c_L -> ~chi_10 c)
     1.01478971E-04    2     1000023         4   # BR(~c_L -> ~chi_20 c)
     3.25324525E-06    2     1000025         4   # BR(~c_L -> ~chi_30 c)
     2.44840817E-02    2     1000035         4   # BR(~c_L -> ~chi_40 c)
     2.85945634E-04    2     1000024         3   # BR(~c_L -> ~chi_1+ s)
     4.89202530E-02    2     1000037         3   # BR(~c_L -> ~chi_2+ s)
     9.23855576E-01    2     1000021         4   # BR(~c_L -> ~g      c)
#
#         PDG            Width
DECAY   2000004     3.04377177E+02   # scharm_R decays
#          BR         NDA      ID1       ID2
     3.90908775E-02    2     1000022         4   # BR(~c_R -> ~chi_10 c)
     5.92409337E-06    2     1000023         4   # BR(~c_R -> ~chi_20 c)
     7.99848865E-06    2     1000025         4   # BR(~c_R -> ~chi_30 c)
     5.04802527E-09    2     1000035         4   # BR(~c_R -> ~chi_40 c)
     9.60895195E-01    2     1000021         4   # BR(~c_R -> ~g      c)
#
#         PDG            Width
DECAY   1000003     3.18009126E+02   # sstrange_L decays
#          BR         NDA      ID1       ID2
     2.34417689E-03    2     1000022         3   # BR(~s_L -> ~chi_10 s)
     7.88540388E-05    2     1000023         3   # BR(~s_L -> ~chi_20 s)
     1.01859353E-05    2     1000025         3   # BR(~s_L -> ~chi_30 s)
     2.45016540E-02    2     1000035         3   # BR(~s_L -> ~chi_40 s)
     9.70283747E-05    2    -1000024         4   # BR(~s_L -> ~chi_1- c)
     4.90394540E-02    2    -1000037         4   # BR(~s_L -> ~chi_2- c)
     9.23928647E-01    2     1000021         3   # BR(~s_L -> ~g      s)
#
#         PDG            Width
DECAY   2000003     2.95470380E+02   # sstrange_R decays
#          BR         NDA      ID1       ID2
     1.00678515E-02    2     1000022         3   # BR(~s_R -> ~chi_10 s)
     1.52580977E-06    2     1000023         3   # BR(~s_R -> ~chi_20 s)
     2.06009141E-06    2     1000025         3   # BR(~s_R -> ~chi_30 s)
     1.30028041E-09    2     1000035         3   # BR(~s_R -> ~chi_40 s)
     9.89928561E-01    2     1000021         3   # BR(~s_R -> ~g      s)
#
#         PDG            Width
DECAY   1000011     3.02224672E+01   # selectron_L decays
#          BR         NDA      ID1       ID2
     2.26847961E-01    2     1000022        11   # BR(~e_L -> ~chi_10 e-)
     1.35355008E-03    2     1000023        11   # BR(~e_L -> ~chi_20 e-)
     1.84490219E-06    2     1000025        11   # BR(~e_L -> ~chi_30 e-)
     2.56642282E-01    2     1000035        11   # BR(~e_L -> ~chi_40 e-)
     1.03426217E-03    2    -1000024        12   # BR(~e_L -> ~chi_1- nu_e)
     5.14120100E-01    2    -1000037        12   # BR(~e_L -> ~chi_2- nu_e)
#
#         PDG            Width
DECAY   2000011     2.73510883E+01   # selectron_R decays
#          BR         NDA      ID1       ID2
     9.99646153E-01    2     1000022        11   # BR(~e_R -> ~chi_10 e-)
     1.50511068E-04    2     1000023        11   # BR(~e_R -> ~chi_20 e-)
     2.03209831E-04    2     1000025        11   # BR(~e_R -> ~chi_30 e-)
     1.26309697E-07    2     1000035        11   # BR(~e_R -> ~chi_40 e-)
#
#         PDG            Width
DECAY   1000013     3.02224672E+01   # smuon_L decays
#          BR         NDA      ID1       ID2
     2.26847961E-01    2     1000022        13   # BR(~mu_L -> ~chi_10 mu-)
     1.35355008E-03    2     1000023        13   # BR(~mu_L -> ~chi_20 mu-)
     1.84490219E-06    2     1000025        13   # BR(~mu_L -> ~chi_30 mu-)
     2.56642282E-01    2     1000035        13   # BR(~mu_L -> ~chi_40 mu-)
     1.03426217E-03    2    -1000024        14   # BR(~mu_L -> ~chi_1- nu_mu)
     5.14120100E-01    2    -1000037        14   # BR(~mu_L -> ~chi_2- nu_mu)
#
#         PDG            Width
DECAY   2000013     2.73510883E+01   # smuon_R decays
#          BR         NDA      ID1       ID2
     9.99646153E-01    2     1000022        13   # BR(~mu_R -> ~chi_10 mu-)
     1.50511068E-04    2     1000023        13   # BR(~mu_R -> ~chi_20 mu-)
     2.03209831E-04    2     1000025        13   # BR(~mu_R -> ~chi_30 mu-)
     1.26309697E-07    2     1000035        13   # BR(~mu_R -> ~chi_40 mu-)
#
#         PDG            Width
DECAY   1000015     2.87909954E+01   # stau_1 decays
#          BR         NDA      ID1       ID2
     9.16107928E-01    2     1000022        15   # BR(~tau_1 -> ~chi_10  tau-)
     1.27185133E-02    2     1000023        15   # BR(~tau_1 -> ~chi_20  tau-)
     1.08269585E-02    2     1000025        15   # BR(~tau_1 -> ~chi_30  tau-)
     1.21771880E-02    2     1000035        15   # BR(~tau_1 -> ~chi_40  tau-)
     2.37720779E-02    2    -1000024        16   # BR(~tau_1 -> ~chi_1-  nu_tau)
     2.43973340E-02    2    -1000037        16   # BR(~tau_1 -> ~chi_2-  nu_tau)
#
#         PDG            Width
DECAY   2000015     3.07342080E+01   # stau_2 decays
#          BR         NDA      ID1       ID2
     2.54303685E-01    2     1000022        15   # BR(~tau_2 -> ~chi_10  tau-)
     1.08648413E-02    2     1000023        15   # BR(~tau_2 -> ~chi_20  tau-)
     1.13442655E-02    2     1000025        15   # BR(~tau_2 -> ~chi_30  tau-)
     2.40904966E-01    2     1000035        15   # BR(~tau_2 -> ~chi_40  tau-)
     7.17297032E-07    2    -1000024        16   # BR(~tau_2 -> ~chi_1-  nu_tau)
     4.82581525E-01    2    -1000037        16   # BR(~tau_2 -> ~chi_2-  nu_tau)
#
#         PDG            Width
DECAY   1000012     3.02234816E+01   # snu_eL decays
#          BR         NDA      ID1       ID2
     2.26624904E-01    2     1000022        12   # BR(~nu_eL -> ~chi_10 nu_e)
     6.29417361E-04    2     1000023        12   # BR(~nu_eL -> ~chi_20 nu_e)
     2.23440609E-04    2     1000025        12   # BR(~nu_eL -> ~chi_30 nu_e)
     2.56812689E-01    2     1000035        12   # BR(~nu_eL -> ~chi_40 nu_e)
     3.04726190E-03    2     1000024        11   # BR(~nu_eL -> ~chi_1+ e-)
     5.12662287E-01    2     1000037        11   # BR(~nu_eL -> ~chi_2+ e-)
#
#         PDG            Width
DECAY   1000014     3.02234816E+01   # snu_muL decays
#          BR         NDA      ID1       ID2
     2.26624904E-01    2     1000022        14   # BR(~nu_muL -> ~chi_10 nu_mu)
     6.29417361E-04    2     1000023        14   # BR(~nu_muL -> ~chi_20 nu_mu)
     2.23440609E-04    2     1000025        14   # BR(~nu_muL -> ~chi_30 nu_mu)
     2.56812689E-01    2     1000035        14   # BR(~nu_muL -> ~chi_40 nu_mu)
     3.04726190E-03    2     1000024        13   # BR(~nu_muL -> ~chi_1+ mu-)
     5.12662287E-01    2     1000037        13   # BR(~nu_muL -> ~chi_2+ mu-)
#
#         PDG            Width
DECAY   1000016     3.08713022E+01   # snu_tauL decays
#          BR         NDA      ID1       ID2
     2.21845909E-01    2     1000022        16   # BR(~nu_tauL -> ~chi_10 nu_tau)
     6.16095473E-04    2     1000023        16   # BR(~nu_tauL -> ~chi_20 nu_tau)
     2.18711331E-04    2     1000025        16   # BR(~nu_tauL -> ~chi_30 nu_tau)
     2.51333490E-01    2     1000035        16   # BR(~nu_tauL -> ~chi_40 nu_tau)
     2.42522462E-02    2     1000024        15   # BR(~nu_tauL -> ~chi_1+ tau-)
     5.01733548E-01    2     1000037        15   # BR(~nu_tauL -> ~chi_2+ tau-)
#
#         PDG            Width
DECAY   1000024     1.23549818E+00   # chargino1+ decays
#          BR         NDA      ID1       ID2
     1.00000000E+00    2     1000022        24   # BR(~chi_1+ -> ~chi_10  W+)
#
#         PDG            Width
DECAY   1000037     1.53700204E+01   # chargino2+ decays
#          BR         NDA      ID1       ID2
     2.51892449E-01    2     1000024        23   # BR(~chi_2+ -> ~chi_1+  Z )
     4.76708366E-04    2     1000022        24   # BR(~chi_2+ -> ~chi_10  W+)
     2.45407602E-01    2     1000023        24   # BR(~chi_2+ -> ~chi_20  W+)
     2.42795964E-01    2     1000025        24   # BR(~chi_2+ -> ~chi_30  W+)
     2.59427232E-01    2     1000024        25   # BR(~chi_2+ -> ~chi_1+  h )
     4.32299502E-08    2     1000022        37   # BR(~chi_2+ -> ~chi_10  H+)
#
#         PDG            Width
DECAY   1000022     0.00000000E+00   # neutralino1 decays
#
#         PDG            Width
DECAY   1000023     1.30116314E+00   # neutralino2 decays
#          BR         NDA      ID1       ID2
     5.65518650E-01    2     1000022        23   # BR(~chi_20 -> ~chi_10   Z )
     4.34481350E-01    2     1000022        25   # BR(~chi_20 -> ~chi_10   h )
#
#         PDG            Width
DECAY   1000025     1.31745347E+00   # neutralino3 decays
#          BR         NDA      ID1       ID2
     4.15317986E-01    2     1000022        23   # BR(~chi_30 -> ~chi_10   Z )
     5.84682014E-01    2     1000022        25   # BR(~chi_30 -> ~chi_10   h )
#
#         PDG            Width
DECAY   1000035     1.53233945E+01   # neutralino4 decays
#          BR         NDA      ID1       ID2
     2.14753578E-04    2     1000022        23   # BR(~chi_40 -> ~chi_10   Z )
     1.67150888E-02    2     1000023        23   # BR(~chi_40 -> ~chi_20   Z )
     2.35836090E-01    2     1000025        23   # BR(~chi_40 -> ~chi_30   Z )
     2.43599989E-01    2     1000024       -24   # BR(~chi_40 -> ~chi_1+   W-)
     2.43599989E-01    2    -1000024        24   # BR(~chi_40 -> ~chi_1-   W+)
     2.82145657E-04    2     1000022        25   # BR(~chi_40 -> ~chi_10   h )
     3.23363109E-08    2     1000022        35   # BR(~chi_40 -> ~chi_10   H )
     1.24577821E-08    2     1000022        36   # BR(~chi_40 -> ~chi_10   A )
     2.43293732E-01    2     1000023        25   # BR(~chi_40 -> ~chi_20   h )
     1.64581673E-02    2     1000025        25   # BR(~chi_40 -> ~chi_30   h )
#
#         PDG            Width
DECAY        25     4.01803173E-03   # h decays
#          BR         NDA      ID1       ID2
     6.11541777E-01    2           5        -5   # BR(h -> b       bb     )
     6.44106780E-02    2         -15        15   # BR(h -> tau+    tau-   )
     2.28038339E-04    2         -13        13   # BR(h -> mu+     mu-    )
     4.83619194E-04    2           3        -3   # BR(h -> s       sb     )
     2.09596194E-02    2           4        -4   # BR(h -> c       cb     )
     6.75061500E-02    2          21        21   # BR(h -> g       g      )
     2.31552022E-03    2          22        22   # BR(h -> gam     gam    )
     1.47163064E-03    2          22        23   # BR(h -> Z       gam    )
     2.06552438E-01    2          24       -24   # BR(h -> W+      W-     )
     2.45113291E-02    2          23        23   # BR(h -> Z       Z      )
     1.91992917E-05    2     1000022   1000022   # BR(h -> ~chi_10 ~chi_10)
#
#         PDG            Width
DECAY        35     6.34229732E+00   # H decays
#          BR         NDA      ID1       ID2
     5.18382622E-01    2           5        -5   # BR(H -> b       bb     )
     8.79047378E-02    2         -15        15   # BR(H -> tau+    tau-   )
     3.10838135E-04    2         -13        13   # BR(H -> mu+     mu-    )
     3.81040102E-04    2           3        -3   # BR(H -> s       sb     )
     2.12795199E-06    2           4        -4   # BR(H -> c       cb     )
     2.12599248E-01    2           6        -6   # BR(H -> t       tb     )
     7.04868813E-05    2          21        21   # BR(H -> g       g      )
     3.98683161E-07    2          22        22   # BR(H -> gam     gam    )
     1.25499870E-07    2          23        22   # BR(H -> Z       gam    )
     9.15191234E-05    2          24       -24   # BR(H -> W+      W-     )
     4.57016442E-05    2          23        23   # BR(H -> Z       Z      )
     3.54274408E-04    2          25        25   # BR(H -> h       h      )
     2.27557859E-23    2          36        36   # BR(H -> A       A      )
     4.11838728E-19    2          23        36   # BR(H -> Z       A      )
     5.69953230E-04    2     1000022   1000022   # BR(H -> ~chi_10 ~chi_10)
     1.04706232E-01    2     1000022   1000023   # BR(H -> ~chi_10 ~chi_20)
     7.45806941E-02    2     1000022   1000025   # BR(H -> ~chi_10 ~chi_30)
#
#         PDG            Width
DECAY        36     6.34569226E+00   # A decays
#          BR         NDA      ID1       ID2
     5.18278739E-01    2           5        -5   # BR(A -> b       bb     )
     8.78603750E-02    2         -15        15   # BR(A -> tau+    tau-   )
     3.10680830E-04    2         -13        13   # BR(A -> mu+     mu-    )
     3.81125282E-04    2           3        -3   # BR(A -> s       sb     )
     2.13588472E-06    2           4        -4   # BR(A -> c       cb     )
     2.13274062E-01    2           6        -6   # BR(A -> t       tb     )
     2.11118482E-04    2          21        21   # BR(A -> g       g      )
     4.12553759E-07    2          22        22   # BR(A -> gam     gam    )
     2.55694704E-07    2          23        22   # BR(A -> Z       gam    )
     9.11269152E-05    2          23        25   # BR(A -> Z       h      )
     5.88955935E-04    2     1000022   1000022   # BR(A -> ~chi_10 ~chi_10)
     7.55113408E-02    2     1000022   1000023   # BR(A -> ~chi_10 ~chi_20)
     1.03489671E-01    2     1000022   1000025   # BR(A -> ~chi_10 ~chi_30)
#
#         PDG            Width
DECAY        37     6.33831898E+00   # H+ decays
#          BR         NDA      ID1       ID2
     8.33432969E-04    2           4        -5   # BR(H+ -> c       bb     )
     8.79882097E-02    2         -15        16   # BR(H+ -> tau+    nu_tau )
     3.11132863E-04    2         -13        14   # BR(H+ -> mu+     nu_mu  )
     5.33394385E-06    2           2        -5   # BR(H+ -> u       bb     )
     1.82566277E-05    2           2        -3   # BR(H+ -> u       sb     )
     3.77545190E-04    2           4        -3   # BR(H+ -> c       sb     )
     7.29939939E-01    2           6        -5   # BR(H+ -> t       bb     )
     9.13712710E-05    2          24        25   # BR(H+ -> W+      h      )
     1.05776226E-13    2          24        36   # BR(H+ -> W+      A      )
     1.80434778E-01    2     1000024   1000022   # BR(H+ -> ~chi_1+ ~chi_10)
