#
#                              ======================
#                              | THE SUSYHIT OUTPUT |
#                              ======================
#
#
#              ------------------------------------------------------
#              |     This is the output of the SUSY-HIT package     |
#              |  created by A.Djouadi, M.Muehlleitner and M.Spira. |
#              |  In case of problems with SUSY-HIT email to        |
#              |           margarete.muehlleitner@cern.ch           |
#              |           michael.spira@psi.ch                     |
#              |           abdelhak.djouadi@cern.ch                 |
#              ------------------------------------------------------
#
#              ------------------------------------------------------
#              |  SUSY Les Houches Accord - MSSM Spectrum + Decays  |
#              |              based on the decay programs           |
#              |                                                    |
#              |                     SDECAY 1.3b                    |
#              |                                                    |
#              |  Authors: M.Muhlleitner, A.Djouadi and Y.Mambrini  |
#              |  Ref.:    Comput.Phys.Commun.168(2005)46           |
#              |           [hep-ph/0311167]                         |
#              |                                                    |
#              |                     HDECAY 3.4                     |
#              |                                                    |
#              |  By: A.Djouadi,J.Kalinowski,M.Muhlleitner,M.Spira  |
#              |  Ref.:    Comput.Phys.Commun.108(1998)56           |
#              |           [hep-ph/9704448]                         |
#              |                                                    |
#              |                                                    |
#              |  If not stated otherwise all DRbar couplings and   |
#              |  soft SUSY breaking masses are given at the scale  |
#              |  Q=  0.91187600E+02
#              |                                                    |
#              ------------------------------------------------------
#
#
BLOCK DCINFO  # Decay Program information
     1   SDECAY/HDECAY # decay calculator
     2   1.3b  /3.4    # version number
#
BLOCK SPINFO  # Spectrum calculator information
     1   SuSpect     # RGE +Spectrum calculator            
     2   2.41         # version number                     
#
BLOCK MODSEL  # Model selection
     1     0   # #general MSSM low scale                           
#
BLOCK SMINPUTS  # Standard Model inputs
         1     1.27934000E+02   # alpha_em^-1(M_Z)^MSbar
         2     1.16639000E-05   # G_F [GeV^-2]
         3     1.17200000E-01   # alpha_S(M_Z)^MSbar
         4     9.11870000E+01   # M_Z pole mass
         5     4.25000000E+00   # mb(mb)^MSbar
         6     1.72500000E+02   # mt pole mass
         7     1.77700000E+00   # mtau pole mass
#
BLOCK MINPAR  # Input parameters - minimal models
#
BLOCK EXTPAR  # Input parameters - non-minimal models
         0     9.11876000E+01   # EWSB                
         1     5.00000000E+03   # M_1                 
         2     5.51985000E+02   # M_2                 
         3     5.68366000E+03   # M_3                 
        11     0.00000000E+00   # A_t                 
        12     0.00000000E+00   # A_b                 
        13     0.00000000E+00   # A_tau               
        14     0.00000000E+00   # A_u                 
        15     0.00000000E+00   # A_d                 
        16     0.00000000E+00   # A_e                 
        23     5.00000000E+03   # mu(EWSB)            
        25     1.50000000E+00   # tanbeta(in)         
        26     2.00000000E+03   # MA_pole             
        31     5.00000000E+03   # M_eL                
        32     5.00000000E+03   # M_muL               
        33     5.00000000E+03   # M_tauL              
        34     5.00000000E+03   # M_eR                
        35     5.00000000E+03   # M_muR               
        36     5.00000000E+03   # M_tauR              
        41     5.00000000E+03   # M_q1L               
        42     5.00000000E+03   # M_q2L               
        43     5.00000000E+03   # M_q3L               
        44     5.00000000E+03   # M_uR                
        45     5.00000000E+03   # M_cR                
        46     5.00000000E+03   # M_tR                
        47     5.00000000E+03   # M_dR                
        48     5.00000000E+03   # M_sR                
        49     5.00000000E+03   # M_bR                
#
BLOCK MASS  # Mass Spectrum
# PDG code           mass       particle
        24     8.05284595E+01   # W+
        25     1.25000000E+02   # h
        35     2.00389562E+03   # H
        36     2.00000000E+03   # A
        37     1.99305856E+03   # H+
         5     4.87877839E+00   # b-quark pole mass calculated from mb(mb)_Msbar
   1000001     4.14521155E+03   # ~d_L
   2000001     4.14507810E+03   # ~d_R
   1000002     4.14491347E+03   # ~u_L
   2000002     4.14498456E+03   # ~u_R
   1000003     4.14521155E+03   # ~s_L
   2000003     4.14507810E+03   # ~s_R
   1000004     4.14491347E+03   # ~c_L
   2000004     4.14498456E+03   # ~c_R
   1000005     4.14269637E+03   # ~b_1
   2000005     4.14759348E+03   # ~b_2
   1000006     4.18221255E+03   # ~t_1
   2000006     4.37049060E+03   # ~t_2
   1000011     5.00008326E+03   # ~e_L
   2000011     5.00007614E+03   # ~e_R
   1000012     4.99984060E+03   # ~nu_eL
   1000013     5.00008326E+03   # ~mu_L
   2000013     5.00007614E+03   # ~mu_R
   1000014     4.99984060E+03   # ~nu_muL
   1000015     4.99874668E+03   # ~tau_1
   2000015     5.00141300E+03   # ~tau_2
   1000016     4.99984060E+03   # ~nu_tauL
   1000021     4.99999141E+03   # ~g
   1000022     6.00000364E+02   # ~chi_10
   1000023     5.19839224E+03   # ~chi_20
   1000025    -5.21667429E+03   # ~chi_30
   1000035     5.31517667E+03   # ~chi_40
   1000024     6.00000474E+02   # ~chi_1+
   1000037     5.21797936E+03   # ~chi_2+
 1000039     1.E-09   # ~gravitino              
#
BLOCK NMIX  # Neutralino Mixing Matrix
  1  1     1.51575610E-04   # N_11
  1  2    -9.99854284E-01   # N_12
  1  3     1.38134387E-02   # N_13
  1  4    -1.00287553E-02   # N_14
  2  1     4.09100880E-01   # N_21
  2  2     1.54465440E-02   # N_22
  2  3     6.45360664E-01   # N_23
  2  4    -6.44908899E-01   # N_24
  3  1     8.29629584E-04   # N_31
  3  2    -2.67603397E-03   # N_32
  3  3    -7.07087437E-01   # N_33
  3  4    -7.07120574E-01   # N_34
  4  1     9.12488772E-01   # N_41
  4  2    -6.75670899E-03   # N_42
  4  3    -2.88697347E-01   # N_43
  4  4     2.89779967E-01   # N_44
#
BLOCK UMIX  # Chargino Mixing Matrix U
  1  1    -9.99809218E-01   # U_11
  1  2     1.95327390E-02   # U_12
  2  1     1.95327390E-02   # U_21
  2  2     9.99809218E-01   # U_22
#
BLOCK VMIX  # Chargino Mixing Matrix V
  1  1    -9.99899430E-01   # V_11
  1  2     1.41820499E-02   # V_12
  2  1     1.41820499E-02   # V_21
  2  2     9.99899430E-01   # V_22
#
BLOCK STOPMIX  # Stop Mixing Matrix
  1  1     9.92288318E-01   # cos(theta_t)
  1  2     1.23951176E-01   # sin(theta_t)
  2  1    -1.23951176E-01   # -sin(theta_t)
  2  2     9.92288318E-01   # cos(theta_t)
#
BLOCK SBOTMIX  # Sbottom Mixing Matrix
  1  1     6.97405777E-01   # cos(theta_b)
  1  2     7.16676484E-01   # sin(theta_b)
  2  1    -7.16676484E-01   # -sin(theta_b)
  2  2     6.97405777E-01   # cos(theta_b)
#
BLOCK STAUMIX  # Stau Mixing Matrix
  1  1     7.06162990E-01   # cos(theta_tau)
  1  2     7.08049314E-01   # sin(theta_tau)
  2  1    -7.08049314E-01   # -sin(theta_tau)
  2  2     7.06162990E-01   # cos(theta_tau)
#
BLOCK ALPHA  # Higgs mixing
          -5.90272931E-01   # Mixing angle in the neutral Higgs boson sector
#
BLOCK HMIX Q=  9.11876000E+01  # DRbar Higgs Parameters
         1     5.00000000E+03   # mu(Q)               
         2     1.49999981E+00   # tanbeta(Q)          
         3     2.52267933E+02   # vev(Q)              
         4     3.21614516E+06   # MA^2(Q)             
#
BLOCK GAUGE Q=  9.11876000E+01  # The gauge couplings
     1     3.52523016E-01   # gprime(Q) DRbar
     2     6.29313201E-01   # g(Q) DRbar
     3     1.06418902E+00   # g3(Q) DRbar
#
BLOCK AU Q=  9.11876000E+01  # The trilinear couplings
  1  1     0.00000000E+00   # A_u(Q) DRbar
  2  2     0.00000000E+00   # A_c(Q) DRbar
  3  3     0.00000000E+00   # A_t(Q) DRbar
#
BLOCK AD Q=  9.11876000E+01  # The trilinear couplings
  1  1     0.00000000E+00   # A_d(Q) DRbar
  2  2     0.00000000E+00   # A_s(Q) DRbar
  3  3     0.00000000E+00   # A_b(Q) DRbar
#
BLOCK AE Q=  9.11876000E+01  # The trilinear couplings
  1  1     0.00000000E+00   # A_e(Q) DRbar
  2  2     0.00000000E+00   # A_mu(Q) DRbar
  3  3     0.00000000E+00   # A_tau(Q) DRbar
#
BLOCK Yu Q=  9.11876000E+01  # The Yukawa couplings
  1  1     0.00000000E+00   # y_u(Q) DRbar
  2  2     0.00000000E+00   # y_c(Q) DRbar
  3  3     1.01441260E+00   # y_t(Q) DRbar
#
BLOCK Yd Q=  9.11876000E+01  # The Yukawa couplings
  1  1     0.00000000E+00   # y_d(Q) DRbar
  2  2     0.00000000E+00   # y_s(Q) DRbar
  3  3     2.68328960E-02   # y_b(Q) DRbar
#
BLOCK Ye Q=  9.11876000E+01  # The Yukawa couplings
  1  1     0.00000000E+00   # y_e(Q) DRbar
  2  2     0.00000000E+00   # y_mu(Q) DRbar
  3  3     1.79529247E-02   # y_tau(Q) DRbar
#
BLOCK MSOFT Q=  9.11876000E+01  # The soft SUSY breaking masses at the scale Q
         1     5.00000000E+03   # M_1                 
         2     5.51985000E+02   # M_2                 
         3     5.68366000E+03   # M_3                 
        14     0.00000000E+00   # A_u                 
        15     0.00000000E+00   # A_d                 
        16     0.00000000E+00   # A_e                 
        21    -2.44199412E+07   # M^2_Hd              
        22    -2.88575060E+07   # M^2_Hu              
        31     5.00000000E+03   # M_eL                
        32     5.00000000E+03   # M_muL               
        33     5.00000000E+03   # M_tauL              
        34     5.00000000E+03   # M_eR                
        35     5.00000000E+03   # M_muR               
        36     5.00000000E+03   # M_tauR              
        41     5.00000000E+03   # M_q1L               
        42     5.00000000E+03   # M_q2L               
        43     5.00000000E+03   # M_q3L               
        44     5.00000000E+03   # M_uR                
        45     5.00000000E+03   # M_cR                
        46     5.00000000E+03   # M_tR                
        47     5.00000000E+03   # M_dR                
        48     5.00000000E+03   # M_sR                
        49     5.00000000E+03   # M_bR                
#
#
#
#                             =================
#                             |The decay table|
#                             =================
#
# - The QCD corrections to the decays gluino -> squark  + quark
#                                     squark -> gaugino + quark_prime
#                                     squark -> squark_prime + Higgs
#                                     squark -> gluino  + quark
#   are included.
#
# - The multi-body decays for the inos, stops and sbottoms are included.
#
# - The loop induced decays for the gluino, neutralinos and stops
#   are included.
#
# - The SUSY decays of the top quark are included.
#
# - Possible decays of the NLSP in GMSB models are included.
#
#
#         PDG            Width
DECAY         6     1.36922493E+00   # top decays
#          BR         NDA      ID1       ID2
     1.00000000E+00    2           5        24   # BR(t ->  b    W+)
#
#         PDG            Width
DECAY   1000021     6.15455952E+01   # gluino decays
#          BR         NDA      ID1       ID2
     4.34804784E-02    2     1000001        -1   # BR(~g -> ~d_L  db)
     4.34804784E-02    2    -1000001         1   # BR(~g -> ~d_L* d )
     4.34927866E-02    2     2000001        -1   # BR(~g -> ~d_R  db)
     4.34927866E-02    2    -2000001         1   # BR(~g -> ~d_R* d )
     4.35079725E-02    2     1000002        -2   # BR(~g -> ~u_L  ub)
     4.35079725E-02    2    -1000002         2   # BR(~g -> ~u_L* u )
     4.35014147E-02    2     2000002        -2   # BR(~g -> ~u_R  ub)
     4.35014147E-02    2    -2000002         2   # BR(~g -> ~u_R* u )
     4.34804784E-02    2     1000003        -3   # BR(~g -> ~s_L  sb)
     4.34804784E-02    2    -1000003         3   # BR(~g -> ~s_L* s )
     4.34927866E-02    2     2000003        -3   # BR(~g -> ~s_R  sb)
     4.34927866E-02    2    -2000003         3   # BR(~g -> ~s_R* s )
     4.35079725E-02    2     1000004        -4   # BR(~g -> ~c_L  cb)
     4.35079725E-02    2    -1000004         4   # BR(~g -> ~c_L* c )
     4.35014147E-02    2     2000004        -4   # BR(~g -> ~c_R  cb)
     4.35014147E-02    2    -2000004         4   # BR(~g -> ~c_R* c )
     4.35985031E-02    2     1000005        -5   # BR(~g -> ~b_1  bb)
     4.35985031E-02    2    -1000005         5   # BR(~g -> ~b_1* b )
     4.33754755E-02    2     2000005        -5   # BR(~g -> ~b_2  bb)
     4.33754755E-02    2    -2000005         5   # BR(~g -> ~b_2* b )
     4.30918806E-02    2     1000006        -6   # BR(~g -> ~t_1  tb)
     4.30918806E-02    2    -1000006         6   # BR(~g -> ~t_1* t )
     2.19396095E-02    2     2000006        -6   # BR(~g -> ~t_2  tb)
     2.19396095E-02    2    -2000006         6   # BR(~g -> ~t_2* t )
     5.84534750E-05    2     1000039        21   # BR(~g -> ~G g)
#
#         PDG            Width
DECAY   1000006     4.74149485E+01   # stop1 decays
#          BR         NDA      ID1       ID2
     3.32756193E-01    2     1000022         6   # BR(~t_1 -> ~chi_10 t )
     6.67243807E-01    2     1000024         5   # BR(~t_1 -> ~chi_1+ b )
#
#         PDG            Width
DECAY   2000006    -3.78132539E-01   # stop2 decays
#          BR         NDA      ID1       ID2
     8.19341062E-01    2     1000022         6   # BR(~t_2 -> ~chi_10 t )
     1.64518676E+00    2     1000024         5   # BR(~t_2 -> ~chi_1+ b )
    -3.82069093E-01    2     1000006        25   # BR(~t_2 -> ~t_1    h )
    -2.47302863E-01    2     1000006        23   # BR(~t_2 -> ~t_1    Z )
    -4.21876116E-01    2     1000005        24   # BR(~t_2 -> ~b_1    W+)
    -4.13279746E-01    2     2000005        24   # BR(~t_2 -> ~b_2    W+)
#
#         PDG            Width
DECAY   1000005     2.21340006E+01   # sbottom1 decays
#          BR         NDA      ID1       ID2
     3.33913892E-01    2     1000022         5   # BR(~b_1 -> ~chi_10 b )
     6.66086108E-01    2    -1000024         6   # BR(~b_1 -> ~chi_1- t )
#
#         PDG            Width
DECAY   2000005     2.39218838E+01   # sbottom2 decays
#          BR         NDA      ID1       ID2
     3.33918501E-01    2     1000022         5   # BR(~b_2 -> ~chi_10 b )
     6.66081499E-01    2    -1000024         6   # BR(~b_2 -> ~chi_1- t )
#
#         PDG            Width
DECAY   1000002     4.64355163E+01   # sup_L decays
#          BR         NDA      ID1       ID2
     3.33300689E-01    2     1000022         2   # BR(~u_L -> ~chi_10 u)
     6.66699311E-01    2     1000024         1   # BR(~u_L -> ~chi_1+ d)
#
#         PDG            Width
DECAY   2000002     1.98436891E-07   # sup_R decays
#          BR         NDA      ID1       ID2
     1.00000000E+00    2     1000022         2   # BR(~u_R -> ~chi_10 u)
#
#         PDG            Width
DECAY   1000001     4.64349852E+01   # sdown_L decays
#          BR         NDA      ID1       ID2
     3.33365950E-01    2     1000022         1   # BR(~d_L -> ~chi_10 d)
     6.66634050E-01    2    -1000024         2   # BR(~d_L -> ~chi_1- u)
#
#         PDG            Width
DECAY   2000001     4.96103298E-08   # sdown_R decays
#          BR         NDA      ID1       ID2
     1.00000000E+00    2     1000022         1   # BR(~d_R -> ~chi_10 d)
#
#         PDG            Width
DECAY   1000004     4.64355163E+01   # scharm_L decays
#          BR         NDA      ID1       ID2
     3.33300689E-01    2     1000022         4   # BR(~c_L -> ~chi_10 c)
     6.66699311E-01    2     1000024         3   # BR(~c_L -> ~chi_1+ s)
#
#         PDG            Width
DECAY   2000004     1.98436891E-07   # scharm_R decays
#          BR         NDA      ID1       ID2
     1.00000000E+00    2     1000022         4   # BR(~c_R -> ~chi_10 c)
#
#         PDG            Width
DECAY   1000003     4.64349852E+01   # sstrange_L decays
#          BR         NDA      ID1       ID2
     3.33365950E-01    2     1000022         3   # BR(~s_L -> ~chi_10 s)
     6.66634050E-01    2    -1000024         4   # BR(~s_L -> ~chi_1- c)
#
#         PDG            Width
DECAY   2000003     4.96103298E-08   # sstrange_R decays
#          BR         NDA      ID1       ID2
     1.00000000E+00    2     1000022         3   # BR(~s_R -> ~chi_10 s)
#
#         PDG            Width
DECAY   1000011     5.73795123E+01   # selectron_L decays
#          BR         NDA      ID1       ID2
     3.33315625E-01    2     1000022        11   # BR(~e_L -> ~chi_10 e-)
     6.66684375E-01    2    -1000024        12   # BR(~e_L -> ~chi_1- nu_e)
#
#         PDG            Width
DECAY   2000011     5.51787836E-07   # selectron_R decays
#          BR         NDA      ID1       ID2
     1.00000000E+00    2     1000022        11   # BR(~e_R -> ~chi_10 e-)
#
#         PDG            Width
DECAY   1000013     5.73795123E+01   # smuon_L decays
#          BR         NDA      ID1       ID2
     3.33315625E-01    2     1000022        13   # BR(~mu_L -> ~chi_10 mu-)
     6.66684375E-01    2    -1000024        14   # BR(~mu_L -> ~chi_1- nu_mu)
#
#         PDG            Width
DECAY   2000013     5.51787836E-07   # smuon_R decays
#          BR         NDA      ID1       ID2
     1.00000000E+00    2     1000022        13   # BR(~mu_R -> ~chi_10 mu-)
#
#         PDG            Width
DECAY   1000015     2.86407015E+01   # stau_1 decays
#          BR         NDA      ID1       ID2
     3.33273879E-01    2     1000022        15   # BR(~tau_1 -> ~chi_10  tau-)
     6.66600660E-01    2    -1000024        16   # BR(~tau_1 -> ~chi_1-  nu_tau)
     1.25460900E-04    2     1000039        15   # BR(~tau_1 -> ~G       tau-)
#
#         PDG            Width
DECAY   2000015     2.87424051E+01   # stau_2 decays
#          BR         NDA      ID1       ID2
     3.33315545E-01    2     1000022        15   # BR(~tau_2 -> ~chi_10  tau-)
     6.66684455E-01    2    -1000024        16   # BR(~tau_2 -> ~chi_1-  nu_tau)
#
#         PDG            Width
DECAY   1000012     5.73899655E+01   # snu_eL decays
#          BR         NDA      ID1       ID2
     3.33351009E-01    2     1000022        12   # BR(~nu_eL -> ~chi_10 nu_e)
     6.66648991E-01    2     1000024        11   # BR(~nu_eL -> ~chi_1+ e-)
#
#         PDG            Width
DECAY   1000014     5.73899655E+01   # snu_muL decays
#          BR         NDA      ID1       ID2
     3.33351009E-01    2     1000022        14   # BR(~nu_muL -> ~chi_10 nu_mu)
     6.66648991E-01    2     1000024        13   # BR(~nu_muL -> ~chi_1+ mu-)
#
#         PDG            Width
DECAY   1000016     5.73899637E+01   # snu_tauL decays
#          BR         NDA      ID1       ID2
     3.33351020E-01    2     1000022        16   # BR(~nu_tauL -> ~chi_10 nu_tau)
     6.66648980E-01    2     1000024        15   # BR(~nu_tauL -> ~chi_1+ tau-)
#
#         PDG            Width
DECAY   1000024     2.06673957E-8   # chargino1+ decays               
#          BR         NDA      ID1       ID2
     1.00000000E+00    2     1000039        24   # BR(~chi_1+ -> ~G       W+)
#           BR         NDA      ID1       ID2       ID3
     2.89433425E-25    3     1000022         2        -1   # BR(~chi_1+ -> ~chi_10 u    db)
     2.89433425E-25    3     1000022         4        -3   # BR(~chi_1+ -> ~chi_10 c    sb)
     9.64660114E-26    3     1000022       -11        12   # BR(~chi_1+ -> ~chi_10 e+   nu_e)
     9.64660114E-26    3     1000022       -13        14   # BR(~chi_1+ -> ~chi_10 mu+  nu_mu)
#
#         PDG            Width
DECAY   1000037     8.94914584E+01   # chargino2+ decays
#          BR         NDA      ID1       ID2
     2.15744711E-05    2     1000002        -1   # BR(~chi_2+ -> ~u_L     db)
     4.09070626E-05    2    -1000001         2   # BR(~chi_2+ -> ~d_L*    u )
     2.15744711E-05    2     1000004        -3   # BR(~chi_2+ -> ~c_L     sb)
     4.09070626E-05    2    -1000003         4   # BR(~chi_2+ -> ~s_L*    c )
    -4.54136720E-03    2     1000006        -5   # BR(~chi_2+ -> ~t_1     bb)
     1.64937166E-01    2     2000006        -5   # BR(~chi_2+ -> ~t_2     bb)
     1.16418675E-01    2    -1000005         6   # BR(~chi_2+ -> ~b_1*    t )
     1.23112752E-01    2    -2000005         6   # BR(~chi_2+ -> ~b_2*    t )
     3.09591351E-07    2     1000012       -11   # BR(~chi_2+ -> ~nu_eL   e+  )
     3.09591351E-07    2     1000014       -13   # BR(~chi_2+ -> ~nu_muL  mu+ )
     1.55140463E-06    2     1000016       -15   # BR(~chi_2+ -> ~nu_tau1 tau+)
     5.85991014E-07    2    -1000011        12   # BR(~chi_2+ -> ~e_L+    nu_e)
     5.85991014E-07    2    -1000013        14   # BR(~chi_2+ -> ~mu_L+   nu_mu)
     6.37068620E-08    2    -1000015        16   # BR(~chi_2+ -> ~tau_1+  nu_tau)
     1.75142786E-06    2    -2000015        16   # BR(~chi_2+ -> ~tau_2+  nu_tau)
     1.38225322E-01    2     1000024        23   # BR(~chi_2+ -> ~chi_1+  Z )
     1.34891927E-01    2     1000022        24   # BR(~chi_2+ -> ~chi_10  W+)
     1.38624330E-01    2     1000024        25   # BR(~chi_2+ -> ~chi_1+  h )
     6.25908345E-02    2     1000024        35   # BR(~chi_2+ -> ~chi_1+  H )
     6.26680192E-02    2     1000024        36   # BR(~chi_2+ -> ~chi_1+  A )
     6.29041180E-02    2     1000022        37   # BR(~chi_2+ -> ~chi_10  H+)
     2.48662085E-05    2     1000039        24   # BR(~chi_2+ -> ~G       W+)
     1.32366146E-05    2     1000039        37   # BR(~chi_2+ -> ~G       H+)
#
#         PDG            Width
DECAY   1000022     2.06657872E-8   # neutralino1 decays              
#          BR         NDA      ID1       ID2
     2.56082060E-01    2     1000039        22   # BR(~chi_10 -> ~G        gam)
     7.43917754E-01    2     1000039        23   # BR(~chi_10 -> ~G        Z)
     1.85975667E-07    2     1000039        25   # BR(~chi_10 -> ~G        h)
#
#         PDG            Width
DECAY   1000023     7.67344727E+01   # neutralino2 decays
#          BR         NDA      ID1       ID2
     3.27760355E-03    2     1000022        23   # BR(~chi_20 -> ~chi_10   Z )
     1.31625991E-01    2     1000024       -24   # BR(~chi_20 -> ~chi_1+   W-)
     1.31625991E-01    2    -1000024        24   # BR(~chi_20 -> ~chi_1-   W+)
     1.32052091E-01    2     1000022        25   # BR(~chi_20 -> ~chi_10   h )
     3.87972465E-03    2     1000022        35   # BR(~chi_20 -> ~chi_10   H )
     5.69692456E-02    2     1000022        36   # BR(~chi_20 -> ~chi_10   A )
     6.11787101E-02    2     1000024       -37   # BR(~chi_20 -> ~chi_1+   H-)
     6.11787101E-02    2    -1000024        37   # BR(~chi_20 -> ~chi_1-   H+)
     5.79365957E-04    2     1000002        -2   # BR(~chi_20 -> ~u_L      ub)
     5.79365957E-04    2    -1000002         2   # BR(~chi_20 -> ~u_L*     u )
     6.41314227E-03    2     2000002        -2   # BR(~chi_20 -> ~u_R      ub)
     6.41314227E-03    2    -2000002         2   # BR(~chi_20 -> ~u_R*     u )
     2.55032312E-04    2     1000001        -1   # BR(~chi_20 -> ~d_L      db)
     2.55032312E-04    2    -1000001         1   # BR(~chi_20 -> ~d_L*     d )
     1.60308262E-03    2     2000001        -1   # BR(~chi_20 -> ~d_R      db)
     1.60308262E-03    2    -2000001         1   # BR(~chi_20 -> ~d_R*     d )
     5.79365957E-04    2     1000004        -4   # BR(~chi_20 -> ~c_L      cb)
     5.79365957E-04    2    -1000004         4   # BR(~chi_20 -> ~c_L*     c )
     6.41314227E-03    2     2000004        -4   # BR(~chi_20 -> ~c_R      cb)
     6.41314227E-03    2    -2000004         4   # BR(~chi_20 -> ~c_R*     c )
     2.55032312E-04    2     1000003        -3   # BR(~chi_20 -> ~s_L      sb)
     2.55032312E-04    2    -1000003         3   # BR(~chi_20 -> ~s_L*     s )
     1.60308262E-03    2     2000003        -3   # BR(~chi_20 -> ~s_R      sb)
     1.60308262E-03    2    -2000003         3   # BR(~chi_20 -> ~s_R*     s )
     1.03065675E-01    2     1000006        -6   # BR(~chi_20 -> ~t_1      tb)
     1.03065675E-01    2    -1000006         6   # BR(~chi_20 -> ~t_1*     t )
     8.75814065E-02    2     2000006        -6   # BR(~chi_20 -> ~t_2      tb)
     8.75814065E-02    2    -2000006         6   # BR(~chi_20 -> ~t_2*     t )
     1.55481008E-03    2     1000005        -5   # BR(~chi_20 -> ~b_1      bb)
     1.55481008E-03    2    -1000005         5   # BR(~chi_20 -> ~b_1*     b )
     4.79496359E-04    2     2000005        -5   # BR(~chi_20 -> ~b_2      bb)
     4.79496359E-04    2    -2000005         5   # BR(~chi_20 -> ~b_2*     b )
     4.47198872E-05    2     1000011       -11   # BR(~chi_20 -> ~e_L-     e+)
     4.47198872E-05    2    -1000011        11   # BR(~chi_20 -> ~e_L+     e-)
     1.57012525E-04    2     2000011       -11   # BR(~chi_20 -> ~e_R-     e+)
     1.57012525E-04    2    -2000011        11   # BR(~chi_20 -> ~e_R+     e-)
     4.47198872E-05    2     1000013       -13   # BR(~chi_20 -> ~mu_L-    mu+)
     4.47198872E-05    2    -1000013        13   # BR(~chi_20 -> ~mu_L+    mu-)
     1.57012525E-04    2     2000013       -13   # BR(~chi_20 -> ~mu_R-    mu+)
     1.57012525E-04    2    -2000013        13   # BR(~chi_20 -> ~mu_R+    mu-)
     1.06345837E-04    2     1000015       -15   # BR(~chi_20 -> ~tau_1-   tau+)
     1.06345837E-04    2    -1000015        15   # BR(~chi_20 -> ~tau_1+   tau-)
     9.65758807E-05    2     2000015       -15   # BR(~chi_20 -> ~tau_2-   tau+)
     9.65758807E-05    2    -2000015        15   # BR(~chi_20 -> ~tau_2+   tau-)
     3.42194586E-05    2     1000012       -12   # BR(~chi_20 -> ~nu_eL    nu_eb)
     3.42194586E-05    2    -1000012        12   # BR(~chi_20 -> ~nu_eL*   nu_e )
     3.42194586E-05    2     1000014       -14   # BR(~chi_20 -> ~nu_muL   nu_mub)
     3.42194586E-05    2    -1000014        14   # BR(~chi_20 -> ~nu_muL*  nu_mu )
     3.42194586E-05    2     1000016       -16   # BR(~chi_20 -> ~nu_tau1  nu_taub)
     3.42194586E-05    2    -1000016        16   # BR(~chi_20 -> ~nu_tau1* nu_tau )
     7.56545747E-06    2     1000039        22   # BR(~chi_20 -> ~G        gam)
     2.47387634E-05    2     1000039        23   # BR(~chi_20 -> ~G        Z)
     8.85901507E-07    2     1000039        25   # BR(~chi_20 -> ~G        h)
     1.19889267E-05    2     1000039        35   # BR(~chi_20 -> ~G        H)
     4.82041508E-07    2     1000039        36   # BR(~chi_20 -> ~G        A)
#
#         PDG            Width
DECAY   1000025     8.79985347E+01   # neutralino3 decays
#          BR         NDA      ID1       ID2
     1.37077018E-01    2     1000022        23   # BR(~chi_30 -> ~chi_10   Z )
     1.37142325E-01    2     1000024       -24   # BR(~chi_30 -> ~chi_1+   W-)
     1.37142325E-01    2    -1000024        24   # BR(~chi_30 -> ~chi_1-   W+)
     3.38996331E-03    2     1000022        25   # BR(~chi_30 -> ~chi_10   h )
     5.96004382E-02    2     1000022        35   # BR(~chi_30 -> ~chi_10   H )
     4.10787261E-03    2     1000022        36   # BR(~chi_30 -> ~chi_10   A )
     6.39246389E-02    2     1000024       -37   # BR(~chi_30 -> ~chi_1+   H-)
     6.39246389E-02    2    -1000024        37   # BR(~chi_30 -> ~chi_1-   H+)
     3.89489763E-07    2     1000002        -2   # BR(~chi_30 -> ~u_L      ub)
     3.89489763E-07    2    -1000002         2   # BR(~chi_30 -> ~u_L*     u )
     2.35263377E-08    2     2000002        -2   # BR(~chi_30 -> ~u_R      ub)
     2.35263377E-08    2    -2000002         2   # BR(~chi_30 -> ~u_R*     u )
     4.90906842E-07    2     1000001        -1   # BR(~chi_30 -> ~d_L      db)
     4.90906842E-07    2    -1000001         1   # BR(~chi_30 -> ~d_L*     d )
     5.88085320E-09    2     2000001        -1   # BR(~chi_30 -> ~d_R      db)
     5.88085320E-09    2    -2000001         1   # BR(~chi_30 -> ~d_R*     d )
     3.89489763E-07    2     1000004        -4   # BR(~chi_30 -> ~c_L      cb)
     3.89489763E-07    2    -1000004         4   # BR(~chi_30 -> ~c_L*     c )
     2.35263377E-08    2     2000004        -4   # BR(~chi_30 -> ~c_R      cb)
     2.35263377E-08    2    -2000004         4   # BR(~chi_30 -> ~c_R*     c )
     4.90906842E-07    2     1000003        -3   # BR(~chi_30 -> ~s_L      sb)
     4.90906842E-07    2    -1000003         3   # BR(~chi_30 -> ~s_L*     s )
     5.88085320E-09    2     2000003        -3   # BR(~chi_30 -> ~s_R      sb)
     5.88085320E-09    2    -2000003         3   # BR(~chi_30 -> ~s_R*     s )
     1.16410074E-01    2     1000006        -6   # BR(~chi_30 -> ~t_1      tb)
     1.16410074E-01    2    -1000006         6   # BR(~chi_30 -> ~t_1*     t )
     8.02408064E-02    2     2000006        -6   # BR(~chi_30 -> ~t_2      tb)
     8.02408064E-02    2    -2000006         6   # BR(~chi_30 -> ~t_2*     t )
     7.91624297E-05    2     1000005        -5   # BR(~chi_30 -> ~b_1      bb)
     7.91624297E-05    2    -1000005         5   # BR(~chi_30 -> ~b_1*     b )
     9.31368254E-05    2     2000005        -5   # BR(~chi_30 -> ~b_2      bb)
     9.31368254E-05    2    -2000005         5   # BR(~chi_30 -> ~b_2*     b )
     3.77513701E-09    2     1000011       -11   # BR(~chi_30 -> ~e_L-     e+)
     3.77513701E-09    2    -1000011        11   # BR(~chi_30 -> ~e_L+     e-)
     6.67014451E-10    2     2000011       -11   # BR(~chi_30 -> ~e_R-     e+)
     6.67014451E-10    2    -2000011        11   # BR(~chi_30 -> ~e_R+     e-)
     3.77513701E-09    2     1000013       -13   # BR(~chi_30 -> ~mu_L-    mu+)
     3.77513701E-09    2    -1000013        13   # BR(~chi_30 -> ~mu_L+    mu-)
     6.67014451E-10    2     2000013       -13   # BR(~chi_30 -> ~mu_R-    mu+)
     6.67014451E-10    2    -2000013        13   # BR(~chi_30 -> ~mu_R+    mu-)
     5.63377258E-07    2     1000015       -15   # BR(~chi_30 -> ~tau_1-   tau+)
     5.63377258E-07    2    -1000015        15   # BR(~chi_30 -> ~tau_1+   tau-)
     6.97087523E-07    2     2000015       -15   # BR(~chi_30 -> ~tau_2-   tau+)
     6.97087523E-07    2    -2000015        15   # BR(~chi_30 -> ~tau_2+   tau-)
     7.63240420E-09    2     1000012       -12   # BR(~chi_30 -> ~nu_eL    nu_eb)
     7.63240420E-09    2    -1000012        12   # BR(~chi_30 -> ~nu_eL*   nu_e )
     7.63240420E-09    2     1000014       -14   # BR(~chi_30 -> ~nu_muL   nu_mub)
     7.63240420E-09    2    -1000014        14   # BR(~chi_30 -> ~nu_muL*  nu_mu )
     7.63240420E-09    2     1000016       -16   # BR(~chi_30 -> ~nu_tau1  nu_taub)
     7.63240420E-09    2    -1000016        16   # BR(~chi_30 -> ~nu_tau1* nu_tau )
     1.72391938E-11    2     1000039        22   # BR(~chi_30 -> ~G        gam)
     9.71395706E-07    2     1000039        23   # BR(~chi_30 -> ~G        Z)
     2.42657910E-05    2     1000039        25   # BR(~chi_30 -> ~G        h)
     5.01526501E-07    2     1000039        35   # BR(~chi_30 -> ~G        H)
     1.28652728E-05    2     1000039        36   # BR(~chi_30 -> ~G        A)
#
#         PDG            Width
DECAY   1000035     3.61380817E+01   # neutralino4 decays
#          BR         NDA      ID1       ID2
     1.45628371E-03    2     1000022        23   # BR(~chi_40 -> ~chi_10   Z )
     4.74381106E-08    2     1000023        23   # BR(~chi_40 -> ~chi_20   Z )
     5.79444605E-04    2     1000025        23   # BR(~chi_40 -> ~chi_30   Z )
     5.45984347E-02    2     1000024       -24   # BR(~chi_40 -> ~chi_1+   W-)
     5.45984347E-02    2    -1000024        24   # BR(~chi_40 -> ~chi_1-   W+)
     1.76619627E-03    2     1000037       -24   # BR(~chi_40 -> ~chi_2+   W-)
     1.76619627E-03    2    -1000037        24   # BR(~chi_40 -> ~chi_2-   W+)
     5.46782936E-02    2     1000022        25   # BR(~chi_40 -> ~chi_10   h )
     1.52218711E-03    2     1000022        35   # BR(~chi_40 -> ~chi_10   H )
     2.41823304E-02    2     1000022        36   # BR(~chi_40 -> ~chi_10   A )
     2.58380906E-02    2     1000024       -37   # BR(~chi_40 -> ~chi_1+   H-)
     2.58380906E-02    2    -1000024        37   # BR(~chi_40 -> ~chi_1-   H+)
     4.48516139E-03    2     1000002        -2   # BR(~chi_40 -> ~u_L      ub)
     4.48516139E-03    2    -1000002         2   # BR(~chi_40 -> ~u_L*     u )
     7.78048990E-02    2     2000002        -2   # BR(~chi_40 -> ~u_R      ub)
     7.78048990E-02    2    -2000002         2   # BR(~chi_40 -> ~u_R*     u )
     5.25468608E-03    2     1000001        -1   # BR(~chi_40 -> ~d_L      db)
     5.25468608E-03    2    -1000001         1   # BR(~chi_40 -> ~d_L*     d )
     1.94490200E-02    2     2000001        -1   # BR(~chi_40 -> ~d_R      db)
     1.94490200E-02    2    -2000001         1   # BR(~chi_40 -> ~d_R*     d )
     4.48516139E-03    2     1000004        -4   # BR(~chi_40 -> ~c_L      cb)
     4.48516139E-03    2    -1000004         4   # BR(~chi_40 -> ~c_L*     c )
     7.78048990E-02    2     2000004        -4   # BR(~chi_40 -> ~c_R      cb)
     7.78048990E-02    2    -2000004         4   # BR(~chi_40 -> ~c_R*     c )
     5.25468608E-03    2     1000003        -3   # BR(~chi_40 -> ~s_L      sb)
     5.25468608E-03    2    -1000003         3   # BR(~chi_40 -> ~s_L*     s )
     1.94490200E-02    2     2000003        -3   # BR(~chi_40 -> ~s_R      sb)
     1.94490200E-02    2    -2000003         3   # BR(~chi_40 -> ~s_R*     s )
     6.22080254E-02    2     1000006        -6   # BR(~chi_40 -> ~t_1      tb)
     6.22080254E-02    2    -1000006         6   # BR(~chi_40 -> ~t_1*     t )
     7.85873307E-02    2     2000006        -6   # BR(~chi_40 -> ~t_2      tb)
     7.85873307E-02    2    -2000006         6   # BR(~chi_40 -> ~t_2*     t )
     1.17139961E-02    2     1000005        -5   # BR(~chi_40 -> ~b_1      bb)
     1.17139961E-02    2    -1000005         5   # BR(~chi_40 -> ~b_1*     b )
     1.37533666E-02    2     2000005        -5   # BR(~chi_40 -> ~b_2      bb)
     1.37533666E-02    2    -2000005         5   # BR(~chi_40 -> ~b_2*     b )
     9.75453105E-04    2     1000011       -11   # BR(~chi_40 -> ~e_L-     e+)
     9.75453105E-04    2    -1000011        11   # BR(~chi_40 -> ~e_L+     e-)
     4.00722333E-03    2     2000011       -11   # BR(~chi_40 -> ~e_R-     e+)
     4.00722333E-03    2    -2000011        11   # BR(~chi_40 -> ~e_R+     e-)
     9.75453105E-04    2     1000013       -13   # BR(~chi_40 -> ~mu_L-    mu+)
     9.75453105E-04    2    -1000013        13   # BR(~chi_40 -> ~mu_L+    mu-)
     4.00722333E-03    2     2000013       -13   # BR(~chi_40 -> ~mu_R-    mu+)
     4.00722333E-03    2    -2000013        13   # BR(~chi_40 -> ~mu_R+    mu-)
     2.48135448E-03    2     1000015       -15   # BR(~chi_40 -> ~tau_1-   tau+)
     2.48135448E-03    2    -1000015        15   # BR(~chi_40 -> ~tau_1+   tau-)
     2.50161925E-03    2     2000015       -15   # BR(~chi_40 -> ~tau_2-   tau+)
     2.50161925E-03    2    -2000015        15   # BR(~chi_40 -> ~tau_2+   tau-)
     1.02995703E-03    2     1000012       -12   # BR(~chi_40 -> ~nu_eL    nu_eb)
     1.02995703E-03    2    -1000012        12   # BR(~chi_40 -> ~nu_eL*   nu_e )
     1.02995703E-03    2     1000014       -14   # BR(~chi_40 -> ~nu_muL   nu_mub)
     1.02995703E-03    2    -1000014        14   # BR(~chi_40 -> ~nu_muL*  nu_mu )
     1.02995703E-03    2     1000016       -16   # BR(~chi_40 -> ~nu_tau1  nu_taub)
     1.02995703E-03    2    -1000016        16   # BR(~chi_40 -> ~nu_tau1* nu_tau )
     8.49320657E-05    2     1000039        22   # BR(~chi_40 -> ~G        gam)
     3.84215492E-05    2     1000039        23   # BR(~chi_40 -> ~G        Z)
     4.32114964E-07    2     1000039        25   # BR(~chi_40 -> ~G        h)
     5.88803204E-06    2     1000039        35   # BR(~chi_40 -> ~G        H)
     2.31691844E-07    2     1000039        36   # BR(~chi_40 -> ~G        A)
#
#         PDG            Width
DECAY        25     4.11666665E-03   # h decays
#          BR         NDA      ID1       ID2
     6.20225909E-01    2           5        -5   # BR(h -> b       bb     )
     6.32822491E-02    2         -15        15   # BR(h -> tau+    tau-   )
     2.23995855E-04    2         -13        13   # BR(h -> mu+     mu-    )
     4.74664092E-04    2           3        -3   # BR(h -> s       sb     )
     2.04718331E-02    2           4        -4   # BR(h -> c       cb     )
     6.65130769E-02    2          21        21   # BR(h -> g       g      )
     2.28739643E-03    2          22        22   # BR(h -> gam     gam    )
     1.52519600E-03    2          22        23   # BR(h -> Z       gam    )
     1.99571319E-01    2          24       -24   # BR(h -> W+      W-     )
     2.54243607E-02    2          23        23   # BR(h -> Z       Z      )
#
#         PDG            Width
DECAY        35     3.76297627E+01   # H decays
#          BR         NDA      ID1       ID2
     1.43002778E-03    2           5        -5   # BR(H -> b       bb     )
     2.47571073E-04    2         -15        15   # BR(H -> tau+    tau-   )
     8.75255917E-07    2         -13        13   # BR(H -> mu+     mu-    )
     1.12061463E-06    2           3        -3   # BR(H -> s       sb     )
     1.01163279E-05    2           4        -4   # BR(H -> c       cb     )
     9.96075169E-01    2           6        -6   # BR(H -> t       tb     )
     7.95954547E-04    2          21        21   # BR(H -> g       g      )
     2.73878393E-06    2          22        22   # BR(H -> gam     gam    )
     1.15450131E-06    2          23        22   # BR(H -> Z       gam    )
     3.58202469E-04    2          24       -24   # BR(H -> W+      W-     )
     1.78612130E-04    2          23        23   # BR(H -> Z       Z      )
     8.74175559E-04    2          25        25   # BR(H -> h       h      )
     5.69042823E-24    2          36        36   # BR(H -> A       A      )
     2.57206398E-11    2          23        36   # BR(H -> Z       A      )
     1.04811624E-08    2          24       -37   # BR(H -> W+      H-     )
     1.04811624E-08    2         -24        37   # BR(H -> W-      H+     )
     1.61725664E-05    2     1000024  -1000024   # BR(H -> ~chi_1+ ~chi_1-)
     8.08855472E-06    2     1000022   1000022   # BR(H -> ~chi_10 ~chi_10)
#
#         PDG            Width
DECAY        36     3.80573886E+01   # A decays
#          BR         NDA      ID1       ID2
     1.43347677E-03    2           5        -5   # BR(A -> b       bb     )
     2.45056663E-04    2         -15        15   # BR(A -> tau+    tau-   )
     8.66363829E-07    2         -13        13   # BR(A -> mu+     mu-    )
     1.14213316E-06    2           3        -3   # BR(A -> s       sb     )
     1.00087145E-05    2           4        -4   # BR(A -> c       cb     )
     9.96701714E-01    2           6        -6   # BR(A -> t       tb     )
     9.42028300E-04    2          21        21   # BR(A -> g       g      )
     2.95030002E-06    2          22        22   # BR(A -> gam     gam    )
     1.34601259E-06    2          23        22   # BR(A -> Z       gam    )
     3.49181477E-04    2          23        25   # BR(A -> Z       h      )
     2.08129884E-04    2     1000024  -1000024   # BR(A -> ~chi_1+ ~chi_1-)
     1.04099373E-04    2     1000022   1000022   # BR(A -> ~chi_10 ~chi_10)
#
#         PDG            Width
DECAY        37     3.71195529E+01   # H+ decays
#          BR         NDA      ID1       ID2
     2.27336796E-06    2           4        -5   # BR(H+ -> c       bb     )
     2.50376072E-04    2         -15        16   # BR(H+ -> tau+    nu_tau )
     8.85169871E-07    2         -13        14   # BR(H+ -> mu+     nu_mu  )
     1.44491597E-08    2           2        -5   # BR(H+ -> u       bb     )
     5.48481315E-08    2           2        -3   # BR(H+ -> u       sb     )
     1.09287164E-05    2           4        -3   # BR(H+ -> c       sb     )
     9.99380727E-01    2           6        -5   # BR(H+ -> t       bb     )
     3.54740845E-04    2          24        25   # BR(H+ -> W+      h      )
     1.53284837E-12    2     1000024   1000022   # BR(H+ -> ~chi_1+ ~chi_10)
