#
#                              ======================
#                              | THE SUSYHIT OUTPUT |
#                              ======================
#
#
#              ------------------------------------------------------
#              |     This is the output of the SUSY-HIT package     |
#              |  created by A.Djouadi, M.Muehlleitner and M.Spira. |
#              |  In case of problems with SUSY-HIT email to        |
#              |           margarete.muehlleitner@cern.ch           |
#              |           michael.spira@psi.ch                     |
#              |           abdelhak.djouadi@cern.ch                 |
#              ------------------------------------------------------
#
#              ------------------------------------------------------
#              |  SUSY Les Houches Accord - MSSM Spectrum + Decays  |
#              |              based on the decay programs           |
#              |                                                    |
#              |                     SDECAY 1.3b                    |
#              |                                                    |
#              |  Authors: M.Muhlleitner, A.Djouadi and Y.Mambrini  |
#              |  Ref.:    Comput.Phys.Commun.168(2005)46           |
#              |           [hep-ph/0311167]                         |
#              |                                                    |
#              |                     HDECAY 3.4                     |
#              |                                                    |
#              |  By: A.Djouadi,J.Kalinowski,M.Muhlleitner,M.Spira  |
#              |  Ref.:    Comput.Phys.Commun.108(1998)56           |
#              |           [hep-ph/9704448]                         |
#              |                                                    |
#              |                                                    |
#              |  If not stated otherwise all DRbar couplings and   |
#              |  soft SUSY breaking masses are given at the scale  |
#              |  Q=  0.50007595E+04
#              |                                                    |
#              ------------------------------------------------------
#
#
BLOCK DCINFO  # Decay Program information
     1   SDECAY/HDECAY # decay calculator
     2   1.3b  /3.4    # version number
#
BLOCK SPINFO  # Spectrum calculator information
     1    SOFTSUSY    # spectrum calculator                
     2    3.4.0       # version number                     
#
BLOCK MODSEL  # Model selection
     1     0   #  nonUniversal                                     
#
BLOCK SMINPUTS  # Standard Model inputs
         1     1.25778332E+02   # alpha_em^-1(M_Z)^MSbar
         2     1.16570000E-05   # G_F [GeV^-2]
         3     1.17200002E-01   # alpha_S(M_Z)^MSbar
         4     9.11876000E+01   # M_Z pole mass
         5     4.25000000E+00   # mb(mb)^MSbar
         6     1.72500000E+02   # mt pole mass
         7     1.77682000E+00   # mtau pole mass
#
BLOCK MINPAR  # Input parameters - minimal models
         3     1.00000000E+01   # tanb                
#
BLOCK EXTPAR  # Input parameters - non-minimal models
         0    -1.00000000E+00   # Set                 
         1     6.00000000E+01   # M_1(MX)             
         2     3.00000000E+03   # M_2(MX)             
         3     2.33132100E+03   # M_3(MX)             
        11     5.00000000E+03   # At(MX)              
        12     5.00000000E+03   # Ab(MX)              
        13     0.00000000E+00   # Atau(MX)            
        23    -5.71312000E+02   # mu(MX)              
        26     3.00000000E+03   # mA(pole)            
        31     5.00000000E+03   # meL(MX)             
        32     5.00000000E+03   # mmuL(MX)            
        33     5.00000000E+03   # mtauL(MX)           
        34     5.00000000E+03   # meR(MX)             
        35     5.00000000E+03   # mmuR(MX)            
        36     5.00000000E+03   # mtauR(MX)           
        41     5.00000000E+03   # mqL1(MX)            
        42     5.00000000E+03   # mqL2(MX)            
        43     5.00000000E+03   # mqL3(MX)            
        44     5.00000000E+03   # muR(MX)             
        45     5.00000000E+03   # mcR(MX)             
        46     5.00000000E+03   # mtR(MX)             
        47     5.00000000E+03   # mdR(MX)             
        48     5.00000000E+03   # msR(MX)             
        49     5.00000000E+03   # mbR(MX)             
#
BLOCK MASS  # Mass Spectrum
# PDG code           mass       particle
        24     8.00939064E+01   # W+
        25     1.24809453E+02   # h
        35     3.00008474E+03   # H
        36     2.99999920E+03   # A
        37     3.00140516E+03   # H+
         5     4.87878001E+00   # b-quark pole mass calculated from mb(mb)_Msbar
   1000001     5.08406397E+03   # ~d_L
   2000001     5.06627807E+03   # ~d_R
   1000002     5.08359355E+03   # ~u_L
   2000002     5.06598248E+03   # ~u_R
   1000003     5.08406397E+03   # ~s_L
   2000003     5.06627807E+03   # ~s_R
   1000004     5.08359355E+03   # ~c_L
   2000004     5.06598248E+03   # ~c_R
   1000005     5.02983141E+03   # ~b_1
   2000005     5.06454001E+03   # ~b_2
   1000006     4.92203036E+03   # ~t_1
   2000006     5.07282378E+03   # ~t_2
   1000011     5.01909592E+03   # ~e_L
   2000011     5.00593908E+03   # ~e_R
   1000012     5.01814631E+03   # ~nu_eL
   1000013     5.01909592E+03   # ~mu_L
   2000013     5.00593908E+03   # ~mu_R
   1000014     5.01814631E+03   # ~nu_muL
   1000015     5.00474851E+03   # ~tau_1
   2000015     5.01864709E+03   # ~tau_2
   1000016     5.01759577E+03   # ~nu_tauL
   1000021     2.70000017E+03   # ~g
   1000022     6.02510679E+01   # ~chi_10
   1000023     6.00199012E+02   # ~chi_20
   1000025    -6.02416287E+02   # ~chi_30
   1000035     3.07417436E+03   # ~chi_40
   1000024     6.00000033E+02   # ~chi_1+
   1000037     3.07434196E+03   # ~chi_2+
#
BLOCK NMIX  # Neutralino Mixing Matrix
  1  1     9.97249191E-01   # N_11
  1  2     2.27072674E-04   # N_12
  1  3    -7.41211170E-02   # N_13
  1  4     2.42769452E-04   # N_14
  2  1     5.22671863E-02   # N_21
  2  2     1.97521168E-02   # N_22
  2  3     7.05593648E-01   # N_23
  2  4     7.06410362E-01   # N_24
  3  1    -5.25551156E-02   # N_31
  3  2     1.65481407E-02   # N_32
  3  3    -7.04725876E-01   # N_33
  3  4     7.07336948E-01   # N_34
  4  1    -3.89275428E-04   # N_41
  4  2     9.99667926E-01   # N_42
  4  3    -2.25898443E-03   # N_43
  4  4    -2.56667897E-02   # N_44
#
BLOCK UMIX  # Chargino Mixing Matrix U
  1  1     3.20180703E-03   # U_11
  1  2     9.99994874E-01   # U_12
  2  1    -9.99994874E-01   # U_21
  2  2     3.20180703E-03   # U_22
#
BLOCK VMIX  # Chargino Mixing Matrix V
  1  1     3.63222239E-02   # V_11
  1  2    -9.99340130E-01   # V_12
  2  1    -9.99340130E-01   # V_21
  2  2    -3.63222239E-02   # V_22
#
BLOCK STOPMIX  # Stop Mixing Matrix
  1  1    -5.01570363E-01   # cos(theta_t)
  1  2     8.65116854E-01   # sin(theta_t)
  2  1    -8.65116854E-01   # -sin(theta_t)
  2  2    -5.01570363E-01   # cos(theta_t)
#
BLOCK SBOTMIX  # Sbottom Mixing Matrix
  1  1     9.98510447E-01   # cos(theta_b)
  1  2    -5.45608581E-02   # sin(theta_b)
  2  1     5.45608581E-02   # -sin(theta_b)
  2  2     9.98510447E-01   # cos(theta_b)
#
BLOCK STAUMIX  # Stau Mixing Matrix
  1  1    -6.84641263E-02   # cos(theta_tau)
  1  2     9.97653579E-01   # sin(theta_tau)
  2  1    -9.97653579E-01   # -sin(theta_tau)
  2  2    -6.84641263E-02   # cos(theta_tau)
#
BLOCK ALPHA  # Higgs mixing
          -1.05491198E-01   # Mixing angle in the neutral Higgs boson sector
#
BLOCK HMIX Q=  5.00075948E+03  # DRbar Higgs Parameters
         1    -5.81810611E+02   # mu(Q)MSSM           
         2     9.46865086E+00   # tan                 
         3     2.41772576E+02   # higgs               
         4     8.64403520E+06   # mA^2(Q)MSSM         
#
BLOCK GAUGE Q=  5.00075948E+03  # The gauge couplings
     1     3.70900489E-01   # gprime(Q) DRbar
     2     6.33081497E-01   # g(Q) DRbar
     3     9.94067474E-01   # g3(Q) DRbar
#
BLOCK AU Q=  5.00075948E+03  # The trilinear couplings
  1  1     5.00000002E+03   # A_u(Q) DRbar
  2  2     5.00000002E+03   # A_c(Q) DRbar
  3  3     5.00000002E+03   # A_t(Q) DRbar
#
BLOCK AD Q=  5.00075948E+03  # The trilinear couplings
  1  1     5.00000001E+03   # A_d(Q) DRbar
  2  2     5.00000001E+03   # A_s(Q) DRbar
  3  3     5.00000001E+03   # A_b(Q) DRbar
#
BLOCK AE Q=  5.00075948E+03  # The trilinear couplings
  1  1     0.00000000E+00   # A_e(Q) DRbar
  2  2     2.76905015E-07   # A_mu(Q) DRbar
  3  3     2.76949151E-07   # A_tau(Q) DRbar
#
BLOCK Yu Q=  5.00075948E+03  # The Yukawa couplings
  1  1     0.00000000E+00   # y_u(Q) DRbar
  2  2     0.00000000E+00   # y_c(Q) DRbar
  3  3     8.21570655E-01   # y_t(Q) DRbar
#
BLOCK Yd Q=  5.00075948E+03  # The Yukawa couplings
  1  1     0.00000000E+00   # y_d(Q) DRbar
  2  2     0.00000000E+00   # y_s(Q) DRbar
  3  3     1.30523506E-01   # y_b(Q) DRbar
#
BLOCK Ye Q=  5.00075948E+03  # The Yukawa couplings
  1  1     0.00000000E+00   # y_e(Q) DRbar
  2  2     0.00000000E+00   # y_mu(Q) DRbar
  3  3     9.70700145E-02   # y_tau(Q) DRbar
#
BLOCK MSOFT Q=  5.00075948E+03  # The soft SUSY breaking masses at the scale Q
         1     6.00000000E+01   # M_1(Q)              
         2     3.00000000E+03   # M_2(Q)              
         3     2.33132100E+03   # M_3(Q)              
        21     8.38124243E+06   # mH1^2(Q)            
        22     2.38024663E+05   # mH2^2(Q)            
        31     5.00000000E+03   # meL(Q)              
        32     5.00000000E+03   # mmuL(Q)             
        33     5.00000000E+03   # mtauL(Q)            
        34     5.00000000E+03   # meR(Q)              
        35     5.00000000E+03   # mmuR(Q)             
        36     5.00000000E+03   # mtauR(Q)            
        41     4.99999999E+03   # mqL1(Q)             
        42     4.99999999E+03   # mqL2(Q)             
        43     4.99999999E+03   # mqL3(Q)             
        44     4.99999999E+03   # muR(Q)              
        45     4.99999999E+03   # mcR(Q)              
        46     4.99999999E+03   # mtR(Q)              
        47     4.99999999E+03   # mdR(Q)              
        48     4.99999999E+03   # msR(Q)              
        49     4.99999999E+03   # mbR(Q)              
#
#
#
#                             =================
#                             |The decay table|
#                             =================
#
# - The QCD corrections to the decays gluino -> squark  + quark
#                                     squark -> gaugino + quark_prime
#                                     squark -> squark_prime + Higgs
#                                     squark -> gluino  + quark
#   are included.
#
# - The multi-body decays for the inos, stops and sbottoms are included.
#
# - The loop induced decays for the gluino, neutralinos and stops
#   are included.
#
# - The SUSY decays of the top quark are included.
#
#
#         PDG            Width
DECAY         6     1.40455967E+00   # top decays
#          BR         NDA      ID1       ID2
     1.00000000E+00    2           5        24   # BR(t ->  b    W+)
#
#         PDG            Width
DECAY   1000021     1.02964765E-02   # gluino decays
#          BR         NDA      ID1       ID2
     6.31150501E-07    2     1000022        21   # BR(~g -> ~chi_10 g)
     3.70431370E-03    2     1000023        21   # BR(~g -> ~chi_20 g)
     3.61160856E-03    2     1000025        21   # BR(~g -> ~chi_30 g)
#           BR         NDA      ID1       ID2       ID3
     1.11014184E-02    3     1000022         1        -1   # BR(~g -> ~chi_10 d  db)
     2.65007323E-05    3     1000023         1        -1   # BR(~g -> ~chi_20 d  db)
     3.22331098E-05    3     1000025         1        -1   # BR(~g -> ~chi_30 d  db)
     3.78625409E-02    3     1000022         2        -2   # BR(~g -> ~chi_10 u  ub)
     1.33500330E-04    3     1000023         2        -2   # BR(~g -> ~chi_20 u  ub)
     4.92647400E-05    3     1000025         2        -2   # BR(~g -> ~chi_30 u  ub)
     1.11014184E-02    3     1000022         3        -3   # BR(~g -> ~chi_10 s  sb)
     2.65007323E-05    3     1000023         3        -3   # BR(~g -> ~chi_20 s  sb)
     3.22331098E-05    3     1000025         3        -3   # BR(~g -> ~chi_30 s  sb)
     3.78625409E-02    3     1000022         4        -4   # BR(~g -> ~chi_10 c  cb)
     1.33500330E-04    3     1000023         4        -4   # BR(~g -> ~chi_20 c  cb)
     4.92647400E-05    3     1000025         4        -4   # BR(~g -> ~chi_30 c  cb)
     1.13252863E-02    3     1000022         5        -5   # BR(~g -> ~chi_10 b  bb)
     5.24504652E-03    3     1000023         5        -5   # BR(~g -> ~chi_20 b  bb)
     5.21932210E-03    3     1000025         5        -5   # BR(~g -> ~chi_30 b  bb)
     3.90242886E-02    3     1000022         6        -6   # BR(~g -> ~chi_10 t  tb)
     2.07288822E-01    3     1000023         6        -6   # BR(~g -> ~chi_20 t  tb)
     1.97973030E-01    3     1000025         6        -6   # BR(~g -> ~chi_30 t  tb)
     5.57200346E-05    3     1000024         1        -2   # BR(~g -> ~chi_1+ d  ub)
     5.57200346E-05    3    -1000024         2        -1   # BR(~g -> ~chi_1- u  db)
     5.57200346E-05    3     1000024         3        -4   # BR(~g -> ~chi_1+ s  cb)
     5.57200346E-05    3    -1000024         4        -3   # BR(~g -> ~chi_1- c  sb)
     2.13986927E-01    3     1000024         5        -6   # BR(~g -> ~chi_1+ b  tb)
     2.13986927E-01    3    -1000024         6        -5   # BR(~g -> ~chi_1- t  bb)
#
#         PDG            Width
DECAY   1000006     2.80669344E+02   # stop1 decays
#          BR         NDA      ID1       ID2
     3.16155168E-02    2     1000022         6   # BR(~t_1 -> ~chi_10 t )
     1.15154843E-01    2     1000023         6   # BR(~t_1 -> ~chi_20 t )
     1.09660909E-01    2     1000025         6   # BR(~t_1 -> ~chi_30 t )
     7.14359570E-03    2     1000035         6   # BR(~t_1 -> ~chi_40 t )
     1.69081615E-01    2     1000024         5   # BR(~t_1 -> ~chi_1+ b )
     1.42395419E-02    2     1000037         5   # BR(~t_1 -> ~chi_2+ b )
     5.53103977E-01    2     1000021         6   # BR(~t_1 -> ~g      t )
#
#         PDG            Width
DECAY   2000006     2.88163029E+02   # stop2 decays
#          BR         NDA      ID1       ID2
     1.17793778E-02    2     1000022         6   # BR(~t_2 -> ~chi_10 t )
     1.13117092E-01    2     1000023         6   # BR(~t_2 -> ~chi_20 t )
     1.19108671E-01    2     1000025         6   # BR(~t_2 -> ~chi_30 t )
     1.97559902E-02    2     1000035         6   # BR(~t_2 -> ~chi_40 t )
     6.51108686E-02    2     1000024         5   # BR(~t_2 -> ~chi_1+ b )
     3.93337207E-02    2     1000037         5   # BR(~t_2 -> ~chi_2+ b )
     6.27720452E-01    2     1000021         6   # BR(~t_2 -> ~g      t )
     9.41982840E-04    2     1000006        25   # BR(~t_2 -> ~t_1    h )
     3.13184469E-03    2     1000006        23   # BR(~t_2 -> ~t_1    Z )
#
#         PDG            Width
DECAY   1000005     2.62418465E+02   # sbottom1 decays
#          BR         NDA      ID1       ID2
     2.94044829E-03    2     1000022         5   # BR(~b_1 -> ~chi_10 b )
     3.12783843E-03    2     1000023         5   # BR(~b_1 -> ~chi_20 b )
     3.10832755E-03    2     1000025         5   # BR(~b_1 -> ~chi_30 b )
     2.90863936E-02    2     1000035         5   # BR(~b_1 -> ~chi_40 b )
     2.48517253E-01    2    -1000024         6   # BR(~b_1 -> ~chi_1- t )
     5.84040250E-02    2    -1000037         6   # BR(~b_1 -> ~chi_2- t )
     6.52782331E-01    2     1000021         5   # BR(~b_1 -> ~g      b )
     2.03338354E-03    2     1000006       -24   # BR(~b_1 -> ~t_1    W-)
#
#         PDG            Width
DECAY   2000005     1.80726485E+02   # sbottom2 decays
#          BR         NDA      ID1       ID2
     1.62121495E-02    2     1000022         5   # BR(~b_2 -> ~chi_10 b )
     4.65913979E-03    2     1000023         5   # BR(~b_2 -> ~chi_20 b )
     4.72933893E-03    2     1000025         5   # BR(~b_2 -> ~chi_30 b )
     1.16362402E-04    2     1000035         5   # BR(~b_2 -> ~chi_40 b )
     1.01673165E-02    2    -1000024         6   # BR(~b_2 -> ~chi_1- t )
     2.33668310E-04    2    -1000037         6   # BR(~b_2 -> ~chi_2- t )
     9.63844045E-01    2     1000021         5   # BR(~b_2 -> ~g      b )
     3.79795375E-05    2     1000006       -24   # BR(~b_2 -> ~t_1    W-)
#
#         PDG            Width
DECAY   1000002     2.00377799E+02   # sup_L decays
#          BR         NDA      ID1       ID2
     3.70575929E-03    2     1000022         2   # BR(~u_L -> ~chi_10 u)
     8.52348449E-05    2     1000023         2   # BR(~u_L -> ~chi_20 u)
     3.75007113E-06    2     1000025         2   # BR(~u_L -> ~chi_30 u)
     3.95597829E-02    2     1000035         2   # BR(~u_L -> ~chi_40 u)
     2.50574457E-04    2     1000024         1   # BR(~u_L -> ~chi_1+ d)
     7.90698608E-02    2     1000037         1   # BR(~u_L -> ~chi_2+ d)
     8.77325038E-01    2     1000021         2   # BR(~u_L -> ~g      u)
#
#         PDG            Width
DECAY   2000002     1.86104654E+02   # sup_R decays
#          BR         NDA      ID1       ID2
     6.34653865E-02    2     1000022         2   # BR(~u_R -> ~chi_10 u)
     1.69807971E-04    2     1000023         2   # BR(~u_R -> ~chi_20 u)
     1.71648824E-04    2     1000025         2   # BR(~u_R -> ~chi_30 u)
     3.89678584E-09    2     1000035         2   # BR(~u_R -> ~chi_40 u)
     9.36193153E-01    2     1000021         2   # BR(~u_R -> ~g      u)
#
#         PDG            Width
DECAY   1000001     2.00394441E+02   # sdown_L decays
#          BR         NDA      ID1       ID2
     3.68855893E-03    2     1000022         1   # BR(~d_L -> ~chi_10 d)
     8.65182068E-06    2     1000023         1   # BR(~d_L -> ~chi_20 d)
     6.82521814E-05    2     1000025         1   # BR(~d_L -> ~chi_30 d)
     3.95805882E-02    2     1000035         1   # BR(~d_L -> ~chi_40 d)
     1.94710490E-06    2    -1000024         2   # BR(~d_L -> ~chi_1- u)
     7.91910537E-02    2    -1000037         2   # BR(~d_L -> ~chi_2- u)
     8.77460948E-01    2     1000021         1   # BR(~d_L -> ~g      d)
#
#         PDG            Width
DECAY   2000001     1.77225067E+02   # sdown_R decays
#          BR         NDA      ID1       ID2
     1.66622990E-02    2     1000022         1   # BR(~d_R -> ~chi_10 d)
     4.45817797E-05    2     1000023         1   # BR(~d_R -> ~chi_20 d)
     4.50650829E-05    2     1000025         1   # BR(~d_R -> ~chi_30 d)
     1.02320510E-09    2     1000035         1   # BR(~d_R -> ~chi_40 d)
     9.83248053E-01    2     1000021         1   # BR(~d_R -> ~g      d)
#
#         PDG            Width
DECAY   1000004     2.00377799E+02   # scharm_L decays
#          BR         NDA      ID1       ID2
     3.70575929E-03    2     1000022         4   # BR(~c_L -> ~chi_10 c)
     8.52348449E-05    2     1000023         4   # BR(~c_L -> ~chi_20 c)
     3.75007113E-06    2     1000025         4   # BR(~c_L -> ~chi_30 c)
     3.95597829E-02    2     1000035         4   # BR(~c_L -> ~chi_40 c)
     2.50574457E-04    2     1000024         3   # BR(~c_L -> ~chi_1+ s)
     7.90698608E-02    2     1000037         3   # BR(~c_L -> ~chi_2+ s)
     8.77325038E-01    2     1000021         4   # BR(~c_L -> ~g      c)
#
#         PDG            Width
DECAY   2000004     1.86104654E+02   # scharm_R decays
#          BR         NDA      ID1       ID2
     6.34653865E-02    2     1000022         4   # BR(~c_R -> ~chi_10 c)
     1.69807971E-04    2     1000023         4   # BR(~c_R -> ~chi_20 c)
     1.71648824E-04    2     1000025         4   # BR(~c_R -> ~chi_30 c)
     3.89678584E-09    2     1000035         4   # BR(~c_R -> ~chi_40 c)
     9.36193153E-01    2     1000021         4   # BR(~c_R -> ~g      c)
#
#         PDG            Width
DECAY   1000003     2.00394441E+02   # sstrange_L decays
#          BR         NDA      ID1       ID2
     3.68855893E-03    2     1000022         3   # BR(~s_L -> ~chi_10 s)
     8.65182068E-06    2     1000023         3   # BR(~s_L -> ~chi_20 s)
     6.82521814E-05    2     1000025         3   # BR(~s_L -> ~chi_30 s)
     3.95805882E-02    2     1000035         3   # BR(~s_L -> ~chi_40 s)
     1.94710490E-06    2    -1000024         4   # BR(~s_L -> ~chi_1- c)
     7.91910537E-02    2    -1000037         4   # BR(~s_L -> ~chi_2- c)
     8.77460948E-01    2     1000021         3   # BR(~s_L -> ~g      s)
#
#         PDG            Width
DECAY   2000003     1.77225067E+02   # sstrange_R decays
#          BR         NDA      ID1       ID2
     1.66622990E-02    2     1000022         3   # BR(~s_R -> ~chi_10 s)
     4.45817797E-05    2     1000023         3   # BR(~s_R -> ~chi_20 s)
     4.50650829E-05    2     1000025         3   # BR(~s_R -> ~chi_30 s)
     1.02320510E-09    2     1000035         3   # BR(~s_R -> ~chi_40 s)
     9.83248053E-01    2     1000021         3   # BR(~s_R -> ~g      s)
#
#         PDG            Width
DECAY   1000011     3.03142637E+01   # selectron_L decays
#          BR         NDA      ID1       ID2
     2.25430750E-01    2     1000022        11   # BR(~e_L -> ~chi_10 e-)
     1.62739914E-03    2     1000023        11   # BR(~e_L -> ~chi_20 e-)
     1.30059100E-04    2     1000025        11   # BR(~e_L -> ~chi_30 e-)
     2.57431380E-01    2     1000035        11   # BR(~e_L -> ~chi_40 e-)
     1.31497026E-05    2    -1000024        12   # BR(~e_L -> ~chi_1- nu_e)
     5.15367262E-01    2    -1000037        12   # BR(~e_L -> ~chi_2- nu_e)
#
#         PDG            Width
DECAY   2000011     2.73884179E+01   # selectron_R decays
#          BR         NDA      ID1       ID2
     9.94661061E-01    2     1000022        11   # BR(~e_R -> ~chi_10 e-)
     2.65506338E-03    2     1000023        11   # BR(~e_R -> ~chi_20 e-)
     2.68381678E-03    2     1000025        11   # BR(~e_R -> ~chi_30 e-)
     5.88177876E-08    2     1000035        11   # BR(~e_R -> ~chi_40 e-)
#
#         PDG            Width
DECAY   1000013     3.03142637E+01   # smuon_L decays
#          BR         NDA      ID1       ID2
     2.25430750E-01    2     1000022        13   # BR(~mu_L -> ~chi_10 mu-)
     1.62739914E-03    2     1000023        13   # BR(~mu_L -> ~chi_20 mu-)
     1.30059100E-04    2     1000025        13   # BR(~mu_L -> ~chi_30 mu-)
     2.57431380E-01    2     1000035        13   # BR(~mu_L -> ~chi_40 mu-)
     1.31497026E-05    2    -1000024        14   # BR(~mu_L -> ~chi_1- nu_mu)
     5.15367262E-01    2    -1000037        14   # BR(~mu_L -> ~chi_2- nu_mu)
#
#         PDG            Width
DECAY   2000013     2.73884179E+01   # smuon_R decays
#          BR         NDA      ID1       ID2
     9.94661061E-01    2     1000022        13   # BR(~mu_R -> ~chi_10 mu-)
     2.65506338E-03    2     1000023        13   # BR(~mu_R -> ~chi_20 mu-)
     2.68381678E-03    2     1000025        13   # BR(~mu_R -> ~chi_30 mu-)
     5.88177876E-08    2     1000035        13   # BR(~mu_R -> ~chi_40 mu-)
#
#         PDG            Width
DECAY   1000015     2.92160814E+01   # stau_1 decays
#          BR         NDA      ID1       ID2
     9.29991309E-01    2     1000022        15   # BR(~tau_1 -> ~chi_10  tau-)
     1.78634976E-02    2     1000023        15   # BR(~tau_1 -> ~chi_20  tau-)
     1.73385957E-02    2     1000025        15   # BR(~tau_1 -> ~chi_30  tau-)
     1.22226281E-03    2     1000035        15   # BR(~tau_1 -> ~chi_40  tau-)
     3.11375892E-02    2    -1000024        16   # BR(~tau_1 -> ~chi_1-  nu_tau)
     2.44674526E-03    2    -1000037        16   # BR(~tau_1 -> ~chi_2-  nu_tau)
#
#         PDG            Width
DECAY   2000015     3.12085125E+01   # stau_2 decays
#          BR         NDA      ID1       ID2
     2.21371438E-01    2     1000022        15   # BR(~tau_2 -> ~chi_10  tau-)
     1.63081116E-02    2     1000023        15   # BR(~tau_2 -> ~chi_20  tau-)
     1.52949601E-02    2     1000025        15   # BR(~tau_2 -> ~chi_30  tau-)
     2.48823608E-01    2     1000035        15   # BR(~tau_2 -> ~chi_40  tau-)
     6.64487490E-05    2    -1000024        16   # BR(~tau_2 -> ~chi_1-  nu_tau)
     4.98135433E-01    2    -1000037        16   # BR(~tau_2 -> ~chi_2-  nu_tau)
#
#         PDG            Width
DECAY   1000012     3.03174210E+01   # snu_eL decays
#          BR         NDA      ID1       ID2
     2.25014518E-01    2     1000022        12   # BR(~nu_eL -> ~chi_10 nu_e)
     7.57473437E-05    2     1000023        12   # BR(~nu_eL -> ~chi_20 nu_e)
     1.43644233E-03    2     1000025        12   # BR(~nu_eL -> ~chi_30 nu_e)
     2.57473766E-01    2     1000035        12   # BR(~nu_eL -> ~chi_40 nu_e)
     1.69175828E-03    2     1000024        11   # BR(~nu_eL -> ~chi_1+ e-)
     5.14307768E-01    2     1000037        11   # BR(~nu_eL -> ~chi_2+ e-)
#
#         PDG            Width
DECAY   1000014     3.03174210E+01   # snu_muL decays
#          BR         NDA      ID1       ID2
     2.25014518E-01    2     1000022        14   # BR(~nu_muL -> ~chi_10 nu_mu)
     7.57473437E-05    2     1000023        14   # BR(~nu_muL -> ~chi_20 nu_mu)
     1.43644233E-03    2     1000025        14   # BR(~nu_muL -> ~chi_30 nu_mu)
     2.57473766E-01    2     1000035        14   # BR(~nu_muL -> ~chi_40 nu_mu)
     1.69175828E-03    2     1000024        13   # BR(~nu_muL -> ~chi_1+ mu-)
     5.14307768E-01    2     1000037        13   # BR(~nu_muL -> ~chi_2+ mu-)
#
#         PDG            Width
DECAY   1000016     3.12218091E+01   # snu_tauL decays
#          BR         NDA      ID1       ID2
     2.18472639E-01    2     1000022        16   # BR(~nu_tauL -> ~chi_10 nu_tau)
     7.35446665E-05    2     1000023        16   # BR(~nu_tauL -> ~chi_20 nu_tau)
     1.39467157E-03    2     1000025        16   # BR(~nu_tauL -> ~chi_30 nu_tau)
     2.49922298E-01    2     1000035        16   # BR(~nu_tauL -> ~chi_40 nu_tau)
     3.09138140E-02    2     1000024        15   # BR(~nu_tauL -> ~chi_1+ tau-)
     4.99223032E-01    2     1000037        15   # BR(~nu_tauL -> ~chi_2+ tau-)
#
#         PDG            Width
DECAY   1000024     3.57369971E-01   # chargino1+ decays
#          BR         NDA      ID1       ID2
     1.00000000E+00    2     1000022        24   # BR(~chi_1+ -> ~chi_10  W+)
#
#         PDG            Width
DECAY   1000037     2.18059268E+01   # chargino2+ decays
#          BR         NDA      ID1       ID2
     2.53500853E-01    2     1000024        23   # BR(~chi_2+ -> ~chi_1+  Z )
     1.69259576E-04    2     1000022        24   # BR(~chi_2+ -> ~chi_10  W+)
     2.44748814E-01    2     1000023        24   # BR(~chi_2+ -> ~chi_20  W+)
     2.44320049E-01    2     1000025        24   # BR(~chi_2+ -> ~chi_30  W+)
     2.57257478E-01    2     1000024        25   # BR(~chi_2+ -> ~chi_1+  h )
     3.54603981E-06    2     1000022        37   # BR(~chi_2+ -> ~chi_10  H+)
#
#         PDG            Width
DECAY   1000022     0.00000000E+00   # neutralino1 decays
#
#         PDG            Width
DECAY   1000023     3.66136065E-01   # neutralino2 decays
#          BR         NDA      ID1       ID2
     5.14074043E-01    2     1000022        23   # BR(~chi_20 -> ~chi_10   Z )
     4.85925957E-01    2     1000022        25   # BR(~chi_20 -> ~chi_10   h )
#
#         PDG            Width
DECAY   1000025     3.61762629E-01   # neutralino3 decays
#          BR         NDA      ID1       ID2
     5.03966035E-01    2     1000022        23   # BR(~chi_30 -> ~chi_10   Z )
     4.96033965E-01    2     1000022        25   # BR(~chi_30 -> ~chi_10   h )
#
#         PDG            Width
DECAY   1000035     2.18194993E+01   # neutralino4 decays
#          BR         NDA      ID1       ID2
     1.29182094E-05    2     1000022        23   # BR(~chi_40 -> ~chi_10   Z )
     1.04469819E-01    2     1000023        23   # BR(~chi_40 -> ~chi_20   Z )
     1.48494772E-01    2     1000025        23   # BR(~chi_40 -> ~chi_30   Z )
     2.45083601E-01    2     1000024       -24   # BR(~chi_40 -> ~chi_1+   W-)
     2.45083601E-01    2    -1000024        24   # BR(~chi_40 -> ~chi_1-   W+)
     1.51399918E-04    2     1000022        25   # BR(~chi_40 -> ~chi_10   h )
     3.40060396E-06    2     1000022        35   # BR(~chi_40 -> ~chi_10   H )
     3.78823763E-07    2     1000022        36   # BR(~chi_40 -> ~chi_10   A )
     1.51938236E-01    2     1000023        25   # BR(~chi_40 -> ~chi_20   h )
     1.04761873E-01    2     1000025        25   # BR(~chi_40 -> ~chi_30   h )
#
#         PDG            Width
DECAY        25     4.06786163E-03   # h decays
#          BR         NDA      ID1       ID2
     6.08054837E-01    2           5        -5   # BR(h -> b       bb     )
     6.37846341E-02    2         -15        15   # BR(h -> tau+    tau-   )
     2.25820638E-04    2         -13        13   # BR(h -> mu+     mu-    )
     4.78698975E-04    2           3        -3   # BR(h -> s       sb     )
     2.07413152E-02    2           4        -4   # BR(h -> c       cb     )
     6.71353406E-02    2          21        21   # BR(h -> g       g      )
     2.30852767E-03    2          22        22   # BR(h -> gam     gam    )
     1.49183379E-03    2          22        23   # BR(h -> Z       gam    )
     2.10587085E-01    2          24       -24   # BR(h -> W+      W-     )
     2.51049881E-02    2          23        23   # BR(h -> Z       Z      )
     8.69189147E-05    2     1000022   1000022   # BR(h -> ~chi_10 ~chi_10)
#
#         PDG            Width
DECAY        35     8.57743651E+00   # H decays
#          BR         NDA      ID1       ID2
     3.72814837E-01    2           5        -5   # BR(H -> b       bb     )
     6.49344764E-02    2         -15        15   # BR(H -> tau+    tau-   )
     2.29613466E-04    2         -13        13   # BR(H -> mu+     mu-    )
     2.81470858E-04    2           3        -3   # BR(H -> s       sb     )
     1.57537487E-06    2           4        -4   # BR(H -> c       cb     )
     1.57392430E-01    2           6        -6   # BR(H -> t       tb     )
     5.23426220E-05    2          21        21   # BR(H -> g       g      )
     1.64469211E-07    2          22        22   # BR(H -> gam     gam    )
     9.29077688E-08    2          23        22   # BR(H -> Z       gam    )
     7.47136465E-05    2          24       -24   # BR(H -> W+      W-     )
     3.73095339E-05    2          23        23   # BR(H -> Z       Z      )
     2.71809319E-04    2          25        25   # BR(H -> h       h      )
    -4.35434714E-23    2          36        36   # BR(H -> A       A      )
     4.09025483E-19    2          23        36   # BR(H -> Z       A      )
     3.01200391E-03    2     1000024  -1000024   # BR(H -> ~chi_1+ ~chi_1-)
     4.69231646E-03    2     1000022   1000022   # BR(H -> ~chi_10 ~chi_10)
     1.03141293E-04    2     1000023   1000023   # BR(H -> ~chi_20 ~chi_20)
     1.80812899E-03    2     1000025   1000025   # BR(H -> ~chi_30 ~chi_30)
     2.37474459E-01    2     1000022   1000023   # BR(H -> ~chi_10 ~chi_20)
     1.54609162E-01    2     1000022   1000025   # BR(H -> ~chi_10 ~chi_30)
     2.20995266E-03    2     1000023   1000025   # BR(H -> ~chi_20 ~chi_30)
#
#         PDG            Width
DECAY        36     8.58580042E+00   # A decays
#          BR         NDA      ID1       ID2
     3.72578494E-01    2           5        -5   # BR(A -> b       bb     )
     6.48731601E-02    2         -15        15   # BR(A -> tau+    tau-   )
     2.29396326E-04    2         -13        13   # BR(A -> mu+     mu-    )
     2.81410282E-04    2           3        -3   # BR(A -> s       sb     )
     1.58016355E-06    2           4        -4   # BR(A -> c       cb     )
     1.57783749E-01    2           6        -6   # BR(A -> t       tb     )
     1.56125345E-04    2          21        21   # BR(A -> g       g      )
     5.99301829E-07    2          22        22   # BR(A -> gam     gam    )
     1.89030603E-07    2          23        22   # BR(A -> Z       gam    )
     7.43582478E-05    2          23        25   # BR(A -> Z       h      )
     3.45124043E-03    2     1000024  -1000024   # BR(A -> ~chi_1+ ~chi_1-)
     4.70196384E-03    2     1000022   1000022   # BR(A -> ~chi_10 ~chi_10)
     8.02062386E-05    2     1000023   1000023   # BR(A -> ~chi_20 ~chi_20)
     3.29842456E-03    2     1000025   1000025   # BR(A -> ~chi_30 ~chi_30)
     1.57609139E-01    2     1000022   1000023   # BR(A -> ~chi_10 ~chi_20)
     2.33489448E-01    2     1000022   1000025   # BR(A -> ~chi_10 ~chi_30)
     1.39051498E-03    2     1000023   1000025   # BR(A -> ~chi_20 ~chi_30)
#
#         PDG            Width
DECAY        37     8.54229119E+00   # H+ decays
#          BR         NDA      ID1       ID2
     5.99143331E-04    2           4        -5   # BR(H+ -> c       bb     )
     6.52341424E-02    2         -15        16   # BR(H+ -> tau+    nu_tau )
     2.30672787E-04    2         -13        14   # BR(H+ -> mu+     nu_mu  )
     3.83449730E-06    2           2        -5   # BR(H+ -> u       bb     )
     1.35350878E-05    2           2        -3   # BR(H+ -> u       sb     )
     2.79907216E-04    2           4        -3   # BR(H+ -> c       sb     )
     5.29769055E-01    2           6        -5   # BR(H+ -> t       bb     )
     7.48903317E-05    2          24        25   # BR(H+ -> W+      h      )
     8.45096817E-13    2          24        36   # BR(H+ -> W+      A      )
     4.01169070E-01    2     1000024   1000022   # BR(H+ -> ~chi_1+ ~chi_10)
     2.48703753E-03    2     1000024   1000023   # BR(H+ -> ~chi_1+ ~chi_20)
     1.38711913E-04    2     1000024   1000025   # BR(H+ -> ~chi_1+ ~chi_30)
