#
#                              ======================
#                              | THE SUSYHIT OUTPUT |
#                              ======================
#
#
#              ------------------------------------------------------
#              |     This is the output of the SUSY-HIT package     |
#              |  created by A.Djouadi, M.Muehlleitner and M.Spira. |
#              |  In case of problems with SUSY-HIT email to        |
#              |           margarete.muehlleitner@cern.ch           |
#              |           michael.spira@psi.ch                     |
#              |           abdelhak.djouadi@cern.ch                 |
#              ------------------------------------------------------
#
#              ------------------------------------------------------
#              |  SUSY Les Houches Accord - MSSM Spectrum + Decays  |
#              |              based on the decay programs           |
#              |                                                    |
#              |                     SDECAY 1.3b                    |
#              |                                                    |
#              |  Authors: M.Muhlleitner, A.Djouadi and Y.Mambrini  |
#              |  Ref.:    Comput.Phys.Commun.168(2005)46           |
#              |           [hep-ph/0311167]                         |
#              |                                                    |
#              |                     HDECAY 3.4                     |
#              |                                                    |
#              |  By: A.Djouadi,J.Kalinowski,M.Muhlleitner,M.Spira  |
#              |  Ref.:    Comput.Phys.Commun.108(1998)56           |
#              |           [hep-ph/9704448]                         |
#              |                                                    |
#              |                                                    |
#              |  If not stated otherwise all DRbar couplings and   |
#              |  soft SUSY breaking masses are given at the scale  |
#              |  Q=  0.50007440E+04
#              |                                                    |
#              ------------------------------------------------------
#
#
BLOCK DCINFO  # Decay Program information
     1   SDECAY/HDECAY # decay calculator
     2   1.3b  /3.4    # version number
#
BLOCK SPINFO  # Spectrum calculator information
     1    SOFTSUSY    # spectrum calculator                
     2    3.4.0       # version number                     
#
BLOCK MODSEL  # Model selection
     1     0   #  nonUniversal                                     
#
BLOCK SMINPUTS  # Standard Model inputs
         1     1.25778332E+02   # alpha_em^-1(M_Z)^MSbar
         2     1.16570000E-05   # G_F [GeV^-2]
         3     1.17200002E-01   # alpha_S(M_Z)^MSbar
         4     9.11876000E+01   # M_Z pole mass
         5     4.25000000E+00   # mb(mb)^MSbar
         6     1.72500000E+02   # mt pole mass
         7     1.77682000E+00   # mtau pole mass
#
BLOCK MINPAR  # Input parameters - minimal models
         3     1.00000000E+01   # tanb                
#
BLOCK EXTPAR  # Input parameters - non-minimal models
         0    -1.00000000E+00   # Set                 
         1     6.00000000E+01   # M_1(MX)             
         2     3.00000000E+03   # M_2(MX)             
         3     1.66797000E+03   # M_3(MX)             
        11     5.00000000E+03   # At(MX)              
        12     5.00000000E+03   # Ab(MX)              
        13     0.00000000E+00   # Atau(MX)            
        23    -8.61858000E+02   # mu(MX)              
        26     3.00000000E+03   # mA(pole)            
        31     5.00000000E+03   # meL(MX)             
        32     5.00000000E+03   # mmuL(MX)            
        33     5.00000000E+03   # mtauL(MX)           
        34     5.00000000E+03   # meR(MX)             
        35     5.00000000E+03   # mmuR(MX)            
        36     5.00000000E+03   # mtauR(MX)           
        41     5.00000000E+03   # mqL1(MX)            
        42     5.00000000E+03   # mqL2(MX)            
        43     5.00000000E+03   # mqL3(MX)            
        44     5.00000000E+03   # muR(MX)             
        45     5.00000000E+03   # mcR(MX)             
        46     5.00000000E+03   # mtR(MX)             
        47     5.00000000E+03   # mdR(MX)             
        48     5.00000000E+03   # msR(MX)             
        49     5.00000000E+03   # mbR(MX)             
#
BLOCK MASS  # Mass Spectrum
# PDG code           mass       particle
        24     8.00947742E+01   # W+
        25     1.24763495E+02   # h
        35     3.00007775E+03   # H
        36     2.99998640E+03   # A
        37     3.00137319E+03   # H+
         5     4.87878001E+00   # b-quark pole mass calculated from mb(mb)_Msbar
   1000001     5.07192050E+03   # ~d_L
   2000001     5.05411246E+03   # ~d_R
   1000002     5.07144667E+03   # ~u_L
   2000002     5.05382414E+03   # ~u_R
   1000003     5.07192050E+03   # ~s_L
   2000003     5.05411246E+03   # ~s_R
   1000004     5.07144667E+03   # ~c_L
   2000004     5.05382414E+03   # ~c_R
   1000005     5.01766059E+03   # ~b_1
   2000005     5.05256826E+03   # ~b_2
   1000006     4.90866058E+03   # ~t_1
   2000006     5.06237540E+03   # ~t_2
   1000011     5.01907638E+03   # ~e_L
   2000011     5.00592769E+03   # ~e_R
   1000012     5.01812754E+03   # ~nu_eL
   1000013     5.01907638E+03   # ~mu_L
   2000013     5.00592769E+03   # ~mu_R
   1000014     5.01812754E+03   # ~nu_muL
   1000015     5.00465130E+03   # ~tau_1
   2000015     5.01872977E+03   # ~tau_2
   1000016     5.01758024E+03   # ~nu_tauL
   1000021     2.00000047E+03   # ~g
   1000022     6.02945325E+01   # ~chi_10
   1000023     8.99734575E+02   # ~chi_20
   1000025    -9.01973859E+02   # ~chi_30
   1000035     3.07423294E+03   # ~chi_40
   1000024     9.00000983E+02   # ~chi_1+
   1000037     3.07440042E+03   # ~chi_2+
#
BLOCK NMIX  # Neutralino Mixing Matrix
  1  1     9.98775611E-01   # N_11
  1  2     1.95994119E-04   # N_12
  1  3    -4.94353494E-02   # N_13
  1  4     1.84037399E-03   # N_14
  2  1     3.36664384E-02   # N_21
  2  2     2.24250681E-02   # N_22
  2  3     7.06575392E-01   # N_23
  2  4     7.06480645E-01   # N_24
  3  1    -3.62448994E-02   # N_31
  3  2     1.52903463E-02   # N_32
  3  3    -7.05890870E-01   # N_33
  3  4     7.07227398E-01   # N_34
  4  1    -3.96675403E-04   # N_41
  4  2     9.99631574E-01   # N_42
  4  3    -5.04385470E-03   # N_43
  4  4    -2.66668139E-02   # N_44
#
BLOCK UMIX  # Chargino Mixing Matrix U
  1  1     7.14546848E-03   # U_11
  1  2     9.99974471E-01   # U_12
  2  1    -9.99974471E-01   # U_21
  2  2     7.14546848E-03   # U_22
#
BLOCK VMIX  # Chargino Mixing Matrix V
  1  1     3.77419094E-02   # V_11
  1  2    -9.99287520E-01   # V_12
  2  1    -9.99287520E-01   # V_21
  2  2    -3.77419094E-02   # V_22
#
BLOCK STOPMIX  # Stop Mixing Matrix
  1  1    -5.06182047E-01   # cos(theta_t)
  1  2     8.62426655E-01   # sin(theta_t)
  2  1    -8.62426655E-01   # -sin(theta_t)
  2  2    -5.06182047E-01   # cos(theta_t)
#
BLOCK SBOTMIX  # Sbottom Mixing Matrix
  1  1     9.97487194E-01   # cos(theta_b)
  1  2    -7.08470028E-02   # sin(theta_b)
  2  1     7.08470028E-02   # -sin(theta_b)
  2  2     9.97487194E-01   # cos(theta_b)
#
BLOCK STAUMIX  # Stau Mixing Matrix
  1  1    -1.02681972E-01   # cos(theta_tau)
  1  2     9.94714237E-01   # sin(theta_tau)
  2  1    -9.94714237E-01   # -sin(theta_tau)
  2  2    -1.02681972E-01   # cos(theta_tau)
#
BLOCK ALPHA  # Higgs mixing
          -1.05476118E-01   # Mixing angle in the neutral Higgs boson sector
#
BLOCK HMIX Q=  5.00074397E+03  # DRbar Higgs Parameters
         1    -8.77634009E+02   # mu(Q)MSSM           
         2     9.46973291E+00   # tan                 
         3     2.41834910E+02   # higgs               
         4     8.54544497E+06   # mA^2(Q)MSSM         
#
BLOCK GAUGE Q=  5.00074397E+03  # The gauge couplings
     1     3.70821805E-01   # gprime(Q) DRbar
     2     6.32672056E-01   # g(Q) DRbar
     3     9.98503738E-01   # g3(Q) DRbar
#
BLOCK AU Q=  5.00074397E+03  # The trilinear couplings
  1  1     5.00000001E+03   # A_u(Q) DRbar
  2  2     5.00000001E+03   # A_c(Q) DRbar
  3  3     5.00000002E+03   # A_t(Q) DRbar
#
BLOCK AD Q=  5.00074397E+03  # The trilinear couplings
  1  1     5.00000001E+03   # A_d(Q) DRbar
  2  2     5.00000001E+03   # A_s(Q) DRbar
  3  3     5.00000001E+03   # A_b(Q) DRbar
#
BLOCK AE Q=  5.00074397E+03  # The trilinear couplings
  1  1     0.00000000E+00   # A_e(Q) DRbar
  2  2     1.74101074E-07   # A_mu(Q) DRbar
  3  3     1.73738216E-07   # A_tau(Q) DRbar
#
BLOCK Yu Q=  5.00074397E+03  # The Yukawa couplings
  1  1     0.00000000E+00   # y_u(Q) DRbar
  2  2     0.00000000E+00   # y_c(Q) DRbar
  3  3     8.19939046E-01   # y_t(Q) DRbar
#
BLOCK Yd Q=  5.00074397E+03  # The Yukawa couplings
  1  1     0.00000000E+00   # y_d(Q) DRbar
  2  2     0.00000000E+00   # y_s(Q) DRbar
  3  3     1.30512732E-01   # y_b(Q) DRbar
#
BLOCK Ye Q=  5.00074397E+03  # The Yukawa couplings
  1  1     0.00000000E+00   # y_e(Q) DRbar
  2  2     0.00000000E+00   # y_mu(Q) DRbar
  3  3     9.69064853E-02   # y_tau(Q) DRbar
#
BLOCK MSOFT Q=  5.00074397E+03  # The soft SUSY breaking masses at the scale Q
         1     6.00000000E+01   # M_1(Q)              
         2     3.00000000E+03   # M_2(Q)              
         3     1.66797000E+03   # M_3(Q)              
        21     7.93243860E+06   # mH1^2(Q)            
        22    -2.03173989E+05   # mH2^2(Q)            
        31     5.00000000E+03   # meL(Q)              
        32     5.00000000E+03   # mmuL(Q)             
        33     5.00000000E+03   # mtauL(Q)            
        34     5.00000000E+03   # meR(Q)              
        35     5.00000000E+03   # mmuR(Q)             
        36     5.00000000E+03   # mtauR(Q)            
        41     5.00000000E+03   # mqL1(Q)             
        42     5.00000000E+03   # mqL2(Q)             
        43     5.00000000E+03   # mqL3(Q)             
        44     5.00000000E+03   # muR(Q)              
        45     5.00000000E+03   # mcR(Q)              
        46     4.99999999E+03   # mtR(Q)              
        47     5.00000000E+03   # mdR(Q)              
        48     5.00000000E+03   # msR(Q)              
        49     5.00000000E+03   # mbR(Q)              
#
#
#
#                             =================
#                             |The decay table|
#                             =================
#
# - The QCD corrections to the decays gluino -> squark  + quark
#                                     squark -> gaugino + quark_prime
#                                     squark -> squark_prime + Higgs
#                                     squark -> gluino  + quark
#   are included.
#
# - The multi-body decays for the inos, stops and sbottoms are included.
#
# - The loop induced decays for the gluino, neutralinos and stops
#   are included.
#
# - The SUSY decays of the top quark are included.
#
#
#         PDG            Width
DECAY         6     1.40270554E+00   # top decays
#          BR         NDA      ID1       ID2
     1.00000000E+00    2           5        24   # BR(t ->  b    W+)
#
#         PDG            Width
DECAY   1000021     8.43633433E-04   # gluino decays
#          BR         NDA      ID1       ID2
     2.87288320E-06    2     1000022        21   # BR(~g -> ~chi_10 g)
     9.84128349E-03    2     1000023        21   # BR(~g -> ~chi_20 g)
     9.66112573E-03    2     1000025        21   # BR(~g -> ~chi_30 g)
#           BR         NDA      ID1       ID2       ID3
     2.76794767E-02    3     1000022         1        -1   # BR(~g -> ~chi_10 d  db)
     2.03292295E-05    3     1000023         1        -1   # BR(~g -> ~chi_20 d  db)
     1.32807908E-05    3     1000025         1        -1   # BR(~g -> ~chi_30 d  db)
     9.43814416E-02    3     1000022         2        -2   # BR(~g -> ~chi_10 u  ub)
     7.35588961E-05    3     1000023         2        -2   # BR(~g -> ~chi_20 u  ub)
     1.66433321E-05    3     1000025         2        -2   # BR(~g -> ~chi_30 u  ub)
     2.76794767E-02    3     1000022         3        -3   # BR(~g -> ~chi_10 s  sb)
     2.03292295E-05    3     1000023         3        -3   # BR(~g -> ~chi_20 s  sb)
     1.32807908E-05    3     1000025         3        -3   # BR(~g -> ~chi_30 s  sb)
     9.43814416E-02    3     1000022         4        -4   # BR(~g -> ~chi_10 c  cb)
     7.35588961E-05    3     1000023         4        -4   # BR(~g -> ~chi_20 c  cb)
     1.66433321E-05    3     1000025         4        -4   # BR(~g -> ~chi_30 c  cb)
     2.80967350E-02    3     1000022         5        -5   # BR(~g -> ~chi_10 b  bb)
     4.40508329E-03    3     1000023         5        -5   # BR(~g -> ~chi_20 b  bb)
     4.34729913E-03    3     1000025         5        -5   # BR(~g -> ~chi_30 b  bb)
     9.16371745E-02    3     1000022         6        -6   # BR(~g -> ~chi_10 t  tb)
     1.52139069E-01    3     1000023         6        -6   # BR(~g -> ~chi_20 t  tb)
     1.29727456E-01    3     1000025         6        -6   # BR(~g -> ~chi_30 t  tb)
     5.68469468E-05    3     1000024         1        -2   # BR(~g -> ~chi_1+ d  ub)
     5.68469468E-05    3    -1000024         2        -1   # BR(~g -> ~chi_1- u  db)
     5.68469468E-05    3     1000024         3        -4   # BR(~g -> ~chi_1+ s  cb)
     5.68469468E-05    3    -1000024         4        -3   # BR(~g -> ~chi_1- c  sb)
     1.62772526E-01    3     1000024         5        -6   # BR(~g -> ~chi_1+ b  tb)
     1.62772526E-01    3    -1000024         6        -5   # BR(~g -> ~chi_1- t  bb)
#
#         PDG            Width
DECAY   1000006     3.43251211E+02   # stop1 decays
#          BR         NDA      ID1       ID2
     2.57947666E-02    2     1000022         6   # BR(~t_1 -> ~chi_10 t )
     9.02475979E-02    2     1000023         6   # BR(~t_1 -> ~chi_20 t )
     8.66161618E-02    2     1000025         6   # BR(~t_1 -> ~chi_30 t )
     6.00957219E-03    2     1000035         6   # BR(~t_1 -> ~chi_40 t )
     1.31511682E-01    2     1000024         5   # BR(~t_1 -> ~chi_1+ b )
     1.19747661E-02    2     1000037         5   # BR(~t_1 -> ~chi_2+ b )
     6.47845454E-01    2     1000021         6   # BR(~t_1 -> ~g      t )
#
#         PDG            Width
DECAY   2000006     3.49819419E+02   # stop2 decays
#          BR         NDA      ID1       ID2
     9.93661828E-03    2     1000022         6   # BR(~t_2 -> ~chi_10 t )
     9.04142211E-02    2     1000023         6   # BR(~t_2 -> ~chi_20 t )
     9.43433958E-02    2     1000025         6   # BR(~t_2 -> ~chi_30 t )
     1.59203541E-02    2     1000035         6   # BR(~t_2 -> ~chi_40 t )
     5.34785298E-02    2     1000024         5   # BR(~t_2 -> ~chi_1+ b )
     3.16815369E-02    2     1000037         5   # BR(~t_2 -> ~chi_2+ b )
     7.00652140E-01    2     1000021         6   # BR(~t_2 -> ~g      t )
     8.15887260E-04    2     1000006        25   # BR(~t_2 -> ~t_1    h )
     2.75731703E-03    2     1000006        23   # BR(~t_2 -> ~t_1    Z )
#
#         PDG            Width
DECAY   1000005     3.25146342E+02   # sbottom1 decays
#          BR         NDA      ID1       ID2
     2.37502140E-03    2     1000022         5   # BR(~b_1 -> ~chi_10 b )
     2.47796000E-03    2     1000023         5   # BR(~b_1 -> ~chi_20 b )
     2.42328633E-03    2     1000025         5   # BR(~b_1 -> ~chi_30 b )
     2.32191396E-02    2     1000035         5   # BR(~b_1 -> ~chi_40 b )
     1.93043140E-01    2    -1000024         6   # BR(~b_1 -> ~chi_1- t )
     4.66435622E-02    2    -1000037         6   # BR(~b_1 -> ~chi_2- t )
     7.28103134E-01    2     1000021         5   # BR(~b_1 -> ~g      b )
     1.71475555E-03    2     1000006       -24   # BR(~b_1 -> ~t_1    W-)
#
#         PDG            Width
DECAY   2000005     2.45990370E+02   # sbottom2 decays
#          BR         NDA      ID1       ID2
     1.19400443E-02    2     1000022         5   # BR(~b_2 -> ~chi_10 b )
     3.28427595E-03    2     1000023         5   # BR(~b_2 -> ~chi_20 b )
     3.36284793E-03    2     1000025         5   # BR(~b_2 -> ~chi_30 b )
     1.54697621E-04    2     1000035         5   # BR(~b_2 -> ~chi_40 b )
     7.76825857E-03    2    -1000024         6   # BR(~b_2 -> ~chi_1- t )
     3.10735286E-04    2    -1000037         6   # BR(~b_2 -> ~chi_2- t )
     9.73131305E-01    2     1000021         5   # BR(~b_2 -> ~g      b )
     4.78352258E-05    2     1000006       -24   # BR(~b_2 -> ~t_1    W-)
#
#         PDG            Width
DECAY   1000002     2.65219057E+02   # sup_L decays
#          BR         NDA      ID1       ID2
     2.81230195E-03    2     1000022         2   # BR(~u_L -> ~chi_10 u)
     5.82594505E-05    2     1000023         2   # BR(~u_L -> ~chi_20 u)
     4.66594700E-06    2     1000025         2   # BR(~u_L -> ~chi_30 u)
     2.96360893E-02    2     1000035         2   # BR(~u_L -> ~chi_40 u)
     1.97312163E-04    2     1000024         1   # BR(~u_L -> ~chi_1+ d)
     5.92331243E-02    2     1000037         1   # BR(~u_L -> ~chi_2+ d)
     9.08058247E-01    2     1000021         2   # BR(~u_L -> ~g      u)
#
#         PDG            Width
DECAY   2000002     2.51275858E+02   # sup_R decays
#          BR         NDA      ID1       ID2
     4.72317265E-02    2     1000022         2   # BR(~u_R -> ~chi_10 u)
     5.04046818E-05    2     1000023         2   # BR(~u_R -> ~chi_20 u)
     5.84022696E-05    2     1000025         2   # BR(~u_R -> ~chi_30 u)
     2.97415302E-09    2     1000035         2   # BR(~u_R -> ~chi_40 u)
     9.52659464E-01    2     1000021         2   # BR(~u_R -> ~g      u)
#
#         PDG            Width
DECAY   1000001     2.65233213E+02   # sdown_L decays
#          BR         NDA      ID1       ID2
     2.80114119E-03    2     1000022         1   # BR(~d_L -> ~chi_10 d)
     1.73956061E-05    2     1000023         1   # BR(~d_L -> ~chi_20 d)
     3.46554507E-05    2     1000025         1   # BR(~d_L -> ~chi_30 d)
     2.96528615E-02    2     1000035         1   # BR(~d_L -> ~chi_40 d)
     7.07278617E-06    2    -1000024         2   # BR(~d_L -> ~chi_1- u)
     5.93297596E-02    2    -1000037         2   # BR(~d_L -> ~chi_2- u)
     9.08157114E-01    2     1000021         1   # BR(~d_L -> ~g      d)
#
#         PDG            Width
DECAY   2000001     2.42378179E+02   # sdown_R decays
#          BR         NDA      ID1       ID2
     1.22421065E-02    2     1000022         1   # BR(~d_R -> ~chi_10 d)
     1.30646069E-05    2     1000023         1   # BR(~d_R -> ~chi_20 d)
     1.51375367E-05    2     1000025         1   # BR(~d_R -> ~chi_30 d)
     7.70980066E-10    2     1000035         1   # BR(~d_R -> ~chi_40 d)
     9.87729691E-01    2     1000021         1   # BR(~d_R -> ~g      d)
#
#         PDG            Width
DECAY   1000004     2.65219057E+02   # scharm_L decays
#          BR         NDA      ID1       ID2
     2.81230195E-03    2     1000022         4   # BR(~c_L -> ~chi_10 c)
     5.82594505E-05    2     1000023         4   # BR(~c_L -> ~chi_20 c)
     4.66594700E-06    2     1000025         4   # BR(~c_L -> ~chi_30 c)
     2.96360893E-02    2     1000035         4   # BR(~c_L -> ~chi_40 c)
     1.97312163E-04    2     1000024         3   # BR(~c_L -> ~chi_1+ s)
     5.92331243E-02    2     1000037         3   # BR(~c_L -> ~chi_2+ s)
     9.08058247E-01    2     1000021         4   # BR(~c_L -> ~g      c)
#
#         PDG            Width
DECAY   2000004     2.51275858E+02   # scharm_R decays
#          BR         NDA      ID1       ID2
     4.72317265E-02    2     1000022         4   # BR(~c_R -> ~chi_10 c)
     5.04046818E-05    2     1000023         4   # BR(~c_R -> ~chi_20 c)
     5.84022696E-05    2     1000025         4   # BR(~c_R -> ~chi_30 c)
     2.97415302E-09    2     1000035         4   # BR(~c_R -> ~chi_40 c)
     9.52659464E-01    2     1000021         4   # BR(~c_R -> ~g      c)
#
#         PDG            Width
DECAY   1000003     2.65233213E+02   # sstrange_L decays
#          BR         NDA      ID1       ID2
     2.80114119E-03    2     1000022         3   # BR(~s_L -> ~chi_10 s)
     1.73956061E-05    2     1000023         3   # BR(~s_L -> ~chi_20 s)
     3.46554507E-05    2     1000025         3   # BR(~s_L -> ~chi_30 s)
     2.96528615E-02    2     1000035         3   # BR(~s_L -> ~chi_40 s)
     7.07278617E-06    2    -1000024         4   # BR(~s_L -> ~chi_1- c)
     5.93297596E-02    2    -1000037         4   # BR(~s_L -> ~chi_2- c)
     9.08157114E-01    2     1000021         3   # BR(~s_L -> ~g      s)
#
#         PDG            Width
DECAY   2000003     2.42378179E+02   # sstrange_R decays
#          BR         NDA      ID1       ID2
     1.22421065E-02    2     1000022         3   # BR(~s_R -> ~chi_10 s)
     1.30646069E-05    2     1000023         3   # BR(~s_R -> ~chi_20 s)
     1.51375367E-05    2     1000025         3   # BR(~s_R -> ~chi_30 s)
     7.70980066E-10    2     1000035         3   # BR(~s_R -> ~chi_40 s)
     9.87729691E-01    2     1000021         3   # BR(~s_R -> ~g      s)
#
#         PDG            Width
DECAY   1000011     3.02807510E+01   # selectron_L decays
#          BR         NDA      ID1       ID2
     2.26250264E-01    2     1000022        11   # BR(~e_L -> ~chi_10 e-)
     1.09874437E-03    2     1000023        11   # BR(~e_L -> ~chi_20 e-)
     2.19052155E-05    2     1000025        11   # BR(~e_L -> ~chi_30 e-)
     2.57346849E-01    2     1000035        11   # BR(~e_L -> ~chi_40 e-)
     6.31274614E-05    2    -1000024        12   # BR(~e_L -> ~chi_1- nu_e)
     5.15219110E-01    2    -1000037        12   # BR(~e_L -> ~chi_2- nu_e)
#
#         PDG            Width
DECAY   2000011     2.73767399E+01   # selectron_R decays
#          BR         NDA      ID1       ID2
     9.97707756E-01    2     1000022        11   # BR(~e_R -> ~chi_10 e-)
     1.06185575E-03    2     1000023        11   # BR(~e_R -> ~chi_20 e-)
     1.23032670E-03    2     1000025        11   # BR(~e_R -> ~chi_30 e-)
     6.10720857E-08    2     1000035        11   # BR(~e_R -> ~chi_40 e-)
#
#         PDG            Width
DECAY   1000013     3.02807510E+01   # smuon_L decays
#          BR         NDA      ID1       ID2
     2.26250264E-01    2     1000022        13   # BR(~mu_L -> ~chi_10 mu-)
     1.09874437E-03    2     1000023        13   # BR(~mu_L -> ~chi_20 mu-)
     2.19052155E-05    2     1000025        13   # BR(~mu_L -> ~chi_30 mu-)
     2.57346849E-01    2     1000035        13   # BR(~mu_L -> ~chi_40 mu-)
     6.31274614E-05    2    -1000024        14   # BR(~mu_L -> ~chi_1- nu_mu)
     5.15219110E-01    2    -1000037        14   # BR(~mu_L -> ~chi_2- nu_mu)
#
#         PDG            Width
DECAY   2000013     2.73767399E+01   # smuon_R decays
#          BR         NDA      ID1       ID2
     9.97707756E-01    2     1000022        13   # BR(~mu_R -> ~chi_10 mu-)
     1.06185575E-03    2     1000023        13   # BR(~mu_R -> ~chi_20 mu-)
     1.23032670E-03    2     1000025        13   # BR(~mu_R -> ~chi_30 mu-)
     6.10720857E-08    2     1000035        13   # BR(~mu_R -> ~chi_40 mu-)
#
#         PDG            Width
DECAY   1000015     2.91485128E+01   # stau_1 decays
#          BR         NDA      ID1       ID2
     9.30369569E-01    2     1000022        15   # BR(~tau_1 -> ~chi_10  tau-)
     1.60476900E-02    2     1000023        15   # BR(~tau_1 -> ~chi_20  tau-)
     1.53755786E-02    2     1000025        15   # BR(~tau_1 -> ~chi_30  tau-)
     2.73244010E-03    2     1000035        15   # BR(~tau_1 -> ~chi_40  tau-)
     3.00044934E-02    2    -1000024        16   # BR(~tau_1 -> ~chi_1-  nu_tau)
     5.47022846E-03    2    -1000037        16   # BR(~tau_1 -> ~chi_2-  nu_tau)
#
#         PDG            Width
DECAY   2000015     3.11236266E+01   # stau_2 decays
#          BR         NDA      ID1       ID2
     2.26316395E-01    2     1000022        15   # BR(~tau_2 -> ~chi_10  tau-)
     1.51065782E-02    2     1000023        15   # BR(~tau_2 -> ~chi_20  tau-)
     1.47759891E-02    2     1000025        15   # BR(~tau_2 -> ~chi_30  tau-)
     2.47735102E-01    2     1000035        15   # BR(~tau_2 -> ~chi_40  tau-)
     8.93686315E-05    2    -1000024        16   # BR(~tau_2 -> ~chi_1-  nu_tau)
     4.95976566E-01    2    -1000037        16   # BR(~tau_2 -> ~chi_2-  nu_tau)
#
#         PDG            Width
DECAY   1000012     3.02836590E+01   # snu_eL decays
#          BR         NDA      ID1       ID2
     2.25883038E-01    2     1000022        12   # BR(~nu_eL -> ~chi_10 nu_e)
     4.48041388E-06    2     1000023        12   # BR(~nu_eL -> ~chi_20 nu_e)
     8.24640994E-04    2     1000025        12   # BR(~nu_eL -> ~chi_30 nu_e)
     2.57396014E-01    2     1000035        12   # BR(~nu_eL -> ~chi_40 nu_e)
     1.76063737E-03    2     1000024        11   # BR(~nu_eL -> ~chi_1+ e-)
     5.14131189E-01    2     1000037        11   # BR(~nu_eL -> ~chi_2+ e-)
#
#         PDG            Width
DECAY   1000014     3.02836590E+01   # snu_muL decays
#          BR         NDA      ID1       ID2
     2.25883038E-01    2     1000022        14   # BR(~nu_muL -> ~chi_10 nu_mu)
     4.48041388E-06    2     1000023        14   # BR(~nu_muL -> ~chi_20 nu_mu)
     8.24640994E-04    2     1000025        14   # BR(~nu_muL -> ~chi_30 nu_mu)
     2.57396014E-01    2     1000035        14   # BR(~nu_muL -> ~chi_40 nu_mu)
     1.76063737E-03    2     1000024        13   # BR(~nu_muL -> ~chi_1+ mu-)
     5.14131189E-01    2     1000037        13   # BR(~nu_muL -> ~chi_2+ mu-)
#
#         PDG            Width
DECAY   1000016     3.11522888E+01   # snu_tauL decays
#          BR         NDA      ID1       ID2
     2.19560702E-01    2     1000022        16   # BR(~nu_tauL -> ~chi_10 nu_tau)
     4.35494684E-06    2     1000023        16   # BR(~nu_tauL -> ~chi_20 nu_tau)
     8.01548142E-04    2     1000025        16   # BR(~nu_tauL -> ~chi_30 nu_tau)
     2.50126082E-01    2     1000035        16   # BR(~nu_tauL -> ~chi_40 nu_tau)
     2.98978284E-02    2     1000024        15   # BR(~nu_tauL -> ~chi_1+ tau-)
     4.99609484E-01    2     1000037        15   # BR(~nu_tauL -> ~chi_2+ tau-)
#
#         PDG            Width
DECAY   1000024     5.46177426E-01   # chargino1+ decays
#          BR         NDA      ID1       ID2
     1.00000000E+00    2     1000022        24   # BR(~chi_1+ -> ~chi_10  W+)
#
#         PDG            Width
DECAY   1000037     2.07670878E+01   # chargino2+ decays
#          BR         NDA      ID1       ID2
     2.53279742E-01    2     1000024        23   # BR(~chi_2+ -> ~chi_1+  Z )
     1.91042152E-04    2     1000022        24   # BR(~chi_2+ -> ~chi_10  W+)
     2.44269503E-01    2     1000023        24   # BR(~chi_2+ -> ~chi_20  W+)
     2.44167210E-01    2     1000025        24   # BR(~chi_2+ -> ~chi_30  W+)
     2.58091027E-01    2     1000024        25   # BR(~chi_2+ -> ~chi_1+  h )
     1.47682109E-06    2     1000022        37   # BR(~chi_2+ -> ~chi_10  H+)
#
#         PDG            Width
DECAY   1000022     0.00000000E+00   # neutralino1 decays
#
#         PDG            Width
DECAY   1000023     5.68982670E-01   # neutralino2 decays
#          BR         NDA      ID1       ID2
     5.35267342E-01    2     1000022        23   # BR(~chi_20 -> ~chi_10   Z )
     4.64732658E-01    2     1000022        25   # BR(~chi_20 -> ~chi_10   h )
#
#         PDG            Width
DECAY   1000025     5.70481002E-01   # neutralino3 decays
#          BR         NDA      ID1       ID2
     4.58696240E-01    2     1000022        23   # BR(~chi_30 -> ~chi_10   Z )
     5.41303760E-01    2     1000022        25   # BR(~chi_30 -> ~chi_10   h )
#
#         PDG            Width
DECAY   1000035     2.07828002E+01   # neutralino4 decays
#          BR         NDA      ID1       ID2
     4.00050642E-05    2     1000022        23   # BR(~chi_40 -> ~chi_10   Z )
     8.03608204E-02    2     1000023        23   # BR(~chi_40 -> ~chi_20   Z )
     1.72224140E-01    2     1000025        23   # BR(~chi_40 -> ~chi_30   Z )
     2.44866176E-01    2     1000024       -24   # BR(~chi_40 -> ~chi_1+   W-)
     2.44866176E-01    2    -1000024        24   # BR(~chi_40 -> ~chi_1-   W+)
     1.50904271E-04    2     1000022        25   # BR(~chi_40 -> ~chi_10   h )
     1.40449348E-06    2     1000022        35   # BR(~chi_40 -> ~chi_10   H )
     1.68091547E-07    2     1000022        36   # BR(~chi_40 -> ~chi_10   A )
     1.76896913E-01    2     1000023        25   # BR(~chi_40 -> ~chi_20   h )
     8.05932925E-02    2     1000025        25   # BR(~chi_40 -> ~chi_30   h )
#
#         PDG            Width
DECAY        25     4.06007020E-03   # h decays
#          BR         NDA      ID1       ID2
     6.08666088E-01    2           5        -5   # BR(h -> b       bb     )
     6.38796911E-02    2         -15        15   # BR(h -> tau+    tau-   )
     2.26157376E-04    2         -13        13   # BR(h -> mu+     mu-    )
     4.79447569E-04    2           3        -3   # BR(h -> s       sb     )
     2.07749746E-02    2           4        -4   # BR(h -> c       cb     )
     6.71907264E-02    2          21        21   # BR(h -> g       g      )
     2.30980452E-03    2          22        22   # BR(h -> gam     gam    )
     1.48856340E-03    2          22        23   # BR(h -> Z       gam    )
     2.09912454E-01    2          24       -24   # BR(h -> W+      W-     )
     2.50083199E-02    2          23        23   # BR(h -> Z       Z      )
     6.37731078E-05    2     1000022   1000022   # BR(h -> ~chi_10 ~chi_10)
#
#         PDG            Width
DECAY        35     8.24148462E+00   # H decays
#          BR         NDA      ID1       ID2
     3.90890208E-01    2           5        -5   # BR(H -> b       bb     )
     6.75967688E-02    2         -15        15   # BR(H -> tau+    tau-   )
     2.39027544E-04    2         -13        13   # BR(H -> mu+     mu-    )
     2.93011183E-04    2           3        -3   # BR(H -> s       sb     )
     1.63911826E-06    2           4        -4   # BR(H -> c       cb     )
     1.63760891E-01    2           6        -6   # BR(H -> t       tb     )
     5.44248896E-05    2          21        21   # BR(H -> g       g      )
     2.37941714E-07    2          22        22   # BR(H -> gam     gam    )
     9.66798203E-08    2          23        22   # BR(H -> Z       gam    )
     7.59546950E-05    2          24       -24   # BR(H -> W+      W-     )
     3.79292759E-05    2          23        23   # BR(H -> Z       Z      )
     2.80578572E-04    2          25        25   # BR(H -> h       h      )
    -8.56841067E-24    2          36        36   # BR(H -> A       A      )
     1.32893972E-18    2          23        36   # BR(H -> Z       A      )
     2.29893243E-03    2     1000024  -1000024   # BR(H -> ~chi_1+ ~chi_1-)
     2.16345365E-03    2     1000022   1000022   # BR(H -> ~chi_10 ~chi_10)
     1.59530728E-05    2     1000023   1000023   # BR(H -> ~chi_20 ~chi_20)
     7.54514902E-04    2     1000025   1000025   # BR(H -> ~chi_30 ~chi_30)
     2.23137609E-01    2     1000022   1000023   # BR(H -> ~chi_10 ~chi_20)
     1.47655573E-01    2     1000022   1000025   # BR(H -> ~chi_10 ~chi_30)
     7.43195807E-04    2     1000023   1000025   # BR(H -> ~chi_20 ~chi_30)
#
#         PDG            Width
DECAY        36     8.25552454E+00   # A decays
#          BR         NDA      ID1       ID2
     3.90356843E-01    2           5        -5   # BR(A -> b       bb     )
     6.74836511E-02    2         -15        15   # BR(A -> tau+    tau-   )
     2.38627217E-04    2         -13        13   # BR(A -> mu+     mu-    )
     2.92734346E-04    2           3        -3   # BR(A -> s       sb     )
     1.64299898E-06    2           4        -4   # BR(A -> c       cb     )
     1.64058040E-01    2           6        -6   # BR(A -> t       tb     )
     1.62349857E-04    2          21        21   # BR(A -> g       g      )
     5.87951913E-07    2          22        22   # BR(A -> gam     gam    )
     1.96601247E-07    2          23        22   # BR(A -> Z       gam    )
     7.55382743E-05    2          23        25   # BR(A -> Z       h      )
     3.31012074E-03    2     1000024  -1000024   # BR(A -> ~chi_1+ ~chi_1-)
     2.19765696E-03    2     1000022   1000022   # BR(A -> ~chi_10 ~chi_10)
     1.62724806E-05    2     1000023   1000023   # BR(A -> ~chi_20 ~chi_20)
     1.80533977E-03    2     1000025   1000025   # BR(A -> ~chi_30 ~chi_30)
     1.49669850E-01    2     1000022   1000023   # BR(A -> ~chi_10 ~chi_20)
     2.20053654E-01    2     1000022   1000025   # BR(A -> ~chi_10 ~chi_30)
     2.76894715E-04    2     1000023   1000025   # BR(A -> ~chi_20 ~chi_30)
#
#         PDG            Width
DECAY        37     8.21388944E+00   # H+ decays
#          BR         NDA      ID1       ID2
     6.27993275E-04    2           4        -5   # BR(H+ -> c       bb     )
     6.78570702E-02    2         -15        16   # BR(H+ -> tau+    nu_tau )
     2.39947654E-04    2         -13        14   # BR(H+ -> mu+     nu_mu  )
     4.01913611E-06    2           2        -5   # BR(H+ -> u       bb     )
     1.40793247E-05    2           2        -3   # BR(H+ -> u       sb     )
     2.91161374E-04    2           4        -3   # BR(H+ -> c       sb     )
     5.53966449E-01    2           6        -5   # BR(H+ -> t       bb     )
     7.60754775E-05    2          24        25   # BR(H+ -> W+      h      )
     8.20583382E-13    2          24        36   # BR(H+ -> W+      A      )
     3.75778756E-01    2     1000024   1000022   # BR(H+ -> ~chi_1+ ~chi_10)
     1.12267973E-03    2     1000024   1000023   # BR(H+ -> ~chi_1+ ~chi_20)
     2.17688298E-05    2     1000024   1000025   # BR(H+ -> ~chi_1+ ~chi_30)
