#
#                              ======================
#                              | THE SUSYHIT OUTPUT |
#                              ======================
#
#
#              ------------------------------------------------------
#              |     This is the output of the SUSY-HIT package     |
#              |  created by A.Djouadi, M.Muehlleitner and M.Spira. |
#              |  In case of problems with SUSY-HIT email to        |
#              |           margarete.muehlleitner@kit.edu           |
#              |           michael.spira@psi.ch                     |
#              |           abdelhak.djouadi@cern.ch                 |
#              ------------------------------------------------------
#
#              ------------------------------------------------------
#              |  SUSY Les Houches Accord - MSSM Spectrum + Decays  |
#              |              based on the decay programs           |
#              |                                                    |
#              |                     SDECAY 1.5                     |
#              |                                                    |
#              |  Authors: M.Muhlleitner, A.Djouadi and Y.Mambrini  |
#              |  Ref.:    Comput.Phys.Commun.168(2005)46           |
#              |           [hep-ph/0311167]                         |
#              |                                                    |
#              |                     HDECAY 3.4                     |
#              |                                                    |
#              |  By: A.Djouadi,J.Kalinowski,M.Muhlleitner,M.Spira  |
#              |  Ref.:    Comput.Phys.Commun.108(1998)56           |
#              |           [hep-ph/9704448]                         |
#              |                                                    |
#              |                                                    |
#              |  If not stated otherwise all DRbar couplings and   |
#              |  soft SUSY breaking masses are given at the scale  |
#              |  Q=  0.91187600E+02
#              |                                                    |
#              ------------------------------------------------------
#
#
BLOCK DCINFO  # Decay Program information
     1   SDECAY/HDECAY # decay calculator
     2   1.5  /3.4    # version number
#
BLOCK SPINFO  # Spectrum calculator information
     1   SuSpect     # RGE +Spectrum calculator            
     2   2.43         # version number                     
#
BLOCK MODSEL  # Model selection
     1     2   # GMSB                                              
#
BLOCK SMINPUTS  # Standard Model inputs
         1     1.27932904E+02   # alpha_em^-1(M_Z)^MSbar
         2     1.16639000E-05   # G_F [GeV^-2]
         3     1.17200000E-01   # alpha_S(M_Z)^MSbar
         4     9.11870000E+01   # M_Z pole mass
         5     4.25000000E+00   # mb(mb)^MSbar
         6     1.72900000E+02   # mt pole mass
         7     1.77700000E+00   # mtau pole mass
#
BLOCK MINPAR  # Input parameters - minimal models
#
BLOCK EXTPAR  # Input parameters - non-minimal models
         0     9.11876000E+01   # EWSB                
         1     2.17000000E+03   # M_1                 
         2     3.00000000E+03   # M_2                 
         3     2.30000000E+03   # M_3                 
        11     0.00000000E+00   # A_t                 
        12     0.00000000E+00   # A_b                 
        13     0.00000000E+00   # A_tau               
        14     0.00000000E+00   # A_u                 
        15     0.00000000E+00   # A_d                 
        16     0.00000000E+00   # A_e                 
        23     2.19500000E+03   # mu(EWSB)            
        25     1.50000000E+00   # tanbeta(in)         
        26     2.00000000E+03   # MA_pole             
        31     5.00000000E+03   # M_eL                
        32     5.00000000E+03   # M_muL               
        33     5.00000000E+03   # M_tauL              
        34     5.00000000E+03   # M_eR                
        35     5.00000000E+03   # M_muR               
        36     5.00000000E+03   # M_tauR              
        41     5.00000000E+03   # M_q1L               
        42     5.00000000E+03   # M_q2L               
        43     5.00000000E+03   # M_q3L               
        44     5.00000000E+03   # M_uR                
        45     5.00000000E+03   # M_cR                
        46     5.00000000E+03   # M_tR                
        47     5.00000000E+03   # M_dR                
        48     5.00000000E+03   # M_sR                
        49     5.00000000E+03   # M_bR                
#
BLOCK MASS  # Mass Spectrum
# PDG code           mass       particle
        24     8.05423734E+01   # W+
        25     1.26000000E+02   # h
        35     2.00398564E+03   # H
        36     2.00000000E+03   # A
        37     2.00152226E+03   # H+
         5     4.87877839E+00   # b-quark pole mass calculated from mb(mb)_Msbar
   1000001     4.90936567E+03   # ~d_L
   2000001     4.90925510E+03   # ~d_R
   1000002     4.90911841E+03   # ~u_L
   2000002     4.90917676E+03   # ~u_R
   1000003     4.90936567E+03   # ~s_L
   2000003     4.90925510E+03   # ~s_R
   1000004     4.90911841E+03   # ~c_L
   2000004     4.90917676E+03   # ~c_R
   1000005     4.90840051E+03   # ~b_1
   2000005     4.91022158E+03   # ~b_2
   1000006     5.01447745E+03   # ~t_1
   2000006     5.30087027E+03   # ~t_2
   1000011     5.00008214E+03   # ~e_L
   2000011     5.00007618E+03   # ~e_R
   1000012     4.99984168E+03   # ~nu_eL
   1000013     5.00008214E+03   # ~mu_L
   2000013     5.00007618E+03   # ~mu_R
   1000014     4.99984168E+03   # ~nu_muL
   1000015     4.99949373E+03   # ~tau_1
   2000015     5.00066515E+03   # ~tau_2
   1000016     4.99984168E+03   # ~nu_tauL
   1000021     2.32576926E+03   # ~g
   1000022     2.26522529E+03   # ~chi_10
   1000023    -2.32264911E+03   # ~chi_20
   1000025     2.35292647E+03   # ~chi_30
   1000035     3.12470370E+03   # ~chi_40
   1000024     2.31513759E+03   # ~chi_1+
   1000037     3.12468240E+03   # ~chi_2+
   1000039     1.00000000E-09   # ~gravitino
#
BLOCK NMIX  # Neutralino Mixing Matrix
  1  1     7.54057525E-01   # N_11
  1  2    -5.95004809E-02   # N_12
  1  3     4.63679194E-01   # N_13
  1  4    -4.61365958E-01   # N_14
  2  1     1.88751911E-03   # N_21
  2  2    -2.85150645E-03   # N_22
  2  3    -7.07056452E-01   # N_23
  2  4    -7.07148839E-01   # N_24
  3  1     6.56785437E-01   # N_31
  3  2     7.61332767E-02   # N_32
  3  3    -5.29799860E-01   # N_33
  3  4     5.31176733E-01   # N_34
  4  1     5.15520331E-03   # N_41
  4  2    -9.95316676E-01   # N_42
  4  3    -6.62184809E-02   # N_43
  4  4     7.02371041E-02   # N_44
#
BLOCK UMIX  # Chargino Mixing Matrix U
  1  1    -9.33824835E-02   # U_11
  1  2     9.95630309E-01   # U_12
  2  1     9.95630309E-01   # U_21
  2  2     9.33824835E-02   # U_22
#
BLOCK VMIX  # Chargino Mixing Matrix V
  1  1    -9.90572085E-02   # V_11
  1  2     9.95081740E-01   # V_12
  2  1     9.95081740E-01   # V_21
  2  2     9.90572085E-02   # V_22
#
BLOCK STOPMIX  # Stop Mixing Matrix
  1  1     9.99689311E-01   # cos(theta_t)
  1  2     2.49255185E-02   # sin(theta_t)
  2  1    -2.49255185E-02   # -sin(theta_t)
  2  2     9.99689311E-01   # cos(theta_t)
#
BLOCK SBOTMIX  # Sbottom Mixing Matrix
  1  1     6.85303157E-01   # cos(theta_b)
  1  2     7.28257910E-01   # sin(theta_b)
  2  1    -7.28257910E-01   # -sin(theta_b)
  2  2     6.85303157E-01   # cos(theta_b)
#
BLOCK STAUMIX  # Stau Mixing Matrix
  1  1     7.05307983E-01   # cos(theta_tau)
  1  2     7.08901015E-01   # sin(theta_tau)
  2  1    -7.08901015E-01   # -sin(theta_tau)
  2  2     7.05307983E-01   # cos(theta_tau)
#
BLOCK ALPHA  # Higgs mixing
          -5.90194481E-01   # Mixing angle in the neutral Higgs boson sector
#
BLOCK HMIX Q=  9.11876000E+01  # DRbar Higgs Parameters
         1     2.19500000E+03   # mu(Q)               
         2     1.49999979E+00   # tanbeta(Q)          
         3     2.52379966E+02   # vev(Q)              
         4     2.90887380E+06   # MA^2(Q)             
#
BLOCK GAUGE Q=  9.11876000E+01  # The gauge couplings
     1     3.52689566E-01   # gprime(Q) DRbar
     2     6.26584013E-01   # g(Q) DRbar
     3     1.07822188E+00   # g3(Q) DRbar
#
BLOCK AU Q=  9.11876000E+01  # The trilinear couplings
  1  1     0.00000000E+00   # A_u(Q) DRbar
  2  2     0.00000000E+00   # A_c(Q) DRbar
  3  3     0.00000000E+00   # A_t(Q) DRbar
#
BLOCK AD Q=  9.11876000E+01  # The trilinear couplings
  1  1     0.00000000E+00   # A_d(Q) DRbar
  2  2     0.00000000E+00   # A_s(Q) DRbar
  3  3     0.00000000E+00   # A_b(Q) DRbar
#
BLOCK AE Q=  9.11876000E+01  # The trilinear couplings
  1  1     0.00000000E+00   # A_e(Q) DRbar
  2  2     0.00000000E+00   # A_mu(Q) DRbar
  3  3     0.00000000E+00   # A_tau(Q) DRbar
#
BLOCK Yu Q=  9.11876000E+01  # The Yukawa couplings
  1  1     0.00000000E+00   # y_u(Q) DRbar
  2  2     0.00000000E+00   # y_c(Q) DRbar
  3  3     1.02449435E+00   # y_t(Q) DRbar
#
BLOCK Yd Q=  9.11876000E+01  # The Yukawa couplings
  1  1     0.00000000E+00   # y_d(Q) DRbar
  2  2     0.00000000E+00   # y_s(Q) DRbar
  3  3     2.71175212E-02   # y_b(Q) DRbar
#
BLOCK Ye Q=  9.11876000E+01  # The Yukawa couplings
  1  1     0.00000000E+00   # y_e(Q) DRbar
  2  2     0.00000000E+00   # y_mu(Q) DRbar
  3  3     1.79703996E-02   # y_tau(Q) DRbar
#
BLOCK MSOFT Q=  9.11876000E+01  # The soft SUSY breaking masses at the scale Q
         1     2.17000000E+03   # M_1                 
         2     3.00000000E+03   # M_2                 
         3     2.30000000E+03   # M_3                 
        14     0.00000000E+00   # A_u                 
        15     0.00000000E+00   # A_d                 
        16     0.00000000E+00   # A_e                 
        21    -2.34334813E+06   # M^2_Hd              
        22    -9.81606297E+06   # M^2_Hu              
        31     5.00000000E+03   # M_eL                
        32     5.00000000E+03   # M_muL               
        33     5.00000000E+03   # M_tauL              
        34     5.00000000E+03   # M_eR                
        35     5.00000000E+03   # M_muR               
        36     5.00000000E+03   # M_tauR              
        41     5.00000000E+03   # M_q1L               
        42     5.00000000E+03   # M_q2L               
        43     5.00000000E+03   # M_q3L               
        44     5.00000000E+03   # M_uR                
        45     5.00000000E+03   # M_cR                
        46     5.00000000E+03   # M_tR                
        47     5.00000000E+03   # M_dR                
        48     5.00000000E+03   # M_sR                
        49     5.00000000E+03   # M_bR                
#
#
#
#                             =================
#                             |The decay table|
#                             =================
#
# - The QCD corrections to the decays gluino -> squark  + quark
#                                     squark -> gaugino + quark_prime
#                                     squark -> squark_prime + Higgs
#                                     squark -> gluino  + quark
#   are included.
#
# - The multi-body decays for the inos, stops and sbottoms are included.
#
# - The loop induced decays for the gluino, neutralinos and stops
#   are included.
#
# - The SUSY decays of the top quark are included.
#
# - Possible decays of the NLSP in GMSB models are included.
#
#
#         PDG            Width
DECAY         6     1.36784788E+00   # top decays
#          BR         NDA      ID1       ID2
     1.00000000E+00    2           5        24   # BR(t ->  b    W+)
#
#         PDG            Width
DECAY   1000021     7.83498456E-05   # gluino decays
#          BR         NDA      ID1       ID2
     4.15327486E-05    2     1000022        21   # BR(~g -> ~chi_10 g)
     1.39595336E-08    2     1000023        21   # BR(~g -> ~chi_20 g)
#          BR         NDA      ID1       ID2
0.0E+00    2     1000039    21 # BR(~g -> ~G      g)
#           BR         NDA      ID1       ID2       ID3
     1.55971148E-07    3     1000022         1        -1   # BR(~g -> ~chi_10 d  db)
     1.78022897E-18    3     1000023         1        -1   # BR(~g -> ~chi_20 d  db)
     4.23433860E-07    3     1000022         2        -2   # BR(~g -> ~chi_10 u  ub)
     1.36194287E-18    3     1000023         2        -2   # BR(~g -> ~chi_20 u  ub)
     1.55971148E-07    3     1000022         3        -3   # BR(~g -> ~chi_10 s  sb)
     1.78022897E-18    3     1000023         3        -3   # BR(~g -> ~chi_20 s  sb)
     4.23433860E-07    3     1000022         4        -4   # BR(~g -> ~chi_10 c  cb)
     1.36194287E-18    3     1000023         4        -4   # BR(~g -> ~chi_20 c  cb)
     1.39865208E-07    3     1000022         5        -5   # BR(~g -> ~chi_10 b  bb)
     4.18809409E-12    3     1000024         1        -2   # BR(~g -> ~chi_1+ d  ub)
     4.18809409E-12    3    -1000024         2        -1   # BR(~g -> ~chi_1- u  db)
     4.18809409E-12    3     1000024         3        -4   # BR(~g -> ~chi_1+ s  cb)
     4.18809409E-12    3    -1000024         4        -3   # BR(~g -> ~chi_1- c  sb)
#
#         PDG            Width
DECAY   1000006     2.31691292E+02   # stop1 decays
#          BR         NDA      ID1       ID2
     4.17331929E-02    2     1000022         6   # BR(~t_1 -> ~chi_10 t )
     9.53120556E-02    2     1000023         6   # BR(~t_1 -> ~chi_20 t )
     5.49441709E-02    2     1000025         6   # BR(~t_1 -> ~chi_30 t )
     3.14207921E-02    2     1000035         6   # BR(~t_1 -> ~chi_40 t )
     3.85475419E-04    2     1000024         5   # BR(~t_1 -> ~chi_1+ b )
     6.10346330E-02    2     1000037         5   # BR(~t_1 -> ~chi_2+ b )
     7.08136453E-01    2     1000021         6   # BR(~t_1 -> ~g      t )
     3.52270837E-03    2     1000005        24   # BR(~t_1 -> ~b_1    W+)
     3.51051828E-03    2     2000005        24   # BR(~t_1 -> ~b_2    W+)
#
#         PDG            Width
DECAY   2000006     2.88320577E+02   # stop2 decays
#          BR         NDA      ID1       ID2
     5.16322457E-02    2     1000022         6   # BR(~t_2 -> ~chi_10 t )
     8.64523184E-02    2     1000023         6   # BR(~t_2 -> ~chi_20 t )
     5.97484633E-02    2     1000025         6   # BR(~t_2 -> ~chi_30 t )
     3.91706003E-04    2     1000035         6   # BR(~t_2 -> ~chi_40 t )
     1.72624340E-01    2     1000024         5   # BR(~t_2 -> ~chi_1+ b )
     7.85470043E-04    2     1000037         5   # BR(~t_2 -> ~chi_2+ b )
     6.27603535E-01    2     1000021         6   # BR(~t_2 -> ~g      t )
     1.93844194E-05    2     1000006        25   # BR(~t_2 -> ~t_1    h )
     1.12486933E-04    2     1000006        23   # BR(~t_2 -> ~t_1    Z )
     2.98172931E-04    2     1000005        24   # BR(~t_2 -> ~b_1    W+)
     3.31876584E-04    2     2000005        24   # BR(~t_2 -> ~b_2    W+)
#
#         PDG            Width
DECAY   1000005     1.87649409E+02   # sbottom1 decays
#          BR         NDA      ID1       ID2
     4.53452324E-03    2     1000022         5   # BR(~b_1 -> ~chi_10 b )
     7.14469746E-05    2     1000023         5   # BR(~b_1 -> ~chi_20 b )
     1.56000804E-03    2     1000025         5   # BR(~b_1 -> ~chi_30 b )
     1.57552251E-02    2     1000035         5   # BR(~b_1 -> ~chi_40 b )
     1.01225643E-01    2    -1000024         6   # BR(~b_1 -> ~chi_1- t )
     3.24640297E-02    2    -1000037         6   # BR(~b_1 -> ~chi_2- t )
     8.44389124E-01    2     1000021         5   # BR(~b_1 -> ~g      b )
#
#         PDG            Width
DECAY   2000005     1.93343656E+02   # sbottom2 decays
#          BR         NDA      ID1       ID2
     2.81037236E-03    2     1000022         5   # BR(~b_2 -> ~chi_10 b )
     8.58660406E-05    2     1000023         5   # BR(~b_2 -> ~chi_20 b )
     2.14981421E-03    2     1000025         5   # BR(~b_2 -> ~chi_30 b )
     1.85028034E-02    2     1000035         5   # BR(~b_2 -> ~chi_40 b )
     1.19276469E-01    2    -1000024         6   # BR(~b_2 -> ~chi_1- t )
     3.81312547E-02    2    -1000037         6   # BR(~b_2 -> ~chi_2- t )
     8.19043421E-01    2     1000021         5   # BR(~b_2 -> ~g      b )
#
#         PDG            Width
DECAY   1000002     1.78664175E+02   # sup_L decays
#          BR         NDA      ID1       ID2
     4.31320961E-04    2     1000022         2   # BR(~u_L -> ~chi_10 u)
     3.89298113E-07    2     1000023         2   # BR(~u_L -> ~chi_20 u)
     2.44375119E-03    2     1000025         2   # BR(~u_L -> ~chi_30 u)
     3.64198707E-02    2     1000035         2   # BR(~u_L -> ~chi_40 u)
     1.22949632E-03    2     1000024         1   # BR(~u_L -> ~chi_1+ d)
     7.29484106E-02    2     1000037         1   # BR(~u_L -> ~chi_2+ d)
     8.86526761E-01    2     1000021         2   # BR(~u_L -> ~g      u)
#
#         PDG            Width
DECAY   2000002     1.64736239E+02   # sup_R decays
#          BR         NDA      ID1       ID2
     2.22924019E-02    2     1000022         2   # BR(~u_R -> ~chi_10 u)
     1.35852109E-07    2     1000023         2   # BR(~u_R -> ~chi_20 u)
     1.62023688E-02    2     1000025         2   # BR(~u_R -> ~chi_30 u)
     5.98030653E-07    2     1000035         2   # BR(~u_R -> ~chi_40 u)
     9.61504495E-01    2     1000021         2   # BR(~u_R -> ~g      u)
#
#         PDG            Width
DECAY   1000001     1.78674279E+02   # sdown_L decays
#          BR         NDA      ID1       ID2
     2.59248111E-03    2     1000022         1   # BR(~d_L -> ~chi_10 d)
     6.41469202E-07    2     1000023         1   # BR(~d_L -> ~chi_20 d)
     1.36385409E-04    2     1000025         1   # BR(~d_L -> ~chi_30 d)
     3.65664630E-02    2     1000035         1   # BR(~d_L -> ~chi_40 d)
     1.09271841E-03    2    -1000024         2   # BR(~d_L -> ~chi_1- u)
     7.30383412E-02    2    -1000037         2   # BR(~d_L -> ~chi_2- u)
     8.86572969E-01    2     1000021         1   # BR(~d_L -> ~g      d)
#
#         PDG            Width
DECAY   2000001     1.59985543E+02   # sdown_R decays
#          BR         NDA      ID1       ID2
     5.73878191E-03    2     1000022         1   # BR(~d_R -> ~chi_10 d)
     3.49727457E-08    2     1000023         1   # BR(~d_R -> ~chi_20 d)
     4.17101861E-03    2     1000025         1   # BR(~d_R -> ~chi_30 d)
     1.53956312E-07    2     1000035         1   # BR(~d_R -> ~chi_40 d)
     9.90090011E-01    2     1000021         1   # BR(~d_R -> ~g      d)
#
#         PDG            Width
DECAY   1000004     1.78664175E+02   # scharm_L decays
#          BR         NDA      ID1       ID2
     4.31320961E-04    2     1000022         4   # BR(~c_L -> ~chi_10 c)
     3.89298113E-07    2     1000023         4   # BR(~c_L -> ~chi_20 c)
     2.44375119E-03    2     1000025         4   # BR(~c_L -> ~chi_30 c)
     3.64198707E-02    2     1000035         4   # BR(~c_L -> ~chi_40 c)
     1.22949632E-03    2     1000024         3   # BR(~c_L -> ~chi_1+ s)
     7.29484106E-02    2     1000037         3   # BR(~c_L -> ~chi_2+ s)
     8.86526761E-01    2     1000021         4   # BR(~c_L -> ~g      c)
#
#         PDG            Width
DECAY   2000004     1.64736239E+02   # scharm_R decays
#          BR         NDA      ID1       ID2
     2.22924019E-02    2     1000022         4   # BR(~c_R -> ~chi_10 c)
     1.35852109E-07    2     1000023         4   # BR(~c_R -> ~chi_20 c)
     1.62023688E-02    2     1000025         4   # BR(~c_R -> ~chi_30 c)
     5.98030653E-07    2     1000035         4   # BR(~c_R -> ~chi_40 c)
     9.61504495E-01    2     1000021         4   # BR(~c_R -> ~g      c)
#
#         PDG            Width
DECAY   1000003     1.78674279E+02   # sstrange_L decays
#          BR         NDA      ID1       ID2
     2.59248111E-03    2     1000022         3   # BR(~s_L -> ~chi_10 s)
     6.41469202E-07    2     1000023         3   # BR(~s_L -> ~chi_20 s)
     1.36385409E-04    2     1000025         3   # BR(~s_L -> ~chi_30 s)
     3.65664630E-02    2     1000035         3   # BR(~s_L -> ~chi_40 s)
     1.09271841E-03    2    -1000024         4   # BR(~s_L -> ~chi_1- c)
     7.30383412E-02    2    -1000037         4   # BR(~s_L -> ~chi_2- c)
     8.86572969E-01    2     1000021         3   # BR(~s_L -> ~g      s)
#
#         PDG            Width
DECAY   2000003     1.59985543E+02   # sstrange_R decays
#          BR         NDA      ID1       ID2
     5.73878191E-03    2     1000022         3   # BR(~s_R -> ~chi_10 s)
     3.49727457E-08    2     1000023         3   # BR(~s_R -> ~chi_20 s)
     4.17101861E-03    2     1000025         3   # BR(~s_R -> ~chi_30 s)
     1.53956312E-07    2     1000035         3   # BR(~s_R -> ~chi_40 s)
     9.90090011E-01    2     1000021         3   # BR(~s_R -> ~g      s)
#
#         PDG            Width
DECAY   1000011     2.57291617E+01   # selectron_L decays
#          BR         NDA      ID1       ID2
     6.38445936E-02    2     1000022        11   # BR(~e_L -> ~chi_10 e-)
     1.49395595E-06    2     1000023        11   # BR(~e_L -> ~chi_20 e-)
     9.14354984E-02    2     1000025        11   # BR(~e_L -> ~chi_30 e-)
     2.77645078E-01    2     1000035        11   # BR(~e_L -> ~chi_40 e-)
     8.16935832E-03    2    -1000024        12   # BR(~e_L -> ~chi_1- nu_e)
     5.58903978E-01    2    -1000037        12   # BR(~e_L -> ~chi_2- nu_e)
#
#         PDG            Width
DECAY   2000011     1.53588621E+01   # selectron_R decays
#          BR         NDA      ID1       ID2
     5.78682037E-01    2     1000022        11   # BR(~e_R -> ~chi_10 e-)
     3.53036784E-06    2     1000023        11   # BR(~e_R -> ~chi_20 e-)
     4.21298527E-01    2     1000025        11   # BR(~e_R -> ~chi_30 e-)
     1.59054639E-05    2     1000035        11   # BR(~e_R -> ~chi_40 e-)
#
#         PDG            Width
DECAY   1000013     2.57291617E+01   # smuon_L decays
#          BR         NDA      ID1       ID2
     6.38445936E-02    2     1000022        13   # BR(~mu_L -> ~chi_10 mu-)
     1.49395595E-06    2     1000023        13   # BR(~mu_L -> ~chi_20 mu-)
     9.14354984E-02    2     1000025        13   # BR(~mu_L -> ~chi_30 mu-)
     2.77645078E-01    2     1000035        13   # BR(~mu_L -> ~chi_40 mu-)
     8.16935832E-03    2    -1000024        14   # BR(~mu_L -> ~chi_1- nu_mu)
     5.58903978E-01    2    -1000037        14   # BR(~mu_L -> ~chi_2- nu_mu)
#
#         PDG            Width
DECAY   2000013     1.53588621E+01   # smuon_R decays
#          BR         NDA      ID1       ID2
     5.78682037E-01    2     1000022        13   # BR(~mu_R -> ~chi_10 mu-)
     3.53036784E-06    2     1000023        13   # BR(~mu_R -> ~chi_20 mu-)
     4.21298527E-01    2     1000025        13   # BR(~mu_R -> ~chi_30 mu-)
     1.59054639E-05    2     1000035        13   # BR(~mu_R -> ~chi_40 mu-)
#
#         PDG            Width
DECAY   1000015     2.05896424E+01   # stau_1 decays
#          BR         NDA      ID1       ID2
     2.62293246E-01    2     1000022        15   # BR(~tau_1 -> ~chi_10  tau-)
     4.16543822E-04    2     1000023        15   # BR(~tau_1 -> ~chi_20  tau-)
     2.11441034E-01    2     1000025        15   # BR(~tau_1 -> ~chi_30  tau-)
     1.71584667E-01    2     1000035        15   # BR(~tau_1 -> ~chi_40  tau-)
     8.67744784E-03    2    -1000024        16   # BR(~tau_1 -> ~chi_1-  nu_tau)
     3.45412413E-01    2    -1000037        16   # BR(~tau_1 -> ~chi_2-  nu_tau)
     1.74649659E-04    2     1000039        15   # BR(~tau_1 -> ~G       tau-)
#
#         PDG            Width
DECAY   2000015     2.05612443E+01   # stau_2 decays
#          BR         NDA      ID1       ID2
     2.49917698E-01    2     1000022        15   # BR(~tau_2 -> ~chi_10  tau-)
     5.48059963E-04    2     1000023        15   # BR(~tau_2 -> ~chi_20  tau-)
     2.17922580E-01    2     1000025        15   # BR(~tau_2 -> ~chi_30  tau-)
     1.75626447E-01    2     1000035        15   # BR(~tau_2 -> ~chi_40  tau-)
     2.48754354E-03    2    -1000024        16   # BR(~tau_2 -> ~chi_1-  nu_tau)
     3.53497672E-01    2    -1000037        16   # BR(~tau_2 -> ~chi_2-  nu_tau)
#
#         PDG            Width
DECAY   1000012     2.57328630E+01   # snu_eL decays
#          BR         NDA      ID1       ID2
     1.12243309E-01    2     1000022        12   # BR(~nu_eL -> ~chi_10 nu_e)
     7.14839735E-06    2     1000023        12   # BR(~nu_eL -> ~chi_20 nu_e)
     3.96337836E-02    2     1000025        12   # BR(~nu_eL -> ~chi_30 nu_e)
     2.80813291E-01    2     1000035        12   # BR(~nu_eL -> ~chi_40 nu_e)
     9.19016093E-03    2     1000024        11   # BR(~nu_eL -> ~chi_1+ e-)
     5.58112307E-01    2     1000037        11   # BR(~nu_eL -> ~chi_2+ e-)
#
#         PDG            Width
DECAY   1000014     2.57328630E+01   # snu_muL decays
#          BR         NDA      ID1       ID2
     1.12243309E-01    2     1000022        14   # BR(~nu_muL -> ~chi_10 nu_mu)
     7.14839735E-06    2     1000023        14   # BR(~nu_muL -> ~chi_20 nu_mu)
     3.96337836E-02    2     1000025        14   # BR(~nu_muL -> ~chi_30 nu_mu)
     2.80813291E-01    2     1000035        14   # BR(~nu_muL -> ~chi_40 nu_mu)
     9.19016093E-03    2     1000024        13   # BR(~nu_muL -> ~chi_1+ mu-)
     5.58112307E-01    2     1000037        13   # BR(~nu_muL -> ~chi_2+ mu-)
#
#         PDG            Width
DECAY   1000016     2.57526078E+01   # snu_tauL decays
#          BR         NDA      ID1       ID2
     1.12157251E-01    2     1000022        16   # BR(~nu_tauL -> ~chi_10 nu_tau)
     7.14291661E-06    2     1000023        16   # BR(~nu_tauL -> ~chi_20 nu_tau)
     3.96033961E-02    2     1000025        16   # BR(~nu_tauL -> ~chi_30 nu_tau)
     2.80597990E-01    2     1000035        16   # BR(~nu_tauL -> ~chi_40 nu_tau)
     9.94397399E-03    2     1000024        15   # BR(~nu_tauL -> ~chi_1+ tau-)
     5.57690246E-01    2     1000037        15   # BR(~nu_tauL -> ~chi_2+ tau-)
#
#         PDG            Width
DECAY   1000024     2.27702773E-04   # chargino1+ decays
#          BR         NDA      ID1       ID2
     1.68872939E-01    2     1000039        24   # BR(~chi_1+ -> ~G       W+)
     6.78089622E-04    2     1000039        37   # BR(~chi_1+ -> ~G       H+)
#           BR         NDA      ID1       ID2       ID3
     2.77007460E-01    3     1000022         2        -1   # BR(~chi_1+ -> ~chi_10 u    db)
     2.77007460E-01    3     1000022         4        -3   # BR(~chi_1+ -> ~chi_10 c    sb)
     9.23358964E-02    3     1000022       -11        12   # BR(~chi_1+ -> ~chi_10 e+   nu_e)
     9.23358964E-02    3     1000022       -13        14   # BR(~chi_1+ -> ~chi_10 mu+  nu_mu)
     9.17622579E-02    3     1000022       -15        16   # BR(~chi_1+ -> ~chi_10 tau+ nu_tau)
#
#         PDG            Width
DECAY   1000037     3.05619823E+01   # chargino2+ decays
#          BR         NDA      ID1       ID2
     2.55207429E-01    2     1000024        23   # BR(~chi_2+ -> ~chi_1+  Z )
     9.77339849E-02    2     1000022        24   # BR(~chi_2+ -> ~chi_10  W+)
     2.45794119E-01    2     1000023        24   # BR(~chi_2+ -> ~chi_20  W+)
     1.51312854E-01    2     1000025        24   # BR(~chi_2+ -> ~chi_30  W+)
     2.49940466E-01    2     1000024        25   # BR(~chi_2+ -> ~chi_1+  h )
     1.11415530E-05    2     1000039        24   # BR(~chi_2+ -> ~G       W+)
     6.14403617E-09    2     1000039        37   # BR(~chi_2+ -> ~G       H+)
#
#         PDG            Width
DECAY   1000022    1.0E-05    # neutralino1 decays
#          BR         NDA      ID1       ID2
     5.03316729E-01    2     1000039        22   # BR(~chi_10 -> ~G        gam)
     4.86178282E-01    2     1000039        23   # BR(~chi_10 -> ~G        Z)
     9.89244278E-03    2     1000039        25   # BR(~chi_10 -> ~G        h)
     5.87110180E-04    2     1000039        35   # BR(~chi_10 -> ~G        H)
     2.54357843E-05    2     1000039        36   # BR(~chi_10 -> ~G        A)
#
#         PDG            Width
DECAY   1000023     3.52618496E-04   # neutralino2 decays
#          BR         NDA      ID1       ID2
     1.34453799E-04    2     1000022        22   # BR(~chi_20 -> ~chi_10 gam)
#          BR         NDA      ID1       ID2
     1.33727822E-08    2     1000039        22   # BR(~chi_20 -> ~G        gam)
     4.22335050E-03    2     1000039        23   # BR(~chi_20 -> ~G        Z)
     1.04954457E-01    2     1000039        25   # BR(~chi_20 -> ~G        h)
     1.77007332E-05    2     1000039        35   # BR(~chi_20 -> ~G        H)
     4.73993702E-04    2     1000039        36   # BR(~chi_20 -> ~G        A)
#           BR         NDA      ID1       ID2       ID3
     1.05228143E-01    3     1000022        -2         2   # BR(~chi_20 -> ~chi_10 ub      u)
     1.36267490E-01    3     1000022        -1         1   # BR(~chi_20 -> ~chi_10 db      d)
     1.05228143E-01    3     1000022        -4         4   # BR(~chi_20 -> ~chi_10 cb      c)
     1.36267490E-01    3     1000022        -3         3   # BR(~chi_20 -> ~chi_10 sb      s)
     1.27422667E-01    3     1000022        -5         5   # BR(~chi_20 -> ~chi_10 bb      b)
     3.11273107E-02    3     1000022       -11        11   # BR(~chi_20 -> ~chi_10 e+      e-)
     3.11273107E-02    3     1000022       -13        13   # BR(~chi_20 -> ~chi_10 mu+     mu-)
     3.08818261E-02    3     1000022       -15        15   # BR(~chi_20 -> ~chi_10 tau+    tau-)
     6.21669007E-02    3     1000022       -12        12   # BR(~chi_20 -> ~chi_10 nu_eb   nu_e)
     6.21669007E-02    3     1000022       -14        14   # BR(~chi_20 -> ~chi_10 nu_mub  nu_mu)
     6.21669007E-02    3     1000022       -16        16   # BR(~chi_20 -> ~chi_10 nu_taub nu_tau)
     2.48072009E-05    3     1000024        -2         1   # BR(~chi_20 -> ~chi_1+ ub      d)
     2.48072009E-05    3    -1000024        -1         2   # BR(~chi_20 -> ~chi_1- db      u)
     2.48072009E-05    3     1000024        -4         3   # BR(~chi_20 -> ~chi_1+ cb      s)
     2.48072009E-05    3    -1000024        -3         4   # BR(~chi_20 -> ~chi_1- sb      c)
     8.26906771E-06    3     1000024       -12        11   # BR(~chi_20 -> ~chi_1+ nu_eb   e-)
     8.26906771E-06    3    -1000024        12       -11   # BR(~chi_20 -> ~chi_1- nu_e    e+)
     8.26906771E-06    3     1000024       -14        13   # BR(~chi_20 -> ~chi_1+ nu_mub  mu-)
     8.26906771E-06    3    -1000024        14       -13   # BR(~chi_20 -> ~chi_1- nu_mu   mu+)
     6.32131166E-06    3     1000024       -16        15   # BR(~chi_20 -> ~chi_1+ nu_taub tau-)
     6.32131166E-06    3    -1000024        16       -15   # BR(~chi_20 -> ~chi_1- nu_tau  tau+)
#
#         PDG            Width
DECAY   1000025     1.84142218E-04   # neutralino3 decays
#          BR         NDA      ID1       ID2
     4.57870059E-04    2     1000022        22   # BR(~chi_30 -> ~chi_10 gam)
     3.37808188E-06    2     1000023        22   # BR(~chi_30 -> ~chi_20 gam)
#          BR         NDA      ID1       ID2
     1.67607388E-01    2     1000039        22   # BR(~chi_30 -> ~G        gam)
     1.50671213E-01    2     1000039        23   # BR(~chi_30 -> ~G        Z)
     4.78159530E-03    2     1000039        25   # BR(~chi_30 -> ~G        h)
     6.94071640E-04    2     1000039        35   # BR(~chi_30 -> ~G        H)
     2.85623426E-05    2     1000039        36   # BR(~chi_30 -> ~G        A)
#           BR         NDA      ID1       ID2       ID3
     2.81768192E-05    3     1000022        -2         2   # BR(~chi_30 -> ~chi_10 ub      u)
     3.41048892E-05    3     1000022        -1         1   # BR(~chi_30 -> ~chi_10 db      d)
     2.81768192E-05    3     1000022        -4         4   # BR(~chi_30 -> ~chi_10 cb      c)
     3.41048892E-05    3     1000022        -3         3   # BR(~chi_30 -> ~chi_10 sb      s)
     1.40172783E-04    3     1000022        -5         5   # BR(~chi_30 -> ~chi_10 bb      b)
     6.25651983E-06    3     1000022       -11        11   # BR(~chi_30 -> ~chi_10 e+      e-)
     6.25651983E-06    3     1000022       -13        13   # BR(~chi_30 -> ~chi_10 mu+     mu-)
     2.23742122E-05    3     1000022       -15        15   # BR(~chi_30 -> ~chi_10 tau+    tau-)
     1.63649171E-05    3     1000022       -12        12   # BR(~chi_30 -> ~chi_10 nu_eb   nu_e)
     1.63649171E-05    3     1000022       -14        14   # BR(~chi_30 -> ~chi_10 nu_mub  nu_mu)
     1.63649171E-05    3     1000022       -16        16   # BR(~chi_30 -> ~chi_10 nu_taub nu_tau)
     8.95498008E-03    3     1000023        -2         2   # BR(~chi_30 -> ~chi_20 ub      u)
     1.15964581E-02    3     1000023        -1         1   # BR(~chi_30 -> ~chi_20 db      d)
     8.95498008E-03    3     1000023        -4         4   # BR(~chi_30 -> ~chi_20 cb      c)
     1.15964581E-02    3     1000023        -3         3   # BR(~chi_30 -> ~chi_20 sb      s)
     9.21413178E-03    3     1000023        -5         5   # BR(~chi_30 -> ~chi_20 bb      b)
     2.64895731E-03    3     1000023       -11        11   # BR(~chi_30 -> ~chi_20 e+      e-)
     2.64895731E-03    3     1000023       -13        13   # BR(~chi_30 -> ~chi_20 mu+     mu-)
     2.59383184E-03    3     1000023       -15        15   # BR(~chi_30 -> ~chi_20 tau+    tau-)
     5.29042818E-03    3     1000023       -12        12   # BR(~chi_30 -> ~chi_20 nu_eb   nu_e)
     5.29042818E-03    3     1000023       -14        14   # BR(~chi_30 -> ~chi_20 nu_mub  nu_mu)
     5.29042818E-03    3     1000023       -16        16   # BR(~chi_30 -> ~chi_20 nu_taub nu_tau)
     1.00343048E-01    3     1000024        -2         1   # BR(~chi_30 -> ~chi_1+ ub      d)
     1.00343048E-01    3    -1000024        -1         2   # BR(~chi_30 -> ~chi_1- db      u)
     1.00343048E-01    3     1000024        -4         3   # BR(~chi_30 -> ~chi_1+ cb      s)
     1.00343048E-01    3    -1000024        -3         4   # BR(~chi_30 -> ~chi_1- sb      c)
     3.34476279E-02    3     1000024       -12        11   # BR(~chi_30 -> ~chi_1+ nu_eb   e-)
     3.34476279E-02    3    -1000024        12       -11   # BR(~chi_30 -> ~chi_1- nu_e    e+)
     3.34476279E-02    3     1000024       -14        13   # BR(~chi_30 -> ~chi_1+ nu_mub  mu-)
     3.34476279E-02    3    -1000024        14       -13   # BR(~chi_30 -> ~chi_1- nu_mu   mu+)
     3.30822005E-02    3     1000024       -16        15   # BR(~chi_30 -> ~chi_1+ nu_taub tau-)
     3.30822005E-02    3    -1000024        16       -15   # BR(~chi_30 -> ~chi_1- nu_tau  tau+)
     2.36393145E-08    3     1000021        -2         2   # BR(~chi_30 -> ~g      ub      u)
     5.26395560E-09    3     1000021        -1         1   # BR(~chi_30 -> ~g      db      d)
     2.36393145E-08    3     1000021        -4         4   # BR(~chi_30 -> ~g      cb      c)
     5.26395560E-09    3     1000021        -3         3   # BR(~chi_30 -> ~g      sb      s)
     3.21574565E-09    3     1000021        -5         5   # BR(~chi_30 -> ~g      bb      b)
#
#         PDG            Width
DECAY   1000035     3.05586582E+01   # neutralino4 decays
#          BR         NDA      ID1       ID2
     9.69507019E-05    2     1000022        23   # BR(~chi_40 -> ~chi_10   Z )
     2.52668870E-01    2     1000023        23   # BR(~chi_40 -> ~chi_20   Z )
     1.26668603E-04    2     1000025        23   # BR(~chi_40 -> ~chi_30   Z )
     2.48075496E-01    2     1000024       -24   # BR(~chi_40 -> ~chi_1+   W-)
     2.48075496E-01    2    -1000024        24   # BR(~chi_40 -> ~chi_1-   W+)
     9.83474495E-02    2     1000022        25   # BR(~chi_40 -> ~chi_10   h )
     2.11825600E-04    2     1000023        25   # BR(~chi_40 -> ~chi_20   h )
     1.52386095E-01    2     1000025        25   # BR(~chi_40 -> ~chi_30   h )
     2.62591896E-06    2     1000039        22   # BR(~chi_40 -> ~G        gam)
     8.51381768E-06    2     1000039        23   # BR(~chi_40 -> ~G        Z)
     2.57774569E-09    2     1000039        25   # BR(~chi_40 -> ~G        h)
     5.96797809E-09    2     1000039        35   # BR(~chi_40 -> ~G        H)
     1.77435486E-10    2     1000039        36   # BR(~chi_40 -> ~G        A)
#
#         PDG            Width
DECAY        25     4.22359099E-03   # h decays
#          BR         NDA      ID1       ID2
     6.02411375E-01    2           5        -5   # BR(h -> b       bb     )
     6.21602697E-02    2         -15        15   # BR(h -> tau+    tau-   )
     2.20020255E-04    2         -13        13   # BR(h -> mu+     mu-    )
     4.65520522E-04    2           3        -3   # BR(h -> s       sb     )
     2.00841328E-02    2           4        -4   # BR(h -> c       cb     )
     6.63290055E-02    2          21        21   # BR(h -> g       g      )
     2.30324170E-03    2          22        22   # BR(h -> gam     gam    )
     1.62469413E-03    2          22        23   # BR(h -> Z       gam    )
     2.16355575E-01    2          24       -24   # BR(h -> W+      W-     )
     2.80461650E-02    2          23        23   # BR(h -> Z       Z      )
#
#         PDG            Width
DECAY        35     3.78083504E+01   # H decays
#          BR         NDA      ID1       ID2
     1.46371108E-03    2           5        -5   # BR(H -> b       bb     )
     2.46438637E-04    2         -15        15   # BR(H -> tau+    tau-   )
     8.71252332E-07    2         -13        13   # BR(H -> mu+     mu-    )
     1.11552342E-06    2           3        -3   # BR(H -> s       sb     )
     1.00669551E-05    2           4        -4   # BR(H -> c       cb     )
     9.96077965E-01    2           6        -6   # BR(H -> t       tb     )
     7.97738954E-04    2          21        21   # BR(H -> g       g      )
     2.71879915E-06    2          22        22   # BR(H -> gam     gam    )
     1.16045724E-06    2          23        22   # BR(H -> Z       gam    )
     3.32339625E-04    2          24       -24   # BR(H -> W+      W-     )
     1.65716618E-04    2          23        23   # BR(H -> Z       Z      )
     9.00156928E-04    2          25        25   # BR(H -> h       h      )
     7.16829301E-24    2          36        36   # BR(H -> A       A      )
     2.87048981E-11    2          23        36   # BR(H -> Z       A      )
     6.30793975E-12    2          24       -37   # BR(H -> W+      H-     )
     6.30793975E-12    2         -24        37   # BR(H -> W-      H+     )
#
#         PDG            Width
DECAY        36     3.82378626E+01   # A decays
#          BR         NDA      ID1       ID2
     1.46661639E-03    2           5        -5   # BR(A -> b       bb     )
     2.43900045E-04    2         -15        15   # BR(A -> tau+    tau-   )
     8.62274765E-07    2         -13        13   # BR(A -> mu+     mu-    )
     1.13678479E-06    2           3        -3   # BR(A -> s       sb     )
     9.96185976E-06    2           4        -4   # BR(A -> c       cb     )
     9.97005493E-01    2           6        -6   # BR(A -> t       tb     )
     9.43684640E-04    2          21        21   # BR(A -> g       g      )
     3.12504349E-06    2          22        22   # BR(A -> gam     gam    )
     1.35304416E-06    2          23        22   # BR(A -> Z       gam    )
     3.23866721E-04    2          23        25   # BR(A -> Z       h      )
#
#         PDG            Width
DECAY        37     3.74470242E+01   # H+ decays
#          BR         NDA      ID1       ID2
     2.34794056E-06    2           4        -5   # BR(H+ -> c       bb     )
     2.49240496E-04    2         -15        16   # BR(H+ -> tau+    nu_tau )
     8.81155188E-07    2         -13        14   # BR(H+ -> mu+     nu_mu  )
     1.49269325E-08    2           2        -5   # BR(H+ -> u       bb     )
     5.45700192E-08    2           2        -3   # BR(H+ -> u       sb     )
     1.08732832E-05    2           4        -3   # BR(H+ -> c       sb     )
     9.99404656E-01    2           6        -5   # BR(H+ -> t       bb     )
     3.31931753E-04    2          24        25   # BR(H+ -> W+      h      )
     2.87064304E-13    2          24        36   # BR(H+ -> W+      A      )
