#
#                              ======================
#                              | THE SUSYHIT OUTPUT |
#                              ======================
#
#
#              ------------------------------------------------------
#              |     This is the output of the SUSY-HIT package     |
#              |  created by A.Djouadi, M.Muehlleitner and M.Spira. |
#              |  In case of problems with SUSY-HIT email to        |
#              |           margarete.muehlleitner@cern.ch           |
#              |           michael.spira@psi.ch                     |
#              |           abdelhak.djouadi@cern.ch                 |
#              ------------------------------------------------------
#
#              ------------------------------------------------------
#              |  SUSY Les Houches Accord - MSSM Spectrum + Decays  |
#              |              based on the decay programs           |
#              |                                                    |
#              |                     SDECAY 1.3b                    |
#              |                                                    |
#              |  Authors: M.Muhlleitner, A.Djouadi and Y.Mambrini  |
#              |  Ref.:    Comput.Phys.Commun.168(2005)46           |
#              |           [hep-ph/0311167]                         |
#              |                                                    |
#              |                     HDECAY 3.4                     |
#              |                                                    |
#              |  By: A.Djouadi,J.Kalinowski,M.Muhlleitner,M.Spira  |
#              |  Ref.:    Comput.Phys.Commun.108(1998)56           |
#              |           [hep-ph/9704448]                         |
#              |                                                    |
#              |                                                    |
#              |  If not stated otherwise all DRbar couplings and   |
#              |  soft SUSY breaking masses are given at the scale  |
#              |  Q=  0.50007115E+04
#              |                                                    |
#              ------------------------------------------------------
#
#
BLOCK DCINFO  # Decay Program information
     1   SDECAY/HDECAY # decay calculator
     2   1.3b  /3.4    # version number
#
BLOCK SPINFO  # Spectrum calculator information
     1    SOFTSUSY    # spectrum calculator                
     2    3.4.0       # version number                     
#
BLOCK MODSEL  # Model selection
     1     0   #  nonUniversal                                     
#
BLOCK SMINPUTS  # Standard Model inputs
         1     1.25778332E+02   # alpha_em^-1(M_Z)^MSbar
         2     1.16570000E-05   # G_F [GeV^-2]
         3     1.17200002E-01   # alpha_S(M_Z)^MSbar
         4     9.11876000E+01   # M_Z pole mass
         5     4.25000000E+00   # mb(mb)^MSbar
         6     1.72500000E+02   # mt pole mass
         7     1.77682000E+00   # mtau pole mass
#
BLOCK MINPAR  # Input parameters - minimal models
         3     1.00000000E+01   # tanb                
#
BLOCK EXTPAR  # Input parameters - non-minimal models
         0    -1.00000000E+00   # Set                 
         1     6.00000000E+01   # M_1(MX)             
         2     3.00000000E+03   # M_2(MX)             
         3     1.30154500E+03   # M_3(MX)             
        11     5.00000000E+03   # At(MX)              
        12     5.00000000E+03   # Ab(MX)              
        13     0.00000000E+00   # Atau(MX)            
        23    -1.54469300E+03   # mu(MX)              
        26     3.00000000E+03   # mA(pole)            
        31     5.00000000E+03   # meL(MX)             
        32     5.00000000E+03   # mmuL(MX)            
        33     5.00000000E+03   # mtauL(MX)           
        34     5.00000000E+03   # meR(MX)             
        35     5.00000000E+03   # mmuR(MX)            
        36     5.00000000E+03   # mtauR(MX)           
        41     5.00000000E+03   # mqL1(MX)            
        42     5.00000000E+03   # mqL2(MX)            
        43     5.00000000E+03   # mqL3(MX)            
        44     5.00000000E+03   # muR(MX)             
        45     5.00000000E+03   # mcR(MX)             
        46     5.00000000E+03   # mtR(MX)             
        47     5.00000000E+03   # mdR(MX)             
        48     5.00000000E+03   # msR(MX)             
        49     5.00000000E+03   # mbR(MX)             
#
BLOCK MASS  # Mass Spectrum
# PDG code           mass       particle
        24     8.00959178E+01   # W+
        25     1.24662578E+02   # h
        35     3.00008253E+03   # H
        36     2.99999996E+03   # A
        37     3.00087420E+03   # H+
         5     4.87878001E+00   # b-quark pole mass calculated from mb(mb)_Msbar
   1000001     5.06749502E+03   # ~d_L
   2000001     5.04970422E+03   # ~d_R
   1000002     5.06701976E+03   # ~u_L
   2000002     5.04943033E+03   # ~u_R
   1000003     5.06749502E+03   # ~s_L
   2000003     5.04970422E+03   # ~s_R
   1000004     5.06701976E+03   # ~c_L
   2000004     5.04943033E+03   # ~c_R
   1000005     5.01376416E+03   # ~b_1
   2000005     5.04866111E+03   # ~b_2
   1000006     4.90487337E+03   # ~t_1
   2000006     5.06053876E+03   # ~t_2
   1000011     5.01904691E+03   # ~e_L
   2000011     5.00590864E+03   # ~e_R
   1000012     5.01809879E+03   # ~nu_eL
   1000013     5.01904691E+03   # ~mu_L
   2000013     5.00590864E+03   # ~mu_R
   1000014     5.01809879E+03   # ~nu_muL
   1000015     5.00431337E+03   # ~tau_1
   2000015     5.01906359E+03   # ~tau_2
   1000016     5.01756163E+03   # ~nu_tauL
   1000021     1.60000000E+03   # ~g
   1000022     6.03024603E+01   # ~chi_10
   1000023     1.59942828E+03   # ~chi_20
   1000025    -1.60195046E+03   # ~chi_30
   1000035     3.07434522E+03   # ~chi_40
   1000024     1.60000046E+03   # ~chi_1+
   1000037     3.07451277E+03   # ~chi_2+
#
BLOCK NMIX  # Neutralino Mixing Matrix
  1  1     9.99609597E-01   # N_11
  1  2     1.33201643E-04   # N_12
  1  3    -2.78771219E-02   # N_13
  1  4     1.87114743E-03   # N_14
  2  1     1.83871868E-02   # N_21
  2  2     3.29897979E-02   # N_22
  2  3     7.06888740E-01   # N_23
  2  4     7.06315719E-01   # N_24
  3  1    -2.10320248E-02   # N_31
  3  2     1.29786154E-02   # N_32
  3  3    -7.06633452E-01   # N_33
  3  4     7.07148057E-01   # N_34
  4  1    -4.67066250E-04   # N_41
  4  2     9.99371408E-01   # N_42
  4  3    -1.41541768E-02   # N_43
  4  4    -3.24996938E-02   # N_44
#
BLOCK UMIX  # Chargino Mixing Matrix U
  1  1     2.00209301E-02   # U_11
  1  2     9.99799561E-01   # U_12
  2  1    -9.99799561E-01   # U_21
  2  2     2.00209301E-02   # U_22
#
BLOCK VMIX  # Chargino Mixing Matrix V
  1  1     4.59734037E-02   # V_11
  1  2    -9.98942664E-01   # V_12
  2  1    -9.98942664E-01   # V_21
  2  2    -4.59734037E-02   # V_22
#
BLOCK STOPMIX  # Stop Mixing Matrix
  1  1    -5.13339934E-01   # cos(theta_t)
  1  2     8.58185360E-01   # sin(theta_t)
  2  1    -8.58185360E-01   # -sin(theta_t)
  2  2    -5.13339934E-01   # cos(theta_t)
#
BLOCK SBOTMIX  # Sbottom Mixing Matrix
  1  1     9.93833224E-01   # cos(theta_b)
  1  2    -1.10885179E-01   # sin(theta_b)
  2  1     1.10885179E-01   # -sin(theta_b)
  2  2     9.93833224E-01   # cos(theta_b)
#
BLOCK STAUMIX  # Stau Mixing Matrix
  1  1    -1.78620565E-01   # cos(theta_tau)
  1  2     9.83918032E-01   # sin(theta_tau)
  2  1    -9.83918032E-01   # -sin(theta_tau)
  2  2    -1.78620565E-01   # cos(theta_tau)
#
BLOCK ALPHA  # Higgs mixing
          -1.05449520E-01   # Mixing angle in the neutral Higgs boson sector
#
BLOCK HMIX Q=  5.00071149E+03  # DRbar Higgs Parameters
         1    -1.57279005E+03   # mu(Q)MSSM           
         2     9.47157297E+00   # tan                 
         3     2.41992768E+02   # higgs               
         4     8.38022857E+06   # mA^2(Q)MSSM         
#
BLOCK GAUGE Q=  5.00071149E+03  # The gauge couplings
     1     3.70695005E-01   # gprime(Q) DRbar
     2     6.32040434E-01   # g(Q) DRbar
     3     1.00176051E+00   # g3(Q) DRbar
#
BLOCK AU Q=  5.00071149E+03  # The trilinear couplings
  1  1     5.00000001E+03   # A_u(Q) DRbar
  2  2     5.00000001E+03   # A_c(Q) DRbar
  3  3     5.00000001E+03   # A_t(Q) DRbar
#
BLOCK AD Q=  5.00071149E+03  # The trilinear couplings
  1  1     5.00000000E+03   # A_d(Q) DRbar
  2  2     5.00000000E+03   # A_s(Q) DRbar
  3  3     5.00000001E+03   # A_b(Q) DRbar
#
BLOCK AE Q=  5.00071149E+03  # The trilinear couplings
  1  1     0.00000000E+00   # A_e(Q) DRbar
  2  2     1.14390138E-07   # A_mu(Q) DRbar
  3  3     1.13791263E-07   # A_tau(Q) DRbar
#
BLOCK Yu Q=  5.00071149E+03  # The Yukawa couplings
  1  1     0.00000000E+00   # y_u(Q) DRbar
  2  2     0.00000000E+00   # y_c(Q) DRbar
  3  3     8.17918405E-01   # y_t(Q) DRbar
#
BLOCK Yd Q=  5.00071149E+03  # The Yukawa couplings
  1  1     0.00000000E+00   # y_d(Q) DRbar
  2  2     0.00000000E+00   # y_s(Q) DRbar
  3  3     1.30885877E-01   # y_b(Q) DRbar
#
BLOCK Ye Q=  5.00071149E+03  # The Yukawa couplings
  1  1     0.00000000E+00   # y_e(Q) DRbar
  2  2     0.00000000E+00   # y_mu(Q) DRbar
  3  3     9.65975294E-02   # y_tau(Q) DRbar
#
BLOCK MSOFT Q=  5.00071149E+03  # The soft SUSY breaking masses at the scale Q
         1     6.00000000E+01   # M_1(Q)              
         2     3.00000000E+03   # M_2(Q)              
         3     1.30154500E+03   # M_3(Q)              
        21     6.19074398E+06   # mH1^2(Q)            
        22    -1.93021915E+06   # mH2^2(Q)            
        31     5.00000000E+03   # meL(Q)              
        32     5.00000000E+03   # mmuL(Q)             
        33     5.00000000E+03   # mtauL(Q)            
        34     5.00000000E+03   # meR(Q)              
        35     5.00000000E+03   # mmuR(Q)             
        36     5.00000000E+03   # mtauR(Q)            
        41     5.00000000E+03   # mqL1(Q)             
        42     5.00000000E+03   # mqL2(Q)             
        43     5.00000000E+03   # mqL3(Q)             
        44     5.00000000E+03   # muR(Q)              
        45     5.00000000E+03   # mcR(Q)              
        46     5.00000000E+03   # mtR(Q)              
        47     5.00000000E+03   # mdR(Q)              
        48     5.00000000E+03   # msR(Q)              
        49     5.00000000E+03   # mbR(Q)              
#
#
#
#                             =================
#                             |The decay table|
#                             =================
#
# - The QCD corrections to the decays gluino -> squark  + quark
#                                     squark -> gaugino + quark_prime
#                                     squark -> squark_prime + Higgs
#                                     squark -> gluino  + quark
#   are included.
#
# - The multi-body decays for the inos, stops and sbottoms are included.
#
# - The loop induced decays for the gluino, neutralinos and stops
#   are included.
#
# - The SUSY decays of the top quark are included.
#
#
#         PDG            Width
DECAY         6     1.39985627E+00   # top decays
#          BR         NDA      ID1       ID2
     1.00000000E+00    2           5        24   # BR(t ->  b    W+)
#
#         PDG            Width
DECAY   1000021     9.59179009E-05   # gluino decays
#          BR         NDA      ID1       ID2
     1.06463207E-05    2     1000022        21   # BR(~g -> ~chi_10 g)
     3.18803619E-11    2     1000023        21   # BR(~g -> ~chi_20 g)
#           BR         NDA      ID1       ID2       ID3
     7.75233613E-02    3     1000022         1        -1   # BR(~g -> ~chi_10 d  db)
     4.40938351E-20    3     1000023         1        -1   # BR(~g -> ~chi_20 d  db)
     2.64276945E-01    3     1000022         2        -2   # BR(~g -> ~chi_10 u  ub)
     7.45204167E-20    3     1000023         2        -2   # BR(~g -> ~chi_20 u  ub)
     7.75233613E-02    3     1000022         3        -3   # BR(~g -> ~chi_10 s  sb)
     4.40938351E-20    3     1000023         3        -3   # BR(~g -> ~chi_20 s  sb)
     2.64276945E-01    3     1000022         4        -4   # BR(~g -> ~chi_10 c  cb)
     7.45204167E-20    3     1000023         4        -4   # BR(~g -> ~chi_20 c  cb)
     7.84490829E-02    3     1000022         5        -5   # BR(~g -> ~chi_10 b  bb)
     2.37939659E-01    3     1000022         6        -6   # BR(~g -> ~chi_10 t  tb)
#
#         PDG            Width
DECAY   1000006     3.60796425E+02   # stop1 decays
#          BR         NDA      ID1       ID2
     2.43176560E-02    2     1000022         6   # BR(~t_1 -> ~chi_10 t )
     7.29061209E-02    2     1000023         6   # BR(~t_1 -> ~chi_20 t )
     7.00154890E-02    2     1000025         6   # BR(~t_1 -> ~chi_30 t )
     6.09531750E-03    2     1000035         6   # BR(~t_1 -> ~chi_40 t )
     1.04469668E-01    2     1000024         5   # BR(~t_1 -> ~chi_1+ b )
     1.21175773E-02    2     1000037         5   # BR(~t_1 -> ~chi_2+ b )
     7.10078172E-01    2     1000021         6   # BR(~t_1 -> ~g      t )
#
#         PDG            Width
DECAY   2000006     3.70229782E+02   # stop2 decays
#          BR         NDA      ID1       ID2
     9.68949695E-03    2     1000022         6   # BR(~t_2 -> ~chi_10 t )
     7.37958643E-02    2     1000023         6   # BR(~t_2 -> ~chi_20 t )
     7.68509495E-02    2     1000025         6   # BR(~t_2 -> ~chi_30 t )
     1.46158253E-02    2     1000035         6   # BR(~t_2 -> ~chi_40 t )
     4.57661973E-02    2     1000024         5   # BR(~t_2 -> ~chi_1+ b )
     2.90044785E-02    2     1000037         5   # BR(~t_2 -> ~chi_2+ b )
     7.46721413E-01    2     1000021         6   # BR(~t_2 -> ~g      t )
     7.78315659E-04    2     1000006        25   # BR(~t_2 -> ~t_1    h )
     2.77745994E-03    2     1000006        23   # BR(~t_2 -> ~t_1    Z )
#
#         PDG            Width
DECAY   1000005     3.47710657E+02   # sbottom1 decays
#          BR         NDA      ID1       ID2
     2.25797548E-03    2     1000022         5   # BR(~b_1 -> ~chi_10 b )
     2.08222110E-03    2     1000023         5   # BR(~b_1 -> ~chi_20 b )
     1.95587890E-03    2     1000025         5   # BR(~b_1 -> ~chi_30 b )
     2.14234521E-02    2     1000035         5   # BR(~b_1 -> ~chi_40 b )
     1.53665201E-01    2    -1000024         6   # BR(~b_1 -> ~chi_1- t )
     4.31498875E-02    2    -1000037         6   # BR(~b_1 -> ~chi_2- t )
     7.73864593E-01    2     1000021         5   # BR(~b_1 -> ~g      b )
     1.60079029E-03    2     1000006       -24   # BR(~b_1 -> ~t_1    W-)
#
#         PDG            Width
DECAY   2000005     2.78264285E+02   # sbottom2 decays
#          BR         NDA      ID1       ID2
     1.05173825E-02    2     1000022         5   # BR(~b_2 -> ~chi_10 b )
     2.46753859E-03    2     1000023         5   # BR(~b_2 -> ~chi_20 b )
     2.58814216E-03    2     1000025         5   # BR(~b_2 -> ~chi_30 b )
     3.56473215E-04    2     1000035         5   # BR(~b_2 -> ~chi_40 b )
     7.35435072E-03    2    -1000024         6   # BR(~b_2 -> ~chi_1- t )
     7.17593955E-04    2    -1000037         6   # BR(~b_2 -> ~chi_2- t )
     9.75893987E-01    2     1000021         5   # BR(~b_2 -> ~g      b )
     1.04532279E-04    2     1000006       -24   # BR(~b_2 -> ~t_1    W-)
#
#         PDG            Width
DECAY   1000002     2.97144914E+02   # sup_L decays
#          BR         NDA      ID1       ID2
     2.51341959E-03    2     1000022         2   # BR(~u_L -> ~chi_10 u)
     7.14055503E-05    2     1000023         2   # BR(~u_L -> ~chi_20 u)
     4.19150043E-06    2     1000025         2   # BR(~u_L -> ~chi_30 u)
     2.63011553E-02    2     1000035         2   # BR(~u_L -> ~chi_40 u)
     2.25481913E-04    2     1000024         1   # BR(~u_L -> ~chi_1+ d)
     5.25601568E-02    2     1000037         1   # BR(~u_L -> ~chi_2+ d)
     9.18324189E-01    2     1000021         2   # BR(~u_L -> ~g      u)
#
#         PDG            Width
DECAY   2000002     2.83407021E+02   # sup_R decays
#          BR         NDA      ID1       ID2
     4.19593944E-02    2     1000022         2   # BR(~u_R -> ~chi_10 u)
     1.15069733E-05    2     1000023         2   # BR(~u_R -> ~chi_20 u)
     1.50448252E-05    2     1000025         2   # BR(~u_R -> ~chi_30 u)
     3.64175292E-09    2     1000035         2   # BR(~u_R -> ~chi_40 u)
     9.58014050E-01    2     1000021         2   # BR(~u_R -> ~g      u)
#
#         PDG            Width
DECAY   1000001     2.97158414E+02   # sdown_L decays
#          BR         NDA      ID1       ID2
     2.50669934E-03    2     1000022         1   # BR(~d_L -> ~chi_10 d)
     4.61025878E-05    2     1000023         1   # BR(~d_L -> ~chi_20 d)
     1.55732132E-05    2     1000025         1   # BR(~d_L -> ~chi_30 d)
     2.63177551E-02    2     1000035         1   # BR(~d_L -> ~chi_40 d)
     4.27667305E-05    2    -1000024         2   # BR(~d_L -> ~chi_1- u)
     5.26643487E-02    2    -1000037         2   # BR(~d_L -> ~chi_2- u)
     9.18406754E-01    2     1000021         1   # BR(~d_L -> ~g      d)
#
#         PDG            Width
DECAY   2000001     2.74504150E+02   # sdown_R decays
#          BR         NDA      ID1       ID2
     1.08306531E-02    2     1000022         1   # BR(~d_R -> ~chi_10 d)
     2.97027688E-06    2     1000023         1   # BR(~d_R -> ~chi_20 d)
     3.88349733E-06    2     1000025         1   # BR(~d_R -> ~chi_30 d)
     9.40136389E-10    2     1000035         1   # BR(~d_R -> ~chi_40 d)
     9.89162492E-01    2     1000021         1   # BR(~d_R -> ~g      d)
#
#         PDG            Width
DECAY   1000004     2.97144914E+02   # scharm_L decays
#          BR         NDA      ID1       ID2
     2.51341959E-03    2     1000022         4   # BR(~c_L -> ~chi_10 c)
     7.14055503E-05    2     1000023         4   # BR(~c_L -> ~chi_20 c)
     4.19150043E-06    2     1000025         4   # BR(~c_L -> ~chi_30 c)
     2.63011553E-02    2     1000035         4   # BR(~c_L -> ~chi_40 c)
     2.25481913E-04    2     1000024         3   # BR(~c_L -> ~chi_1+ s)
     5.25601568E-02    2     1000037         3   # BR(~c_L -> ~chi_2+ s)
     9.18324189E-01    2     1000021         4   # BR(~c_L -> ~g      c)
#
#         PDG            Width
DECAY   2000004     2.83407021E+02   # scharm_R decays
#          BR         NDA      ID1       ID2
     4.19593944E-02    2     1000022         4   # BR(~c_R -> ~chi_10 c)
     1.15069733E-05    2     1000023         4   # BR(~c_R -> ~chi_20 c)
     1.50448252E-05    2     1000025         4   # BR(~c_R -> ~chi_30 c)
     3.64175292E-09    2     1000035         4   # BR(~c_R -> ~chi_40 c)
     9.58014050E-01    2     1000021         4   # BR(~c_R -> ~g      c)
#
#         PDG            Width
DECAY   1000003     2.97158414E+02   # sstrange_L decays
#          BR         NDA      ID1       ID2
     2.50669934E-03    2     1000022         3   # BR(~s_L -> ~chi_10 s)
     4.61025878E-05    2     1000023         3   # BR(~s_L -> ~chi_20 s)
     1.55732132E-05    2     1000025         3   # BR(~s_L -> ~chi_30 s)
     2.63177551E-02    2     1000035         3   # BR(~s_L -> ~chi_40 s)
     4.27667305E-05    2    -1000024         4   # BR(~s_L -> ~chi_1- c)
     5.26643487E-02    2    -1000037         4   # BR(~s_L -> ~chi_2- c)
     9.18406754E-01    2     1000021         3   # BR(~s_L -> ~g      s)
#
#         PDG            Width
DECAY   2000003     2.74504150E+02   # sstrange_R decays
#          BR         NDA      ID1       ID2
     1.08306531E-02    2     1000022         3   # BR(~s_R -> ~chi_10 s)
     2.97027688E-06    2     1000023         3   # BR(~s_R -> ~chi_20 s)
     3.88349733E-06    2     1000025         3   # BR(~s_R -> ~chi_30 s)
     9.40136389E-10    2     1000035         3   # BR(~s_R -> ~chi_40 s)
     9.89162492E-01    2     1000021         3   # BR(~s_R -> ~g      s)
#
#         PDG            Width
DECAY   1000011     3.02345612E+01   # selectron_L decays
#          BR         NDA      ID1       ID2
     2.26769146E-01    2     1000022        11   # BR(~e_L -> ~chi_10 e-)
     1.02029492E-03    2     1000023        11   # BR(~e_L -> ~chi_20 e-)
     2.20144258E-07    2     1000025        11   # BR(~e_L -> ~chi_30 e-)
     2.57042720E-01    2     1000035        11   # BR(~e_L -> ~chi_40 e-)
     4.26797547E-04    2    -1000024        12   # BR(~e_L -> ~chi_1- nu_e)
     5.14740821E-01    2    -1000037        12   # BR(~e_L -> ~chi_2- nu_e)
#
#         PDG            Width
DECAY   2000011     2.73580231E+01   # selectron_R decays
#          BR         NDA      ID1       ID2
     9.99370667E-01    2     1000022        11   # BR(~e_R -> ~chi_10 e-)
     2.72704587E-04    2     1000023        11   # BR(~e_R -> ~chi_20 e-)
     3.56543308E-04    2     1000025        11   # BR(~e_R -> ~chi_30 e-)
     8.46613262E-08    2     1000035        11   # BR(~e_R -> ~chi_40 e-)
#
#         PDG            Width
DECAY   1000013     3.02345612E+01   # smuon_L decays
#          BR         NDA      ID1       ID2
     2.26769146E-01    2     1000022        13   # BR(~mu_L -> ~chi_10 mu-)
     1.02029492E-03    2     1000023        13   # BR(~mu_L -> ~chi_20 mu-)
     2.20144258E-07    2     1000025        13   # BR(~mu_L -> ~chi_30 mu-)
     2.57042720E-01    2     1000035        13   # BR(~mu_L -> ~chi_40 mu-)
     4.26797547E-04    2    -1000024        14   # BR(~mu_L -> ~chi_1- nu_mu)
     5.14740821E-01    2    -1000037        14   # BR(~mu_L -> ~chi_2- nu_mu)
#
#         PDG            Width
DECAY   2000013     2.73580231E+01   # smuon_R decays
#          BR         NDA      ID1       ID2
     9.99370667E-01    2     1000022        13   # BR(~mu_R -> ~chi_10 mu-)
     2.72704587E-04    2     1000023        13   # BR(~mu_R -> ~chi_20 mu-)
     3.56543308E-04    2     1000025        13   # BR(~mu_R -> ~chi_30 mu-)
     8.46613262E-08    2     1000035        13   # BR(~mu_R -> ~chi_40 mu-)
#
#         PDG            Width
DECAY   1000015     2.89382597E+01   # stau_1 decays
#          BR         NDA      ID1       ID2
     9.22775341E-01    2     1000022        15   # BR(~tau_1 -> ~chi_10  tau-)
     1.38755419E-02    2     1000023        15   # BR(~tau_1 -> ~chi_20  tau-)
     1.24865041E-02    2     1000025        15   # BR(~tau_1 -> ~chi_30  tau-)
     8.19908817E-03    2     1000035        15   # BR(~tau_1 -> ~chi_40  tau-)
     2.62441665E-02    2    -1000024        16   # BR(~tau_1 -> ~chi_1-  nu_tau)
     1.64193587E-02    2    -1000037        16   # BR(~tau_1 -> ~chi_2-  nu_tau)
#
#         PDG            Width
DECAY   2000015     3.08896928E+01   # stau_2 decays
#          BR         NDA      ID1       ID2
     2.42416061E-01    2     1000022        15   # BR(~tau_2 -> ~chi_10  tau-)
     1.25199943E-02    2     1000023        15   # BR(~tau_2 -> ~chi_20  tau-)
     1.28681029E-02    2     1000025        15   # BR(~tau_2 -> ~chi_30  tau-)
     2.43838902E-01    2     1000035        15   # BR(~tau_2 -> ~chi_40  tau-)
     6.01166368E-05    2    -1000024        16   # BR(~tau_2 -> ~chi_1-  nu_tau)
     4.88296824E-01    2    -1000037        16   # BR(~tau_2 -> ~chi_2-  nu_tau)
#
#         PDG            Width
DECAY   1000012     3.02364182E+01   # snu_eL decays
#          BR         NDA      ID1       ID2
     2.26506416E-01    2     1000022        12   # BR(~nu_eL -> ~chi_10 nu_e)
     2.62466300E-04    2     1000023        12   # BR(~nu_eL -> ~chi_20 nu_e)
     3.40847095E-04    2     1000025        12   # BR(~nu_eL -> ~chi_30 nu_e)
     2.57143541E-01    2     1000035        12   # BR(~nu_eL -> ~chi_40 nu_e)
     2.24968068E-03    2     1000024        11   # BR(~nu_eL -> ~chi_1+ e-)
     5.13497049E-01    2     1000037        11   # BR(~nu_eL -> ~chi_2+ e-)
#
#         PDG            Width
DECAY   1000014     3.02364182E+01   # snu_muL decays
#          BR         NDA      ID1       ID2
     2.26506416E-01    2     1000022        14   # BR(~nu_muL -> ~chi_10 nu_mu)
     2.62466300E-04    2     1000023        14   # BR(~nu_muL -> ~chi_20 nu_mu)
     3.40847095E-04    2     1000025        14   # BR(~nu_muL -> ~chi_30 nu_mu)
     2.57143541E-01    2     1000035        14   # BR(~nu_muL -> ~chi_40 nu_mu)
     2.24968068E-03    2     1000024        13   # BR(~nu_muL -> ~chi_1+ mu-)
     5.13497049E-01    2     1000037        13   # BR(~nu_muL -> ~chi_2+ mu-)
#
#         PDG            Width
DECAY   1000016     3.09787079E+01   # snu_tauL decays
#          BR         NDA      ID1       ID2
     2.21055352E-01    2     1000022        16   # BR(~nu_tauL -> ~chi_10 nu_tau)
     2.56137444E-04    2     1000023        16   # BR(~nu_tauL -> ~chi_20 nu_tau)
     3.32628184E-04    2     1000025        16   # BR(~nu_tauL -> ~chi_30 nu_tau)
     2.50890613E-01    2     1000035        16   # BR(~nu_tauL -> ~chi_40 nu_tau)
     2.64526419E-02    2     1000024        15   # BR(~nu_tauL -> ~chi_1+ tau-)
     5.01012627E-01    2     1000037        15   # BR(~nu_tauL -> ~chi_2+ tau-)
#
#         PDG            Width
DECAY   1000024     9.85471155E-01   # chargino1+ decays
#          BR         NDA      ID1       ID2
     1.00000000E+00    2     1000022        24   # BR(~chi_1+ -> ~chi_10  W+)
#
#         PDG            Width
DECAY   1000037     1.79084470E+01   # chargino2+ decays
#          BR         NDA      ID1       ID2
     2.52584793E-01    2     1000024        23   # BR(~chi_2+ -> ~chi_1+  Z )
     2.84953800E-04    2     1000022        24   # BR(~chi_2+ -> ~chi_10  W+)
     2.44125700E-01    2     1000023        24   # BR(~chi_2+ -> ~chi_20  W+)
     2.43562227E-01    2     1000025        24   # BR(~chi_2+ -> ~chi_30  W+)
     2.59442050E-01    2     1000024        25   # BR(~chi_2+ -> ~chi_1+  h )
     2.76961265E-07    2     1000022        37   # BR(~chi_2+ -> ~chi_10  H+)
#
#         PDG            Width
DECAY   1000022     0.00000000E+00   # neutralino1 decays
#
#         PDG            Width
DECAY   1000023     1.03620733E+00   # neutralino2 decays
#          BR         NDA      ID1       ID2
     5.58681965E-01    2     1000022        23   # BR(~chi_20 -> ~chi_10   Z )
     4.41318035E-01    2     1000022        25   # BR(~chi_20 -> ~chi_10   h )
#
#         PDG            Width
DECAY   1000025     1.04701220E+00   # neutralino3 decays
#          BR         NDA      ID1       ID2
     4.23632626E-01    2     1000022        23   # BR(~chi_30 -> ~chi_10   Z )
     5.76367374E-01    2     1000022        25   # BR(~chi_30 -> ~chi_10   h )
#
#         PDG            Width
DECAY   1000035     1.79028078E+01   # neutralino4 decays
#          BR         NDA      ID1       ID2
     1.07976449E-04    2     1000022        23   # BR(~chi_40 -> ~chi_10   Z )
     3.40841196E-02    2     1000023        23   # BR(~chi_40 -> ~chi_20   Z )
     2.18088054E-01    2     1000025        23   # BR(~chi_40 -> ~chi_30   Z )
     2.44217759E-01    2     1000024       -24   # BR(~chi_40 -> ~chi_1+   W-)
     2.44217759E-01    2    -1000024        24   # BR(~chi_40 -> ~chi_1-   W+)
     1.84750335E-04    2     1000022        25   # BR(~chi_40 -> ~chi_10   h )
     2.47285785E-07    2     1000022        35   # BR(~chi_40 -> ~chi_10   H )
     3.99659268E-08    2     1000022        36   # BR(~chi_40 -> ~chi_10   A )
     2.25102161E-01    2     1000023        25   # BR(~chi_40 -> ~chi_20   h )
     3.39971328E-02    2     1000025        25   # BR(~chi_40 -> ~chi_30   h )
#
#         PDG            Width
DECAY        25     4.03667365E-03   # h decays
#          BR         NDA      ID1       ID2
     6.09350257E-01    2           5        -5   # BR(h -> b       bb     )
     6.41902511E-02    2         -15        15   # BR(h -> tau+    tau-   )
     2.27257318E-04    2         -13        13   # BR(h -> mu+     mu-    )
     4.81856133E-04    2           3        -3   # BR(h -> s       sb     )
     2.08818127E-02    2           4        -4   # BR(h -> c       cb     )
     6.74187727E-02    2          21        21   # BR(h -> g       g      )
     2.31567486E-03    2          22        22   # BR(h -> gam     gam    )
     1.48366872E-03    2          22        23   # BR(h -> Z       gam    )
     2.08785950E-01    2          24       -24   # BR(h -> W+      W-     )
     2.48358587E-02    2          23        23   # BR(h -> Z       Z      )
     2.86415335E-05    2     1000022   1000022   # BR(h -> ~chi_10 ~chi_10)
#
#         PDG            Width
DECAY        35     7.08245249E+00   # H decays
#          BR         NDA      ID1       ID2
     4.61445306E-01    2           5        -5   # BR(H -> b       bb     )
     7.86896756E-02    2         -15        15   # BR(H -> tau+    tau-   )
     2.78252943E-04    2         -13        13   # BR(H -> mu+     mu-    )
     3.41095492E-04    2           3        -3   # BR(H -> s       sb     )
     1.90639356E-06    2           4        -4   # BR(H -> c       cb     )
     1.90463816E-01    2           6        -6   # BR(H -> t       tb     )
     6.32065955E-05    2          21        21   # BR(H -> g       g      )
     3.82573395E-07    2          22        22   # BR(H -> gam     gam    )
     1.12456667E-07    2          23        22   # BR(H -> Z       gam    )
     8.42486526E-05    2          24       -24   # BR(H -> W+      W-     )
     4.20710108E-05    2          23        23   # BR(H -> Z       Z      )
     3.20561609E-04    2          25        25   # BR(H -> h       h      )
     4.31867788E-23    2          36        36   # BR(H -> A       A      )
     9.19316200E-19    2          23        36   # BR(H -> Z       A      )
     7.96918566E-04    2     1000022   1000022   # BR(H -> ~chi_10 ~chi_10)
     1.58529912E-01    2     1000022   1000023   # BR(H -> ~chi_10 ~chi_20)
     1.08942534E-01    2     1000022   1000025   # BR(H -> ~chi_10 ~chi_30)
#
#         PDG            Width
DECAY        36     7.08522669E+00   # A decays
#          BR         NDA      ID1       ID2
     4.61419009E-01    2           5        -5   # BR(A -> b       bb     )
     7.86611363E-02    2         -15        15   # BR(A -> tau+    tau-   )
     2.78151637E-04    2         -13        13   # BR(A -> mu+     mu-    )
     3.41220403E-04    2           3        -3   # BR(A -> s       sb     )
     1.91364406E-06    2           4        -4   # BR(A -> c       cb     )
     1.91082711E-01    2           6        -6   # BR(A -> t       tb     )
     1.89122782E-04    2          21        21   # BR(A -> g       g      )
     3.23486404E-07    2          22        22   # BR(A -> gam     gam    )
     2.29073209E-07    2          23        22   # BR(A -> Z       gam    )
     8.38980932E-05    2          23        25   # BR(A -> Z       h      )
     8.20889192E-04    2     1000022   1000022   # BR(A -> ~chi_10 ~chi_10)
     1.10190126E-01    2     1000022   1000023   # BR(A -> ~chi_10 ~chi_20)
     1.56931270E-01    2     1000022   1000025   # BR(A -> ~chi_10 ~chi_30)
#
#         PDG            Width
DECAY        37     7.08015960E+00   # H+ decays
#          BR         NDA      ID1       ID2
     7.41687040E-04    2           4        -5   # BR(H+ -> c       bb     )
     7.87403715E-02    2         -15        16   # BR(H+ -> tau+    nu_tau )
     2.78431819E-04    2         -13        14   # BR(H+ -> mu+     nu_mu  )
     4.74677277E-06    2           2        -5   # BR(H+ -> u       bb     )
     1.63377984E-05    2           2        -3   # BR(H+ -> u       sb     )
     3.37865334E-04    2           4        -3   # BR(H+ -> c       sb     )
     6.50768105E-01    2           6        -5   # BR(H+ -> t       bb     )
     8.40854710E-05    2          24        25   # BR(H+ -> W+      h      )
     9.47965529E-14    2          24        36   # BR(H+ -> W+      A      )
     2.69028370E-01    2     1000024   1000022   # BR(H+ -> ~chi_1+ ~chi_10)
