#
#                              ======================
#                              | THE SUSYHIT OUTPUT |
#                              ======================
#
#
#              ------------------------------------------------------
#              |     This is the output of the SUSY-HIT package     |
#              |  created by A.Djouadi, M.Muehlleitner and M.Spira. |
#              |  In case of problems with SUSY-HIT email to        |
#              |           margarete.muehlleitner@cern.ch           |
#              |           michael.spira@psi.ch                     |
#              |           abdelhak.djouadi@cern.ch                 |
#              ------------------------------------------------------
#
#              ------------------------------------------------------
#              |  SUSY Les Houches Accord - MSSM Spectrum + Decays  |
#              |              based on the decay programs           |
#              |                                                    |
#              |                     SDECAY 1.3b                    |
#              |                                                    |
#              |  Authors: M.Muhlleitner, A.Djouadi and Y.Mambrini  |
#              |  Ref.:    Comput.Phys.Commun.168(2005)46           |
#              |           [hep-ph/0311167]                         |
#              |                                                    |
#              |                     HDECAY 3.4                     |
#              |                                                    |
#              |  By: A.Djouadi,J.Kalinowski,M.Muhlleitner,M.Spira  |
#              |  Ref.:    Comput.Phys.Commun.108(1998)56           |
#              |           [hep-ph/9704448]                         |
#              |                                                    |
#              |                                                    |
#              |  If not stated otherwise all DRbar couplings and   |
#              |  soft SUSY breaking masses are given at the scale  |
#              |  Q=  0.50007496E+04
#              |                                                    |
#              ------------------------------------------------------
#
#
BLOCK DCINFO  # Decay Program information
     1   SDECAY/HDECAY # decay calculator
     2   1.3b  /3.4    # version number
#
BLOCK SPINFO  # Spectrum calculator information
     1    SOFTSUSY    # spectrum calculator                
     2    3.4.0       # version number                     
#
BLOCK MODSEL  # Model selection
     1     0   #  nonUniversal                                     
#
BLOCK SMINPUTS  # Standard Model inputs
         1     1.25778332E+02   # alpha_em^-1(M_Z)^MSbar
         2     1.16570000E-05   # G_F [GeV^-2]
         3     1.17200002E-01   # alpha_S(M_Z)^MSbar
         4     9.11876000E+01   # M_Z pole mass
         5     4.25000000E+00   # mb(mb)^MSbar
         6     1.72500000E+02   # mt pole mass
         7     1.77682000E+00   # mtau pole mass
#
BLOCK MINPAR  # Input parameters - minimal models
         3     1.00000000E+01   # tanb                
#
BLOCK EXTPAR  # Input parameters - non-minimal models
         0    -1.00000000E+00   # Set                 
         1     6.00000000E+01   # M_1(MX)             
         2     3.00000000E+03   # M_2(MX)             
         3     1.39219500E+03   # M_3(MX)             
        11     5.00000000E+03   # At(MX)              
        12     5.00000000E+03   # Ab(MX)              
        13     0.00000000E+00   # Atau(MX)            
        23    -6.68074000E+02   # mu(MX)              
        26     3.00000000E+03   # mA(pole)            
        31     5.00000000E+03   # meL(MX)             
        32     5.00000000E+03   # mmuL(MX)            
        33     5.00000000E+03   # mtauL(MX)           
        34     5.00000000E+03   # meR(MX)             
        35     5.00000000E+03   # mmuR(MX)            
        36     5.00000000E+03   # mtauR(MX)           
        41     5.00000000E+03   # mqL1(MX)            
        42     5.00000000E+03   # mqL2(MX)            
        43     5.00000000E+03   # mqL3(MX)            
        44     5.00000000E+03   # muR(MX)             
        45     5.00000000E+03   # mcR(MX)             
        46     5.00000000E+03   # mtR(MX)             
        47     5.00000000E+03   # mdR(MX)             
        48     5.00000000E+03   # msR(MX)             
        49     5.00000000E+03   # mbR(MX)             
#
BLOCK MASS  # Mass Spectrum
# PDG code           mass       particle
        24     8.00934867E+01   # W+
        25     1.24683405E+02   # h
        35     3.00008354E+03   # H
        36     2.99999869E+03   # A
        37     3.00137708E+03   # H+
         5     4.87878001E+00   # b-quark pole mass calculated from mb(mb)_Msbar
   1000001     5.06849496E+03   # ~d_L
   2000001     5.05065855E+03   # ~d_R
   1000002     5.06801969E+03   # ~u_L
   2000002     5.05036404E+03   # ~u_R
   1000003     5.06849496E+03   # ~s_L
   2000003     5.05065855E+03   # ~s_R
   1000004     5.06801969E+03   # ~c_L
   2000004     5.05036404E+03   # ~c_R
   1000005     5.01437657E+03   # ~b_1
   2000005     5.04901445E+03   # ~b_2
   1000006     4.90505331E+03   # ~t_1
   2000006     5.05908071E+03   # ~t_2
   1000011     5.01909100E+03   # ~e_L
   2000011     5.00593540E+03   # ~e_R
   1000012     5.01814148E+03   # ~nu_eL
   1000013     5.01909100E+03   # ~mu_L
   2000013     5.00593540E+03   # ~mu_R
   1000014     5.01814148E+03   # ~nu_muL
   1000015     5.00471959E+03   # ~tau_1
   2000015     5.01867254E+03   # ~tau_2
   1000016     5.01759190E+03   # ~nu_tauL
   1000021     1.70000027E+03   # ~g
   1000022     6.02747949E+01   # ~chi_10
   1000023     6.99989540E+02   # ~chi_20
   1000025    -7.02215977E+02   # ~chi_30
   1000035     3.07419879E+03   # ~chi_40
   1000024     7.00000684E+02   # ~chi_1+
   1000037     3.07436637E+03   # ~chi_2+
#
BLOCK NMIX  # Neutralino Mixing Matrix
  1  1     9.97979346E-01   # N_11
  1  2     2.19022161E-04   # N_12
  1  3    -6.35287083E-02   # N_13
  1  4     1.13154788E-03   # N_14
  2  1     4.41420794E-02   # N_21
  2  2     2.05671412E-02   # N_22
  2  3     7.06086591E-01   # N_23
  2  4     7.06449004E-01   # N_24
  3  1    -4.57006513E-02   # N_31
  3  2     1.61079765E-02   # N_32
  3  3    -7.05263010E-01   # N_33
  3  4     7.07287827E-01   # N_34
  4  1    -3.90444225E-04   # N_41
  4  2     9.99658681E-01   # N_42
  4  3    -3.14898328E-03   # N_43
  4  4    -2.59317110E-02   # N_44
#
BLOCK UMIX  # Chargino Mixing Matrix U
  1  1     4.46233958E-03   # U_11
  1  2     9.99990044E-01   # U_12
  2  1    -9.99990044E-01   # U_21
  2  2     4.46233958E-03   # U_22
#
BLOCK VMIX  # Chargino Mixing Matrix V
  1  1     3.66994564E-02   # V_11
  1  2    -9.99326348E-01   # V_12
  2  1    -9.99326348E-01   # V_21
  2  2    -3.66994564E-02   # V_22
#
BLOCK STOPMIX  # Stop Mixing Matrix
  1  1    -5.06054843E-01   # cos(theta_t)
  1  2     8.62501302E-01   # sin(theta_t)
  2  1    -8.62501302E-01   # -sin(theta_t)
  2  2    -5.06054843E-01   # cos(theta_t)
#
BLOCK SBOTMIX  # Sbottom Mixing Matrix
  1  1     9.98170476E-01   # cos(theta_b)
  1  2    -6.04623920E-02   # sin(theta_b)
  2  1     6.04623920E-02   # -sin(theta_b)
  2  2     9.98170476E-01   # cos(theta_b)
#
BLOCK STAUMIX  # Stau Mixing Matrix
  1  1    -7.99420429E-02   # cos(theta_tau)
  1  2     9.96799513E-01   # sin(theta_tau)
  2  1    -9.96799513E-01   # -sin(theta_tau)
  2  2    -7.99420429E-02   # cos(theta_tau)
#
BLOCK ALPHA  # Higgs mixing
          -1.05471076E-01   # Mixing angle in the neutral Higgs boson sector
#
BLOCK HMIX Q=  5.00074955E+03  # DRbar Higgs Parameters
         1    -6.80227716E+02   # mu(Q)MSSM           
         2     9.47033367E+00   # tan                 
         3     2.41803523E+02   # higgs               
         4     8.60817512E+06   # mA^2(Q)MSSM         
#
BLOCK GAUGE Q=  5.00074955E+03  # The gauge couplings
     1     3.70885156E-01   # gprime(Q) DRbar
     2     6.32970375E-01   # g(Q) DRbar
     3     1.00088329E+00   # g3(Q) DRbar
#
BLOCK AU Q=  5.00074955E+03  # The trilinear couplings
  1  1     5.00000001E+03   # A_u(Q) DRbar
  2  2     5.00000001E+03   # A_c(Q) DRbar
  3  3     5.00000001E+03   # A_t(Q) DRbar
#
BLOCK AD Q=  5.00074955E+03  # The trilinear couplings
  1  1     5.00000000E+03   # A_d(Q) DRbar
  2  2     5.00000000E+03   # A_s(Q) DRbar
  3  3     5.00000001E+03   # A_b(Q) DRbar
#
BLOCK AE Q=  5.00074955E+03  # The trilinear couplings
  1  1     0.00000000E+00   # A_e(Q) DRbar
  2  2     1.27491950E-07   # A_mu(Q) DRbar
  3  3     1.26946885E-07   # A_tau(Q) DRbar
#
BLOCK Yu Q=  5.00074955E+03  # The Yukawa couplings
  1  1     0.00000000E+00   # y_u(Q) DRbar
  2  2     0.00000000E+00   # y_c(Q) DRbar
  3  3     8.18934485E-01   # y_t(Q) DRbar
#
BLOCK Yd Q=  5.00074955E+03  # The Yukawa couplings
  1  1     0.00000000E+00   # y_d(Q) DRbar
  2  2     0.00000000E+00   # y_s(Q) DRbar
  3  3     1.30030831E-01   # y_b(Q) DRbar
#
BLOCK Ye Q=  5.00074955E+03  # The Yukawa couplings
  1  1     0.00000000E+00   # y_e(Q) DRbar
  2  2     0.00000000E+00   # y_mu(Q) DRbar
  3  3     9.70221287E-02   # y_tau(Q) DRbar
#
BLOCK MSOFT Q=  5.00074955E+03  # The soft SUSY breaking masses at the scale Q
         1     6.00000000E+01   # M_1(Q)              
         2     3.00000000E+03   # M_2(Q)              
         3     1.39219500E+03   # M_3(Q)              
        21     8.25178378E+06   # mH1^2(Q)            
        22     1.08080640E+05   # mH2^2(Q)            
        31     5.00000000E+03   # meL(Q)              
        32     5.00000000E+03   # mmuL(Q)             
        33     5.00000000E+03   # mtauL(Q)            
        34     5.00000000E+03   # meR(Q)              
        35     5.00000000E+03   # mmuR(Q)             
        36     5.00000000E+03   # mtauR(Q)            
        41     5.00000000E+03   # mqL1(Q)             
        42     5.00000000E+03   # mqL2(Q)             
        43     5.00000000E+03   # mqL3(Q)             
        44     5.00000000E+03   # muR(Q)              
        45     5.00000000E+03   # mcR(Q)              
        46     4.99999999E+03   # mtR(Q)              
        47     5.00000000E+03   # mdR(Q)              
        48     5.00000000E+03   # msR(Q)              
        49     5.00000000E+03   # mbR(Q)              
#
#
#
#                             =================
#                             |The decay table|
#                             =================
#
# - The QCD corrections to the decays gluino -> squark  + quark
#                                     squark -> gaugino + quark_prime
#                                     squark -> squark_prime + Higgs
#                                     squark -> gluino  + quark
#   are included.
#
# - The multi-body decays for the inos, stops and sbottoms are included.
#
# - The loop induced decays for the gluino, neutralinos and stops
#   are included.
#
# - The SUSY decays of the top quark are included.
#
#
#         PDG            Width
DECAY         6     1.40408501E+00   # top decays
#          BR         NDA      ID1       ID2
     1.00000000E+00    2           5        24   # BR(t ->  b    W+)
#
#         PDG            Width
DECAY   1000021     4.09113842E-04   # gluino decays
#          BR         NDA      ID1       ID2
     2.40515964E-06    2     1000022        21   # BR(~g -> ~chi_10 g)
     1.35180077E-02    2     1000023        21   # BR(~g -> ~chi_20 g)
     1.31998050E-02    2     1000025        21   # BR(~g -> ~chi_30 g)
#           BR         NDA      ID1       ID2       ID3
     2.46982079E-02    3     1000022         1        -1   # BR(~g -> ~chi_10 d  db)
     2.32741615E-05    3     1000023         1        -1   # BR(~g -> ~chi_20 d  db)
     2.02685973E-05    3     1000025         1        -1   # BR(~g -> ~chi_30 d  db)
     8.42180147E-02    3     1000022         2        -2   # BR(~g -> ~chi_10 u  ub)
     1.07853189E-04    3     1000023         2        -2   # BR(~g -> ~chi_20 u  ub)
     2.87121706E-05    3     1000025         2        -2   # BR(~g -> ~chi_30 u  ub)
     2.46982079E-02    3     1000022         3        -3   # BR(~g -> ~chi_10 s  sb)
     2.32741615E-05    3     1000023         3        -3   # BR(~g -> ~chi_20 s  sb)
     2.02685973E-05    3     1000025         3        -3   # BR(~g -> ~chi_30 s  sb)
     8.42180147E-02    3     1000022         4        -4   # BR(~g -> ~chi_10 c  cb)
     1.07853189E-04    3     1000023         4        -4   # BR(~g -> ~chi_20 c  cb)
     2.87121706E-05    3     1000025         4        -4   # BR(~g -> ~chi_30 c  cb)
     2.51308975E-02    3     1000022         5        -5   # BR(~g -> ~chi_10 b  bb)
     4.82960658E-03    3     1000023         5        -5   # BR(~g -> ~chi_20 b  bb)
     4.76853993E-03    3     1000025         5        -5   # BR(~g -> ~chi_30 b  bb)
     7.76285111E-02    3     1000022         6        -6   # BR(~g -> ~chi_10 t  tb)
     1.60251271E-01    3     1000023         6        -6   # BR(~g -> ~chi_20 t  tb)
     1.32700475E-01    3     1000025         6        -6   # BR(~g -> ~chi_30 t  tb)
     5.55529965E-05    3     1000024         1        -2   # BR(~g -> ~chi_1+ d  ub)
     5.55529965E-05    3    -1000024         2        -1   # BR(~g -> ~chi_1- u  db)
     5.55529965E-05    3     1000024         3        -4   # BR(~g -> ~chi_1+ s  cb)
     5.55529965E-05    3    -1000024         4        -3   # BR(~g -> ~chi_1- c  sb)
     1.74777804E-01    3     1000024         5        -6   # BR(~g -> ~chi_1+ b  tb)
     1.74777804E-01    3    -1000024         6        -5   # BR(~g -> ~chi_1- t  bb)
#
#         PDG            Width
DECAY   1000006     3.71867768E+02   # stop1 decays
#          BR         NDA      ID1       ID2
     2.37290280E-02    2     1000022         6   # BR(~t_1 -> ~chi_10 t )
     8.58198262E-02    2     1000023         6   # BR(~t_1 -> ~chi_20 t )
     8.19915477E-02    2     1000025         6   # BR(~t_1 -> ~chi_30 t )
     5.53883316E-03    2     1000035         6   # BR(~t_1 -> ~chi_40 t )
     1.24569380E-01    2     1000024         5   # BR(~t_1 -> ~chi_1+ b )
     1.10398245E-02    2     1000037         5   # BR(~t_1 -> ~chi_2+ b )
     6.67311561E-01    2     1000021         6   # BR(~t_1 -> ~g      t )
#
#         PDG            Width
DECAY   2000006     3.75717493E+02   # stop2 decays
#          BR         NDA      ID1       ID2
     9.31898922E-03    2     1000022         6   # BR(~t_2 -> ~chi_10 t )
     8.60140307E-02    2     1000023         6   # BR(~t_2 -> ~chi_20 t )
     9.02249829E-02    2     1000025         6   # BR(~t_2 -> ~chi_30 t )
     1.47945143E-02    2     1000035         6   # BR(~t_2 -> ~chi_40 t )
     5.11095070E-02    2     1000024         5   # BR(~t_2 -> ~chi_1+ b )
     2.94514162E-02    2     1000037         5   # BR(~t_2 -> ~chi_2+ b )
     7.15751549E-01    2     1000021         6   # BR(~t_2 -> ~g      t )
     7.63090910E-04    2     1000006        25   # BR(~t_2 -> ~t_1    h )
     2.57191942E-03    2     1000006        23   # BR(~t_2 -> ~t_1    Z )
#
#         PDG            Width
DECAY   1000005     3.51563281E+02   # sbottom1 decays
#          BR         NDA      ID1       ID2
     2.20092976E-03    2     1000022         5   # BR(~b_1 -> ~chi_10 b )
     2.31887578E-03    2     1000023         5   # BR(~b_1 -> ~chi_20 b )
     2.28972903E-03    2     1000025         5   # BR(~b_1 -> ~chi_30 b )
     2.14758693E-02    2     1000035         5   # BR(~b_1 -> ~chi_40 b )
     1.83365926E-01    2    -1000024         6   # BR(~b_1 -> ~chi_1- t )
     4.31272584E-02    2    -1000037         6   # BR(~b_1 -> ~chi_2- t )
     7.43619364E-01    2     1000021         5   # BR(~b_1 -> ~g      b )
     1.60204773E-03    2     1000006       -24   # BR(~b_1 -> ~t_1    W-)
#
#         PDG            Width
DECAY   2000005     2.70479181E+02   # sbottom2 decays
#          BR         NDA      ID1       ID2
     1.08658392E-02    2     1000022         5   # BR(~b_2 -> ~chi_10 b )
     3.06547003E-03    2     1000023         5   # BR(~b_2 -> ~chi_20 b )
     3.12310520E-03    2     1000025         5   # BR(~b_2 -> ~chi_30 b )
     1.01286389E-04    2     1000035         5   # BR(~b_2 -> ~chi_40 b )
     6.90728793E-03    2    -1000024         6   # BR(~b_2 -> ~chi_1- t )
     2.03396022E-04    2    -1000037         6   # BR(~b_2 -> ~chi_2- t )
     9.75702203E-01    2     1000021         5   # BR(~b_2 -> ~g      b )
     3.14124303E-05    2     1000006       -24   # BR(~b_2 -> ~t_1    W-)
#
#         PDG            Width
DECAY   1000002     2.89657806E+02   # sup_L decays
#          BR         NDA      ID1       ID2
     2.57436236E-03    2     1000022         2   # BR(~u_L -> ~chi_10 u)
     5.54864994E-05    2     1000023         2   # BR(~u_L -> ~chi_20 u)
     3.35843631E-06    2     1000025         2   # BR(~u_L -> ~chi_30 u)
     2.70999273E-02    2     1000035         2   # BR(~u_L -> ~chi_40 u)
     1.75430653E-04    2     1000024         1   # BR(~u_L -> ~chi_1+ d)
     5.41652560E-02    2     1000037         1   # BR(~u_L -> ~chi_2+ d)
     9.15926179E-01    2     1000021         2   # BR(~u_L -> ~g      u)
#
#         PDG            Width
DECAY   2000002     2.75820238E+02   # sup_R decays
#          BR         NDA      ID1       ID2
     4.30075478E-02    2     1000022         2   # BR(~u_R -> ~chi_10 u)
     8.10342043E-05    2     1000023         2   # BR(~u_R -> ~chi_20 u)
     8.68360409E-05    2     1000025         2   # BR(~u_R -> ~chi_30 u)
     2.61973184E-09    2     1000035         2   # BR(~u_R -> ~chi_40 u)
     9.56824579E-01    2     1000021         2   # BR(~u_R -> ~g      u)
#
#         PDG            Width
DECAY   1000001     2.89669997E+02   # sdown_L decays
#          BR         NDA      ID1       ID2
     2.56295209E-03    2     1000022         1   # BR(~d_L -> ~chi_10 d)
     9.29382846E-06    2     1000023         1   # BR(~d_L -> ~chi_20 d)
     4.08070998E-05    2     1000025         1   # BR(~d_L -> ~chi_30 d)
     2.71154793E-02    2     1000035         1   # BR(~d_L -> ~chi_40 d)
     2.59380485E-06    2    -1000024         2   # BR(~d_L -> ~chi_1- u)
     5.42517972E-02    2    -1000037         2   # BR(~d_L -> ~chi_2- u)
     9.16017077E-01    2     1000021         1   # BR(~d_L -> ~g      d)
#
#         PDG            Width
DECAY   2000001     2.66912178E+02   # sdown_R decays
#          BR         NDA      ID1       ID2
     1.11113793E-02    2     1000022         1   # BR(~d_R -> ~chi_10 d)
     2.09359935E-05    2     1000023         1   # BR(~d_R -> ~chi_20 d)
     2.24349565E-05    2     1000025         1   # BR(~d_R -> ~chi_30 d)
     6.76922787E-10    2     1000035         1   # BR(~d_R -> ~chi_40 d)
     9.88845249E-01    2     1000021         1   # BR(~d_R -> ~g      d)
#
#         PDG            Width
DECAY   1000004     2.89657806E+02   # scharm_L decays
#          BR         NDA      ID1       ID2
     2.57436236E-03    2     1000022         4   # BR(~c_L -> ~chi_10 c)
     5.54864994E-05    2     1000023         4   # BR(~c_L -> ~chi_20 c)
     3.35843631E-06    2     1000025         4   # BR(~c_L -> ~chi_30 c)
     2.70999273E-02    2     1000035         4   # BR(~c_L -> ~chi_40 c)
     1.75430653E-04    2     1000024         3   # BR(~c_L -> ~chi_1+ s)
     5.41652560E-02    2     1000037         3   # BR(~c_L -> ~chi_2+ s)
     9.15926179E-01    2     1000021         4   # BR(~c_L -> ~g      c)
#
#         PDG            Width
DECAY   2000004     2.75820238E+02   # scharm_R decays
#          BR         NDA      ID1       ID2
     4.30075478E-02    2     1000022         4   # BR(~c_R -> ~chi_10 c)
     8.10342043E-05    2     1000023         4   # BR(~c_R -> ~chi_20 c)
     8.68360409E-05    2     1000025         4   # BR(~c_R -> ~chi_30 c)
     2.61973184E-09    2     1000035         4   # BR(~c_R -> ~chi_40 c)
     9.56824579E-01    2     1000021         4   # BR(~c_R -> ~g      c)
#
#         PDG            Width
DECAY   1000003     2.89669997E+02   # sstrange_L decays
#          BR         NDA      ID1       ID2
     2.56295209E-03    2     1000022         3   # BR(~s_L -> ~chi_10 s)
     9.29382846E-06    2     1000023         3   # BR(~s_L -> ~chi_20 s)
     4.08070998E-05    2     1000025         3   # BR(~s_L -> ~chi_30 s)
     2.71154793E-02    2     1000035         3   # BR(~s_L -> ~chi_40 s)
     2.59380485E-06    2    -1000024         4   # BR(~s_L -> ~chi_1- c)
     5.42517972E-02    2    -1000037         4   # BR(~s_L -> ~chi_2- c)
     9.16017077E-01    2     1000021         3   # BR(~s_L -> ~g      s)
#
#         PDG            Width
DECAY   2000003     2.66912178E+02   # sstrange_R decays
#          BR         NDA      ID1       ID2
     1.11113793E-02    2     1000022         3   # BR(~s_R -> ~chi_10 s)
     2.09359935E-05    2     1000023         3   # BR(~s_R -> ~chi_20 s)
     2.24349565E-05    2     1000025         3   # BR(~s_R -> ~chi_30 s)
     6.76922787E-10    2     1000035         3   # BR(~s_R -> ~chi_40 s)
     9.88845249E-01    2     1000021         3   # BR(~s_R -> ~g      s)
#
#         PDG            Width
DECAY   1000011     3.03051964E+01   # selectron_L decays
#          BR         NDA      ID1       ID2
     2.25803214E-01    2     1000022        11   # BR(~e_L -> ~chi_10 e-)
     1.36819256E-03    2     1000023        11   # BR(~e_L -> ~chi_20 e-)
     7.22331268E-05    2     1000025        11   # BR(~e_L -> ~chi_30 e-)
     2.57407110E-01    2     1000035        11   # BR(~e_L -> ~chi_40 e-)
     2.52736823E-05    2    -1000024        12   # BR(~e_L -> ~chi_1- nu_e)
     5.15323976E-01    2    -1000037        12   # BR(~e_L -> ~chi_2- nu_e)
#
#         PDG            Width
DECAY   2000011     2.73861308E+01   # selectron_R decays
#          BR         NDA      ID1       ID2
     9.96117978E-01    2     1000022        11   # BR(~e_R -> ~chi_10 e-)
     1.87390451E-03    2     1000023        11   # BR(~e_R -> ~chi_20 e-)
     2.00805816E-03    2     1000025        11   # BR(~e_R -> ~chi_30 e-)
     5.91702792E-08    2     1000035        11   # BR(~e_R -> ~chi_40 e-)
#
#         PDG            Width
DECAY   1000013     3.03051964E+01   # smuon_L decays
#          BR         NDA      ID1       ID2
     2.25803214E-01    2     1000022        13   # BR(~mu_L -> ~chi_10 mu-)
     1.36819256E-03    2     1000023        13   # BR(~mu_L -> ~chi_20 mu-)
     7.22331268E-05    2     1000025        13   # BR(~mu_L -> ~chi_30 mu-)
     2.57407110E-01    2     1000035        13   # BR(~mu_L -> ~chi_40 mu-)
     2.52736823E-05    2    -1000024        14   # BR(~mu_L -> ~chi_1- nu_mu)
     5.15323976E-01    2    -1000037        14   # BR(~mu_L -> ~chi_2- nu_mu)
#
#         PDG            Width
DECAY   2000013     2.73861308E+01   # smuon_R decays
#          BR         NDA      ID1       ID2
     9.96117978E-01    2     1000022        13   # BR(~mu_R -> ~chi_10 mu-)
     1.87390451E-03    2     1000023        13   # BR(~mu_R -> ~chi_20 mu-)
     2.00805816E-03    2     1000025        13   # BR(~mu_R -> ~chi_30 mu-)
     5.91702792E-08    2     1000035        13   # BR(~mu_R -> ~chi_40 mu-)
#
#         PDG            Width
DECAY   1000015     2.91974137E+01   # stau_1 decays
#          BR         NDA      ID1       ID2
     9.30624945E-01    2     1000022        15   # BR(~tau_1 -> ~chi_10  tau-)
     1.70531052E-02    2     1000023        15   # BR(~tau_1 -> ~chi_20  tau-)
     1.65302959E-02    2     1000025        15   # BR(~tau_1 -> ~chi_30  tau-)
     1.66218340E-03    2     1000035        15   # BR(~tau_1 -> ~chi_40  tau-)
     3.08020064E-02    2    -1000024        16   # BR(~tau_1 -> ~chi_1-  nu_tau)
     3.32746403E-03    2    -1000037        16   # BR(~tau_1 -> ~chi_2-  nu_tau)
#
#         PDG            Width
DECAY   2000015     3.11845633E+01   # stau_2 decays
#          BR         NDA      ID1       ID2
     2.22919495E-01    2     1000022        15   # BR(~tau_2 -> ~chi_10  tau-)
     1.58587332E-02    2     1000023        15   # BR(~tau_2 -> ~chi_20  tau-)
     1.51347919E-02    2     1000025        15   # BR(~tau_2 -> ~chi_30  tau-)
     2.48506363E-01    2     1000035        15   # BR(~tau_2 -> ~chi_40  tau-)
     7.51399554E-05    2    -1000024        16   # BR(~tau_2 -> ~chi_1-  nu_tau)
     4.97505476E-01    2    -1000037        16   # BR(~tau_2 -> ~chi_2-  nu_tau)
#
#         PDG            Width
DECAY   1000012     3.03082902E+01   # snu_eL decays
#          BR         NDA      ID1       ID2
     2.25399480E-01    2     1000022        12   # BR(~nu_eL -> ~chi_10 nu_e)
     1.78051714E-05    2     1000023        12   # BR(~nu_eL -> ~chi_20 nu_e)
     1.16654635E-03    2     1000025        12   # BR(~nu_eL -> ~chi_30 nu_e)
     2.57450776E-01    2     1000035        12   # BR(~nu_eL -> ~chi_40 nu_e)
     1.70895068E-03    2     1000024        11   # BR(~nu_eL -> ~chi_1+ e-)
     5.14256442E-01    2     1000037        11   # BR(~nu_eL -> ~chi_2+ e-)
#
#         PDG            Width
DECAY   1000014     3.03082902E+01   # snu_muL decays
#          BR         NDA      ID1       ID2
     2.25399480E-01    2     1000022        14   # BR(~nu_muL -> ~chi_10 nu_mu)
     1.78051714E-05    2     1000023        14   # BR(~nu_muL -> ~chi_20 nu_mu)
     1.16654635E-03    2     1000025        14   # BR(~nu_muL -> ~chi_30 nu_mu)
     2.57450776E-01    2     1000035        14   # BR(~nu_muL -> ~chi_40 nu_mu)
     1.70895068E-03    2     1000024        13   # BR(~nu_muL -> ~chi_1+ mu-)
     5.14256442E-01    2     1000037        13   # BR(~nu_muL -> ~chi_2+ mu-)
#
#         PDG            Width
DECAY   1000016     3.12022527E+01   # snu_tauL decays
#          BR         NDA      ID1       ID2
     2.18917663E-01    2     1000022        16   # BR(~nu_tauL -> ~chi_10 nu_tau)
     1.72929985E-05    2     1000023        16   # BR(~nu_tauL -> ~chi_20 nu_tau)
     1.13299011E-03    2     1000025        16   # BR(~nu_tauL -> ~chi_30 nu_tau)
     2.49981461E-01    2     1000035        16   # BR(~nu_tauL -> ~chi_40 nu_tau)
     3.06146494E-02    2     1000024        15   # BR(~nu_tauL -> ~chi_1+ tau-)
     4.99335943E-01    2     1000037        15   # BR(~nu_tauL -> ~chi_2+ tau-)
#
#         PDG            Width
DECAY   1000024     4.20506171E-01   # chargino1+ decays
#          BR         NDA      ID1       ID2
     1.00000000E+00    2     1000022        24   # BR(~chi_1+ -> ~chi_10  W+)
#
#         PDG            Width
DECAY   1000037     2.14650452E+01   # chargino2+ decays
#          BR         NDA      ID1       ID2
     2.53437294E-01    2     1000024        23   # BR(~chi_2+ -> ~chi_1+  Z )
     1.77974274E-04    2     1000022        24   # BR(~chi_2+ -> ~chi_10  W+)
     2.44577153E-01    2     1000023        24   # BR(~chi_2+ -> ~chi_20  W+)
     2.44285251E-01    2     1000025        24   # BR(~chi_2+ -> ~chi_30  W+)
     2.57519761E-01    2     1000024        25   # BR(~chi_2+ -> ~chi_1+  h )
     2.56584002E-06    2     1000022        37   # BR(~chi_2+ -> ~chi_10  H+)
#
#         PDG            Width
DECAY   1000022     0.00000000E+00   # neutralino1 decays
#
#         PDG            Width
DECAY   1000023     4.34230635E-01   # neutralino2 decays
#          BR         NDA      ID1       ID2
     5.22404282E-01    2     1000022        23   # BR(~chi_20 -> ~chi_10   Z )
     4.77595718E-01    2     1000022        25   # BR(~chi_20 -> ~chi_10   h )
#
#         PDG            Width
DECAY   1000025     4.32105028E-01   # neutralino3 decays
#          BR         NDA      ID1       ID2
     4.83909115E-01    2     1000022        23   # BR(~chi_30 -> ~chi_10   Z )
     5.16090885E-01    2     1000022        25   # BR(~chi_30 -> ~chi_10   h )
#
#         PDG            Width
DECAY   1000035     2.14801373E+01   # neutralino4 decays
#          BR         NDA      ID1       ID2
     2.28882893E-05    2     1000022        23   # BR(~chi_40 -> ~chi_10   Z )
     9.62844305E-02    2     1000023        23   # BR(~chi_40 -> ~chi_20   Z )
     1.56544409E-01    2     1000025        23   # BR(~chi_40 -> ~chi_30   Z )
     2.45028320E-01    2     1000024       -24   # BR(~chi_40 -> ~chi_1+   W-)
     2.45028320E-01    2    -1000024        24   # BR(~chi_40 -> ~chi_1-   W+)
     1.52122261E-04    2     1000022        25   # BR(~chi_40 -> ~chi_10   h )
     2.45141712E-06    2     1000022        35   # BR(~chi_40 -> ~chi_10   H )
     2.79403960E-07    2     1000022        36   # BR(~chi_40 -> ~chi_10   A )
     1.60380985E-01    2     1000023        25   # BR(~chi_40 -> ~chi_20   h )
     9.65557946E-02    2     1000025        25   # BR(~chi_40 -> ~chi_30   h )
#
#         PDG            Width
DECAY        25     4.05878288E-03   # h decays
#          BR         NDA      ID1       ID2
     6.10758140E-01    2           5        -5   # BR(h -> b       bb     )
     6.38607622E-02    2         -15        15   # BR(h -> tau+    tau-   )
     2.26090714E-04    2         -13        13   # BR(h -> mu+     mu-    )
     4.79366029E-04    2           3        -3   # BR(h -> s       sb     )
     2.07708212E-02    2           4        -4   # BR(h -> c       cb     )
     6.70852740E-02    2          21        21   # BR(h -> g       g      )
     2.30410845E-03    2          22        22   # BR(h -> gam     gam    )
     1.47823899E-03    2          22        23   # BR(h -> Z       gam    )
     2.08194286E-01    2          24       -24   # BR(h -> W+      W-     )
     2.47654426E-02    2          23        23   # BR(h -> Z       Z      )
     7.74704183E-05    2     1000022   1000022   # BR(h -> ~chi_10 ~chi_10)
#
#         PDG            Width
DECAY        35     8.48025854E+00   # H decays
#          BR         NDA      ID1       ID2
     3.78126869E-01    2           5        -5   # BR(H -> b       bb     )
     6.57019247E-02    2         -15        15   # BR(H -> tau+    tau-   )
     2.32327224E-04    2         -13        13   # BR(H -> mu+     mu-    )
     2.84797554E-04    2           3        -3   # BR(H -> s       sb     )
     1.59281523E-06    2           4        -4   # BR(H -> c       cb     )
     1.59134859E-01    2           6        -6   # BR(H -> t       tb     )
     5.29020179E-05    2          21        21   # BR(H -> g       g      )
     1.84774031E-07    2          22        22   # BR(H -> gam     gam    )
     9.39123745E-08    2          23        22   # BR(H -> Z       gam    )
     7.46962370E-05    2          24       -24   # BR(H -> W+      W-     )
     3.73008385E-05    2          23        23   # BR(H -> Z       Z      )
     2.73997412E-04    2          25        25   # BR(H -> h       h      )
     2.04208849E-23    2          36        36   # BR(H -> A       A      )
     8.27750233E-19    2          23        36   # BR(H -> Z       A      )
     2.81441386E-03    2     1000024  -1000024   # BR(H -> ~chi_1+ ~chi_1-)
     3.48111892E-03    2     1000022   1000022   # BR(H -> ~chi_10 ~chi_10)
     1.48478341E-05    2     1000023   1000023   # BR(H -> ~chi_20 ~chi_20)
     1.35581700E-03    2     1000025   1000025   # BR(H -> ~chi_30 ~chi_30)
     2.33781551E-01    2     1000022   1000023   # BR(H -> ~chi_10 ~chi_20)
     1.53110253E-01    2     1000022   1000025   # BR(H -> ~chi_10 ~chi_30)
     1.52045379E-03    2     1000023   1000025   # BR(H -> ~chi_20 ~chi_30)
#
#         PDG            Width
DECAY        36     8.49028308E+00   # A decays
#          BR         NDA      ID1       ID2
     3.77808983E-01    2           5        -5   # BR(A -> b       bb     )
     6.56263052E-02    2         -15        15   # BR(A -> tau+    tau-   )
     2.32059504E-04    2         -13        13   # BR(A -> mu+     mu-    )
     2.84677277E-04    2           3        -3   # BR(A -> s       sb     )
     1.59737263E-06    2           4        -4   # BR(A -> c       cb     )
     1.59502124E-01    2           6        -6   # BR(A -> t       tb     )
     1.57849008E-04    2          21        21   # BR(A -> g       g      )
     5.99798898E-07    2          22        22   # BR(A -> gam     gam    )
     1.91089956E-07    2          23        22   # BR(A -> Z       gam    )
     7.43263816E-05    2          23        25   # BR(A -> Z       h      )
     3.41372494E-03    2     1000024  -1000024   # BR(A -> ~chi_1+ ~chi_1-)
     3.50906427E-03    2     1000022   1000022   # BR(A -> ~chi_10 ~chi_10)
     1.23991020E-05    2     1000023   1000023   # BR(A -> ~chi_20 ~chi_20)
     2.65487481E-03    2     1000025   1000025   # BR(A -> ~chi_30 ~chi_30)
     1.55735084E-01    2     1000022   1000023   # BR(A -> ~chi_10 ~chi_20)
     2.30156565E-01    2     1000022   1000025   # BR(A -> ~chi_10 ~chi_30)
     8.29575262E-04    2     1000023   1000025   # BR(A -> ~chi_20 ~chi_30)
#
#         PDG            Width
DECAY        37     8.43684492E+00   # H+ decays
#          BR         NDA      ID1       ID2
     6.06414057E-04    2           4        -5   # BR(H+ -> c       bb     )
     6.60723198E-02    2         -15        16   # BR(H+ -> tau+    nu_tau )
     2.33636644E-04    2         -13        14   # BR(H+ -> mu+     nu_mu  )
     3.88102970E-06    2           2        -5   # BR(H+ -> u       bb     )
     1.37090134E-05    2           2        -3   # BR(H+ -> u       sb     )
     2.83502921E-04    2           4        -3   # BR(H+ -> c       sb     )
     5.36197104E-01    2           6        -5   # BR(H+ -> t       bb     )
     7.49485543E-05    2          24        25   # BR(H+ -> W+      h      )
     7.75000644E-13    2          24        36   # BR(H+ -> W+      A      )
     3.94588789E-01    2     1000024   1000022   # BR(H+ -> ~chi_1+ ~chi_10)
     1.87119760E-03    2     1000024   1000023   # BR(H+ -> ~chi_1+ ~chi_20)
     5.44979917E-05    2     1000024   1000025   # BR(H+ -> ~chi_1+ ~chi_30)
