#
#                              ======================
#                              | THE SUSYHIT OUTPUT |
#                              ======================
#
#
#              ------------------------------------------------------
#              |     This is the output of the SUSY-HIT package     |
#              |  created by A.Djouadi, M.Muehlleitner and M.Spira. |
#              |  In case of problems with SUSY-HIT email to        |
#              |           margarete.muehlleitner@cern.ch           |
#              |           michael.spira@psi.ch                     |
#              |           abdelhak.djouadi@cern.ch                 |
#              ------------------------------------------------------
#
#              ------------------------------------------------------
#              |  SUSY Les Houches Accord - MSSM Spectrum + Decays  |
#              |              based on the decay programs           |
#              |                                                    |
#              |                     SDECAY 1.3b                    |
#              |                                                    |
#              |  Authors: M.Muhlleitner, A.Djouadi and Y.Mambrini  |
#              |  Ref.:    Comput.Phys.Commun.168(2005)46           |
#              |           [hep-ph/0311167]                         |
#              |                                                    |
#              |                     HDECAY 3.4                     |
#              |                                                    |
#              |  By: A.Djouadi,J.Kalinowski,M.Muhlleitner,M.Spira  |
#              |  Ref.:    Comput.Phys.Commun.108(1998)56           |
#              |           [hep-ph/9704448]                         |
#              |                                                    |
#              |                                                    |
#              |  If not stated otherwise all DRbar couplings and   |
#              |  soft SUSY breaking masses are given at the scale  |
#              |  Q=  0.50007503E+04
#              |                                                    |
#              ------------------------------------------------------
#
#
BLOCK DCINFO  # Decay Program information
     1   SDECAY/HDECAY # decay calculator
     2   1.3b  /3.4    # version number
#
BLOCK SPINFO  # Spectrum calculator information
     1    SOFTSUSY    # spectrum calculator                
     2    3.4.0       # version number                     
#
BLOCK MODSEL  # Model selection
     1     0   #  nonUniversal                                     
#
BLOCK SMINPUTS  # Standard Model inputs
         1     1.25778332E+02   # alpha_em^-1(M_Z)^MSbar
         2     1.16570000E-05   # G_F [GeV^-2]
         3     1.17200002E-01   # alpha_S(M_Z)^MSbar
         4     9.11876000E+01   # M_Z pole mass
         5     4.25000000E+00   # mb(mb)^MSbar
         6     1.72500000E+02   # mt pole mass
         7     1.77682000E+00   # mtau pole mass
#
BLOCK MINPAR  # Input parameters - minimal models
         3     1.00000000E+01   # tanb                
#
BLOCK EXTPAR  # Input parameters - non-minimal models
         0    -1.00000000E+00   # Set                 
         1     6.00000000E+01   # M_1(MX)             
         2     3.00000000E+03   # M_2(MX)             
         3     2.04381500E+03   # M_3(MX)             
        11     5.00000000E+03   # At(MX)              
        12     5.00000000E+03   # Ab(MX)              
        13     0.00000000E+00   # Atau(MX)            
        23    -7.64808000E+02   # mu(MX)              
        26     3.00000000E+03   # mA(pole)            
        31     5.00000000E+03   # meL(MX)             
        32     5.00000000E+03   # mmuL(MX)            
        33     5.00000000E+03   # mtauL(MX)           
        34     5.00000000E+03   # meR(MX)             
        35     5.00000000E+03   # mmuR(MX)            
        36     5.00000000E+03   # mtauR(MX)           
        41     5.00000000E+03   # mqL1(MX)            
        42     5.00000000E+03   # mqL2(MX)            
        43     5.00000000E+03   # mqL3(MX)            
        44     5.00000000E+03   # muR(MX)             
        45     5.00000000E+03   # mcR(MX)             
        46     5.00000000E+03   # mtR(MX)             
        47     5.00000000E+03   # mdR(MX)             
        48     5.00000000E+03   # msR(MX)             
        49     5.00000000E+03   # mbR(MX)             
#
BLOCK MASS  # Mass Spectrum
# PDG code           mass       particle
        24     8.00947405E+01   # W+
        25     1.24808846E+02   # h
        35     3.00008294E+03   # H
        36     2.99999760E+03   # A
        37     3.00136077E+03   # H+
         5     4.87878001E+00   # b-quark pole mass calculated from mb(mb)_Msbar
   1000001     5.07810105E+03   # ~d_L
   2000001     5.06030972E+03   # ~d_R
   1000002     5.07762912E+03   # ~u_L
   2000002     5.06001929E+03   # ~u_R
   1000003     5.07810105E+03   # ~s_L
   2000003     5.06030972E+03   # ~s_R
   1000004     5.07762912E+03   # ~c_L
   2000004     5.06001929E+03   # ~c_R
   1000005     5.02379628E+03   # ~b_1
   2000005     5.05868980E+03   # ~b_2
   1000006     4.91539610E+03   # ~t_1
   2000006     5.06769825E+03   # ~t_2
   1000011     5.01908123E+03   # ~e_L
   2000011     5.00593125E+03   # ~e_R
   1000012     5.01813225E+03   # ~nu_eL
   1000013     5.01908123E+03   # ~mu_L
   2000013     5.00593125E+03   # ~mu_R
   1000014     5.01813225E+03   # ~nu_muL
   1000015     5.00468707E+03   # ~tau_1
   2000015     5.01869694E+03   # ~tau_2
   1000016     5.01758385E+03   # ~nu_tauL
   1000021     2.40000015E+03   # ~g
   1000022     6.02875321E+01   # ~chi_10
   1000023     7.99842590E+02   # ~chi_20
   1000025    -8.02073050E+02   # ~chi_30
   1000035     3.07420880E+03   # ~chi_40
   1000024     8.00000712E+02   # ~chi_1+
   1000037     3.07437630E+03   # ~chi_2+
#
BLOCK NMIX  # Neutralino Mixing Matrix
  1  1     9.98452036E-01   # N_11
  1  2     2.07824338E-04   # N_12
  1  3    -5.55961871E-02   # N_13
  1  4     1.59780289E-03   # N_14
  2  1     3.81981714E-02   # N_21
  2  2     2.14526669E-02   # N_22
  2  3     7.06384803E-01   # N_23
  2  4     7.06470943E-01   # N_24
  3  1    -4.04261985E-02   # N_31
  3  2     1.56879598E-02   # N_32
  3  3    -7.05629490E-01   # N_33
  3  4     7.07252877E-01   # N_34
  4  1    -3.92889489E-04   # N_41
  4  2     9.99646752E-01   # N_42
  4  3    -4.07383563E-03   # N_43
  4  4    -2.62606491E-02   # N_44
#
BLOCK UMIX  # Chargino Mixing Matrix U
  1  1     5.77205979E-03   # U_11
  1  2     9.99983342E-01   # U_12
  2  1    -9.99983342E-01   # U_21
  2  2     5.77205979E-03   # U_22
#
BLOCK VMIX  # Chargino Mixing Matrix V
  1  1     3.71664066E-02   # V_11
  1  2    -9.99309090E-01   # V_12
  2  1    -9.99309090E-01   # V_21
  2  2    -3.71664066E-02   # V_22
#
BLOCK STOPMIX  # Stop Mixing Matrix
  1  1    -5.03987492E-01   # cos(theta_t)
  1  2     8.63710952E-01   # sin(theta_t)
  2  1    -8.63710952E-01   # -sin(theta_t)
  2  2    -5.03987492E-01   # cos(theta_t)
#
BLOCK SBOTMIX  # Sbottom Mixing Matrix
  1  1     9.97869241E-01   # cos(theta_b)
  1  2    -6.52455199E-02   # sin(theta_b)
  2  1     6.52455199E-02   # -sin(theta_b)
  2  2     9.97869241E-01   # cos(theta_b)
#
BLOCK STAUMIX  # Stau Mixing Matrix
  1  1    -9.13591645E-02   # cos(theta_tau)
  1  2     9.95818007E-01   # sin(theta_tau)
  2  1    -9.95818007E-01   # -sin(theta_tau)
  2  2    -9.13591645E-02   # cos(theta_tau)
#
BLOCK ALPHA  # Higgs mixing
          -1.05484949E-01   # Mixing angle in the neutral Higgs boson sector
#
BLOCK HMIX Q=  5.00075032E+03  # DRbar Higgs Parameters
         1    -7.78859521E+02   # mu(Q)MSSM           
         2     9.46903358E+00   # tan                 
         3     2.41811240E+02   # higgs               
         4     8.57813317E+06   # mA^2(Q)MSSM         
#
BLOCK GAUGE Q=  5.00075032E+03  # The gauge couplings
     1     3.70841049E-01   # gprime(Q) DRbar
     2     6.32780081E-01   # g(Q) DRbar
     3     9.95818901E-01   # g3(Q) DRbar
#
BLOCK AU Q=  5.00075032E+03  # The trilinear couplings
  1  1     5.00000002E+03   # A_u(Q) DRbar
  2  2     5.00000002E+03   # A_c(Q) DRbar
  3  3     5.00000002E+03   # A_t(Q) DRbar
#
BLOCK AD Q=  5.00075032E+03  # The trilinear couplings
  1  1     5.00000001E+03   # A_d(Q) DRbar
  2  2     5.00000001E+03   # A_s(Q) DRbar
  3  3     5.00000001E+03   # A_b(Q) DRbar
#
BLOCK AE Q=  5.00075032E+03  # The trilinear couplings
  1  1     0.00000000E+00   # A_e(Q) DRbar
  2  2     2.33835965E-07   # A_mu(Q) DRbar
  3  3     2.33708241E-07   # A_tau(Q) DRbar
#
BLOCK Yu Q=  5.00075032E+03  # The Yukawa couplings
  1  1     0.00000000E+00   # y_u(Q) DRbar
  2  2     0.00000000E+00   # y_c(Q) DRbar
  3  3     8.20997011E-01   # y_t(Q) DRbar
#
BLOCK Yd Q=  5.00075032E+03  # The Yukawa couplings
  1  1     0.00000000E+00   # y_d(Q) DRbar
  2  2     0.00000000E+00   # y_s(Q) DRbar
  3  3     1.30655513E-01   # y_b(Q) DRbar
#
BLOCK Ye Q=  5.00075032E+03  # The Yukawa couplings
  1  1     0.00000000E+00   # y_e(Q) DRbar
  2  2     0.00000000E+00   # y_mu(Q) DRbar
  3  3     9.69561118E-02   # y_tau(Q) DRbar
#
BLOCK MSOFT Q=  5.00075032E+03  # The soft SUSY breaking masses at the scale Q
         1     6.00000000E+01   # M_1(Q)              
         2     3.00000000E+03   # M_2(Q)              
         3     2.04381500E+03   # M_3(Q)              
        21     8.10278715E+06   # mH1^2(Q)            
        22    -3.55774705E+04   # mH2^2(Q)            
        31     5.00000000E+03   # meL(Q)              
        32     5.00000000E+03   # mmuL(Q)             
        33     5.00000000E+03   # mtauL(Q)            
        34     5.00000000E+03   # meR(Q)              
        35     5.00000000E+03   # mmuR(Q)             
        36     5.00000000E+03   # mtauR(Q)            
        41     5.00000000E+03   # mqL1(Q)             
        42     5.00000000E+03   # mqL2(Q)             
        43     4.99999999E+03   # mqL3(Q)             
        44     5.00000000E+03   # muR(Q)              
        45     5.00000000E+03   # mcR(Q)              
        46     4.99999999E+03   # mtR(Q)              
        47     5.00000000E+03   # mdR(Q)              
        48     5.00000000E+03   # msR(Q)              
        49     5.00000000E+03   # mbR(Q)              
#
#
#
#                             =================
#                             |The decay table|
#                             =================
#
# - The QCD corrections to the decays gluino -> squark  + quark
#                                     squark -> gaugino + quark_prime
#                                     squark -> squark_prime + Higgs
#                                     squark -> gluino  + quark
#   are included.
#
# - The multi-body decays for the inos, stops and sbottoms are included.
#
# - The loop induced decays for the gluino, neutralinos and stops
#   are included.
#
# - The SUSY decays of the top quark are included.
#
#
#         PDG            Width
DECAY         6     1.40318606E+00   # top decays
#          BR         NDA      ID1       ID2
     1.00000000E+00    2           5        24   # BR(t ->  b    W+)
#
#         PDG            Width
DECAY   1000021     3.75229660E-03   # gluino decays
#          BR         NDA      ID1       ID2
     1.36371292E-06    2     1000022        21   # BR(~g -> ~chi_10 g)
     5.57565221E-03    2     1000023        21   # BR(~g -> ~chi_20 g)
     5.46397677E-03    2     1000025        21   # BR(~g -> ~chi_30 g)
#           BR         NDA      ID1       ID2       ID3
     1.61965608E-02    3     1000022         1        -1   # BR(~g -> ~chi_10 d  db)
     2.19484146E-05    3     1000023         1        -1   # BR(~g -> ~chi_20 d  db)
     1.91168343E-05    3     1000025         1        -1   # BR(~g -> ~chi_30 d  db)
     5.52329368E-02    3     1000022         2        -2   # BR(~g -> ~chi_10 u  ub)
     9.05860084E-05    3     1000023         2        -2   # BR(~g -> ~chi_20 u  ub)
     2.53788772E-05    3     1000025         2        -2   # BR(~g -> ~chi_30 u  ub)
     1.61965608E-02    3     1000022         3        -3   # BR(~g -> ~chi_10 s  sb)
     2.19484146E-05    3     1000023         3        -3   # BR(~g -> ~chi_20 s  sb)
     1.91168343E-05    3     1000025         3        -3   # BR(~g -> ~chi_30 s  sb)
     5.52329368E-02    3     1000022         4        -4   # BR(~g -> ~chi_10 c  cb)
     9.05860084E-05    3     1000023         4        -4   # BR(~g -> ~chi_20 c  cb)
     2.53788772E-05    3     1000025         4        -4   # BR(~g -> ~chi_30 c  cb)
     1.64607083E-02    3     1000022         5        -5   # BR(~g -> ~chi_10 b  bb)
     5.01193093E-03    3     1000023         5        -5   # BR(~g -> ~chi_20 b  bb)
     4.96910891E-03    3     1000025         5        -5   # BR(~g -> ~chi_30 b  bb)
     5.58631009E-02    3     1000022         6        -6   # BR(~g -> ~chi_10 t  tb)
     1.90547273E-01    3     1000023         6        -6   # BR(~g -> ~chi_20 t  tb)
     1.76334804E-01    3     1000025         6        -6   # BR(~g -> ~chi_30 t  tb)
     5.96432147E-05    3     1000024         1        -2   # BR(~g -> ~chi_1+ d  ub)
     5.96432147E-05    3    -1000024         2        -1   # BR(~g -> ~chi_1- u  db)
     5.96432147E-05    3     1000024         3        -4   # BR(~g -> ~chi_1+ s  cb)
     5.96432147E-05    3    -1000024         4        -3   # BR(~g -> ~chi_1- c  sb)
     1.98180227E-01    3     1000024         5        -6   # BR(~g -> ~chi_1+ b  tb)
     1.98180227E-01    3    -1000024         6        -5   # BR(~g -> ~chi_1- t  bb)
#
#         PDG            Width
DECAY   1000006     3.07533339E+02   # stop1 decays
#          BR         NDA      ID1       ID2
     2.88752446E-02    2     1000022         6   # BR(~t_1 -> ~chi_10 t )
     1.02307187E-01    2     1000023         6   # BR(~t_1 -> ~chi_20 t )
     9.80510141E-02    2     1000025         6   # BR(~t_1 -> ~chi_30 t )
     6.61486286E-03    2     1000035         6   # BR(~t_1 -> ~chi_40 t )
     1.49887101E-01    2     1000024         5   # BR(~t_1 -> ~chi_1+ b )
     1.31828477E-02    2     1000037         5   # BR(~t_1 -> ~chi_2+ b )
     6.01081742E-01    2     1000021         6   # BR(~t_1 -> ~g      t )
#
#         PDG            Width
DECAY   2000006     3.15261623E+02   # stop2 decays
#          BR         NDA      ID1       ID2
     1.08684331E-02    2     1000022         6   # BR(~t_2 -> ~chi_10 t )
     1.01620929E-01    2     1000023         6   # BR(~t_2 -> ~chi_20 t )
     1.06225597E-01    2     1000025         6   # BR(~t_2 -> ~chi_30 t )
     1.78588016E-02    2     1000035         6   # BR(~t_2 -> ~chi_40 t )
     5.92175234E-02    2     1000024         5   # BR(~t_2 -> ~chi_1+ b )
     3.55460804E-02    2     1000037         5   # BR(~t_2 -> ~chi_2+ b )
     6.64814323E-01    2     1000021         6   # BR(~t_2 -> ~g      t )
     8.85038963E-04    2     1000006        25   # BR(~t_2 -> ~t_1    h )
     2.96327400E-03    2     1000006        23   # BR(~t_2 -> ~t_1    Z )
#
#         PDG            Width
DECAY   1000005     2.89850124E+02   # sbottom1 decays
#          BR         NDA      ID1       ID2
     2.65875412E-03    2     1000022         5   # BR(~b_1 -> ~chi_10 b )
     2.80639649E-03    2     1000023         5   # BR(~b_1 -> ~chi_20 b )
     2.75857233E-03    2     1000025         5   # BR(~b_1 -> ~chi_30 b )
     2.61799043E-02    2     1000035         5   # BR(~b_1 -> ~chi_40 b )
     2.19820253E-01    2    -1000024         6   # BR(~b_1 -> ~chi_1- t )
     5.25818795E-02    2    -1000037         6   # BR(~b_1 -> ~chi_2- t )
     6.91313296E-01    2     1000021         5   # BR(~b_1 -> ~g      b )
     1.88094445E-03    2     1000006       -24   # BR(~b_1 -> ~t_1    W-)
#
#         PDG            Width
DECAY   2000005     2.09772175E+02   # sbottom2 decays
#          BR         NDA      ID1       ID2
     1.39881126E-02    2     1000022         5   # BR(~b_2 -> ~chi_10 b )
     3.91499199E-03    2     1000023         5   # BR(~b_2 -> ~chi_20 b )
     3.99685532E-03    2     1000025         5   # BR(~b_2 -> ~chi_30 b )
     1.50036647E-04    2     1000035         5   # BR(~b_2 -> ~chi_40 b )
     8.98744407E-03    2    -1000024         6   # BR(~b_2 -> ~chi_1- t )
     3.01337059E-04    2    -1000037         6   # BR(~b_2 -> ~chi_2- t )
     9.68613936E-01    2     1000021         5   # BR(~b_2 -> ~g      b )
     4.72867461E-05    2     1000006       -24   # BR(~b_2 -> ~t_1    W-)
#
#         PDG            Width
DECAY   1000002     2.29212442E+02   # sup_L decays
#          BR         NDA      ID1       ID2
     3.24883522E-03    2     1000022         2   # BR(~u_L -> ~chi_10 u)
     6.78954264E-05    2     1000023         2   # BR(~u_L -> ~chi_20 u)
     4.92758901E-06    2     1000025         2   # BR(~u_L -> ~chi_30 u)
     3.44336624E-02    2     1000035         2   # BR(~u_L -> ~chi_40 u)
     2.24350020E-04    2     1000024         1   # BR(~u_L -> ~chi_1+ d)
     6.88227674E-02    2     1000037         1   # BR(~u_L -> ~chi_2+ d)
     8.93197562E-01    2     1000021         2   # BR(~u_L -> ~g      u)
#
#         PDG            Width
DECAY   2000002     2.15086790E+02   # sup_R decays
#          BR         NDA      ID1       ID2
     5.50822456E-02    2     1000022         2   # BR(~u_R -> ~chi_10 u)
     7.68030409E-05    2     1000023         2   # BR(~u_R -> ~chi_20 u)
     8.59996345E-05    2     1000025         2   # BR(~u_R -> ~chi_30 u)
     3.42193386E-09    2     1000035         2   # BR(~u_R -> ~chi_40 u)
     9.44754948E-01    2     1000021         2   # BR(~u_R -> ~g      u)
#
#         PDG            Width
DECAY   1000001     2.29228376E+02   # sdown_L decays
#          BR         NDA      ID1       ID2
     3.23509916E-03    2     1000022         1   # BR(~d_L -> ~chi_10 d)
     1.58962272E-05    2     1000023         1   # BR(~d_L -> ~chi_20 d)
     4.51623768E-05    2     1000025         1   # BR(~d_L -> ~chi_30 d)
     3.44524083E-02    2     1000035         1   # BR(~d_L -> ~chi_40 d)
     5.41129742E-06    2    -1000024         2   # BR(~d_L -> ~chi_1- u)
     6.89320181E-02    2    -1000037         2   # BR(~d_L -> ~chi_2- u)
     8.93314005E-01    2     1000021         1   # BR(~d_L -> ~g      d)
#
#         PDG            Width
DECAY   2000001     2.06200308E+02   # sdown_R decays
#          BR         NDA      ID1       ID2
     1.43648615E-02    2     1000022         1   # BR(~d_R -> ~chi_10 d)
     2.00295252E-05    2     1000023         1   # BR(~d_R -> ~chi_20 d)
     2.24279128E-05    2     1000025         1   # BR(~d_R -> ~chi_30 d)
     8.92521994E-10    2     1000035         1   # BR(~d_R -> ~chi_40 d)
     9.85592680E-01    2     1000021         1   # BR(~d_R -> ~g      d)
#
#         PDG            Width
DECAY   1000004     2.29212442E+02   # scharm_L decays
#          BR         NDA      ID1       ID2
     3.24883522E-03    2     1000022         4   # BR(~c_L -> ~chi_10 c)
     6.78954264E-05    2     1000023         4   # BR(~c_L -> ~chi_20 c)
     4.92758901E-06    2     1000025         4   # BR(~c_L -> ~chi_30 c)
     3.44336624E-02    2     1000035         4   # BR(~c_L -> ~chi_40 c)
     2.24350020E-04    2     1000024         3   # BR(~c_L -> ~chi_1+ s)
     6.88227674E-02    2     1000037         3   # BR(~c_L -> ~chi_2+ s)
     8.93197562E-01    2     1000021         4   # BR(~c_L -> ~g      c)
#
#         PDG            Width
DECAY   2000004     2.15086790E+02   # scharm_R decays
#          BR         NDA      ID1       ID2
     5.50822456E-02    2     1000022         4   # BR(~c_R -> ~chi_10 c)
     7.68030409E-05    2     1000023         4   # BR(~c_R -> ~chi_20 c)
     8.59996345E-05    2     1000025         4   # BR(~c_R -> ~chi_30 c)
     3.42193386E-09    2     1000035         4   # BR(~c_R -> ~chi_40 c)
     9.44754948E-01    2     1000021         4   # BR(~c_R -> ~g      c)
#
#         PDG            Width
DECAY   1000003     2.29228376E+02   # sstrange_L decays
#          BR         NDA      ID1       ID2
     3.23509916E-03    2     1000022         3   # BR(~s_L -> ~chi_10 s)
     1.58962272E-05    2     1000023         3   # BR(~s_L -> ~chi_20 s)
     4.51623768E-05    2     1000025         3   # BR(~s_L -> ~chi_30 s)
     3.44524083E-02    2     1000035         3   # BR(~s_L -> ~chi_40 s)
     5.41129742E-06    2    -1000024         4   # BR(~s_L -> ~chi_1- c)
     6.89320181E-02    2    -1000037         4   # BR(~s_L -> ~chi_2- c)
     8.93314005E-01    2     1000021         3   # BR(~s_L -> ~g      s)
#
#         PDG            Width
DECAY   2000003     2.06200308E+02   # sstrange_R decays
#          BR         NDA      ID1       ID2
     1.43648615E-02    2     1000022         3   # BR(~s_R -> ~chi_10 s)
     2.00295252E-05    2     1000023         3   # BR(~s_R -> ~chi_20 s)
     2.24279128E-05    2     1000025         3   # BR(~s_R -> ~chi_30 s)
     8.92521994E-10    2     1000035         3   # BR(~s_R -> ~chi_40 s)
     9.85592680E-01    2     1000021         3   # BR(~s_R -> ~g      s)
#
#         PDG            Width
DECAY   1000011     3.02894934E+01   # selectron_L decays
#          BR         NDA      ID1       ID2
     2.26071331E-01    2     1000022        11   # BR(~e_L -> ~chi_10 e-)
     1.20478725E-03    2     1000023        11   # BR(~e_L -> ~chi_20 e-)
     4.01480159E-05    2     1000025        11   # BR(~e_L -> ~chi_30 e-)
     2.57375108E-01    2     1000035        11   # BR(~e_L -> ~chi_40 e-)
     4.17712312E-05    2    -1000024        12   # BR(~e_L -> ~chi_1- nu_e)
     5.15266854E-01    2    -1000037        12   # BR(~e_L -> ~chi_2- nu_e)
#
#         PDG            Width
DECAY   2000011     2.73795964E+01   # selectron_R decays
#          BR         NDA      ID1       ID2
     9.97061635E-01    2     1000022        11   # BR(~e_R -> ~chi_10 e-)
     1.38616930E-03    2     1000023        11   # BR(~e_R -> ~chi_20 e-)
     1.55213625E-03    2     1000025        11   # BR(~e_R -> ~chi_30 e-)
     5.99131437E-08    2     1000035        11   # BR(~e_R -> ~chi_40 e-)
#
#         PDG            Width
DECAY   1000013     3.02894934E+01   # smuon_L decays
#          BR         NDA      ID1       ID2
     2.26071331E-01    2     1000022        13   # BR(~mu_L -> ~chi_10 mu-)
     1.20478725E-03    2     1000023        13   # BR(~mu_L -> ~chi_20 mu-)
     4.01480159E-05    2     1000025        13   # BR(~mu_L -> ~chi_30 mu-)
     2.57375108E-01    2     1000035        13   # BR(~mu_L -> ~chi_40 mu-)
     4.17712312E-05    2    -1000024        14   # BR(~mu_L -> ~chi_1- nu_mu)
     5.15266854E-01    2    -1000037        14   # BR(~mu_L -> ~chi_2- nu_mu)
#
#         PDG            Width
DECAY   2000013     2.73795964E+01   # smuon_R decays
#          BR         NDA      ID1       ID2
     9.97061635E-01    2     1000022        13   # BR(~mu_R -> ~chi_10 mu-)
     1.38616930E-03    2     1000023        13   # BR(~mu_R -> ~chi_20 mu-)
     1.55213625E-03    2     1000025        13   # BR(~mu_R -> ~chi_30 mu-)
     5.99131437E-08    2     1000035        13   # BR(~mu_R -> ~chi_40 mu-)
#
#         PDG            Width
DECAY   1000015     2.91717981E+01   # stau_1 decays
#          BR         NDA      ID1       ID2
     9.30692370E-01    2     1000022        15   # BR(~tau_1 -> ~chi_10  tau-)
     1.64846940E-02    2     1000023        15   # BR(~tau_1 -> ~chi_20  tau-)
     1.58998183E-02    2     1000025        15   # BR(~tau_1 -> ~chi_30  tau-)
     2.16645520E-03    2     1000035        15   # BR(~tau_1 -> ~chi_40  tau-)
     3.04196164E-02    2    -1000024        16   # BR(~tau_1 -> ~chi_1-  nu_tau)
     4.33704563E-03    2    -1000037        16   # BR(~tau_1 -> ~chi_2-  nu_tau)
#
#         PDG            Width
DECAY   2000015     3.11515217E+01   # stau_2 decays
#          BR         NDA      ID1       ID2
     2.24568190E-01    2     1000022        15   # BR(~tau_2 -> ~chi_10  tau-)
     1.54682617E-02    2     1000023        15   # BR(~tau_2 -> ~chi_20  tau-)
     1.49631462E-02    2     1000025        15   # BR(~tau_2 -> ~chi_30  tau-)
     2.48139571E-01    2     1000035        15   # BR(~tau_2 -> ~chi_40  tau-)
     8.29683071E-05    2    -1000024        16   # BR(~tau_2 -> ~chi_1-  nu_tau)
     4.96777863E-01    2    -1000037        16   # BR(~tau_2 -> ~chi_2-  nu_tau)
#
#         PDG            Width
DECAY   1000012     3.02925019E+01   # snu_eL decays
#          BR         NDA      ID1       ID2
     2.25685261E-01    2     1000022        12   # BR(~nu_eL -> ~chi_10 nu_e)
     5.45991229E-07    2     1000023        12   # BR(~nu_eL -> ~chi_20 nu_e)
     9.71583761E-04    2     1000025        12   # BR(~nu_eL -> ~chi_30 nu_e)
     2.57421093E-01    2     1000035        12   # BR(~nu_eL -> ~chi_40 nu_e)
     1.73134238E-03    2     1000024        11   # BR(~nu_eL -> ~chi_1+ e-)
     5.14190174E-01    2     1000037        11   # BR(~nu_eL -> ~chi_2+ e-)
#
#         PDG            Width
DECAY   1000014     3.02925019E+01   # snu_muL decays
#          BR         NDA      ID1       ID2
     2.25685261E-01    2     1000022        14   # BR(~nu_muL -> ~chi_10 nu_mu)
     5.45991229E-07    2     1000023        14   # BR(~nu_muL -> ~chi_20 nu_mu)
     9.71583761E-04    2     1000025        14   # BR(~nu_muL -> ~chi_30 nu_mu)
     2.57421093E-01    2     1000035        14   # BR(~nu_muL -> ~chi_40 nu_mu)
     1.73134238E-03    2     1000024        13   # BR(~nu_muL -> ~chi_1+ mu-)
     5.14190174E-01    2     1000037        13   # BR(~nu_muL -> ~chi_2+ mu-)
#
#         PDG            Width
DECAY   1000016     3.11743242E+01   # snu_tauL decays
#          BR         NDA      ID1       ID2
     2.19277364E-01    2     1000022        16   # BR(~nu_tauL -> ~chi_10 nu_tau)
     5.30482851E-07    2     1000023        16   # BR(~nu_tauL -> ~chi_20 nu_tau)
     9.43986758E-04    2     1000025        16   # BR(~nu_tauL -> ~chi_30 nu_tau)
     2.50046444E-01    2     1000035        16   # BR(~nu_tauL -> ~chi_40 nu_tau)
     3.02726880E-02    2     1000024        15   # BR(~nu_tauL -> ~chi_1+ tau-)
     4.99458987E-01    2     1000037        15   # BR(~nu_tauL -> ~chi_2+ tau-)
#
#         PDG            Width
DECAY   1000024     4.83294175E-01   # chargino1+ decays
#          BR         NDA      ID1       ID2
     1.00000000E+00    2     1000022        24   # BR(~chi_1+ -> ~chi_10  W+)
#
#         PDG            Width
DECAY   1000037     2.11124799E+01   # chargino2+ decays
#          BR         NDA      ID1       ID2
     2.53358134E-01    2     1000024        23   # BR(~chi_2+ -> ~chi_1+  Z )
     1.84738231E-04    2     1000022        24   # BR(~chi_2+ -> ~chi_10  W+)
     2.44402692E-01    2     1000023        24   # BR(~chi_2+ -> ~chi_20  W+)
     2.44218983E-01    2     1000025        24   # BR(~chi_2+ -> ~chi_30  W+)
     2.57833530E-01    2     1000024        25   # BR(~chi_2+ -> ~chi_1+  h )
     1.92306233E-06    2     1000022        37   # BR(~chi_2+ -> ~chi_10  H+)
#
#         PDG            Width
DECAY   1000022     0.00000000E+00   # neutralino1 decays
#
#         PDG            Width
DECAY   1000023     5.01684624E-01   # neutralino2 decays
#          BR         NDA      ID1       ID2
     5.29409731E-01    2     1000022        23   # BR(~chi_20 -> ~chi_10   Z )
     4.70590269E-01    2     1000022        25   # BR(~chi_20 -> ~chi_10   h )
#
#         PDG            Width
DECAY   1000025     5.01479669E-01   # neutralino3 decays
#          BR         NDA      ID1       ID2
     4.69497813E-01    2     1000022        23   # BR(~chi_30 -> ~chi_10   Z )
     5.30502187E-01    2     1000022        25   # BR(~chi_30 -> ~chi_10   h )
#
#         PDG            Width
DECAY   1000035     2.11282355E+01   # neutralino4 decays
#          BR         NDA      ID1       ID2
     3.18515659E-05    2     1000022        23   # BR(~chi_40 -> ~chi_10   Z )
     8.82313478E-02    2     1000023        23   # BR(~chi_40 -> ~chi_20   Z )
     1.64466676E-01    2     1000025        23   # BR(~chi_40 -> ~chi_30   Z )
     2.44939723E-01    2     1000024       -24   # BR(~chi_40 -> ~chi_1+   W-)
     2.44939723E-01    2    -1000024        24   # BR(~chi_40 -> ~chi_1-   W+)
     1.51495821E-04    2     1000022        25   # BR(~chi_40 -> ~chi_10   h )
     1.83166511E-06    2     1000022        35   # BR(~chi_40 -> ~chi_10   H )
     2.13596641E-07    2     1000022        36   # BR(~chi_40 -> ~chi_10   A )
     1.68739685E-01    2     1000023        25   # BR(~chi_40 -> ~chi_20   h )
     8.84974524E-02    2     1000025        25   # BR(~chi_40 -> ~chi_30   h )
#
#         PDG            Width
DECAY        25     4.06417929E-03   # h decays
#          BR         NDA      ID1       ID2
     6.07759227E-01    2           5        -5   # BR(h -> b       bb     )
     6.38396829E-02    2         -15        15   # BR(h -> tau+    tau-   )
     2.26015533E-04    2         -13        13   # BR(h -> mu+     mu-    )
     4.79112811E-04    2           3        -3   # BR(h -> s       sb     )
     2.07600355E-02    2           4        -4   # BR(h -> c       cb     )
     6.71948704E-02    2          21        21   # BR(h -> g       g      )
     2.31088053E-03    2          22        22   # BR(h -> gam     gam    )
     1.49314832E-03    2          22        23   # BR(h -> Z       gam    )
     2.10738460E-01    2          24       -24   # BR(h -> W+      W-     )
     2.51258187E-02    2          23        23   # BR(h -> Z       Z      )
     7.27476994E-05    2     1000022   1000022   # BR(h -> ~chi_10 ~chi_10)
#
#         PDG            Width
DECAY        35     8.36779008E+00   # H decays
#          BR         NDA      ID1       ID2
     3.84125979E-01    2           5        -5   # BR(H -> b       bb     )
     6.65667130E-02    2         -15        15   # BR(H -> tau+    tau-   )
     2.35385185E-04    2         -13        13   # BR(H -> mu+     mu-    )
     2.88546130E-04    2           3        -3   # BR(H -> s       sb     )
     1.61465140E-06    2           4        -4   # BR(H -> c       cb     )
     1.61316464E-01    2           6        -6   # BR(H -> t       tb     )
     5.36265670E-05    2          21        21   # BR(H -> g       g      )
     2.09649507E-07    2          22        22   # BR(H -> gam     gam    )
     9.52416644E-08    2          23        22   # BR(H -> Z       gam    )
     7.54377453E-05    2          24       -24   # BR(H -> W+      W-     )
     3.76711283E-05    2          23        23   # BR(H -> Z       Z      )
     2.77124639E-04    2          25        25   # BR(H -> h       h      )
    -4.50894833E-23    2          36        36   # BR(H -> A       A      )
     9.94379527E-19    2          23        36   # BR(H -> Z       A      )
     2.57752749E-03    2     1000024  -1000024   # BR(H -> ~chi_1+ ~chi_1-)
     2.69799482E-03    2     1000022   1000022   # BR(H -> ~chi_10 ~chi_10)
     4.86779770E-07    2     1000023   1000023   # BR(H -> ~chi_20 ~chi_20)
     1.01753081E-03    2     1000025   1000025   # BR(H -> ~chi_30 ~chi_30)
     2.28935819E-01    2     1000022   1000023   # BR(H -> ~chi_10 ~chi_20)
     1.50729233E-01    2     1000022   1000025   # BR(H -> ~chi_10 ~chi_30)
     1.06254102E-03    2     1000023   1000025   # BR(H -> ~chi_20 ~chi_30)
#
#         PDG            Width
DECAY        36     8.37971223E+00   # A decays
#          BR         NDA      ID1       ID2
     3.83709501E-01    2           5        -5   # BR(A -> b       bb     )
     6.64739696E-02    2         -15        15   # BR(A -> tau+    tau-   )
     2.35056908E-04    2         -13        13   # BR(A -> mu+     mu-    )
     2.88354369E-04    2           3        -3   # BR(A -> s       sb     )
     1.61889401E-06    2           4        -4   # BR(A -> c       cb     )
     1.61651094E-01    2           6        -6   # BR(A -> t       tb     )
     1.59957507E-04    2          21        21   # BR(A -> g       g      )
     5.96186558E-07    2          22        22   # BR(A -> gam     gam    )
     1.93706501E-07    2          23        22   # BR(A -> Z       gam    )
     7.50452154E-05    2          23        25   # BR(A -> Z       h      )
     3.36843937E-03    2     1000024  -1000024   # BR(A -> ~chi_1+ ~chi_1-)
     2.73159527E-03    2     1000022   1000022   # BR(A -> ~chi_10 ~chi_10)
     4.44242431E-07    2     1000023   1000023   # BR(A -> ~chi_20 ~chi_20)
     2.17779061E-03    2     1000025   1000025   # BR(A -> ~chi_30 ~chi_30)
     1.53026218E-01    2     1000022   1000023   # BR(A -> ~chi_10 ~chi_20)
     2.25611570E-01    2     1000022   1000025   # BR(A -> ~chi_10 ~chi_30)
     4.88555236E-04    2     1000023   1000025   # BR(A -> ~chi_20 ~chi_30)
#
#         PDG            Width
DECAY        37     8.34040766E+00   # H+ decays
#          BR         NDA      ID1       ID2
     6.17586982E-04    2           4        -5   # BR(H+ -> c       bb     )
     6.68175788E-02    2         -15        16   # BR(H+ -> tau+    nu_tau )
     2.36271936E-04    2         -13        14   # BR(H+ -> mu+     nu_mu  )
     3.95253615E-06    2           2        -5   # BR(H+ -> u       bb     )
     1.38636532E-05    2           2        -3   # BR(H+ -> u       sb     )
     2.86701735E-04    2           4        -3   # BR(H+ -> c       sb     )
     5.45036923E-01    2           6        -5   # BR(H+ -> t       bb     )
     7.55503254E-05    2          24        25   # BR(H+ -> W+      h      )
     7.41622827E-13    2          24        36   # BR(H+ -> W+      A      )
     3.85447978E-01    2     1000024   1000022   # BR(H+ -> ~chi_1+ ~chi_10)
     1.43944665E-03    2     1000024   1000023   # BR(H+ -> ~chi_1+ ~chi_20)
     2.41471401E-05    2     1000024   1000025   # BR(H+ -> ~chi_1+ ~chi_30)
