#
#                              ======================
#                              | THE SUSYHIT OUTPUT |
#                              ======================
#
#
#              ------------------------------------------------------
#              |     This is the output of the SUSY-HIT package     |
#              |  created by A.Djouadi, M.Muehlleitner and M.Spira. |
#              |  In case of problems with SUSY-HIT email to        |
#              |           margarete.muehlleitner@cern.ch           |
#              |           michael.spira@psi.ch                     |
#              |           abdelhak.djouadi@cern.ch                 |
#              ------------------------------------------------------
#
#              ------------------------------------------------------
#              |  SUSY Les Houches Accord - MSSM Spectrum + Decays  |
#              |              based on the decay programs           |
#              |                                                    |
#              |                     SDECAY 1.3b                    |
#              |                                                    |
#              |  Authors: M.Muhlleitner, A.Djouadi and Y.Mambrini  |
#              |  Ref.:    Comput.Phys.Commun.168(2005)46           |
#              |           [hep-ph/0311167]                         |
#              |                                                    |
#              |                     HDECAY 3.4                     |
#              |                                                    |
#              |  By: A.Djouadi,J.Kalinowski,M.Muhlleitner,M.Spira  |
#              |  Ref.:    Comput.Phys.Commun.108(1998)56           |
#              |           [hep-ph/9704448]                         |
#              |                                                    |
#              |                                                    |
#              |  If not stated otherwise all DRbar couplings and   |
#              |  soft SUSY breaking masses are given at the scale  |
#              |  Q=  0.50007743E+04
#              |                                                    |
#              ------------------------------------------------------
#
#
BLOCK DCINFO  # Decay Program information
     1   SDECAY/HDECAY # decay calculator
     2   1.3b  /3.4    # version number
#
BLOCK SPINFO  # Spectrum calculator information
     1    SOFTSUSY    # spectrum calculator                
     2    3.4.0       # version number                     
#
BLOCK MODSEL  # Model selection
     1     0   #  nonUniversal                                     
#
BLOCK SMINPUTS  # Standard Model inputs
         1     1.25778332E+02   # alpha_em^-1(M_Z)^MSbar
         2     1.16570000E-05   # G_F [GeV^-2]
         3     1.17200002E-01   # alpha_S(M_Z)^MSbar
         4     9.11876000E+01   # M_Z pole mass
         5     4.25000000E+00   # mb(mb)^MSbar
         6     1.72500000E+02   # mt pole mass
         7     1.77682000E+00   # mtau pole mass
#
BLOCK MINPAR  # Input parameters - minimal models
         3     1.00000000E+01   # tanb                
#
BLOCK EXTPAR  # Input parameters - non-minimal models
         0    -1.00000000E+00   # Set                 
         1     6.00000000E+01   # M_1(MX)             
         2     3.00000000E+03   # M_2(MX)             
         3     1.85477800E+03   # M_3(MX)             
        11     5.00000000E+03   # At(MX)              
        12     5.00000000E+03   # Ab(MX)              
        13     0.00000000E+00   # Atau(MX)            
        23    -1.58717000E+02   # mu(MX)              
        26     3.00000000E+03   # mA(pole)            
        31     5.00000000E+03   # meL(MX)             
        32     5.00000000E+03   # mmuL(MX)            
        33     5.00000000E+03   # mtauL(MX)           
        34     5.00000000E+03   # meR(MX)             
        35     5.00000000E+03   # mmuR(MX)            
        36     5.00000000E+03   # mtauR(MX)           
        41     5.00000000E+03   # mqL1(MX)            
        42     5.00000000E+03   # mqL2(MX)            
        43     5.00000000E+03   # mqL3(MX)            
        44     5.00000000E+03   # muR(MX)             
        45     5.00000000E+03   # mcR(MX)             
        46     5.00000000E+03   # mtR(MX)             
        47     5.00000000E+03   # mdR(MX)             
        48     5.00000000E+03   # msR(MX)             
        49     5.00000000E+03   # mbR(MX)             
#
BLOCK MASS  # Mass Spectrum
# PDG code           mass       particle
        24     8.00907327E+01   # W+
        25     1.24779090E+02   # h
        35     3.00009173E+03   # H
        36     2.99999980E+03   # A
        37     3.00148474E+03   # H+
         5     4.87878001E+00   # b-quark pole mass calculated from mb(mb)_Msbar
   1000001     5.07488020E+03   # ~d_L
   2000001     5.05698128E+03   # ~d_R
   1000002     5.07440520E+03   # ~u_L
   2000002     5.05667022E+03   # ~u_R
   1000003     5.07488020E+03   # ~s_L
   2000003     5.05698128E+03   # ~s_R
   1000004     5.07440520E+03   # ~c_L
   2000004     5.05667022E+03   # ~c_R
   1000005     5.02092027E+03   # ~b_1
   2000005     5.05504579E+03   # ~b_2
   1000006     4.91238623E+03   # ~t_1
   2000006     5.06396682E+03   # ~t_2
   1000011     5.01917396E+03   # ~e_L
   2000011     5.00596240E+03   # ~e_R
   1000012     5.01822079E+03   # ~nu_eL
   1000013     5.01917396E+03   # ~mu_L
   2000013     5.00596240E+03   # ~mu_R
   1000014     5.01822079E+03   # ~nu_muL
   1000015     5.00483742E+03   # ~tau_1
   2000015     5.01863521E+03   # ~tau_2
   1000016     5.01766552E+03   # ~nu_tauL
   1000021     2.20000008E+03   # ~g
   1000022     5.78426056E+01   # ~chi_10
   1000023    -1.75655295E+02   # ~chi_20
   1000025     1.75673229E+02   # ~chi_30
   1000035     3.07434720E+03   # ~chi_40
   1000024     1.70000381E+02   # ~chi_1+
   1000037     3.07451543E+03   # ~chi_2+
#
BLOCK NMIX  # Neutralino Mixing Matrix
  1  1     9.59063852E-01   # N_11
  1  2    -9.56216057E-04   # N_12
  1  3    -2.74937911E-01   # N_13
  1  4    -6.78583709E-02   # N_14
  2  1    -1.47310812E-01   # N_21
  2  2     1.87608098E-02   # N_22
  2  3    -6.89011380E-01   # N_23
  2  4     7.09373579E-01   # N_24
  3  1     2.41859218E-01   # N_31
  3  2     1.69295930E-02   # N_32
  3  3     6.70574935E-01   # N_33
  3  4     7.01103961E-01   # N_34
  4  1    -4.13968119E-04   # N_41
  4  2     9.99680202E-01   # N_42
  4  3     1.31137006E-03   # N_43
  4  4    -2.52507899E-02   # N_44
#
BLOCK UMIX  # Chargino Mixing Matrix U
  1  1    -1.84873052E-03   # U_11
  1  2     9.99998291E-01   # U_12
  2  1    -9.99998291E-01   # U_21
  2  2    -1.84873052E-03   # U_22
#
BLOCK VMIX  # Chargino Mixing Matrix V
  1  1     3.57287860E-02   # V_11
  1  2    -9.99361523E-01   # V_12
  2  1    -9.99361523E-01   # V_21
  2  2    -3.57287860E-02   # V_22
#
BLOCK STOPMIX  # Stop Mixing Matrix
  1  1    -5.01425317E-01   # cos(theta_t)
  1  2     8.65200931E-01   # sin(theta_t)
  2  1    -8.65200931E-01   # -sin(theta_t)
  2  2    -5.01425317E-01   # cos(theta_t)
#
BLOCK SBOTMIX  # Sbottom Mixing Matrix
  1  1     9.99454418E-01   # cos(theta_b)
  1  2    -3.30282658E-02   # sin(theta_b)
  2  1     3.30282658E-02   # -sin(theta_b)
  2  2     9.99454418E-01   # cos(theta_b)
#
BLOCK STAUMIX  # Stau Mixing Matrix
  1  1    -1.87269452E-02   # cos(theta_tau)
  1  2     9.99824635E-01   # sin(theta_tau)
  2  1    -9.99824635E-01   # -sin(theta_tau)
  2  2    -1.87269452E-02   # cos(theta_tau)
#
BLOCK ALPHA  # Higgs mixing
          -1.05498728E-01   # Mixing angle in the neutral Higgs boson sector
#
BLOCK HMIX Q=  5.00077427E+03  # DRbar Higgs Parameters
         1    -1.61610554E+02   # mu(Q)MSSM           
         2     9.46842669E+00   # tan                 
         3     2.41651332E+02   # higgs               
         4     8.80161273E+06   # mA^2(Q)MSSM         
#
BLOCK GAUGE Q=  5.00077427E+03  # The gauge couplings
     1     3.71190302E-01   # gprime(Q) DRbar
     2     6.34533794E-01   # g(Q) DRbar
     3     9.97108411E-01   # g3(Q) DRbar
#
BLOCK AU Q=  5.00077427E+03  # The trilinear couplings
  1  1     5.00000001E+03   # A_u(Q) DRbar
  2  2     5.00000001E+03   # A_c(Q) DRbar
  3  3     5.00000002E+03   # A_t(Q) DRbar
#
BLOCK AD Q=  5.00077427E+03  # The trilinear couplings
  1  1     5.00000001E+03   # A_d(Q) DRbar
  2  2     5.00000001E+03   # A_s(Q) DRbar
  3  3     5.00000001E+03   # A_b(Q) DRbar
#
BLOCK AE Q=  5.00077427E+03  # The trilinear couplings
  1  1     0.00000000E+00   # A_e(Q) DRbar
  2  2     2.00843066E-07   # A_mu(Q) DRbar
  3  3     2.00583468E-07   # A_tau(Q) DRbar
#
BLOCK Yu Q=  5.00077427E+03  # The Yukawa couplings
  1  1     0.00000000E+00   # y_u(Q) DRbar
  2  2     0.00000000E+00   # y_c(Q) DRbar
  3  3     8.21087935E-01   # y_t(Q) DRbar
#
BLOCK Yd Q=  5.00077427E+03  # The Yukawa couplings
  1  1     0.00000000E+00   # y_d(Q) DRbar
  2  2     0.00000000E+00   # y_s(Q) DRbar
  3  3     1.29821464E-01   # y_b(Q) DRbar
#
BLOCK Ye Q=  5.00077427E+03  # The Yukawa couplings
  1  1     0.00000000E+00   # y_e(Q) DRbar
  2  2     0.00000000E+00   # y_mu(Q) DRbar
  3  3     9.73731184E-02   # y_tau(Q) DRbar
#
BLOCK MSOFT Q=  5.00077427E+03  # The soft SUSY breaking masses at the scale Q
         1     6.00000000E+01   # M_1(Q)              
         2     3.00000000E+03   # M_2(Q)              
         3     1.85477800E+03   # M_3(Q)              
        21     8.70882895E+06   # mH1^2(Q)            
        22     5.54378766E+05   # mH2^2(Q)            
        31     5.00000000E+03   # meL(Q)              
        32     5.00000000E+03   # mmuL(Q)             
        33     5.00000000E+03   # mtauL(Q)            
        34     5.00000000E+03   # meR(Q)              
        35     5.00000000E+03   # mmuR(Q)             
        36     5.00000000E+03   # mtauR(Q)            
        41     5.00000000E+03   # mqL1(Q)             
        42     5.00000000E+03   # mqL2(Q)             
        43     4.99999999E+03   # mqL3(Q)             
        44     5.00000000E+03   # muR(Q)              
        45     5.00000000E+03   # mcR(Q)              
        46     4.99999999E+03   # mtR(Q)              
        47     5.00000000E+03   # mdR(Q)              
        48     5.00000000E+03   # msR(Q)              
        49     5.00000000E+03   # mbR(Q)              
#
#
#
#                             =================
#                             |The decay table|
#                             =================
#
# - The QCD corrections to the decays gluino -> squark  + quark
#                                     squark -> gaugino + quark_prime
#                                     squark -> squark_prime + Higgs
#                                     squark -> gluino  + quark
#   are included.
#
# - The multi-body decays for the inos, stops and sbottoms are included.
#
# - The loop induced decays for the gluino, neutralinos and stops
#   are included.
#
# - The SUSY decays of the top quark are included.
#
#
#         PDG            Width
DECAY         6     1.41115083E+00   # top decays
#          BR         NDA      ID1       ID2
     1.00000000E+00    2           5        24   # BR(t ->  b    W+)
#
#         PDG            Width
DECAY   1000021     4.34690901E-03   # gluino decays
#          BR         NDA      ID1       ID2
     3.94992986E-05    2     1000022        21   # BR(~g -> ~chi_10 g)
     4.82756190E-03    2     1000023        21   # BR(~g -> ~chi_20 g)
     4.91849207E-03    2     1000025        21   # BR(~g -> ~chi_30 g)
#           BR         NDA      ID1       ID2       ID3
     8.16853727E-03    3     1000022         1        -1   # BR(~g -> ~chi_10 d  db)
     2.03776865E-04    3     1000023         1        -1   # BR(~g -> ~chi_20 d  db)
     4.76294251E-04    3     1000025         1        -1   # BR(~g -> ~chi_30 d  db)
     2.77678703E-02    3     1000022         2        -2   # BR(~g -> ~chi_10 u  ub)
     4.91033460E-04    3     1000023         2        -2   # BR(~g -> ~chi_20 u  ub)
     1.92735263E-03    3     1000025         2        -2   # BR(~g -> ~chi_30 u  ub)
     8.16853727E-03    3     1000022         3        -3   # BR(~g -> ~chi_10 s  sb)
     2.03776865E-04    3     1000023         3        -3   # BR(~g -> ~chi_20 s  sb)
     4.76294251E-04    3     1000025         3        -3   # BR(~g -> ~chi_30 s  sb)
     2.77678703E-02    3     1000022         4        -4   # BR(~g -> ~chi_10 c  cb)
     4.91033460E-04    3     1000023         4        -4   # BR(~g -> ~chi_20 c  cb)
     1.92735263E-03    3     1000025         4        -4   # BR(~g -> ~chi_30 c  cb)
     9.17767803E-03    3     1000022         5        -5   # BR(~g -> ~chi_10 b  bb)
     5.36080762E-03    3     1000023         5        -5   # BR(~g -> ~chi_20 b  bb)
     5.35033710E-03    3     1000025         5        -5   # BR(~g -> ~chi_30 b  bb)
     2.63460532E-02    3     1000022         6        -6   # BR(~g -> ~chi_10 t  tb)
     2.03864718E-01    3     1000023         6        -6   # BR(~g -> ~chi_20 t  tb)
     2.16682043E-01    3     1000025         6        -6   # BR(~g -> ~chi_30 t  tb)
     5.33401996E-05    3     1000024         1        -2   # BR(~g -> ~chi_1+ d  ub)
     5.33401996E-05    3    -1000024         2        -1   # BR(~g -> ~chi_1- u  db)
     5.33401996E-05    3     1000024         3        -4   # BR(~g -> ~chi_1+ s  cb)
     5.33401996E-05    3    -1000024         4        -3   # BR(~g -> ~chi_1- c  sb)
     2.22574859E-01    3     1000024         5        -6   # BR(~g -> ~chi_1+ b  tb)
     2.22574859E-01    3    -1000024         6        -5   # BR(~g -> ~chi_1- t  bb)
#
#         PDG            Width
DECAY   1000006     3.32857721E+02   # stop1 decays
#          BR         NDA      ID1       ID2
     2.20769249E-02    2     1000022         6   # BR(~t_1 -> ~chi_10 t )
     9.31455725E-02    2     1000023         6   # BR(~t_1 -> ~chi_20 t )
     1.06960424E-01    2     1000025         6   # BR(~t_1 -> ~chi_30 t )
     6.05523256E-03    2     1000035         6   # BR(~t_1 -> ~chi_40 t )
     1.46590495E-01    2     1000024         5   # BR(~t_1 -> ~chi_1+ b )
     1.20720511E-02    2     1000037         5   # BR(~t_1 -> ~chi_2+ b )
     6.13099300E-01    2     1000021         6   # BR(~t_1 -> ~g      t )
#
#         PDG            Width
DECAY   2000006     3.37559456E+02   # stop2 decays
#          BR         NDA      ID1       ID2
     1.38653373E-02    2     1000022         6   # BR(~t_2 -> ~chi_10 t )
     1.08707968E-01    2     1000023         6   # BR(~t_2 -> ~chi_20 t )
     9.15043894E-02    2     1000025         6   # BR(~t_2 -> ~chi_30 t )
     1.68048485E-02    2     1000035         6   # BR(~t_2 -> ~chi_40 t )
     5.75413972E-02    2     1000024         5   # BR(~t_2 -> ~chi_1+ b )
     3.34656793E-02    2     1000037         5   # BR(~t_2 -> ~chi_2+ b )
     6.74617355E-01    2     1000021         6   # BR(~t_2 -> ~g      t )
     8.15507185E-04    2     1000006        25   # BR(~t_2 -> ~t_1    h )
     2.67751892E-03    2     1000006        23   # BR(~t_2 -> ~t_1    Z )
#
#         PDG            Width
DECAY   1000005     3.12259212E+02   # sbottom1 decays
#          BR         NDA      ID1       ID2
     2.78747791E-03    2     1000022         5   # BR(~b_1 -> ~chi_10 b )
     2.62337289E-03    2     1000023         5   # BR(~b_1 -> ~chi_20 b )
     2.39259757E-03    2     1000025         5   # BR(~b_1 -> ~chi_30 b )
     2.44701040E-02    2     1000035         5   # BR(~b_1 -> ~chi_40 b )
     2.15411099E-01    2    -1000024         6   # BR(~b_1 -> ~chi_1- t )
     4.91240918E-02    2    -1000037         6   # BR(~b_1 -> ~chi_2- t )
     7.01453603E-01    2     1000021         5   # BR(~b_1 -> ~g      b )
     1.73765339E-03    2     1000006       -24   # BR(~b_1 -> ~t_1    W-)
#
#         PDG            Width
DECAY   2000005     2.28138726E+02   # sbottom2 decays
#          BR         NDA      ID1       ID2
     1.23230511E-02    2     1000022         5   # BR(~b_2 -> ~chi_10 b )
     3.92736369E-03    2     1000023         5   # BR(~b_2 -> ~chi_20 b )
     4.23689540E-03    2     1000025         5   # BR(~b_2 -> ~chi_30 b )
     3.06052169E-05    2     1000035         5   # BR(~b_2 -> ~chi_40 b )
     7.70929039E-03    2    -1000024         6   # BR(~b_2 -> ~chi_1- t )
     6.14677691E-05    2    -1000037         6   # BR(~b_2 -> ~chi_2- t )
     9.71700576E-01    2     1000021         5   # BR(~b_2 -> ~g      b )
     1.07505104E-05    2     1000006       -24   # BR(~b_2 -> ~t_1    W-)
#
#         PDG            Width
DECAY   1000002     2.47795644E+02   # sup_L decays
#          BR         NDA      ID1       ID2
     2.74559650E-03    2     1000022         2   # BR(~u_L -> ~chi_10 u)
     7.85990302E-06    2     1000023         2   # BR(~u_L -> ~chi_20 u)
     3.25199316E-04    2     1000025         2   # BR(~u_L -> ~chi_30 u)
     3.19661395E-02    2     1000035         2   # BR(~u_L -> ~chi_40 u)
     2.02156227E-04    2     1000024         1   # BR(~u_L -> ~chi_1+ d)
     6.38937944E-02    2     1000037         1   # BR(~u_L -> ~chi_2+ d)
     9.00859254E-01    2     1000021         2   # BR(~u_L -> ~g      u)
#
#         PDG            Width
DECAY   2000002     2.33638221E+02   # sup_R decays
#          BR         NDA      ID1       ID2
     4.69046696E-02    2     1000022         2   # BR(~u_R -> ~chi_10 u)
     1.10456854E-03    2     1000023         2   # BR(~u_R -> ~chi_20 u)
     2.97747770E-03    2     1000025         2   # BR(~u_R -> ~chi_30 u)
     3.49654598E-09    2     1000035         2   # BR(~u_R -> ~chi_40 u)
     9.49013281E-01    2     1000021         2   # BR(~u_R -> ~g      u)
#
#         PDG            Width
DECAY   1000001     2.47809789E+02   # sdown_L decays
#          BR         NDA      ID1       ID2
     2.80243590E-03    2     1000022         1   # BR(~d_L -> ~chi_10 d)
     1.78525131E-04    2     1000023         1   # BR(~d_L -> ~chi_20 d)
     7.23593701E-05    2     1000025         1   # BR(~d_L -> ~chi_30 d)
     3.19845308E-02    2     1000035         1   # BR(~d_L -> ~chi_40 d)
     5.41270575E-07    2    -1000024         2   # BR(~d_L -> ~chi_1- u)
     6.39913813E-02    2    -1000037         2   # BR(~d_L -> ~chi_2- u)
     9.00970226E-01    2     1000021         1   # BR(~d_L -> ~g      d)
#
#         PDG            Width
DECAY   2000001     2.24730450E+02   # sdown_R decays
#          BR         NDA      ID1       ID2
     1.21917254E-02    2     1000022         1   # BR(~d_R -> ~chi_10 d)
     2.87105727E-04    2     1000023         1   # BR(~d_R -> ~chi_20 d)
     7.73922911E-04    2     1000025         1   # BR(~d_R -> ~chi_30 d)
     9.08971304E-10    2     1000035         1   # BR(~d_R -> ~chi_40 d)
     9.86747245E-01    2     1000021         1   # BR(~d_R -> ~g      d)
#
#         PDG            Width
DECAY   1000004     2.47795644E+02   # scharm_L decays
#          BR         NDA      ID1       ID2
     2.74559650E-03    2     1000022         4   # BR(~c_L -> ~chi_10 c)
     7.85990302E-06    2     1000023         4   # BR(~c_L -> ~chi_20 c)
     3.25199316E-04    2     1000025         4   # BR(~c_L -> ~chi_30 c)
     3.19661395E-02    2     1000035         4   # BR(~c_L -> ~chi_40 c)
     2.02156227E-04    2     1000024         3   # BR(~c_L -> ~chi_1+ s)
     6.38937944E-02    2     1000037         3   # BR(~c_L -> ~chi_2+ s)
     9.00859254E-01    2     1000021         4   # BR(~c_L -> ~g      c)
#
#         PDG            Width
DECAY   2000004     2.33638221E+02   # scharm_R decays
#          BR         NDA      ID1       ID2
     4.69046696E-02    2     1000022         4   # BR(~c_R -> ~chi_10 c)
     1.10456854E-03    2     1000023         4   # BR(~c_R -> ~chi_20 c)
     2.97747770E-03    2     1000025         4   # BR(~c_R -> ~chi_30 c)
     3.49654598E-09    2     1000035         4   # BR(~c_R -> ~chi_40 c)
     9.49013281E-01    2     1000021         4   # BR(~c_R -> ~g      c)
#
#         PDG            Width
DECAY   1000003     2.47809789E+02   # sstrange_L decays
#          BR         NDA      ID1       ID2
     2.80243590E-03    2     1000022         3   # BR(~s_L -> ~chi_10 s)
     1.78525131E-04    2     1000023         3   # BR(~s_L -> ~chi_20 s)
     7.23593701E-05    2     1000025         3   # BR(~s_L -> ~chi_30 s)
     3.19845308E-02    2     1000035         3   # BR(~s_L -> ~chi_40 s)
     5.41270575E-07    2    -1000024         4   # BR(~s_L -> ~chi_1- c)
     6.39913813E-02    2    -1000037         4   # BR(~s_L -> ~chi_2- c)
     9.00970226E-01    2     1000021         3   # BR(~s_L -> ~g      s)
#
#         PDG            Width
DECAY   2000003     2.24730450E+02   # sstrange_R decays
#          BR         NDA      ID1       ID2
     1.21917254E-02    2     1000022         3   # BR(~s_R -> ~chi_10 s)
     2.87105727E-04    2     1000023         3   # BR(~s_R -> ~chi_20 s)
     7.73922911E-04    2     1000025         3   # BR(~s_R -> ~chi_30 s)
     9.08971304E-10    2     1000035         3   # BR(~s_R -> ~chi_40 s)
     9.86747245E-01    2     1000021         3   # BR(~s_R -> ~g      s)
#
#         PDG            Width
DECAY   1000011     3.04311613E+01   # selectron_L decays
#          BR         NDA      ID1       ID2
     2.07159629E-01    2     1000022        11   # BR(~e_L -> ~chi_10 e-)
     2.99467201E-03    2     1000023        11   # BR(~e_L -> ~chi_20 e-)
     1.65363073E-02    2     1000025        11   # BR(~e_L -> ~chi_30 e-)
     2.57598303E-01    2     1000035        11   # BR(~e_L -> ~chi_40 e-)
     4.50509127E-06    2    -1000024        12   # BR(~e_L -> ~chi_1- nu_e)
     5.15706584E-01    2    -1000037        12   # BR(~e_L -> ~chi_2- nu_e)
#
#         PDG            Width
DECAY   2000011     2.74314327E+01   # selectron_R decays
#          BR         NDA      ID1       ID2
     9.19965506E-01    2     1000022        11   # BR(~e_R -> ~chi_10 e-)
     2.16566665E-02    2     1000023        11   # BR(~e_R -> ~chi_20 e-)
     5.83777608E-02    2     1000025        11   # BR(~e_R -> ~chi_30 e-)
     6.65078891E-08    2     1000035        11   # BR(~e_R -> ~chi_40 e-)
#
#         PDG            Width
DECAY   1000013     3.04311613E+01   # smuon_L decays
#          BR         NDA      ID1       ID2
     2.07159629E-01    2     1000022        13   # BR(~mu_L -> ~chi_10 mu-)
     2.99467201E-03    2     1000023        13   # BR(~mu_L -> ~chi_20 mu-)
     1.65363073E-02    2     1000025        13   # BR(~mu_L -> ~chi_30 mu-)
     2.57598303E-01    2     1000035        13   # BR(~mu_L -> ~chi_40 mu-)
     4.50509127E-06    2    -1000024        14   # BR(~mu_L -> ~chi_1- nu_mu)
     5.15706584E-01    2    -1000037        14   # BR(~mu_L -> ~chi_2- nu_mu)
#
#         PDG            Width
DECAY   2000013     2.74314327E+01   # smuon_R decays
#          BR         NDA      ID1       ID2
     9.19965506E-01    2     1000022        13   # BR(~mu_R -> ~chi_10 mu-)
     2.16566665E-02    2     1000023        13   # BR(~mu_R -> ~chi_20 mu-)
     5.83777608E-02    2     1000025        13   # BR(~mu_R -> ~chi_30 mu-)
     6.65078891E-08    2     1000035        13   # BR(~mu_R -> ~chi_40 mu-)
#
#         PDG            Width
DECAY   1000015     2.93093259E+01   # stau_1 decays
#          BR         NDA      ID1       ID2
     8.63894726E-01    2     1000022        15   # BR(~tau_1 -> ~chi_10  tau-)
     3.51121786E-02    2     1000023        15   # BR(~tau_1 -> ~chi_20  tau-)
     6.85956972E-02    2     1000025        15   # BR(~tau_1 -> ~chi_30  tau-)
     9.57985843E-05    2     1000035        15   # BR(~tau_1 -> ~chi_40  tau-)
     3.21099685E-02    2    -1000024        16   # BR(~tau_1 -> ~chi_1-  nu_tau)
     1.91631328E-04    2    -1000037        16   # BR(~tau_1 -> ~chi_2-  nu_tau)
#
#         PDG            Width
DECAY   2000015     3.13659671E+01   # stau_2 decays
#          BR         NDA      ID1       ID2
     2.02652495E-01    2     1000022        15   # BR(~tau_2 -> ~chi_10  tau-)
     1.75790394E-02    2     1000023        15   # BR(~tau_2 -> ~chi_20  tau-)
     3.00270348E-02    2     1000025        15   # BR(~tau_2 -> ~chi_30  tau-)
     2.49739470E-01    2     1000035        15   # BR(~tau_2 -> ~chi_40  tau-)
     2.85135945E-05    2    -1000024        16   # BR(~tau_2 -> ~chi_1-  nu_tau)
     4.99973448E-01    2    -1000037        16   # BR(~tau_2 -> ~chi_2-  nu_tau)
#
#         PDG            Width
DECAY   1000012     3.04340115E+01   # snu_eL decays
#          BR         NDA      ID1       ID2
     2.08517610E-01    2     1000022        12   # BR(~nu_eL -> ~chi_10 nu_e)
     7.25395549E-03    2     1000023        12   # BR(~nu_eL -> ~chi_20 nu_e)
     1.02199062E-02    2     1000025        12   # BR(~nu_eL -> ~chi_30 nu_e)
     2.57657319E-01    2     1000035        12   # BR(~nu_eL -> ~chi_40 nu_e)
     1.68216796E-03    2     1000024        11   # BR(~nu_eL -> ~chi_1+ e-)
     5.14669041E-01    2     1000037        11   # BR(~nu_eL -> ~chi_2+ e-)
#
#         PDG            Width
DECAY   1000014     3.04340115E+01   # snu_muL decays
#          BR         NDA      ID1       ID2
     2.08517610E-01    2     1000022        14   # BR(~nu_muL -> ~chi_10 nu_mu)
     7.25395549E-03    2     1000023        14   # BR(~nu_muL -> ~chi_20 nu_mu)
     1.02199062E-02    2     1000025        14   # BR(~nu_muL -> ~chi_30 nu_mu)
     2.57657319E-01    2     1000035        14   # BR(~nu_muL -> ~chi_40 nu_mu)
     1.68216796E-03    2     1000024        13   # BR(~nu_muL -> ~chi_1+ mu-)
     5.14669041E-01    2     1000037        13   # BR(~nu_muL -> ~chi_2+ mu-)
#
#         PDG            Width
DECAY   1000016     3.13687016E+01   # snu_tauL decays
#          BR         NDA      ID1       ID2
     2.02282034E-01    2     1000022        16   # BR(~nu_tauL -> ~chi_10 nu_tau)
     7.03702753E-03    2     1000023        16   # BR(~nu_tauL -> ~chi_20 nu_tau)
     9.91428215E-03    2     1000025        16   # BR(~nu_tauL -> ~chi_30 nu_tau)
     2.49885792E-01    2     1000035        16   # BR(~nu_tauL -> ~chi_40 nu_tau)
     3.17355104E-02    2     1000024        15   # BR(~nu_tauL -> ~chi_1+ tau-)
     4.99145354E-01    2     1000037        15   # BR(~nu_tauL -> ~chi_2+ tau-)
#
#         PDG            Width
DECAY   1000024     5.13315201E-02   # chargino1+ decays
#          BR         NDA      ID1       ID2
     1.00000000E+00    2     1000022        24   # BR(~chi_1+ -> ~chi_10  W+)
#
#         PDG            Width
DECAY   1000037     2.34321909E+01   # chargino2+ decays
#          BR         NDA      ID1       ID2
     2.53910428E-01    2     1000024        23   # BR(~chi_2+ -> ~chi_1+  Z )
     1.78444640E-03    2     1000022        24   # BR(~chi_2+ -> ~chi_10  W+)
     2.45136539E-01    2     1000023        24   # BR(~chi_2+ -> ~chi_20  W+)
     2.43620506E-01    2     1000025        24   # BR(~chi_2+ -> ~chi_30  W+)
     2.55492778E-01    2     1000024        25   # BR(~chi_2+ -> ~chi_1+  h )
     5.53025516E-05    2     1000022        37   # BR(~chi_2+ -> ~chi_10  H+)
#
#         PDG            Width
DECAY   1000022     0.00000000E+00   # neutralino1 decays
#
#         PDG            Width
DECAY   1000023     2.13710314E-02   # neutralino2 decays
#          BR         NDA      ID1       ID2
     1.00000000E+00    2     1000022        23   # BR(~chi_20 -> ~chi_10   Z )
#
#         PDG            Width
DECAY   1000025     2.52393652E-02   # neutralino3 decays
#          BR         NDA      ID1       ID2
     1.00000000E+00    2     1000022        23   # BR(~chi_30 -> ~chi_10   Z )
#
#         PDG            Width
DECAY   1000035     2.34430059E+01   # neutralino4 decays
#          BR         NDA      ID1       ID2
     1.72178771E-03    2     1000022        23   # BR(~chi_40 -> ~chi_10   Z )
     1.14741543E-01    2     1000023        23   # BR(~chi_40 -> ~chi_20   Z )
     1.37045148E-01    2     1000025        23   # BR(~chi_40 -> ~chi_30   Z )
     2.45636557E-01    2     1000024       -24   # BR(~chi_40 -> ~chi_1+   W-)
     2.45636557E-01    2    -1000024        24   # BR(~chi_40 -> ~chi_1-   W+)
     1.60871254E-04    2     1000022        25   # BR(~chi_40 -> ~chi_10   h )
     5.27182424E-05    2     1000022        35   # BR(~chi_40 -> ~chi_10   H )
     5.97050971E-06    2     1000022        36   # BR(~chi_40 -> ~chi_10   A )
     1.39373515E-01    2     1000023        25   # BR(~chi_40 -> ~chi_20   h )
     1.15625333E-01    2     1000025        25   # BR(~chi_40 -> ~chi_30   h )
#
#         PDG            Width
DECAY        25     4.10321630E-03   # h decays
#          BR         NDA      ID1       ID2
     6.06807002E-01    2           5        -5   # BR(h -> b       bb     )
     6.32256548E-02    2         -15        15   # BR(h -> tau+    tau-   )
     2.23841782E-04    2         -13        13   # BR(h -> mu+     mu-    )
     4.74526054E-04    2           3        -3   # BR(h -> s       sb     )
     2.05585535E-02    2           4        -4   # BR(h -> c       cb     )
     6.65091480E-02    2          21        21   # BR(h -> g       g      )
     2.28297202E-03    2          22        22   # BR(h -> gam     gam    )
     1.47477048E-03    2          22        23   # BR(h -> Z       gam    )
     2.08180064E-01    2          24       -24   # BR(h -> W+      W-     )
     2.47939077E-02    2          23        23   # BR(h -> Z       Z      )
     5.46955953E-03    2     1000022   1000022   # BR(h -> ~chi_10 ~chi_10)
#
#         PDG            Width
DECAY        35     8.82246851E+00   # H decays
#          BR         NDA      ID1       ID2
     3.58580246E-01    2           5        -5   # BR(H -> b       bb     )
     6.31281003E-02    2         -15        15   # BR(H -> tau+    tau-   )
     2.23225977E-04    2         -13        13   # BR(H -> mu+     mu-    )
     2.73640685E-04    2           3        -3   # BR(H -> s       sb     )
     1.53184274E-06    2           4        -4   # BR(H -> c       cb     )
     1.53043233E-01    2           6        -6   # BR(H -> t       tb     )
     5.09343357E-05    2          21        21   # BR(H -> g       g      )
     1.51988708E-07    2          22        22   # BR(H -> gam     gam    )
     9.02660135E-08    2          23        22   # BR(H -> Z       gam    )
     7.53899902E-05    2          24       -24   # BR(H -> W+      W-     )
     3.76472651E-05    2          23        23   # BR(H -> Z       Z      )
     2.67071175E-04    2          25        25   # BR(H -> h       h      )
    -6.36822807E-24    2          36        36   # BR(H -> A       A      )
     1.20202732E-18    2          23        36   # BR(H -> Z       A      )
     3.50431295E-03    2     1000024  -1000024   # BR(H -> ~chi_1+ ~chi_1-)
     6.14738435E-02    2     1000022   1000022   # BR(H -> ~chi_10 ~chi_10)
     1.02273487E-02    2     1000023   1000023   # BR(H -> ~chi_20 ~chi_20)
     2.02379402E-02    2     1000025   1000025   # BR(H -> ~chi_30 ~chi_30)
     1.20950713E-01    2     1000022   1000023   # BR(H -> ~chi_10 ~chi_20)
     1.78735843E-01    2     1000022   1000025   # BR(H -> ~chi_10 ~chi_30)
     2.91887363E-02    2     1000023   1000025   # BR(H -> ~chi_20 ~chi_30)
#
#         PDG            Width
DECAY        36     8.82742214E+00   # A decays
#          BR         NDA      ID1       ID2
     3.58501929E-01    2           5        -5   # BR(A -> b       bb     )
     6.30944952E-02    2         -15        15   # BR(A -> tau+    tau-   )
     2.23106835E-04    2         -13        13   # BR(A -> mu+     mu-    )
     2.73694692E-04    2           3        -3   # BR(A -> s       sb     )
     1.53698480E-06    2           4        -4   # BR(A -> c       cb     )
     1.53472231E-01    2           6        -6   # BR(A -> t       tb     )
     1.51856121E-04    2          21        21   # BR(A -> g       g      )
     5.21522895E-07    2          22        22   # BR(A -> gam     gam    )
     1.83725152E-07    2          23        22   # BR(A -> Z       gam    )
     7.50620759E-05    2          23        25   # BR(A -> Z       h      )
     3.62647701E-03    2     1000024  -1000024   # BR(A -> ~chi_1+ ~chi_1-)
     5.54310923E-02    2     1000022   1000022   # BR(A -> ~chi_10 ~chi_10)
     1.60490221E-02    2     1000023   1000023   # BR(A -> ~chi_20 ~chi_20)
     1.31551571E-02    2     1000025   1000025   # BR(A -> ~chi_30 ~chi_30)
     1.94866004E-01    2     1000022   1000023   # BR(A -> ~chi_10 ~chi_20)
     1.11281472E-01    2     1000022   1000025   # BR(A -> ~chi_10 ~chi_30)
     2.97961588E-02    2     1000023   1000025   # BR(A -> ~chi_20 ~chi_30)
#
#         PDG            Width
DECAY        37     8.76301458E+00   # H+ decays
#          BR         NDA      ID1       ID2
     5.73996461E-04    2           4        -5   # BR(H+ -> c       bb     )
     6.35896956E-02    2         -15        16   # BR(H+ -> tau+    nu_tau )
     2.24857900E-04    2         -13        14   # BR(H+ -> mu+     nu_mu  )
     3.67355791E-06    2           2        -5   # BR(H+ -> u       bb     )
     1.31938449E-05    2           2        -3   # BR(H+ -> u       sb     )
     2.72850412E-04    2           4        -3   # BR(H+ -> c       sb     )
     5.10160477E-01    2           6        -5   # BR(H+ -> t       bb     )
     7.57749478E-05    2          24        25   # BR(H+ -> W+      h      )
     1.08267599E-12    2          24        36   # BR(H+ -> W+      A      )
     3.87350584E-01    2     1000024   1000022   # BR(H+ -> ~chi_1+ ~chi_10)
     5.78277849E-03    2     1000024   1000023   # BR(H+ -> ~chi_1+ ~chi_20)
     3.19521173E-02    2     1000024   1000025   # BR(H+ -> ~chi_1+ ~chi_30)
