#
#                              ======================
#                              | THE SUSYHIT OUTPUT |
#                              ======================
#
#
#              ------------------------------------------------------
#              |     This is the output of the SUSY-HIT package     |
#              |  created by A.Djouadi, M.Muehlleitner and M.Spira. |
#              |  In case of problems with SUSY-HIT email to        |
#              |           margarete.muehlleitner@cern.ch           |
#              |           michael.spira@psi.ch                     |
#              |           abdelhak.djouadi@cern.ch                 |
#              ------------------------------------------------------
#
#              ------------------------------------------------------
#              |  SUSY Les Houches Accord - MSSM Spectrum + Decays  |
#              |              based on the decay programs           |
#              |                                                    |
#              |                     SDECAY 1.3b                    |
#              |                                                    |
#              |  Authors: M.Muhlleitner, A.Djouadi and Y.Mambrini  |
#              |  Ref.:    Comput.Phys.Commun.168(2005)46           |
#              |           [hep-ph/0311167]                         |
#              |                                                    |
#              |                     HDECAY 3.4                     |
#              |                                                    |
#              |  By: A.Djouadi,J.Kalinowski,M.Muhlleitner,M.Spira  |
#              |  Ref.:    Comput.Phys.Commun.108(1998)56           |
#              |           [hep-ph/9704448]                         |
#              |                                                    |
#              |                                                    |
#              |  If not stated otherwise all DRbar couplings and   |
#              |  soft SUSY breaking masses are given at the scale  |
#              |  Q=  0.50007568E+04
#              |                                                    |
#              ------------------------------------------------------
#
#
BLOCK DCINFO  # Decay Program information
     1   SDECAY/HDECAY # decay calculator
     2   1.3b  /3.4    # version number
#
BLOCK SPINFO  # Spectrum calculator information
     1    SOFTSUSY    # spectrum calculator                
     2    3.4.0       # version number                     
#
BLOCK MODSEL  # Model selection
     1     0   #  nonUniversal                                     
#
BLOCK SMINPUTS  # Standard Model inputs
         1     1.25778332E+02   # alpha_em^-1(M_Z)^MSbar
         2     1.16570000E-05   # G_F [GeV^-2]
         3     1.17200002E-01   # alpha_S(M_Z)^MSbar
         4     9.11876000E+01   # M_Z pole mass
         5     4.25000000E+00   # mb(mb)^MSbar
         6     1.72500000E+02   # mt pole mass
         7     1.77682000E+00   # mtau pole mass
#
BLOCK MINPAR  # Input parameters - minimal models
         3     1.00000000E+01   # tanb                
#
BLOCK EXTPAR  # Input parameters - non-minimal models
         0    -1.00000000E+00   # Set                 
         1     6.00000000E+01   # M_1(MX)             
         2     3.00000000E+03   # M_2(MX)             
         3     1.76109000E+03   # M_3(MX)             
        11     5.00000000E+03   # At(MX)              
        12     5.00000000E+03   # Ab(MX)              
        13     0.00000000E+00   # Atau(MX)            
        23    -5.71347000E+02   # mu(MX)              
        26     3.00000000E+03   # mA(pole)            
        31     5.00000000E+03   # meL(MX)             
        32     5.00000000E+03   # mmuL(MX)            
        33     5.00000000E+03   # mtauL(MX)           
        34     5.00000000E+03   # meR(MX)             
        35     5.00000000E+03   # mmuR(MX)            
        36     5.00000000E+03   # mtauR(MX)           
        41     5.00000000E+03   # mqL1(MX)            
        42     5.00000000E+03   # mqL2(MX)            
        43     5.00000000E+03   # mqL3(MX)            
        44     5.00000000E+03   # muR(MX)             
        45     5.00000000E+03   # mcR(MX)             
        46     5.00000000E+03   # mtR(MX)             
        47     5.00000000E+03   # mdR(MX)             
        48     5.00000000E+03   # msR(MX)             
        49     5.00000000E+03   # mbR(MX)             
#
BLOCK MASS  # Mass Spectrum
# PDG code           mass       particle
        24     8.00936060E+01   # W+
        25     1.24770875E+02   # h
        35     3.00008463E+03   # H
        36     2.99999919E+03   # A
        37     3.00140456E+03   # H+
         5     4.87878001E+00   # b-quark pole mass calculated from mb(mb)_Msbar
   1000001     5.07331439E+03   # ~d_L
   2000001     5.05548742E+03   # ~d_R
   1000002     5.07284062E+03   # ~u_L
   2000002     5.05519046E+03   # ~u_R
   1000003     5.07331439E+03   # ~s_L
   2000003     5.05548742E+03   # ~s_R
   1000004     5.07284062E+03   # ~c_L
   2000004     5.05519046E+03   # ~c_R
   1000005     5.01910405E+03   # ~b_1
   2000005     5.05377071E+03   # ~b_2
   1000006     4.91025301E+03   # ~t_1
   2000006     5.06308777E+03   # ~t_2
   1000011     5.01909829E+03   # ~e_L
   2000011     5.00593939E+03   # ~e_R
   1000012     5.01814855E+03   # ~nu_eL
   1000013     5.01909829E+03   # ~mu_L
   2000013     5.00593939E+03   # ~mu_R
   1000014     5.01814855E+03   # ~nu_muL
   1000015     5.00474869E+03   # ~tau_1
   2000015     5.01864939E+03   # ~tau_2
   1000016     5.01759795E+03   # ~nu_tauL
   1000021     2.10000035E+03   # ~g
   1000022     6.02510120E+01   # ~chi_10
   1000023     6.00199500E+02   # ~chi_20
   1000025    -6.02417410E+02   # ~chi_30
   1000035     3.07418266E+03   # ~chi_40
   1000024     6.00000893E+02   # ~chi_1+
   1000037     3.07435029E+03   # ~chi_2+
#
BLOCK NMIX  # Neutralino Mixing Matrix
  1  1     9.97249207E-01   # N_11
  1  2     2.27056988E-04   # N_12
  1  3    -7.41209069E-02   # N_13
  1  4     2.42423570E-04   # N_14
  2  1     5.22672965E-02   # N_21
  2  2     1.97528567E-02   # N_22
  2  3     7.05593842E-01   # N_23
  2  4     7.06410139E-01   # N_24
  3  1    -5.25547081E-02   # N_31
  3  2     1.65486240E-02   # N_32
  3  3    -7.04725704E-01   # N_33
  3  4     7.07337139E-01   # N_34
  4  1    -3.89281993E-04   # N_41
  4  2     9.99667903E-01   # N_42
  4  3    -2.25917392E-03   # N_43
  4  4    -2.56676538E-02   # N_44
#
BLOCK UMIX  # Chargino Mixing Matrix U
  1  1     3.20207594E-03   # U_11
  1  2     9.99994873E-01   # U_12
  2  1    -9.99994873E-01   # U_21
  2  2     3.20207594E-03   # U_22
#
BLOCK VMIX  # Chargino Mixing Matrix V
  1  1     3.63234504E-02   # V_11
  1  2    -9.99340086E-01   # V_12
  2  1    -9.99340086E-01   # V_21
  2  2    -3.63234504E-02   # V_22
#
BLOCK STOPMIX  # Stop Mixing Matrix
  1  1    -5.03999564E-01   # cos(theta_t)
  1  2     8.63703907E-01   # sin(theta_t)
  2  1    -8.63703907E-01   # -sin(theta_t)
  2  2    -5.03999564E-01   # cos(theta_t)
#
BLOCK SBOTMIX  # Sbottom Mixing Matrix
  1  1     9.98489769E-01   # cos(theta_b)
  1  2    -5.49379760E-02   # sin(theta_b)
  2  1     5.49379760E-02   # -sin(theta_b)
  2  2     9.98489769E-01   # cos(theta_b)
#
BLOCK STAUMIX  # Stau Mixing Matrix
  1  1    -6.84568690E-02   # cos(theta_tau)
  1  2     9.97654077E-01   # sin(theta_tau)
  2  1    -9.97654077E-01   # -sin(theta_tau)
  2  2    -6.84568690E-02   # cos(theta_tau)
#
BLOCK ALPHA  # Higgs mixing
          -1.05484700E-01   # Mixing angle in the neutral Higgs boson sector
#
BLOCK HMIX Q=  5.00075679E+03  # DRbar Higgs Parameters
         1    -5.81803967E+02   # mu(Q)MSSM           
         2     9.46922101E+00   # tan                 
         3     2.41770601E+02   # higgs               
         4     8.64307420E+06   # mA^2(Q)MSSM         
#
BLOCK GAUGE Q=  5.00075679E+03  # The gauge couplings
     1     3.70912698E-01   # gprime(Q) DRbar
     2     6.33121279E-01   # g(Q) DRbar
     3     9.97789631E-01   # g3(Q) DRbar
#
BLOCK AU Q=  5.00075679E+03  # The trilinear couplings
  1  1     5.00000001E+03   # A_u(Q) DRbar
  2  2     5.00000001E+03   # A_c(Q) DRbar
  3  3     5.00000002E+03   # A_t(Q) DRbar
#
BLOCK AD Q=  5.00075679E+03  # The trilinear couplings
  1  1     5.00000001E+03   # A_d(Q) DRbar
  2  2     5.00000001E+03   # A_s(Q) DRbar
  3  3     5.00000001E+03   # A_b(Q) DRbar
#
BLOCK AE Q=  5.00075679E+03  # The trilinear couplings
  1  1     0.00000000E+00   # A_e(Q) DRbar
  2  2     1.87958015E-07   # A_mu(Q) DRbar
  3  3     1.87650703E-07   # A_tau(Q) DRbar
#
BLOCK Yu Q=  5.00075679E+03  # The Yukawa couplings
  1  1     0.00000000E+00   # y_u(Q) DRbar
  2  2     0.00000000E+00   # y_c(Q) DRbar
  3  3     8.20425598E-01   # y_t(Q) DRbar
#
BLOCK Yd Q=  5.00075679E+03  # The Yukawa couplings
  1  1     0.00000000E+00   # y_d(Q) DRbar
  2  2     0.00000000E+00   # y_s(Q) DRbar
  3  3     1.30229657E-01   # y_b(Q) DRbar
#
BLOCK Ye Q=  5.00075679E+03  # The Yukawa couplings
  1  1     0.00000000E+00   # y_e(Q) DRbar
  2  2     0.00000000E+00   # y_mu(Q) DRbar
  3  3     9.70765957E-02   # y_tau(Q) DRbar
#
BLOCK MSOFT Q=  5.00075679E+03  # The soft SUSY breaking masses at the scale Q
         1     6.00000000E+01   # M_1(Q)              
         2     3.00000000E+03   # M_2(Q)              
         3     1.76109000E+03   # M_3(Q)              
        21     8.38105277E+06   # mH1^2(Q)            
        22     2.35916395E+05   # mH2^2(Q)            
        31     5.00000000E+03   # meL(Q)              
        32     5.00000000E+03   # mmuL(Q)             
        33     5.00000000E+03   # mtauL(Q)            
        34     5.00000000E+03   # meR(Q)              
        35     5.00000000E+03   # mmuR(Q)             
        36     5.00000000E+03   # mtauR(Q)            
        41     5.00000000E+03   # mqL1(Q)             
        42     5.00000000E+03   # mqL2(Q)             
        43     4.99999999E+03   # mqL3(Q)             
        44     5.00000000E+03   # muR(Q)              
        45     5.00000000E+03   # mcR(Q)              
        46     4.99999999E+03   # mtR(Q)              
        47     5.00000000E+03   # mdR(Q)              
        48     5.00000000E+03   # msR(Q)              
        49     5.00000000E+03   # mbR(Q)              
#
#
#
#                             =================
#                             |The decay table|
#                             =================
#
# - The QCD corrections to the decays gluino -> squark  + quark
#                                     squark -> gaugino + quark_prime
#                                     squark -> squark_prime + Higgs
#                                     squark -> gluino  + quark
#   are included.
#
# - The multi-body decays for the inos, stops and sbottoms are included.
#
# - The loop induced decays for the gluino, neutralinos and stops
#   are included.
#
# - The SUSY decays of the top quark are included.
#
#
#         PDG            Width
DECAY         6     1.40474935E+00   # top decays
#          BR         NDA      ID1       ID2
     1.00000000E+00    2           5        24   # BR(t ->  b    W+)
#
#         PDG            Width
DECAY   1000021     2.12192745E-03   # gluino decays
#          BR         NDA      ID1       ID2
     8.87949797E-07    2     1000022        21   # BR(~g -> ~chi_10 g)
     6.93427049E-03    2     1000023        21   # BR(~g -> ~chi_20 g)
     6.76203800E-03    2     1000025        21   # BR(~g -> ~chi_30 g)
#           BR         NDA      ID1       ID2       ID3
     1.41469461E-02    3     1000022         1        -1   # BR(~g -> ~chi_10 d  db)
     2.76625785E-05    3     1000023         1        -1   # BR(~g -> ~chi_20 d  db)
     2.96386541E-05    3     1000025         1        -1   # BR(~g -> ~chi_30 d  db)
     4.82434851E-02    3     1000022         2        -2   # BR(~g -> ~chi_10 u  ub)
     1.39367276E-04    3     1000023         2        -2   # BR(~g -> ~chi_20 u  ub)
     4.52704861E-05    3     1000025         2        -2   # BR(~g -> ~chi_30 u  ub)
     1.41469461E-02    3     1000022         3        -3   # BR(~g -> ~chi_10 s  sb)
     2.76625785E-05    3     1000023         3        -3   # BR(~g -> ~chi_20 s  sb)
     2.96386541E-05    3     1000025         3        -3   # BR(~g -> ~chi_30 s  sb)
     4.82434851E-02    3     1000022         4        -4   # BR(~g -> ~chi_10 c  cb)
     1.39367276E-04    3     1000023         4        -4   # BR(~g -> ~chi_20 c  cb)
     4.52704861E-05    3     1000025         4        -4   # BR(~g -> ~chi_30 c  cb)
     1.44267115E-02    3     1000022         5        -5   # BR(~g -> ~chi_10 b  bb)
     5.22466055E-03    3     1000023         5        -5   # BR(~g -> ~chi_20 b  bb)
     5.18523558E-03    3     1000025         5        -5   # BR(~g -> ~chi_30 b  bb)
     4.73007160E-02    3     1000022         6        -6   # BR(~g -> ~chi_10 t  tb)
     1.96651249E-01    3     1000023         6        -6   # BR(~g -> ~chi_20 t  tb)
     1.80358961E-01    3     1000025         6        -6   # BR(~g -> ~chi_30 t  tb)
     5.63087922E-05    3     1000024         1        -2   # BR(~g -> ~chi_1+ d  ub)
     5.63087922E-05    3    -1000024         2        -1   # BR(~g -> ~chi_1- u  db)
     5.63087922E-05    3     1000024         3        -4   # BR(~g -> ~chi_1+ s  cb)
     5.63087922E-05    3    -1000024         4        -3   # BR(~g -> ~chi_1- c  sb)
     2.05832647E-01    3     1000024         5        -6   # BR(~g -> ~chi_1+ b  tb)
     2.05832647E-01    3    -1000024         6        -5   # BR(~g -> ~chi_1- t  bb)
#
#         PDG            Width
DECAY   1000006     3.38624399E+02   # stop1 decays
#          BR         NDA      ID1       ID2
     2.60767725E-02    2     1000022         6   # BR(~t_1 -> ~chi_10 t )
     9.56456745E-02    2     1000023         6   # BR(~t_1 -> ~chi_20 t )
     9.10386798E-02    2     1000025         6   # BR(~t_1 -> ~chi_30 t )
     6.00679138E-03    2     1000035         6   # BR(~t_1 -> ~chi_40 t )
     1.39320477E-01    2     1000024         5   # BR(~t_1 -> ~chi_1+ b )
     1.19735547E-02    2     1000037         5   # BR(~t_1 -> ~chi_2+ b )
     6.29938050E-01    2     1000021         6   # BR(~t_1 -> ~g      t )
#
#         PDG            Width
DECAY   2000006     3.44166577E+02   # stop2 decays
#          BR         NDA      ID1       ID2
     1.00653039E-02    2     1000022         6   # BR(~t_2 -> ~chi_10 t )
     9.48040739E-02    2     1000023         6   # BR(~t_2 -> ~chi_20 t )
     9.98697741E-02    2     1000025         6   # BR(~t_2 -> ~chi_30 t )
     1.63108085E-02    2     1000035         6   # BR(~t_2 -> ~chi_40 t )
     5.56468185E-02    2     1000024         5   # BR(~t_2 -> ~chi_1+ b )
     3.24740401E-02    2     1000037         5   # BR(~t_2 -> ~chi_2+ b )
     6.87284082E-01    2     1000021         6   # BR(~t_2 -> ~g      t )
     8.18634736E-04    2     1000006        25   # BR(~t_2 -> ~t_1    h )
     2.72646373E-03    2     1000006        23   # BR(~t_2 -> ~t_1    Z )
#
#         PDG            Width
DECAY   1000005     3.19068846E+02   # sbottom1 decays
#          BR         NDA      ID1       ID2
     2.42594840E-03    2     1000022         5   # BR(~b_1 -> ~chi_10 b )
     2.57149622E-03    2     1000023         5   # BR(~b_1 -> ~chi_20 b )
     2.55437435E-03    2     1000025         5   # BR(~b_1 -> ~chi_30 b )
     2.37697683E-02    2     1000035         5   # BR(~b_1 -> ~chi_40 b )
     2.04656571E-01    2    -1000024         6   # BR(~b_1 -> ~chi_1- t )
     4.77285124E-02    2    -1000037         6   # BR(~b_1 -> ~chi_2- t )
     7.14562428E-01    2     1000021         5   # BR(~b_1 -> ~g      b )
     1.73090199E-03    2     1000006       -24   # BR(~b_1 -> ~t_1    W-)
#
#         PDG            Width
DECAY   2000005     2.37203401E+02   # sbottom2 decays
#          BR         NDA      ID1       ID2
     1.23726384E-02    2     1000022         5   # BR(~b_2 -> ~chi_10 b )
     3.54896480E-03    2     1000023         5   # BR(~b_2 -> ~chi_20 b )
     3.60406072E-03    2     1000025         5   # BR(~b_2 -> ~chi_30 b )
     9.24717265E-05    2     1000035         5   # BR(~b_2 -> ~chi_40 b )
     7.78068220E-03    2    -1000024         6   # BR(~b_2 -> ~chi_1- t )
     1.85686224E-04    2    -1000037         6   # BR(~b_2 -> ~chi_2- t )
     9.72386099E-01    2     1000021         5   # BR(~b_2 -> ~g      b )
     2.93971610E-05    2     1000006       -24   # BR(~b_2 -> ~t_1    W-)
#
#         PDG            Width
DECAY   1000002     2.56587692E+02   # sup_L decays
#          BR         NDA      ID1       ID2
     2.89958380E-03    2     1000022         2   # BR(~u_L -> ~chi_10 u)
     6.66557518E-05    2     1000023         2   # BR(~u_L -> ~chi_20 u)
     2.93336167E-06    2     1000025         2   # BR(~u_L -> ~chi_30 u)
     3.07071963E-02    2     1000035         2   # BR(~u_L -> ~chi_40 u)
     1.95962723E-04    2     1000024         1   # BR(~u_L -> ~chi_1+ d)
     6.13757427E-02    2     1000037         1   # BR(~u_L -> ~chi_2+ d)
     9.04751925E-01    2     1000021         2   # BR(~u_L -> ~g      u)
#
#         PDG            Width
DECAY   2000002     2.42569620E+02   # sup_R decays
#          BR         NDA      ID1       ID2
     4.87875365E-02    2     1000022         2   # BR(~u_R -> ~chi_10 u)
     1.30452535E-04    2     1000023         2   # BR(~u_R -> ~chi_20 u)
     1.31863729E-04    2     1000025         2   # BR(~u_R -> ~chi_30 u)
     2.97129812E-09    2     1000035         2   # BR(~u_R -> ~chi_40 u)
     9.50950144E-01    2     1000021         2   # BR(~u_R -> ~g      u)
#
#         PDG            Width
DECAY   1000001     2.56601947E+02   # sdown_L decays
#          BR         NDA      ID1       ID2
     2.88620540E-03    2     1000022         1   # BR(~d_L -> ~chi_10 d)
     6.76737026E-06    2     1000023         1   # BR(~d_L -> ~chi_20 d)
     5.33749629E-05    2     1000025         1   # BR(~d_L -> ~chi_30 d)
     3.07243157E-02    2     1000035         1   # BR(~d_L -> ~chi_40 d)
     1.52293607E-06    2    -1000024         2   # BR(~d_L -> ~chi_1- u)
     6.14717611E-02    2    -1000037         2   # BR(~d_L -> ~chi_2- u)
     9.04856053E-01    2     1000021         1   # BR(~d_L -> ~g      d)
#
#         PDG            Width
DECAY   2000001     2.33671148E+02   # sdown_R decays
#          BR         NDA      ID1       ID2
     1.26621096E-02    2     1000022         1   # BR(~d_R -> ~chi_10 d)
     3.38572028E-05    2     1000023         1   # BR(~d_R -> ~chi_20 d)
     3.42234603E-05    2     1000025         1   # BR(~d_R -> ~chi_30 d)
     7.71263072E-10    2     1000035         1   # BR(~d_R -> ~chi_40 d)
     9.87269809E-01    2     1000021         1   # BR(~d_R -> ~g      d)
#
#         PDG            Width
DECAY   1000004     2.56587692E+02   # scharm_L decays
#          BR         NDA      ID1       ID2
     2.89958380E-03    2     1000022         4   # BR(~c_L -> ~chi_10 c)
     6.66557518E-05    2     1000023         4   # BR(~c_L -> ~chi_20 c)
     2.93336167E-06    2     1000025         4   # BR(~c_L -> ~chi_30 c)
     3.07071963E-02    2     1000035         4   # BR(~c_L -> ~chi_40 c)
     1.95962723E-04    2     1000024         3   # BR(~c_L -> ~chi_1+ s)
     6.13757427E-02    2     1000037         3   # BR(~c_L -> ~chi_2+ s)
     9.04751925E-01    2     1000021         4   # BR(~c_L -> ~g      c)
#
#         PDG            Width
DECAY   2000004     2.42569620E+02   # scharm_R decays
#          BR         NDA      ID1       ID2
     4.87875365E-02    2     1000022         4   # BR(~c_R -> ~chi_10 c)
     1.30452535E-04    2     1000023         4   # BR(~c_R -> ~chi_20 c)
     1.31863729E-04    2     1000025         4   # BR(~c_R -> ~chi_30 c)
     2.97129812E-09    2     1000035         4   # BR(~c_R -> ~chi_40 c)
     9.50950144E-01    2     1000021         4   # BR(~c_R -> ~g      c)
#
#         PDG            Width
DECAY   1000003     2.56601947E+02   # sstrange_L decays
#          BR         NDA      ID1       ID2
     2.88620540E-03    2     1000022         3   # BR(~s_L -> ~chi_10 s)
     6.76737026E-06    2     1000023         3   # BR(~s_L -> ~chi_20 s)
     5.33749629E-05    2     1000025         3   # BR(~s_L -> ~chi_30 s)
     3.07243157E-02    2     1000035         3   # BR(~s_L -> ~chi_40 s)
     1.52293607E-06    2    -1000024         4   # BR(~s_L -> ~chi_1- c)
     6.14717611E-02    2    -1000037         4   # BR(~s_L -> ~chi_2- c)
     9.04856053E-01    2     1000021         3   # BR(~s_L -> ~g      s)
#
#         PDG            Width
DECAY   2000003     2.33671148E+02   # sstrange_R decays
#          BR         NDA      ID1       ID2
     1.26621096E-02    2     1000022         3   # BR(~s_R -> ~chi_10 s)
     3.38572028E-05    2     1000023         3   # BR(~s_R -> ~chi_20 s)
     3.42234603E-05    2     1000025         3   # BR(~s_R -> ~chi_30 s)
     7.71263072E-10    2     1000035         3   # BR(~s_R -> ~chi_40 s)
     9.87269809E-01    2     1000021         3   # BR(~s_R -> ~g      s)
#
#         PDG            Width
DECAY   1000011     3.03175518E+01   # selectron_L decays
#          BR         NDA      ID1       ID2
     2.25421247E-01    2     1000022        11   # BR(~e_L -> ~chi_10 e-)
     1.62742067E-03    2     1000023        11   # BR(~e_L -> ~chi_20 e-)
     1.30031378E-04    2     1000025        11   # BR(~e_L -> ~chi_30 e-)
     2.57434544E-01    2     1000035        11   # BR(~e_L -> ~chi_40 e-)
     1.31521433E-05    2    -1000024        12   # BR(~e_L -> ~chi_1- nu_e)
     5.15373605E-01    2    -1000037        12   # BR(~e_L -> ~chi_2- nu_e)
#
#         PDG            Width
DECAY   2000011     2.73902227E+01   # selectron_R decays
#          BR         NDA      ID1       ID2
     9.94661092E-01    2     1000022        11   # BR(~e_R -> ~chi_10 e-)
     2.65507446E-03    2     1000023        11   # BR(~e_R -> ~chi_20 e-)
     2.68377487E-03    2     1000025        11   # BR(~e_R -> ~chi_30 e-)
     5.88193956E-08    2     1000035        11   # BR(~e_R -> ~chi_40 e-)
#
#         PDG            Width
DECAY   1000013     3.03175518E+01   # smuon_L decays
#          BR         NDA      ID1       ID2
     2.25421247E-01    2     1000022        13   # BR(~mu_L -> ~chi_10 mu-)
     1.62742067E-03    2     1000023        13   # BR(~mu_L -> ~chi_20 mu-)
     1.30031378E-04    2     1000025        13   # BR(~mu_L -> ~chi_30 mu-)
     2.57434544E-01    2     1000035        13   # BR(~mu_L -> ~chi_40 mu-)
     1.31521433E-05    2    -1000024        14   # BR(~mu_L -> ~chi_1- nu_mu)
     5.15373605E-01    2    -1000037        14   # BR(~mu_L -> ~chi_2- nu_mu)
#
#         PDG            Width
DECAY   2000013     2.73902227E+01   # smuon_R decays
#          BR         NDA      ID1       ID2
     9.94661092E-01    2     1000022        13   # BR(~mu_R -> ~chi_10 mu-)
     2.65507446E-03    2     1000023        13   # BR(~mu_R -> ~chi_20 mu-)
     2.68377487E-03    2     1000025        13   # BR(~mu_R -> ~chi_30 mu-)
     5.88193956E-08    2     1000035        13   # BR(~mu_R -> ~chi_40 mu-)
#
#         PDG            Width
DECAY   1000015     2.92181368E+01   # stau_1 decays
#          BR         NDA      ID1       ID2
     9.29987815E-01    2     1000022        15   # BR(~tau_1 -> ~chi_10  tau-)
     1.78645485E-02    2     1000023        15   # BR(~tau_1 -> ~chi_20  tau-)
     1.73395888E-02    2     1000025        15   # BR(~tau_1 -> ~chi_30  tau-)
     1.22205999E-03    2     1000035        15   # BR(~tau_1 -> ~chi_40  tau-)
     3.11396480E-02    2    -1000024        16   # BR(~tau_1 -> ~chi_1-  nu_tau)
     2.44633925E-03    2    -1000037        16   # BR(~tau_1 -> ~chi_2-  nu_tau)
#
#         PDG            Width
DECAY   2000015     3.12119182E+01   # stau_2 decays
#          BR         NDA      ID1       ID2
     2.21361376E-01    2     1000022        15   # BR(~tau_2 -> ~chi_10  tau-)
     1.63084981E-02    2     1000023        15   # BR(~tau_2 -> ~chi_20  tau-)
     1.52952533E-02    2     1000025        15   # BR(~tau_2 -> ~chi_30  tau-)
     2.48826739E-01    2     1000035        15   # BR(~tau_2 -> ~chi_40  tau-)
     6.64256646E-05    2    -1000024        16   # BR(~tau_2 -> ~chi_1-  nu_tau)
     4.98141708E-01    2    -1000037        16   # BR(~tau_2 -> ~chi_2-  nu_tau)
#
#         PDG            Width
DECAY   1000012     3.03207097E+01   # snu_eL decays
#          BR         NDA      ID1       ID2
     2.25005039E-01    2     1000022        12   # BR(~nu_eL -> ~chi_10 nu_e)
     7.57264981E-05    2     1000023        12   # BR(~nu_eL -> ~chi_20 nu_e)
     1.43642650E-03    2     1000025        12   # BR(~nu_eL -> ~chi_30 nu_e)
     2.57476903E-01    2     1000035        12   # BR(~nu_eL -> ~chi_40 nu_e)
     1.69190230E-03    2     1000024        11   # BR(~nu_eL -> ~chi_1+ e-)
     5.14314003E-01    2     1000037        11   # BR(~nu_eL -> ~chi_2+ e-)
#
#         PDG            Width
DECAY   1000014     3.03207097E+01   # snu_muL decays
#          BR         NDA      ID1       ID2
     2.25005039E-01    2     1000022        14   # BR(~nu_muL -> ~chi_10 nu_mu)
     7.57264981E-05    2     1000023        14   # BR(~nu_muL -> ~chi_20 nu_mu)
     1.43642650E-03    2     1000025        14   # BR(~nu_muL -> ~chi_30 nu_mu)
     2.57476903E-01    2     1000035        14   # BR(~nu_muL -> ~chi_40 nu_mu)
     1.69190230E-03    2     1000024        13   # BR(~nu_muL -> ~chi_1+ mu-)
     5.14314003E-01    2     1000037        13   # BR(~nu_muL -> ~chi_2+ mu-)
#
#         PDG            Width
DECAY   1000016     3.12252199E+01   # snu_tauL decays
#          BR         NDA      ID1       ID2
     2.18463265E-01    2     1000022        16   # BR(~nu_tauL -> ~chi_10 nu_tau)
     7.35243697E-05    2     1000023        16   # BR(~nu_tauL -> ~chi_20 nu_tau)
     1.39465511E-03    2     1000025        16   # BR(~nu_tauL -> ~chi_30 nu_tau)
     2.49925141E-01    2     1000035        16   # BR(~nu_tauL -> ~chi_40 nu_tau)
     3.09147350E-02    2     1000024        15   # BR(~nu_tauL -> ~chi_1+ tau-)
     4.99228680E-01    2     1000037        15   # BR(~nu_tauL -> ~chi_2+ tau-)
#
#         PDG            Width
DECAY   1000024     3.57417087E-01   # chargino1+ decays
#          BR         NDA      ID1       ID2
     1.00000000E+00    2     1000022        24   # BR(~chi_1+ -> ~chi_10  W+)
#
#         PDG            Width
DECAY   1000037     2.18099602E+01   # chargino2+ decays
#          BR         NDA      ID1       ID2
     2.53501380E-01    2     1000024        23   # BR(~chi_2+ -> ~chi_1+  Z )
     1.69248279E-04    2     1000022        24   # BR(~chi_2+ -> ~chi_10  W+)
     2.44754744E-01    2     1000023        24   # BR(~chi_2+ -> ~chi_20  W+)
     2.44326241E-01    2     1000025        24   # BR(~chi_2+ -> ~chi_30  W+)
     2.57244839E-01    2     1000024        25   # BR(~chi_2+ -> ~chi_1+  h )
     3.54761774E-06    2     1000022        37   # BR(~chi_2+ -> ~chi_10  H+)
#
#         PDG            Width
DECAY   1000022     0.00000000E+00   # neutralino1 decays
#
#         PDG            Width
DECAY   1000023     3.66178355E-01   # neutralino2 decays
#          BR         NDA      ID1       ID2
     5.14065290E-01    2     1000022        23   # BR(~chi_20 -> ~chi_10   Z )
     4.85934710E-01    2     1000022        25   # BR(~chi_20 -> ~chi_10   h )
#
#         PDG            Width
DECAY   1000025     3.61806345E-01   # neutralino3 decays
#          BR         NDA      ID1       ID2
     5.03965345E-01    2     1000022        23   # BR(~chi_30 -> ~chi_10   Z )
     4.96034655E-01    2     1000022        25   # BR(~chi_30 -> ~chi_10   h )
#
#         PDG            Width
DECAY   1000035     2.18235361E+01   # neutralino4 decays
#          BR         NDA      ID1       ID2
     1.29180797E-05    2     1000022        23   # BR(~chi_40 -> ~chi_10   Z )
     1.04468862E-01    2     1000023        23   # BR(~chi_40 -> ~chi_20   Z )
     1.48496196E-01    2     1000025        23   # BR(~chi_40 -> ~chi_30   Z )
     2.45089750E-01    2     1000024       -24   # BR(~chi_40 -> ~chi_1+   W-)
     2.45089750E-01    2    -1000024        24   # BR(~chi_40 -> ~chi_1-   W+)
     1.51381313E-04    2     1000022        25   # BR(~chi_40 -> ~chi_10   h )
     3.40173116E-06    2     1000022        35   # BR(~chi_40 -> ~chi_10   H )
     3.79148664E-07    2     1000022        36   # BR(~chi_40 -> ~chi_10   A )
     1.51932147E-01    2     1000023        25   # BR(~chi_40 -> ~chi_20   h )
     1.04755216E-01    2     1000025        25   # BR(~chi_40 -> ~chi_30   h )
#
#         PDG            Width
DECAY        25     4.06824177E-03   # h decays
#          BR         NDA      ID1       ID2
     6.09181596E-01    2           5        -5   # BR(h -> b       bb     )
     6.37586799E-02    2         -15        15   # BR(h -> tau+    tau-   )
     2.25728920E-04    2         -13        13   # BR(h -> mu+     mu-    )
     4.78533392E-04    2           3        -3   # BR(h -> s       sb     )
     2.07342194E-02    2           4        -4   # BR(h -> c       cb     )
     6.70676960E-02    2          21        21   # BR(h -> g       g      )
     2.30533123E-03    2          22        22   # BR(h -> gam     gam    )
     1.48650043E-03    2          22        23   # BR(h -> Z       gam    )
     2.09694696E-01    2          24       -24   # BR(h -> W+      W-     )
     2.49812526E-02    2          23        23   # BR(h -> Z       Z      )
     8.57660723E-05    2     1000022   1000022   # BR(h -> ~chi_10 ~chi_10)
#
#         PDG            Width
DECAY        35     8.57797741E+00   # H decays
#          BR         NDA      ID1       ID2
     3.72856030E-01    2           5        -5   # BR(H -> b       bb     )
     6.49382023E-02    2         -15        15   # BR(H -> tau+    tau-   )
     2.29626641E-04    2         -13        13   # BR(H -> mu+     mu-    )
     2.81487019E-04    2           3        -3   # BR(H -> s       sb     )
     1.57508005E-06    2           4        -4   # BR(H -> c       cb     )
     1.57362975E-01    2           6        -6   # BR(H -> t       tb     )
     5.23288816E-05    2          21        21   # BR(H -> g       g      )
     1.64418108E-07    2          22        22   # BR(H -> gam     gam    )
     9.28785847E-08    2          23        22   # BR(H -> Z       gam    )
     7.45930403E-05    2          24       -24   # BR(H -> W+      W-     )
     3.72493059E-05    2          23        23   # BR(H -> Z       Z      )
     2.71678489E-04    2          25        25   # BR(H -> h       h      )
    -1.54993107E-23    2          36        36   # BR(H -> A       A      )
     1.01485191E-18    2          23        36   # BR(H -> Z       A      )
     3.01199563E-03    2     1000024  -1000024   # BR(H -> ~chi_1+ ~chi_1-)
     4.69212443E-03    2     1000022   1000022   # BR(H -> ~chi_10 ~chi_10)
     1.03127867E-04    2     1000023   1000023   # BR(H -> ~chi_20 ~chi_20)
     1.80808598E-03    2     1000025   1000025   # BR(H -> ~chi_30 ~chi_30)
     2.37463114E-01    2     1000022   1000023   # BR(H -> ~chi_10 ~chi_20)
     1.54605720E-01    2     1000022   1000025   # BR(H -> ~chi_10 ~chi_30)
     2.20982876E-03    2     1000023   1000025   # BR(H -> ~chi_20 ~chi_30)
#
#         PDG            Width
DECAY        36     8.58634878E+00   # A decays
#          BR         NDA      ID1       ID2
     3.72619485E-01    2           5        -5   # BR(A -> b       bb     )
     6.48768292E-02    2         -15        15   # BR(A -> tau+    tau-   )
     2.29409300E-04    2         -13        13   # BR(A -> mu+     mu-    )
     2.81426183E-04    2           3        -3   # BR(A -> s       sb     )
     1.57987236E-06    2           4        -4   # BR(A -> c       cb     )
     1.57754673E-01    2           6        -6   # BR(A -> t       tb     )
     1.56104389E-04    2          21        21   # BR(A -> g       g      )
     5.99222446E-07    2          22        22   # BR(A -> gam     gam    )
     1.88988938E-07    2          23        22   # BR(A -> Z       gam    )
     7.42383997E-05    2          23        25   # BR(A -> Z       h      )
     3.45123147E-03    2     1000024  -1000024   # BR(A -> ~chi_1+ ~chi_1-)
     4.70175787E-03    2     1000022   1000022   # BR(A -> ~chi_10 ~chi_10)
     8.01978752E-05    2     1000023   1000023   # BR(A -> ~chi_20 ~chi_20)
     3.29825979E-03    2     1000025   1000025   # BR(A -> ~chi_30 ~chi_30)
     1.57605652E-01    2     1000022   1000023   # BR(A -> ~chi_10 ~chi_20)
     2.33477913E-01    2     1000022   1000025   # BR(A -> ~chi_10 ~chi_30)
     1.39045337E-03    2     1000023   1000025   # BR(A -> ~chi_20 ~chi_30)
#
#         PDG            Width
DECAY        37     8.53576128E+00   # H+ decays
#          BR         NDA      ID1       ID2
     5.98379283E-04    2           4        -5   # BR(H+ -> c       bb     )
     6.52918962E-02    2         -15        16   # BR(H+ -> tau+    nu_tau )
     2.30877008E-04    2         -13        14   # BR(H+ -> mu+     nu_mu  )
     3.82960739E-06    2           2        -5   # BR(H+ -> u       bb     )
     1.35470712E-05    2           2        -3   # BR(H+ -> u       sb     )
     2.80154666E-04    2           4        -3   # BR(H+ -> c       sb     )
     5.29392646E-01    2           6        -5   # BR(H+ -> t       bb     )
     7.48315607E-05    2          24        25   # BR(H+ -> W+      h      )
     8.43971896E-13    2          24        36   # BR(H+ -> W+      A      )
     4.01486002E-01    2     1000024   1000022   # BR(H+ -> ~chi_1+ ~chi_10)
     2.48903401E-03    2     1000024   1000023   # BR(H+ -> ~chi_1+ ~chi_20)
     1.38802614E-04    2     1000024   1000025   # BR(H+ -> ~chi_1+ ~chi_30)
