#
#                              ======================
#                              | THE SUSYHIT OUTPUT |
#                              ======================
#
#
#              ------------------------------------------------------
#              |     This is the output of the SUSY-HIT package     |
#              |  created by A.Djouadi, M.Muehlleitner and M.Spira. |
#              |  In case of problems with SUSY-HIT email to        |
#              |           margarete.muehlleitner@cern.ch           |
#              |           michael.spira@psi.ch                     |
#              |           abdelhak.djouadi@cern.ch                 |
#              ------------------------------------------------------
#
#              ------------------------------------------------------
#              |  SUSY Les Houches Accord - MSSM Spectrum + Decays  |
#              |              based on the decay programs           |
#              |                                                    |
#              |                     SDECAY 1.3b                    |
#              |                                                    |
#              |  Authors: M.Muhlleitner, A.Djouadi and Y.Mambrini  |
#              |  Ref.:    Comput.Phys.Commun.168(2005)46           |
#              |           [hep-ph/0311167]                         |
#              |                                                    |
#              |                     HDECAY 3.4                     |
#              |                                                    |
#              |  By: A.Djouadi,J.Kalinowski,M.Muhlleitner,M.Spira  |
#              |  Ref.:    Comput.Phys.Commun.108(1998)56           |
#              |           [hep-ph/9704448]                         |
#              |                                                    |
#              |                                                    |
#              |  If not stated otherwise all DRbar couplings and   |
#              |  soft SUSY breaking masses are given at the scale  |
#              |  Q=  0.50007641E+04
#              |                                                    |
#              ------------------------------------------------------
#
#
BLOCK DCINFO  # Decay Program information
     1   SDECAY/HDECAY # decay calculator
     2   1.3b  /3.4    # version number
#
BLOCK SPINFO  # Spectrum calculator information
     1    SOFTSUSY    # spectrum calculator                
     2    3.4.0       # version number                     
#
BLOCK MODSEL  # Model selection
     1     0   #  nonUniversal                                     
#
BLOCK SMINPUTS  # Standard Model inputs
         1     1.25778332E+02   # alpha_em^-1(M_Z)^MSbar
         2     1.16570000E-05   # G_F [GeV^-2]
         3     1.17200002E-01   # alpha_S(M_Z)^MSbar
         4     9.11876000E+01   # M_Z pole mass
         5     4.25000000E+00   # mb(mb)^MSbar
         6     1.72500000E+02   # mt pole mass
         7     1.77682000E+00   # mtau pole mass
#
BLOCK MINPAR  # Input parameters - minimal models
         3     1.00000000E+01   # tanb                
#
BLOCK EXTPAR  # Input parameters - non-minimal models
         0    -1.00000000E+00   # Set                 
         1     6.00000000E+01   # M_1(MX)             
         2     3.00000000E+03   # M_2(MX)             
         3     1.66796700E+03   # M_3(MX)             
        11     5.00000000E+03   # At(MX)              
        12     5.00000000E+03   # Ab(MX)              
        13     0.00000000E+00   # Atau(MX)            
        23    -3.78699000E+02   # mu(MX)              
        26     3.00000000E+03   # mA(pole)            
        31     5.00000000E+03   # meL(MX)             
        32     5.00000000E+03   # mmuL(MX)            
        33     5.00000000E+03   # mtauL(MX)           
        34     5.00000000E+03   # meR(MX)             
        35     5.00000000E+03   # mmuR(MX)            
        36     5.00000000E+03   # mtauR(MX)           
        41     5.00000000E+03   # mqL1(MX)            
        42     5.00000000E+03   # mqL2(MX)            
        43     5.00000000E+03   # mqL3(MX)            
        44     5.00000000E+03   # muR(MX)             
        45     5.00000000E+03   # mcR(MX)             
        46     5.00000000E+03   # mtR(MX)             
        47     5.00000000E+03   # mdR(MX)             
        48     5.00000000E+03   # msR(MX)             
        49     5.00000000E+03   # mbR(MX)             
#
BLOCK MASS  # Mass Spectrum
# PDG code           mass       particle
        24     8.00922845E+01   # W+
        25     1.24747340E+02   # h
        35     3.00008725E+03   # H
        36     2.99999960E+03   # A
        37     3.00145175E+03   # H+
         5     4.87878001E+00   # b-quark pole mass calculated from mb(mb)_Msbar
   1000001     5.07197562E+03   # ~d_L
   2000001     5.05411886E+03   # ~d_R
   1000002     5.07150089E+03   # ~u_L
   2000002     5.05381532E+03   # ~u_R
   1000003     5.07197562E+03   # ~s_L
   2000003     5.05411886E+03   # ~s_R
   1000004     5.07150089E+03   # ~c_L
   2000004     5.05381532E+03   # ~c_R
   1000005     5.01789346E+03   # ~b_1
   2000005     5.05230204E+03   # ~b_2
   1000006     4.90897544E+03   # ~t_1
   2000006     5.06164677E+03   # ~t_2
   1000011     5.01912199E+03   # ~e_L
   2000011     5.00594873E+03   # ~e_R
   1000012     5.01817117E+03   # ~nu_eL
   1000013     5.01912199E+03   # ~mu_L
   2000013     5.00594873E+03   # ~mu_R
   1000014     5.01817117E+03   # ~nu_muL
   1000015     5.00479701E+03   # ~tau_1
   2000015     5.01862303E+03   # ~tau_2
   1000016     5.01761843E+03   # ~nu_tauL
   1000021     2.00000044E+03   # ~g
   1000022     6.00913058E+01   # ~chi_10
   1000023     4.01021989E+02   # ~chi_20
   1000025    -4.03142261E+02   # ~chi_30
   1000035     3.07419376E+03   # ~chi_40
   1000024     4.00000681E+02   # ~chi_1+
   1000037     3.07436157E+03   # ~chi_2+
#
BLOCK NMIX  # Neutralino Mixing Matrix
  1  1     9.93745705E-01   # N_11
  1  2     1.92558469E-04   # N_12
  1  3    -1.11540169E-01   # N_13
  1  4    -5.31291448E-03   # N_14
  2  1     8.26715064E-02   # N_21
  2  2     1.83223862E-02   # N_22
  2  3     7.02940056E-01   # N_23
  2  4     7.06190477E-01   # N_24
  3  1    -7.50649174E-02   # N_31
  3  2     1.75066020E-02   # N_32
  3  3    -7.02448400E-01   # N_33
  3  4     7.07548601E-01   # N_34
  4  1    -3.92087712E-04   # N_41
  4  2     9.99678834E-01   # N_42
  4  3    -5.60756729E-04   # N_43
  4  4    -2.53329794E-02   # N_44
#
BLOCK UMIX  # Chargino Mixing Matrix U
  1  1     7.96604302E-04   # U_11
  1  2     9.99999683E-01   # U_12
  2  1    -9.99999683E-01   # U_21
  2  2     7.96604302E-04   # U_22
#
BLOCK VMIX  # Chargino Mixing Matrix V
  1  1     3.58414825E-02   # V_11
  1  2    -9.99357488E-01   # V_12
  2  1    -9.99357488E-01   # V_21
  2  2    -3.58414825E-02   # V_22
#
BLOCK STOPMIX  # Stop Mixing Matrix
  1  1    -5.03340994E-01   # cos(theta_t)
  1  2     8.64087868E-01   # sin(theta_t)
  2  1    -8.64087868E-01   # -sin(theta_t)
  2  2    -5.03340994E-01   # cos(theta_t)
#
BLOCK SBOTMIX  # Sbottom Mixing Matrix
  1  1     9.98999245E-01   # cos(theta_b)
  1  2    -4.47270443E-02   # sin(theta_b)
  2  1     4.47270443E-02   # -sin(theta_b)
  2  2     9.98999245E-01   # cos(theta_b)
#
BLOCK STAUMIX  # Stau Mixing Matrix
  1  1    -4.53423689E-02   # cos(theta_tau)
  1  2     9.98971506E-01   # sin(theta_tau)
  2  1    -9.98971506E-01   # -sin(theta_tau)
  2  2    -4.53423689E-02   # cos(theta_tau)
#
BLOCK ALPHA  # Higgs mixing
          -1.05487339E-01   # Mixing angle in the neutral Higgs boson sector
#
BLOCK HMIX Q=  5.00076407E+03  # DRbar Higgs Parameters
         1    -3.85610474E+02   # mu(Q)MSSM           
         2     9.46917750E+00   # tan                 
         3     2.41726173E+02   # higgs               
         4     8.71399761E+06   # mA^2(Q)MSSM         
#
BLOCK GAUGE Q=  5.00076407E+03  # The gauge couplings
     1     3.71006187E-01   # gprime(Q) DRbar
     2     6.33580161E-01   # g(Q) DRbar
     3     9.98507214E-01   # g3(Q) DRbar
#
BLOCK AU Q=  5.00076407E+03  # The trilinear couplings
  1  1     5.00000001E+03   # A_u(Q) DRbar
  2  2     5.00000001E+03   # A_c(Q) DRbar
  3  3     5.00000002E+03   # A_t(Q) DRbar
#
BLOCK AD Q=  5.00076407E+03  # The trilinear couplings
  1  1     5.00000001E+03   # A_d(Q) DRbar
  2  2     5.00000001E+03   # A_s(Q) DRbar
  3  3     5.00000001E+03   # A_b(Q) DRbar
#
BLOCK AE Q=  5.00076407E+03  # The trilinear couplings
  1  1     0.00000000E+00   # A_e(Q) DRbar
  2  2     1.72091636E-07   # A_mu(Q) DRbar
  3  3     1.71721209E-07   # A_tau(Q) DRbar
#
BLOCK Yu Q=  5.00076407E+03  # The Yukawa couplings
  1  1     0.00000000E+00   # y_u(Q) DRbar
  2  2     0.00000000E+00   # y_c(Q) DRbar
  3  3     8.20277271E-01   # y_t(Q) DRbar
#
BLOCK Yd Q=  5.00076407E+03  # The Yukawa couplings
  1  1     0.00000000E+00   # y_d(Q) DRbar
  2  2     0.00000000E+00   # y_s(Q) DRbar
  3  3     1.29948289E-01   # y_b(Q) DRbar
#
BLOCK Ye Q=  5.00076407E+03  # The Yukawa couplings
  1  1     0.00000000E+00   # y_e(Q) DRbar
  2  2     0.00000000E+00   # y_mu(Q) DRbar
  3  3     9.72071957E-02   # y_tau(Q) DRbar
#
BLOCK MSOFT Q=  5.00076407E+03  # The soft SUSY breaking masses at the scale Q
         1     6.00000000E+01   # M_1(Q)              
         2     3.00000000E+03   # M_2(Q)              
         3     1.66796700E+03   # M_3(Q)              
        21     8.57916463E+06   # mH1^2(Q)            
        22     4.28746525E+05   # mH2^2(Q)            
        31     5.00000000E+03   # meL(Q)              
        32     5.00000000E+03   # mmuL(Q)             
        33     5.00000000E+03   # mtauL(Q)            
        34     5.00000000E+03   # meR(Q)              
        35     5.00000000E+03   # mmuR(Q)             
        36     5.00000000E+03   # mtauR(Q)            
        41     5.00000000E+03   # mqL1(Q)             
        42     5.00000000E+03   # mqL2(Q)             
        43     5.00000000E+03   # mqL3(Q)             
        44     5.00000000E+03   # muR(Q)              
        45     5.00000000E+03   # mcR(Q)              
        46     4.99999999E+03   # mtR(Q)              
        47     5.00000000E+03   # mdR(Q)              
        48     5.00000000E+03   # msR(Q)              
        49     5.00000000E+03   # mbR(Q)              
#
#
#
#                             =================
#                             |The decay table|
#                             =================
#
# - The QCD corrections to the decays gluino -> squark  + quark
#                                     squark -> gaugino + quark_prime
#                                     squark -> squark_prime + Higgs
#                                     squark -> gluino  + quark
#   are included.
#
# - The multi-body decays for the inos, stops and sbottoms are included.
#
# - The loop induced decays for the gluino, neutralinos and stops
#   are included.
#
# - The SUSY decays of the top quark are included.
#
#
#         PDG            Width
DECAY         6     1.40684435E+00   # top decays
#          BR         NDA      ID1       ID2
     1.00000000E+00    2           5        24   # BR(t ->  b    W+)
#
#         PDG            Width
DECAY   1000021     2.08767792E-03   # gluino decays
#          BR         NDA      ID1       ID2
     1.34431949E-08    2     1000022        21   # BR(~g -> ~chi_10 g)
     6.84114748E-03    2     1000023        21   # BR(~g -> ~chi_20 g)
     6.64285042E-03    2     1000025        21   # BR(~g -> ~chi_30 g)
#           BR         NDA      ID1       ID2       ID3
     1.10825418E-02    3     1000022         1        -1   # BR(~g -> ~chi_10 d  db)
     5.67958653E-05    3     1000023         1        -1   # BR(~g -> ~chi_20 d  db)
     5.67292912E-05    3     1000025         1        -1   # BR(~g -> ~chi_30 d  db)
     3.77896863E-02    3     1000022         2        -2   # BR(~g -> ~chi_10 u  ub)
     2.89735551E-04    3     1000023         2        -2   # BR(~g -> ~chi_20 u  ub)
     1.04072759E-04    3     1000025         2        -2   # BR(~g -> ~chi_30 u  ub)
     1.10825418E-02    3     1000022         3        -3   # BR(~g -> ~chi_10 s  sb)
     5.67958653E-05    3     1000023         3        -3   # BR(~g -> ~chi_20 s  sb)
     5.67292912E-05    3     1000025         3        -3   # BR(~g -> ~chi_30 s  sb)
     3.77896863E-02    3     1000022         4        -4   # BR(~g -> ~chi_10 c  cb)
     2.89735551E-04    3     1000023         4        -4   # BR(~g -> ~chi_20 c  cb)
     1.04072759E-04    3     1000025         4        -4   # BR(~g -> ~chi_30 c  cb)
     1.14134075E-02    3     1000022         5        -5   # BR(~g -> ~chi_10 b  bb)
     5.40720239E-03    3     1000023         5        -5   # BR(~g -> ~chi_20 b  bb)
     5.37977730E-03    3     1000025         5        -5   # BR(~g -> ~chi_30 b  bb)
     3.62499208E-02    3     1000022         6        -6   # BR(~g -> ~chi_10 t  tb)
     2.06325088E-01    3     1000023         6        -6   # BR(~g -> ~chi_20 t  tb)
     1.91134068E-01    3     1000025         6        -6   # BR(~g -> ~chi_30 t  tb)
     5.43390127E-05    3     1000024         1        -2   # BR(~g -> ~chi_1+ d  ub)
     5.43390127E-05    3    -1000024         2        -1   # BR(~g -> ~chi_1- u  db)
     5.43390127E-05    3     1000024         3        -4   # BR(~g -> ~chi_1+ s  cb)
     5.43390127E-05    3    -1000024         4        -3   # BR(~g -> ~chi_1- c  sb)
     2.15815023E-01    3     1000024         5        -6   # BR(~g -> ~chi_1+ b  tb)
     2.15815023E-01    3    -1000024         6        -5   # BR(~g -> ~chi_1- t  bb)
#
#         PDG            Width
DECAY   1000006     3.49688990E+02   # stop1 decays
#          BR         NDA      ID1       ID2
     2.48256490E-02    2     1000022         6   # BR(~t_1 -> ~chi_10 t )
     9.52345819E-02    2     1000023         6   # BR(~t_1 -> ~chi_20 t )
     8.91639681E-02    2     1000025         6   # BR(~t_1 -> ~chi_30 t )
     5.80344116E-03    2     1000035         6   # BR(~t_1 -> ~chi_40 t )
     1.37345680E-01    2     1000024         5   # BR(~t_1 -> ~chi_1+ b )
     1.15693715E-02    2     1000037         5   # BR(~t_1 -> ~chi_2+ b )
     6.36057308E-01    2     1000021         6   # BR(~t_1 -> ~g      t )
#
#         PDG            Width
DECAY   2000006     3.54010617E+02   # stop2 decays
#          BR         NDA      ID1       ID2
     1.00091520E-02    2     1000022         6   # BR(~t_2 -> ~chi_10 t )
     9.26499310E-02    2     1000023         6   # BR(~t_2 -> ~chi_20 t )
     9.94144925E-02    2     1000025         6   # BR(~t_2 -> ~chi_30 t )
     1.58796759E-02    2     1000035         6   # BR(~t_2 -> ~chi_40 t )
     5.48541180E-02    2     1000024         5   # BR(~t_2 -> ~chi_1+ b )
     3.16213108E-02    2     1000037         5   # BR(~t_2 -> ~chi_2+ b )
     6.92150830E-01    2     1000021         6   # BR(~t_2 -> ~g      t )
     7.93087694E-04    2     1000006        25   # BR(~t_2 -> ~t_1    h )
     2.62740242E-03    2     1000006        23   # BR(~t_2 -> ~t_1    Z )
#
#         PDG            Width
DECAY   1000005     3.29042462E+02   # sbottom1 decays
#          BR         NDA      ID1       ID2
     2.38524376E-03    2     1000022         5   # BR(~b_1 -> ~chi_10 b )
     2.48351496E-03    2     1000023         5   # BR(~b_1 -> ~chi_20 b )
     2.50733630E-03    2     1000025         5   # BR(~b_1 -> ~chi_30 b )
     2.30882104E-02    2     1000035         5   # BR(~b_1 -> ~chi_40 b )
     2.01939725E-01    2    -1000024         6   # BR(~b_1 -> ~chi_1- t )
     4.63525866E-02    2    -1000037         6   # BR(~b_1 -> ~chi_2- t )
     7.19565885E-01    2     1000021         5   # BR(~b_1 -> ~g      b )
     1.67749812E-03    2     1000006       -24   # BR(~b_1 -> ~t_1    W-)
#
#         PDG            Width
DECAY   2000005     2.45864874E+02   # sbottom2 decays
#          BR         NDA      ID1       ID2
     1.18960243E-02    2     1000022         5   # BR(~b_2 -> ~chi_10 b )
     3.51203546E-03    2     1000023         5   # BR(~b_2 -> ~chi_20 b )
     3.53599279E-03    2     1000025         5   # BR(~b_2 -> ~chi_30 b )
     5.71591065E-05    2     1000035         5   # BR(~b_2 -> ~chi_40 b )
     7.34017209E-03    2    -1000024         6   # BR(~b_2 -> ~chi_1- t )
     1.14770358E-04    2    -1000037         6   # BR(~b_2 -> ~chi_2- t )
     9.73525261E-01    2     1000021         5   # BR(~b_2 -> ~g      b )
     1.85851773E-05    2     1000006       -24   # BR(~b_2 -> ~t_1    W-)
#
#         PDG            Width
DECAY   1000002     2.65294755E+02   # sup_L decays
#          BR         NDA      ID1       ID2
     2.78598988E-03    2     1000022         2   # BR(~u_L -> ~chi_10 u)
     8.67451925E-05    2     1000023         2   # BR(~u_L -> ~chi_20 u)
     5.95236282E-07    2     1000025         2   # BR(~u_L -> ~chi_30 u)
     2.97175327E-02    2     1000035         2   # BR(~u_L -> ~chi_40 u)
     1.87701325E-04    2     1000024         1   # BR(~u_L -> ~chi_1+ d)
     5.93984751E-02    2     1000037         1   # BR(~u_L -> ~chi_2+ d)
     9.07822961E-01    2     1000021         2   # BR(~u_L -> ~g      u)
#
#         PDG            Width
DECAY   2000002     2.51288841E+02   # sup_R decays
#          BR         NDA      ID1       ID2
     4.68012635E-02    2     1000022         2   # BR(~u_R -> ~chi_10 u)
     3.20163503E-04    2     1000023         2   # BR(~u_R -> ~chi_20 u)
     2.63923138E-04    2     1000025         2   # BR(~u_R -> ~chi_30 u)
     2.90856564E-09    2     1000035         2   # BR(~u_R -> ~chi_40 u)
     9.52614647E-01    2     1000021         2   # BR(~u_R -> ~g      u)
#
#         PDG            Width
DECAY   1000001     2.65308241E+02   # sdown_L decays
#          BR         NDA      ID1       ID2
     2.77507074E-03    2     1000022         1   # BR(~d_L -> ~chi_10 d)
     3.49013398E-07    2     1000023         1   # BR(~d_L -> ~chi_20 d)
     7.55431392E-05    2     1000025         1   # BR(~d_L -> ~chi_30 d)
     2.97343277E-02    2     1000035         1   # BR(~d_L -> ~chi_40 d)
     9.27258225E-08    2    -1000024         2   # BR(~d_L -> ~chi_1- u)
     5.94902340E-02    2    -1000037         2   # BR(~d_L -> ~chi_2- u)
     9.07924383E-01    2     1000021         1   # BR(~d_L -> ~g      d)
#
#         PDG            Width
DECAY   2000001     2.42383521E+02   # sdown_R decays
#          BR         NDA      ID1       ID2
     1.21309302E-02    2     1000022         1   # BR(~d_R -> ~chi_10 d)
     8.29867865E-05    2     1000023         1   # BR(~d_R -> ~chi_20 d)
     6.84092136E-05    2     1000025         1   # BR(~d_R -> ~chi_30 d)
     7.54007968E-10    2     1000035         1   # BR(~d_R -> ~chi_40 d)
     9.87717673E-01    2     1000021         1   # BR(~d_R -> ~g      d)
#
#         PDG            Width
DECAY   1000004     2.65294755E+02   # scharm_L decays
#          BR         NDA      ID1       ID2
     2.78598988E-03    2     1000022         4   # BR(~c_L -> ~chi_10 c)
     8.67451925E-05    2     1000023         4   # BR(~c_L -> ~chi_20 c)
     5.95236282E-07    2     1000025         4   # BR(~c_L -> ~chi_30 c)
     2.97175327E-02    2     1000035         4   # BR(~c_L -> ~chi_40 c)
     1.87701325E-04    2     1000024         3   # BR(~c_L -> ~chi_1+ s)
     5.93984751E-02    2     1000037         3   # BR(~c_L -> ~chi_2+ s)
     9.07822961E-01    2     1000021         4   # BR(~c_L -> ~g      c)
#
#         PDG            Width
DECAY   2000004     2.51288841E+02   # scharm_R decays
#          BR         NDA      ID1       ID2
     4.68012635E-02    2     1000022         4   # BR(~c_R -> ~chi_10 c)
     3.20163503E-04    2     1000023         4   # BR(~c_R -> ~chi_20 c)
     2.63923138E-04    2     1000025         4   # BR(~c_R -> ~chi_30 c)
     2.90856564E-09    2     1000035         4   # BR(~c_R -> ~chi_40 c)
     9.52614647E-01    2     1000021         4   # BR(~c_R -> ~g      c)
#
#         PDG            Width
DECAY   1000003     2.65308241E+02   # sstrange_L decays
#          BR         NDA      ID1       ID2
     2.77507074E-03    2     1000022         3   # BR(~s_L -> ~chi_10 s)
     3.49013398E-07    2     1000023         3   # BR(~s_L -> ~chi_20 s)
     7.55431392E-05    2     1000025         3   # BR(~s_L -> ~chi_30 s)
     2.97343277E-02    2     1000035         3   # BR(~s_L -> ~chi_40 s)
     9.27258225E-08    2    -1000024         4   # BR(~s_L -> ~chi_1- c)
     5.94902340E-02    2    -1000037         4   # BR(~s_L -> ~chi_2- c)
     9.07924383E-01    2     1000021         3   # BR(~s_L -> ~g      s)
#
#         PDG            Width
DECAY   2000003     2.42383521E+02   # sstrange_R decays
#          BR         NDA      ID1       ID2
     1.21309302E-02    2     1000022         3   # BR(~s_R -> ~chi_10 s)
     8.29867865E-05    2     1000023         3   # BR(~s_R -> ~chi_20 s)
     6.84092136E-05    2     1000025         3   # BR(~s_R -> ~chi_30 s)
     7.54007968E-10    2     1000035         3   # BR(~s_R -> ~chi_40 s)
     9.87717673E-01    2     1000021         3   # BR(~s_R -> ~g      s)
#
#         PDG            Width
DECAY   1000011     3.03550394E+01   # selectron_L decays
#          BR         NDA      ID1       ID2
     2.23652005E-01    2     1000022        11   # BR(~e_L -> ~chi_10 e-)
     2.90276156E-03    2     1000023        11   # BR(~e_L -> ~chi_20 e-)
     4.55936895E-04    2     1000025        11   # BR(~e_L -> ~chi_30 e-)
     2.57496212E-01    2     1000035        11   # BR(~e_L -> ~chi_40 e-)
     8.27334671E-07    2    -1000024        12   # BR(~e_L -> ~chi_1- nu_e)
     5.15492257E-01    2    -1000037        12   # BR(~e_L -> ~chi_2- nu_e)
#
#         PDG            Width
DECAY   2000011     2.74041007E+01   # selectron_R decays
#          BR         NDA      ID1       ID2
     9.87685432E-01    2     1000022        11   # BR(~e_R -> ~chi_10 e-)
     6.75014166E-03    2     1000023        11   # BR(~e_R -> ~chi_20 e-)
     5.56436646E-03    2     1000025        11   # BR(~e_R -> ~chi_30 e-)
     5.96700329E-08    2     1000035        11   # BR(~e_R -> ~chi_40 e-)
#
#         PDG            Width
DECAY   1000013     3.03550394E+01   # smuon_L decays
#          BR         NDA      ID1       ID2
     2.23652005E-01    2     1000022        13   # BR(~mu_L -> ~chi_10 mu-)
     2.90276156E-03    2     1000023        13   # BR(~mu_L -> ~chi_20 mu-)
     4.55936895E-04    2     1000025        13   # BR(~mu_L -> ~chi_30 mu-)
     2.57496212E-01    2     1000035        13   # BR(~mu_L -> ~chi_40 mu-)
     8.27334671E-07    2    -1000024        14   # BR(~mu_L -> ~chi_1- nu_mu)
     5.15492257E-01    2    -1000037        14   # BR(~mu_L -> ~chi_2- nu_mu)
#
#         PDG            Width
DECAY   2000013     2.74041007E+01   # smuon_R decays
#          BR         NDA      ID1       ID2
     9.87685432E-01    2     1000022        13   # BR(~mu_R -> ~chi_10 mu-)
     6.75014166E-03    2     1000023        13   # BR(~mu_R -> ~chi_20 mu-)
     5.56436646E-03    2     1000025        13   # BR(~mu_R -> ~chi_30 mu-)
     5.96700329E-08    2     1000035        13   # BR(~mu_R -> ~chi_40 mu-)
#
#         PDG            Width
DECAY   1000015     2.92598885E+01   # stau_1 decays
#          BR         NDA      ID1       ID2
     9.24673999E-01    2     1000022        15   # BR(~tau_1 -> ~chi_10  tau-)
     2.17172519E-02    2     1000023        15   # BR(~tau_1 -> ~chi_20  tau-)
     2.02901713E-02    2     1000025        15   # BR(~tau_1 -> ~chi_30  tau-)
     5.41025978E-04    2     1000035        15   # BR(~tau_1 -> ~chi_40  tau-)
     3.16945974E-02    2    -1000024        16   # BR(~tau_1 -> ~chi_1-  nu_tau)
     1.08295441E-03    2    -1000037        16   # BR(~tau_1 -> ~chi_2-  nu_tau)
#
#         PDG            Width
DECAY   2000015     3.12732295E+01   # stau_2 decays
#          BR         NDA      ID1       ID2
     2.17959875E-01    2     1000022        15   # BR(~tau_2 -> ~chi_10  tau-)
     1.78040593E-02    2     1000023        15   # BR(~tau_2 -> ~chi_20  tau-)
     1.56823826E-02    2     1000025        15   # BR(~tau_2 -> ~chi_30  tau-)
     2.49340415E-01    2     1000035        15   # BR(~tau_2 -> ~chi_40  tau-)
     4.80280350E-05    2    -1000024        16   # BR(~tau_2 -> ~chi_1-  nu_tau)
     4.99165240E-01    2    -1000037        16   # BR(~tau_2 -> ~chi_2-  nu_tau)
#
#         PDG            Width
DECAY   1000012     3.03582346E+01   # snu_eL decays
#          BR         NDA      ID1       ID2
     2.23290327E-01    2     1000022        12   # BR(~nu_eL -> ~chi_10 nu_e)
     5.89907693E-04    2     1000023        12   # BR(~nu_eL -> ~chi_20 nu_e)
     2.46131889E-03    2     1000025        12   # BR(~nu_eL -> ~chi_30 nu_e)
     2.57539690E-01    2     1000035        12   # BR(~nu_eL -> ~chi_40 nu_e)
     1.67431730E-03    2     1000024        11   # BR(~nu_eL -> ~chi_1+ e-)
     5.14444439E-01    2     1000037        11   # BR(~nu_eL -> ~chi_2+ e-)
#
#         PDG            Width
DECAY   1000014     3.03582346E+01   # snu_muL decays
#          BR         NDA      ID1       ID2
     2.23290327E-01    2     1000022        14   # BR(~nu_muL -> ~chi_10 nu_mu)
     5.89907693E-04    2     1000023        14   # BR(~nu_muL -> ~chi_20 nu_mu)
     2.46131889E-03    2     1000025        14   # BR(~nu_muL -> ~chi_30 nu_mu)
     2.57539690E-01    2     1000035        14   # BR(~nu_muL -> ~chi_40 nu_mu)
     1.67431730E-03    2     1000024        13   # BR(~nu_muL -> ~chi_1+ mu-)
     5.14444439E-01    2     1000037        13   # BR(~nu_muL -> ~chi_2+ mu-)
#
#         PDG            Width
DECAY   1000016     3.12799918E+01   # snu_tauL decays
#          BR         NDA      ID1       ID2
     2.16686536E-01    2     1000022        16   # BR(~nu_tauL -> ~chi_10 nu_tau)
     5.72459640E-04    2     1000023        16   # BR(~nu_tauL -> ~chi_20 nu_tau)
     2.38851891E-03    2     1000025        16   # BR(~nu_tauL -> ~chi_30 nu_tau)
     2.49856835E-01    2     1000035        16   # BR(~nu_tauL -> ~chi_40 nu_tau)
     3.13984040E-02    2     1000024        15   # BR(~nu_tauL -> ~chi_1+ tau-)
     4.99097247E-01    2     1000037        15   # BR(~nu_tauL -> ~chi_2+ tau-)
#
#         PDG            Width
DECAY   1000024     2.29948507E-01   # chargino1+ decays
#          BR         NDA      ID1       ID2
     1.00000000E+00    2     1000022        24   # BR(~chi_1+ -> ~chi_10  W+)
#
#         PDG            Width
DECAY   1000037     2.25260215E+01   # chargino2+ decays
#          BR         NDA      ID1       ID2
     2.53607985E-01    2     1000024        23   # BR(~chi_2+ -> ~chi_1+  Z )
     1.38108349E-04    2     1000022        24   # BR(~chi_2+ -> ~chi_10  W+)
     2.45216412E-01    2     1000023        24   # BR(~chi_2+ -> ~chi_20  W+)
     2.44436689E-01    2     1000025        24   # BR(~chi_2+ -> ~chi_30  W+)
     2.56592569E-01    2     1000024        25   # BR(~chi_2+ -> ~chi_1+  h )
     8.23629106E-06    2     1000022        37   # BR(~chi_2+ -> ~chi_10  H+)
#
#         PDG            Width
DECAY   1000022     0.00000000E+00   # neutralino1 decays
#
#         PDG            Width
DECAY   1000023     2.27205094E-01   # neutralino2 decays
#          BR         NDA      ID1       ID2
     4.94332628E-01    2     1000022        23   # BR(~chi_20 -> ~chi_10   Z )
     5.05667372E-01    2     1000022        25   # BR(~chi_20 -> ~chi_10   h )
#
#         PDG            Width
DECAY   1000025     2.16630191E-01   # neutralino3 decays
#          BR         NDA      ID1       ID2
     5.81729064E-01    2     1000022        23   # BR(~chi_30 -> ~chi_10   Z )
     4.18270936E-01    2     1000022        25   # BR(~chi_30 -> ~chi_10   h )
#
#         PDG            Width
DECAY   1000035     2.25328984E+01   # neutralino4 decays
#          BR         NDA      ID1       ID2
     2.15562961E-06    2     1000022        23   # BR(~chi_40 -> ~chi_10   Z )
     1.20956892E-01    2     1000023        23   # BR(~chi_40 -> ~chi_20   Z )
     1.32334622E-01    2     1000025        23   # BR(~chi_40 -> ~chi_30   Z )
     2.45209672E-01    2     1000024       -24   # BR(~chi_40 -> ~chi_1+   W-)
     2.45209672E-01    2    -1000024        24   # BR(~chi_40 -> ~chi_1-   W+)
     1.25371349E-04    2     1000022        25   # BR(~chi_40 -> ~chi_10   h )
     7.94314287E-06    2     1000022        35   # BR(~chi_40 -> ~chi_10   H )
     8.51210544E-07    2     1000022        36   # BR(~chi_40 -> ~chi_10   A )
     1.34943942E-01    2     1000023        25   # BR(~chi_40 -> ~chi_20   h )
     1.21208878E-01    2     1000025        25   # BR(~chi_40 -> ~chi_30   h )
#
#         PDG            Width
DECAY        25     4.07167846E-03   # h decays
#          BR         NDA      ID1       ID2
     6.10161670E-01    2           5        -5   # BR(h -> b       bb     )
     6.36954152E-02    2         -15        15   # BR(h -> tau+    tau-   )
     2.25505043E-04    2         -13        13   # BR(h -> mu+     mu-    )
     4.78076100E-04    2           3        -3   # BR(h -> s       sb     )
     2.07135646E-02    2           4        -4   # BR(h -> c       cb     )
     6.69739857E-02    2          21        21   # BR(h -> g       g      )
     2.30093994E-03    2          22        22   # BR(h -> gam     gam    )
     1.48202583E-03    2          22        23   # BR(h -> Z       gam    )
     2.09021807E-01    2          24       -24   # BR(h -> W+      W-     )
     2.48864189E-02    2          23        23   # BR(h -> Z       Z      )
     6.05915902E-05    2     1000022   1000022   # BR(h -> ~chi_10 ~chi_10)
#
#         PDG            Width
DECAY        35     8.72927127E+00   # H decays
#          BR         NDA      ID1       ID2
     3.64629487E-01    2           5        -5   # BR(H -> b       bb     )
     6.38121474E-02    2         -15        15   # BR(H -> tau+    tau-   )
     2.25644822E-04    2         -13        13   # BR(H -> mu+     mu-    )
     2.76605886E-04    2           3        -3   # BR(H -> s       sb     )
     1.54785959E-06    2           4        -4   # BR(H -> c       cb     )
     1.54643438E-01    2           6        -6   # BR(H -> t       tb     )
     5.14424563E-05    2          21        21   # BR(H -> g       g      )
     1.39929501E-07    2          22        22   # BR(H -> gam     gam    )
     9.12419275E-08    2          23        22   # BR(H -> Z       gam    )
     7.44801716E-05    2          24       -24   # BR(H -> W+      W-     )
     3.71929378E-05    2          23        23   # BR(H -> Z       Z      )
     2.68297710E-04    2          25        25   # BR(H -> h       h      )
    -3.38681600E-23    2          36        36   # BR(H -> A       A      )
     7.25321624E-19    2          23        36   # BR(H -> Z       A      )
     3.30482073E-03    2     1000024  -1000024   # BR(H -> ~chi_1+ ~chi_1-)
     1.04828498E-02    2     1000022   1000022   # BR(H -> ~chi_10 ~chi_10)
     1.10136204E-03    2     1000023   1000023   # BR(H -> ~chi_20 ~chi_20)
     3.42854807E-03    2     1000025   1000025   # BR(H -> ~chi_30 ~chi_30)
     2.38949014E-01    2     1000022   1000023   # BR(H -> ~chi_10 ~chi_20)
     1.53394673E-01    2     1000022   1000025   # BR(H -> ~chi_10 ~chi_30)
     5.31821588E-03    2     1000023   1000025   # BR(H -> ~chi_20 ~chi_30)
#
#         PDG            Width
DECAY        36     8.73529023E+00   # A decays
#          BR         NDA      ID1       ID2
     3.64502874E-01    2           5        -5   # BR(A -> b       bb     )
     6.37700666E-02    2         -15        15   # BR(A -> tau+    tau-   )
     2.25495706E-04    2         -13        13   # BR(A -> mu+     mu-    )
     2.76625205E-04    2           3        -3   # BR(A -> s       sb     )
     1.55294913E-06    2           4        -4   # BR(A -> c       cb     )
     1.55066314E-01    2           6        -6   # BR(A -> t       tb     )
     1.53443544E-04    2          21        21   # BR(A -> g       g      )
     5.82571883E-07    2          22        22   # BR(A -> gam     gam    )
     1.85709912E-07    2          23        22   # BR(A -> Z       gam    )
     7.41472537E-05    2          23        25   # BR(A -> Z       h      )
     3.52220089E-03    2     1000024  -1000024   # BR(A -> ~chi_1+ ~chi_1-)
     1.02834761E-02    2     1000022   1000022   # BR(A -> ~chi_10 ~chi_10)
     7.73801023E-04    2     1000023   1000023   # BR(A -> ~chi_20 ~chi_20)
     5.66421588E-03    2     1000025   1000025   # BR(A -> ~chi_30 ~chi_30)
     1.57085213E-01    2     1000022   1000023   # BR(A -> ~chi_10 ~chi_20)
     2.34388754E-01    2     1000022   1000025   # BR(A -> ~chi_10 ~chi_30)
     4.21105124E-03    2     1000023   1000025   # BR(A -> ~chi_20 ~chi_30)
#
#         PDG            Width
DECAY        37     8.67671913E+00   # H+ decays
#          BR         NDA      ID1       ID2
     5.84354962E-04    2           4        -5   # BR(H+ -> c       bb     )
     6.42316148E-02    2         -15        16   # BR(H+ -> tau+    nu_tau )
     2.27127774E-04    2         -13        14   # BR(H+ -> mu+     nu_mu  )
     3.73985209E-06    2           2        -5   # BR(H+ -> u       bb     )
     1.33270518E-05    2           2        -3   # BR(H+ -> u       sb     )
     2.75604673E-04    2           4        -3   # BR(H+ -> c       sb     )
     5.18110316E-01    2           6        -5   # BR(H+ -> t       bb     )
     7.48044169E-05    2          24        25   # BR(H+ -> W+      h      )
     9.77943115E-13    2          24        36   # BR(H+ -> W+      A      )
     4.10508228E-01    2     1000024   1000022   # BR(H+ -> ~chi_1+ ~chi_10)
     5.22401437E-03    2     1000024   1000023   # BR(H+ -> ~chi_1+ ~chi_20)
     7.46868242E-04    2     1000024   1000025   # BR(H+ -> ~chi_1+ ~chi_30)
