#
#                              ======================
#                              | THE SUSYHIT OUTPUT |
#                              ======================
#
#
#              ------------------------------------------------------
#              |     This is the output of the SUSY-HIT package     |
#              |  created by A.Djouadi, M.Muehlleitner and M.Spira. |
#              |  In case of problems with SUSY-HIT email to        |
#              |           margarete.muehlleitner@cern.ch           |
#              |           michael.spira@psi.ch                     |
#              |           abdelhak.djouadi@cern.ch                 |
#              ------------------------------------------------------
#
#              ------------------------------------------------------
#              |  SUSY Les Houches Accord - MSSM Spectrum + Decays  |
#              |              based on the decay programs           |
#              |                                                    |
#              |                     SDECAY 1.3b                    |
#              |                                                    |
#              |  Authors: M.Muhlleitner, A.Djouadi and Y.Mambrini  |
#              |  Ref.:    Comput.Phys.Commun.168(2005)46           |
#              |           [hep-ph/0311167]                         |
#              |                                                    |
#              |                     HDECAY 3.4                     |
#              |                                                    |
#              |  By: A.Djouadi,J.Kalinowski,M.Muhlleitner,M.Spira  |
#              |  Ref.:    Comput.Phys.Commun.108(1998)56           |
#              |           [hep-ph/9704448]                         |
#              |                                                    |
#              |                                                    |
#              |  If not stated otherwise all DRbar couplings and   |
#              |  soft SUSY breaking masses are given at the scale  |
#              |  Q=  0.50007363E+04
#              |                                                    |
#              ------------------------------------------------------
#
#
BLOCK DCINFO  # Decay Program information
     1   SDECAY/HDECAY # decay calculator
     2   1.3b  /3.4    # version number
#
BLOCK SPINFO  # Spectrum calculator information
     1    SOFTSUSY    # spectrum calculator                
     2    3.4.0       # version number                     
#
BLOCK MODSEL  # Model selection
     1     0   #  nonUniversal                                     
#
BLOCK SMINPUTS  # Standard Model inputs
         1     1.25778332E+02   # alpha_em^-1(M_Z)^MSbar
         2     1.16570000E-05   # G_F [GeV^-2]
         3     1.17200002E-01   # alpha_S(M_Z)^MSbar
         4     9.11876000E+01   # M_Z pole mass
         5     4.25000000E+00   # mb(mb)^MSbar
         6     1.72500000E+02   # mt pole mass
         7     1.77682000E+00   # mtau pole mass
#
BLOCK MINPAR  # Input parameters - minimal models
         3     1.00000000E+01   # tanb                
#
BLOCK EXTPAR  # Input parameters - non-minimal models
         0    -1.00000000E+00   # Set                 
         1     6.00000000E+01   # M_1(MX)             
         2     3.00000000E+03   # M_2(MX)             
         3     1.30154100E+03   # M_3(MX)             
        11     5.00000000E+03   # At(MX)              
        12     5.00000000E+03   # Ab(MX)              
        13     0.00000000E+00   # Atau(MX)            
        23    -9.59123000E+02   # mu(MX)              
        26     3.00000000E+03   # mA(pole)            
        31     5.00000000E+03   # meL(MX)             
        32     5.00000000E+03   # mmuL(MX)            
        33     5.00000000E+03   # mtauL(MX)           
        34     5.00000000E+03   # meR(MX)             
        35     5.00000000E+03   # mmuR(MX)            
        36     5.00000000E+03   # mtauR(MX)           
        41     5.00000000E+03   # mqL1(MX)            
        42     5.00000000E+03   # mqL2(MX)            
        43     5.00000000E+03   # mqL3(MX)            
        44     5.00000000E+03   # muR(MX)             
        45     5.00000000E+03   # mcR(MX)             
        46     5.00000000E+03   # mtR(MX)             
        47     5.00000000E+03   # mdR(MX)             
        48     5.00000000E+03   # msR(MX)             
        49     5.00000000E+03   # mbR(MX)             
#
BLOCK MASS  # Mass Spectrum
# PDG code           mass       particle
        24     8.00944052E+01   # W+
        25     1.24657123E+02   # h
        35     3.00008134E+03   # H
        36     2.99999857E+03   # A
        37     3.00112323E+03   # H+
         5     4.87878001E+00   # b-quark pole mass calculated from mb(mb)_Msbar
   1000001     5.06752831E+03   # ~d_L
   2000001     5.04970943E+03   # ~d_R
   1000002     5.06705297E+03   # ~u_L
   2000002     5.04942330E+03   # ~u_R
   1000003     5.06752831E+03   # ~s_L
   2000003     5.04970943E+03   # ~s_R
   1000004     5.06705297E+03   # ~c_L
   2000004     5.04942330E+03   # ~c_R
   1000005     5.01342656E+03   # ~b_1
   2000005     5.04824824E+03   # ~b_2
   1000006     4.90404832E+03   # ~t_1
   2000006     5.05884951E+03   # ~t_2
   1000011     5.01907203E+03   # ~e_L
   2000011     5.00592435E+03   # ~e_R
   1000012     5.01812322E+03   # ~nu_eL
   1000013     5.01907203E+03   # ~mu_L
   2000013     5.00592435E+03   # ~mu_R
   1000014     5.01812322E+03   # ~nu_muL
   1000015     5.00461223E+03   # ~tau_1
   2000015     5.01876672E+03   # ~tau_2
   1000016     5.01757705E+03   # ~nu_tauL
   1000021     1.60000004E+03   # ~g
   1000022     6.02985244E+01   # ~chi_10
   1000023     9.99652079E+02   # ~chi_20
   1000025    -1.00190609E+03   # ~chi_30
   1000035     3.07425644E+03   # ~chi_40
   1000024     1.00000018E+03   # ~chi_1+
   1000037     3.07442392E+03   # ~chi_2+
#
BLOCK NMIX  # Neutralino Mixing Matrix
  1  1     9.99006979E-01   # N_11
  1  2     1.84574585E-04   # N_12
  1  3    -4.45104839E-02   # N_13
  1  4     1.95927929E-03   # N_14
  2  1     3.00969654E-02   # N_21
  2  2     2.34942629E-02   # N_22
  2  3     7.06701124E-01   # N_23
  2  4     7.06481220E-01   # N_24
  3  1    -3.28491591E-02   # N_31
  3  2     1.49124917E-02   # N_32
  3  3    -7.06084639E-01   # N_33
  3  4     7.07207914E-01   # N_34
  4  1    -4.01790105E-04   # N_41
  4  2     9.99612727E-01   # N_42
  4  3    -6.06807515E-03   # N_43
  4  4    -2.71553659E-02   # N_44
#
BLOCK UMIX  # Chargino Mixing Matrix U
  1  1     8.59523794E-03   # U_11
  1  2     9.99963060E-01   # U_12
  2  1    -9.99963060E-01   # U_21
  2  2     8.59523794E-03   # U_22
#
BLOCK VMIX  # Chargino Mixing Matrix V
  1  1     3.84333014E-02   # V_11
  1  2    -9.99261168E-01   # V_12
  2  1    -9.99261168E-01   # V_21
  2  2    -3.84333014E-02   # V_22
#
BLOCK STOPMIX  # Stop Mixing Matrix
  1  1    -5.08301939E-01   # cos(theta_t)
  1  2     8.61178924E-01   # sin(theta_t)
  2  1    -8.61178924E-01   # -sin(theta_t)
  2  2    -5.08301939E-01   # cos(theta_t)
#
BLOCK SBOTMIX  # Sbottom Mixing Matrix
  1  1     9.97064062E-01   # cos(theta_b)
  1  2    -7.65719026E-02   # sin(theta_b)
  2  1     7.65719026E-02   # -sin(theta_b)
  2  2     9.97064062E-01   # cos(theta_b)
#
BLOCK STAUMIX  # Stau Mixing Matrix
  1  1    -1.13912106E-01   # cos(theta_tau)
  1  2     9.93490831E-01   # sin(theta_tau)
  2  1    -9.93490831E-01   # -sin(theta_tau)
  2  2    -1.13912106E-01   # cos(theta_tau)
#
BLOCK ALPHA  # Higgs mixing
          -1.05460996E-01   # Mixing angle in the neutral Higgs boson sector
#
BLOCK HMIX Q=  5.00073633E+03  # DRbar Higgs Parameters
         1    -9.76550966E+02   # mu(Q)MSSM           
         2     9.47098666E+00   # tan                 
         3     2.41870223E+02   # higgs               
         4     8.51420718E+06   # mA^2(Q)MSSM         
#
BLOCK GAUGE Q=  5.00073633E+03  # The gauge couplings
     1     3.70804971E-01   # gprime(Q) DRbar
     2     6.32573996E-01   # g(Q) DRbar
     3     1.00176636E+00   # g3(Q) DRbar
#
BLOCK AU Q=  5.00073633E+03  # The trilinear couplings
  1  1     5.00000001E+03   # A_u(Q) DRbar
  2  2     5.00000001E+03   # A_c(Q) DRbar
  3  3     5.00000001E+03   # A_t(Q) DRbar
#
BLOCK AD Q=  5.00073633E+03  # The trilinear couplings
  1  1     5.00000000E+03   # A_d(Q) DRbar
  2  2     5.00000000E+03   # A_s(Q) DRbar
  3  3     5.00000001E+03   # A_b(Q) DRbar
#
BLOCK AE Q=  5.00073633E+03  # The trilinear couplings
  1  1     0.00000000E+00   # A_e(Q) DRbar
  2  2     1.12810940E-07   # A_mu(Q) DRbar
  3  3     1.12208535E-07   # A_tau(Q) DRbar
#
BLOCK Yu Q=  5.00073633E+03  # The Yukawa couplings
  1  1     0.00000000E+00   # y_u(Q) DRbar
  2  2     0.00000000E+00   # y_c(Q) DRbar
  3  3     8.18280668E-01   # y_t(Q) DRbar
#
BLOCK Yd Q=  5.00073633E+03  # The Yukawa couplings
  1  1     0.00000000E+00   # y_d(Q) DRbar
  2  2     0.00000000E+00   # y_s(Q) DRbar
  3  3     1.30235071E-01   # y_b(Q) DRbar
#
BLOCK Ye Q=  5.00073633E+03  # The Yukawa couplings
  1  1     0.00000000E+00   # y_e(Q) DRbar
  2  2     0.00000000E+00   # y_mu(Q) DRbar
  3  3     9.68602992E-02   # y_tau(Q) DRbar
#
BLOCK MSOFT Q=  5.00073633E+03  # The soft SUSY breaking masses at the scale Q
         1     6.00000000E+01   # M_1(Q)              
         2     3.00000000E+03   # M_2(Q)              
         3     1.30154100E+03   # M_3(Q)              
        21     7.74275213E+06   # mH1^2(Q)            
        22    -3.90925769E+05   # mH2^2(Q)            
        31     5.00000000E+03   # meL(Q)              
        32     5.00000000E+03   # mmuL(Q)             
        33     5.00000000E+03   # mtauL(Q)            
        34     5.00000000E+03   # meR(Q)              
        35     5.00000000E+03   # mmuR(Q)             
        36     5.00000000E+03   # mtauR(Q)            
        41     5.00000000E+03   # mqL1(Q)             
        42     5.00000000E+03   # mqL2(Q)             
        43     5.00000000E+03   # mqL3(Q)             
        44     5.00000000E+03   # muR(Q)              
        45     5.00000000E+03   # mcR(Q)              
        46     4.99999999E+03   # mtR(Q)              
        47     5.00000000E+03   # mdR(Q)              
        48     5.00000000E+03   # msR(Q)              
        49     5.00000000E+03   # mbR(Q)              
#
#
#
#                             =================
#                             |The decay table|
#                             =================
#
# - The QCD corrections to the decays gluino -> squark  + quark
#                                     squark -> gaugino + quark_prime
#                                     squark -> squark_prime + Higgs
#                                     squark -> gluino  + quark
#   are included.
#
# - The multi-body decays for the inos, stops and sbottoms are included.
#
# - The loop induced decays for the gluino, neutralinos and stops
#   are included.
#
# - The SUSY decays of the top quark are included.
#
#
#         PDG            Width
DECAY         6     1.40228688E+00   # top decays
#          BR         NDA      ID1       ID2
     1.00000000E+00    2           5        24   # BR(t ->  b    W+)
#
#         PDG            Width
DECAY   1000021     1.22414826E-04   # gluino decays
#          BR         NDA      ID1       ID2
     8.21637814E-06    2     1000022        21   # BR(~g -> ~chi_10 g)
     1.49266240E-02    2     1000023        21   # BR(~g -> ~chi_20 g)
     1.46320162E-02    2     1000025        21   # BR(~g -> ~chi_30 g)
#           BR         NDA      ID1       ID2       ID3
     6.06997507E-02    3     1000022         1        -1   # BR(~g -> ~chi_10 d  db)
     1.04394208E-05    3     1000023         1        -1   # BR(~g -> ~chi_20 d  db)
     5.05243991E-06    3     1000025         1        -1   # BR(~g -> ~chi_30 d  db)
     2.06955862E-01    3     1000022         2        -2   # BR(~g -> ~chi_10 u  ub)
     3.30118827E-05    3     1000023         2        -2   # BR(~g -> ~chi_20 u  ub)
     6.02058032E-06    3     1000025         2        -2   # BR(~g -> ~chi_30 u  ub)
     6.06997507E-02    3     1000022         3        -3   # BR(~g -> ~chi_10 s  sb)
     1.04394208E-05    3     1000023         3        -3   # BR(~g -> ~chi_20 s  sb)
     5.05243991E-06    3     1000025         3        -3   # BR(~g -> ~chi_30 s  sb)
     2.06955862E-01    3     1000022         4        -4   # BR(~g -> ~chi_10 c  cb)
     3.30118827E-05    3     1000023         4        -4   # BR(~g -> ~chi_20 c  cb)
     6.02058032E-06    3     1000025         4        -4   # BR(~g -> ~chi_30 c  cb)
     6.15633266E-02    3     1000022         5        -5   # BR(~g -> ~chi_10 b  bb)
     2.07034148E-03    3     1000023         5        -5   # BR(~g -> ~chi_20 b  bb)
     2.02065363E-03    3     1000025         5        -5   # BR(~g -> ~chi_30 b  bb)
     1.86602355E-01    3     1000022         6        -6   # BR(~g -> ~chi_10 t  tb)
     4.20707983E-02    3     1000023         6        -6   # BR(~g -> ~chi_20 t  tb)
     2.54190585E-02    3     1000025         6        -6   # BR(~g -> ~chi_30 t  tb)
     2.92284000E-05    3     1000024         1        -2   # BR(~g -> ~chi_1+ d  ub)
     2.92284000E-05    3    -1000024         2        -1   # BR(~g -> ~chi_1- u  db)
     2.92284000E-05    3     1000024         3        -4   # BR(~g -> ~chi_1+ s  cb)
     2.92284000E-05    3    -1000024         4        -3   # BR(~g -> ~chi_1- c  sb)
     5.75747112E-02    3     1000024         5        -6   # BR(~g -> ~chi_1+ b  tb)
     5.75747112E-02    3    -1000024         6        -5   # BR(~g -> ~chi_1- t  bb)
#
#         PDG            Width
DECAY   1000006     3.74876242E+02   # stop1 decays
#          BR         NDA      ID1       ID2
     2.35420690E-02    2     1000022         6   # BR(~t_1 -> ~chi_10 t )
     8.10656958E-02    2     1000023         6   # BR(~t_1 -> ~chi_20 t )
     7.78666274E-02    2     1000025         6   # BR(~t_1 -> ~chi_30 t )
     5.58099387E-03    2     1000035         6   # BR(~t_1 -> ~chi_40 t )
     1.17481802E-01    2     1000024         5   # BR(~t_1 -> ~chi_1+ b )
     1.11188461E-02    2     1000037         5   # BR(~t_1 -> ~chi_2+ b )
     6.83343966E-01    2     1000021         6   # BR(~t_1 -> ~g      t )
#
#         PDG            Width
DECAY   2000006     3.79776931E+02   # stop2 decays
#          BR         NDA      ID1       ID2
     9.27913022E-03    2     1000022         6   # BR(~t_2 -> ~chi_10 t )
     8.18831378E-02    2     1000023         6   # BR(~t_2 -> ~chi_20 t )
     8.53461997E-02    2     1000025         6   # BR(~t_2 -> ~chi_30 t )
     1.45189727E-02    2     1000035         6   # BR(~t_2 -> ~chi_40 t )
     4.91399772E-02    2     1000024         5   # BR(~t_2 -> ~chi_1+ b )
     2.88863815E-02    2     1000037         5   # BR(~t_2 -> ~chi_2+ b )
     7.27574229E-01    2     1000021         6   # BR(~t_2 -> ~g      t )
     7.61647757E-04    2     1000006        25   # BR(~t_2 -> ~t_1    h )
     2.61032385E-03    2     1000006        23   # BR(~t_2 -> ~t_1    Z )
#
#         PDG            Width
DECAY   1000005     3.56186941E+02   # sbottom1 decays
#          BR         NDA      ID1       ID2
     2.17343600E-03    2     1000022         5   # BR(~b_1 -> ~chi_10 b )
     2.23060776E-03    2     1000023         5   # BR(~b_1 -> ~chi_20 b )
     2.17023894E-03    2     1000025         5   # BR(~b_1 -> ~chi_30 b )
     2.11028559E-02    2     1000035         5   # BR(~b_1 -> ~chi_40 b )
     1.72917298E-01    2    -1000024         6   # BR(~b_1 -> ~chi_1- t )
     4.24008636E-02    2    -1000037         6   # BR(~b_1 -> ~chi_2- t )
     7.55414447E-01    2     1000021         5   # BR(~b_1 -> ~g      b )
     1.59025245E-03    2     1000006       -24   # BR(~b_1 -> ~t_1    W-)
#
#         PDG            Width
DECAY   2000005     2.78148866E+02   # sbottom2 decays
#          BR         NDA      ID1       ID2
     1.05656073E-02    2     1000022         5   # BR(~b_2 -> ~chi_10 b )
     2.84490042E-03    2     1000023         5   # BR(~b_2 -> ~chi_20 b )
     2.92190162E-03    2     1000025         5   # BR(~b_2 -> ~chi_30 b )
     1.63128536E-04    2     1000035         5   # BR(~b_2 -> ~chi_40 b )
     6.94763283E-03    2    -1000024         6   # BR(~b_2 -> ~chi_1- t )
     3.27718122E-04    2    -1000037         6   # BR(~b_2 -> ~chi_2- t )
     9.76179529E-01    2     1000021         5   # BR(~b_2 -> ~g      b )
     4.95823383E-05    2     1000006       -24   # BR(~b_2 -> ~t_1    W-)
#
#         PDG            Width
DECAY   1000002     2.97187067E+02   # sup_L decays
#          BR         NDA      ID1       ID2
     2.51286434E-03    2     1000022         2   # BR(~u_L -> ~chi_10 u)
     5.25279750E-05    2     1000023         2   # BR(~u_L -> ~chi_20 u)
     4.39028801E-06    2     1000025         2   # BR(~u_L -> ~chi_30 u)
     2.63575700E-02    2     1000035         2   # BR(~u_L -> ~chi_40 u)
     1.79826743E-04    2     1000024         1   # BR(~u_L -> ~chi_1+ d)
     5.26796960E-02    2     1000037         1   # BR(~u_L -> ~chi_2+ d)
     9.18213125E-01    2     1000021         2   # BR(~u_L -> ~g      u)
#
#         PDG            Width
DECAY   2000002     2.83416591E+02   # sup_R decays
#          BR         NDA      ID1       ID2
     4.19321984E-02    2     1000022         2   # BR(~u_R -> ~chi_10 u)
     3.51773414E-05    2     1000023         2   # BR(~u_R -> ~chi_20 u)
     4.18896283E-05    2     1000025         2   # BR(~u_R -> ~chi_30 u)
     2.69663488E-09    2     1000035         2   # BR(~u_R -> ~chi_40 u)
     9.57990732E-01    2     1000021         2   # BR(~u_R -> ~g      u)
#
#         PDG            Width
DECAY   1000001     2.97199190E+02   # sdown_L decays
#          BR         NDA      ID1       ID2
     2.50351249E-03    2     1000022         1   # BR(~d_L -> ~chi_10 d)
     1.88865719E-05    2     1000023         1   # BR(~d_L -> ~chi_20 d)
     2.76903868E-05    2     1000025         1   # BR(~d_L -> ~chi_30 d)
     2.63729747E-02    2     1000035         1   # BR(~d_L -> ~chi_40 d)
     8.99465489E-06    2    -1000024         2   # BR(~d_L -> ~chi_1- u)
     5.27679818E-02    2    -1000037         2   # BR(~d_L -> ~chi_2- u)
     9.18299959E-01    2     1000021         1   # BR(~d_L -> ~g      d)
#
#         PDG            Width
DECAY   2000001     2.74509422E+02   # sdown_R decays
#          BR         NDA      ID1       ID2
     1.08238172E-02    2     1000022         1   # BR(~d_R -> ~chi_10 d)
     9.08029101E-06    2     1000023         1   # BR(~d_R -> ~chi_20 d)
     1.08129272E-05    2     1000025         1   # BR(~d_R -> ~chi_30 d)
     6.96165296E-10    2     1000035         1   # BR(~d_R -> ~chi_40 d)
     9.89156289E-01    2     1000021         1   # BR(~d_R -> ~g      d)
#
#         PDG            Width
DECAY   1000004     2.97187067E+02   # scharm_L decays
#          BR         NDA      ID1       ID2
     2.51286434E-03    2     1000022         4   # BR(~c_L -> ~chi_10 c)
     5.25279750E-05    2     1000023         4   # BR(~c_L -> ~chi_20 c)
     4.39028801E-06    2     1000025         4   # BR(~c_L -> ~chi_30 c)
     2.63575700E-02    2     1000035         4   # BR(~c_L -> ~chi_40 c)
     1.79826743E-04    2     1000024         3   # BR(~c_L -> ~chi_1+ s)
     5.26796960E-02    2     1000037         3   # BR(~c_L -> ~chi_2+ s)
     9.18213125E-01    2     1000021         4   # BR(~c_L -> ~g      c)
#
#         PDG            Width
DECAY   2000004     2.83416591E+02   # scharm_R decays
#          BR         NDA      ID1       ID2
     4.19321984E-02    2     1000022         4   # BR(~c_R -> ~chi_10 c)
     3.51773414E-05    2     1000023         4   # BR(~c_R -> ~chi_20 c)
     4.18896283E-05    2     1000025         4   # BR(~c_R -> ~chi_30 c)
     2.69663488E-09    2     1000035         4   # BR(~c_R -> ~chi_40 c)
     9.57990732E-01    2     1000021         4   # BR(~c_R -> ~g      c)
#
#         PDG            Width
DECAY   1000003     2.97199190E+02   # sstrange_L decays
#          BR         NDA      ID1       ID2
     2.50351249E-03    2     1000022         3   # BR(~s_L -> ~chi_10 s)
     1.88865719E-05    2     1000023         3   # BR(~s_L -> ~chi_20 s)
     2.76903868E-05    2     1000025         3   # BR(~s_L -> ~chi_30 s)
     2.63729747E-02    2     1000035         3   # BR(~s_L -> ~chi_40 s)
     8.99465489E-06    2    -1000024         4   # BR(~s_L -> ~chi_1- c)
     5.27679818E-02    2    -1000037         4   # BR(~s_L -> ~chi_2- c)
     9.18299959E-01    2     1000021         3   # BR(~s_L -> ~g      s)
#
#         PDG            Width
DECAY   2000003     2.74509422E+02   # sstrange_R decays
#          BR         NDA      ID1       ID2
     1.08238172E-02    2     1000022         3   # BR(~s_R -> ~chi_10 s)
     9.08029101E-06    2     1000023         3   # BR(~s_R -> ~chi_20 s)
     1.08129272E-05    2     1000025         3   # BR(~s_R -> ~chi_30 s)
     6.96165296E-10    2     1000035         3   # BR(~s_R -> ~chi_40 s)
     9.89156289E-01    2     1000021         3   # BR(~s_R -> ~g      s)
#
#         PDG            Width
DECAY   1000011     3.02729834E+01   # selectron_L decays
#          BR         NDA      ID1       ID2
     2.26383539E-01    2     1000022        11   # BR(~e_L -> ~chi_10 e-)
     1.02988902E-03    2     1000023        11   # BR(~e_L -> ~chi_20 e-)
     1.14758485E-05    2     1000025        11   # BR(~e_L -> ~chi_30 e-)
     2.57316346E-01    2     1000035        11   # BR(~e_L -> ~chi_40 e-)
     8.99194747E-05    2    -1000024        12   # BR(~e_L -> ~chi_1- nu_e)
     5.15168831E-01    2    -1000037        12   # BR(~e_L -> ~chi_2- nu_e)
#
#         PDG            Width
DECAY   2000011     2.73742433E+01   # selectron_R decays
#          BR         NDA      ID1       ID2
     9.98169750E-01    2     1000022        11   # BR(~e_R -> ~chi_10 e-)
     8.35395252E-04    2     1000023        11   # BR(~e_R -> ~chi_20 e-)
     9.94791835E-04    2     1000025        11   # BR(~e_R -> ~chi_30 e-)
     6.26558789E-08    2     1000035        11   # BR(~e_R -> ~chi_40 e-)
#
#         PDG            Width
DECAY   1000013     3.02729834E+01   # smuon_L decays
#          BR         NDA      ID1       ID2
     2.26383539E-01    2     1000022        13   # BR(~mu_L -> ~chi_10 mu-)
     1.02988902E-03    2     1000023        13   # BR(~mu_L -> ~chi_20 mu-)
     1.14758485E-05    2     1000025        13   # BR(~mu_L -> ~chi_30 mu-)
     2.57316346E-01    2     1000035        13   # BR(~mu_L -> ~chi_40 mu-)
     8.99194747E-05    2    -1000024        14   # BR(~mu_L -> ~chi_1- nu_mu)
     5.15168831E-01    2    -1000037        14   # BR(~mu_L -> ~chi_2- nu_mu)
#
#         PDG            Width
DECAY   2000013     2.73742433E+01   # smuon_R decays
#          BR         NDA      ID1       ID2
     9.98169750E-01    2     1000022        13   # BR(~mu_R -> ~chi_10 mu-)
     8.35395252E-04    2     1000023        13   # BR(~mu_R -> ~chi_20 mu-)
     9.94791835E-04    2     1000025        13   # BR(~mu_R -> ~chi_30 mu-)
     6.26558789E-08    2     1000035        13   # BR(~mu_R -> ~chi_40 mu-)
#
#         PDG            Width
DECAY   1000015     2.91238017E+01   # stau_1 decays
#          BR         NDA      ID1       ID2
     9.29770008E-01    2     1000022        15   # BR(~tau_1 -> ~chi_10  tau-)
     1.56814698E-02    2     1000023        15   # BR(~tau_1 -> ~chi_20  tau-)
     1.49123801E-02    2     1000025        15   # BR(~tau_1 -> ~chi_30  tau-)
     3.35834123E-03    2     1000035        15   # BR(~tau_1 -> ~chi_40  tau-)
     2.95543624E-02    2    -1000024        16   # BR(~tau_1 -> ~chi_1-  nu_tau)
     6.72343838E-03    2    -1000037        16   # BR(~tau_1 -> ~chi_2-  nu_tau)
#
#         PDG            Width
DECAY   2000015     3.10947093E+01   # stau_2 decays
#          BR         NDA      ID1       ID2
     2.28199751E-01    2     1000022        15   # BR(~tau_2 -> ~chi_10  tau-)
     1.47549716E-02    2     1000023        15   # BR(~tau_2 -> ~chi_20  tau-)
     1.45690087E-02    2     1000025        15   # BR(~tau_2 -> ~chi_30  tau-)
     2.47288883E-01    2     1000035        15   # BR(~tau_2 -> ~chi_40  tau-)
     9.39050814E-05    2    -1000024        16   # BR(~tau_2 -> ~chi_1-  nu_tau)
     4.95093481E-01    2    -1000037        16   # BR(~tau_2 -> ~chi_2-  nu_tau)
#
#         PDG            Width
DECAY   1000012     3.02757769E+01   # snu_eL decays
#          BR         NDA      ID1       ID2
     2.26034681E-01    2     1000022        12   # BR(~nu_eL -> ~chi_10 nu_e)
     2.08348302E-05    2     1000023        12   # BR(~nu_eL -> ~chi_20 nu_e)
     7.10032421E-04    2     1000025        12   # BR(~nu_eL -> ~chi_30 nu_e)
     2.57369593E-01    2     1000035        12   # BR(~nu_eL -> ~chi_40 nu_e)
     1.79728760E-03    2     1000024        11   # BR(~nu_eL -> ~chi_1+ e-)
     5.14067571E-01    2     1000037        11   # BR(~nu_eL -> ~chi_2+ e-)
#
#         PDG            Width
DECAY   1000014     3.02757769E+01   # snu_muL decays
#          BR         NDA      ID1       ID2
     2.26034681E-01    2     1000022        14   # BR(~nu_muL -> ~chi_10 nu_mu)
     2.08348302E-05    2     1000023        14   # BR(~nu_muL -> ~chi_20 nu_mu)
     7.10032421E-04    2     1000025        14   # BR(~nu_muL -> ~chi_30 nu_mu)
     2.57369593E-01    2     1000035        14   # BR(~nu_muL -> ~chi_40 nu_mu)
     1.79728760E-03    2     1000024        13   # BR(~nu_muL -> ~chi_1+ mu-)
     5.14067571E-01    2     1000037        13   # BR(~nu_muL -> ~chi_2+ mu-)
#
#         PDG            Width
DECAY   1000016     3.11299557E+01   # snu_tauL decays
#          BR         NDA      ID1       ID2
     2.19808546E-01    2     1000022        16   # BR(~nu_tauL -> ~chi_10 nu_tau)
     2.02605706E-05    2     1000023        16   # BR(~nu_tauL -> ~chi_20 nu_tau)
     6.90462110E-04    2     1000025        16   # BR(~nu_tauL -> ~chi_30 nu_tau)
     2.50214881E-01    2     1000035        16   # BR(~nu_tauL -> ~chi_40 nu_tau)
     2.94894245E-02    2     1000024        15   # BR(~nu_tauL -> ~chi_1+ tau-)
     4.99776426E-01    2     1000037        15   # BR(~nu_tauL -> ~chi_2+ tau-)
#
#         PDG            Width
DECAY   1000024     6.09080530E-01   # chargino1+ decays
#          BR         NDA      ID1       ID2
     1.00000000E+00    2     1000022        24   # BR(~chi_1+ -> ~chi_10  W+)
#
#         PDG            Width
DECAY   1000037     2.04173920E+01   # chargino2+ decays
#          BR         NDA      ID1       ID2
     2.53200162E-01    2     1000024        23   # BR(~chi_2+ -> ~chi_1+  Z )
     1.97859163E-04    2     1000022        24   # BR(~chi_2+ -> ~chi_10  W+)
     2.44163901E-01    2     1000023        24   # BR(~chi_2+ -> ~chi_20  W+)
     2.44114970E-01    2     1000025        24   # BR(~chi_2+ -> ~chi_30  W+)
     2.58321937E-01    2     1000024        25   # BR(~chi_2+ -> ~chi_1+  h )
     1.17111472E-06    2     1000022        37   # BR(~chi_2+ -> ~chi_10  H+)
#
#         PDG            Width
DECAY   1000022     0.00000000E+00   # neutralino1 decays
#
#         PDG            Width
DECAY   1000023     6.36117357E-01   # neutralino2 decays
#          BR         NDA      ID1       ID2
     5.40219353E-01    2     1000022        23   # BR(~chi_20 -> ~chi_10   Z )
     4.59780647E-01    2     1000022        25   # BR(~chi_20 -> ~chi_10   h )
#
#         PDG            Width
DECAY   1000025     6.39158762E-01   # neutralino3 decays
#          BR         NDA      ID1       ID2
     4.50322179E-01    2     1000022        23   # BR(~chi_30 -> ~chi_10   Z )
     5.49677821E-01    2     1000022        25   # BR(~chi_30 -> ~chi_10   h )
#
#         PDG            Width
DECAY   1000035     2.04324047E+01   # neutralino4 decays
#          BR         NDA      ID1       ID2
     4.77468091E-05    2     1000022        23   # BR(~chi_40 -> ~chi_10   Z )
     7.27258073E-02    2     1000023        23   # BR(~chi_40 -> ~chi_20   Z )
     1.79760426E-01    2     1000025        23   # BR(~chi_40 -> ~chi_30   Z )
     2.44794391E-01    2     1000024       -24   # BR(~chi_40 -> ~chi_1+   W-)
     2.44794391E-01    2    -1000024        24   # BR(~chi_40 -> ~chi_1-   W+)
     1.51054003E-04    2     1000022        25   # BR(~chi_40 -> ~chi_10   h )
     1.09488558E-06    2     1000022        35   # BR(~chi_40 -> ~chi_10   H )
     1.34447426E-07    2     1000022        36   # BR(~chi_40 -> ~chi_10   A )
     1.84811278E-01    2     1000023        25   # BR(~chi_40 -> ~chi_20   h )
     7.29136755E-02    2     1000025        25   # BR(~chi_40 -> ~chi_30   h )
#
#         PDG            Width
DECAY        25     4.04960119E-03   # h decays
#          BR         NDA      ID1       ID2
     6.10673365E-01    2           5        -5   # BR(h -> b       bb     )
     6.39885699E-02    2         -15        15   # BR(h -> tau+    tau-   )
     2.26543316E-04    2         -13        13   # BR(h -> mu+     mu-    )
     4.80345726E-04    2           3        -3   # BR(h -> s       sb     )
     2.08143966E-02    2           4        -4   # BR(h -> c       cb     )
     6.71954491E-02    2          21        21   # BR(h -> g       g      )
     2.30760504E-03    2          22        22   # BR(h -> gam     gam    )
     1.47812303E-03    2          22        23   # BR(h -> Z       gam    )
     2.08041406E-01    2          24       -24   # BR(h -> W+      W-     )
     2.47395693E-02    2          23        23   # BR(h -> Z       Z      )
     5.46271501E-05    2     1000022   1000022   # BR(h -> ~chi_10 ~chi_10)
#
#         PDG            Width
DECAY        35     8.10194511E+00   # H decays
#          BR         NDA      ID1       ID2
     3.98413517E-01    2           5        -5   # BR(H -> b       bb     )
     6.87792958E-02    2         -15        15   # BR(H -> tau+    tau-   )
     2.43209053E-04    2         -13        13   # BR(H -> mu+     mu-    )
     2.98137049E-04    2           3        -3   # BR(H -> s       sb     )
     1.66686931E-06    2           4        -4   # BR(H -> c       cb     )
     1.66533445E-01    2           6        -6   # BR(H -> t       tb     )
     5.53281881E-05    2          21        21   # BR(H -> g       g      )
     2.68847973E-07    2          22        22   # BR(H -> gam     gam    )
     9.82960765E-08    2          23        22   # BR(H -> Z       gam    )
     7.65126973E-05    2          24       -24   # BR(H -> W+      W-     )
     3.82079225E-05    2          23        23   # BR(H -> Z       Z      )
     2.84594177E-04    2          25        25   # BR(H -> h       h      )
     1.15933239E-23    2          36        36   # BR(H -> A       A      )
     1.13695490E-18    2          23        36   # BR(H -> Z       A      )
     1.97520402E-03    2     1000024  -1000024   # BR(H -> ~chi_1+ ~chi_1-)
     1.78246670E-03    2     1000022   1000022   # BR(H -> ~chi_10 ~chi_10)
     3.94844330E-05    2     1000023   1000023   # BR(H -> ~chi_20 ~chi_20)
     5.44224337E-04    2     1000025   1000025   # BR(H -> ~chi_30 ~chi_30)
     2.16470232E-01    2     1000022   1000023   # BR(H -> ~chi_10 ~chi_20)
     1.43951442E-01    2     1000022   1000025   # BR(H -> ~chi_10 ~chi_30)
     5.12665467E-04    2     1000023   1000025   # BR(H -> ~chi_20 ~chi_30)
#
#         PDG            Width
DECAY        36     8.11826715E+00   # A decays
#          BR         NDA      ID1       ID2
     3.97747215E-01    2           5        -5   # BR(A -> b       bb     )
     6.86430634E-02    2         -15        15   # BR(A -> tau+    tau-   )
     2.42726985E-04    2         -13        13   # BR(A -> mu+     mu-    )
     2.97763514E-04    2           3        -3   # BR(A -> s       sb     )
     1.67034110E-06    2           4        -4   # BR(A -> c       cb     )
     1.66788230E-01    2           6        -6   # BR(A -> t       tb     )
     1.65069071E-04    2          21        21   # BR(A -> g       g      )
     5.74654376E-07    2          22        22   # BR(A -> gam     gam    )
     1.99870229E-07    2          23        22   # BR(A -> Z       gam    )
     7.60709284E-05    2          23        25   # BR(A -> Z       h      )
     3.22808148E-03    2     1000024  -1000024   # BR(A -> ~chi_1+ ~chi_1-)
     1.81529125E-03    2     1000022   1000022   # BR(A -> ~chi_10 ~chi_10)
     4.63774268E-05    2     1000023   1000023   # BR(A -> ~chi_20 ~chi_20)
     1.50020675E-03    2     1000025   1000025   # BR(A -> ~chi_30 ~chi_30)
     1.45721823E-01    2     1000022   1000023   # BR(A -> ~chi_10 ~chi_20)
     2.13579328E-01    2     1000022   1000025   # BR(A -> ~chi_10 ~chi_30)
     1.46309400E-04    2     1000023   1000025   # BR(A -> ~chi_20 ~chi_30)
#
#         PDG            Width
DECAY        37     8.07163246E+00   # H+ decays
#          BR         NDA      ID1       ID2
     6.39357560E-04    2           4        -5   # BR(H+ -> c       bb     )
     6.90655379E-02    2         -15        16   # BR(H+ -> tau+    nu_tau )
     2.44220886E-04    2         -13        14   # BR(H+ -> mu+     nu_mu  )
     4.09186717E-06    2           2        -5   # BR(H+ -> u       bb     )
     1.43302182E-05    2           2        -3   # BR(H+ -> u       sb     )
     2.96349016E-04    2           4        -3   # BR(H+ -> c       sb     )
     5.63858820E-01    2           6        -5   # BR(H+ -> t       bb     )
     7.66457596E-05    2          24        25   # BR(H+ -> W+      h      )
     2.92950094E-13    2          24        36   # BR(H+ -> W+      A      )
     3.64891812E-01    2     1000024   1000022   # BR(H+ -> ~chi_1+ ~chi_10)
     8.76016088E-04    2     1000024   1000023   # BR(H+ -> ~chi_1+ ~chi_20)
     3.28187524E-05    2     1000024   1000025   # BR(H+ -> ~chi_1+ ~chi_30)
