#
#                              ======================
#                              | THE SUSYHIT OUTPUT |
#                              ======================
#
#
#              ------------------------------------------------------
#              |     This is the output of the SUSY-HIT package     |
#              |  created by A.Djouadi, M.Muehlleitner and M.Spira. |
#              |  In case of problems with SUSY-HIT email to        |
#              |           margarete.muehlleitner@cern.ch           |
#              |           michael.spira@psi.ch                     |
#              |           abdelhak.djouadi@cern.ch                 |
#              ------------------------------------------------------
#
#              ------------------------------------------------------
#              |  SUSY Les Houches Accord - MSSM Spectrum + Decays  |
#              |              based on the decay programs           |
#              |                                                    |
#              |                     SDECAY 1.3b                    |
#              |                                                    |
#              |  Authors: M.Muhlleitner, A.Djouadi and Y.Mambrini  |
#              |  Ref.:    Comput.Phys.Commun.168(2005)46           |
#              |           [hep-ph/0311167]                         |
#              |                                                    |
#              |                     HDECAY 3.4                     |
#              |                                                    |
#              |  By: A.Djouadi,J.Kalinowski,M.Muhlleitner,M.Spira  |
#              |  Ref.:    Comput.Phys.Commun.108(1998)56           |
#              |           [hep-ph/9704448]                         |
#              |                                                    |
#              |                                                    |
#              |  If not stated otherwise all DRbar couplings and   |
#              |  soft SUSY breaking masses are given at the scale  |
#              |  Q=  0.50007243E+04
#              |                                                    |
#              ------------------------------------------------------
#
#
BLOCK DCINFO  # Decay Program information
     1   SDECAY/HDECAY # decay calculator
     2   1.3b  /3.4    # version number
#
BLOCK SPINFO  # Spectrum calculator information
     1    SOFTSUSY    # spectrum calculator                
     2    3.4.0       # version number                     
#
BLOCK MODSEL  # Model selection
     1     0   #  nonUniversal                                     
#
BLOCK SMINPUTS  # Standard Model inputs
         1     1.25778332E+02   # alpha_em^-1(M_Z)^MSbar
         2     1.16570000E-05   # G_F [GeV^-2]
         3     1.17200002E-01   # alpha_S(M_Z)^MSbar
         4     9.11876000E+01   # M_Z pole mass
         5     4.25000000E+00   # mb(mb)^MSbar
         6     1.72500000E+02   # mt pole mass
         7     1.77682000E+00   # mtau pole mass
#
BLOCK MINPAR  # Input parameters - minimal models
         3     1.00000000E+01   # tanb                
#
BLOCK EXTPAR  # Input parameters - non-minimal models
         0    -1.00000000E+00   # Set                 
         1     6.00000000E+01   # M_1(MX)             
         2     3.00000000E+03   # M_2(MX)             
         3     1.03377500E+03   # M_3(MX)             
        11     5.00000000E+03   # At(MX)              
        12     5.00000000E+03   # Ab(MX)              
        13     0.00000000E+00   # Atau(MX)            
        23    -1.15400800E+03   # mu(MX)              
        26     3.00000000E+03   # mA(pole)            
        31     5.00000000E+03   # meL(MX)             
        32     5.00000000E+03   # mmuL(MX)            
        33     5.00000000E+03   # mtauL(MX)           
        34     5.00000000E+03   # meR(MX)             
        35     5.00000000E+03   # mmuR(MX)            
        36     5.00000000E+03   # mtauR(MX)           
        41     5.00000000E+03   # mqL1(MX)            
        42     5.00000000E+03   # mqL2(MX)            
        43     5.00000000E+03   # mqL3(MX)            
        44     5.00000000E+03   # muR(MX)             
        45     5.00000000E+03   # mcR(MX)             
        46     5.00000000E+03   # mtR(MX)             
        47     5.00000000E+03   # mdR(MX)             
        48     5.00000000E+03   # msR(MX)             
        49     5.00000000E+03   # mbR(MX)             
#
BLOCK MASS  # Mass Spectrum
# PDG code           mass       particle
        24     8.00941494E+01   # W+
        25     1.24522047E+02   # h
        35     3.00007982E+03   # H
        36     2.99999986E+03   # A
        37     3.00086501E+03   # H+
         5     4.87878001E+00   # b-quark pole mass calculated from mb(mb)_Msbar
   1000001     5.06525565E+03   # ~d_L
   2000001     5.04743863E+03   # ~d_R
   1000002     5.06477944E+03   # ~u_L
   2000002     5.04715710E+03   # ~u_R
   1000003     5.06525565E+03   # ~s_L
   2000003     5.04743863E+03   # ~s_R
   1000004     5.06477944E+03   # ~c_L
   2000004     5.04715710E+03   # ~c_R
   1000005     5.01140438E+03   # ~b_1
   2000005     5.04612825E+03   # ~b_2
   1000006     4.90197130E+03   # ~t_1
   2000006     5.05755807E+03   # ~t_2
   1000011     5.01906320E+03   # ~e_L
   2000011     5.00591823E+03   # ~e_R
   1000012     5.01811451E+03   # ~nu_eL
   1000013     5.01906320E+03   # ~mu_L
   2000013     5.00591823E+03   # ~mu_R
   1000014     5.01811451E+03   # ~nu_muL
   1000015     5.00452453E+03   # ~tau_1
   2000015     5.01885126E+03   # ~tau_2
   1000016     5.01757089E+03   # ~nu_tauL
   1000021     1.30000060E+03   # ~g
   1000022     6.03021128E+01   # ~chi_10
   1000023     1.19954117E+03   # ~chi_20
   1000025    -1.20184569E+03   # ~chi_30
   1000035     3.07429423E+03   # ~chi_40
   1000024     1.20000083E+03   # ~chi_1+
   1000037     3.07446171E+03   # ~chi_2+
#
BLOCK NMIX  # Neutralino Mixing Matrix
  1  1     9.99308669E-01   # N_11
  1  2     1.64191522E-04   # N_12
  1  3    -3.71228365E-02   # N_13
  1  4     2.01320139E-03   # N_14
  2  1     2.48305821E-02   # N_21
  2  2     2.59793074E-02   # N_22
  2  3     7.06840563E-01   # N_23
  2  4     7.06459437E-01   # N_24
  3  1    -2.76668371E-02   # N_31
  3  2     1.42088288E-02   # N_32
  3  3    -7.06349077E-01   # N_33
  3  4     7.07180060E-01   # N_34
  4  1    -4.16228508E-04   # N_41
  4  2     9.99561483E-01   # N_42
  4  3    -8.32439028E-03   # N_43
  4  4    -2.84143180E-02   # N_44
#
BLOCK UMIX  # Chargino Mixing Matrix U
  1  1     1.17873294E-02   # U_11
  1  2     9.99930527E-01   # U_12
  2  1    -9.99930527E-01   # U_21
  2  2     1.17873294E-02   # U_22
#
BLOCK VMIX  # Chargino Mixing Matrix V
  1  1     4.02126240E-02   # V_11
  1  2    -9.99191145E-01   # V_12
  2  1    -9.99191145E-01   # V_21
  2  2    -4.02126240E-02   # V_22
#
BLOCK STOPMIX  # Stop Mixing Matrix
  1  1    -5.10785089E-01   # cos(theta_t)
  1  2     8.59708435E-01   # sin(theta_t)
  2  1    -8.59708435E-01   # -sin(theta_t)
  2  2    -5.10785089E-01   # cos(theta_t)
#
BLOCK SBOTMIX  # Sbottom Mixing Matrix
  1  1     9.96127400E-01   # cos(theta_b)
  1  2    -8.79215728E-02   # sin(theta_b)
  2  1     8.79215728E-02   # -sin(theta_b)
  2  2     9.96127400E-01   # cos(theta_b)
#
BLOCK STAUMIX  # Stau Mixing Matrix
  1  1    -1.36034672E-01   # cos(theta_tau)
  1  2     9.90704077E-01   # sin(theta_tau)
  2  1    -9.90704077E-01   # -sin(theta_tau)
  2  2    -1.36034672E-01   # cos(theta_tau)
#
BLOCK ALPHA  # Higgs mixing
          -1.05441761E-01   # Mixing angle in the neutral Higgs boson sector
#
BLOCK HMIX Q=  5.00072434E+03  # DRbar Higgs Parameters
         1    -1.17480028E+03   # mu(Q)MSSM           
         2     9.47253171E+00   # tan                 
         3     2.41932658E+02   # higgs               
         4     8.45937931E+06   # mA^2(Q)MSSM         
#
BLOCK GAUGE Q=  5.00072434E+03  # The gauge couplings
     1     3.70768223E-01   # gprime(Q) DRbar
     2     6.32381184E-01   # g(Q) DRbar
     3     1.00479660E+00   # g3(Q) DRbar
#
BLOCK AU Q=  5.00072434E+03  # The trilinear couplings
  1  1     5.00000001E+03   # A_u(Q) DRbar
  2  2     5.00000001E+03   # A_c(Q) DRbar
  3  3     5.00000001E+03   # A_t(Q) DRbar
#
BLOCK AD Q=  5.00072434E+03  # The trilinear couplings
  1  1     5.00000000E+03   # A_d(Q) DRbar
  2  2     5.00000000E+03   # A_s(Q) DRbar
  3  3     5.00000001E+03   # A_b(Q) DRbar
#
BLOCK AE Q=  5.00072434E+03  # The trilinear couplings
  1  1     0.00000000E+00   # A_e(Q) DRbar
  2  2     6.57689597E-08   # A_mu(Q) DRbar
  3  3     6.49838903E-08   # A_tau(Q) DRbar
#
BLOCK Yu Q=  5.00072434E+03  # The Yukawa couplings
  1  1     0.00000000E+00   # y_u(Q) DRbar
  2  2     0.00000000E+00   # y_c(Q) DRbar
  3  3     8.16421673E-01   # y_t(Q) DRbar
#
BLOCK Yd Q=  5.00072434E+03  # The Yukawa couplings
  1  1     0.00000000E+00   # y_d(Q) DRbar
  2  2     0.00000000E+00   # y_s(Q) DRbar
  3  3     1.30023306E-01   # y_b(Q) DRbar
#
BLOCK Ye Q=  5.00072434E+03  # The Yukawa couplings
  1  1     0.00000000E+00   # y_e(Q) DRbar
  2  2     0.00000000E+00   # y_mu(Q) DRbar
  3  3     9.67687903E-02   # y_tau(Q) DRbar
#
BLOCK MSOFT Q=  5.00072434E+03  # The soft SUSY breaking masses at the scale Q
         1     6.00000000E+01   # M_1(Q)              
         2     3.00000000E+03   # M_2(Q)              
         3     1.03377500E+03   # M_3(Q)              
        21     7.30458658E+06   # mH1^2(Q)            
        22    -8.24908152E+05   # mH2^2(Q)            
        31     5.00000000E+03   # meL(Q)              
        32     5.00000000E+03   # mmuL(Q)             
        33     5.00000000E+03   # mtauL(Q)            
        34     5.00000000E+03   # meR(Q)              
        35     5.00000000E+03   # mmuR(Q)             
        36     5.00000000E+03   # mtauR(Q)            
        41     5.00000000E+03   # mqL1(Q)             
        42     5.00000000E+03   # mqL2(Q)             
        43     5.00000000E+03   # mqL3(Q)             
        44     5.00000000E+03   # muR(Q)              
        45     5.00000000E+03   # mcR(Q)              
        46     5.00000000E+03   # mtR(Q)              
        47     5.00000000E+03   # mdR(Q)              
        48     5.00000000E+03   # msR(Q)              
        49     5.00000000E+03   # mbR(Q)              
#
#
#
#                             =================
#                             |The decay table|
#                             =================
#
# - The QCD corrections to the decays gluino -> squark  + quark
#                                     squark -> gaugino + quark_prime
#                                     squark -> squark_prime + Higgs
#                                     squark -> gluino  + quark
#   are included.
#
# - The multi-body decays for the inos, stops and sbottoms are included.
#
# - The loop induced decays for the gluino, neutralinos and stops
#   are included.
#
# - The SUSY decays of the top quark are included.
#
#
#         PDG            Width
DECAY         6     1.40144334E+00   # top decays
#          BR         NDA      ID1       ID2
     1.00000000E+00    2           5        24   # BR(t ->  b    W+)
#
#         PDG            Width
DECAY   1000021     3.27862199E-05   # gluino decays
#          BR         NDA      ID1       ID2
     1.42008561E-05    2     1000022        21   # BR(~g -> ~chi_10 g)
     4.27106116E-04    2     1000023        21   # BR(~g -> ~chi_20 g)
     3.97537094E-04    2     1000025        21   # BR(~g -> ~chi_30 g)
#           BR         NDA      ID1       ID2       ID3
     7.93412018E-02    3     1000022         1        -1   # BR(~g -> ~chi_10 d  db)
     1.05213982E-08    3     1000023         1        -1   # BR(~g -> ~chi_20 d  db)
     2.91579089E-09    3     1000025         1        -1   # BR(~g -> ~chi_30 d  db)
     2.70489714E-01    3     1000022         2        -2   # BR(~g -> ~chi_10 u  ub)
     2.58898724E-08    3     1000023         2        -2   # BR(~g -> ~chi_20 u  ub)
     3.19941337E-09    3     1000025         2        -2   # BR(~g -> ~chi_30 u  ub)
     7.93412018E-02    3     1000022         3        -3   # BR(~g -> ~chi_10 s  sb)
     1.05213982E-08    3     1000023         3        -3   # BR(~g -> ~chi_20 s  sb)
     2.91579089E-09    3     1000025         3        -3   # BR(~g -> ~chi_30 s  sb)
     2.70489714E-01    3     1000022         4        -4   # BR(~g -> ~chi_10 c  cb)
     2.58898724E-08    3     1000023         4        -4   # BR(~g -> ~chi_20 c  cb)
     3.19941337E-09    3     1000025         4        -4   # BR(~g -> ~chi_30 c  cb)
     8.03846619E-02    3     1000022         5        -5   # BR(~g -> ~chi_10 b  bb)
     1.69419259E-06    3     1000023         5        -5   # BR(~g -> ~chi_20 b  bb)
     1.44966448E-06    3     1000025         5        -5   # BR(~g -> ~chi_30 b  bb)
     2.19111320E-01    3     1000022         6        -6   # BR(~g -> ~chi_10 t  tb)
     2.82393167E-08    3     1000024         1        -2   # BR(~g -> ~chi_1+ d  ub)
     2.82393167E-08    3    -1000024         2        -1   # BR(~g -> ~chi_1- u  db)
     2.82393167E-08    3     1000024         3        -4   # BR(~g -> ~chi_1+ s  cb)
     2.82393167E-08    3    -1000024         4        -3   # BR(~g -> ~chi_1- c  sb)
#
#         PDG            Width
DECAY   1000006     3.92651221E+02   # stop1 decays
#          BR         NDA      ID1       ID2
     2.23970589E-02    2     1000022         6   # BR(~t_1 -> ~chi_10 t )
     7.41271185E-02    2     1000023         6   # BR(~t_1 -> ~chi_20 t )
     7.12501263E-02    2     1000025         6   # BR(~t_1 -> ~chi_30 t )
     5.43005881E-03    2     1000035         6   # BR(~t_1 -> ~chi_40 t )
     1.06792200E-01    2     1000024         5   # BR(~t_1 -> ~chi_1+ b )
     1.08129919E-02    2     1000037         5   # BR(~t_1 -> ~chi_2+ b )
     7.09190446E-01    2     1000021         6   # BR(~t_1 -> ~g      t )
#
#         PDG            Width
DECAY   2000006     3.96999950E+02   # stop2 decays
#          BR         NDA      ID1       ID2
     8.99178856E-03    2     1000022         6   # BR(~t_2 -> ~chi_10 t )
     7.53612147E-02    2     1000023         6   # BR(~t_2 -> ~chi_20 t )
     7.84574758E-02    2     1000025         6   # BR(~t_2 -> ~chi_30 t )
     1.37484137E-02    2     1000035         6   # BR(~t_2 -> ~chi_40 t )
     4.59546338E-02    2     1000024         5   # BR(~t_2 -> ~chi_1+ b )
     2.73374567E-02    2     1000037         5   # BR(~t_2 -> ~chi_2+ b )
     7.46858940E-01    2     1000021         6   # BR(~t_2 -> ~g      t )
     7.31800538E-04    2     1000006        25   # BR(~t_2 -> ~t_1    h )
     2.55827594E-03    2     1000006        23   # BR(~t_2 -> ~t_1    Z )
#
#         PDG            Width
DECAY   1000005     3.74578803E+02   # sbottom1 decays
#          BR         NDA      ID1       ID2
     2.07542143E-03    2     1000022         5   # BR(~b_1 -> ~chi_10 b )
     2.05750641E-03    2     1000023         5   # BR(~b_1 -> ~chi_20 b )
     1.98126991E-03    2     1000025         5   # BR(~b_1 -> ~chi_30 b )
     1.99747826E-02    2     1000035         5   # BR(~b_1 -> ~chi_40 b )
     1.57574113E-01    2    -1000024         6   # BR(~b_1 -> ~chi_1- t )
     4.01561361E-02    2    -1000037         6   # BR(~b_1 -> ~chi_2- t )
     7.74662874E-01    2     1000021         5   # BR(~b_1 -> ~g      b )
     1.51789627E-03    2     1000006       -24   # BR(~b_1 -> ~t_1    W-)
#
#         PDG            Width
DECAY   2000005     2.99152666E+02   # sbottom2 decays
#          BR         NDA      ID1       ID2
     9.81865739E-03    2     1000022         5   # BR(~b_2 -> ~chi_10 b )
     2.53023311E-03    2     1000023         5   # BR(~b_2 -> ~chi_20 b )
     2.61482523E-03    2     1000025         5   # BR(~b_2 -> ~chi_30 b )
     2.04236686E-04    2     1000035         5   # BR(~b_2 -> ~chi_40 b )
     6.58841998E-03    2    -1000024         6   # BR(~b_2 -> ~chi_1- t )
     4.10484520E-04    2    -1000037         6   # BR(~b_2 -> ~chi_2- t )
     9.77772280E-01    2     1000021         5   # BR(~b_2 -> ~g      b )
     6.08627602E-05    2     1000006       -24   # BR(~b_2 -> ~t_1    W-)
#
#         PDG            Width
DECAY   1000002     3.18037894E+02   # sup_L decays
#          BR         NDA      ID1       ID2
     2.34984228E-03    2     1000022         2   # BR(~u_L -> ~chi_10 u)
     5.21313610E-05    2     1000023         2   # BR(~u_L -> ~chi_20 u)
     4.24652819E-06    2     1000025         2   # BR(~u_L -> ~chi_30 u)
     2.45643801E-02    2     1000035         2   # BR(~u_L -> ~chi_40 u)
     1.77340878E-04    2     1000024         1   # BR(~u_L -> ~chi_1+ d)
     4.90941470E-02    2     1000037         1   # BR(~u_L -> ~chi_2+ d)
     9.23757912E-01    2     1000021         2   # BR(~u_L -> ~g      u)
#
#         PDG            Width
DECAY   2000002     3.04389266E+02   # sup_R decays
#          BR         NDA      ID1       ID2
     3.90802328E-02    2     1000022         2   # BR(~u_R -> ~chi_10 u)
     2.14962618E-05    2     1000023         2   # BR(~u_R -> ~chi_20 u)
     2.66752153E-05    2     1000025         2   # BR(~u_R -> ~chi_30 u)
     2.68875882E-09    2     1000035         2   # BR(~u_R -> ~chi_40 u)
     9.60871593E-01    2     1000021         2   # BR(~u_R -> ~g      u)
#
#         PDG            Width
DECAY   1000001     3.18048860E+02   # sdown_L decays
#          BR         NDA      ID1       ID2
     2.34209389E-03    2     1000022         1   # BR(~d_L -> ~chi_10 d)
     2.44785778E-05    2     1000023         1   # BR(~d_L -> ~chi_20 d)
     2.10934159E-05    2     1000025         1   # BR(~d_L -> ~chi_30 d)
     2.45791986E-02    2     1000035         1   # BR(~d_L -> ~chi_40 d)
     1.52387920E-05    2    -1000024         2   # BR(~d_L -> ~chi_1- u)
     4.91804809E-02    2    -1000037         2   # BR(~d_L -> ~chi_2- u)
     9.23837416E-01    2     1000021         1   # BR(~d_L -> ~g      d)
#
#         PDG            Width
DECAY   2000001     2.95477684E+02   # sdown_R decays
#          BR         NDA      ID1       ID2
     1.00652865E-02    2     1000022         1   # BR(~d_R -> ~chi_10 d)
     5.53653034E-06    2     1000023         1   # BR(~d_R -> ~chi_20 d)
     6.87041069E-06    2     1000025         1   # BR(~d_R -> ~chi_30 d)
     6.92592079E-10    2     1000035         1   # BR(~d_R -> ~chi_40 d)
     9.89922306E-01    2     1000021         1   # BR(~d_R -> ~g      d)
#
#         PDG            Width
DECAY   1000004     3.18037894E+02   # scharm_L decays
#          BR         NDA      ID1       ID2
     2.34984228E-03    2     1000022         4   # BR(~c_L -> ~chi_10 c)
     5.21313610E-05    2     1000023         4   # BR(~c_L -> ~chi_20 c)
     4.24652819E-06    2     1000025         4   # BR(~c_L -> ~chi_30 c)
     2.45643801E-02    2     1000035         4   # BR(~c_L -> ~chi_40 c)
     1.77340878E-04    2     1000024         3   # BR(~c_L -> ~chi_1+ s)
     4.90941470E-02    2     1000037         3   # BR(~c_L -> ~chi_2+ s)
     9.23757912E-01    2     1000021         4   # BR(~c_L -> ~g      c)
#
#         PDG            Width
DECAY   2000004     3.04389266E+02   # scharm_R decays
#          BR         NDA      ID1       ID2
     3.90802328E-02    2     1000022         4   # BR(~c_R -> ~chi_10 c)
     2.14962618E-05    2     1000023         4   # BR(~c_R -> ~chi_20 c)
     2.66752153E-05    2     1000025         4   # BR(~c_R -> ~chi_30 c)
     2.68875882E-09    2     1000035         4   # BR(~c_R -> ~chi_40 c)
     9.60871593E-01    2     1000021         4   # BR(~c_R -> ~g      c)
#
#         PDG            Width
DECAY   1000003     3.18048860E+02   # sstrange_L decays
#          BR         NDA      ID1       ID2
     2.34209389E-03    2     1000022         3   # BR(~s_L -> ~chi_10 s)
     2.44785778E-05    2     1000023         3   # BR(~s_L -> ~chi_20 s)
     2.10934159E-05    2     1000025         3   # BR(~s_L -> ~chi_30 s)
     2.45791986E-02    2     1000035         3   # BR(~s_L -> ~chi_40 s)
     1.52387920E-05    2    -1000024         4   # BR(~s_L -> ~chi_1- c)
     4.91804809E-02    2    -1000037         4   # BR(~s_L -> ~chi_2- c)
     9.23837416E-01    2     1000021         3   # BR(~s_L -> ~g      s)
#
#         PDG            Width
DECAY   2000003     2.95477684E+02   # sstrange_R decays
#          BR         NDA      ID1       ID2
     1.00652865E-02    2     1000022         3   # BR(~s_R -> ~chi_10 s)
     5.53653034E-06    2     1000023         3   # BR(~s_R -> ~chi_20 s)
     6.87041069E-06    2     1000025         3   # BR(~s_R -> ~chi_30 s)
     6.92592079E-10    2     1000035         3   # BR(~s_R -> ~chi_40 s)
     9.89922306E-01    2     1000021         3   # BR(~s_R -> ~g      s)
#
#         PDG            Width
DECAY   1000011     3.02581686E+01   # selectron_L decays
#          BR         NDA      ID1       ID2
     2.26570041E-01    2     1000022        11   # BR(~e_L -> ~chi_10 e-)
     9.63978556E-04    2     1000023        11   # BR(~e_L -> ~chi_20 e-)
     2.37447004E-06    2     1000025        11   # BR(~e_L -> ~chi_30 e-)
     2.57245514E-01    2     1000035        11   # BR(~e_L -> ~chi_40 e-)
     1.62994065E-04    2    -1000024        12   # BR(~e_L -> ~chi_1- nu_e)
     5.15055098E-01    2    -1000037        12   # BR(~e_L -> ~chi_2- nu_e)
#
#         PDG            Width
DECAY   2000011     2.73688072E+01   # selectron_R decays
#          BR         NDA      ID1       ID2
     9.98771848E-01    2     1000022        11   # BR(~e_R -> ~chi_10 e-)
     5.48028723E-04    2     1000023        11   # BR(~e_R -> ~chi_20 e-)
     6.80056535E-04    2     1000025        11   # BR(~e_R -> ~chi_30 e-)
     6.72376333E-08    2     1000035        11   # BR(~e_R -> ~chi_40 e-)
#
#         PDG            Width
DECAY   1000013     3.02581686E+01   # smuon_L decays
#          BR         NDA      ID1       ID2
     2.26570041E-01    2     1000022        13   # BR(~mu_L -> ~chi_10 mu-)
     9.63978556E-04    2     1000023        13   # BR(~mu_L -> ~chi_20 mu-)
     2.37447004E-06    2     1000025        13   # BR(~mu_L -> ~chi_30 mu-)
     2.57245514E-01    2     1000035        13   # BR(~mu_L -> ~chi_40 mu-)
     1.62994065E-04    2    -1000024        14   # BR(~mu_L -> ~chi_1- nu_mu)
     5.15055098E-01    2    -1000037        14   # BR(~mu_L -> ~chi_2- nu_mu)
#
#         PDG            Width
DECAY   2000013     2.73688072E+01   # smuon_R decays
#          BR         NDA      ID1       ID2
     9.98771848E-01    2     1000022        13   # BR(~mu_R -> ~chi_10 mu-)
     5.48028723E-04    2     1000023        13   # BR(~mu_R -> ~chi_20 mu-)
     6.80056535E-04    2     1000025        13   # BR(~mu_R -> ~chi_30 mu-)
     6.72376333E-08    2     1000035        13   # BR(~mu_R -> ~chi_40 mu-)
#
#         PDG            Width
DECAY   1000015     2.90684643E+01   # stau_1 decays
#          BR         NDA      ID1       ID2
     9.27976799E-01    2     1000022        15   # BR(~tau_1 -> ~chi_10  tau-)
     1.50470966E-02    2     1000023        15   # BR(~tau_1 -> ~chi_20  tau-)
     1.40758419E-02    2     1000025        15   # BR(~tau_1 -> ~chi_30  tau-)
     4.77849378E-03    2     1000035        15   # BR(~tau_1 -> ~chi_40  tau-)
     2.85545277E-02    2    -1000024        16   # BR(~tau_1 -> ~chi_1-  nu_tau)
     9.56724085E-03    2    -1000037        16   # BR(~tau_1 -> ~chi_2-  nu_tau)
#
#         PDG            Width
DECAY   2000015     3.10316560E+01   # stau_2 decays
#          BR         NDA      ID1       ID2
     2.32395046E-01    2     1000022        15   # BR(~tau_2 -> ~chi_10  tau-)
     1.40457138E-02    2     1000023        15   # BR(~tau_2 -> ~chi_20  tau-)
     1.40888953E-02    2     1000025        15   # BR(~tau_2 -> ~chi_30  tau-)
     2.46278268E-01    2     1000035        15   # BR(~tau_2 -> ~chi_40  tau-)
     9.54956570E-05    2    -1000024        16   # BR(~tau_2 -> ~chi_1-  nu_tau)
     4.93096581E-01    2    -1000037        16   # BR(~tau_2 -> ~chi_2-  nu_tau)
#
#         PDG            Width
DECAY   1000012     3.02606951E+01   # snu_eL decays
#          BR         NDA      ID1       ID2
     2.26254515E-01    2     1000022        12   # BR(~nu_eL -> ~chi_10 nu_e)
     7.64931181E-05    2     1000023        12   # BR(~nu_eL -> ~chi_20 nu_e)
     5.42769443E-04    2     1000025        12   # BR(~nu_eL -> ~chi_30 nu_e)
     2.57309799E-01    2     1000035        12   # BR(~nu_eL -> ~chi_40 nu_e)
     1.89638934E-03    2     1000024        11   # BR(~nu_eL -> ~chi_1+ e-)
     5.13920035E-01    2     1000037        11   # BR(~nu_eL -> ~chi_2+ e-)
#
#         PDG            Width
DECAY   1000014     3.02606951E+01   # snu_muL decays
#          BR         NDA      ID1       ID2
     2.26254515E-01    2     1000022        14   # BR(~nu_muL -> ~chi_10 nu_mu)
     7.64931181E-05    2     1000023        14   # BR(~nu_muL -> ~chi_20 nu_mu)
     5.42769443E-04    2     1000025        14   # BR(~nu_muL -> ~chi_30 nu_mu)
     2.57309799E-01    2     1000035        14   # BR(~nu_muL -> ~chi_40 nu_mu)
     1.89638934E-03    2     1000024        13   # BR(~nu_muL -> ~chi_1+ mu-)
     5.13920035E-01    2     1000037        13   # BR(~nu_muL -> ~chi_2+ mu-)
#
#         PDG            Width
DECAY   1000016     3.10821773E+01   # snu_tauL decays
#          BR         NDA      ID1       ID2
     2.20250875E-01    2     1000022        16   # BR(~nu_tauL -> ~chi_10 nu_tau)
     7.44614300E-05    2     1000023        16   # BR(~nu_tauL -> ~chi_20 nu_tau)
     5.28353211E-04    2     1000025        16   # BR(~nu_tauL -> ~chi_30 nu_tau)
     2.50416904E-01    2     1000035        16   # BR(~nu_tauL -> ~chi_40 nu_tau)
     2.85763895E-02    2     1000024        15   # BR(~nu_tauL -> ~chi_1+ tau-)
     5.00153017E-01    2     1000037        15   # BR(~nu_tauL -> ~chi_2+ tau-)
#
#         PDG            Width
DECAY   1000024     7.34780443E-01   # chargino1+ decays
#          BR         NDA      ID1       ID2
     1.00000000E+00    2     1000022        24   # BR(~chi_1+ -> ~chi_10  W+)
#
#         PDG            Width
DECAY   1000037     1.96808856E+01   # chargino2+ decays
#          BR         NDA      ID1       ID2
     2.53026053E-01    2     1000024        23   # BR(~chi_2+ -> ~chi_1+  Z )
     2.15558435E-04    2     1000022        24   # BR(~chi_2+ -> ~chi_10  W+)
     2.44020115E-01    2     1000023        24   # BR(~chi_2+ -> ~chi_20  W+)
     2.43982907E-01    2     1000025        24   # BR(~chi_2+ -> ~chi_30  W+)
     2.58754621E-01    2     1000024        25   # BR(~chi_2+ -> ~chi_1+  h )
     7.45803888E-07    2     1000022        37   # BR(~chi_2+ -> ~chi_10  H+)
#
#         PDG            Width
DECAY   1000022     0.00000000E+00   # neutralino1 decays
#
#         PDG            Width
DECAY   1000023     7.69935889E-01   # neutralino2 decays
#          BR         NDA      ID1       ID2
     5.48093675E-01    2     1000022        23   # BR(~chi_20 -> ~chi_10   Z )
     4.51906325E-01    2     1000022        25   # BR(~chi_20 -> ~chi_10   h )
#
#         PDG            Width
DECAY   1000025     7.75743908E-01   # neutralino3 decays
#          BR         NDA      ID1       ID2
     4.38183735E-01    2     1000022        23   # BR(~chi_30 -> ~chi_10   Z )
     5.61816265E-01    2     1000022        25   # BR(~chi_30 -> ~chi_10   h )
#
#         PDG            Width
DECAY   1000035     1.96924957E+01   # neutralino4 decays
#          BR         NDA      ID1       ID2
     6.35417225E-05    2     1000022        23   # BR(~chi_40 -> ~chi_10   Z )
     5.83446115E-02    2     1000023        23   # BR(~chi_40 -> ~chi_20   Z )
     1.93976942E-01    2     1000025        23   # BR(~chi_40 -> ~chi_30   Z )
     2.44633926E-01    2     1000024       -24   # BR(~chi_40 -> ~chi_1+   W-)
     2.44633926E-01    2    -1000024        24   # BR(~chi_40 -> ~chi_1-   W+)
     1.54907554E-04    2     1000022        25   # BR(~chi_40 -> ~chi_10   h )
     6.82774651E-07    2     1000022        35   # BR(~chi_40 -> ~chi_10   H )
     8.92379913E-08    2     1000022        36   # BR(~chi_40 -> ~chi_10   A )
     1.99751996E-01    2     1000023        25   # BR(~chi_40 -> ~chi_20   h )
     5.84393786E-02    2     1000025        25   # BR(~chi_40 -> ~chi_30   h )
#
#         PDG            Width
DECAY        25     4.03343422E-03   # h decays
#          BR         NDA      ID1       ID2
     6.12933436E-01    2           5        -5   # BR(h -> b       bb     )
     6.41726478E-02    2         -15        15   # BR(h -> tau+    tau-   )
     2.27195620E-04    2         -13        13   # BR(h -> mu+     mu-    )
     4.81830874E-04    2           3        -3   # BR(h -> s       sb     )
     2.08796128E-02    2           4        -4   # BR(h -> c       cb     )
     6.72498506E-02    2          21        21   # BR(h -> g       g      )
     2.30649334E-03    2          22        22   # BR(h -> gam     gam    )
     1.46598505E-03    2          22        23   # BR(h -> Z       gam    )
     2.05822505E-01    2          24       -24   # BR(h -> W+      W-     )
     2.44191062E-02    2          23        23   # BR(h -> Z       Z      )
     4.13360555E-05    2     1000022   1000022   # BR(h -> ~chi_10 ~chi_10)
#
#         PDG            Width
DECAY        35     7.78936276E+00   # H decays
#          BR         NDA      ID1       ID2
     4.15962777E-01    2           5        -5   # BR(H -> b       bb     )
     7.15627075E-02    2         -15        15   # BR(H -> tau+    tau-   )
     2.53051418E-04    2         -13        13   # BR(H -> mu+     mu-    )
     3.10202334E-04    2           3        -3   # BR(H -> s       sb     )
     1.73312272E-06    2           4        -4   # BR(H -> c       cb     )
     1.73152684E-01    2           6        -6   # BR(H -> t       tb     )
     5.74965495E-05    2          21        21   # BR(H -> g       g      )
     3.33316286E-07    2          22        22   # BR(H -> gam     gam    )
     1.02181721E-07    2          23        22   # BR(H -> Z       gam    )
     7.82660320E-05    2          24       -24   # BR(H -> W+      W-     )
     3.90834791E-05    2          23        23   # BR(H -> Z       Z      )
     2.94443009E-04    2          25        25   # BR(H -> h       h      )
     4.85625554E-23    2          36        36   # BR(H -> A       A      )
     7.28363870E-19    2          23        36   # BR(H -> Z       A      )
     1.19009688E-03    2     1000024  -1000024   # BR(H -> ~chi_1+ ~chi_1-)
     1.28774308E-03    2     1000022   1000022   # BR(H -> ~chi_10 ~chi_10)
     6.58704473E-05    2     1000023   1000023   # BR(H -> ~chi_20 ~chi_20)
     2.34591724E-04    2     1000025   1000025   # BR(H -> ~chi_30 ~chi_30)
     2.00581622E-01    2     1000022   1000023   # BR(H -> ~chi_10 ~chi_20)
     1.34710968E-01    2     1000022   1000025   # BR(H -> ~chi_10 ~chi_30)
     2.16228743E-04    2     1000023   1000025   # BR(H -> ~chi_20 ~chi_30)
#
#         PDG            Width
DECAY        36     7.80968258E+00   # A decays
#          BR         NDA      ID1       ID2
     4.15020958E-01    2           5        -5   # BR(A -> b       bb     )
     7.13786756E-02    2         -15        15   # BR(A -> tau+    tau-   )
     2.52400314E-04    2         -13        13   # BR(A -> mu+     mu-    )
     3.09630136E-04    2           3        -3   # BR(A -> s       sb     )
     1.73577568E-06    2           4        -4   # BR(A -> c       cb     )
     1.73322056E-01    2           6        -6   # BR(A -> t       tb     )
     1.71558748E-04    2          21        21   # BR(A -> g       g      )
     5.27414478E-07    2          22        22   # BR(A -> gam     gam    )
     2.07706952E-07    2          23        22   # BR(A -> Z       gam    )
     7.77691258E-05    2          23        25   # BR(A -> Z       h      )
     2.91273393E-03    2     1000024  -1000024   # BR(A -> ~chi_1+ ~chi_1-)
     1.31634851E-03    2     1000022   1000022   # BR(A -> ~chi_10 ~chi_10)
     1.19242773E-04    2     1000023   1000023   # BR(A -> ~chi_20 ~chi_20)
     9.99461831E-04    2     1000025   1000025   # BR(A -> ~chi_30 ~chi_30)
     1.36094793E-01    2     1000022   1000023   # BR(A -> ~chi_10 ~chi_20)
     1.97995436E-01    2     1000022   1000025   # BR(A -> ~chi_10 ~chi_30)
     2.64647323E-05    2     1000023   1000025   # BR(A -> ~chi_20 ~chi_30)
#
#         PDG            Width
DECAY        37     7.76231816E+00   # H+ decays
#          BR         NDA      ID1       ID2
     6.66851745E-04    2           4        -5   # BR(H+ -> c       bb     )
     7.18349268E-02    2         -15        16   # BR(H+ -> tau+    nu_tau )
     2.54013652E-04    2         -13        14   # BR(H+ -> mu+     nu_mu  )
     4.26782910E-06    2           2        -5   # BR(H+ -> u       bb     )
     1.49049972E-05    2           2        -3   # BR(H+ -> u       sb     )
     3.08234357E-04    2           4        -3   # BR(H+ -> c       sb     )
     5.87517298E-01    2           6        -5   # BR(H+ -> t       bb     )
     7.83616184E-05    2          24        25   # BR(H+ -> W+      h      )
     8.20649433E-14    2          24        36   # BR(H+ -> W+      A      )
     3.38753961E-01    2     1000024   1000022   # BR(H+ -> ~chi_1+ ~chi_10)
     5.05865698E-04    2     1000024   1000023   # BR(H+ -> ~chi_1+ ~chi_20)
     6.13143704E-05    2     1000024   1000025   # BR(H+ -> ~chi_1+ ~chi_30)
