#
#                              ======================
#                              | THE SUSYHIT OUTPUT |
#                              ======================
#
#
#              ------------------------------------------------------
#              |     This is the output of the SUSY-HIT package     |
#              |  created by A.Djouadi, M.Muehlleitner and M.Spira. |
#              |  In case of problems with SUSY-HIT email to        |
#              |           margarete.muehlleitner@cern.ch           |
#              |           michael.spira@psi.ch                     |
#              |           abdelhak.djouadi@cern.ch                 |
#              ------------------------------------------------------
#
#              ------------------------------------------------------
#              |  SUSY Les Houches Accord - MSSM Spectrum + Decays  |
#              |              based on the decay programs           |
#              |                                                    |
#              |                     SDECAY 1.3b                    |
#              |                                                    |
#              |  Authors: M.Muhlleitner, A.Djouadi and Y.Mambrini  |
#              |  Ref.:    Comput.Phys.Commun.168(2005)46           |
#              |           [hep-ph/0311167]                         |
#              |                                                    |
#              |                     HDECAY 3.4                     |
#              |                                                    |
#              |  By: A.Djouadi,J.Kalinowski,M.Muhlleitner,M.Spira  |
#              |  Ref.:    Comput.Phys.Commun.108(1998)56           |
#              |           [hep-ph/9704448]                         |
#              |                                                    |
#              |                                                    |
#              |  If not stated otherwise all DRbar couplings and   |
#              |  soft SUSY breaking masses are given at the scale  |
#              |  Q=  0.50007499E+04
#              |                                                    |
#              ------------------------------------------------------
#
#
BLOCK DCINFO  # Decay Program information
     1   SDECAY/HDECAY # decay calculator
     2   1.3b  /3.4    # version number
#
BLOCK SPINFO  # Spectrum calculator information
     1    SOFTSUSY    # spectrum calculator                
     2    3.4.0       # version number                     
#
BLOCK MODSEL  # Model selection
     1     0   #  nonUniversal                                     
#
BLOCK SMINPUTS  # Standard Model inputs
         1     1.25778332E+02   # alpha_em^-1(M_Z)^MSbar
         2     1.16570000E-05   # G_F [GeV^-2]
         3     1.17200002E-01   # alpha_S(M_Z)^MSbar
         4     9.11876000E+01   # M_Z pole mass
         5     4.25000000E+00   # mb(mb)^MSbar
         6     1.72500000E+02   # mt pole mass
         7     1.77682000E+00   # mtau pole mass
#
BLOCK MINPAR  # Input parameters - minimal models
         3     1.00000000E+01   # tanb                
#
BLOCK EXTPAR  # Input parameters - non-minimal models
         0    -1.00000000E+00   # Set                 
         1     6.00000000E+01   # M_1(MX)             
         2     3.00000000E+03   # M_2(MX)             
         3     1.94902800E+03   # M_3(MX)             
        11     5.00000000E+03   # At(MX)              
        12     5.00000000E+03   # Ab(MX)              
        13     0.00000000E+00   # Atau(MX)            
        23    -7.64817000E+02   # mu(MX)              
        26     3.00000000E+03   # mA(pole)            
        31     5.00000000E+03   # meL(MX)             
        32     5.00000000E+03   # mmuL(MX)            
        33     5.00000000E+03   # mtauL(MX)           
        34     5.00000000E+03   # meR(MX)             
        35     5.00000000E+03   # mmuR(MX)            
        36     5.00000000E+03   # mtauR(MX)           
        41     5.00000000E+03   # mqL1(MX)            
        42     5.00000000E+03   # mqL2(MX)            
        43     5.00000000E+03   # mqL3(MX)            
        44     5.00000000E+03   # muR(MX)             
        45     5.00000000E+03   # mcR(MX)             
        46     5.00000000E+03   # mtR(MX)             
        47     5.00000000E+03   # mdR(MX)             
        48     5.00000000E+03   # msR(MX)             
        49     5.00000000E+03   # mbR(MX)             
#
BLOCK MASS  # Mass Spectrum
# PDG code           mass       particle
        24     8.00946830E+01   # W+
        25     1.24801359E+02   # h
        35     3.00008293E+03   # H
        36     2.99999759E+03   # A
        37     3.00136079E+03   # H+
         5     4.87878001E+00   # b-quark pole mass calculated from mb(mb)_Msbar
   1000001     5.07637720E+03   # ~d_L
   2000001     5.05857928E+03   # ~d_R
   1000002     5.07590473E+03   # ~u_L
   2000002     5.05828865E+03   # ~u_R
   1000003     5.07637720E+03   # ~s_L
   2000003     5.05857928E+03   # ~s_R
   1000004     5.07590473E+03   # ~c_L
   2000004     5.05828865E+03   # ~c_R
   1000005     5.02207821E+03   # ~b_1
   2000005     5.05696359E+03   # ~b_2
   1000006     4.91350810E+03   # ~t_1
   2000006     5.06614315E+03   # ~t_2
   1000011     5.01908162E+03   # ~e_L
   2000011     5.00593129E+03   # ~e_R
   1000012     5.01813262E+03   # ~nu_eL
   1000013     5.01908162E+03   # ~mu_L
   2000013     5.00593129E+03   # ~mu_R
   1000014     5.01813262E+03   # ~nu_muL
   1000015     5.00468709E+03   # ~tau_1
   2000015     5.01869732E+03   # ~tau_2
   1000016     5.01758421E+03   # ~nu_tauL
   1000021     2.30000044E+03   # ~g
   1000022     6.02875219E+01   # ~chi_10
   1000023     7.99842837E+02   # ~chi_20
   1000025    -8.02073412E+02   # ~chi_30
   1000035     3.07421009E+03   # ~chi_40
   1000024     8.00001024E+02   # ~chi_1+
   1000037     3.07437760E+03   # ~chi_2+
#
BLOCK NMIX  # Neutralino Mixing Matrix
  1  1     9.98452036E-01   # N_11
  1  2     2.07822117E-04   # N_12
  1  3    -5.55961827E-02   # N_13
  1  4     1.59775086E-03   # N_14
  2  1     3.81982065E-02   # N_21
  2  2     2.14528139E-02   # N_22
  2  3     7.06384828E-01   # N_23
  2  4     7.06470912E-01   # N_24
  3  1    -4.04261572E-02   # N_31
  3  2     1.56880396E-02   # N_32
  3  3    -7.05629466E-01   # N_33
  3  4     7.07252902E-01   # N_34
  4  1    -3.92891065E-04   # N_41
  4  2     9.99646747E-01   # N_42
  4  3    -4.07388422E-03   # N_43
  4  4    -2.62608093E-02   # N_44
#
BLOCK UMIX  # Chargino Mixing Matrix U
  1  1     5.77212876E-03   # U_11
  1  2     9.99983341E-01   # U_12
  2  1    -9.99983341E-01   # U_21
  2  2     5.77212876E-03   # U_22
#
BLOCK VMIX  # Chargino Mixing Matrix V
  1  1     3.71666333E-02   # V_11
  1  2    -9.99309082E-01   # V_12
  2  1    -9.99309082E-01   # V_21
  2  2    -3.71666333E-02   # V_22
#
BLOCK STOPMIX  # Stop Mixing Matrix
  1  1    -5.04386278E-01   # cos(theta_t)
  1  2     8.63478131E-01   # sin(theta_t)
  2  1    -8.63478131E-01   # -sin(theta_t)
  2  2    -5.04386278E-01   # cos(theta_t)
#
BLOCK SBOTMIX  # Sbottom Mixing Matrix
  1  1     9.97865240E-01   # cos(theta_b)
  1  2    -6.53066827E-02   # sin(theta_b)
  2  1     6.53066827E-02   # -sin(theta_b)
  2  2     9.97865240E-01   # cos(theta_b)
#
BLOCK STAUMIX  # Stau Mixing Matrix
  1  1    -9.13576664E-02   # cos(theta_tau)
  1  2     9.95818144E-01   # sin(theta_tau)
  2  1    -9.95818144E-01   # -sin(theta_tau)
  2  2    -9.13576664E-02   # cos(theta_tau)
#
BLOCK ALPHA  # Higgs mixing
          -1.05483747E-01   # Mixing angle in the neutral Higgs boson sector
#
BLOCK HMIX Q=  5.00074985E+03  # DRbar Higgs Parameters
         1    -7.78858139E+02   # mu(Q)MSSM           
         2     9.46913864E+00   # tan                 
         3     2.41811117E+02   # higgs               
         4     8.57789696E+06   # mA^2(Q)MSSM         
#
BLOCK GAUGE Q=  5.00074985E+03  # The gauge couplings
     1     3.70843059E-01   # gprime(Q) DRbar
     2     6.32786544E-01   # g(Q) DRbar
     3     9.96448281E-01   # g3(Q) DRbar
#
BLOCK AU Q=  5.00074985E+03  # The trilinear couplings
  1  1     5.00000001E+03   # A_u(Q) DRbar
  2  2     5.00000001E+03   # A_c(Q) DRbar
  3  3     5.00000002E+03   # A_t(Q) DRbar
#
BLOCK AD Q=  5.00074985E+03  # The trilinear couplings
  1  1     5.00000001E+03   # A_d(Q) DRbar
  2  2     5.00000001E+03   # A_s(Q) DRbar
  3  3     5.00000001E+03   # A_b(Q) DRbar
#
BLOCK AE Q=  5.00074985E+03  # The trilinear couplings
  1  1     0.00000000E+00   # A_e(Q) DRbar
  2  2     2.18903478E-07   # A_mu(Q) DRbar
  3  3     2.18716995E-07   # A_tau(Q) DRbar
#
BLOCK Yu Q=  5.00074985E+03  # The Yukawa couplings
  1  1     0.00000000E+00   # y_u(Q) DRbar
  2  2     0.00000000E+00   # y_c(Q) DRbar
  3  3     8.20794337E-01   # y_t(Q) DRbar
#
BLOCK Yd Q=  5.00074985E+03  # The Yukawa couplings
  1  1     0.00000000E+00   # y_d(Q) DRbar
  2  2     0.00000000E+00   # y_s(Q) DRbar
  3  3     1.30598109E-01   # y_b(Q) DRbar
#
BLOCK Ye Q=  5.00074985E+03  # The Yukawa couplings
  1  1     0.00000000E+00   # y_e(Q) DRbar
  2  2     0.00000000E+00   # y_mu(Q) DRbar
  3  3     9.69572185E-02   # y_tau(Q) DRbar
#
BLOCK MSOFT Q=  5.00074985E+03  # The soft SUSY breaking masses at the scale Q
         1     6.00000000E+01   # M_1(Q)              
         2     3.00000000E+03   # M_2(Q)              
         3     1.94902800E+03   # M_3(Q)              
        21     8.10274500E+06   # mH1^2(Q)            
        22    -3.59261819E+04   # mH2^2(Q)            
        31     5.00000000E+03   # meL(Q)              
        32     5.00000000E+03   # mmuL(Q)             
        33     5.00000000E+03   # mtauL(Q)            
        34     5.00000000E+03   # meR(Q)              
        35     5.00000000E+03   # mmuR(Q)             
        36     5.00000000E+03   # mtauR(Q)            
        41     5.00000000E+03   # mqL1(Q)             
        42     5.00000000E+03   # mqL2(Q)             
        43     4.99999999E+03   # mqL3(Q)             
        44     5.00000000E+03   # muR(Q)              
        45     5.00000000E+03   # mcR(Q)              
        46     4.99999999E+03   # mtR(Q)              
        47     5.00000000E+03   # mdR(Q)              
        48     5.00000000E+03   # msR(Q)              
        49     5.00000000E+03   # mbR(Q)              
#
#
#
#                             =================
#                             |The decay table|
#                             =================
#
# - The QCD corrections to the decays gluino -> squark  + quark
#                                     squark -> gaugino + quark_prime
#                                     squark -> squark_prime + Higgs
#                                     squark -> gluino  + quark
#   are included.
#
# - The multi-body decays for the inos, stops and sbottoms are included.
#
# - The loop induced decays for the gluino, neutralinos and stops
#   are included.
#
# - The SUSY decays of the top quark are included.
#
#
#         PDG            Width
DECAY         6     1.40321724E+00   # top decays
#          BR         NDA      ID1       ID2
     1.00000000E+00    2           5        24   # BR(t ->  b    W+)
#
#         PDG            Width
DECAY   1000021     2.80446031E-03   # gluino decays
#          BR         NDA      ID1       ID2
     1.49843524E-06    2     1000022        21   # BR(~g -> ~chi_10 g)
     6.25307994E-03    2     1000023        21   # BR(~g -> ~chi_20 g)
     6.12755910E-03    2     1000025        21   # BR(~g -> ~chi_30 g)
#           BR         NDA      ID1       ID2       ID3
     1.72929040E-02    3     1000022         1        -1   # BR(~g -> ~chi_10 d  db)
     2.19348754E-05    3     1000023         1        -1   # BR(~g -> ~chi_20 d  db)
     1.86967903E-05    3     1000025         1        -1   # BR(~g -> ~chi_30 d  db)
     5.89704524E-02    3     1000022         2        -2   # BR(~g -> ~chi_10 u  ub)
     9.05294016E-05    3     1000023         2        -2   # BR(~g -> ~chi_20 u  ub)
     2.48184741E-05    3     1000025         2        -2   # BR(~g -> ~chi_30 u  ub)
     1.72929040E-02    3     1000022         3        -3   # BR(~g -> ~chi_10 s  sb)
     2.19348754E-05    3     1000023         3        -3   # BR(~g -> ~chi_20 s  sb)
     1.86967903E-05    3     1000025         3        -3   # BR(~g -> ~chi_30 s  sb)
     5.89704524E-02    3     1000022         4        -4   # BR(~g -> ~chi_10 c  cb)
     9.05294016E-05    3     1000023         4        -4   # BR(~g -> ~chi_20 c  cb)
     2.48184741E-05    3     1000025         4        -4   # BR(~g -> ~chi_30 c  cb)
     1.75737741E-02    3     1000022         5        -5   # BR(~g -> ~chi_10 b  bb)
     4.97147552E-03    3     1000023         5        -5   # BR(~g -> ~chi_20 b  bb)
     4.92621077E-03    3     1000025         5        -5   # BR(~g -> ~chi_30 b  bb)
     5.91396971E-02    3     1000022         6        -6   # BR(~g -> ~chi_10 t  tb)
     1.86849699E-01    3     1000023         6        -6   # BR(~g -> ~chi_20 t  tb)
     1.71157072E-01    3     1000025         6        -6   # BR(~g -> ~chi_30 t  tb)
     5.93637388E-05    3     1000024         1        -2   # BR(~g -> ~chi_1+ d  ub)
     5.93637388E-05    3    -1000024         2        -1   # BR(~g -> ~chi_1- u  db)
     5.93637388E-05    3     1000024         3        -4   # BR(~g -> ~chi_1+ s  cb)
     5.93637388E-05    3    -1000024         4        -3   # BR(~g -> ~chi_1- c  sb)
     1.94961904E-01    3     1000024         5        -6   # BR(~g -> ~chi_1+ b  tb)
     1.94961904E-01    3    -1000024         6        -5   # BR(~g -> ~chi_1- t  bb)
#
#         PDG            Width
DECAY   1000006     3.17159761E+02   # stop1 decays
#          BR         NDA      ID1       ID2
     2.79765960E-02    2     1000022         6   # BR(~t_1 -> ~chi_10 t )
     9.92296779E-02    2     1000023         6   # BR(~t_1 -> ~chi_20 t )
     9.50945380E-02    2     1000025         6   # BR(~t_1 -> ~chi_30 t )
     6.42922938E-03    2     1000035         6   # BR(~t_1 -> ~chi_40 t )
     1.45187006E-01    2     1000024         5   # BR(~t_1 -> ~chi_1+ b )
     1.28128994E-02    2     1000037         5   # BR(~t_1 -> ~chi_2+ b )
     6.13270053E-01    2     1000021         6   # BR(~t_1 -> ~g      t )
#
#         PDG            Width
DECAY   2000006     3.24526305E+02   # stop2 decays
#          BR         NDA      ID1       ID2
     1.05935794E-02    2     1000022         6   # BR(~t_2 -> ~chi_10 t )
     9.87303276E-02    2     1000023         6   # BR(~t_2 -> ~chi_20 t )
     1.03210718E-01    2     1000025         6   # BR(~t_2 -> ~chi_30 t )
     1.73090482E-02    2     1000035         6   # BR(~t_2 -> ~chi_40 t )
     5.77165080E-02    2     1000024         5   # BR(~t_2 -> ~chi_1+ b )
     3.44517802E-02    2     1000037         5   # BR(~t_2 -> ~chi_2+ b )
     6.74225820E-01    2     1000021         6   # BR(~t_2 -> ~g      t )
     8.64826747E-04    2     1000006        25   # BR(~t_2 -> ~t_1    h )
     2.89739201E-03    2     1000006        23   # BR(~t_2 -> ~t_1    Z )
#
#         PDG            Width
DECAY   1000005     2.99240225E+02   # sbottom1 decays
#          BR         NDA      ID1       ID2
     2.57660796E-03    2     1000022         5   # BR(~b_1 -> ~chi_10 b )
     2.71777205E-03    2     1000023         5   # BR(~b_1 -> ~chi_20 b )
     2.67125348E-03    2     1000025         5   # BR(~b_1 -> ~chi_30 b )
     2.53319858E-02    2     1000035         5   # BR(~b_1 -> ~chi_40 b )
     2.12953559E-01    2    -1000024         6   # BR(~b_1 -> ~chi_1- t )
     5.08788543E-02    2    -1000037         6   # BR(~b_1 -> ~chi_2- t )
     7.01037559E-01    2     1000021         5   # BR(~b_1 -> ~g      b )
     1.83240772E-03    2     1000006       -24   # BR(~b_1 -> ~t_1    W-)
#
#         PDG            Width
DECAY   2000005     2.19134395E+02   # sbottom2 decays
#          BR         NDA      ID1       ID2
     1.33942784E-02    2     1000022         5   # BR(~b_2 -> ~chi_10 b )
     3.74689360E-03    2     1000023         5   # BR(~b_2 -> ~chi_20 b )
     3.82554986E-03    2     1000025         5   # BR(~b_2 -> ~chi_30 b )
     1.44416818E-04    2     1000035         5   # BR(~b_2 -> ~chi_40 b )
     8.60942045E-03    2    -1000024         6   # BR(~b_2 -> ~chi_1- t )
     2.90048695E-04    2    -1000037         6   # BR(~b_2 -> ~chi_2- t )
     9.69944019E-01    2     1000021         5   # BR(~b_2 -> ~g      b )
     4.53727281E-05    2     1000006       -24   # BR(~b_2 -> ~t_1    W-)
#
#         PDG            Width
DECAY   1000002     2.38530018E+02   # sup_L decays
#          BR         NDA      ID1       ID2
     3.12293962E-03    2     1000022         2   # BR(~u_L -> ~chi_10 u)
     6.52554540E-05    2     1000023         2   # BR(~u_L -> ~chi_20 u)
     4.73610138E-06    2     1000025         2   # BR(~u_L -> ~chi_30 u)
     3.30560823E-02    2     1000035         2   # BR(~u_L -> ~chi_40 u)
     2.15627495E-04    2     1000024         1   # BR(~u_L -> ~chi_1+ d)
     6.60693778E-02    2     1000037         1   # BR(~u_L -> ~chi_2+ d)
     8.97465981E-01    2     1000021         2   # BR(~u_L -> ~g      u)
#
#         PDG            Width
DECAY   2000002     2.24447538E+02   # sup_R decays
#          BR         NDA      ID1       ID2
     5.28022480E-02    2     1000022         2   # BR(~u_R -> ~chi_10 u)
     7.36125938E-05    2     1000023         2   # BR(~u_R -> ~chi_20 u)
     8.24267868E-05    2     1000025         2   # BR(~u_R -> ~chi_30 u)
     3.27594068E-09    2     1000035         2   # BR(~u_R -> ~chi_40 u)
     9.47041709E-01    2     1000021         2   # BR(~u_R -> ~g      u)
#
#         PDG            Width
DECAY   1000001     2.38545521E+02   # sdown_L decays
#          BR         NDA      ID1       ID2
     3.10975001E-03    2     1000022         1   # BR(~d_L -> ~chi_10 d)
     1.52784647E-05    2     1000023         1   # BR(~d_L -> ~chi_20 d)
     4.34062751E-05    2     1000025         1   # BR(~d_L -> ~chi_30 d)
     3.30742496E-02    2     1000035         1   # BR(~d_L -> ~chi_40 d)
     5.20099571E-06    2    -1000024         2   # BR(~d_L -> ~chi_1- u)
     6.61746016E-02    2    -1000037         2   # BR(~d_L -> ~chi_2- u)
     8.97577513E-01    2     1000021         1   # BR(~d_L -> ~g      d)
#
#         PDG            Width
DECAY   2000001     2.15557888E+02   # sdown_R decays
#          BR         NDA      ID1       ID2
     1.37457584E-02    2     1000022         1   # BR(~d_R -> ~chi_10 d)
     1.91633246E-05    2     1000023         1   # BR(~d_R -> ~chi_20 d)
     2.14578952E-05    2     1000025         1   # BR(~d_R -> ~chi_30 d)
     8.52923308E-10    2     1000035         1   # BR(~d_R -> ~chi_40 d)
     9.86213620E-01    2     1000021         1   # BR(~d_R -> ~g      d)
#
#         PDG            Width
DECAY   1000004     2.38530018E+02   # scharm_L decays
#          BR         NDA      ID1       ID2
     3.12293962E-03    2     1000022         4   # BR(~c_L -> ~chi_10 c)
     6.52554540E-05    2     1000023         4   # BR(~c_L -> ~chi_20 c)
     4.73610138E-06    2     1000025         4   # BR(~c_L -> ~chi_30 c)
     3.30560823E-02    2     1000035         4   # BR(~c_L -> ~chi_40 c)
     2.15627495E-04    2     1000024         3   # BR(~c_L -> ~chi_1+ s)
     6.60693778E-02    2     1000037         3   # BR(~c_L -> ~chi_2+ s)
     8.97465981E-01    2     1000021         4   # BR(~c_L -> ~g      c)
#
#         PDG            Width
DECAY   2000004     2.24447538E+02   # scharm_R decays
#          BR         NDA      ID1       ID2
     5.28022480E-02    2     1000022         4   # BR(~c_R -> ~chi_10 c)
     7.36125938E-05    2     1000023         4   # BR(~c_R -> ~chi_20 c)
     8.24267868E-05    2     1000025         4   # BR(~c_R -> ~chi_30 c)
     3.27594068E-09    2     1000035         4   # BR(~c_R -> ~chi_40 c)
     9.47041709E-01    2     1000021         4   # BR(~c_R -> ~g      c)
#
#         PDG            Width
DECAY   1000003     2.38545521E+02   # sstrange_L decays
#          BR         NDA      ID1       ID2
     3.10975001E-03    2     1000022         3   # BR(~s_L -> ~chi_10 s)
     1.52784647E-05    2     1000023         3   # BR(~s_L -> ~chi_20 s)
     4.34062751E-05    2     1000025         3   # BR(~s_L -> ~chi_30 s)
     3.30742496E-02    2     1000035         3   # BR(~s_L -> ~chi_40 s)
     5.20099571E-06    2    -1000024         4   # BR(~s_L -> ~chi_1- c)
     6.61746016E-02    2    -1000037         4   # BR(~s_L -> ~chi_2- c)
     8.97577513E-01    2     1000021         3   # BR(~s_L -> ~g      s)
#
#         PDG            Width
DECAY   2000003     2.15557888E+02   # sstrange_R decays
#          BR         NDA      ID1       ID2
     1.37457584E-02    2     1000022         3   # BR(~s_R -> ~chi_10 s)
     1.91633246E-05    2     1000023         3   # BR(~s_R -> ~chi_20 s)
     2.14578952E-05    2     1000025         3   # BR(~s_R -> ~chi_30 s)
     8.52923308E-10    2     1000035         3   # BR(~s_R -> ~chi_40 s)
     9.86213620E-01    2     1000021         3   # BR(~s_R -> ~g      s)
#
#         PDG            Width
DECAY   1000011     3.02900294E+01   # selectron_L decays
#          BR         NDA      ID1       ID2
     2.26069797E-01    2     1000022        11   # BR(~e_L -> ~chi_10 e-)
     1.20479392E-03    2     1000023        11   # BR(~e_L -> ~chi_20 e-)
     4.01459444E-05    2     1000025        11   # BR(~e_L -> ~chi_30 e-)
     2.57375617E-01    2     1000035        11   # BR(~e_L -> ~chi_40 e-)
     4.17723454E-05    2    -1000024        12   # BR(~e_L -> ~chi_1- nu_e)
     5.15267873E-01    2    -1000037        12   # BR(~e_L -> ~chi_2- nu_e)
#
#         PDG            Width
DECAY   2000011     2.73798934E+01   # selectron_R decays
#          BR         NDA      ID1       ID2
     9.97061635E-01    2     1000022        11   # BR(~e_R -> ~chi_10 e-)
     1.38617181E-03    2     1000023        11   # BR(~e_R -> ~chi_20 e-)
     1.55213300E-03    2     1000025        11   # BR(~e_R -> ~chi_30 e-)
     5.99135647E-08    2     1000035        11   # BR(~e_R -> ~chi_40 e-)
#
#         PDG            Width
DECAY   1000013     3.02900294E+01   # smuon_L decays
#          BR         NDA      ID1       ID2
     2.26069797E-01    2     1000022        13   # BR(~mu_L -> ~chi_10 mu-)
     1.20479392E-03    2     1000023        13   # BR(~mu_L -> ~chi_20 mu-)
     4.01459444E-05    2     1000025        13   # BR(~mu_L -> ~chi_30 mu-)
     2.57375617E-01    2     1000035        13   # BR(~mu_L -> ~chi_40 mu-)
     4.17723454E-05    2    -1000024        14   # BR(~mu_L -> ~chi_1- nu_mu)
     5.15267873E-01    2    -1000037        14   # BR(~mu_L -> ~chi_2- nu_mu)
#
#         PDG            Width
DECAY   2000013     2.73798934E+01   # smuon_R decays
#          BR         NDA      ID1       ID2
     9.97061635E-01    2     1000022        13   # BR(~mu_R -> ~chi_10 mu-)
     1.38617181E-03    2     1000023        13   # BR(~mu_R -> ~chi_20 mu-)
     1.55213300E-03    2     1000025        13   # BR(~mu_R -> ~chi_30 mu-)
     5.99135647E-08    2     1000035        13   # BR(~mu_R -> ~chi_40 mu-)
#
#         PDG            Width
DECAY   1000015     2.91721368E+01   # stau_1 decays
#          BR         NDA      ID1       ID2
     9.30691842E-01    2     1000022        15   # BR(~tau_1 -> ~chi_10  tau-)
     1.64848710E-02    2     1000023        15   # BR(~tau_1 -> ~chi_20  tau-)
     1.58999886E-02    2     1000025        15   # BR(~tau_1 -> ~chi_30  tau-)
     2.16639981E-03    2     1000035        15   # BR(~tau_1 -> ~chi_40  tau-)
     3.04199637E-02    2    -1000024        16   # BR(~tau_1 -> ~chi_1-  nu_tau)
     4.33693474E-03    2    -1000037        16   # BR(~tau_1 -> ~chi_2-  nu_tau)
#
#         PDG            Width
DECAY   2000015     3.11520764E+01   # stau_2 decays
#          BR         NDA      ID1       ID2
     2.24566471E-01    2     1000022        15   # BR(~tau_2 -> ~chi_10  tau-)
     1.54683372E-02    2     1000023        15   # BR(~tau_2 -> ~chi_20  tau-)
     1.49632055E-02    2     1000025        15   # BR(~tau_2 -> ~chi_30  tau-)
     2.48140101E-01    2     1000035        15   # BR(~tau_2 -> ~chi_40  tau-)
     8.29628517E-05    2    -1000024        16   # BR(~tau_2 -> ~chi_1-  nu_tau)
     4.96778923E-01    2    -1000037        16   # BR(~tau_2 -> ~chi_2-  nu_tau)
#
#         PDG            Width
DECAY   1000012     3.02930381E+01   # snu_eL decays
#          BR         NDA      ID1       ID2
     2.25683730E-01    2     1000022        12   # BR(~nu_eL -> ~chi_10 nu_e)
     5.45719326E-07    2     1000023        12   # BR(~nu_eL -> ~chi_20 nu_e)
     9.71583583E-04    2     1000025        12   # BR(~nu_eL -> ~chi_30 nu_e)
     2.57421598E-01    2     1000035        12   # BR(~nu_eL -> ~chi_40 nu_e)
     1.73136830E-03    2     1000024        11   # BR(~nu_eL -> ~chi_1+ e-)
     5.14191174E-01    2     1000037        11   # BR(~nu_eL -> ~chi_2+ e-)
#
#         PDG            Width
DECAY   1000014     3.02930381E+01   # snu_muL decays
#          BR         NDA      ID1       ID2
     2.25683730E-01    2     1000022        14   # BR(~nu_muL -> ~chi_10 nu_mu)
     5.45719326E-07    2     1000023        14   # BR(~nu_muL -> ~chi_20 nu_mu)
     9.71583583E-04    2     1000025        14   # BR(~nu_muL -> ~chi_30 nu_mu)
     2.57421598E-01    2     1000035        14   # BR(~nu_muL -> ~chi_40 nu_mu)
     1.73136830E-03    2     1000024        13   # BR(~nu_muL -> ~chi_1+ mu-)
     5.14191174E-01    2     1000037        13   # BR(~nu_muL -> ~chi_2+ mu-)
#
#         PDG            Width
DECAY   1000016     3.11748804E+01   # snu_tauL decays
#          BR         NDA      ID1       ID2
     2.19275845E-01    2     1000022        16   # BR(~nu_tauL -> ~chi_10 nu_tau)
     5.30218595E-07    2     1000023        16   # BR(~nu_tauL -> ~chi_20 nu_tau)
     9.43986449E-04    2     1000025        16   # BR(~nu_tauL -> ~chi_30 nu_tau)
     2.50046897E-01    2     1000035        16   # BR(~nu_tauL -> ~chi_40 nu_tau)
     3.02728566E-02    2     1000024        15   # BR(~nu_tauL -> ~chi_1+ tau-)
     4.99459885E-01    2     1000037        15   # BR(~nu_tauL -> ~chi_2+ tau-)
#
#         PDG            Width
DECAY   1000024     4.83305208E-01   # chargino1+ decays
#          BR         NDA      ID1       ID2
     1.00000000E+00    2     1000022        24   # BR(~chi_1+ -> ~chi_10  W+)
#
#         PDG            Width
DECAY   1000037     2.11131400E+01   # chargino2+ decays
#          BR         NDA      ID1       ID2
     2.53358249E-01    2     1000024        23   # BR(~chi_2+ -> ~chi_1+  Z )
     1.84736765E-04    2     1000022        24   # BR(~chi_2+ -> ~chi_10  W+)
     2.44403743E-01    2     1000023        24   # BR(~chi_2+ -> ~chi_20  W+)
     2.44220062E-01    2     1000025        24   # BR(~chi_2+ -> ~chi_30  W+)
     2.57831287E-01    2     1000024        25   # BR(~chi_2+ -> ~chi_1+  h )
     1.92318220E-06    2     1000022        37   # BR(~chi_2+ -> ~chi_10  H+)
#
#         PDG            Width
DECAY   1000022     0.00000000E+00   # neutralino1 decays
#
#         PDG            Width
DECAY   1000023     5.01693769E-01   # neutralino2 decays
#          BR         NDA      ID1       ID2
     5.29409084E-01    2     1000022        23   # BR(~chi_20 -> ~chi_10   Z )
     4.70590916E-01    2     1000022        25   # BR(~chi_20 -> ~chi_10   h )
#
#         PDG            Width
DECAY   1000025     5.01488914E-01   # neutralino3 decays
#          BR         NDA      ID1       ID2
     4.69499044E-01    2     1000022        23   # BR(~chi_30 -> ~chi_10   Z )
     5.30500956E-01    2     1000022        25   # BR(~chi_30 -> ~chi_10   h )
#
#         PDG            Width
DECAY   1000035     2.11288956E+01   # neutralino4 decays
#          BR         NDA      ID1       ID2
     3.18515569E-05    2     1000022        23   # BR(~chi_40 -> ~chi_10   Z )
     8.82311703E-02    2     1000023        23   # BR(~chi_40 -> ~chi_20   Z )
     1.64466972E-01    2     1000025        23   # BR(~chi_40 -> ~chi_30   Z )
     2.44940792E-01    2     1000024       -24   # BR(~chi_40 -> ~chi_1+   W-)
     2.44940792E-01    2    -1000024        24   # BR(~chi_40 -> ~chi_1-   W+)
     1.51493015E-04    2     1000022        25   # BR(~chi_40 -> ~chi_10   h )
     1.83175747E-06    2     1000022        35   # BR(~chi_40 -> ~chi_10   H )
     2.13625030E-07    2     1000022        36   # BR(~chi_40 -> ~chi_10   A )
     1.68738468E-01    2     1000023        25   # BR(~chi_40 -> ~chi_20   h )
     8.84964157E-02    2     1000025        25   # BR(~chi_40 -> ~chi_30   h )
#
#         PDG            Width
DECAY        25     4.06428083E-03   # h decays
#          BR         NDA      ID1       ID2
     6.07981043E-01    2           5        -5   # BR(h -> b       bb     )
     6.38342006E-02    2         -15        15   # BR(h -> tau+    tau-   )
     2.25996157E-04    2         -13        13   # BR(h -> mu+     mu-    )
     4.79077340E-04    2           3        -3   # BR(h -> s       sb     )
     2.07585149E-02    2           4        -4   # BR(h -> c       cb     )
     6.71812775E-02    2          21        21   # BR(h -> g       g      )
     2.31024324E-03    2          22        22   # BR(h -> gam     gam    )
     1.49210105E-03    2          22        23   # BR(h -> Z       gam    )
     2.10563418E-01    2          24       -24   # BR(h -> W+      W-     )
     2.51015718E-02    2          23        23   # BR(h -> Z       Z      )
     7.25569455E-05    2     1000022   1000022   # BR(h -> ~chi_10 ~chi_10)
#
#         PDG            Width
DECAY        35     8.36768389E+00   # H decays
#          BR         NDA      ID1       ID2
     3.84118570E-01    2           5        -5   # BR(H -> b       bb     )
     6.65690354E-02    2         -15        15   # BR(H -> tau+    tau-   )
     2.35393397E-04    2         -13        13   # BR(H -> mu+     mu-    )
     2.88556199E-04    2           3        -3   # BR(H -> s       sb     )
     1.61463483E-06    2           4        -4   # BR(H -> c       cb     )
     1.61314808E-01    2           6        -6   # BR(H -> t       tb     )
     5.36252191E-05    2          21        21   # BR(H -> g       g      )
     2.09642914E-07    2          22        22   # BR(H -> gam     gam    )
     9.52383905E-08    2          23        22   # BR(H -> Z       gam    )
     7.54143373E-05    2          24       -24   # BR(H -> W+      W-     )
     3.76594388E-05    2          23        23   # BR(H -> Z       Z      )
     2.77113874E-04    2          25        25   # BR(H -> h       h      )
     2.68532784E-24    2          36        36   # BR(H -> A       A      )
     1.07070117E-18    2          23        36   # BR(H -> Z       A      )
     2.57758690E-03    2     1000024  -1000024   # BR(H -> ~chi_1+ ~chi_1-)
     2.69804314E-03    2     1000022   1000022   # BR(H -> ~chi_10 ~chi_10)
     4.86875849E-07    2     1000023   1000023   # BR(H -> ~chi_20 ~chi_20)
     1.01755148E-03    2     1000025   1000025   # BR(H -> ~chi_30 ~chi_30)
     2.28939385E-01    2     1000022   1000023   # BR(H -> ~chi_10 ~chi_20)
     1.50732296E-01    2     1000022   1000025   # BR(H -> ~chi_10 ~chi_30)
     1.06255508E-03    2     1000023   1000025   # BR(H -> ~chi_20 ~chi_30)
#
#         PDG            Width
DECAY        36     8.37960746E+00   # A decays
#          BR         NDA      ID1       ID2
     3.83702057E-01    2           5        -5   # BR(A -> b       bb     )
     6.64762756E-02    2         -15        15   # BR(A -> tau+    tau-   )
     2.35065062E-04    2         -13        13   # BR(A -> mu+     mu-    )
     2.88364370E-04    2           3        -3   # BR(A -> s       sb     )
     1.61887832E-06    2           4        -4   # BR(A -> c       cb     )
     1.61649527E-01    2           6        -6   # BR(A -> t       tb     )
     1.59957433E-04    2          21        21   # BR(A -> g       g      )
     5.96186331E-07    2          22        22   # BR(A -> gam     gam    )
     1.93703237E-07    2          23        22   # BR(A -> Z       gam    )
     7.50219616E-05    2          23        25   # BR(A -> Z       h      )
     3.36851861E-03    2     1000024  -1000024   # BR(A -> ~chi_1+ ~chi_1-)
     2.73164220E-03    2     1000022   1000022   # BR(A -> ~chi_10 ~chi_10)
     4.44332292E-07    2     1000023   1000023   # BR(A -> ~chi_20 ~chi_20)
     2.17782471E-03    2     1000025   1000025   # BR(A -> ~chi_30 ~chi_30)
     1.53029315E-01    2     1000022   1000023   # BR(A -> ~chi_10 ~chi_20)
     2.25615015E-01    2     1000022   1000025   # BR(A -> ~chi_10 ~chi_30)
     4.88563216E-04    2     1000023   1000025   # BR(A -> ~chi_20 ~chi_30)
#
#         PDG            Width
DECAY        37     8.33889168E+00   # H+ decays
#          BR         NDA      ID1       ID2
     6.17408781E-04    2           4        -5   # BR(H+ -> c       bb     )
     6.68312095E-02    2         -15        16   # BR(H+ -> tau+    nu_tau )
     2.36320135E-04    2         -13        14   # BR(H+ -> mu+     nu_mu  )
     3.95139566E-06    2           2        -5   # BR(H+ -> u       bb     )
     1.38664814E-05    2           2        -3   # BR(H+ -> u       sb     )
     2.86760152E-04    2           4        -3   # BR(H+ -> c       sb     )
     5.44951186E-01    2           6        -5   # BR(H+ -> t       bb     )
     7.55397035E-05    2          24        25   # BR(H+ -> W+      h      )
     7.41841372E-13    2          24        36   # BR(H+ -> W+      A      )
     3.85519888E-01    2     1000024   1000022   # BR(H+ -> ~chi_1+ ~chi_10)
     1.43971917E-03    2     1000024   1000023   # BR(H+ -> ~chi_1+ ~chi_20)
     2.41508951E-05    2     1000024   1000025   # BR(H+ -> ~chi_1+ ~chi_30)
