#
#                              ======================
#                              | THE SUSYHIT OUTPUT |
#                              ======================
#
#
#              ------------------------------------------------------
#              |     This is the output of the SUSY-HIT package     |
#              |  created by A.Djouadi, M.Muehlleitner and M.Spira. |
#              |  In case of problems with SUSY-HIT email to        |
#              |           margarete.muehlleitner@cern.ch           |
#              |           michael.spira@psi.ch                     |
#              |           abdelhak.djouadi@cern.ch                 |
#              ------------------------------------------------------
#
#              ------------------------------------------------------
#              |  SUSY Les Houches Accord - MSSM Spectrum + Decays  |
#              |              based on the decay programs           |
#              |                                                    |
#              |                     SDECAY 1.3b                    |
#              |                                                    |
#              |  Authors: M.Muhlleitner, A.Djouadi and Y.Mambrini  |
#              |  Ref.:    Comput.Phys.Commun.168(2005)46           |
#              |           [hep-ph/0311167]                         |
#              |                                                    |
#              |                     HDECAY 3.4                     |
#              |                                                    |
#              |  By: A.Djouadi,J.Kalinowski,M.Muhlleitner,M.Spira  |
#              |  Ref.:    Comput.Phys.Commun.108(1998)56           |
#              |           [hep-ph/9704448]                         |
#              |                                                    |
#              |                                                    |
#              |  If not stated otherwise all DRbar couplings and   |
#              |  soft SUSY breaking masses are given at the scale  |
#              |  Q=  0.50007391E+04
#              |                                                    |
#              ------------------------------------------------------
#
#
BLOCK DCINFO  # Decay Program information
     1   SDECAY/HDECAY # decay calculator
     2   1.3b  /3.4    # version number
#
BLOCK SPINFO  # Spectrum calculator information
     1    SOFTSUSY    # spectrum calculator                
     2    3.4.0       # version number                     
#
BLOCK MODSEL  # Model selection
     1     0   #  nonUniversal                                     
#
BLOCK SMINPUTS  # Standard Model inputs
         1     1.25778332E+02   # alpha_em^-1(M_Z)^MSbar
         2     1.16570000E-05   # G_F [GeV^-2]
         3     1.17200002E-01   # alpha_S(M_Z)^MSbar
         4     9.11876000E+01   # M_Z pole mass
         5     4.25000000E+00   # mb(mb)^MSbar
         6     1.72500000E+02   # mt pole mass
         7     1.77682000E+00   # mtau pole mass
#
BLOCK MINPAR  # Input parameters - minimal models
         3     1.00000000E+01   # tanb                
#
BLOCK EXTPAR  # Input parameters - non-minimal models
         0    -1.00000000E+00   # Set                 
         1     6.00000000E+01   # M_1(MX)             
         2     3.00000000E+03   # M_2(MX)             
         3     1.57543400E+03   # M_3(MX)             
        11     5.00000000E+03   # At(MX)              
        12     5.00000000E+03   # Ab(MX)              
        13     0.00000000E+00   # Atau(MX)            
        23    -9.59029000E+02   # mu(MX)              
        26     3.00000000E+03   # mA(pole)            
        31     5.00000000E+03   # meL(MX)             
        32     5.00000000E+03   # mmuL(MX)            
        33     5.00000000E+03   # mtauL(MX)           
        34     5.00000000E+03   # meR(MX)             
        35     5.00000000E+03   # mmuR(MX)            
        36     5.00000000E+03   # mtauR(MX)           
        41     5.00000000E+03   # mqL1(MX)            
        42     5.00000000E+03   # mqL2(MX)            
        43     5.00000000E+03   # mqL3(MX)            
        44     5.00000000E+03   # muR(MX)             
        45     5.00000000E+03   # mcR(MX)             
        46     5.00000000E+03   # mtR(MX)             
        47     5.00000000E+03   # mdR(MX)             
        48     5.00000000E+03   # msR(MX)             
        49     5.00000000E+03   # mbR(MX)             
#
BLOCK MASS  # Mass Spectrum
# PDG code           mass       particle
        24     8.00949738E+01   # W+
        25     1.24745208E+02   # h
        35     3.00008141E+03   # H
        36     2.99999859E+03   # A
        37     3.00112805E+03   # H+
         5     4.87878001E+00   # b-quark pole mass calculated from mb(mb)_Msbar
   1000001     5.07065886E+03   # ~d_L
   2000001     5.05285222E+03   # ~d_R
   1000002     5.07018467E+03   # ~u_L
   2000002     5.05256642E+03   # ~u_R
   1000003     5.07065886E+03   # ~s_L
   2000003     5.05285222E+03   # ~s_R
   1000004     5.07018467E+03   # ~c_L
   2000004     5.05256642E+03   # ~c_R
   1000005     5.01643059E+03   # ~b_1
   2000005     5.05137346E+03   # ~b_2
   1000006     4.90733218E+03   # ~t_1
   2000006     5.06148785E+03   # ~t_2
   1000011     5.01907109E+03   # ~e_L
   2000011     5.00592429E+03   # ~e_R
   1000012     5.01812242E+03   # ~nu_eL
   1000013     5.01907109E+03   # ~mu_L
   2000013     5.00592429E+03   # ~mu_R
   1000014     5.01812242E+03   # ~nu_muL
   1000015     5.00461227E+03   # ~tau_1
   2000015     5.01876579E+03   # ~tau_2
   1000016     5.01757629E+03   # ~nu_tauL
   1000021     1.90000006E+03   # ~g
   1000022     6.02985920E+01   # ~chi_10
   1000023     9.99653126E+02   # ~chi_20
   1000025    -1.00190634E+03   # ~chi_30
   1000035     3.07425413E+03   # ~chi_40
   1000024     1.00000087E+03   # ~chi_1+
   1000037     3.07442160E+03   # ~chi_2+
#
BLOCK NMIX  # Neutralino Mixing Matrix
  1  1     9.99007057E-01   # N_11
  1  2     1.84585045E-04   # N_12
  1  3    -4.45087212E-02   # N_13
  1  4     1.95961735E-03   # N_14
  2  1     3.00954736E-02   # N_21
  2  2     2.34927941E-02   # N_22
  2  3     7.06701054E-01   # N_23
  2  4     7.06481402E-01   # N_24
  3  1    -3.28481581E-02   # N_31
  3  2     1.49118205E-02   # N_32
  3  3    -7.06084824E-01   # N_33
  3  4     7.07207789E-01   # N_34
  4  1    -4.01758264E-04   # N_41
  4  2     9.99612771E-01   # N_42
  4  3    -6.06750610E-03   # N_43
  4  4    -2.71538542E-02   # N_44
#
BLOCK UMIX  # Chargino Mixing Matrix U
  1  1     8.59443042E-03   # U_11
  1  2     9.99963067E-01   # U_12
  2  1    -9.99963067E-01   # U_21
  2  2     8.59443042E-03   # U_22
#
BLOCK VMIX  # Chargino Mixing Matrix V
  1  1     3.84311672E-02   # V_11
  1  2    -9.99261250E-01   # V_12
  2  1    -9.99261250E-01   # V_21
  2  2    -3.84311672E-02   # V_22
#
BLOCK STOPMIX  # Stop Mixing Matrix
  1  1    -5.07229219E-01   # cos(theta_t)
  1  2     8.61811185E-01   # sin(theta_t)
  2  1    -8.61811185E-01   # -sin(theta_t)
  2  2    -5.07229219E-01   # cos(theta_t)
#
BLOCK SBOTMIX  # Sbottom Mixing Matrix
  1  1     9.97082847E-01   # cos(theta_b)
  1  2    -7.63269036E-02   # sin(theta_b)
  2  1     7.63269036E-02   # -sin(theta_b)
  2  2     9.97082847E-01   # cos(theta_b)
#
BLOCK STAUMIX  # Stau Mixing Matrix
  1  1    -1.13910181E-01   # cos(theta_tau)
  1  2     9.93491052E-01   # sin(theta_tau)
  2  1    -9.93491052E-01   # -sin(theta_tau)
  2  2    -1.13910181E-01   # cos(theta_tau)
#
BLOCK ALPHA  # Higgs mixing
          -1.05471512E-01   # Mixing angle in the neutral Higgs boson sector
#
BLOCK HMIX Q=  5.00073913E+03  # DRbar Higgs Parameters
         1    -9.76562512E+02   # mu(Q)MSSM           
         2     9.47006309E+00   # tan                 
         3     2.41857780E+02   # higgs               
         4     8.51581215E+06   # mA^2(Q)MSSM         
#
BLOCK GAUGE Q=  5.00073913E+03  # The gauge couplings
     1     3.70799355E-01   # gprime(Q) DRbar
     2     6.32558802E-01   # g(Q) DRbar
     3     9.99254567E-01   # g3(Q) DRbar
#
BLOCK AU Q=  5.00073913E+03  # The trilinear couplings
  1  1     5.00000001E+03   # A_u(Q) DRbar
  2  2     5.00000001E+03   # A_c(Q) DRbar
  3  3     5.00000002E+03   # A_t(Q) DRbar
#
BLOCK AD Q=  5.00073913E+03  # The trilinear couplings
  1  1     5.00000001E+03   # A_d(Q) DRbar
  2  2     5.00000001E+03   # A_s(Q) DRbar
  3  3     5.00000001E+03   # A_b(Q) DRbar
#
BLOCK AE Q=  5.00073913E+03  # The trilinear couplings
  1  1     0.00000000E+00   # A_e(Q) DRbar
  2  2     1.59212843E-07   # A_mu(Q) DRbar
  3  3     1.58791201E-07   # A_tau(Q) DRbar
#
BLOCK Yu Q=  5.00073913E+03  # The Yukawa couplings
  1  1     0.00000000E+00   # y_u(Q) DRbar
  2  2     0.00000000E+00   # y_c(Q) DRbar
  3  3     8.19543360E-01   # y_t(Q) DRbar
#
BLOCK Yd Q=  5.00073913E+03  # The Yukawa couplings
  1  1     0.00000000E+00   # y_d(Q) DRbar
  2  2     0.00000000E+00   # y_s(Q) DRbar
  3  3     1.30545516E-01   # y_b(Q) DRbar
#
BLOCK Ye Q=  5.00073913E+03  # The Yukawa couplings
  1  1     0.00000000E+00   # y_e(Q) DRbar
  2  2     0.00000000E+00   # y_mu(Q) DRbar
  3  3     9.68560048E-02   # y_tau(Q) DRbar
#
BLOCK MSOFT Q=  5.00073913E+03  # The soft SUSY breaking masses at the scale Q
         1     6.00000000E+01   # M_1(Q)              
         2     3.00000000E+03   # M_2(Q)              
         3     1.57543400E+03   # M_3(Q)              
        21     7.74290081E+06   # mH1^2(Q)            
        22    -3.89719956E+05   # mH2^2(Q)            
        31     5.00000000E+03   # meL(Q)              
        32     5.00000000E+03   # mmuL(Q)             
        33     5.00000000E+03   # mtauL(Q)            
        34     5.00000000E+03   # meR(Q)              
        35     5.00000000E+03   # mmuR(Q)             
        36     5.00000000E+03   # mtauR(Q)            
        41     5.00000000E+03   # mqL1(Q)             
        42     5.00000000E+03   # mqL2(Q)             
        43     5.00000000E+03   # mqL3(Q)             
        44     5.00000000E+03   # muR(Q)              
        45     5.00000000E+03   # mcR(Q)              
        46     4.99999999E+03   # mtR(Q)              
        47     5.00000000E+03   # mdR(Q)              
        48     5.00000000E+03   # msR(Q)              
        49     5.00000000E+03   # mbR(Q)              
#
#
#
#                             =================
#                             |The decay table|
#                             =================
#
# - The QCD corrections to the decays gluino -> squark  + quark
#                                     squark -> gaugino + quark_prime
#                                     squark -> squark_prime + Higgs
#                                     squark -> gluino  + quark
#   are included.
#
# - The multi-body decays for the inos, stops and sbottoms are included.
#
# - The loop induced decays for the gluino, neutralinos and stops
#   are included.
#
# - The SUSY decays of the top quark are included.
#
#
#         PDG            Width
DECAY         6     1.40219466E+00   # top decays
#          BR         NDA      ID1       ID2
     1.00000000E+00    2           5        24   # BR(t ->  b    W+)
#
#         PDG            Width
DECAY   1000021     4.52419889E-04   # gluino decays
#          BR         NDA      ID1       ID2
     4.48089627E-06    2     1000022        21   # BR(~g -> ~chi_10 g)
     1.16400095E-02    2     1000023        21   # BR(~g -> ~chi_20 g)
     1.14457210E-02    2     1000025        21   # BR(~g -> ~chi_30 g)
#           BR         NDA      ID1       ID2       ID3
     3.95987259E-02    3     1000022         1        -1   # BR(~g -> ~chi_10 d  db)
     1.77311112E-05    3     1000023         1        -1   # BR(~g -> ~chi_20 d  db)
     9.12585449E-06    3     1000025         1        -1   # BR(~g -> ~chi_30 d  db)
     1.35017193E-01    3     1000022         2        -2   # BR(~g -> ~chi_10 u  ub)
     5.60725620E-05    3     1000023         2        -2   # BR(~g -> ~chi_20 u  ub)
     1.08770586E-05    3     1000025         2        -2   # BR(~g -> ~chi_30 u  ub)
     3.95987259E-02    3     1000022         3        -3   # BR(~g -> ~chi_10 s  sb)
     1.77311112E-05    3     1000023         3        -3   # BR(~g -> ~chi_20 s  sb)
     9.12585449E-06    3     1000025         3        -3   # BR(~g -> ~chi_30 s  sb)
     1.35017193E-01    3     1000022         4        -4   # BR(~g -> ~chi_10 c  cb)
     5.60725620E-05    3     1000023         4        -4   # BR(~g -> ~chi_20 c  cb)
     1.08770586E-05    3     1000025         4        -4   # BR(~g -> ~chi_30 c  cb)
     4.01643061E-02    3     1000022         5        -5   # BR(~g -> ~chi_10 b  bb)
     3.58758692E-03    3     1000023         5        -5   # BR(~g -> ~chi_20 b  bb)
     3.52772695E-03    3     1000025         5        -5   # BR(~g -> ~chi_30 b  bb)
     1.29246781E-01    3     1000022         6        -6   # BR(~g -> ~chi_10 t  tb)
     1.12534431E-01    3     1000023         6        -6   # BR(~g -> ~chi_20 t  tb)
     8.90951667E-02    3     1000025         6        -6   # BR(~g -> ~chi_30 t  tb)
     5.00421847E-05    3     1000024         1        -2   # BR(~g -> ~chi_1+ d  ub)
     5.00421847E-05    3    -1000024         2        -1   # BR(~g -> ~chi_1- u  db)
     5.00421847E-05    3     1000024         3        -4   # BR(~g -> ~chi_1+ s  cb)
     5.00421847E-05    3    -1000024         4        -3   # BR(~g -> ~chi_1- c  sb)
     1.24567085E-01    3     1000024         5        -6   # BR(~g -> ~chi_1+ b  tb)
     1.24567085E-01    3    -1000024         6        -5   # BR(~g -> ~chi_1- t  bb)
#
#         PDG            Width
DECAY   1000006     3.50219447E+02   # stop1 decays
#          BR         NDA      ID1       ID2
     2.52553411E-02    2     1000022         6   # BR(~t_1 -> ~chi_10 t )
     8.68997097E-02    2     1000023         6   # BR(~t_1 -> ~chi_20 t )
     8.34859586E-02    2     1000025         6   # BR(~t_1 -> ~chi_30 t )
     5.93435470E-03    2     1000035         6   # BR(~t_1 -> ~chi_40 t )
     1.26388170E-01    2     1000024         5   # BR(~t_1 -> ~chi_1+ b )
     1.18227638E-02    2     1000037         5   # BR(~t_1 -> ~chi_2+ b )
     6.60213702E-01    2     1000021         6   # BR(~t_1 -> ~g      t )
#
#         PDG            Width
DECAY   2000006     3.56866789E+02   # stop2 decays
#          BR         NDA      ID1       ID2
     9.78962987E-03    2     1000022         6   # BR(~t_2 -> ~chi_10 t )
     8.73071890E-02    2     1000023         6   # BR(~t_2 -> ~chi_20 t )
     9.09849960E-02    2     1000025         6   # BR(~t_2 -> ~chi_30 t )
     1.55395361E-02    2     1000035         6   # BR(~t_2 -> ~chi_40 t )
     5.19606606E-02    2     1000024         5   # BR(~t_2 -> ~chi_1+ b )
     3.09167521E-02    2     1000037         5   # BR(~t_2 -> ~chi_2+ b )
     7.09960096E-01    2     1000021         6   # BR(~t_2 -> ~g      t )
     8.04190119E-04    2     1000006        25   # BR(~t_2 -> ~t_1    h )
     2.73694967E-03    2     1000006        23   # BR(~t_2 -> ~t_1    Z )
#
#         PDG            Width
DECAY   1000005     3.32524289E+02   # sbottom1 decays
#          BR         NDA      ID1       ID2
     2.32522914E-03    2     1000022         5   # BR(~b_1 -> ~chi_10 b )
     2.39732877E-03    2     1000023         5   # BR(~b_1 -> ~chi_20 b )
     2.33311638E-03    2     1000025         5   # BR(~b_1 -> ~chi_30 b )
     2.26560253E-02    2     1000035         5   # BR(~b_1 -> ~chi_40 b )
     1.85564444E-01    2    -1000024         6   # BR(~b_1 -> ~chi_1- t )
     4.55219253E-02    2    -1000037         6   # BR(~b_1 -> ~chi_2- t )
     7.37517254E-01    2     1000021         5   # BR(~b_1 -> ~g      b )
     1.68467741E-03    2     1000006       -24   # BR(~b_1 -> ~t_1    W-)
#
#         PDG            Width
DECAY   2000005     2.54469763E+02   # sbottom2 decays
#          BR         NDA      ID1       ID2
     1.15416104E-02    2     1000022         5   # BR(~b_2 -> ~chi_10 b )
     3.12056354E-03    2     1000023         5   # BR(~b_2 -> ~chi_20 b )
     3.20406253E-03    2     1000025         5   # BR(~b_2 -> ~chi_30 b )
     1.75743453E-04    2     1000035         5   # BR(~b_2 -> ~chi_40 b )
     7.59550239E-03    2    -1000024         6   # BR(~b_2 -> ~chi_1- t )
     3.53067112E-04    2    -1000037         6   # BR(~b_2 -> ~chi_2- t )
     9.73955574E-01    2     1000021         5   # BR(~b_2 -> ~g      b )
     5.38769255E-05    2     1000006       -24   # BR(~b_2 -> ~t_1    W-)
#
#         PDG            Width
DECAY   1000002     2.73623259E+02   # sup_L decays
#          BR         NDA      ID1       ID2
     2.72726140E-03    2     1000022         2   # BR(~u_L -> ~chi_10 u)
     5.70335582E-05    2     1000023         2   # BR(~u_L -> ~chi_20 u)
     4.76682937E-06    2     1000025         2   # BR(~u_L -> ~chi_30 u)
     2.86901253E-02    2     1000035         2   # BR(~u_L -> ~chi_40 u)
     1.95252450E-04    2     1000024         1   # BR(~u_L -> ~chi_1+ d)
     5.73416930E-02    2     1000037         1   # BR(~u_L -> ~chi_2+ d)
     9.10983867E-01    2     1000021         2   # BR(~u_L -> ~g      u)
#
#         PDG            Width
DECAY   2000002     2.59730811E+02   # sup_R decays
#          BR         NDA      ID1       ID2
     4.57221999E-02    2     1000022         2   # BR(~u_R -> ~chi_10 u)
     3.83744356E-05    2     1000023         2   # BR(~u_R -> ~chi_20 u)
     4.56985928E-05    2     1000025         2   # BR(~u_R -> ~chi_30 u)
     2.94867415E-09    2     1000035         2   # BR(~u_R -> ~chi_40 u)
     9.54193724E-01    2     1000021         2   # BR(~u_R -> ~g      u)
#
#         PDG            Width
DECAY   1000001     2.73637042E+02   # sdown_L decays
#          BR         NDA      ID1       ID2
     2.71708519E-03    2     1000022         1   # BR(~d_L -> ~chi_10 d)
     2.05058888E-05    2     1000023         1   # BR(~d_L -> ~chi_20 d)
     3.00665003E-05    2     1000025         1   # BR(~d_L -> ~chi_30 d)
     2.87065774E-02    2     1000035         1   # BR(~d_L -> ~chi_40 d)
     9.76537944E-06    2    -1000024         2   # BR(~d_L -> ~chi_1- u)
     5.74371525E-02    2    -1000037         2   # BR(~d_L -> ~chi_2- u)
     9.11078847E-01    2     1000021         1   # BR(~d_L -> ~g      d)
#
#         PDG            Width
DECAY   2000001     2.50831260E+02   # sdown_R decays
#          BR         NDA      ID1       ID2
     1.18367854E-02    2     1000022         1   # BR(~d_R -> ~chi_10 d)
     9.93464959E-06    2     1000023         1   # BR(~d_R -> ~chi_20 d)
     1.18307805E-05    2     1000025         1   # BR(~d_R -> ~chi_30 d)
     7.63467467E-10    2     1000035         1   # BR(~d_R -> ~chi_40 d)
     9.88141448E-01    2     1000021         1   # BR(~d_R -> ~g      d)
#
#         PDG            Width
DECAY   1000004     2.73623259E+02   # scharm_L decays
#          BR         NDA      ID1       ID2
     2.72726140E-03    2     1000022         4   # BR(~c_L -> ~chi_10 c)
     5.70335582E-05    2     1000023         4   # BR(~c_L -> ~chi_20 c)
     4.76682937E-06    2     1000025         4   # BR(~c_L -> ~chi_30 c)
     2.86901253E-02    2     1000035         4   # BR(~c_L -> ~chi_40 c)
     1.95252450E-04    2     1000024         3   # BR(~c_L -> ~chi_1+ s)
     5.73416930E-02    2     1000037         3   # BR(~c_L -> ~chi_2+ s)
     9.10983867E-01    2     1000021         4   # BR(~c_L -> ~g      c)
#
#         PDG            Width
DECAY   2000004     2.59730811E+02   # scharm_R decays
#          BR         NDA      ID1       ID2
     4.57221999E-02    2     1000022         4   # BR(~c_R -> ~chi_10 c)
     3.83744356E-05    2     1000023         4   # BR(~c_R -> ~chi_20 c)
     4.56985928E-05    2     1000025         4   # BR(~c_R -> ~chi_30 c)
     2.94867415E-09    2     1000035         4   # BR(~c_R -> ~chi_40 c)
     9.54193724E-01    2     1000021         4   # BR(~c_R -> ~g      c)
#
#         PDG            Width
DECAY   1000003     2.73637042E+02   # sstrange_L decays
#          BR         NDA      ID1       ID2
     2.71708519E-03    2     1000022         3   # BR(~s_L -> ~chi_10 s)
     2.05058888E-05    2     1000023         3   # BR(~s_L -> ~chi_20 s)
     3.00665003E-05    2     1000025         3   # BR(~s_L -> ~chi_30 s)
     2.87065774E-02    2     1000035         3   # BR(~s_L -> ~chi_40 s)
     9.76537944E-06    2    -1000024         4   # BR(~s_L -> ~chi_1- c)
     5.74371525E-02    2    -1000037         4   # BR(~s_L -> ~chi_2- c)
     9.11078847E-01    2     1000021         3   # BR(~s_L -> ~g      s)
#
#         PDG            Width
DECAY   2000003     2.50831260E+02   # sstrange_R decays
#          BR         NDA      ID1       ID2
     1.18367854E-02    2     1000022         3   # BR(~s_R -> ~chi_10 s)
     9.93464959E-06    2     1000023         3   # BR(~s_R -> ~chi_20 s)
     1.18307805E-05    2     1000025         3   # BR(~s_R -> ~chi_30 s)
     7.63467467E-10    2     1000035         3   # BR(~s_R -> ~chi_40 s)
     9.88141448E-01    2     1000021         3   # BR(~s_R -> ~g      s)
#
#         PDG            Width
DECAY   1000011     3.02716756E+01   # selectron_L decays
#          BR         NDA      ID1       ID2
     2.26386461E-01    2     1000022        11   # BR(~e_L -> ~chi_10 e-)
     1.02977415E-03    2     1000023        11   # BR(~e_L -> ~chi_20 e-)
     1.14771392E-05    2     1000025        11   # BR(~e_L -> ~chi_30 e-)
     2.57315433E-01    2     1000035        11   # BR(~e_L -> ~chi_40 e-)
     8.99021150E-05    2    -1000024        12   # BR(~e_L -> ~chi_1- nu_e)
     5.15166952E-01    2    -1000037        12   # BR(~e_L -> ~chi_2- nu_e)
#
#         PDG            Width
DECAY   2000011     2.73734141E+01   # selectron_R decays
#          BR         NDA      ID1       ID2
     9.98169894E-01    2     1000022        11   # BR(~e_R -> ~chi_10 e-)
     8.35312283E-04    2     1000023        11   # BR(~e_R -> ~chi_20 e-)
     9.94731153E-04    2     1000025        11   # BR(~e_R -> ~chi_30 e-)
     6.26460601E-08    2     1000035        11   # BR(~e_R -> ~chi_40 e-)
#
#         PDG            Width
DECAY   1000013     3.02716756E+01   # smuon_L decays
#          BR         NDA      ID1       ID2
     2.26386461E-01    2     1000022        13   # BR(~mu_L -> ~chi_10 mu-)
     1.02977415E-03    2     1000023        13   # BR(~mu_L -> ~chi_20 mu-)
     1.14771392E-05    2     1000025        13   # BR(~mu_L -> ~chi_30 mu-)
     2.57315433E-01    2     1000035        13   # BR(~mu_L -> ~chi_40 mu-)
     8.99021150E-05    2    -1000024        14   # BR(~mu_L -> ~chi_1- nu_mu)
     5.15166952E-01    2    -1000037        14   # BR(~mu_L -> ~chi_2- nu_mu)
#
#         PDG            Width
DECAY   2000013     2.73734141E+01   # smuon_R decays
#          BR         NDA      ID1       ID2
     9.98169894E-01    2     1000022        13   # BR(~mu_R -> ~chi_10 mu-)
     8.35312283E-04    2     1000023        13   # BR(~mu_R -> ~chi_20 mu-)
     9.94731153E-04    2     1000025        13   # BR(~mu_R -> ~chi_30 mu-)
     6.26460601E-08    2     1000035        13   # BR(~mu_R -> ~chi_40 mu-)
#
#         PDG            Width
DECAY   1000015     2.91228128E+01   # stau_1 decays
#          BR         NDA      ID1       ID2
     9.29773792E-01    2     1000022        15   # BR(~tau_1 -> ~chi_10  tau-)
     1.56805577E-02    2     1000023        15   # BR(~tau_1 -> ~chi_20  tau-)
     1.49115903E-02    2     1000025        15   # BR(~tau_1 -> ~chi_30  tau-)
     3.35819460E-03    2     1000035        15   # BR(~tau_1 -> ~chi_40  tau-)
     2.95527214E-02    2    -1000024        16   # BR(~tau_1 -> ~chi_1-  nu_tau)
     6.72314420E-03    2    -1000037        16   # BR(~tau_1 -> ~chi_2-  nu_tau)
#
#         PDG            Width
DECAY   2000015     3.10933328E+01   # stau_2 decays
#          BR         NDA      ID1       ID2
     2.28202712E-01    2     1000022        15   # BR(~tau_2 -> ~chi_10  tau-)
     1.47542576E-02    2     1000023        15   # BR(~tau_2 -> ~chi_20  tau-)
     1.45683470E-02    2     1000025        15   # BR(~tau_2 -> ~chi_30  tau-)
     2.47288371E-01    2     1000035        15   # BR(~tau_2 -> ~chi_40  tau-)
     9.39078897E-05    2    -1000024        16   # BR(~tau_2 -> ~chi_1-  nu_tau)
     4.95092405E-01    2    -1000037        16   # BR(~tau_2 -> ~chi_2-  nu_tau)
#
#         PDG            Width
DECAY   1000012     3.02744688E+01   # snu_eL decays
#          BR         NDA      ID1       ID2
     2.26037593E-01    2     1000022        12   # BR(~nu_eL -> ~chi_10 nu_e)
     2.08293756E-05    2     1000023        12   # BR(~nu_eL -> ~chi_20 nu_e)
     7.09983650E-04    2     1000025        12   # BR(~nu_eL -> ~chi_30 nu_e)
     2.57368689E-01    2     1000035        12   # BR(~nu_eL -> ~chi_40 nu_e)
     1.79707878E-03    2     1000024        11   # BR(~nu_eL -> ~chi_1+ e-)
     5.14065826E-01    2     1000037        11   # BR(~nu_eL -> ~chi_2+ e-)
#
#         PDG            Width
DECAY   1000014     3.02744688E+01   # snu_muL decays
#          BR         NDA      ID1       ID2
     2.26037593E-01    2     1000022        14   # BR(~nu_muL -> ~chi_10 nu_mu)
     2.08293756E-05    2     1000023        14   # BR(~nu_muL -> ~chi_20 nu_mu)
     7.09983650E-04    2     1000025        14   # BR(~nu_muL -> ~chi_30 nu_mu)
     2.57368689E-01    2     1000035        14   # BR(~nu_muL -> ~chi_40 nu_mu)
     1.79707878E-03    2     1000024        13   # BR(~nu_muL -> ~chi_1+ mu-)
     5.14065826E-01    2     1000037        13   # BR(~nu_muL -> ~chi_2+ mu-)
#
#         PDG            Width
DECAY   1000016     3.11285719E+01   # snu_tauL decays
#          BR         NDA      ID1       ID2
     2.19811654E-01    2     1000022        16   # BR(~nu_tauL -> ~chi_10 nu_tau)
     2.02552918E-05    2     1000023        16   # BR(~nu_tauL -> ~chi_20 nu_tau)
     6.90415549E-04    2     1000025        16   # BR(~nu_tauL -> ~chi_30 nu_tau)
     2.50214321E-01    2     1000035        16   # BR(~nu_tauL -> ~chi_40 nu_tau)
     2.94879892E-02    2     1000024        15   # BR(~nu_tauL -> ~chi_1+ tau-)
     4.99775365E-01    2     1000037        15   # BR(~nu_tauL -> ~chi_2+ tau-)
#
#         PDG            Width
DECAY   1000024     6.08996177E-01   # chargino1+ decays
#          BR         NDA      ID1       ID2
     1.00000000E+00    2     1000022        24   # BR(~chi_1+ -> ~chi_10  W+)
#
#         PDG            Width
DECAY   1000037     2.04143985E+01   # chargino2+ decays
#          BR         NDA      ID1       ID2
     2.53196438E-01    2     1000024        23   # BR(~chi_2+ -> ~chi_1+  Z )
     1.97855785E-04    2     1000022        24   # BR(~chi_2+ -> ~chi_10  W+)
     2.44155659E-01    2     1000023        24   # BR(~chi_2+ -> ~chi_20  W+)
     2.44106692E-01    2     1000025        24   # BR(~chi_2+ -> ~chi_30  W+)
     2.58342185E-01    2     1000024        25   # BR(~chi_2+ -> ~chi_1+  h )
     1.17065968E-06    2     1000022        37   # BR(~chi_2+ -> ~chi_10  H+)
#
#         PDG            Width
DECAY   1000022     0.00000000E+00   # neutralino1 decays
#
#         PDG            Width
DECAY   1000023     6.36054026E-01   # neutralino2 decays
#          BR         NDA      ID1       ID2
     5.40218116E-01    2     1000022        23   # BR(~chi_20 -> ~chi_10   Z )
     4.59781884E-01    2     1000022        25   # BR(~chi_20 -> ~chi_10   h )
#
#         PDG            Width
DECAY   1000025     6.39096736E-01   # neutralino3 decays
#          BR         NDA      ID1       ID2
     4.50302395E-01    2     1000022        23   # BR(~chi_30 -> ~chi_10   Z )
     5.49697605E-01    2     1000022        25   # BR(~chi_30 -> ~chi_10   h )
#
#         PDG            Width
DECAY   1000035     2.04294144E+01   # neutralino4 decays
#          BR         NDA      ID1       ID2
     4.77428084E-05    2     1000022        23   # BR(~chi_40 -> ~chi_10   Z )
     7.27265828E-02    2     1000023        23   # BR(~chi_40 -> ~chi_20   Z )
     1.79755834E-01    2     1000025        23   # BR(~chi_40 -> ~chi_30   Z )
     2.44786167E-01    2     1000024       -24   # BR(~chi_40 -> ~chi_1+   W-)
     2.44786167E-01    2    -1000024        24   # BR(~chi_40 -> ~chi_1-   W+)
     1.51066039E-04    2     1000022        25   # BR(~chi_40 -> ~chi_10   h )
     1.09477758E-06    2     1000022        35   # BR(~chi_40 -> ~chi_10   H )
     1.34416510E-07    2     1000022        36   # BR(~chi_40 -> ~chi_10   A )
     1.84823882E-01    2     1000023        25   # BR(~chi_40 -> ~chi_20   h )
     7.29213304E-02    2     1000025        25   # BR(~chi_40 -> ~chi_30   h )
#
#         PDG            Width
DECAY        25     4.05640041E-03   # h decays
#          BR         NDA      ID1       ID2
     6.08846971E-01    2           5        -5   # BR(h -> b       bb     )
     6.39269341E-02    2         -15        15   # BR(h -> tau+    tau-   )
     2.26324714E-04    2         -13        13   # BR(h -> mu+     mu-    )
     4.79816138E-04    2           3        -3   # BR(h -> s       sb     )
     2.07913212E-02    2           4        -4   # BR(h -> c       cb     )
     6.72224035E-02    2          21        21   # BR(h -> g       g      )
     2.31055521E-03    2          22        22   # BR(h -> gam     gam    )
     1.48746471E-03    2          22        23   # BR(h -> Z       gam    )
     2.09678479E-01    2          24       -24   # BR(h -> W+      W-     )
     2.49734547E-02    2          23        23   # BR(h -> Z       Z      )
     5.62757460E-05    2     1000022   1000022   # BR(h -> ~chi_10 ~chi_10)
#
#         PDG            Width
DECAY        35     8.10278165E+00   # H decays
#          BR         NDA      ID1       ID2
     3.98473190E-01    2           5        -5   # BR(H -> b       bb     )
     6.87587792E-02    2         -15        15   # BR(H -> tau+    tau-   )
     2.43136505E-04    2         -13        13   # BR(H -> mu+     mu-    )
     2.98048099E-04    2           3        -3   # BR(H -> s       sb     )
     1.66703201E-06    2           4        -4   # BR(H -> c       cb     )
     1.66549701E-01    2           6        -6   # BR(H -> t       tb     )
     5.53397372E-05    2          21        21   # BR(H -> g       g      )
     2.68895326E-07    2          22        22   # BR(H -> gam     gam    )
     9.83282331E-08    2          23        22   # BR(H -> Z       gam    )
     7.66966756E-05    2          24       -24   # BR(H -> W+      W-     )
     3.82997975E-05    2          23        23   # BR(H -> Z       Z      )
     2.84627185E-04    2          25        25   # BR(H -> h       h      )
    -5.04637739E-23    2          36        36   # BR(H -> A       A      )
     1.17251333E-18    2          23        36   # BR(H -> Z       A      )
     1.97480699E-03    2     1000024  -1000024   # BR(H -> ~chi_1+ ~chi_1-)
     1.78204711E-03    2     1000022   1000022   # BR(H -> ~chi_10 ~chi_10)
     3.94798439E-05    2     1000023   1000023   # BR(H -> ~chi_20 ~chi_20)
     5.44102965E-04    2     1000025   1000025   # BR(H -> ~chi_30 ~chi_30)
     2.16441053E-01    2     1000022   1000023   # BR(H -> ~chi_10 ~chi_20)
     1.43926088E-01    2     1000022   1000025   # BR(H -> ~chi_10 ~chi_30)
     5.12570208E-04    2     1000023   1000025   # BR(H -> ~chi_20 ~chi_30)
#
#         PDG            Width
DECAY        36     8.11909358E+00   # A decays
#          BR         NDA      ID1       ID2
     3.97807245E-01    2           5        -5   # BR(A -> b       bb     )
     6.86226912E-02    2         -15        15   # BR(A -> tau+    tau-   )
     2.42654948E-04    2         -13        13   # BR(A -> mu+     mu-    )
     2.97675168E-04    2           3        -3   # BR(A -> s       sb     )
     1.67049687E-06    2           4        -4   # BR(A -> c       cb     )
     1.66803784E-01    2           6        -6   # BR(A -> t       tb     )
     1.65071076E-04    2          21        21   # BR(A -> g       g      )
     5.74662339E-07    2          22        22   # BR(A -> gam     gam    )
     1.99904431E-07    2          23        22   # BR(A -> Z       gam    )
     7.62533949E-05    2          23        25   # BR(A -> Z       h      )
     3.22742238E-03    2     1000024  -1000024   # BR(A -> ~chi_1+ ~chi_1-)
     1.81487719E-03    2     1000022   1000022   # BR(A -> ~chi_10 ~chi_10)
     4.63702159E-05    2     1000023   1000023   # BR(A -> ~chi_20 ~chi_20)
     1.49993841E-03    2     1000025   1000025   # BR(A -> ~chi_30 ~chi_30)
     1.45696237E-01    2     1000022   1000023   # BR(A -> ~chi_10 ~chi_20)
     2.13551064E-01    2     1000022   1000025   # BR(A -> ~chi_10 ~chi_30)
     1.46271003E-04    2     1000023   1000025   # BR(A -> ~chi_20 ~chi_30)
#
#         PDG            Width
DECAY        37     8.07856418E+00   # H+ decays
#          BR         NDA      ID1       ID2
     6.40178148E-04    2           4        -5   # BR(H+ -> c       bb     )
     6.89929300E-02    2         -15        16   # BR(H+ -> tau+    nu_tau )
     2.43964139E-04    2         -13        14   # BR(H+ -> mu+     nu_mu  )
     4.09711893E-06    2           2        -5   # BR(H+ -> u       bb     )
     1.43151500E-05    2           2        -3   # BR(H+ -> u       sb     )
     2.96038034E-04    2           4        -3   # BR(H+ -> c       sb     )
     5.64261853E-01    2           6        -5   # BR(H+ -> t       bb     )
     7.67718652E-05    2          24        25   # BR(H+ -> W+      h      )
     2.98999425E-13    2          24        36   # BR(H+ -> W+      A      )
     3.64561896E-01    2     1000024   1000022   # BR(H+ -> ~chi_1+ ~chi_10)
     8.75167117E-04    2     1000024   1000023   # BR(H+ -> ~chi_1+ ~chi_20)
     3.27889612E-05    2     1000024   1000025   # BR(H+ -> ~chi_1+ ~chi_30)
