#
#                              ======================
#                              | THE SUSYHIT OUTPUT |
#                              ======================
#
#
#              ------------------------------------------------------
#              |     This is the output of the SUSY-HIT package     |
#              |  created by A.Djouadi, M.Muehlleitner and M.Spira. |
#              |  In case of problems with SUSY-HIT email to        |
#              |           margarete.muehlleitner@cern.ch           |
#              |           michael.spira@psi.ch                     |
#              |           abdelhak.djouadi@cern.ch                 |
#              ------------------------------------------------------
#
#              ------------------------------------------------------
#              |  SUSY Les Houches Accord - MSSM Spectrum + Decays  |
#              |              based on the decay programs           |
#              |                                                    |
#              |                     SDECAY 1.3b                    |
#              |                                                    |
#              |  Authors: M.Muhlleitner, A.Djouadi and Y.Mambrini  |
#              |  Ref.:    Comput.Phys.Commun.168(2005)46           |
#              |           [hep-ph/0311167]                         |
#              |                                                    |
#              |                     HDECAY 3.4                     |
#              |                                                    |
#              |  By: A.Djouadi,J.Kalinowski,M.Muhlleitner,M.Spira  |
#              |  Ref.:    Comput.Phys.Commun.108(1998)56           |
#              |           [hep-ph/9704448]                         |
#              |                                                    |
#              |                                                    |
#              |  If not stated otherwise all DRbar couplings and   |
#              |  soft SUSY breaking masses are given at the scale  |
#              |  Q=  0.50007608E+04
#              |                                                    |
#              ------------------------------------------------------
#
#
BLOCK DCINFO  # Decay Program information
     1   SDECAY/HDECAY # decay calculator
     2   1.3b  /3.4    # version number
#
BLOCK SPINFO  # Spectrum calculator information
     1    SOFTSUSY    # spectrum calculator                
     2    3.4.0       # version number                     
#
BLOCK MODSEL  # Model selection
     1     0   #  nonUniversal                                     
#
BLOCK SMINPUTS  # Standard Model inputs
         1     1.25778332E+02   # alpha_em^-1(M_Z)^MSbar
         2     1.16570000E-05   # G_F [GeV^-2]
         3     1.17200002E-01   # alpha_S(M_Z)^MSbar
         4     9.11876000E+01   # M_Z pole mass
         5     4.25000000E+00   # mb(mb)^MSbar
         6     1.72500000E+02   # mt pole mass
         7     1.77682000E+00   # mtau pole mass
#
BLOCK MINPAR  # Input parameters - minimal models
         3     1.00000000E+01   # tanb                
#
BLOCK EXTPAR  # Input parameters - non-minimal models
         0    -1.00000000E+00   # Set                 
         1     6.00000000E+01   # M_1(MX)             
         2     3.00000000E+03   # M_2(MX)             
         3     1.76109000E+03   # M_3(MX)             
        11     5.00000000E+03   # At(MX)              
        12     5.00000000E+03   # Ab(MX)              
        13     0.00000000E+00   # Atau(MX)            
        23    -4.74897000E+02   # mu(MX)              
        26     3.00000000E+03   # mA(pole)            
        31     5.00000000E+03   # meL(MX)             
        32     5.00000000E+03   # mmuL(MX)            
        33     5.00000000E+03   # mtauL(MX)           
        34     5.00000000E+03   # meR(MX)             
        35     5.00000000E+03   # mmuR(MX)            
        36     5.00000000E+03   # mtauR(MX)           
        41     5.00000000E+03   # mqL1(MX)            
        42     5.00000000E+03   # mqL2(MX)            
        43     5.00000000E+03   # mqL3(MX)            
        44     5.00000000E+03   # muR(MX)             
        45     5.00000000E+03   # mcR(MX)             
        46     5.00000000E+03   # mtR(MX)             
        47     5.00000000E+03   # mdR(MX)             
        48     5.00000000E+03   # msR(MX)             
        49     5.00000000E+03   # mbR(MX)             
#
BLOCK MASS  # Mass Spectrum
# PDG code           mass       particle
        24     8.00930475E+01   # W+
        25     1.24767285E+02   # h
        35     3.00008583E+03   # H
        36     2.99999945E+03   # A
        37     3.00142995E+03   # H+
         5     4.87878001E+00   # b-quark pole mass calculated from mb(mb)_Msbar
   1000001     5.07332671E+03   # ~d_L
   2000001     5.05548876E+03   # ~d_R
   1000002     5.07285273E+03   # ~u_L
   2000002     5.05518866E+03   # ~u_R
   1000003     5.07332671E+03   # ~s_L
   2000003     5.05548876E+03   # ~s_R
   1000004     5.07285273E+03   # ~c_L
   2000004     5.05518866E+03   # ~c_R
   1000005     5.01916411E+03   # ~b_1
   2000005     5.05371957E+03   # ~b_2
   1000006     4.91034174E+03   # ~t_1
   2000006     5.06296002E+03   # ~t_2
   1000011     5.01910866E+03   # ~e_L
   2000011     5.00594384E+03   # ~e_R
   1000012     5.01815847E+03   # ~nu_eL
   1000013     5.01910866E+03   # ~mu_L
   2000013     5.00594384E+03   # ~mu_R
   1000014     5.01815847E+03   # ~nu_muL
   1000015     5.00477447E+03   # ~tau_1
   2000015     5.01863293E+03   # ~tau_2
   1000016     5.01760680E+03   # ~nu_tauL
   1000021     2.10000098E+03   # ~g
   1000022     6.02023261E+01   # ~chi_10
   1000023     5.00512960E+02   # ~chi_20
   1000025    -5.02707837E+02   # ~chi_30
   1000035     3.07417995E+03   # ~chi_40
   1000024     5.00000788E+02   # ~chi_1+
   1000037     3.07434766E+03   # ~chi_2+
#
BLOCK NMIX  # Neutralino Mixing Matrix
  1  1     9.96029241E-01   # N_11
  1  2     2.24950530E-04   # N_12
  1  3    -8.90133898E-02   # N_13
  1  4    -1.52204572E-03   # N_14
  2  1     6.40540873E-02   # N_21
  2  2     1.90068639E-02   # N_22
  2  3     7.04713523E-01   # N_23
  2  4     7.06338916E-01   # N_24
  3  1    -6.18277674E-02   # N_31
  3  2     1.70143631E-02   # N_32
  3  3    -7.03884586E-01   # N_33
  3  4     7.07413831E-01   # N_34
  4  1    -3.89691366E-04   # N_41
  4  2     9.99674547E-01   # N_42
  4  3    -1.39867766E-03   # N_43
  4  4    -2.54694301E-02   # N_44
#
BLOCK UMIX  # Chargino Mixing Matrix U
  1  1     1.98327971E-03   # U_11
  1  2     9.99998033E-01   # U_12
  2  1    -9.99998033E-01   # U_21
  2  2     1.98327971E-03   # U_22
#
BLOCK VMIX  # Chargino Mixing Matrix V
  1  1     3.60394856E-02   # V_11
  1  2    -9.99350367E-01   # V_12
  2  1    -9.99350367E-01   # V_21
  2  2    -3.60394856E-02   # V_22
#
BLOCK STOPMIX  # Stop Mixing Matrix
  1  1    -5.03464129E-01   # cos(theta_t)
  1  2     8.64016129E-01   # sin(theta_t)
  2  1    -8.64016129E-01   # -sin(theta_t)
  2  2    -5.03464129E-01   # cos(theta_t)
#
BLOCK SBOTMIX  # Sbottom Mixing Matrix
  1  1     9.98760651E-01   # cos(theta_b)
  1  2    -4.97710962E-02   # sin(theta_b)
  2  1     4.97710962E-02   # -sin(theta_b)
  2  2     9.98760651E-01   # cos(theta_b)
#
BLOCK STAUMIX  # Stau Mixing Matrix
  1  1    -5.69173828E-02   # cos(theta_tau)
  1  2     9.98378892E-01   # sin(theta_tau)
  2  1    -9.98378892E-01   # -sin(theta_tau)
  2  2    -5.69173828E-02   # cos(theta_tau)
#
BLOCK ALPHA  # Higgs mixing
          -1.05487045E-01   # Mixing angle in the neutral Higgs boson sector
#
BLOCK HMIX Q=  5.00076079E+03  # DRbar Higgs Parameters
         1    -4.83582742E+02   # mu(Q)MSSM           
         2     9.46910580E+00   # tan                 
         3     2.41748370E+02   # higgs               
         4     8.67796857E+06   # mA^2(Q)MSSM         
#
BLOCK GAUGE Q=  5.00076079E+03  # The gauge couplings
     1     3.70954023E-01   # gprime(Q) DRbar
     2     6.33325094E-01   # g(Q) DRbar
     3     9.97790289E-01   # g3(Q) DRbar
#
BLOCK AU Q=  5.00076079E+03  # The trilinear couplings
  1  1     5.00000001E+03   # A_u(Q) DRbar
  2  2     5.00000001E+03   # A_c(Q) DRbar
  3  3     5.00000002E+03   # A_t(Q) DRbar
#
BLOCK AD Q=  5.00076079E+03  # The trilinear couplings
  1  1     5.00000001E+03   # A_d(Q) DRbar
  2  2     5.00000001E+03   # A_s(Q) DRbar
  3  3     5.00000001E+03   # A_b(Q) DRbar
#
BLOCK AE Q=  5.00076079E+03  # The trilinear couplings
  1  1     0.00000000E+00   # A_e(Q) DRbar
  2  2     1.87520994E-07   # A_mu(Q) DRbar
  3  3     1.87211969E-07   # A_tau(Q) DRbar
#
BLOCK Yu Q=  5.00076079E+03  # The Yukawa couplings
  1  1     0.00000000E+00   # y_u(Q) DRbar
  2  2     0.00000000E+00   # y_c(Q) DRbar
  3  3     8.20495768E-01   # y_t(Q) DRbar
#
BLOCK Yd Q=  5.00076079E+03  # The Yukawa couplings
  1  1     0.00000000E+00   # y_d(Q) DRbar
  2  2     0.00000000E+00   # y_s(Q) DRbar
  3  3     1.30115852E-01   # y_b(Q) DRbar
#
BLOCK Ye Q=  5.00076079E+03  # The Yukawa couplings
  1  1     0.00000000E+00   # y_e(Q) DRbar
  2  2     0.00000000E+00   # y_mu(Q) DRbar
  3  3     9.71395799E-02   # y_tau(Q) DRbar
#
BLOCK MSOFT Q=  5.00076079E+03  # The soft SUSY breaking masses at the scale Q
         1     6.00000000E+01   # M_1(Q)              
         2     3.00000000E+03   # M_2(Q)              
         3     1.76109000E+03   # M_3(Q)              
        21     8.49009858E+06   # mH1^2(Q)            
        22     3.42396171E+05   # mH2^2(Q)            
        31     5.00000000E+03   # meL(Q)              
        32     5.00000000E+03   # mmuL(Q)             
        33     5.00000000E+03   # mtauL(Q)            
        34     5.00000000E+03   # meR(Q)              
        35     5.00000000E+03   # mmuR(Q)             
        36     5.00000000E+03   # mtauR(Q)            
        41     5.00000000E+03   # mqL1(Q)             
        42     5.00000000E+03   # mqL2(Q)             
        43     4.99999999E+03   # mqL3(Q)             
        44     5.00000000E+03   # muR(Q)              
        45     5.00000000E+03   # mcR(Q)              
        46     4.99999999E+03   # mtR(Q)              
        47     5.00000000E+03   # mdR(Q)              
        48     5.00000000E+03   # msR(Q)              
        49     5.00000000E+03   # mbR(Q)              
#
#
#
#                             =================
#                             |The decay table|
#                             =================
#
# - The QCD corrections to the decays gluino -> squark  + quark
#                                     squark -> gaugino + quark_prime
#                                     squark -> squark_prime + Higgs
#                                     squark -> gluino  + quark
#   are included.
#
# - The multi-body decays for the inos, stops and sbottoms are included.
#
# - The loop induced decays for the gluino, neutralinos and stops
#   are included.
#
# - The SUSY decays of the top quark are included.
#
#
#         PDG            Width
DECAY         6     1.40567841E+00   # top decays
#          BR         NDA      ID1       ID2
     1.00000000E+00    2           5        24   # BR(t ->  b    W+)
#
#         PDG            Width
DECAY   1000021     2.45835534E-03   # gluino decays
#          BR         NDA      ID1       ID2
     4.08662238E-07    2     1000022        21   # BR(~g -> ~chi_10 g)
     6.47244740E-03    2     1000023        21   # BR(~g -> ~chi_20 g)
     6.29746997E-03    2     1000025        21   # BR(~g -> ~chi_30 g)
#           BR         NDA      ID1       ID2       ID3
     1.21834698E-02    3     1000022         1        -1   # BR(~g -> ~chi_10 d  db)
     3.63410039E-05    3     1000023         1        -1   # BR(~g -> ~chi_20 d  db)
     4.00624859E-05    3     1000025         1        -1   # BR(~g -> ~chi_30 d  db)
     4.15476626E-02    3     1000022         2        -2   # BR(~g -> ~chi_10 u  ub)
     1.89621590E-04    3     1000023         2        -2   # BR(~g -> ~chi_20 u  ub)
     6.66683450E-05    3     1000025         2        -2   # BR(~g -> ~chi_30 u  ub)
     1.21834698E-02    3     1000022         3        -3   # BR(~g -> ~chi_10 s  sb)
     3.63410039E-05    3     1000023         3        -3   # BR(~g -> ~chi_20 s  sb)
     4.00624859E-05    3     1000025         3        -3   # BR(~g -> ~chi_30 s  sb)
     4.15476626E-02    3     1000022         4        -4   # BR(~g -> ~chi_10 c  cb)
     1.89621590E-04    3     1000023         4        -4   # BR(~g -> ~chi_20 c  cb)
     6.66683450E-05    3     1000025         4        -4   # BR(~g -> ~chi_30 c  cb)
     1.24678943E-02    3     1000022         5        -5   # BR(~g -> ~chi_10 b  bb)
     5.32544222E-03    3     1000023         5        -5   # BR(~g -> ~chi_20 b  bb)
     5.29283846E-03    3     1000025         5        -5   # BR(~g -> ~chi_30 b  bb)
     4.06155275E-02    3     1000022         6        -6   # BR(~g -> ~chi_10 t  tb)
     2.02999015E-01    3     1000023         6        -6   # BR(~g -> ~chi_20 t  tb)
     1.88102285E-01    3     1000025         6        -6   # BR(~g -> ~chi_30 t  tb)
     5.50714345E-05    3     1000024         1        -2   # BR(~g -> ~chi_1+ d  ub)
     5.50714345E-05    3    -1000024         2        -1   # BR(~g -> ~chi_1- u  db)
     5.50714345E-05    3     1000024         3        -4   # BR(~g -> ~chi_1+ s  cb)
     5.50714345E-05    3    -1000024         4        -3   # BR(~g -> ~chi_1- c  sb)
     2.12039367E-01    3     1000024         5        -6   # BR(~g -> ~chi_1+ b  tb)
     2.12039367E-01    3    -1000024         6        -5   # BR(~g -> ~chi_1- t  bb)
#
#         PDG            Width
DECAY   1000006     3.39734563E+02   # stop1 decays
#          BR         NDA      ID1       ID2
     2.58603554E-02    2     1000022         6   # BR(~t_1 -> ~chi_10 t )
     9.66240316E-02    2     1000023         6   # BR(~t_1 -> ~chi_20 t )
     9.13970010E-02    2     1000025         6   # BR(~t_1 -> ~chi_30 t )
     5.97128500E-03    2     1000035         6   # BR(~t_1 -> ~chi_40 t )
     1.40329945E-01    2     1000024         5   # BR(~t_1 -> ~chi_1+ b )
     1.19035224E-02    2     1000037         5   # BR(~t_1 -> ~chi_2+ b )
     6.27913860E-01    2     1000021         6   # BR(~t_1 -> ~g      t )
#
#         PDG            Width
DECAY   2000006     3.44880550E+02   # stop2 decays
#          BR         NDA      ID1       ID2
     1.00977435E-02    2     1000022         6   # BR(~t_2 -> ~chi_10 t )
     9.50698836E-02    2     1000023         6   # BR(~t_2 -> ~chi_20 t )
     1.00849221E-01    2     1000025         6   # BR(~t_2 -> ~chi_30 t )
     1.63058483E-02    2     1000035         6   # BR(~t_2 -> ~chi_40 t )
     5.58730661E-02    2     1000024         5   # BR(~t_2 -> ~chi_1+ b )
     3.24674273E-02    2     1000037         5   # BR(~t_2 -> ~chi_2+ b )
     6.85822230E-01    2     1000021         6   # BR(~t_2 -> ~g      t )
     8.13846018E-04    2     1000006        25   # BR(~t_2 -> ~t_1    h )
     2.70073470E-03    2     1000006        23   # BR(~t_2 -> ~t_1    Z )
#
#         PDG            Width
DECAY   1000005     3.19742864E+02   # sbottom1 decays
#          BR         NDA      ID1       ID2
     2.43164059E-03    2     1000022         5   # BR(~b_1 -> ~chi_10 b )
     2.56748453E-03    2     1000023         5   # BR(~b_1 -> ~chi_20 b )
     2.56794956E-03    2     1000025         5   # BR(~b_1 -> ~chi_30 b )
     2.37492991E-02    2     1000035         5   # BR(~b_1 -> ~chi_40 b )
     2.06201587E-01    2    -1000024         6   # BR(~b_1 -> ~chi_1- t )
     4.76830942E-02    2    -1000037         6   # BR(~b_1 -> ~chi_2- t )
     7.13076199E-01    2     1000021         5   # BR(~b_1 -> ~g      b )
     1.72274621E-03    2     1000006       -24   # BR(~b_1 -> ~t_1    W-)
#
#         PDG            Width
DECAY   2000005     2.37177565E+02   # sbottom2 decays
#          BR         NDA      ID1       ID2
     1.23595718E-02    2     1000022         5   # BR(~b_2 -> ~chi_10 b )
     3.59261344E-03    2     1000023         5   # BR(~b_2 -> ~chi_20 b )
     3.63567023E-03    2     1000025         5   # BR(~b_2 -> ~chi_30 b )
     7.45487521E-05    2     1000035         5   # BR(~b_2 -> ~chi_40 b )
     7.69286942E-03    2    -1000024         6   # BR(~b_2 -> ~chi_1- t )
     1.49690022E-04    2    -1000037         6   # BR(~b_2 -> ~chi_2- t )
     9.72471044E-01    2     1000021         5   # BR(~b_2 -> ~g      b )
     2.39921357E-05    2     1000006       -24   # BR(~b_2 -> ~t_1    W-)
#
#         PDG            Width
DECAY   1000002     2.56604584E+02   # sup_L decays
#          BR         NDA      ID1       ID2
     2.89290285E-03    2     1000022         2   # BR(~u_L -> ~chi_10 u)
     7.44153606E-05    2     1000023         2   # BR(~u_L -> ~chi_20 u)
     1.83061615E-06    2     1000025         2   # BR(~u_L -> ~chi_30 u)
     3.07256558E-02    2     1000035         2   # BR(~u_L -> ~chi_40 u)
     1.94666234E-04    2     1000024         1   # BR(~u_L -> ~chi_1+ d)
     6.14130898E-02    2     1000037         1   # BR(~u_L -> ~chi_2+ d)
     9.04697439E-01    2     1000021         2   # BR(~u_L -> ~g      u)
#
#         PDG            Width
DECAY   2000002     2.42572420E+02   # sup_R decays
#          BR         NDA      ID1       ID2
     4.86785224E-02    2     1000022         2   # BR(~u_R -> ~chi_10 u)
     1.97640827E-04    2     1000023         2   # BR(~u_R -> ~chi_20 u)
     1.84109520E-04    2     1000025         2   # BR(~u_R -> ~chi_30 u)
     2.97818232E-09    2     1000035         2   # BR(~u_R -> ~chi_40 u)
     9.50939724E-01    2     1000021         2   # BR(~u_R -> ~g      u)
#
#         PDG            Width
DECAY   1000001     2.56618718E+02   # sdown_L decays
#          BR         NDA      ID1       ID2
     2.87966224E-03    2     1000022         1   # BR(~d_L -> ~chi_10 d)
     3.16697826E-06    2     1000023         1   # BR(~d_L -> ~chi_20 d)
     6.33856680E-05    2     1000025         1   # BR(~d_L -> ~chi_30 d)
     3.07428119E-02    2     1000035         1   # BR(~d_L -> ~chi_40 d)
     5.89549224E-07    2    -1000024         2   # BR(~d_L -> ~chi_1- u)
     6.15083271E-02    2    -1000037         2   # BR(~d_L -> ~chi_2- u)
     9.04802057E-01    2     1000021         1   # BR(~d_L -> ~g      d)
#
#         PDG            Width
DECAY   2000001     2.33672214E+02   # sdown_R decays
#          BR         NDA      ID1       ID2
     1.26339127E-02    2     1000022         1   # BR(~d_R -> ~chi_10 d)
     5.12953613E-05    2     1000023         1   # BR(~d_R -> ~chi_20 d)
     4.77834702E-05    2     1000025         1   # BR(~d_R -> ~chi_30 d)
     7.73057006E-10    2     1000035         1   # BR(~d_R -> ~chi_40 d)
     9.87267008E-01    2     1000021         1   # BR(~d_R -> ~g      d)
#
#         PDG            Width
DECAY   1000004     2.56604584E+02   # scharm_L decays
#          BR         NDA      ID1       ID2
     2.89290285E-03    2     1000022         4   # BR(~c_L -> ~chi_10 c)
     7.44153606E-05    2     1000023         4   # BR(~c_L -> ~chi_20 c)
     1.83061615E-06    2     1000025         4   # BR(~c_L -> ~chi_30 c)
     3.07256558E-02    2     1000035         4   # BR(~c_L -> ~chi_40 c)
     1.94666234E-04    2     1000024         3   # BR(~c_L -> ~chi_1+ s)
     6.14130898E-02    2     1000037         3   # BR(~c_L -> ~chi_2+ s)
     9.04697439E-01    2     1000021         4   # BR(~c_L -> ~g      c)
#
#         PDG            Width
DECAY   2000004     2.42572420E+02   # scharm_R decays
#          BR         NDA      ID1       ID2
     4.86785224E-02    2     1000022         4   # BR(~c_R -> ~chi_10 c)
     1.97640827E-04    2     1000023         4   # BR(~c_R -> ~chi_20 c)
     1.84109520E-04    2     1000025         4   # BR(~c_R -> ~chi_30 c)
     2.97818232E-09    2     1000035         4   # BR(~c_R -> ~chi_40 c)
     9.50939724E-01    2     1000021         4   # BR(~c_R -> ~g      c)
#
#         PDG            Width
DECAY   1000003     2.56618718E+02   # sstrange_L decays
#          BR         NDA      ID1       ID2
     2.87966224E-03    2     1000022         3   # BR(~s_L -> ~chi_10 s)
     3.16697826E-06    2     1000023         3   # BR(~s_L -> ~chi_20 s)
     6.33856680E-05    2     1000025         3   # BR(~s_L -> ~chi_30 s)
     3.07428119E-02    2     1000035         3   # BR(~s_L -> ~chi_40 s)
     5.89549224E-07    2    -1000024         4   # BR(~s_L -> ~chi_1- c)
     6.15083271E-02    2    -1000037         4   # BR(~s_L -> ~chi_2- c)
     9.04802057E-01    2     1000021         3   # BR(~s_L -> ~g      s)
#
#         PDG            Width
DECAY   2000003     2.33672214E+02   # sstrange_R decays
#          BR         NDA      ID1       ID2
     1.26339127E-02    2     1000022         3   # BR(~s_R -> ~chi_10 s)
     5.12953613E-05    2     1000023         3   # BR(~s_R -> ~chi_20 s)
     4.77834702E-05    2     1000025         3   # BR(~s_R -> ~chi_30 s)
     7.73057006E-10    2     1000035         3   # BR(~s_R -> ~chi_40 s)
     9.87267008E-01    2     1000021         3   # BR(~s_R -> ~g      s)
#
#         PDG            Width
DECAY   1000011     3.03342611E+01   # selectron_L decays
#          BR         NDA      ID1       ID2
     2.24795468E-01    2     1000022        11   # BR(~e_L -> ~chi_10 e-)
     2.06750087E-03    2     1000023        11   # BR(~e_L -> ~chi_20 e-)
     2.38493735E-04    2     1000025        11   # BR(~e_L -> ~chi_30 e-)
     2.57464100E-01    2     1000035        11   # BR(~e_L -> ~chi_40 e-)
     5.09074906E-06    2    -1000024        12   # BR(~e_L -> ~chi_1- nu_e)
     5.15429346E-01    2    -1000037        12   # BR(~e_L -> ~chi_2- nu_e)
#
#         PDG            Width
DECAY   2000011     2.73963571E+01   # selectron_R decays
#          BR         NDA      ID1       ID2
     9.92229215E-01    2     1000022        11   # BR(~e_R -> ~chi_10 e-)
     4.02309607E-03    2     1000023        11   # BR(~e_R -> ~chi_20 e-)
     3.74763030E-03    2     1000025        11   # BR(~e_R -> ~chi_30 e-)
     5.89434099E-08    2     1000035        11   # BR(~e_R -> ~chi_40 e-)
#
#         PDG            Width
DECAY   1000013     3.03342611E+01   # smuon_L decays
#          BR         NDA      ID1       ID2
     2.24795468E-01    2     1000022        13   # BR(~mu_L -> ~chi_10 mu-)
     2.06750087E-03    2     1000023        13   # BR(~mu_L -> ~chi_20 mu-)
     2.38493735E-04    2     1000025        13   # BR(~mu_L -> ~chi_30 mu-)
     2.57464100E-01    2     1000035        13   # BR(~mu_L -> ~chi_40 mu-)
     5.09074906E-06    2    -1000024        14   # BR(~mu_L -> ~chi_1- nu_mu)
     5.15429346E-01    2    -1000037        14   # BR(~mu_L -> ~chi_2- nu_mu)
#
#         PDG            Width
DECAY   2000013     2.73963571E+01   # smuon_R decays
#          BR         NDA      ID1       ID2
     9.92229215E-01    2     1000022        13   # BR(~mu_R -> ~chi_10 mu-)
     4.02309607E-03    2     1000023        13   # BR(~mu_R -> ~chi_20 mu-)
     3.74763030E-03    2     1000025        13   # BR(~mu_R -> ~chi_30 mu-)
     5.89434099E-08    2     1000035        13   # BR(~mu_R -> ~chi_40 mu-)
#
#         PDG            Width
DECAY   1000015     2.92391678E+01   # stau_1 decays
#          BR         NDA      ID1       ID2
     9.28346285E-01    2     1000022        15   # BR(~tau_1 -> ~chi_10  tau-)
     1.91870850E-02    2     1000023        15   # BR(~tau_1 -> ~chi_20  tau-)
     1.84832815E-02    2     1000025        15   # BR(~tau_1 -> ~chi_30  tau-)
     8.47870302E-04    2     1000035        15   # BR(~tau_1 -> ~chi_40  tau-)
     3.14382464E-02    2    -1000024        16   # BR(~tau_1 -> ~chi_1-  nu_tau)
     1.69723147E-03    2    -1000037        16   # BR(~tau_1 -> ~chi_2-  nu_tau)
#
#         PDG            Width
DECAY   2000015     3.12416017E+01   # stau_2 decays
#          BR         NDA      ID1       ID2
     2.19784164E-01    2     1000022        15   # BR(~tau_2 -> ~chi_10  tau-)
     1.68946246E-02    2     1000023        15   # BR(~tau_2 -> ~chi_20  tau-)
     1.54640844E-02    2     1000025        15   # BR(~tau_2 -> ~chi_30  tau-)
     2.49104831E-01    2     1000035        15   # BR(~tau_2 -> ~chi_40  tau-)
     5.72490933E-05    2    -1000024        16   # BR(~tau_2 -> ~chi_1-  nu_tau)
     4.98695047E-01    2    -1000037        16   # BR(~tau_2 -> ~chi_2-  nu_tau)
#
#         PDG            Width
DECAY   1000012     3.03374574E+01   # snu_eL decays
#          BR         NDA      ID1       ID2
     2.24382865E-01    2     1000022        12   # BR(~nu_eL -> ~chi_10 nu_e)
     2.21668014E-04    2     1000023        12   # BR(~nu_eL -> ~chi_20 nu_e)
     1.83250322E-03    2     1000025        12   # BR(~nu_eL -> ~chi_30 nu_e)
     2.57506272E-01    2     1000035        12   # BR(~nu_eL -> ~chi_40 nu_e)
     1.68050434E-03    2     1000024        11   # BR(~nu_eL -> ~chi_1+ e-)
     5.14376188E-01    2     1000037        11   # BR(~nu_eL -> ~chi_2+ e-)
#
#         PDG            Width
DECAY   1000014     3.03374574E+01   # snu_muL decays
#          BR         NDA      ID1       ID2
     2.24382865E-01    2     1000022        14   # BR(~nu_muL -> ~chi_10 nu_mu)
     2.21668014E-04    2     1000023        14   # BR(~nu_muL -> ~chi_20 nu_mu)
     1.83250322E-03    2     1000025        14   # BR(~nu_muL -> ~chi_30 nu_mu)
     2.57506272E-01    2     1000035        14   # BR(~nu_muL -> ~chi_40 nu_mu)
     1.68050434E-03    2     1000024        13   # BR(~nu_muL -> ~chi_1+ mu-)
     5.14376188E-01    2     1000037        13   # BR(~nu_muL -> ~chi_2+ mu-)
#
#         PDG            Width
DECAY   1000016     3.12512638E+01   # snu_tauL decays
#          BR         NDA      ID1       ID2
     2.17797810E-01    2     1000022        16   # BR(~nu_tauL -> ~chi_10 nu_tau)
     2.15161695E-04    2     1000023        16   # BR(~nu_tauL -> ~chi_20 nu_tau)
     1.77871619E-03    2     1000025        16   # BR(~nu_tauL -> ~chi_30 nu_tau)
     2.49883111E-01    2     1000035        16   # BR(~nu_tauL -> ~chi_40 nu_tau)
     3.11770074E-02    2     1000024        15   # BR(~nu_tauL -> ~chi_1+ tau-)
     4.99148194E-01    2     1000037        15   # BR(~nu_tauL -> ~chi_2+ tau-)
#
#         PDG            Width
DECAY   1000024     2.94088337E-01   # chargino1+ decays
#          BR         NDA      ID1       ID2
     1.00000000E+00    2     1000022        24   # BR(~chi_1+ -> ~chi_10  W+)
#
#         PDG            Width
DECAY   1000037     2.21634360E+01   # chargino2+ decays
#          BR         NDA      ID1       ID2
     2.53560067E-01    2     1000024        23   # BR(~chi_2+ -> ~chi_1+  Z )
     1.56229774E-04    2     1000022        24   # BR(~chi_2+ -> ~chi_10  W+)
     2.44970051E-01    2     1000023        24   # BR(~chi_2+ -> ~chi_20  W+)
     2.44376149E-01    2     1000025        24   # BR(~chi_2+ -> ~chi_30  W+)
     2.56932322E-01    2     1000024        25   # BR(~chi_2+ -> ~chi_1+  h )
     5.18103471E-06    2     1000022        37   # BR(~chi_2+ -> ~chi_10  H+)
#
#         PDG            Width
DECAY   1000022     0.00000000E+00   # neutralino1 decays
#
#         PDG            Width
DECAY   1000023     2.97422189E-01   # neutralino2 decays
#          BR         NDA      ID1       ID2
     5.04335029E-01    2     1000022        23   # BR(~chi_20 -> ~chi_10   Z )
     4.95664971E-01    2     1000022        25   # BR(~chi_20 -> ~chi_10   h )
#
#         PDG            Width
DECAY   1000025     2.90324958E-01   # neutralino3 decays
#          BR         NDA      ID1       ID2
     5.33678395E-01    2     1000022        23   # BR(~chi_30 -> ~chi_10   Z )
     4.66321605E-01    2     1000022        25   # BR(~chi_30 -> ~chi_10   h )
#
#         PDG            Width
DECAY   1000035     2.21743904E+01   # neutralino4 decays
#          BR         NDA      ID1       ID2
     3.09993318E-06    2     1000022        23   # BR(~chi_40 -> ~chi_10   Z )
     1.12719571E-01    2     1000023        23   # BR(~chi_40 -> ~chi_20   Z )
     1.40401720E-01    2     1000025        23   # BR(~chi_40 -> ~chi_30   Z )
     2.45153099E-01    2     1000024       -24   # BR(~chi_40 -> ~chi_1+   W-)
     2.45153099E-01    2    -1000024        24   # BR(~chi_40 -> ~chi_1-   W+)
     1.45574365E-04    2     1000022        25   # BR(~chi_40 -> ~chi_10   h )
     4.98405174E-06    2     1000022        35   # BR(~chi_40 -> ~chi_10   H )
     5.44037793E-07    2     1000022        36   # BR(~chi_40 -> ~chi_10   A )
     1.43423495E-01    2     1000023        25   # BR(~chi_40 -> ~chi_20   h )
     1.12994814E-01    2     1000025        25   # BR(~chi_40 -> ~chi_30   h )
#
#         PDG            Width
DECAY        25     4.07063268E-03   # h decays
#          BR         NDA      ID1       ID2
     6.09496432E-01    2           5        -5   # BR(h -> b       bb     )
     6.37206821E-02    2         -15        15   # BR(h -> tau+    tau-   )
     2.25594410E-04    2         -13        13   # BR(h -> mu+     mu-    )
     4.78250791E-04    2           3        -3   # BR(h -> s       sb     )
     2.07215565E-02    2           4        -4   # BR(h -> c       cb     )
     6.70226912E-02    2          21        21   # BR(h -> g       g      )
     2.30345102E-03    2          22        22   # BR(h -> gam     gam    )
     1.48511674E-03    2          22        23   # BR(h -> Z       gam    )
     2.09506660E-01    2          24       -24   # BR(h -> W+      W-     )
     2.49553154E-02    2          23        23   # BR(h -> Z       Z      )
     8.42497433E-05    2     1000022   1000022   # BR(h -> ~chi_10 ~chi_10)
#
#         PDG            Width
DECAY        35     8.66119223E+00   # H decays
#          BR         NDA      ID1       ID2
     3.68364482E-01    2           5        -5   # BR(H -> b       bb     )
     6.43127364E-02    2         -15        15   # BR(H -> tau+    tau-   )
     2.27414944E-04    2         -13        13   # BR(H -> mu+     mu-    )
     2.78775800E-04    2           3        -3   # BR(H -> s       sb     )
     1.56001709E-06    2           4        -4   # BR(H -> c       cb     )
     1.55858067E-01    2           6        -6   # BR(H -> t       tb     )
     5.18380429E-05    2          21        21   # BR(H -> g       g      )
     1.49125764E-07    2          22        22   # BR(H -> gam     gam    )
     9.19777401E-08    2          23        22   # BR(H -> Z       gam    )
     7.44668844E-05    2          24       -24   # BR(H -> W+      W-     )
     3.71863057E-05    2          23        23   # BR(H -> Z       Z      )
     2.69754664E-04    2          25        25   # BR(H -> h       h      )
     1.72971541E-24    2          36        36   # BR(H -> A       A      )
     8.03942047E-19    2          23        36   # BR(H -> Z       A      )
     3.17446150E-03    2     1000024  -1000024   # BR(H -> ~chi_1+ ~chi_1-)
     6.71490307E-03    2     1000022   1000022   # BR(H -> ~chi_10 ~chi_10)
     3.68906444E-04    2     1000023   1000023   # BR(H -> ~chi_20 ~chi_20)
     2.44842932E-03    2     1000025   1000025   # BR(H -> ~chi_30 ~chi_30)
     2.39556211E-01    2     1000022   1000023   # BR(H -> ~chi_10 ~chi_20)
     1.54936709E-01    2     1000022   1000025   # BR(H -> ~chi_10 ~chi_30)
     3.32385669E-03    2     1000023   1000025   # BR(H -> ~chi_20 ~chi_30)
#
#         PDG            Width
DECAY        36     8.66822497E+00   # A decays
#          BR         NDA      ID1       ID2
     3.68191308E-01    2           5        -5   # BR(A -> b       bb     )
     6.42624734E-02    2         -15        15   # BR(A -> tau+    tau-   )
     2.27236893E-04    2         -13        13   # BR(A -> mu+     mu-    )
     2.78761198E-04    2           3        -3   # BR(A -> s       sb     )
     1.56498779E-06    2           4        -4   # BR(A -> c       cb     )
     1.56268408E-01    2           6        -6   # BR(A -> t       tb     )
     1.54632093E-04    2          21        21   # BR(A -> g       g      )
     5.93777553E-07    2          22        22   # BR(A -> gam     gam    )
     1.87182425E-07    2          23        22   # BR(A -> Z       gam    )
     7.41249313E-05    2          23        25   # BR(A -> Z       h      )
     3.48638678E-03    2     1000024  -1000024   # BR(A -> ~chi_1+ ~chi_1-)
     6.67204010E-03    2     1000022   1000022   # BR(A -> ~chi_10 ~chi_10)
     2.71049203E-04    2     1000023   1000023   # BR(A -> ~chi_20 ~chi_20)
     4.22305411E-03    2     1000025   1000025   # BR(A -> ~chi_30 ~chi_30)
     1.58337849E-01    2     1000022   1000023   # BR(A -> ~chi_10 ~chi_20)
     2.35187682E-01    2     1000022   1000025   # BR(A -> ~chi_10 ~chi_30)
     2.36264932E-03    2     1000023   1000025   # BR(A -> ~chi_20 ~chi_30)
#
#         PDG            Width
DECAY        37     8.61421073E+00   # H+ decays
#          BR         NDA      ID1       ID2
     5.90834692E-04    2           4        -5   # BR(H+ -> c       bb     )
     6.46962571E-02    2         -15        16   # BR(H+ -> tau+    nu_tau )
     2.28770784E-04    2         -13        14   # BR(H+ -> mu+     nu_mu  )
     3.78132220E-06    2           2        -5   # BR(H+ -> u       bb     )
     1.34234705E-05    2           2        -3   # BR(H+ -> u       sb     )
     2.77598665E-04    2           4        -3   # BR(H+ -> c       sb     )
     5.23268853E-01    2           6        -5   # BR(H+ -> t       bb     )
     7.47446130E-05    2          24        25   # BR(H+ -> W+      h      )
     9.13769673E-13    2          24        36   # BR(H+ -> W+      A      )
     4.07049575E-01    2     1000024   1000022   # BR(H+ -> ~chi_1+ ~chi_10)
     3.46637227E-03    2     1000024   1000023   # BR(H+ -> ~chi_1+ ~chi_20)
     3.29789268E-04    2     1000024   1000025   # BR(H+ -> ~chi_1+ ~chi_30)
