#
#                              ======================
#                              | THE SUSYHIT OUTPUT |
#                              ======================
#
#
#              ------------------------------------------------------
#              |     This is the output of the SUSY-HIT package     |
#              |  created by A.Djouadi, M.Muehlleitner and M.Spira. |
#              |  In case of problems with SUSY-HIT email to        |
#              |           margarete.muehlleitner@cern.ch           |
#              |           michael.spira@psi.ch                     |
#              |           abdelhak.djouadi@cern.ch                 |
#              ------------------------------------------------------
#
#              ------------------------------------------------------
#              |  SUSY Les Houches Accord - MSSM Spectrum + Decays  |
#              |              based on the decay programs           |
#              |                                                    |
#              |                     SDECAY 1.3b                    |
#              |                                                    |
#              |  Authors: M.Muhlleitner, A.Djouadi and Y.Mambrini  |
#              |  Ref.:    Comput.Phys.Commun.168(2005)46           |
#              |           [hep-ph/0311167]                         |
#              |                                                    |
#              |                     HDECAY 3.4                     |
#              |                                                    |
#              |  By: A.Djouadi,J.Kalinowski,M.Muhlleitner,M.Spira  |
#              |  Ref.:    Comput.Phys.Commun.108(1998)56           |
#              |           [hep-ph/9704448]                         |
#              |                                                    |
#              |                                                    |
#              |  If not stated otherwise all DRbar couplings and   |
#              |  soft SUSY breaking masses are given at the scale  |
#              |  Q=  0.50007668E+04
#              |                                                    |
#              ------------------------------------------------------
#
#
BLOCK DCINFO  # Decay Program information
     1   SDECAY/HDECAY # decay calculator
     2   1.3b  /3.4    # version number
#
BLOCK SPINFO  # Spectrum calculator information
     1    SOFTSUSY    # spectrum calculator                
     2    3.4.0       # version number                     
#
BLOCK MODSEL  # Model selection
     1     0   #  nonUniversal                                     
#
BLOCK SMINPUTS  # Standard Model inputs
         1     1.25778332E+02   # alpha_em^-1(M_Z)^MSbar
         2     1.16570000E-05   # G_F [GeV^-2]
         3     1.17200002E-01   # alpha_S(M_Z)^MSbar
         4     9.11876000E+01   # M_Z pole mass
         5     4.25000000E+00   # mb(mb)^MSbar
         6     1.72500000E+02   # mt pole mass
         7     1.77682000E+00   # mtau pole mass
#
BLOCK MINPAR  # Input parameters - minimal models
         3     1.00000000E+01   # tanb                
#
BLOCK EXTPAR  # Input parameters - non-minimal models
         0    -1.00000000E+00   # Set                 
         1     6.00000000E+01   # M_1(MX)             
         2     3.00000000E+03   # M_2(MX)             
         3     2.13913000E+03   # M_3(MX)             
        11     5.00000000E+03   # At(MX)              
        12     5.00000000E+03   # Ab(MX)              
        13     0.00000000E+00   # Atau(MX)            
        23    -3.78672000E+02   # mu(MX)              
        26     3.00000000E+03   # mA(pole)            
        31     5.00000000E+03   # meL(MX)             
        32     5.00000000E+03   # mmuL(MX)            
        33     5.00000000E+03   # mtauL(MX)           
        34     5.00000000E+03   # meR(MX)             
        35     5.00000000E+03   # mmuR(MX)            
        36     5.00000000E+03   # mtauR(MX)           
        41     5.00000000E+03   # mqL1(MX)            
        42     5.00000000E+03   # mqL2(MX)            
        43     5.00000000E+03   # mqL3(MX)            
        44     5.00000000E+03   # muR(MX)             
        45     5.00000000E+03   # mcR(MX)             
        46     5.00000000E+03   # mtR(MX)             
        47     5.00000000E+03   # mdR(MX)             
        48     5.00000000E+03   # msR(MX)             
        49     5.00000000E+03   # mbR(MX)             
#
BLOCK MASS  # Mass Spectrum
# PDG code           mass       particle
        24     8.00926613E+01   # W+
        25     1.24799758E+02   # h
        35     3.00008737E+03   # H
        36     2.99999960E+03   # A
        37     3.00145194E+03   # H+
         5     4.87878001E+00   # b-quark pole mass calculated from mb(mb)_Msbar
   1000001     5.07999823E+03   # ~d_L
   2000001     5.06217233E+03   # ~d_R
   1000002     5.07952608E+03   # ~u_L
   2000002     5.06186984E+03   # ~u_R
   1000003     5.07999823E+03   # ~s_L
   2000003     5.06217233E+03   # ~s_R
   1000004     5.07952608E+03   # ~c_L
   2000004     5.06186984E+03   # ~c_R
   1000005     5.02585782E+03   # ~b_1
   2000005     5.06033986E+03   # ~b_2
   1000006     4.91772870E+03   # ~t_1
   2000006     5.06883552E+03   # ~t_2
   1000011     5.01912012E+03   # ~e_L
   2000011     5.00594846E+03   # ~e_R
   1000012     5.01816943E+03   # ~nu_eL
   1000013     5.01912012E+03   # ~mu_L
   2000013     5.00594846E+03   # ~mu_R
   1000014     5.01816943E+03   # ~nu_muL
   1000015     5.00479687E+03   # ~tau_1
   2000015     5.01862122E+03   # ~tau_2
   1000016     5.01761675E+03   # ~nu_tauL
   1000021     2.50000003E+03   # ~g
   1000022     6.00913732E+01   # ~chi_10
   1000023     4.01021648E+02   # ~chi_20
   1000025    -4.03141282E+02   # ~chi_30
   1000035     3.07418713E+03   # ~chi_40
   1000024     4.00000034E+02   # ~chi_1+
   1000037     3.07435492E+03   # ~chi_2+
#
BLOCK NMIX  # Neutralino Mixing Matrix
  1  1     9.93745832E-01   # N_11
  1  2     1.92585117E-04   # N_12
  1  3    -1.11539073E-01   # N_13
  1  4    -5.31227253E-03   # N_14
  2  1     8.26702460E-02   # N_21
  2  2     1.83215662E-02   # N_22
  2  3     7.02939880E-01   # N_23
  2  4     7.06190821E-01   # N_24
  3  1    -7.50646315E-02   # N_31
  3  2     1.75060012E-02   # N_32
  3  3    -7.02448750E-01   # N_33
  3  4     7.07548298E-01   # N_34
  4  1    -3.92073430E-04   # N_41
  4  2     9.99678860E-01   # N_42
  4  3    -5.60590189E-04   # N_43
  4  4    -2.53319753E-02   # N_44
#
BLOCK UMIX  # Chargino Mixing Matrix U
  1  1     7.96367403E-04   # U_11
  1  2     9.99999683E-01   # U_12
  2  1    -9.99999683E-01   # U_21
  2  2     7.96367403E-04   # U_22
#
BLOCK VMIX  # Chargino Mixing Matrix V
  1  1     3.58400567E-02   # V_11
  1  2    -9.99357539E-01   # V_12
  2  1    -9.99357539E-01   # V_21
  2  2    -3.58400567E-02   # V_22
#
BLOCK STOPMIX  # Stop Mixing Matrix
  1  1    -5.01343029E-01   # cos(theta_t)
  1  2     8.65248616E-01   # sin(theta_t)
  2  1    -8.65248616E-01   # -sin(theta_t)
  2  2    -5.01343029E-01   # cos(theta_t)
#
BLOCK SBOTMIX  # Sbottom Mixing Matrix
  1  1     9.99014219E-01   # cos(theta_b)
  1  2    -4.43913306E-02   # sin(theta_b)
  2  1     4.43913306E-02   # -sin(theta_b)
  2  2     9.99014219E-01   # cos(theta_b)
#
BLOCK STAUMIX  # Stau Mixing Matrix
  1  1    -4.53450912E-02   # cos(theta_tau)
  1  2     9.98971382E-01   # sin(theta_tau)
  2  1    -9.98971382E-01   # -sin(theta_tau)
  2  2    -4.53450912E-02   # cos(theta_tau)
#
BLOCK ALPHA  # Higgs mixing
          -1.05495094E-01   # Mixing angle in the neutral Higgs boson sector
#
BLOCK HMIX Q=  5.00076679E+03  # DRbar Higgs Parameters
         1    -3.85614635E+02   # mu(Q)MSSM           
         2     9.46849334E+00   # tan                 
         3     2.41723554E+02   # higgs               
         4     8.71467782E+06   # mA^2(Q)MSSM         
#
BLOCK GAUGE Q=  5.00076679E+03  # The gauge couplings
     1     3.70996233E-01   # gprime(Q) DRbar
     2     6.33548583E-01   # g(Q) DRbar
     3     9.95216089E-01   # g3(Q) DRbar
#
BLOCK AU Q=  5.00076679E+03  # The trilinear couplings
  1  1     5.00000002E+03   # A_u(Q) DRbar
  2  2     5.00000002E+03   # A_c(Q) DRbar
  3  3     5.00000002E+03   # A_t(Q) DRbar
#
BLOCK AD Q=  5.00076679E+03  # The trilinear couplings
  1  1     5.00000001E+03   # A_d(Q) DRbar
  2  2     5.00000001E+03   # A_s(Q) DRbar
  3  3     5.00000001E+03   # A_b(Q) DRbar
#
BLOCK AE Q=  5.00076679E+03  # The trilinear couplings
  1  1     0.00000000E+00   # A_e(Q) DRbar
  2  2     2.46325462E-07   # A_mu(Q) DRbar
  3  3     2.46249325E-07   # A_tau(Q) DRbar
#
BLOCK Yu Q=  5.00076679E+03  # The Yukawa couplings
  1  1     0.00000000E+00   # y_u(Q) DRbar
  2  2     0.00000000E+00   # y_c(Q) DRbar
  3  3     8.21442857E-01   # y_t(Q) DRbar
#
BLOCK Yd Q=  5.00076679E+03  # The Yukawa couplings
  1  1     0.00000000E+00   # y_d(Q) DRbar
  2  2     0.00000000E+00   # y_s(Q) DRbar
  3  3     1.30192962E-01   # y_b(Q) DRbar
#
BLOCK Ye Q=  5.00076679E+03  # The Yukawa couplings
  1  1     0.00000000E+00   # y_e(Q) DRbar
  2  2     0.00000000E+00   # y_mu(Q) DRbar
  3  3     9.72012648E-02   # y_tau(Q) DRbar
#
BLOCK MSOFT Q=  5.00076679E+03  # The soft SUSY breaking masses at the scale Q
         1     6.00000000E+01   # M_1(Q)              
         2     3.00000000E+03   # M_2(Q)              
         3     2.13913000E+03   # M_3(Q)              
        21     8.57929988E+06   # mH1^2(Q)            
        22     4.30506181E+05   # mH2^2(Q)            
        31     5.00000000E+03   # meL(Q)              
        32     5.00000000E+03   # mmuL(Q)             
        33     5.00000000E+03   # mtauL(Q)            
        34     5.00000000E+03   # meR(Q)              
        35     5.00000000E+03   # mmuR(Q)             
        36     5.00000000E+03   # mtauR(Q)            
        41     4.99999999E+03   # mqL1(Q)             
        42     4.99999999E+03   # mqL2(Q)             
        43     4.99999999E+03   # mqL3(Q)             
        44     4.99999999E+03   # muR(Q)              
        45     4.99999999E+03   # mcR(Q)              
        46     4.99999999E+03   # mtR(Q)              
        47     4.99999999E+03   # mdR(Q)              
        48     4.99999999E+03   # msR(Q)              
        49     4.99999999E+03   # mbR(Q)              
#
#
#
#                             =================
#                             |The decay table|
#                             =================
#
# - The QCD corrections to the decays gluino -> squark  + quark
#                                     squark -> gaugino + quark_prime
#                                     squark -> squark_prime + Higgs
#                                     squark -> gluino  + quark
#   are included.
#
# - The multi-body decays for the inos, stops and sbottoms are included.
#
# - The loop induced decays for the gluino, neutralinos and stops
#   are included.
#
# - The SUSY decays of the top quark are included.
#
#
#         PDG            Width
DECAY         6     1.40668760E+00   # top decays
#          BR         NDA      ID1       ID2
     1.00000000E+00    2           5        24   # BR(t ->  b    W+)
#
#         PDG            Width
DECAY   1000021     7.72056704E-03   # gluino decays
#          BR         NDA      ID1       ID2
     4.00329174E-08    2     1000022        21   # BR(~g -> ~chi_10 g)
     4.06054669E-03    2     1000023        21   # BR(~g -> ~chi_20 g)
     3.94134826E-03    2     1000025        21   # BR(~g -> ~chi_30 g)
#           BR         NDA      ID1       ID2       ID3
     9.70461560E-03    3     1000022         1        -1   # BR(~g -> ~chi_10 d  db)
     5.37824427E-05    3     1000023         1        -1   # BR(~g -> ~chi_20 d  db)
     5.93911751E-05    3     1000025         1        -1   # BR(~g -> ~chi_30 d  db)
     3.30943356E-02    3     1000022         2        -2   # BR(~g -> ~chi_10 u  ub)
     2.74329122E-04    3     1000023         2        -2   # BR(~g -> ~chi_20 u  ub)
     1.09000862E-04    3     1000025         2        -2   # BR(~g -> ~chi_30 u  ub)
     9.70461560E-03    3     1000022         3        -3   # BR(~g -> ~chi_10 s  sb)
     5.37824427E-05    3     1000023         3        -3   # BR(~g -> ~chi_20 s  sb)
     5.93911751E-05    3     1000025         3        -3   # BR(~g -> ~chi_30 s  sb)
     3.30943356E-02    3     1000022         4        -4   # BR(~g -> ~chi_10 c  cb)
     2.74329122E-04    3     1000023         4        -4   # BR(~g -> ~chi_20 c  cb)
     1.09000862E-04    3     1000025         4        -4   # BR(~g -> ~chi_30 c  cb)
     9.99627953E-03    3     1000022         5        -5   # BR(~g -> ~chi_10 b  bb)
     5.33148684E-03    3     1000023         5        -5   # BR(~g -> ~chi_20 b  bb)
     5.31636772E-03    3     1000025         5        -5   # BR(~g -> ~chi_30 b  bb)
     3.33933864E-02    3     1000022         6        -6   # BR(~g -> ~chi_10 t  tb)
     2.11757639E-01    3     1000023         6        -6   # BR(~g -> ~chi_20 t  tb)
     2.01924684E-01    3     1000025         6        -6   # BR(~g -> ~chi_30 t  tb)
     5.32125768E-05    3     1000024         1        -2   # BR(~g -> ~chi_1+ d  ub)
     5.32125768E-05    3    -1000024         2        -1   # BR(~g -> ~chi_1- u  db)
     5.32125768E-05    3     1000024         3        -4   # BR(~g -> ~chi_1+ s  cb)
     5.32125768E-05    3    -1000024         4        -3   # BR(~g -> ~chi_1- c  sb)
     2.18737231E-01    3     1000024         5        -6   # BR(~g -> ~chi_1+ b  tb)
     2.18737231E-01    3    -1000024         6        -5   # BR(~g -> ~chi_1- t  bb)
#
#         PDG            Width
DECAY   1000006     3.02555144E+02   # stop1 decays
#          BR         NDA      ID1       ID2
     2.88121814E-02    2     1000022         6   # BR(~t_1 -> ~chi_10 t )
     1.09951619E-01    2     1000023         6   # BR(~t_1 -> ~chi_20 t )
     1.02995014E-01    2     1000025         6   # BR(~t_1 -> ~chi_30 t )
     6.62638356E-03    2     1000035         6   # BR(~t_1 -> ~chi_40 t )
     1.59621035E-01    2     1000024         5   # BR(~t_1 -> ~chi_1+ b )
     1.32098380E-02    2     1000037         5   # BR(~t_1 -> ~chi_2+ b )
     5.78783930E-01    2     1000021         6   # BR(~t_1 -> ~g      t )
#
#         PDG            Width
DECAY   2000006     3.08872875E+02   # stop2 decays
#          BR         NDA      ID1       ID2
     1.12857149E-02    2     1000022         6   # BR(~t_2 -> ~chi_10 t )
     1.06187196E-01    2     1000023         6   # BR(~t_2 -> ~chi_20 t )
     1.13884872E-01    2     1000025         6   # BR(~t_2 -> ~chi_30 t )
     1.84057756E-02    2     1000035         6   # BR(~t_2 -> ~chi_40 t )
     6.18610115E-02    2     1000024         5   # BR(~t_2 -> ~chi_1+ b )
     3.66517392E-02    2     1000037         5   # BR(~t_2 -> ~chi_2+ b )
     6.47922902E-01    2     1000021         6   # BR(~t_2 -> ~g      t )
     8.84295802E-04    2     1000006        25   # BR(~t_2 -> ~t_1    h )
     2.91649357E-03    2     1000006        23   # BR(~t_2 -> ~t_1    Z )
#
#         PDG            Width
DECAY   1000005     2.83183032E+02   # sbottom1 decays
#          BR         NDA      ID1       ID2
     2.76379877E-03    2     1000022         5   # BR(~b_1 -> ~chi_10 b )
     2.88785244E-03    2     1000023         5   # BR(~b_1 -> ~chi_20 b )
     2.91636185E-03    2     1000025         5   # BR(~b_1 -> ~chi_30 b )
     2.69593067E-02    2     1000035         5   # BR(~b_1 -> ~chi_40 b )
     2.34556634E-01    2    -1000024         6   # BR(~b_1 -> ~chi_1- t )
     5.41245562E-02    2    -1000037         6   # BR(~b_1 -> ~chi_2- t )
     6.73895628E-01    2     1000021         5   # BR(~b_1 -> ~g      b )
     1.89586186E-03    2     1000006       -24   # BR(~b_1 -> ~t_1    W-)
#
#         PDG            Width
DECAY   2000005     2.00135724E+02   # sbottom2 decays
#          BR         NDA      ID1       ID2
     1.45959411E-02    2     1000022         5   # BR(~b_2 -> ~chi_10 b )
     4.31536691E-03    2     1000023         5   # BR(~b_2 -> ~chi_20 b )
     4.34340500E-03    2     1000025         5   # BR(~b_2 -> ~chi_30 b )
     6.70085199E-05    2     1000035         5   # BR(~b_2 -> ~chi_40 b )
     8.99198920E-03    2    -1000024         6   # BR(~b_2 -> ~chi_1- t )
     1.34553501E-04    2    -1000037         6   # BR(~b_2 -> ~chi_2- t )
     9.67529301E-01    2     1000021         5   # BR(~b_2 -> ~g      b )
     2.24348972E-05    2     1000006       -24   # BR(~b_2 -> ~t_1    W-)
#
#         PDG            Width
DECAY   1000002     2.19790132E+02   # sup_L decays
#          BR         NDA      ID1       ID2
     3.35752983E-03    2     1000022         2   # BR(~u_L -> ~chi_10 u)
     1.04564763E-04    2     1000023         2   # BR(~u_L -> ~chi_20 u)
     7.17099373E-07    2     1000025         2   # BR(~u_L -> ~chi_30 u)
     3.60389074E-02    2     1000035         2   # BR(~u_L -> ~chi_40 u)
     2.26250629E-04    2     1000024         1   # BR(~u_L -> ~chi_1+ d)
     7.20335029E-02    2     1000037         1   # BR(~u_L -> ~chi_2+ d)
     8.88238527E-01    2     1000021         2   # BR(~u_L -> ~g      u)
#
#         PDG            Width
DECAY   2000002     2.05567884E+02   # sup_R decays
#          BR         NDA      ID1       ID2
     5.71201913E-02    2     1000022         2   # BR(~u_R -> ~chi_10 u)
     3.90866897E-04    2     1000023         2   # BR(~u_R -> ~chi_20 u)
     3.22214759E-04    2     1000025         2   # BR(~u_R -> ~chi_30 u)
     3.57236514E-09    2     1000035         2   # BR(~u_R -> ~chi_40 u)
     9.42166724E-01    2     1000021         2   # BR(~u_R -> ~g      u)
#
#         PDG            Width
DECAY   1000001     2.19805958E+02   # sdown_L decays
#          BR         NDA      ID1       ID2
     3.34429828E-03    2     1000022         1   # BR(~d_L -> ~chi_10 d)
     4.20353410E-07    2     1000023         1   # BR(~d_L -> ~chi_20 d)
     9.10616623E-05    2     1000025         1   # BR(~d_L -> ~chi_30 d)
     3.60583982E-02    2     1000035         1   # BR(~d_L -> ~chi_40 d)
     1.11709505E-07    2    -1000024         2   # BR(~d_L -> ~chi_1- u)
     7.21430191E-02    2    -1000037         2   # BR(~d_L -> ~chi_2- u)
     8.88362691E-01    2     1000021         1   # BR(~d_L -> ~g      d)
#
#         PDG            Width
DECAY   2000001     1.96678077E+02   # sdown_R decays
#          BR         NDA      ID1       ID2
     1.49264120E-02    2     1000022         1   # BR(~d_R -> ~chi_10 d)
     1.02139857E-04    2     1000023         1   # BR(~d_R -> ~chi_20 d)
     8.41999415E-05    2     1000025         1   # BR(~d_R -> ~chi_30 d)
     9.33644174E-10    2     1000035         1   # BR(~d_R -> ~chi_40 d)
     9.84887247E-01    2     1000021         1   # BR(~d_R -> ~g      d)
#
#         PDG            Width
DECAY   1000004     2.19790132E+02   # scharm_L decays
#          BR         NDA      ID1       ID2
     3.35752983E-03    2     1000022         4   # BR(~c_L -> ~chi_10 c)
     1.04564763E-04    2     1000023         4   # BR(~c_L -> ~chi_20 c)
     7.17099373E-07    2     1000025         4   # BR(~c_L -> ~chi_30 c)
     3.60389074E-02    2     1000035         4   # BR(~c_L -> ~chi_40 c)
     2.26250629E-04    2     1000024         3   # BR(~c_L -> ~chi_1+ s)
     7.20335029E-02    2     1000037         3   # BR(~c_L -> ~chi_2+ s)
     8.88238527E-01    2     1000021         4   # BR(~c_L -> ~g      c)
#
#         PDG            Width
DECAY   2000004     2.05567884E+02   # scharm_R decays
#          BR         NDA      ID1       ID2
     5.71201913E-02    2     1000022         4   # BR(~c_R -> ~chi_10 c)
     3.90866897E-04    2     1000023         4   # BR(~c_R -> ~chi_20 c)
     3.22214759E-04    2     1000025         4   # BR(~c_R -> ~chi_30 c)
     3.57236514E-09    2     1000035         4   # BR(~c_R -> ~chi_40 c)
     9.42166724E-01    2     1000021         4   # BR(~c_R -> ~g      c)
#
#         PDG            Width
DECAY   1000003     2.19805958E+02   # sstrange_L decays
#          BR         NDA      ID1       ID2
     3.34429828E-03    2     1000022         3   # BR(~s_L -> ~chi_10 s)
     4.20353410E-07    2     1000023         3   # BR(~s_L -> ~chi_20 s)
     9.10616623E-05    2     1000025         3   # BR(~s_L -> ~chi_30 s)
     3.60583982E-02    2     1000035         3   # BR(~s_L -> ~chi_40 s)
     1.11709505E-07    2    -1000024         4   # BR(~s_L -> ~chi_1- c)
     7.21430191E-02    2    -1000037         4   # BR(~s_L -> ~chi_2- c)
     8.88362691E-01    2     1000021         3   # BR(~s_L -> ~g      s)
#
#         PDG            Width
DECAY   2000003     1.96678077E+02   # sstrange_R decays
#          BR         NDA      ID1       ID2
     1.49264120E-02    2     1000022         3   # BR(~s_R -> ~chi_10 s)
     1.02139857E-04    2     1000023         3   # BR(~s_R -> ~chi_20 s)
     8.41999415E-05    2     1000025         3   # BR(~s_R -> ~chi_30 s)
     9.33644174E-10    2     1000035         3   # BR(~s_R -> ~chi_40 s)
     9.84887247E-01    2     1000021         3   # BR(~s_R -> ~g      s)
#
#         PDG            Width
DECAY   1000011     3.03524186E+01   # selectron_L decays
#          BR         NDA      ID1       ID2
     2.23659305E-01    2     1000022        11   # BR(~e_L -> ~chi_10 e-)
     2.90268316E-03    2     1000023        11   # BR(~e_L -> ~chi_20 e-)
     4.55980483E-04    2     1000025        11   # BR(~e_L -> ~chi_30 e-)
     2.57493799E-01    2     1000035        11   # BR(~e_L -> ~chi_40 e-)
     8.26831356E-07    2    -1000024        12   # BR(~e_L -> ~chi_1- nu_e)
     5.15487405E-01    2    -1000037        12   # BR(~e_L -> ~chi_2- nu_e)
#
#         PDG            Width
DECAY   2000011     2.74026288E+01   # selectron_R decays
#          BR         NDA      ID1       ID2
     9.87685680E-01    2     1000022        11   # BR(~e_R -> ~chi_10 e-)
     6.74993595E-03    2     1000023        11   # BR(~e_R -> ~chi_20 e-)
     5.56432440E-03    2     1000025        11   # BR(~e_R -> ~chi_30 e-)
     5.96659896E-08    2     1000035        11   # BR(~e_R -> ~chi_40 e-)
#
#         PDG            Width
DECAY   1000013     3.03524186E+01   # smuon_L decays
#          BR         NDA      ID1       ID2
     2.23659305E-01    2     1000022        13   # BR(~mu_L -> ~chi_10 mu-)
     2.90268316E-03    2     1000023        13   # BR(~mu_L -> ~chi_20 mu-)
     4.55980483E-04    2     1000025        13   # BR(~mu_L -> ~chi_30 mu-)
     2.57493799E-01    2     1000035        13   # BR(~mu_L -> ~chi_40 mu-)
     8.26831356E-07    2    -1000024        14   # BR(~mu_L -> ~chi_1- nu_mu)
     5.15487405E-01    2    -1000037        14   # BR(~mu_L -> ~chi_2- nu_mu)
#
#         PDG            Width
DECAY   2000013     2.74026288E+01   # smuon_R decays
#          BR         NDA      ID1       ID2
     9.87685680E-01    2     1000022        13   # BR(~mu_R -> ~chi_10 mu-)
     6.74993595E-03    2     1000023        13   # BR(~mu_R -> ~chi_20 mu-)
     5.56432440E-03    2     1000025        13   # BR(~mu_R -> ~chi_30 mu-)
     5.96659896E-08    2     1000035        13   # BR(~mu_R -> ~chi_40 mu-)
#
#         PDG            Width
DECAY   1000015     2.92581893E+01   # stau_1 decays
#          BR         NDA      ID1       ID2
     9.24678097E-01    2     1000022        15   # BR(~tau_1 -> ~chi_10  tau-)
     2.17160622E-02    2     1000023        15   # BR(~tau_1 -> ~chi_20  tau-)
     2.02891617E-02    2     1000025        15   # BR(~tau_1 -> ~chi_30  tau-)
     5.41072302E-04    2     1000035        15   # BR(~tau_1 -> ~chi_40  tau-)
     3.16925596E-02    2    -1000024        16   # BR(~tau_1 -> ~chi_1-  nu_tau)
     1.08304712E-03    2    -1000037        16   # BR(~tau_1 -> ~chi_2-  nu_tau)
#
#         PDG            Width
DECAY   2000015     3.12704983E+01   # stau_2 decays
#          BR         NDA      ID1       ID2
     2.17967323E-01    2     1000022        15   # BR(~tau_2 -> ~chi_10  tau-)
     1.78034837E-02    2     1000023        15   # BR(~tau_2 -> ~chi_20  tau-)
     1.56819488E-02    2     1000025        15   # BR(~tau_2 -> ~chi_30  tau-)
     2.49338274E-01    2     1000035        15   # BR(~tau_2 -> ~chi_40  tau-)
     4.80364179E-05    2    -1000024        16   # BR(~tau_2 -> ~chi_1-  nu_tau)
     4.99160934E-01    2    -1000037        16   # BR(~tau_2 -> ~chi_2-  nu_tau)
#
#         PDG            Width
DECAY   1000012     3.03556132E+01   # snu_eL decays
#          BR         NDA      ID1       ID2
     2.23297589E-01    2     1000022        12   # BR(~nu_eL -> ~chi_10 nu_e)
     5.89946527E-04    2     1000023        12   # BR(~nu_eL -> ~chi_20 nu_e)
     2.46130484E-03    2     1000025        12   # BR(~nu_eL -> ~chi_30 nu_e)
     2.57537299E-01    2     1000035        12   # BR(~nu_eL -> ~chi_40 nu_e)
     1.67416124E-03    2     1000024        11   # BR(~nu_eL -> ~chi_1+ e-)
     5.14439699E-01    2     1000037        11   # BR(~nu_eL -> ~chi_2+ e-)
#
#         PDG            Width
DECAY   1000014     3.03556132E+01   # snu_muL decays
#          BR         NDA      ID1       ID2
     2.23297589E-01    2     1000022        14   # BR(~nu_muL -> ~chi_10 nu_mu)
     5.89946527E-04    2     1000023        14   # BR(~nu_muL -> ~chi_20 nu_mu)
     2.46130484E-03    2     1000025        14   # BR(~nu_muL -> ~chi_30 nu_mu)
     2.57537299E-01    2     1000035        14   # BR(~nu_muL -> ~chi_40 nu_mu)
     1.67416124E-03    2     1000024        13   # BR(~nu_muL -> ~chi_1+ mu-)
     5.14439699E-01    2     1000037        13   # BR(~nu_muL -> ~chi_2+ mu-)
#
#         PDG            Width
DECAY   1000016     3.12772585E+01   # snu_tauL decays
#          BR         NDA      ID1       ID2
     2.16693810E-01    2     1000022        16   # BR(~nu_tauL -> ~chi_10 nu_tau)
     5.72497925E-04    2     1000023        16   # BR(~nu_tauL -> ~chi_20 nu_tau)
     2.38850778E-03    2     1000025        16   # BR(~nu_tauL -> ~chi_30 nu_tau)
     2.49854784E-01    2     1000035        16   # BR(~nu_tauL -> ~chi_40 nu_tau)
     3.13972138E-02    2     1000024        15   # BR(~nu_tauL -> ~chi_1+ tau-)
     4.99093187E-01    2     1000037        15   # BR(~nu_tauL -> ~chi_2+ tau-)
#
#         PDG            Width
DECAY   1000024     2.29917631E-01   # chargino1+ decays
#          BR         NDA      ID1       ID2
     1.00000000E+00    2     1000022        24   # BR(~chi_1+ -> ~chi_10  W+)
#
#         PDG            Width
DECAY   1000037     2.25222447E+01   # chargino2+ decays
#          BR         NDA      ID1       ID2
     2.53606335E-01    2     1000024        23   # BR(~chi_2+ -> ~chi_1+  Z )
     1.38121185E-04    2     1000022        24   # BR(~chi_2+ -> ~chi_10  W+)
     2.45209883E-01    2     1000023        24   # BR(~chi_2+ -> ~chi_20  W+)
     2.44429748E-01    2     1000025        24   # BR(~chi_2+ -> ~chi_30  W+)
     2.56607679E-01    2     1000024        25   # BR(~chi_2+ -> ~chi_1+  h )
     8.23350301E-06    2     1000022        37   # BR(~chi_2+ -> ~chi_10  H+)
#
#         PDG            Width
DECAY   1000022     0.00000000E+00   # neutralino1 decays
#
#         PDG            Width
DECAY   1000023     2.27166733E-01   # neutralino2 decays
#          BR         NDA      ID1       ID2
     4.94366818E-01    2     1000022        23   # BR(~chi_20 -> ~chi_10   Z )
     5.05633182E-01    2     1000022        25   # BR(~chi_20 -> ~chi_10   h )
#
#         PDG            Width
DECAY   1000025     2.16589745E-01   # neutralino3 decays
#          BR         NDA      ID1       ID2
     5.81764915E-01    2     1000022        23   # BR(~chi_30 -> ~chi_10   Z )
     4.18235085E-01    2     1000022        25   # BR(~chi_30 -> ~chi_10   h )
#
#         PDG            Width
DECAY   1000035     2.25291180E+01   # neutralino4 decays
#          BR         NDA      ID1       ID2
     2.15564379E-06    2     1000022        23   # BR(~chi_40 -> ~chi_10   Z )
     1.20957689E-01    2     1000023        23   # BR(~chi_40 -> ~chi_20   Z )
     1.32332273E-01    2     1000025        23   # BR(~chi_40 -> ~chi_30   Z )
     2.45202823E-01    2     1000024       -24   # BR(~chi_40 -> ~chi_1+   W-)
     2.45202823E-01    2    -1000024        24   # BR(~chi_40 -> ~chi_1-   W+)
     1.25392851E-04    2     1000022        25   # BR(~chi_40 -> ~chi_10   h )
     7.94101846E-06    2     1000022        35   # BR(~chi_40 -> ~chi_10   H )
     8.50630181E-07    2     1000022        36   # BR(~chi_40 -> ~chi_10   A )
     1.34950119E-01    2     1000023        25   # BR(~chi_40 -> ~chi_20   h )
     1.21217933E-01    2     1000025        25   # BR(~chi_40 -> ~chi_30   h )
#
#         PDG            Width
DECAY        25     4.07449669E-03   # h decays
#          BR         NDA      ID1       ID2
     6.08954186E-01    2           5        -5   # BR(h -> b       bb     )
     6.36783968E-02    2         -15        15   # BR(h -> tau+    tau-   )
     2.25444562E-04    2         -13        13   # BR(h -> mu+     mu-    )
     4.77908739E-04    2           3        -3   # BR(h -> s       sb     )
     2.07062354E-02    2           4        -4   # BR(h -> c       cb     )
     6.70106787E-02    2          21        21   # BR(h -> g       g      )
     2.30339266E-03    2          22        22   # BR(h -> gam     gam    )
     1.48803768E-03    2          22        23   # BR(h -> Z       gam    )
     2.10060534E-01    2          24       -24   # BR(h -> W+      W-     )
     2.50335998E-02    2          23        23   # BR(h -> Z       Z      )
     6.15855087E-05    2     1000022   1000022   # BR(h -> ~chi_10 ~chi_10)
#
#         PDG            Width
DECAY        35     8.72753102E+00   # H decays
#          BR         NDA      ID1       ID2
     3.64502201E-01    2           5        -5   # BR(H -> b       bb     )
     6.38156483E-02    2         -15        15   # BR(H -> tau+    tau-   )
     2.25657201E-04    2         -13        13   # BR(H -> mu+     mu-    )
     2.76621048E-04    2           3        -3   # BR(H -> s       sb     )
     1.54839754E-06    2           4        -4   # BR(H -> c       cb     )
     1.54697184E-01    2           6        -6   # BR(H -> t       tb     )
     5.14644035E-05    2          21        21   # BR(H -> g       g      )
     1.39996218E-07    2          22        22   # BR(H -> gam     gam    )
     9.12879171E-08    2          23        22   # BR(H -> Z       gam    )
     7.46094585E-05    2          24       -24   # BR(H -> W+      W-     )
     3.72575010E-05    2          23        23   # BR(H -> Z       Z      )
     2.68488793E-04    2          25        25   # BR(H -> h       h      )
    -5.98534879E-24    2          36        36   # BR(H -> A       A      )
     5.68167885E-19    2          23        36   # BR(H -> Z       A      )
     3.30524093E-03    2     1000024  -1000024   # BR(H -> ~chi_1+ ~chi_1-)
     1.04843818E-02    2     1000022   1000022   # BR(H -> ~chi_10 ~chi_10)
     1.10154033E-03    2     1000023   1000023   # BR(H -> ~chi_20 ~chi_20)
     3.42901628E-03    2     1000025   1000025   # BR(H -> ~chi_30 ~chi_30)
     2.38992143E-01    2     1000022   1000023   # BR(H -> ~chi_10 ~chi_20)
     1.53417715E-01    2     1000022   1000025   # BR(H -> ~chi_10 ~chi_30)
     5.31905103E-03    2     1000023   1000025   # BR(H -> ~chi_20 ~chi_30)
#
#         PDG            Width
DECAY        36     8.73354277E+00   # A decays
#          BR         NDA      ID1       ID2
     3.64375821E-01    2           5        -5   # BR(A -> b       bb     )
     6.37736097E-02    2         -15        15   # BR(A -> tau+    tau-   )
     2.25508234E-04    2         -13        13   # BR(A -> mu+     mu-    )
     2.76640592E-04    2           3        -3   # BR(A -> s       sb     )
     1.55348433E-06    2           4        -4   # BR(A -> c       cb     )
     1.55119755E-01    2           6        -6   # BR(A -> t       tb     )
     1.53487206E-04    2          21        21   # BR(A -> g       g      )
     5.82737625E-07    2          22        22   # BR(A -> gam     gam    )
     1.85782688E-07    2          23        22   # BR(A -> Z       gam    )
     7.42756827E-05    2          23        25   # BR(A -> Z       h      )
     3.52265639E-03    2     1000024  -1000024   # BR(A -> ~chi_1+ ~chi_1-)
     1.02849940E-02    2     1000022   1000022   # BR(A -> ~chi_10 ~chi_10)
     7.73902178E-04    2     1000023   1000023   # BR(A -> ~chi_20 ~chi_20)
     5.66516778E-03    2     1000025   1000025   # BR(A -> ~chi_30 ~chi_30)
     1.57108662E-01    2     1000022   1000023   # BR(A -> ~chi_10 ~chi_20)
     2.34431534E-01    2     1000022   1000025   # BR(A -> ~chi_10 ~chi_30)
     4.21166510E-03    2     1000023   1000025   # BR(A -> ~chi_20 ~chi_30)
#
#         PDG            Width
DECAY        37     8.68024896E+00   # H+ decays
#          BR         NDA      ID1       ID2
     5.84768323E-04    2           4        -5   # BR(H+ -> c       bb     )
     6.41962215E-02    2         -15        16   # BR(H+ -> tau+    nu_tau )
     2.27002621E-04    2         -13        14   # BR(H+ -> mu+     nu_mu  )
     3.74249760E-06    2           2        -5   # BR(H+ -> u       bb     )
     1.33197082E-05    2           2        -3   # BR(H+ -> u       sb     )
     2.75453239E-04    2           4        -3   # BR(H+ -> c       sb     )
     5.18328071E-01    2           6        -5   # BR(H+ -> t       bb     )
     7.48885412E-05    2          24        25   # BR(H+ -> W+      h      )
     9.78184428E-13    2          24        36   # BR(H+ -> W+      A      )
     4.10328401E-01    2     1000024   1000022   # BR(H+ -> ~chi_1+ ~chi_10)
     5.22156567E-03    2     1000024   1000023   # BR(H+ -> ~chi_1+ ~chi_20)
     7.46565666E-04    2     1000024   1000025   # BR(H+ -> ~chi_1+ ~chi_30)
