#
#                              ======================
#                              | THE SUSYHIT OUTPUT |
#                              ======================
#
#
#              ------------------------------------------------------
#              |     This is the output of the SUSY-HIT package     |
#              |  created by A.Djouadi, M.Muehlleitner and M.Spira. |
#              |  In case of problems with SUSY-HIT email to        |
#              |           margarete.muehlleitner@cern.ch           |
#              |           michael.spira@psi.ch                     |
#              |           abdelhak.djouadi@cern.ch                 |
#              ------------------------------------------------------
#
#              ------------------------------------------------------
#              |  SUSY Les Houches Accord - MSSM Spectrum + Decays  |
#              |              based on the decay programs           |
#              |                                                    |
#              |                     SDECAY 1.3b                    |
#              |                                                    |
#              |  Authors: M.Muhlleitner, A.Djouadi and Y.Mambrini  |
#              |  Ref.:    Comput.Phys.Commun.168(2005)46           |
#              |           [hep-ph/0311167]                         |
#              |                                                    |
#              |                     HDECAY 3.4                     |
#              |                                                    |
#              |  By: A.Djouadi,J.Kalinowski,M.Muhlleitner,M.Spira  |
#              |  Ref.:    Comput.Phys.Commun.108(1998)56           |
#              |           [hep-ph/9704448]                         |
#              |                                                    |
#              |                                                    |
#              |  If not stated otherwise all DRbar couplings and   |
#              |  soft SUSY breaking masses are given at the scale  |
#              |  Q=  0.50007406E+04
#              |                                                    |
#              ------------------------------------------------------
#
#
BLOCK DCINFO  # Decay Program information
     1   SDECAY/HDECAY # decay calculator
     2   1.3b  /3.4    # version number
#
BLOCK SPINFO  # Spectrum calculator information
     1    SOFTSUSY    # spectrum calculator                
     2    3.4.0       # version number                     
#
BLOCK MODSEL  # Model selection
     1     0   #  nonUniversal                                     
#
BLOCK SMINPUTS  # Standard Model inputs
         1     1.25778332E+02   # alpha_em^-1(M_Z)^MSbar
         2     1.16570000E-05   # G_F [GeV^-2]
         3     1.17200002E-01   # alpha_S(M_Z)^MSbar
         4     9.11876000E+01   # M_Z pole mass
         5     4.25000000E+00   # mb(mb)^MSbar
         6     1.72500000E+02   # mt pole mass
         7     1.77682000E+00   # mtau pole mass
#
BLOCK MINPAR  # Input parameters - minimal models
         3     1.00000000E+01   # tanb                
#
BLOCK EXTPAR  # Input parameters - non-minimal models
         0    -1.00000000E+00   # Set                 
         1     6.00000000E+01   # M_1(MX)             
         2     3.00000000E+03   # M_2(MX)             
         3     1.03377300E+03   # M_3(MX)             
        11     5.00000000E+03   # At(MX)              
        12     5.00000000E+03   # Ab(MX)              
        13     0.00000000E+00   # Atau(MX)            
        23    -7.65059000E+02   # mu(MX)              
        26     3.00000000E+03   # mA(pole)            
        31     5.00000000E+03   # meL(MX)             
        32     5.00000000E+03   # mmuL(MX)            
        33     5.00000000E+03   # mtauL(MX)           
        34     5.00000000E+03   # meR(MX)             
        35     5.00000000E+03   # mmuR(MX)            
        36     5.00000000E+03   # mtauR(MX)           
        41     5.00000000E+03   # mqL1(MX)            
        42     5.00000000E+03   # mqL2(MX)            
        43     5.00000000E+03   # mqL3(MX)            
        44     5.00000000E+03   # muR(MX)             
        45     5.00000000E+03   # mcR(MX)             
        46     5.00000000E+03   # mtR(MX)             
        47     5.00000000E+03   # mdR(MX)             
        48     5.00000000E+03   # msR(MX)             
        49     5.00000000E+03   # mbR(MX)             
#
BLOCK MASS  # Mass Spectrum
# PDG code           mass       particle
        24     8.00928542E+01   # W+
        25     1.24515059E+02   # h
        35     3.00008250E+03   # H
        36     2.99999731E+03   # A
        37     3.00136206E+03   # H+
         5     4.87878001E+00   # b-quark pole mass calculated from mb(mb)_Msbar
   1000001     5.06528402E+03   # ~d_L
   2000001     5.04744289E+03   # ~d_R
   1000002     5.06480756E+03   # ~u_L
   2000002     5.04715095E+03   # ~u_R
   1000003     5.06528402E+03   # ~s_L
   2000003     5.04744289E+03   # ~s_R
   1000004     5.06480756E+03   # ~c_L
   2000004     5.04715095E+03   # ~c_R
   1000005     5.01138879E+03   # ~b_1
   2000005     5.04587944E+03   # ~b_2
   1000006     4.90183638E+03   # ~t_1
   2000006     5.05670383E+03   # ~t_2
   1000011     5.01908481E+03   # ~e_L
   2000011     5.00593159E+03   # ~e_R
   1000012     5.01813534E+03   # ~nu_eL
   1000013     5.01908481E+03   # ~mu_L
   2000013     5.00593159E+03   # ~mu_R
   1000014     5.01813534E+03   # ~nu_muL
   1000015     5.00468707E+03   # ~tau_1
   2000015     5.01870043E+03   # ~tau_2
   1000016     5.01758680E+03   # ~nu_tauL
   1000021     1.30000070E+03   # ~g
   1000022     6.02873238E+01   # ~chi_10
   1000023     7.99841293E+02   # ~chi_20
   1000025    -8.02074415E+02   # ~chi_30
   1000035     3.07421885E+03   # ~chi_40
   1000024     8.00000543E+02   # ~chi_1+
   1000037     3.07438642E+03   # ~chi_2+
#
BLOCK NMIX  # Neutralino Mixing Matrix
  1  1     9.98451647E-01   # N_11
  1  2     2.07780648E-04   # N_12
  1  3    -5.56032036E-02   # N_13
  1  4     1.59634181E-03   # N_14
  2  1     3.82041997E-02   # N_21
  2  2     2.14572114E-02   # N_22
  2  3     7.06385063E-01   # N_23
  2  4     7.06470218E-01   # N_24
  3  1    -4.04300929E-02   # N_31
  3  2     1.56903740E-02   # N_32
  3  3    -7.05628668E-01   # N_33
  3  4     7.07253422E-01   # N_34
  4  1    -3.92990119E-04   # N_41
  4  2     9.99646616E-01   # N_42
  4  3    -4.07536284E-03   # N_43
  4  4    -2.62655650E-02   # N_44
#
BLOCK UMIX  # Chargino Mixing Matrix U
  1  1     5.77422426E-03   # U_11
  1  2     9.99983329E-01   # U_12
  2  1    -9.99983329E-01   # U_21
  2  2     5.77422426E-03   # U_22
#
BLOCK VMIX  # Chargino Mixing Matrix V
  1  1     3.71733590E-02   # V_11
  1  2    -9.99308832E-01   # V_12
  2  1    -9.99308832E-01   # V_21
  2  2    -3.71733590E-02   # V_22
#
BLOCK STOPMIX  # Stop Mixing Matrix
  1  1    -5.08034909E-01   # cos(theta_t)
  1  2     8.61336480E-01   # sin(theta_t)
  2  1    -8.61336480E-01   # -sin(theta_t)
  2  2    -5.08034909E-01   # cos(theta_t)
#
BLOCK SBOTMIX  # Sbottom Mixing Matrix
  1  1     9.97811302E-01   # cos(theta_b)
  1  2    -6.61256803E-02   # sin(theta_b)
  2  1     6.61256803E-02   # -sin(theta_b)
  2  2     9.97811302E-01   # cos(theta_b)
#
BLOCK STAUMIX  # Stau Mixing Matrix
  1  1    -9.13628833E-02   # cos(theta_tau)
  1  2     9.95817666E-01   # sin(theta_tau)
  2  1    -9.95817666E-01   # -sin(theta_tau)
  2  2    -9.13628833E-02   # cos(theta_tau)
#
BLOCK ALPHA  # Higgs mixing
          -1.05449537E-01   # Mixing angle in the neutral Higgs boson sector
#
BLOCK HMIX Q=  5.00074064E+03  # DRbar Higgs Parameters
         1    -7.78829300E+02   # mu(Q)MSSM           
         2     9.47214755E+00   # tan                 
         3     2.41851002E+02   # higgs               
         4     8.57367604E+06   # mA^2(Q)MSSM         
#
BLOCK GAUGE Q=  5.00074064E+03  # The gauge couplings
     1     3.70862086E-01   # gprime(Q) DRbar
     2     6.32838887E-01   # g(Q) DRbar
     3     1.00479993E+00   # g3(Q) DRbar
#
BLOCK AU Q=  5.00074064E+03  # The trilinear couplings
  1  1     5.00000001E+03   # A_u(Q) DRbar
  2  2     5.00000001E+03   # A_c(Q) DRbar
  3  3     5.00000001E+03   # A_t(Q) DRbar
#
BLOCK AD Q=  5.00074064E+03  # The trilinear couplings
  1  1     5.00000000E+03   # A_d(Q) DRbar
  2  2     5.00000000E+03   # A_s(Q) DRbar
  3  3     5.00000001E+03   # A_b(Q) DRbar
#
BLOCK AE Q=  5.00074064E+03  # The trilinear couplings
  1  1     0.00000000E+00   # A_e(Q) DRbar
  2  2     6.51157933E-08   # A_mu(Q) DRbar
  3  3     6.43269664E-08   # A_tau(Q) DRbar
#
BLOCK Yu Q=  5.00074064E+03  # The Yukawa couplings
  1  1     0.00000000E+00   # y_u(Q) DRbar
  2  2     0.00000000E+00   # y_c(Q) DRbar
  3  3     8.16672446E-01   # y_t(Q) DRbar
#
BLOCK Yd Q=  5.00074064E+03  # The Yukawa couplings
  1  1     0.00000000E+00   # y_d(Q) DRbar
  2  2     0.00000000E+00   # y_s(Q) DRbar
  3  3     1.29679665E-01   # y_b(Q) DRbar
#
BLOCK Ye Q=  5.00074064E+03  # The Yukawa couplings
  1  1     0.00000000E+00   # y_e(Q) DRbar
  2  2     0.00000000E+00   # y_mu(Q) DRbar
  3  3     9.69715520E-02   # y_tau(Q) DRbar
#
BLOCK MSOFT Q=  5.00074064E+03  # The soft SUSY breaking masses at the scale Q
         1     6.00000000E+01   # M_1(Q)              
         2     3.00000000E+03   # M_2(Q)              
         3     1.03377300E+03   # M_3(Q)              
        21     8.10219256E+06   # mH1^2(Q)            
        22    -4.00553697E+04   # mH2^2(Q)            
        31     5.00000000E+03   # meL(Q)              
        32     5.00000000E+03   # mmuL(Q)             
        33     5.00000000E+03   # mtauL(Q)            
        34     5.00000000E+03   # meR(Q)              
        35     5.00000000E+03   # mmuR(Q)             
        36     5.00000000E+03   # mtauR(Q)            
        41     5.00000000E+03   # mqL1(Q)             
        42     5.00000000E+03   # mqL2(Q)             
        43     5.00000000E+03   # mqL3(Q)             
        44     5.00000000E+03   # muR(Q)              
        45     5.00000000E+03   # mcR(Q)              
        46     5.00000000E+03   # mtR(Q)              
        47     5.00000000E+03   # mdR(Q)              
        48     5.00000000E+03   # msR(Q)              
        49     5.00000000E+03   # mbR(Q)              
#
#
#
#                             =================
#                             |The decay table|
#                             =================
#
# - The QCD corrections to the decays gluino -> squark  + quark
#                                     squark -> gaugino + quark_prime
#                                     squark -> squark_prime + Higgs
#                                     squark -> gluino  + quark
#   are included.
#
# - The multi-body decays for the inos, stops and sbottoms are included.
#
# - The loop induced decays for the gluino, neutralinos and stops
#   are included.
#
# - The SUSY decays of the top quark are included.
#
#
#         PDG            Width
DECAY         6     1.40352940E+00   # top decays
#          BR         NDA      ID1       ID2
     1.00000000E+00    2           5        24   # BR(t ->  b    W+)
#
#         PDG            Width
DECAY   1000021     4.11451781E-05   # gluino decays
#          BR         NDA      ID1       ID2
     9.56879802E-06    2     1000022        21   # BR(~g -> ~chi_10 g)
     2.44542389E-02    2     1000023        21   # BR(~g -> ~chi_20 g)
     2.38045334E-02    2     1000025        21   # BR(~g -> ~chi_30 g)
#           BR         NDA      ID1       ID2       ID3
     6.31397272E-02    3     1000022         1        -1   # BR(~g -> ~chi_10 d  db)
     1.09850446E-05    3     1000023         1        -1   # BR(~g -> ~chi_20 d  db)
     7.37918826E-06    3     1000025         1        -1   # BR(~g -> ~chi_30 d  db)
     2.15282740E-01    3     1000022         2        -2   # BR(~g -> ~chi_10 u  ub)
     4.53346717E-05    3     1000023         2        -2   # BR(~g -> ~chi_20 u  ub)
     9.78759763E-06    3     1000025         2        -2   # BR(~g -> ~chi_30 u  ub)
     6.31397272E-02    3     1000022         3        -3   # BR(~g -> ~chi_10 s  sb)
     1.09850446E-05    3     1000023         3        -3   # BR(~g -> ~chi_20 s  sb)
     7.37918826E-06    3     1000025         3        -3   # BR(~g -> ~chi_30 s  sb)
     2.15282740E-01    3     1000022         4        -4   # BR(~g -> ~chi_10 c  cb)
     4.53346717E-05    3     1000023         4        -4   # BR(~g -> ~chi_20 c  cb)
     9.78759763E-06    3     1000025         4        -4   # BR(~g -> ~chi_30 c  cb)
     6.41577979E-02    3     1000022         5        -5   # BR(~g -> ~chi_10 b  bb)
     2.29873929E-03    3     1000023         5        -5   # BR(~g -> ~chi_20 b  bb)
     2.23858904E-03    3     1000025         5        -5   # BR(~g -> ~chi_30 b  bb)
     1.74287395E-01    3     1000022         6        -6   # BR(~g -> ~chi_10 t  tb)
     2.95586748E-02    3     1000023         6        -6   # BR(~g -> ~chi_20 t  tb)
     1.43223518E-02    3     1000025         6        -6   # BR(~g -> ~chi_30 t  tb)
     2.85635572E-05    3     1000024         1        -2   # BR(~g -> ~chi_1+ d  ub)
     2.85635572E-05    3    -1000024         2        -1   # BR(~g -> ~chi_1- u  db)
     2.85635572E-05    3     1000024         3        -4   # BR(~g -> ~chi_1+ s  cb)
     2.85635572E-05    3    -1000024         4        -3   # BR(~g -> ~chi_1- c  sb)
     5.38809752E-02    3     1000024         5        -6   # BR(~g -> ~chi_1+ b  tb)
     5.38809752E-02    3    -1000024         6        -5   # BR(~g -> ~chi_1- t  bb)
#
#         PDG            Width
DECAY   1000006     4.00172335E+02   # stop1 decays
#          BR         NDA      ID1       ID2
     2.20072485E-02    2     1000022         6   # BR(~t_1 -> ~chi_10 t )
     7.83117418E-02    2     1000023         6   # BR(~t_1 -> ~chi_20 t )
     7.49970590E-02    2     1000025         6   # BR(~t_1 -> ~chi_30 t )
     5.21250251E-03    2     1000035         6   # BR(~t_1 -> ~chi_40 t )
     1.13204620E-01    2     1000024         5   # BR(~t_1 -> ~chi_1+ b )
     1.03882833E-02    2     1000037         5   # BR(~t_1 -> ~chi_2+ b )
     6.95878545E-01    2     1000021         6   # BR(~t_1 -> ~g      t )
#
#         PDG            Width
DECAY   2000006     4.02061215E+02   # stop2 decays
#          BR         NDA      ID1       ID2
     8.80675219E-03    2     1000022         6   # BR(~t_2 -> ~chi_10 t )
     7.92228463E-02    2     1000023         6   # BR(~t_2 -> ~chi_20 t )
     8.28687952E-02    2     1000025         6   # BR(~t_2 -> ~chi_30 t )
     1.37027175E-02    2     1000035         6   # BR(~t_2 -> ~chi_40 t )
     4.76560906E-02    2     1000024         5   # BR(~t_2 -> ~chi_1+ b )
     2.72739966E-02    2     1000037         5   # BR(~t_2 -> ~chi_2+ b )
     7.37290827E-01    2     1000021         6   # BR(~t_2 -> ~g      t )
     7.18764920E-04    2     1000006        25   # BR(~t_2 -> ~t_1    h )
     2.45920957E-03    2     1000006        23   # BR(~t_2 -> ~t_1    Z )
#
#         PDG            Width
DECAY   1000005     3.79117333E+02   # sbottom1 decays
#          BR         NDA      ID1       ID2
     2.04237108E-03    2     1000022         5   # BR(~b_1 -> ~chi_10 b )
     2.12546385E-03    2     1000023         5   # BR(~b_1 -> ~chi_20 b )
     2.08734760E-03    2     1000025         5   # BR(~b_1 -> ~chi_30 b )
     1.98394323E-02    2     1000035         5   # BR(~b_1 -> ~chi_40 b )
     1.67155557E-01    2    -1000024         6   # BR(~b_1 -> ~chi_1- t )
     3.98462028E-02    2    -1000037         6   # BR(~b_1 -> ~chi_2- t )
     7.65402214E-01    2     1000021         5   # BR(~b_1 -> ~g      b )
     1.50141149E-03    2     1000006       -24   # BR(~b_1 -> ~t_1    W-)
#
#         PDG            Width
DECAY   2000005     2.99068108E+02   # sbottom2 decays
#          BR         NDA      ID1       ID2
     9.83471311E-03    2     1000022         5   # BR(~b_2 -> ~chi_10 b )
     2.71970099E-03    2     1000023         5   # BR(~b_2 -> ~chi_20 b )
     2.77935443E-03    2     1000025         5   # BR(~b_2 -> ~chi_30 b )
     1.12227391E-04    2     1000035         5   # BR(~b_2 -> ~chi_40 b )
     6.30951868E-03    2    -1000024         6   # BR(~b_2 -> ~chi_1- t )
     2.25384109E-04    2    -1000037         6   # BR(~b_2 -> ~chi_2- t )
     9.77985101E-01    2     1000021         5   # BR(~b_2 -> ~g      b )
     3.40003186E-05    2     1000006       -24   # BR(~b_2 -> ~t_1    W-)
#
#         PDG            Width
DECAY   1000002     3.18076130E+02   # sup_L decays
#          BR         NDA      ID1       ID2
     2.34778555E-03    2     1000022         2   # BR(~u_L -> ~chi_10 u)
     4.90106879E-05    2     1000023         2   # BR(~u_L -> ~chi_20 u)
     3.55741617E-06    2     1000025         2   # BR(~u_L -> ~chi_30 u)
     2.46032585E-02    2     1000035         2   # BR(~u_L -> ~chi_40 u)
     1.61947730E-04    2     1000024         1   # BR(~u_L -> ~chi_1+ d)
     4.91746018E-02    2     1000037         1   # BR(~u_L -> ~chi_2+ d)
     9.23659838E-01    2     1000021         2   # BR(~u_L -> ~g      u)
#
#         PDG            Width
DECAY   2000002     3.04396844E+02   # sup_R decays
#          BR         NDA      ID1       ID2
     3.90319630E-02    2     1000022         2   # BR(~u_R -> ~chi_10 u)
     5.43553732E-05    2     1000023         2   # BR(~u_R -> ~chi_20 u)
     6.08561870E-05    2     1000025         2   # BR(~u_R -> ~chi_30 u)
     2.39819034E-09    2     1000035         2   # BR(~u_R -> ~chi_40 u)
     9.60852823E-01    2     1000021         2   # BR(~u_R -> ~g      u)
#
#         PDG            Width
DECAY   1000001     3.18086350E+02   # sdown_L decays
#          BR         NDA      ID1       ID2
     2.33794814E-03    2     1000022         1   # BR(~d_L -> ~chi_10 d)
     1.14768512E-05    2     1000023         1   # BR(~d_L -> ~chi_20 d)
     3.25974470E-05    2     1000025         1   # BR(~d_L -> ~chi_30 d)
     2.46177100E-02    2     1000035         1   # BR(~d_L -> ~chi_40 d)
     3.90777676E-06    2    -1000024         2   # BR(~d_L -> ~chi_1- u)
     4.92547992E-02    2    -1000037         2   # BR(~d_L -> ~chi_2- u)
     9.23741561E-01    2     1000021         1   # BR(~d_L -> ~g      d)
#
#         PDG            Width
DECAY   2000001     2.95481536E+02   # sdown_R decays
#          BR         NDA      ID1       ID2
     1.00529945E-02    2     1000022         1   # BR(~d_R -> ~chi_10 d)
     1.39997432E-05    2     1000023         1   # BR(~d_R -> ~chi_20 d)
     1.56740902E-05    2     1000025         1   # BR(~d_R -> ~chi_30 d)
     6.17756700E-10    2     1000035         1   # BR(~d_R -> ~chi_40 d)
     9.89917331E-01    2     1000021         1   # BR(~d_R -> ~g      d)
#
#         PDG            Width
DECAY   1000004     3.18076130E+02   # scharm_L decays
#          BR         NDA      ID1       ID2
     2.34778555E-03    2     1000022         4   # BR(~c_L -> ~chi_10 c)
     4.90106879E-05    2     1000023         4   # BR(~c_L -> ~chi_20 c)
     3.55741617E-06    2     1000025         4   # BR(~c_L -> ~chi_30 c)
     2.46032585E-02    2     1000035         4   # BR(~c_L -> ~chi_40 c)
     1.61947730E-04    2     1000024         3   # BR(~c_L -> ~chi_1+ s)
     4.91746018E-02    2     1000037         3   # BR(~c_L -> ~chi_2+ s)
     9.23659838E-01    2     1000021         4   # BR(~c_L -> ~g      c)
#
#         PDG            Width
DECAY   2000004     3.04396844E+02   # scharm_R decays
#          BR         NDA      ID1       ID2
     3.90319630E-02    2     1000022         4   # BR(~c_R -> ~chi_10 c)
     5.43553732E-05    2     1000023         4   # BR(~c_R -> ~chi_20 c)
     6.08561870E-05    2     1000025         4   # BR(~c_R -> ~chi_30 c)
     2.39819034E-09    2     1000035         4   # BR(~c_R -> ~chi_40 c)
     9.60852823E-01    2     1000021         4   # BR(~c_R -> ~g      c)
#
#         PDG            Width
DECAY   1000003     3.18086350E+02   # sstrange_L decays
#          BR         NDA      ID1       ID2
     2.33794814E-03    2     1000022         3   # BR(~s_L -> ~chi_10 s)
     1.14768512E-05    2     1000023         3   # BR(~s_L -> ~chi_20 s)
     3.25974470E-05    2     1000025         3   # BR(~s_L -> ~chi_30 s)
     2.46177100E-02    2     1000035         3   # BR(~s_L -> ~chi_40 s)
     3.90777676E-06    2    -1000024         4   # BR(~s_L -> ~chi_1- c)
     4.92547992E-02    2    -1000037         4   # BR(~s_L -> ~chi_2- c)
     9.23741561E-01    2     1000021         3   # BR(~s_L -> ~g      s)
#
#         PDG            Width
DECAY   2000003     2.95481536E+02   # sstrange_R decays
#          BR         NDA      ID1       ID2
     1.00529945E-02    2     1000022         3   # BR(~s_R -> ~chi_10 s)
     1.39997432E-05    2     1000023         3   # BR(~s_R -> ~chi_20 s)
     1.56740902E-05    2     1000025         3   # BR(~s_R -> ~chi_30 s)
     6.17756700E-10    2     1000035         3   # BR(~s_R -> ~chi_40 s)
     9.89917331E-01    2     1000021         3   # BR(~s_R -> ~g      s)
#
#         PDG            Width
DECAY   1000011     3.02945079E+01   # selectron_L decays
#          BR         NDA      ID1       ID2
     2.26059513E-01    2     1000022        11   # BR(~e_L -> ~chi_10 e-)
     1.20521235E-03    2     1000023        11   # BR(~e_L -> ~chi_20 e-)
     4.01389281E-05    2     1000025        11   # BR(~e_L -> ~chi_30 e-)
     2.57378845E-01    2     1000035        11   # BR(~e_L -> ~chi_40 e-)
     4.18034479E-05    2    -1000024        12   # BR(~e_L -> ~chi_1- nu_e)
     5.15274486E-01    2    -1000037        12   # BR(~e_L -> ~chi_2- nu_e)
#
#         PDG            Width
DECAY   2000011     2.73827037E+01   # selectron_R decays
#          BR         NDA      ID1       ID2
     9.97060898E-01    2     1000022        11   # BR(~e_R -> ~chi_10 e-)
     1.38660716E-03    2     1000023        11   # BR(~e_R -> ~chi_20 e-)
     1.55243510E-03    2     1000025        11   # BR(~e_R -> ~chi_30 e-)
     5.99433761E-08    2     1000035        11   # BR(~e_R -> ~chi_40 e-)
#
#         PDG            Width
DECAY   1000013     3.02945079E+01   # smuon_L decays
#          BR         NDA      ID1       ID2
     2.26059513E-01    2     1000022        13   # BR(~mu_L -> ~chi_10 mu-)
     1.20521235E-03    2     1000023        13   # BR(~mu_L -> ~chi_20 mu-)
     4.01389281E-05    2     1000025        13   # BR(~mu_L -> ~chi_30 mu-)
     2.57378845E-01    2     1000035        13   # BR(~mu_L -> ~chi_40 mu-)
     4.18034479E-05    2    -1000024        14   # BR(~mu_L -> ~chi_1- nu_mu)
     5.15274486E-01    2    -1000037        14   # BR(~mu_L -> ~chi_2- nu_mu)
#
#         PDG            Width
DECAY   2000013     2.73827037E+01   # smuon_R decays
#          BR         NDA      ID1       ID2
     9.97060898E-01    2     1000022        13   # BR(~mu_R -> ~chi_10 mu-)
     1.38660716E-03    2     1000023        13   # BR(~mu_R -> ~chi_20 mu-)
     1.55243510E-03    2     1000025        13   # BR(~mu_R -> ~chi_30 mu-)
     5.99433761E-08    2     1000035        13   # BR(~mu_R -> ~chi_40 mu-)
#
#         PDG            Width
DECAY   1000015     2.91754870E+01   # stau_1 decays
#          BR         NDA      ID1       ID2
     9.30679359E-01    2     1000022        15   # BR(~tau_1 -> ~chi_10  tau-)
     1.64880519E-02    2     1000023        15   # BR(~tau_1 -> ~chi_20  tau-)
     1.59027647E-02    2     1000025        15   # BR(~tau_1 -> ~chi_30  tau-)
     2.16672547E-03    2     1000035        15   # BR(~tau_1 -> ~chi_40  tau-)
     3.04255107E-02    2    -1000024        16   # BR(~tau_1 -> ~chi_1-  nu_tau)
     4.33758789E-03    2    -1000037        16   # BR(~tau_1 -> ~chi_2-  nu_tau)
#
#         PDG            Width
DECAY   2000015     3.11567994E+01   # stau_2 decays
#          BR         NDA      ID1       ID2
     2.24555848E-01    2     1000022        15   # BR(~tau_2 -> ~chi_10  tau-)
     1.54707936E-02    2     1000023        15   # BR(~tau_2 -> ~chi_20  tau-)
     1.49653856E-02    2     1000025        15   # BR(~tau_2 -> ~chi_30  tau-)
     2.48142049E-01    2     1000035        15   # BR(~tau_2 -> ~chi_40  tau-)
     8.29565520E-05    2    -1000024        16   # BR(~tau_2 -> ~chi_1-  nu_tau)
     4.96782967E-01    2    -1000037        16   # BR(~tau_2 -> ~chi_2-  nu_tau)
#
#         PDG            Width
DECAY   1000012     3.02975176E+01   # snu_eL decays
#          BR         NDA      ID1       ID2
     2.25673492E-01    2     1000022        12   # BR(~nu_eL -> ~chi_10 nu_e)
     5.43873053E-07    2     1000023        12   # BR(~nu_eL -> ~chi_20 nu_e)
     9.71793400E-04    2     1000025        12   # BR(~nu_eL -> ~chi_30 nu_e)
     2.57424791E-01    2     1000035        12   # BR(~nu_eL -> ~chi_40 nu_e)
     1.73202654E-03    2     1000024        11   # BR(~nu_eL -> ~chi_1+ e-)
     5.14197353E-01    2     1000037        11   # BR(~nu_eL -> ~chi_2+ e-)
#
#         PDG            Width
DECAY   1000014     3.02975176E+01   # snu_muL decays
#          BR         NDA      ID1       ID2
     2.25673492E-01    2     1000022        14   # BR(~nu_muL -> ~chi_10 nu_mu)
     5.43873053E-07    2     1000023        14   # BR(~nu_muL -> ~chi_20 nu_mu)
     9.71793400E-04    2     1000025        14   # BR(~nu_muL -> ~chi_30 nu_mu)
     2.57424791E-01    2     1000035        14   # BR(~nu_muL -> ~chi_40 nu_mu)
     1.73202654E-03    2     1000024        13   # BR(~nu_muL -> ~chi_1+ mu-)
     5.14197353E-01    2     1000037        13   # BR(~nu_muL -> ~chi_2+ mu-)
#
#         PDG            Width
DECAY   1000016     3.11796203E+01   # snu_tauL decays
#          BR         NDA      ID1       ID2
     2.19264979E-01    2     1000022        16   # BR(~nu_tauL -> ~chi_10 nu_tau)
     5.28422547E-07    2     1000023        16   # BR(~nu_tauL -> ~chi_20 nu_tau)
     9.44186345E-04    2     1000025        16   # BR(~nu_tauL -> ~chi_30 nu_tau)
     2.50048934E-01    2     1000035        16   # BR(~nu_tauL -> ~chi_40 nu_tau)
     3.02776130E-02    2     1000024        15   # BR(~nu_tauL -> ~chi_1+ tau-)
     4.99463760E-01    2     1000037        15   # BR(~nu_tauL -> ~chi_2+ tau-)
#
#         PDG            Width
DECAY   1000024     4.83527574E-01   # chargino1+ decays
#          BR         NDA      ID1       ID2
     1.00000000E+00    2     1000022        24   # BR(~chi_1+ -> ~chi_10  W+)
#
#         PDG            Width
DECAY   1000037     2.11232888E+01   # chargino2+ decays
#          BR         NDA      ID1       ID2
     2.53370620E-01    2     1000024        23   # BR(~chi_2+ -> ~chi_1+  Z )
     1.84736798E-04    2     1000022        24   # BR(~chi_2+ -> ~chi_10  W+)
     2.44430756E-01    2     1000023        24   # BR(~chi_2+ -> ~chi_20  W+)
     2.44247418E-01    2     1000025        24   # BR(~chi_2+ -> ~chi_30  W+)
     2.57764546E-01    2     1000024        25   # BR(~chi_2+ -> ~chi_1+  h )
     1.92391871E-06    2     1000022        37   # BR(~chi_2+ -> ~chi_10  H+)
#
#         PDG            Width
DECAY   1000022     0.00000000E+00   # neutralino1 decays
#
#         PDG            Width
DECAY   1000023     5.01877935E-01   # neutralino2 decays
#          BR         NDA      ID1       ID2
     5.29395018E-01    2     1000022        23   # BR(~chi_20 -> ~chi_10   Z )
     4.70604982E-01    2     1000022        25   # BR(~chi_20 -> ~chi_10   h )
#
#         PDG            Width
DECAY   1000025     5.01677731E-01   # neutralino3 decays
#          BR         NDA      ID1       ID2
     4.69539824E-01    2     1000022        23   # BR(~chi_30 -> ~chi_10   Z )
     5.30460176E-01    2     1000022        25   # BR(~chi_30 -> ~chi_10   h )
#
#         PDG            Width
DECAY   1000035     2.11390422E+01   # neutralino4 decays
#          BR         NDA      ID1       ID2
     3.18606113E-05    2     1000022        23   # BR(~chi_40 -> ~chi_10   Z )
     8.82287722E-02    2     1000023        23   # BR(~chi_40 -> ~chi_20   Z )
     1.64481839E-01    2     1000025        23   # BR(~chi_40 -> ~chi_30   Z )
     2.44968025E-01    2     1000024       -24   # BR(~chi_40 -> ~chi_1+   W-)
     2.44968025E-01    2    -1000024        24   # BR(~chi_40 -> ~chi_1-   W+)
     1.51445122E-04    2     1000022        25   # BR(~chi_40 -> ~chi_10   h )
     1.83246740E-06    2     1000022        35   # BR(~chi_40 -> ~chi_10   H )
     2.13822384E-07    2     1000022        36   # BR(~chi_40 -> ~chi_10   A )
     1.68701860E-01    2     1000023        25   # BR(~chi_40 -> ~chi_20   h )
     8.84661278E-02    2     1000025        25   # BR(~chi_40 -> ~chi_30   h )
#
#         PDG            Width
DECAY        25     4.04055284E-03   # h decays
#          BR         NDA      ID1       ID2
     6.13743480E-01    2           5        -5   # BR(h -> b       bb     )
     6.40602592E-02    2         -15        15   # BR(h -> tau+    tau-   )
     2.26797752E-04    2         -13        13   # BR(h -> mu+     mu-    )
     4.80991925E-04    2           3        -3   # BR(h -> s       sb     )
     2.08418704E-02    2           4        -4   # BR(h -> c       cb     )
     6.71206261E-02    2          21        21   # BR(h -> g       g      )
     2.30159659E-03    2          22        22   # BR(h -> gam     gam    )
     1.46240652E-03    2          22        23   # BR(h -> Z       gam    )
     2.05341538E-01    2          24       -24   # BR(h -> W+      W-     )
     2.43545781E-02    2          23        23   # BR(h -> Z       Z      )
     6.58558005E-05    2     1000022   1000022   # BR(h -> ~chi_10 ~chi_10)
#
#         PDG            Width
DECAY        35     8.36768665E+00   # H decays
#          BR         NDA      ID1       ID2
     3.84122241E-01    2           5        -5   # BR(H -> b       bb     )
     6.66113322E-02    2         -15        15   # BR(H -> tau+    tau-   )
     2.35542962E-04    2         -13        13   # BR(H -> mu+     mu-    )
     2.88739601E-04    2           3        -3   # BR(H -> s       sb     )
     1.61357954E-06    2           4        -4   # BR(H -> c       cb     )
     1.61209376E-01    2           6        -6   # BR(H -> t       tb     )
     5.35711355E-05    2          21        21   # BR(H -> g       g      )
     2.09430512E-07    2          22        22   # BR(H -> gam     gam    )
     9.51057462E-08    2          23        22   # BR(H -> Z       gam    )
     7.48329037E-05    2          24       -24   # BR(H -> W+      W-     )
     3.73690827E-05    2          23        23   # BR(H -> Z       Z      )
     2.76841916E-04    2          25        25   # BR(H -> h       h      )
    -1.34633049E-23    2          36        36   # BR(H -> A       A      )
     8.98842664E-19    2          23        36   # BR(H -> Z       A      )
     2.57840884E-03    2     1000024  -1000024   # BR(H -> ~chi_1+ ~chi_1-)
     2.69917954E-03    2     1000022   1000022   # BR(H -> ~chi_10 ~chi_10)
     4.85448937E-07    2     1000023   1000023   # BR(H -> ~chi_20 ~chi_20)
     1.01794685E-03    2     1000025   1000025   # BR(H -> ~chi_30 ~chi_30)
     2.28961962E-01    2     1000022   1000023   # BR(H -> ~chi_10 ~chi_20)
     1.50767380E-01    2     1000022   1000025   # BR(H -> ~chi_10 ~chi_30)
     1.06287098E-03    2     1000023   1000025   # BR(H -> ~chi_20 ~chi_30)
#
#         PDG            Width
DECAY        36     8.37964095E+00   # A decays
#          BR         NDA      ID1       ID2
     3.83704592E-01    2           5        -5   # BR(A -> b       bb     )
     6.65182572E-02    2         -15        15   # BR(A -> tau+    tau-   )
     2.35213512E-04    2         -13        13   # BR(A -> mu+     mu-    )
     2.88546402E-04    2           3        -3   # BR(A -> s       sb     )
     1.61784339E-06    2           4        -4   # BR(A -> c       cb     )
     1.61546186E-01    2           6        -6   # BR(A -> t       tb     )
     1.59897432E-04    2          21        21   # BR(A -> g       g      )
     5.95966889E-07    2          22        22   # BR(A -> gam     gam    )
     1.93531392E-07    2          23        22   # BR(A -> Z       gam    )
     7.44450560E-05    2          23        25   # BR(A -> Z       h      )
     3.36960967E-03    2     1000024  -1000024   # BR(A -> ~chi_1+ ~chi_1-)
     2.73273801E-03    2     1000022   1000022   # BR(A -> ~chi_10 ~chi_10)
     4.43088950E-07    2     1000023   1000023   # BR(A -> ~chi_20 ~chi_20)
     2.17836526E-03    2     1000025   1000025   # BR(A -> ~chi_30 ~chi_30)
     1.53064935E-01    2     1000022   1000023   # BR(A -> ~chi_10 ~chi_20)
     2.25635576E-01    2     1000022   1000025   # BR(A -> ~chi_10 ~chi_30)
     4.88788874E-04    2     1000023   1000025   # BR(A -> ~chi_20 ~chi_30)
#
#         PDG            Width
DECAY        37     8.32137891E+00   # H+ decays
#          BR         NDA      ID1       ID2
     6.15339206E-04    2           4        -5   # BR(H+ -> c       bb     )
     6.70144562E-02    2         -15        16   # BR(H+ -> tau+    nu_tau )
     2.36968109E-04    2         -13        14   # BR(H+ -> mu+     nu_mu  )
     3.93815038E-06    2           2        -5   # BR(H+ -> u       bb     )
     1.39045016E-05    2           2        -3   # BR(H+ -> u       sb     )
     2.87544426E-04    2           4        -3   # BR(H+ -> c       sb     )
     5.43893998E-01    2           6        -5   # BR(H+ -> t       bb     )
     7.51169931E-05    2          24        25   # BR(H+ -> W+      h      )
     7.47640762E-13    2          24        36   # BR(H+ -> W+      A      )
     3.86391240E-01    2     1000024   1000022   # BR(H+ -> ~chi_1+ ~chi_10)
     1.44329983E-03    2     1000024   1000023   # BR(H+ -> ~chi_1+ ~chi_20)
     2.41951272E-05    2     1000024   1000025   # BR(H+ -> ~chi_1+ ~chi_30)
