#
#                              ======================
#                              | THE SUSYHIT OUTPUT |
#                              ======================
#
#
#              ------------------------------------------------------
#              |     This is the output of the SUSY-HIT package     |
#              |  created by A.Djouadi, M.Muehlleitner and M.Spira. |
#              |  In case of problems with SUSY-HIT email to        |
#              |           margarete.muehlleitner@kit.edu           |
#              |           michael.spira@psi.ch                     |
#              |           abdelhak.djouadi@cern.ch                 |
#              ------------------------------------------------------
#
#              ------------------------------------------------------
#              |  SUSY Les Houches Accord - MSSM Spectrum + Decays  |
#              |              based on the decay programs           |
#              |                                                    |
#              |                     SDECAY 1.5a                    |
#              |                                                    |
#              |  Authors: M.Muhlleitner, A.Djouadi and Y.Mambrini  |
#              |  Ref.:    Comput.Phys.Commun.168(2005)46           |
#              |           [hep-ph/0311167]                         |
#              |                                                    |
#              |                     HDECAY 3.4                     |
#              |                                                    |
#              |  By: A.Djouadi,J.Kalinowski,M.Muhlleitner,M.Spira  |
#              |  Ref.:    Comput.Phys.Commun.108(1998)56           |
#              |           [hep-ph/9704448]                         |
#              |                                                    |
#              |                                                    |
#              |  If not stated otherwise all DRbar couplings and   |
#              |  soft SUSY breaking masses are given at the scale  |
#              |  Q=  0.91187600E+02
#              |                                                    |
#              ------------------------------------------------------
#
#
BLOCK DCINFO  # Decay Program information
     1   SDECAY/HDECAY # decay calculator
     2   1.5a /3.4    # version number
#
BLOCK SPINFO  # Spectrum calculator information
     1   SuSpect     # RGE +Spectrum calculator            
     2   2.43         # version number                     
#
BLOCK MODSEL  # Model selection
     1     2   # GMSB                                              
#
BLOCK SMINPUTS  # Standard Model inputs
         1     1.27932904E+02   # alpha_em^-1(M_Z)^MSbar
         2     1.16639000E-05   # G_F [GeV^-2]
         3     1.17200000E-01   # alpha_S(M_Z)^MSbar
         4     9.11870000E+01   # M_Z pole mass
         5     4.25000000E+00   # mb(mb)^MSbar
         6     1.72900000E+02   # mt pole mass
         7     1.77700000E+00   # mtau pole mass
#
BLOCK MINPAR  # Input parameters - minimal models
#
BLOCK EXTPAR  # Input parameters - non-minimal models
         0     9.11876000E+01   # EWSB                
         1     2.23000000E+03   # M_1                 
         2     3.00000000E+03   # M_2                 
         3     2.60000000E+03   # M_3                 
        11     0.00000000E+00   # A_t                 
        12     0.00000000E+00   # A_b                 
        13     0.00000000E+00   # A_tau               
        14     0.00000000E+00   # A_u                 
        15     0.00000000E+00   # A_d                 
        16     0.00000000E+00   # A_e                 
        23     2.25000000E+03   # mu(EWSB)            
        25     1.50000000E+00   # tanbeta(in)         
        26     2.00000000E+03   # MA_pole             
        31     5.00000000E+03   # M_eL                
        32     5.00000000E+03   # M_muL               
        33     5.00000000E+03   # M_tauL              
        34     5.00000000E+03   # M_eR                
        35     5.00000000E+03   # M_muR               
        36     5.00000000E+03   # M_tauR              
        41     5.00000000E+03   # M_q1L               
        42     5.00000000E+03   # M_q2L               
        43     5.00000000E+03   # M_q3L               
        44     5.00000000E+03   # M_uR                
        45     5.00000000E+03   # M_cR                
        46     5.00000000E+03   # M_tR                
        47     5.00000000E+03   # M_dR                
        48     5.00000000E+03   # M_sR                
        49     5.00000000E+03   # M_bR                
#
BLOCK MASS  # Mass Spectrum
# PDG code           mass       particle
        24     8.05424336E+01   # W+
        25     1.25000000E+02   # h
        35     2.00398168E+03   # H
        36     2.00000000E+03   # A
        37     2.00152381E+03   # H+
         5     4.87877839E+00   # b-quark pole mass calculated from mb(mb)_Msbar
   1000001     5.00013292E+03   # ~d_L
   2000001     5.00002540E+03   # ~d_R
   1000002     4.99989247E+03   # ~u_L
   2000002     4.99994921E+03   # ~u_R
   1000003     5.00013292E+03   # ~s_L
   2000003     5.00002540E+03   # ~s_R
   1000004     4.99989247E+03   # ~c_L
   2000004     4.99994921E+03   # ~c_R
   1000005     4.99917262E+03   # ~b_1
   2000005     5.00098698E+03   # ~b_2
   1000006     4.97937597E+03   # ~t_1
   2000006     5.02498800E+03   # ~t_2
   1000011     5.00008213E+03   # ~e_L
   2000011     5.00007619E+03   # ~e_R
   1000012     4.99984167E+03   # ~nu_eL
   1000013     5.00008213E+03   # ~mu_L
   2000013     5.00007619E+03   # ~mu_R
   1000014     4.99984167E+03   # ~nu_muL
   1000015     4.99947905E+03   # ~tau_1
   2000015     5.00067983E+03   # ~tau_2
   1000016     4.99984167E+03   # ~nu_tauL
   1000021     2.60000000E+03   # ~g
   1000022     2.19219968E+03   # ~chi_10
   1000023    -2.25006283E+03   # ~chi_20
   1000025     2.27986080E+03   # ~chi_30
   1000035     3.00800235E+03   # ~chi_40
   1000024     2.24211444E+03   # ~chi_1+
   1000037     3.00797716E+03   # ~chi_2+
   1000039     1.00000000E-09   # ~gravitino
#
BLOCK NMIX  # Neutralino Mixing Matrix
  1  1     7.54234458E-01   # N_11
  1  2    -6.27006926E-02   # N_12
  1  3     4.63369407E-01   # N_13
  1  4    -4.60963988E-01   # N_14
  2  1     1.94898658E-03   # N_21
  2  2    -2.95462928E-03   # N_22
  2  3    -7.07052988E-01   # N_23
  2  4    -7.07151712E-01   # N_24
  3  1     6.56577043E-01   # N_31
  3  2     8.07612503E-02   # N_32
  3  3    -5.29575924E-01   # N_33
  3  4     5.30974150E-01   # N_34
  4  1     5.75940960E-03   # N_41
  4  2    -9.94755002E-01   # N_42
  4  3    -7.01013987E-02   # N_43
  4  4     7.42637822E-02   # N_44
#
BLOCK UMIX  # Chargino Mixing Matrix U
  1  1    -9.88262679E-02   # U_11
  1  2     9.95104702E-01   # U_12
  2  1     9.95104702E-01   # U_21
  2  2     9.88262679E-02   # U_22
#
BLOCK VMIX  # Chargino Mixing Matrix V
  1  1    -1.04702827E-01   # V_11
  1  2     9.94503553E-01   # V_12
  2  1     9.94503553E-01   # V_21
  2  2     1.04702827E-01   # V_22
#
BLOCK STOPMIX  # Stop Mixing Matrix
  1  1     7.07546249E-01   # cos(theta_t)
  1  2     7.06667040E-01   # sin(theta_t)
  2  1    -7.06667040E-01   # -sin(theta_t)
  2  2     7.07546249E-01   # cos(theta_t)
#
BLOCK SBOTMIX  # Sbottom Mixing Matrix
  1  1     6.85833260E-01   # cos(theta_b)
  1  2     7.27758710E-01   # sin(theta_b)
  2  1    -7.27758710E-01   # -sin(theta_b)
  2  2     6.85833260E-01   # cos(theta_b)
#
BLOCK STAUMIX  # Stau Mixing Matrix
  1  1     7.05353911E-01   # cos(theta_tau)
  1  2     7.08855317E-01   # sin(theta_tau)
  2  1    -7.08855317E-01   # -sin(theta_tau)
  2  2     7.05353911E-01   # cos(theta_tau)
#
BLOCK ALPHA  # Higgs mixing
          -5.90191576E-01   # Mixing angle in the neutral Higgs boson sector
#
BLOCK HMIX Q=  9.11876000E+01  # DRbar Higgs Parameters
         1     2.25000000E+03   # mu(Q)               
         2     1.49999979E+00   # tanbeta(Q)          
         3     2.52390558E+02   # vev(Q)              
         4     2.85147205E+06   # MA^2(Q)             
#
BLOCK GAUGE Q=  9.11876000E+01  # The gauge couplings
     1     3.52685673E-01   # gprime(Q) DRbar
     2     6.26559562E-01   # g(Q) DRbar
     3     1.07628135E+00   # g3(Q) DRbar
#
BLOCK AU Q=  9.11876000E+01  # The trilinear couplings
  1  1     0.00000000E+00   # A_u(Q) DRbar
  2  2     0.00000000E+00   # A_c(Q) DRbar
  3  3     0.00000000E+00   # A_t(Q) DRbar
#
BLOCK AD Q=  9.11876000E+01  # The trilinear couplings
  1  1     0.00000000E+00   # A_d(Q) DRbar
  2  2     0.00000000E+00   # A_s(Q) DRbar
  3  3     0.00000000E+00   # A_b(Q) DRbar
#
BLOCK AE Q=  9.11876000E+01  # The trilinear couplings
  1  1     0.00000000E+00   # A_e(Q) DRbar
  2  2     0.00000000E+00   # A_mu(Q) DRbar
  3  3     0.00000000E+00   # A_tau(Q) DRbar
#
BLOCK Yu Q=  9.11876000E+01  # The Yukawa couplings
  1  1     0.00000000E+00   # y_u(Q) DRbar
  2  2     0.00000000E+00   # y_c(Q) DRbar
  3  3     1.02432927E+00   # y_t(Q) DRbar
#
BLOCK Yd Q=  9.11876000E+01  # The Yukawa couplings
  1  1     0.00000000E+00   # y_d(Q) DRbar
  2  2     0.00000000E+00   # y_s(Q) DRbar
  3  3     2.71047539E-02   # y_b(Q) DRbar
#
BLOCK Ye Q=  9.11876000E+01  # The Yukawa couplings
  1  1     0.00000000E+00   # y_e(Q) DRbar
  2  2     0.00000000E+00   # y_mu(Q) DRbar
  3  3     1.79699086E-02   # y_tau(Q) DRbar
#
BLOCK MSOFT Q=  9.11876000E+01  # The soft SUSY breaking masses at the scale Q
         1     2.23000000E+03   # M_1                 
         2     3.00000000E+03   # M_2                 
         3     2.60000000E+03   # M_3                 
        14     0.00000000E+00   # A_u                 
        15     0.00000000E+00   # A_d                 
        16     0.00000000E+00   # A_e                 
        21    -2.61376006E+06   # M^2_Hd              
        22    -9.98566014E+06   # M^2_Hu              
        31     5.00000000E+03   # M_eL                
        32     5.00000000E+03   # M_muL               
        33     5.00000000E+03   # M_tauL              
        34     5.00000000E+03   # M_eR                
        35     5.00000000E+03   # M_muR               
        36     5.00000000E+03   # M_tauR              
        41     5.00000000E+03   # M_q1L               
        42     5.00000000E+03   # M_q2L               
        43     5.00000000E+03   # M_q3L               
        44     5.00000000E+03   # M_uR                
        45     5.00000000E+03   # M_cR                
        46     5.00000000E+03   # M_tR                
        47     5.00000000E+03   # M_dR                
        48     5.00000000E+03   # M_sR                
        49     5.00000000E+03   # M_bR                
#
#
#
#                             =================
#                             |The decay table|
#                             =================
#
# - The QCD corrections to the decays gluino -> squark  + quark
#                                     squark -> gaugino + quark_prime
#                                     squark -> squark_prime + Higgs
#                                     squark -> gluino  + quark
#   are included.
#
# - The multi-body decays for the inos, stops and sbottoms are included.
#
# - The loop induced decays for the gluino, neutralinos and stops
#   are included.
#
# - The SUSY decays of the top quark are included.
#
# - Possible decays of the NLSP in GMSB models are included.
#
#
#         PDG            Width
DECAY         6     1.36773857E+00   # top decays
#          BR         NDA      ID1       ID2
     1.00000000E+00    2           5        24   # BR(t ->  b    W+)
#
#         PDG            Width
DECAY   1000021     1.43179872E-04   # gluino decays
#          BR         NDA      ID1       ID2
     6.55390788E-03    2     1000022        21   # BR(~g -> ~chi_10 g)
     9.98570981E-03    2     1000023        21   # BR(~g -> ~chi_20 g)
     4.47300862E-03    2     1000025        21   # BR(~g -> ~chi_30 g)
#          BR         NDA      ID1       ID2
     0.00000000E+00    2     1000039        21   # BR(~g -> ~G      g)
#           BR         NDA      ID1       ID2       ID3
     9.24949984E-04    3     1000022         1        -1   # BR(~g -> ~chi_10 d  db)
     1.44628663E-08    3     1000023         1        -1   # BR(~g -> ~chi_20 d  db)
     1.52991844E-04    3     1000025         1        -1   # BR(~g -> ~chi_30 d  db)
     2.48057412E-03    3     1000022         2        -2   # BR(~g -> ~chi_10 u  ub)
     1.10657964E-08    3     1000023         2        -2   # BR(~g -> ~chi_20 u  ub)
     6.96217041E-04    3     1000025         2        -2   # BR(~g -> ~chi_30 u  ub)
     9.24949984E-04    3     1000022         3        -3   # BR(~g -> ~chi_10 s  sb)
     1.44628663E-08    3     1000023         3        -3   # BR(~g -> ~chi_20 s  sb)
     1.52991844E-04    3     1000025         3        -3   # BR(~g -> ~chi_30 s  sb)
     2.48057412E-03    3     1000022         4        -4   # BR(~g -> ~chi_10 c  cb)
     1.10657964E-08    3     1000023         4        -4   # BR(~g -> ~chi_20 c  cb)
     6.96217041E-04    3     1000025         4        -4   # BR(~g -> ~chi_30 c  cb)
     9.26590652E-04    3     1000022         5        -5   # BR(~g -> ~chi_10 b  bb)
     1.39525096E-05    3     1000023         5        -5   # BR(~g -> ~chi_20 b  bb)
     1.60358442E-04    3     1000025         5        -5   # BR(~g -> ~chi_30 b  bb)
     1.03505999E-03    3     1000022         6        -6   # BR(~g -> ~chi_10 t  tb)
     2.71547633E-06    3     1000023         6        -6   # BR(~g -> ~chi_20 t  tb)
     8.56223129E-05    3     1000024         1        -2   # BR(~g -> ~chi_1+ d  ub)
     8.56223129E-05    3    -1000024         2        -1   # BR(~g -> ~chi_1- u  db)
     8.56223129E-05    3     1000024         3        -4   # BR(~g -> ~chi_1+ s  cb)
     8.56223129E-05    3    -1000024         4        -3   # BR(~g -> ~chi_1- c  sb)
     6.31380969E-03    3     1000024         5        -6   # BR(~g -> ~chi_1+ b  tb)
     6.31380969E-03    3    -1000024         6        -5   # BR(~g -> ~chi_1- t  bb)
#
#         PDG            Width
DECAY   1000006     2.32581072E+02   # stop1 decays
#          BR         NDA      ID1       ID2
     7.23030906E-02    2     1000022         6   # BR(~t_1 -> ~chi_10 t )
     1.00733333E-01    2     1000023         6   # BR(~t_1 -> ~chi_20 t )
     4.49251645E-02    2     1000025         6   # BR(~t_1 -> ~chi_30 t )
     1.22307807E-02    2     1000035         6   # BR(~t_1 -> ~chi_40 t )
     1.12189201E-01    2     1000024         5   # BR(~t_1 -> ~chi_1+ b )
     2.35412579E-02    2     1000037         5   # BR(~t_1 -> ~chi_2+ b )
     6.34077173E-01    2     1000021         6   # BR(~t_1 -> ~g      t )
#
#         PDG            Width
DECAY   2000006     2.21443476E+02   # stop2 decays
#          BR         NDA      ID1       ID2
     2.99502700E-02    2     1000022         6   # BR(~t_2 -> ~chi_10 t )
     1.00057017E-01    2     1000023         6   # BR(~t_2 -> ~chi_20 t )
     8.37340251E-02    2     1000025         6   # BR(~t_2 -> ~chi_30 t )
     2.35329251E-02    2     1000035         6   # BR(~t_2 -> ~chi_40 t )
     8.79468670E-02    2     1000024         5   # BR(~t_2 -> ~chi_1+ b )
     4.58449640E-02    2     1000037         5   # BR(~t_2 -> ~chi_2+ b )
     6.28933932E-01    2     1000021         6   # BR(~t_2 -> ~g      t )
#
#         PDG            Width
DECAY   1000005     1.75795851E+02   # sbottom1 decays
#          BR         NDA      ID1       ID2
     5.23160299E-03    2     1000022         5   # BR(~b_1 -> ~chi_10 b )
     8.11613112E-05    2     1000023         5   # BR(~b_1 -> ~chi_20 b )
     1.78589865E-03    2     1000025         5   # BR(~b_1 -> ~chi_30 b )
     1.96540472E-02    2     1000035         5   # BR(~b_1 -> ~chi_40 b )
     1.16329063E-01    2    -1000024         6   # BR(~b_1 -> ~chi_1- t )
     4.05458489E-02    2    -1000037         6   # BR(~b_1 -> ~chi_2- t )
     8.16372377E-01    2     1000021         5   # BR(~b_1 -> ~g      b )
#
#         PDG            Width
DECAY   2000005     1.82063776E+02   # sbottom2 decays
#          BR         NDA      ID1       ID2
     3.24340396E-03    2     1000022         5   # BR(~b_2 -> ~chi_10 b )
     9.78265283E-05    2     1000023         5   # BR(~b_2 -> ~chi_20 b )
     2.43024161E-03    2     1000025         5   # BR(~b_2 -> ~chi_30 b )
     2.29556300E-02    2     1000035         5   # BR(~b_2 -> ~chi_40 b )
     1.36205684E-01    2    -1000024         6   # BR(~b_2 -> ~chi_1- t )
     4.73653959E-02    2    -1000037         6   # BR(~b_2 -> ~chi_2- t )
     7.87701818E-01    2     1000021         5   # BR(~b_2 -> ~g      b )
#
#         PDG            Width
DECAY   1000002     1.67106762E+02   # sup_L decays
#          BR         NDA      ID1       ID2
     4.56630878E-04    2     1000022         2   # BR(~u_L -> ~chi_10 u)
     4.80318803E-07    2     1000023         2   # BR(~u_L -> ~chi_20 u)
     2.94104500E-03    2     1000025         2   # BR(~u_L -> ~chi_30 u)
     4.54783440E-02    2     1000035         2   # BR(~u_L -> ~chi_40 u)
     1.57679297E-03    2     1000024         1   # BR(~u_L -> ~chi_1+ d)
     9.11102664E-02    2     1000037         1   # BR(~u_L -> ~chi_2+ d)
     8.58436440E-01    2     1000021         2   # BR(~u_L -> ~g      u)
#
#         PDG            Width
DECAY   2000002     1.50259920E+02   # sup_R decays
#          BR         NDA      ID1       ID2
     2.61955621E-02    2     1000022         2   # BR(~u_R -> ~chi_10 u)
     1.70526846E-07    2     1000023         2   # BR(~u_R -> ~chi_20 u)
     1.90937948E-02    2     1000025         2   # BR(~u_R -> ~chi_30 u)
     9.57122879E-07    2     1000035         2   # BR(~u_R -> ~chi_40 u)
     9.54709515E-01    2     1000021         2   # BR(~u_R -> ~g      u)
#
#         PDG            Width
DECAY   1000001     1.67116133E+02   # sdown_L decays
#          BR         NDA      ID1       ID2
     3.06571694E-03    2     1000022         1   # BR(~d_L -> ~chi_10 d)
     7.90066015E-07    2     1000023         1   # BR(~d_L -> ~chi_20 d)
     1.27307604E-04    2     1000025         1   # BR(~d_L -> ~chi_30 d)
     4.56809789E-02    2     1000035         1   # BR(~d_L -> ~chi_40 d)
     1.40481880E-03    2    -1000024         2   # BR(~d_L -> ~chi_1- u)
     9.12296032E-02    2    -1000037         2   # BR(~d_L -> ~chi_2- u)
     8.58490784E-01    2     1000021         1   # BR(~d_L -> ~g      d)
#
#         PDG            Width
DECAY   2000001     1.45161390E+02   # sdown_R decays
#          BR         NDA      ID1       ID2
     6.77911063E-03    2     1000022         1   # BR(~d_R -> ~chi_10 d)
     4.41304317E-08    2     1000023         1   # BR(~d_R -> ~chi_20 d)
     4.94126207E-03    2     1000025         1   # BR(~d_R -> ~chi_30 d)
     2.47697299E-07    2     1000035         1   # BR(~d_R -> ~chi_40 d)
     9.88279335E-01    2     1000021         1   # BR(~d_R -> ~g      d)
#
#         PDG            Width
DECAY   1000004     1.67106762E+02   # scharm_L decays
#          BR         NDA      ID1       ID2
     4.56630878E-04    2     1000022         4   # BR(~c_L -> ~chi_10 c)
     4.80318803E-07    2     1000023         4   # BR(~c_L -> ~chi_20 c)
     2.94104500E-03    2     1000025         4   # BR(~c_L -> ~chi_30 c)
     4.54783440E-02    2     1000035         4   # BR(~c_L -> ~chi_40 c)
     1.57679297E-03    2     1000024         3   # BR(~c_L -> ~chi_1+ s)
     9.11102664E-02    2     1000037         3   # BR(~c_L -> ~chi_2+ s)
     8.58436440E-01    2     1000021         4   # BR(~c_L -> ~g      c)
#
#         PDG            Width
DECAY   2000004     1.50259920E+02   # scharm_R decays
#          BR         NDA      ID1       ID2
     2.61955621E-02    2     1000022         4   # BR(~c_R -> ~chi_10 c)
     1.70526846E-07    2     1000023         4   # BR(~c_R -> ~chi_20 c)
     1.90937948E-02    2     1000025         4   # BR(~c_R -> ~chi_30 c)
     9.57122879E-07    2     1000035         4   # BR(~c_R -> ~chi_40 c)
     9.54709515E-01    2     1000021         4   # BR(~c_R -> ~g      c)
#
#         PDG            Width
DECAY   1000003     1.67116133E+02   # sstrange_L decays
#          BR         NDA      ID1       ID2
     3.06571694E-03    2     1000022         3   # BR(~s_L -> ~chi_10 s)
     7.90066015E-07    2     1000023         3   # BR(~s_L -> ~chi_20 s)
     1.27307604E-04    2     1000025         3   # BR(~s_L -> ~chi_30 s)
     4.56809789E-02    2     1000035         3   # BR(~s_L -> ~chi_40 s)
     1.40481880E-03    2    -1000024         4   # BR(~s_L -> ~chi_1- c)
     9.12296032E-02    2    -1000037         4   # BR(~s_L -> ~chi_2- c)
     8.58490784E-01    2     1000021         3   # BR(~s_L -> ~g      s)
#
#         PDG            Width
DECAY   2000003     1.45161390E+02   # sstrange_R decays
#          BR         NDA      ID1       ID2
     6.77911063E-03    2     1000022         3   # BR(~s_R -> ~chi_10 s)
     4.41304317E-08    2     1000023         3   # BR(~s_R -> ~chi_20 s)
     4.94126207E-03    2     1000025         3   # BR(~s_R -> ~chi_30 s)
     2.47697299E-07    2     1000035         3   # BR(~s_R -> ~chi_40 s)
     9.88279335E-01    2     1000021         3   # BR(~s_R -> ~g      s)
#
#         PDG            Width
DECAY   1000011     2.79566969E+01   # selectron_L decays
#          BR         NDA      ID1       ID2
     5.96707260E-02    2     1000022        11   # BR(~e_L -> ~chi_10 e-)
     1.53270252E-06    2     1000023        11   # BR(~e_L -> ~chi_20 e-)
     8.88709668E-02    2     1000025        11   # BR(~e_L -> ~chi_30 e-)
     2.79560133E-01    2     1000035        11   # BR(~e_L -> ~chi_40 e-)
     8.70765776E-03    2    -1000024        12   # BR(~e_L -> ~chi_1- nu_e)
     5.63188984E-01    2    -1000037        12   # BR(~e_L -> ~chi_2- nu_e)
#
#         PDG            Width
DECAY   2000011     1.58792718E+01   # selectron_R decays
#          BR         NDA      ID1       ID2
     5.78464548E-01    2     1000022        11   # BR(~e_R -> ~chi_10 e-)
     3.76491608E-06    2     1000023        11   # BR(~e_R -> ~chi_20 e-)
     4.21510640E-01    2     1000025        11   # BR(~e_R -> ~chi_30 e-)
     2.10474153E-05    2     1000035        11   # BR(~e_R -> ~chi_40 e-)
#
#         PDG            Width
DECAY   1000013     2.79566969E+01   # smuon_L decays
#          BR         NDA      ID1       ID2
     5.96707260E-02    2     1000022        13   # BR(~mu_L -> ~chi_10 mu-)
     1.53270252E-06    2     1000023        13   # BR(~mu_L -> ~chi_20 mu-)
     8.88709668E-02    2     1000025        13   # BR(~mu_L -> ~chi_30 mu-)
     2.79560133E-01    2     1000035        13   # BR(~mu_L -> ~chi_40 mu-)
     8.70765776E-03    2    -1000024        14   # BR(~mu_L -> ~chi_1- nu_mu)
     5.63188984E-01    2    -1000037        14   # BR(~mu_L -> ~chi_2- nu_mu)
#
#         PDG            Width
DECAY   2000013     1.58792718E+01   # smuon_R decays
#          BR         NDA      ID1       ID2
     5.78464548E-01    2     1000022        13   # BR(~mu_R -> ~chi_10 mu-)
     3.76491608E-06    2     1000023        13   # BR(~mu_R -> ~chi_20 mu-)
     4.21510640E-01    2     1000025        13   # BR(~mu_R -> ~chi_30 mu-)
     2.10474153E-05    2     1000035        13   # BR(~mu_R -> ~chi_40 mu-)
#
#         PDG            Width
DECAY   1000015     2.19605803E+01   # stau_1 decays
#          BR         NDA      ID1       ID2
     2.53492374E-01    2     1000022        15   # BR(~tau_1 -> ~chi_10  tau-)
     4.01764101E-04    2     1000023        15   # BR(~tau_1 -> ~chi_20  tau-)
     2.06259045E-01    2     1000025        15   # BR(~tau_1 -> ~chi_30  tau-)
     1.75977424E-01    2     1000035        15   # BR(~tau_1 -> ~chi_40  tau-)
     9.17870363E-03    2    -1000024        16   # BR(~tau_1 -> ~chi_1-  nu_tau)
     3.54526945E-01    2    -1000037        16   # BR(~tau_1 -> ~chi_2-  nu_tau)
     1.63744364E-04    2     1000039        15   # BR(~tau_1 -> ~G       tau-)
#
#         PDG            Width
DECAY   2000015     2.19402719E+01   # stau_2 decays
#          BR         NDA      ID1       ID2
     2.41373739E-01    2     1000022        15   # BR(~tau_2 -> ~chi_10  tau-)
     5.33514370E-04    2     1000023        15   # BR(~tau_2 -> ~chi_20  tau-)
     2.12379034E-01    2     1000025        15   # BR(~tau_2 -> ~chi_30  tau-)
     1.80103459E-01    2     1000035        15   # BR(~tau_2 -> ~chi_40  tau-)
     2.83206033E-03    2    -1000024        16   # BR(~tau_2 -> ~chi_1-  nu_tau)
     3.62778193E-01    2    -1000037        16   # BR(~tau_2 -> ~chi_2-  nu_tau)
#
#         PDG            Width
DECAY   1000012     2.79600455E+01   # snu_eL decays
#          BR         NDA      ID1       ID2
     1.08172328E-01    2     1000022        12   # BR(~nu_eL -> ~chi_10 nu_e)
     7.29042315E-06    2     1000023        12   # BR(~nu_eL -> ~chi_20 nu_e)
     3.65455792E-02    2     1000025        12   # BR(~nu_eL -> ~chi_30 nu_e)
     2.83149936E-01    2     1000035        12   # BR(~nu_eL -> ~chi_40 nu_e)
     9.77190974E-03    2     1000024        11   # BR(~nu_eL -> ~chi_1+ e-)
     5.62352957E-01    2     1000037        11   # BR(~nu_eL -> ~chi_2+ e-)
#
#         PDG            Width
DECAY   1000014     2.79600455E+01   # snu_muL decays
#          BR         NDA      ID1       ID2
     1.08172328E-01    2     1000022        14   # BR(~nu_muL -> ~chi_10 nu_mu)
     7.29042315E-06    2     1000023        14   # BR(~nu_muL -> ~chi_20 nu_mu)
     3.65455792E-02    2     1000025        14   # BR(~nu_muL -> ~chi_30 nu_mu)
     2.83149936E-01    2     1000035        14   # BR(~nu_muL -> ~chi_40 nu_mu)
     9.77190974E-03    2     1000024        13   # BR(~nu_muL -> ~chi_1+ mu-)
     5.62352957E-01    2     1000037        13   # BR(~nu_muL -> ~chi_2+ mu-)
#
#         PDG            Width
DECAY   1000016     2.79804644E+01   # snu_tauL decays
#          BR         NDA      ID1       ID2
     1.08093389E-01    2     1000022        16   # BR(~nu_tauL -> ~chi_10 nu_tau)
     7.28510292E-06    2     1000023        16   # BR(~nu_tauL -> ~chi_20 nu_tau)
     3.65189098E-02    2     1000025        16   # BR(~nu_tauL -> ~chi_30 nu_tau)
     2.82943306E-01    2     1000035        16   # BR(~nu_tauL -> ~chi_40 nu_tau)
     1.04881718E-02    2     1000024        15   # BR(~nu_tauL -> ~chi_1+ tau-)
     5.61948939E-01    2     1000037        15   # BR(~nu_tauL -> ~chi_2+ tau-)
#
#         PDG            Width
DECAY   1000024     2.21764009E-04   # chargino1+ decays
#          BR         NDA      ID1       ID2
     1.47833112E-01    2     1000039        24   # BR(~chi_1+ -> ~G       W+)
     2.47705929E-04    2     1000039        37   # BR(~chi_1+ -> ~G       H+)
#           BR         NDA      ID1       ID2       ID3
     2.84543232E-01    3     1000022         2        -1   # BR(~chi_1+ -> ~chi_10 u    db)
     2.83423701E-01    3     1000022         4        -3   # BR(~chi_1+ -> ~chi_10 c    sb)
     9.48478434E-02    3     1000022       -11        12   # BR(~chi_1+ -> ~chi_10 e+   nu_e)
     9.48457479E-02    3     1000022       -13        14   # BR(~chi_1+ -> ~chi_10 mu+  nu_mu)
     9.42586575E-02    3     1000022       -15        16   # BR(~chi_1+ -> ~chi_10 tau+ nu_tau)
#
#         PDG            Width
DECAY   1000037     2.90343107E+01   # chargino2+ decays
#          BR         NDA      ID1       ID2
     2.55507684E-01    2     1000024        23   # BR(~chi_2+ -> ~chi_1+  Z )
     9.73265909E-02    2     1000022        24   # BR(~chi_2+ -> ~chi_10  W+)
     2.45736398E-01    2     1000023        24   # BR(~chi_2+ -> ~chi_20  W+)
     1.52071070E-01    2     1000025        24   # BR(~chi_2+ -> ~chi_30  W+)
     2.49348565E-01    2     1000024        25   # BR(~chi_2+ -> ~chi_1+  h )
     9.68804802E-06    2     1000039        24   # BR(~chi_2+ -> ~G       W+)
     4.77065665E-09    2     1000039        37   # BR(~chi_2+ -> ~G       H+)
#
#         PDG            Width
DECAY   1000022    1.0E-05    # neutralino1 decays
#          BR         NDA      ID1       ID2
     5.01167458E-01    2     1000039        22   # BR(~chi_10 -> ~G        gam)
     4.88768892E-01    2     1000039        23   # BR(~chi_10 -> ~G        Z)
     9.86347954E-03    2     1000039        25   # BR(~chi_10 -> ~G        h)
     1.91664621E-04    2     1000039        35   # BR(~chi_10 -> ~G        H)
     8.50594350E-06    2     1000039        36   # BR(~chi_10 -> ~G        A)
#
#         PDG            Width
DECAY   1000023     3.59513158E-04   # neutralino2 decays
#          BR         NDA      ID1       ID2
     1.35531137E-04    2     1000022        22   # BR(~chi_20 -> ~chi_10 gam)
#          BR         NDA      ID1       ID2
     1.14598610E-08    2     1000039        22   # BR(~chi_20 -> ~G        gam)
     3.53317115E-03    2     1000039        23   # BR(~chi_20 -> ~G        Z)
     8.77801873E-02    2     1000039        25   # BR(~chi_20 -> ~G        h)
     6.34647530E-06    2     1000039        35   # BR(~chi_20 -> ~G        H)
     1.72418855E-04    2     1000039        36   # BR(~chi_20 -> ~G        A)
#           BR         NDA      ID1       ID2       ID3
     1.07423252E-01    3     1000022        -2         2   # BR(~chi_20 -> ~chi_10 ub      u)
     1.39110743E-01    3     1000022        -1         1   # BR(~chi_20 -> ~chi_10 db      d)
     1.06880711E-01    3     1000022        -4         4   # BR(~chi_20 -> ~chi_10 cb      c)
     1.39096833E-01    3     1000022        -3         3   # BR(~chi_20 -> ~chi_10 sb      s)
     1.30204310E-01    3     1000022        -5         5   # BR(~chi_20 -> ~chi_10 bb      b)
     3.17770936E-02    3     1000022       -11        11   # BR(~chi_20 -> ~chi_10 e+      e-)
     3.17762135E-02    3     1000022       -13        13   # BR(~chi_20 -> ~chi_10 mu+     mu-)
     3.15289924E-02    3     1000022       -15        15   # BR(~chi_20 -> ~chi_10 tau+    tau-)
     6.34648336E-02    3     1000022       -12        12   # BR(~chi_20 -> ~chi_10 nu_eb   nu_e)
     6.34648336E-02    3     1000022       -14        14   # BR(~chi_20 -> ~chi_10 nu_mub  nu_mu)
     6.34648336E-02    3     1000022       -16        16   # BR(~chi_20 -> ~chi_10 nu_taub nu_tau)
     3.22433500E-05    3     1000024        -2         1   # BR(~chi_20 -> ~chi_1+ ub      d)
     3.22433500E-05    3    -1000024        -1         2   # BR(~chi_20 -> ~chi_1- db      u)
     2.76601925E-05    3     1000024        -4         3   # BR(~chi_20 -> ~chi_1+ cb      s)
     2.76601925E-05    3    -1000024        -3         4   # BR(~chi_20 -> ~chi_1- sb      c)
     1.07477844E-05    3     1000024       -12        11   # BR(~chi_20 -> ~chi_1+ nu_eb   e-)
     1.07477844E-05    3    -1000024        12       -11   # BR(~chi_20 -> ~chi_1- nu_e    e+)
     1.07382996E-05    3     1000024       -14        13   # BR(~chi_20 -> ~chi_1+ nu_mub  mu-)
     1.07382996E-05    3    -1000024        14       -13   # BR(~chi_20 -> ~chi_1- nu_mu   mu+)
     8.45244134E-06    3     1000024       -16        15   # BR(~chi_20 -> ~chi_1+ nu_taub tau-)
     8.45244134E-06    3    -1000024        16       -15   # BR(~chi_20 -> ~chi_1- nu_tau  tau+)
#
#         PDG            Width
DECAY   1000025     1.73572288E-04   # neutralino3 decays
#          BR         NDA      ID1       ID2
     4.80741639E-04    2     1000022        22   # BR(~chi_30 -> ~chi_10 gam)
     3.06621272E-06    2     1000023        22   # BR(~chi_30 -> ~chi_20 gam)
#          BR         NDA      ID1       ID2
     1.52908622E-01    2     1000039        22   # BR(~chi_30 -> ~G        gam)
     1.35530818E-01    2     1000039        23   # BR(~chi_30 -> ~G        Z)
     4.32770854E-03    2     1000039        25   # BR(~chi_30 -> ~G        h)
     2.95332334E-04    2     1000039        35   # BR(~chi_30 -> ~G        H)
     1.22956627E-05    2     1000039        36   # BR(~chi_30 -> ~G        A)
#           BR         NDA      ID1       ID2       ID3
     3.33163326E-05    3     1000022        -2         2   # BR(~chi_30 -> ~chi_10 ub      u)
     4.06662603E-05    3     1000022        -1         1   # BR(~chi_30 -> ~chi_10 db      d)
     6.82809194E-05    3     1000022        -4         4   # BR(~chi_30 -> ~chi_10 cb      c)
     4.13201347E-05    3     1000022        -3         3   # BR(~chi_30 -> ~chi_10 sb      s)
     1.65733533E-04    3     1000022        -5         5   # BR(~chi_30 -> ~chi_10 bb      b)
     7.56982630E-06    3     1000022       -11        11   # BR(~chi_30 -> ~chi_10 e+      e-)
     7.56974017E-06    3     1000022       -13        13   # BR(~chi_30 -> ~chi_10 mu+     mu-)
     2.65913519E-05    3     1000022       -15        15   # BR(~chi_30 -> ~chi_10 tau+    tau-)
     1.94243686E-05    3     1000022       -12        12   # BR(~chi_30 -> ~chi_10 nu_eb   nu_e)
     1.94243686E-05    3     1000022       -14        14   # BR(~chi_30 -> ~chi_10 nu_mub  nu_mu)
     1.94243686E-05    3     1000022       -16        16   # BR(~chi_30 -> ~chi_10 nu_taub nu_tau)
     8.74173677E-03    3     1000023        -2         2   # BR(~chi_30 -> ~chi_20 ub      u)
     1.13203660E-02    3     1000023        -1         1   # BR(~chi_30 -> ~chi_20 db      d)
     8.60907810E-03    3     1000023        -4         4   # BR(~chi_30 -> ~chi_20 cb      c)
     1.13164474E-02    3     1000023        -3         3   # BR(~chi_30 -> ~chi_20 sb      s)
     8.92704413E-03    3     1000023        -5         5   # BR(~chi_30 -> ~chi_20 bb      b)
     2.58591500E-03    3     1000023       -11        11   # BR(~chi_30 -> ~chi_20 e+      e-)
     2.58572113E-03    3     1000023       -13        13   # BR(~chi_30 -> ~chi_20 mu+     mu-)
     2.53060287E-03    3     1000023       -15        15   # BR(~chi_30 -> ~chi_20 tau+    tau-)
     5.16453758E-03    3     1000023       -12        12   # BR(~chi_30 -> ~chi_20 nu_eb   nu_e)
     5.16453758E-03    3     1000023       -14        14   # BR(~chi_30 -> ~chi_20 nu_mub  nu_mu)
     5.16453758E-03    3     1000023       -16        16   # BR(~chi_30 -> ~chi_20 nu_taub nu_tau)
     1.06021943E-01    3     1000024        -2         1   # BR(~chi_30 -> ~chi_1+ ub      d)
     1.06021943E-01    3    -1000024        -1         2   # BR(~chi_30 -> ~chi_1- db      u)
     1.05285406E-01    3     1000024        -4         3   # BR(~chi_30 -> ~chi_1+ cb      s)
     1.05285406E-01    3    -1000024        -3         4   # BR(~chi_30 -> ~chi_1- sb      c)
     3.53405994E-02    3     1000024       -12        11   # BR(~chi_30 -> ~chi_1+ nu_eb   e-)
     3.53405994E-02    3    -1000024        12       -11   # BR(~chi_30 -> ~chi_1- nu_e    e+)
     3.53392168E-02    3     1000024       -14        13   # BR(~chi_30 -> ~chi_1+ nu_mub  mu-)
     3.53392168E-02    3    -1000024        14       -13   # BR(~chi_30 -> ~chi_1- nu_mu   mu+)
     3.49536202E-02    3     1000024       -16        15   # BR(~chi_30 -> ~chi_1+ nu_taub tau-)
     3.49536202E-02    3    -1000024        16       -15   # BR(~chi_30 -> ~chi_1- nu_tau  tau+)
#
#         PDG            Width
DECAY   1000035     2.90304578E+01   # neutralino4 decays
#          BR         NDA      ID1       ID2
     9.31740308E-05    2     1000022        23   # BR(~chi_40 -> ~chi_10   Z )
     2.52663562E-01    2     1000023        23   # BR(~chi_40 -> ~chi_20   Z )
     1.21722098E-04    2     1000025        23   # BR(~chi_40 -> ~chi_30   Z )
     2.48328311E-01    2     1000024       -24   # BR(~chi_40 -> ~chi_1+   W-)
     2.48328311E-01    2    -1000024        24   # BR(~chi_40 -> ~chi_1-   W+)
     9.76013312E-02    2     1000022        25   # BR(~chi_40 -> ~chi_10   h )
     2.02646039E-04    2     1000023        25   # BR(~chi_40 -> ~chi_20   h )
     1.52651248E-01    2     1000025        25   # BR(~chi_40 -> ~chi_30   h )
     2.27764663E-06    2     1000039        22   # BR(~chi_40 -> ~G        gam)
     7.40875142E-06    2     1000039        23   # BR(~chi_40 -> ~G        Z)
     2.49620643E-09    2     1000039        25   # BR(~chi_40 -> ~G        h)
     4.63176959E-09    2     1000039        35   # BR(~chi_40 -> ~G        H)
     1.38890597E-10    2     1000039        36   # BR(~chi_40 -> ~G        A)
#
#         PDG            Width
DECAY        25     4.09011966E-03   # h decays
#          BR         NDA      ID1       ID2
     6.18219703E-01    2           5        -5   # BR(h -> b       bb     )
     6.36775139E-02    2         -15        15   # BR(h -> tau+    tau-   )
     2.25394947E-04    2         -13        13   # BR(h -> mu+     mu-    )
     4.77632514E-04    2           3        -3   # BR(h -> s       sb     )
     2.06070160E-02    2           4        -4   # BR(h -> c       cb     )
     6.69092440E-02    2          21        21   # BR(h -> g       g      )
     2.30019282E-03    2          22        22   # BR(h -> gam     gam    )
     1.53590863E-03    2          22        23   # BR(h -> Z       gam    )
     2.00458007E-01    2          24       -24   # BR(h -> W+      W-     )
     2.55893872E-02    2          23        23   # BR(h -> Z       Z      )
#
#         PDG            Width
DECAY        35     3.78078774E+01   # H decays
#          BR         NDA      ID1       ID2
     1.46297152E-03    2           5        -5   # BR(H -> b       bb     )
     2.46442192E-04    2         -15        15   # BR(H -> tau+    tau-   )
     8.71264902E-07    2         -13        13   # BR(H -> mu+     mu-    )
     1.11553990E-06    2           3        -3   # BR(H -> s       sb     )
     1.00669765E-05    2           4        -4   # BR(H -> c       cb     )
     9.96079982E-01    2           6        -6   # BR(H -> t       tb     )
     7.97641315E-04    2          21        21   # BR(H -> g       g      )
     2.71754281E-06    2          22        22   # BR(H -> gam     gam    )
     1.16048998E-06    2          23        22   # BR(H -> Z       gam    )
     3.31461417E-04    2          24       -24   # BR(H -> W+      W-     )
     1.65278712E-04    2          23        23   # BR(H -> Z       Z      )
     9.00290904E-04    2          25        25   # BR(H -> h       h      )
     7.06537610E-24    2          36        36   # BR(H -> A       A      )
     2.85629972E-11    2          23        36   # BR(H -> Z       A      )
     6.23779678E-12    2          24       -37   # BR(H -> W+      H-     )
     6.23779678E-12    2         -24        37   # BR(H -> W-      H+     )
#
#         PDG            Width
DECAY        36     3.82378034E+01   # A decays
#          BR         NDA      ID1       ID2
     1.46586429E-03    2           5        -5   # BR(A -> b       bb     )
     2.43900422E-04    2         -15        15   # BR(A -> tau+    tau-   )
     8.62276100E-07    2         -13        13   # BR(A -> mu+     mu-    )
     1.13678655E-06    2           3        -3   # BR(A -> s       sb     )
     9.96187518E-06    2           4        -4   # BR(A -> c       cb     )
     9.97007036E-01    2           6        -6   # BR(A -> t       tb     )
     9.43686101E-04    2          21        21   # BR(A -> g       g      )
     3.12830580E-06    2          22        22   # BR(A -> gam     gam    )
     1.35306655E-06    2          23        22   # BR(A -> Z       gam    )
     3.23070732E-04    2          23        25   # BR(A -> Z       h      )
#
#         PDG            Width
DECAY        37     3.74469775E+01   # H+ decays
#          BR         NDA      ID1       ID2
     2.34615976E-06    2           4        -5   # BR(H+ -> c       bb     )
     2.49241000E-04    2         -15        16   # BR(H+ -> tau+    nu_tau )
     8.81156968E-07    2         -13        14   # BR(H+ -> mu+     nu_mu  )
     1.49155352E-08    2           2        -5   # BR(H+ -> u       bb     )
     5.45701237E-08    2           2        -3   # BR(H+ -> u       sb     )
     1.08733041E-05    2           4        -3   # BR(H+ -> c       sb     )
     9.99405472E-01    2           6        -5   # BR(H+ -> t       bb     )
     3.31116434E-04    2          24        25   # BR(H+ -> W+      h      )
     2.88529219E-13    2          24        36   # BR(H+ -> W+      A      )
