#
#                              ======================
#                              | THE SUSYHIT OUTPUT |
#                              ======================
#
#
#              ------------------------------------------------------
#              |     This is the output of the SUSY-HIT package     |
#              |  created by A.Djouadi, M.Muehlleitner and M.Spira. |
#              |  In case of problems with SUSY-HIT email to        |
#              |           margarete.muehlleitner@kit.edu           |
#              |           michael.spira@psi.ch                     |
#              |           abdelhak.djouadi@cern.ch                 |
#              ------------------------------------------------------
#
#              ------------------------------------------------------
#              |  SUSY Les Houches Accord - MSSM Spectrum + Decays  |
#              |              based on the decay programs           |
#              |                                                    |
#              |                     SDECAY 1.5a                    |
#              |                                                    |
#              |  Authors: M.Muhlleitner, A.Djouadi and Y.Mambrini  |
#              |  Ref.:    Comput.Phys.Commun.168(2005)46           |
#              |           [hep-ph/0311167]                         |
#              |                                                    |
#              |                     HDECAY 3.4                     |
#              |                                                    |
#              |  By: A.Djouadi,J.Kalinowski,M.Muhlleitner,M.Spira  |
#              |  Ref.:    Comput.Phys.Commun.108(1998)56           |
#              |           [hep-ph/9704448]                         |
#              |                                                    |
#              |                                                    |
#              |  If not stated otherwise all DRbar couplings and   |
#              |  soft SUSY breaking masses are given at the scale  |
#              |  Q=  0.91187600E+02
#              |                                                    |
#              ------------------------------------------------------
#
#
BLOCK DCINFO  # Decay Program information
     1   SDECAY/HDECAY # decay calculator
     2   1.5a /3.4    # version number
#
BLOCK SPINFO  # Spectrum calculator information
     1   SuSpect     # RGE +Spectrum calculator            
     2   2.43         # version number                     
#
BLOCK MODSEL  # Model selection
     1     2   # GMSB                                              
#
BLOCK SMINPUTS  # Standard Model inputs
         1     1.27932904E+02   # alpha_em^-1(M_Z)^MSbar
         2     1.16639000E-05   # G_F [GeV^-2]
         3     1.17200000E-01   # alpha_S(M_Z)^MSbar
         4     9.11870000E+01   # M_Z pole mass
         5     4.25000000E+00   # mb(mb)^MSbar
         6     1.72900000E+02   # mt pole mass
         7     1.77700000E+00   # mtau pole mass
#
BLOCK MINPAR  # Input parameters - minimal models
#
BLOCK EXTPAR  # Input parameters - non-minimal models
         0     9.11876000E+01   # EWSB                
         1     1.64000000E+03   # M_1                 
         2     3.00000000E+03   # M_2                 
         3     2.40000000E+03   # M_3                 
        11     0.00000000E+00   # A_t                 
        12     0.00000000E+00   # A_b                 
        13     0.00000000E+00   # A_tau               
        14     0.00000000E+00   # A_u                 
        15     0.00000000E+00   # A_d                 
        16     0.00000000E+00   # A_e                 
        23     1.65000000E+03   # mu(EWSB)            
        25     1.50000000E+00   # tanbeta(in)         
        26     2.00000000E+03   # MA_pole             
        31     5.00000000E+03   # M_eL                
        32     5.00000000E+03   # M_muL               
        33     5.00000000E+03   # M_tauL              
        34     5.00000000E+03   # M_eR                
        35     5.00000000E+03   # M_muR               
        36     5.00000000E+03   # M_tauR              
        41     5.00000000E+03   # M_q1L               
        42     5.00000000E+03   # M_q2L               
        43     5.00000000E+03   # M_q3L               
        44     5.00000000E+03   # M_uR                
        45     5.00000000E+03   # M_cR                
        46     5.00000000E+03   # M_tR                
        47     5.00000000E+03   # M_dR                
        48     5.00000000E+03   # M_sR                
        49     5.00000000E+03   # M_bR                
#
BLOCK MASS  # Mass Spectrum
# PDG code           mass       particle
        24     8.05416887E+01   # W+
        25     1.25000000E+02   # h
        35     2.00400316E+03   # H
        36     2.00000000E+03   # A
        37     2.00151697E+03   # H+
         5     4.87877839E+00   # b-quark pole mass calculated from mb(mb)_Msbar
   1000001     5.00013292E+03   # ~d_L
   2000001     5.00002538E+03   # ~d_R
   1000002     4.99989246E+03   # ~u_L
   2000002     4.99994925E+03   # ~u_R
   1000003     5.00013292E+03   # ~s_L
   2000003     5.00002538E+03   # ~s_R
   1000004     4.99989246E+03   # ~c_L
   2000004     4.99994925E+03   # ~c_R
   1000005     4.99941300E+03   # ~b_1
   2000005     5.00074665E+03   # ~b_2
   1000006     4.98547873E+03   # ~t_1
   2000006     5.01893555E+03   # ~t_2
   1000011     5.00008216E+03   # ~e_L
   2000011     5.00007613E+03   # ~e_R
   1000012     4.99984170E+03   # ~nu_eL
   1000013     5.00008216E+03   # ~mu_L
   2000013     5.00007613E+03   # ~mu_R
   1000014     4.99984170E+03   # ~nu_muL
   1000015     4.99963923E+03   # ~tau_1
   2000015     5.00051965E+03   # ~tau_2
   1000016     4.99984170E+03   # ~nu_tauL
   1000021     2.40000000E+03   # ~g
   1000022     1.59914936E+03   # ~chi_10
   1000023    -1.65007489E+03   # ~chi_20
   1000025     1.68643105E+03   # ~chi_30
   1000035     3.00449448E+03   # ~chi_40
   1000024     1.64561339E+03   # ~chi_1+
   1000037     3.00449003E+03   # ~chi_2+
   1000039     1.00000000E-09   # ~gravitino
#
BLOCK NMIX  # Neutralino Mixing Matrix
  1  1     7.29212148E-01   # N_11
  1  2    -3.77918879E-02   # N_12
  1  3     4.84635829E-01   # N_13
  1  4    -4.81611390E-01   # N_14
  2  1     2.65349289E-03   # N_21
  2  2    -3.33657897E-03   # N_22
  2  3    -7.07020116E-01   # N_23
  2  4    -7.07180587E-01   # N_24
  3  1     6.84280044E-01   # N_31
  3  2     4.29860119E-02   # N_32
  3  3    -5.13613937E-01   # N_33
  3  4     5.15862140E-01   # N_34
  4  1     1.85035650E-03   # N_41
  4  2    -9.98355069E-01   # N_42
  4  3    -3.80971565E-02   # N_43
  4  4     4.28058363E-02   # N_44
#
BLOCK UMIX  # Chargino Mixing Matrix U
  1  1    -5.38208454E-02   # U_11
  1  2     9.98550608E-01   # U_12
  2  1     9.98550608E-01   # U_21
  2  2     5.38208454E-02   # U_22
#
BLOCK VMIX  # Chargino Mixing Matrix V
  1  1    -6.04793756E-02   # V_11
  1  2     9.98169447E-01   # V_12
  2  1     9.98169447E-01   # V_21
  2  2     6.04793756E-02   # V_22
#
BLOCK STOPMIX  # Stop Mixing Matrix
  1  1     7.07706346E-01   # cos(theta_t)
  1  2     7.06506708E-01   # sin(theta_t)
  2  1    -7.06506708E-01   # -sin(theta_t)
  2  2     7.07706346E-01   # cos(theta_t)
#
BLOCK SBOTMIX  # Sbottom Mixing Matrix
  1  1     6.77999116E-01   # cos(theta_b)
  1  2     7.35062718E-01   # sin(theta_b)
  2  1    -7.35062718E-01   # -sin(theta_b)
  2  2     6.77999116E-01   # cos(theta_b)
#
BLOCK STAUMIX  # Stau Mixing Matrix
  1  1     7.04680425E-01   # cos(theta_tau)
  1  2     7.09524840E-01   # sin(theta_tau)
  2  1    -7.09524840E-01   # -sin(theta_tau)
  2  2     7.04680425E-01   # cos(theta_tau)
#
BLOCK ALPHA  # Higgs mixing
          -5.90201585E-01   # Mixing angle in the neutral Higgs boson sector
#
BLOCK HMIX Q=  9.11876000E+01  # DRbar Higgs Parameters
         1     1.65000000E+03   # mu(Q)               
         2     1.49999979E+00   # tanbeta(Q)          
         3     2.52259047E+02   # vev(Q)              
         4     3.18319971E+06   # MA^2(Q)             
#
BLOCK GAUGE Q=  9.11876000E+01  # The gauge couplings
     1     3.52737302E-01   # gprime(Q) DRbar
     2     6.26886668E-01   # g(Q) DRbar
     3     1.07754617E+00   # g3(Q) DRbar
#
BLOCK AU Q=  9.11876000E+01  # The trilinear couplings
  1  1     0.00000000E+00   # A_u(Q) DRbar
  2  2     0.00000000E+00   # A_c(Q) DRbar
  3  3     0.00000000E+00   # A_t(Q) DRbar
#
BLOCK AD Q=  9.11876000E+01  # The trilinear couplings
  1  1     0.00000000E+00   # A_d(Q) DRbar
  2  2     0.00000000E+00   # A_s(Q) DRbar
  3  3     0.00000000E+00   # A_b(Q) DRbar
#
BLOCK AE Q=  9.11876000E+01  # The trilinear couplings
  1  1     0.00000000E+00   # A_e(Q) DRbar
  2  2     0.00000000E+00   # A_mu(Q) DRbar
  3  3     0.00000000E+00   # A_tau(Q) DRbar
#
BLOCK Yu Q=  9.11876000E+01  # The Yukawa couplings
  1  1     0.00000000E+00   # y_u(Q) DRbar
  2  2     0.00000000E+00   # y_c(Q) DRbar
  3  3     1.02511289E+00   # y_t(Q) DRbar
#
BLOCK Yd Q=  9.11876000E+01  # The Yukawa couplings
  1  1     0.00000000E+00   # y_d(Q) DRbar
  2  2     0.00000000E+00   # y_s(Q) DRbar
  3  3     2.71417944E-02   # y_b(Q) DRbar
#
BLOCK Ye Q=  9.11876000E+01  # The Yukawa couplings
  1  1     0.00000000E+00   # y_e(Q) DRbar
  2  2     0.00000000E+00   # y_mu(Q) DRbar
  3  3     1.79759300E-02   # y_tau(Q) DRbar
#
BLOCK MSOFT Q=  9.11876000E+01  # The soft SUSY breaking masses at the scale Q
         1     1.64000000E+03   # M_1                 
         2     3.00000000E+03   # M_2                 
         3     2.40000000E+03   # M_3                 
        14     0.00000000E+00   # A_u                 
        15     0.00000000E+00   # A_d                 
        16     0.00000000E+00   # A_e                 
        21    -2.25387421E+03   # M^2_Hd              
        22    -7.86354924E+06   # M^2_Hu              
        31     5.00000000E+03   # M_eL                
        32     5.00000000E+03   # M_muL               
        33     5.00000000E+03   # M_tauL              
        34     5.00000000E+03   # M_eR                
        35     5.00000000E+03   # M_muR               
        36     5.00000000E+03   # M_tauR              
        41     5.00000000E+03   # M_q1L               
        42     5.00000000E+03   # M_q2L               
        43     5.00000000E+03   # M_q3L               
        44     5.00000000E+03   # M_uR                
        45     5.00000000E+03   # M_cR                
        46     5.00000000E+03   # M_tR                
        47     5.00000000E+03   # M_dR                
        48     5.00000000E+03   # M_sR                
        49     5.00000000E+03   # M_bR                
#
#
#
#                             =================
#                             |The decay table|
#                             =================
#
# - The QCD corrections to the decays gluino -> squark  + quark
#                                     squark -> gaugino + quark_prime
#                                     squark -> squark_prime + Higgs
#                                     squark -> gluino  + quark
#   are included.
#
# - The multi-body decays for the inos, stops and sbottoms are included.
#
# - The loop induced decays for the gluino, neutralinos and stops
#   are included.
#
# - The SUSY decays of the top quark are included.
#
# - Possible decays of the NLSP in GMSB models are included.
#
#
#         PDG            Width
DECAY         6     1.36919874E+00   # top decays
#          BR         NDA      ID1       ID2
     1.00000000E+00    2           5        24   # BR(t ->  b    W+)
#
#         PDG            Width
DECAY   1000021     3.52704761E-04   # gluino decays
#          BR         NDA      ID1       ID2
     1.45369279E-02    2     1000022        21   # BR(~g -> ~chi_10 g)
     2.66475474E-02    2     1000023        21   # BR(~g -> ~chi_20 g)
     1.26249789E-02    2     1000025        21   # BR(~g -> ~chi_30 g)
#          BR         NDA      ID1       ID2
     0.00000000E+00    2     1000039        21   # BR(~g -> ~G      g)
#           BR         NDA      ID1       ID2       ID3
     5.79474601E-03    3     1000022         1        -1   # BR(~g -> ~chi_10 d  db)
     2.29510628E-07    3     1000023         1        -1   # BR(~g -> ~chi_20 d  db)
     2.46833850E-03    3     1000025         1        -1   # BR(~g -> ~chi_30 d  db)
     1.70121003E-02    3     1000022         2        -2   # BR(~g -> ~chi_10 u  ub)
     1.75871489E-07    3     1000023         2        -2   # BR(~g -> ~chi_20 u  ub)
     9.88132157E-03    3     1000025         2        -2   # BR(~g -> ~chi_30 u  ub)
     5.79474601E-03    3     1000022         3        -3   # BR(~g -> ~chi_10 s  sb)
     2.29510628E-07    3     1000023         3        -3   # BR(~g -> ~chi_20 s  sb)
     2.46833850E-03    3     1000025         3        -3   # BR(~g -> ~chi_30 s  sb)
     1.70121003E-02    3     1000022         4        -4   # BR(~g -> ~chi_10 c  cb)
     1.75871489E-07    3     1000023         4        -4   # BR(~g -> ~chi_20 c  cb)
     9.88132157E-03    3     1000025         4        -4   # BR(~g -> ~chi_30 c  cb)
     5.85661640E-03    3     1000022         5        -5   # BR(~g -> ~chi_10 b  bb)
     1.58611818E-04    3     1000023         5        -5   # BR(~g -> ~chi_20 b  bb)
     2.55367671E-03    3     1000025         5        -5   # BR(~g -> ~chi_30 b  bb)
     7.93856618E-02    3     1000022         6        -6   # BR(~g -> ~chi_10 t  tb)
     1.07478893E-01    3     1000023         6        -6   # BR(~g -> ~chi_20 t  tb)
     7.46188774E-02    3     1000025         6        -6   # BR(~g -> ~chi_30 t  tb)
     2.79750309E-04    3     1000024         1        -2   # BR(~g -> ~chi_1+ d  ub)
     2.79750309E-04    3    -1000024         2        -1   # BR(~g -> ~chi_1- u  db)
     2.79750309E-04    3     1000024         3        -4   # BR(~g -> ~chi_1+ s  cb)
     2.79750309E-04    3    -1000024         4        -3   # BR(~g -> ~chi_1- c  sb)
     1.72395207E-01    3     1000024         5        -6   # BR(~g -> ~chi_1+ b  tb)
     1.72395207E-01    3    -1000024         6        -5   # BR(~g -> ~chi_1- t  bb)
#
#         PDG            Width
DECAY   1000006     2.66019422E+02   # stop1 decays
#          BR         NDA      ID1       ID2
     8.20243057E-02    2     1000022         6   # BR(~t_1 -> ~chi_10 t )
     1.09650948E-01    2     1000023         6   # BR(~t_1 -> ~chi_20 t )
     4.44074972E-02    2     1000025         6   # BR(~t_1 -> ~chi_30 t )
     1.22195874E-02    2     1000035         6   # BR(~t_1 -> ~chi_40 t )
     1.16383705E-01    2     1000024         5   # BR(~t_1 -> ~chi_1+ b )
     2.41130923E-02    2     1000037         5   # BR(~t_1 -> ~chi_2+ b )
     6.11200865E-01    2     1000021         6   # BR(~t_1 -> ~g      t )
#
#         PDG            Width
DECAY   2000006     2.54325660E+02   # stop2 decays
#          BR         NDA      ID1       ID2
     3.70952386E-02    2     1000022         6   # BR(~t_2 -> ~chi_10 t )
     1.09868679E-01    2     1000023         6   # BR(~t_2 -> ~chi_20 t )
     8.97523617E-02    2     1000025         6   # BR(~t_2 -> ~chi_30 t )
     1.81589844E-02    2     1000035         6   # BR(~t_2 -> ~chi_40 t )
     1.03102951E-01    2     1000024         5   # BR(~t_2 -> ~chi_1+ b )
     3.59386675E-02    2     1000037         5   # BR(~t_2 -> ~chi_2+ b )
     6.06083118E-01    2     1000021         6   # BR(~t_2 -> ~g      t )
#
#         PDG            Width
DECAY   1000005     1.94624646E+02   # sbottom1 decays
#          BR         NDA      ID1       ID2
     5.25129834E-03    2     1000022         5   # BR(~b_1 -> ~chi_10 b )
     8.98849913E-05    2     1000023         5   # BR(~b_1 -> ~chi_20 b )
     2.41728180E-03    2     1000025         5   # BR(~b_1 -> ~chi_30 b )
     1.72473375E-02    2     1000035         5   # BR(~b_1 -> ~chi_40 b )
     1.25596961E-01    2    -1000024         6   # BR(~b_1 -> ~chi_1- t )
     3.48982943E-02    2    -1000037         6   # BR(~b_1 -> ~chi_2- t )
     8.14498942E-01    2     1000021         5   # BR(~b_1 -> ~g      b )
#
#         PDG            Width
DECAY   2000005     2.05329477E+02   # sbottom2 decays
#          BR         NDA      ID1       ID2
     2.89892542E-03    2     1000022         5   # BR(~b_2 -> ~chi_10 b )
     1.10998466E-04    2     1000023         5   # BR(~b_2 -> ~chi_20 b )
     3.08442050E-03    2     1000025         5   # BR(~b_2 -> ~chi_30 b )
     2.12008084E-02    2     1000035         5   # BR(~b_2 -> ~chi_40 b )
     1.58344417E-01    2    -1000024         6   # BR(~b_2 -> ~chi_1- t )
     4.29102358E-02    2    -1000037         6   # BR(~b_2 -> ~chi_2- t )
     7.71450195E-01    2     1000021         5   # BR(~b_2 -> ~g      b )
#
#         PDG            Width
DECAY   1000002     1.82239914E+02   # sup_L decays
#          BR         NDA      ID1       ID2
     8.15981203E-04    2     1000022         2   # BR(~u_L -> ~chi_10 u)
     6.61459620E-07    2     1000023         2   # BR(~u_L -> ~chi_20 u)
     2.38320796E-03    2     1000025         2   # BR(~u_L -> ~chi_30 u)
     4.22395543E-02    2     1000035         2   # BR(~u_L -> ~chi_40 u)
     6.01201950E-04    2     1000024         1   # BR(~u_L -> ~chi_1+ d)
     8.45067208E-02    2     1000037         1   # BR(~u_L -> ~chi_2+ d)
     8.69452672E-01    2     1000021         2   # BR(~u_L -> ~g      u)
#
#         PDG            Width
DECAY   2000002     1.66895668E+02   # sup_R decays
#          BR         NDA      ID1       ID2
     2.72211206E-02    2     1000022         2   # BR(~u_R -> ~chi_10 u)
     3.55181578E-07    2     1000023         2   # BR(~u_R -> ~chi_20 u)
     2.33653250E-02    2     1000025         2   # BR(~u_R -> ~chi_30 u)
     8.92439354E-08    2     1000035         2   # BR(~u_R -> ~chi_40 u)
     9.49413110E-01    2     1000021         2   # BR(~u_R -> ~g      u)
#
#         PDG            Width
DECAY   1000001     1.82247403E+02   # sdown_L decays
#          BR         NDA      ID1       ID2
     2.53809860E-03    2     1000022         1   # BR(~d_L -> ~chi_10 d)
     1.20666078E-06    2     1000023         1   # BR(~d_L -> ~chi_20 d)
     5.91556803E-04    2     1000025         1   # BR(~d_L -> ~chi_30 d)
     4.23031908E-02    2     1000035         1   # BR(~d_L -> ~chi_40 d)
     4.76124146E-04    2    -1000024         2   # BR(~d_L -> ~chi_1- u)
     8.45809925E-02    2    -1000037         2   # BR(~d_L -> ~chi_2- u)
     8.69508831E-01    2     1000021         1   # BR(~d_L -> ~g      d)
#
#         PDG            Width
DECAY   2000001     1.60568968E+02   # sdown_R decays
#          BR         NDA      ID1       ID2
     7.07357806E-03    2     1000022         1   # BR(~d_R -> ~chi_10 d)
     9.22961952E-08    2     1000023         1   # BR(~d_R -> ~chi_20 d)
     6.07163075E-03    2     1000025         1   # BR(~d_R -> ~chi_30 d)
     2.31912214E-08    2     1000035         1   # BR(~d_R -> ~chi_40 d)
     9.86854676E-01    2     1000021         1   # BR(~d_R -> ~g      d)
#
#         PDG            Width
DECAY   1000004     1.82239914E+02   # scharm_L decays
#          BR         NDA      ID1       ID2
     8.15981203E-04    2     1000022         4   # BR(~c_L -> ~chi_10 c)
     6.61459620E-07    2     1000023         4   # BR(~c_L -> ~chi_20 c)
     2.38320796E-03    2     1000025         4   # BR(~c_L -> ~chi_30 c)
     4.22395543E-02    2     1000035         4   # BR(~c_L -> ~chi_40 c)
     6.01201950E-04    2     1000024         3   # BR(~c_L -> ~chi_1+ s)
     8.45067208E-02    2     1000037         3   # BR(~c_L -> ~chi_2+ s)
     8.69452672E-01    2     1000021         4   # BR(~c_L -> ~g      c)
#
#         PDG            Width
DECAY   2000004     1.66895668E+02   # scharm_R decays
#          BR         NDA      ID1       ID2
     2.72211206E-02    2     1000022         4   # BR(~c_R -> ~chi_10 c)
     3.55181578E-07    2     1000023         4   # BR(~c_R -> ~chi_20 c)
     2.33653250E-02    2     1000025         4   # BR(~c_R -> ~chi_30 c)
     8.92439354E-08    2     1000035         4   # BR(~c_R -> ~chi_40 c)
     9.49413110E-01    2     1000021         4   # BR(~c_R -> ~g      c)
#
#         PDG            Width
DECAY   1000003     1.82247403E+02   # sstrange_L decays
#          BR         NDA      ID1       ID2
     2.53809860E-03    2     1000022         3   # BR(~s_L -> ~chi_10 s)
     1.20666078E-06    2     1000023         3   # BR(~s_L -> ~chi_20 s)
     5.91556803E-04    2     1000025         3   # BR(~s_L -> ~chi_30 s)
     4.23031908E-02    2     1000035         3   # BR(~s_L -> ~chi_40 s)
     4.76124146E-04    2    -1000024         4   # BR(~s_L -> ~chi_1- c)
     8.45809925E-02    2    -1000037         4   # BR(~s_L -> ~chi_2- c)
     8.69508831E-01    2     1000021         3   # BR(~s_L -> ~g      s)
#
#         PDG            Width
DECAY   2000003     1.60568968E+02   # sstrange_R decays
#          BR         NDA      ID1       ID2
     7.07357806E-03    2     1000022         3   # BR(~s_R -> ~chi_10 s)
     9.22961952E-08    2     1000023         3   # BR(~s_R -> ~chi_20 s)
     6.07163075E-03    2     1000025         3   # BR(~s_R -> ~chi_30 s)
     2.31912214E-08    2     1000035         3   # BR(~s_R -> ~chi_40 s)
     9.86854676E-01    2     1000021         3   # BR(~s_R -> ~g      s)
#
#         PDG            Width
DECAY   1000011     2.89373775E+01   # selectron_L decays
#          BR         NDA      ID1       ID2
     7.55395478E-02    2     1000022        11   # BR(~e_L -> ~chi_10 e-)
     1.82277579E-06    2     1000023        11   # BR(~e_L -> ~chi_20 e-)
     9.71904556E-02    2     1000025        11   # BR(~e_L -> ~chi_30 e-)
     2.74264589E-01    2     1000035        11   # BR(~e_L -> ~chi_40 e-)
     3.11133690E-03    2    -1000024        12   # BR(~e_L -> ~chi_1- nu_e)
     5.49892248E-01    2    -1000037        12   # BR(~e_L -> ~chi_2- nu_e)
#
#         PDG            Width
DECAY   2000011     1.97114396E+01   # selectron_R decays
#          BR         NDA      ID1       ID2
     5.38149587E-01    2     1000022        11   # BR(~e_R -> ~chi_10 e-)
     7.02107370E-06    2     1000023        11   # BR(~e_R -> ~chi_20 e-)
     4.61841637E-01    2     1000025        11   # BR(~e_R -> ~chi_30 e-)
     1.75525665E-06    2     1000035        11   # BR(~e_R -> ~chi_40 e-)
#
#         PDG            Width
DECAY   1000013     2.89373775E+01   # smuon_L decays
#          BR         NDA      ID1       ID2
     7.55395478E-02    2     1000022        13   # BR(~mu_L -> ~chi_10 mu-)
     1.82277579E-06    2     1000023        13   # BR(~mu_L -> ~chi_20 mu-)
     9.71904556E-02    2     1000025        13   # BR(~mu_L -> ~chi_30 mu-)
     2.74264589E-01    2     1000035        13   # BR(~mu_L -> ~chi_40 mu-)
     3.11133690E-03    2    -1000024        14   # BR(~mu_L -> ~chi_1- nu_mu)
     5.49892248E-01    2    -1000037        14   # BR(~mu_L -> ~chi_2- nu_mu)
#
#         PDG            Width
DECAY   2000013     1.97114396E+01   # smuon_R decays
#          BR         NDA      ID1       ID2
     5.38149587E-01    2     1000022        13   # BR(~mu_R -> ~chi_10 mu-)
     7.02107370E-06    2     1000023        13   # BR(~mu_R -> ~chi_20 mu-)
     4.61841637E-01    2     1000025        13   # BR(~mu_R -> ~chi_30 mu-)
     1.75525665E-06    2     1000035        13   # BR(~mu_R -> ~chi_40 mu-)
#
#         PDG            Width
DECAY   1000015     2.43704885E+01   # stau_1 decays
#          BR         NDA      ID1       ID2
     2.69621300E-01    2     1000022        15   # BR(~tau_1 -> ~chi_10  tau-)
     4.39329877E-04    2     1000023        15   # BR(~tau_1 -> ~chi_20  tau-)
     2.41171158E-01    2     1000025        15   # BR(~tau_1 -> ~chi_30  tau-)
     1.61163743E-01    2     1000035        15   # BR(~tau_1 -> ~chi_40  tau-)
     4.32578572E-03    2    -1000024        16   # BR(~tau_1 -> ~chi_1-  nu_tau)
     3.23131107E-01    2    -1000037        16   # BR(~tau_1 -> ~chi_2-  nu_tau)
     1.47575923E-04    2     1000039        15   # BR(~tau_1 -> ~G       tau-)
#
#         PDG            Width
DECAY   2000015     2.43584906E+01   # stau_2 decays
#          BR         NDA      ID1       ID2
     2.55963163E-01    2     1000022        15   # BR(~tau_2 -> ~chi_10  tau-)
     6.15838729E-04    2     1000023        15   # BR(~tau_2 -> ~chi_20  tau-)
     2.48453285E-01    2     1000025        15   # BR(~tau_2 -> ~chi_30  tau-)
     1.64581285E-01    2     1000035        15   # BR(~tau_2 -> ~chi_40  tau-)
     4.13934512E-04    2    -1000024        16   # BR(~tau_2 -> ~chi_1-  nu_tau)
     3.29972494E-01    2    -1000037        16   # BR(~tau_2 -> ~chi_2-  nu_tau)
#
#         PDG            Width
DECAY   1000012     2.89389424E+01   # snu_eL decays
#          BR         NDA      ID1       ID2
     1.09289316E-01    2     1000022        12   # BR(~nu_eL -> ~chi_10 nu_e)
     1.25089123E-05    2     1000023        12   # BR(~nu_eL -> ~chi_20 nu_e)
     6.20601991E-02    2     1000025        12   # BR(~nu_eL -> ~chi_30 nu_e)
     2.75353001E-01    2     1000035        12   # BR(~nu_eL -> ~chi_40 nu_e)
     3.92831303E-03    2     1000024        11   # BR(~nu_eL -> ~chi_1+ e-)
     5.49356662E-01    2     1000037        11   # BR(~nu_eL -> ~chi_2+ e-)
#
#         PDG            Width
DECAY   1000014     2.89389424E+01   # snu_muL decays
#          BR         NDA      ID1       ID2
     1.09289316E-01    2     1000022        14   # BR(~nu_muL -> ~chi_10 nu_mu)
     1.25089123E-05    2     1000023        14   # BR(~nu_muL -> ~chi_20 nu_mu)
     6.20601991E-02    2     1000025        14   # BR(~nu_muL -> ~chi_30 nu_mu)
     2.75353001E-01    2     1000035        14   # BR(~nu_muL -> ~chi_40 nu_mu)
     3.92831303E-03    2     1000024        13   # BR(~nu_muL -> ~chi_1+ mu-)
     5.49356662E-01    2     1000037        13   # BR(~nu_muL -> ~chi_2+ mu-)
#
#         PDG            Width
DECAY   1000016     2.89644562E+01   # snu_tauL decays
#          BR         NDA      ID1       ID2
     1.09193047E-01    2     1000022        16   # BR(~nu_tauL -> ~chi_10 nu_tau)
     1.24978936E-05    2     1000023        16   # BR(~nu_tauL -> ~chi_20 nu_tau)
     6.20055322E-02    2     1000025        16   # BR(~nu_tauL -> ~chi_30 nu_tau)
     2.75110451E-01    2     1000035        16   # BR(~nu_tauL -> ~chi_40 nu_tau)
     4.80361457E-03    2     1000024        15   # BR(~nu_tauL -> ~chi_1+ tau-)
     5.48874858E-01    2     1000037        15   # BR(~nu_tauL -> ~chi_2+ tau-)
#
#         PDG            Width
DECAY   1000024     1.41825536E-04   # chargino1+ decays
#          BR         NDA      ID1       ID2
     4.86836890E-02    2     1000039        24   # BR(~chi_1+ -> ~G       W+)
#           BR         NDA      ID1       ID2       ID3
     3.17843811E-01    3     1000022         2        -1   # BR(~chi_1+ -> ~chi_10 u    db)
     3.16393845E-01    3     1000022         4        -3   # BR(~chi_1+ -> ~chi_10 c    sb)
     1.05948059E-01    3     1000022       -11        12   # BR(~chi_1+ -> ~chi_10 e+   nu_e)
     1.05945343E-01    3     1000022       -13        14   # BR(~chi_1+ -> ~chi_10 mu+  nu_mu)
     1.05185253E-01    3     1000022       -15        16   # BR(~chi_1+ -> ~chi_10 tau+ nu_tau)
#
#         PDG            Width
DECAY   1000037     3.68720188E+01   # chargino2+ decays
#          BR         NDA      ID1       ID2
     2.53480131E-01    2     1000024        23   # BR(~chi_2+ -> ~chi_1+  Z )
     1.08123521E-01    2     1000022        24   # BR(~chi_2+ -> ~chi_10  W+)
     2.46211648E-01    2     1000023        24   # BR(~chi_2+ -> ~chi_20  W+)
     1.39016351E-01    2     1000025        24   # BR(~chi_2+ -> ~chi_30  W+)
     2.53160736E-01    2     1000024        25   # BR(~chi_2+ -> ~chi_1+  h )
     7.61125159E-06    2     1000039        24   # BR(~chi_2+ -> ~G       W+)
     1.14532916E-09    2     1000039        37   # BR(~chi_2+ -> ~G       H+)
#
#         PDG            Width
DECAY   1000022    1.0E-05    # neutralino1 decays
#          BR         NDA      ID1       ID2
     5.00381414E-01    2     1000039        22   # BR(~chi_10 -> ~G        gam)
     4.88709539E-01    2     1000039        23   # BR(~chi_10 -> ~G        Z)
     1.09090466E-02    2     1000039        25   # BR(~chi_10 -> ~G        h)
#
#         PDG            Width
DECAY   1000023     1.80734024E-04   # neutralino2 decays
#          BR         NDA      ID1       ID2
     4.55628147E-04    2     1000022        22   # BR(~chi_20 -> ~chi_10 gam)
#          BR         NDA      ID1       ID2
     3.56452268E-08    2     1000039        22   # BR(~chi_20 -> ~G        gam)
     1.48331038E-03    2     1000039        23   # BR(~chi_20 -> ~G        Z)
     3.66433354E-02    2     1000039        25   # BR(~chi_20 -> ~G        h)
#           BR         NDA      ID1       ID2       ID3
     1.14037222E-01    3     1000022        -2         2   # BR(~chi_20 -> ~chi_10 ub      u)
     1.47666476E-01    3     1000022        -1         1   # BR(~chi_20 -> ~chi_10 db      d)
     1.13335965E-01    3     1000022        -4         4   # BR(~chi_20 -> ~chi_10 cb      c)
     1.47647799E-01    3     1000022        -3         3   # BR(~chi_20 -> ~chi_10 sb      s)
     1.35775445E-01    3     1000022        -5         5   # BR(~chi_20 -> ~chi_10 bb      b)
     3.37271307E-02    3     1000022       -11        11   # BR(~chi_20 -> ~chi_10 e+      e-)
     3.37260213E-02    3     1000022       -13        13   # BR(~chi_20 -> ~chi_10 mu+     mu-)
     3.34141374E-02    3     1000022       -15        15   # BR(~chi_20 -> ~chi_10 tau+    tau-)
     6.73566498E-02    3     1000022       -12        12   # BR(~chi_20 -> ~chi_10 nu_eb   nu_e)
     6.73566498E-02    3     1000022       -14        14   # BR(~chi_20 -> ~chi_10 nu_mub  nu_mu)
     6.73566498E-02    3     1000022       -16        16   # BR(~chi_20 -> ~chi_10 nu_taub nu_tau)
     3.59769412E-06    3     1000024        -2         1   # BR(~chi_20 -> ~chi_1+ ub      d)
     3.59769412E-06    3    -1000024        -1         2   # BR(~chi_20 -> ~chi_1- db      u)
     2.21990447E-06    3     1000024        -4         3   # BR(~chi_20 -> ~chi_1+ cb      s)
     2.21990447E-06    3    -1000024        -3         4   # BR(~chi_20 -> ~chi_1- sb      c)
     1.19923145E-06    3     1000024       -12        11   # BR(~chi_20 -> ~chi_1+ nu_eb   e-)
     1.19923145E-06    3    -1000024        12       -11   # BR(~chi_20 -> ~chi_1- nu_e    e+)
     1.19588053E-06    3     1000024       -14        13   # BR(~chi_20 -> ~chi_1+ nu_mub  mu-)
     1.19588053E-06    3    -1000024        14       -13   # BR(~chi_20 -> ~chi_1- nu_mu   mu+)
     5.59606103E-07    3     1000024       -16        15   # BR(~chi_20 -> ~chi_1+ nu_taub tau-)
     5.59606103E-07    3    -1000024        16       -15   # BR(~chi_20 -> ~chi_1- nu_tau  tau+)
#
#         PDG            Width
DECAY   1000025     1.96961649E-04   # neutralino3 decays
#          BR         NDA      ID1       ID2
     4.20452514E-04    2     1000022        22   # BR(~chi_30 -> ~chi_10 gam)
     7.53588168E-06    2     1000023        22   # BR(~chi_30 -> ~chi_20 gam)
#          BR         NDA      ID1       ID2
     3.03969726E-02    2     1000039        22   # BR(~chi_30 -> ~G        gam)
     2.70974209E-02    2     1000039        23   # BR(~chi_30 -> ~G        Z)
     7.94717694E-04    2     1000039        25   # BR(~chi_30 -> ~G        h)
#           BR         NDA      ID1       ID2       ID3
     1.48909322E-05    3     1000022        -2         2   # BR(~chi_30 -> ~chi_10 ub      u)
     1.78260550E-05    3     1000022        -1         1   # BR(~chi_30 -> ~chi_10 db      d)
     2.29532524E-05    3     1000022        -4         4   # BR(~chi_30 -> ~chi_10 cb      c)
     1.79768845E-05    3     1000022        -3         3   # BR(~chi_30 -> ~chi_10 sb      s)
     4.65939117E-05    3     1000022        -5         5   # BR(~chi_30 -> ~chi_10 bb      b)
     3.15677366E-06    3     1000022       -11        11   # BR(~chi_30 -> ~chi_10 e+      e-)
     3.15673758E-06    3     1000022       -13        13   # BR(~chi_30 -> ~chi_10 mu+     mu-)
     7.54499017E-06    3     1000022       -15        15   # BR(~chi_30 -> ~chi_10 tau+    tau-)
     8.67471764E-06    3     1000022       -12        12   # BR(~chi_30 -> ~chi_10 nu_eb   nu_e)
     8.67471764E-06    3     1000022       -14        14   # BR(~chi_30 -> ~chi_10 nu_mub  nu_mu)
     8.67471764E-06    3     1000022       -16        16   # BR(~chi_30 -> ~chi_10 nu_taub nu_tau)
     2.00694842E-02    3     1000023        -2         2   # BR(~chi_30 -> ~chi_20 ub      u)
     2.59879481E-02    3     1000023        -1         1   # BR(~chi_30 -> ~chi_20 db      d)
     1.98548729E-02    3     1000023        -4         4   # BR(~chi_30 -> ~chi_20 cb      c)
     2.59817890E-02    3     1000023        -3         3   # BR(~chi_30 -> ~chi_20 sb      s)
     2.21497811E-02    3     1000023        -5         5   # BR(~chi_30 -> ~chi_20 bb      b)
     5.93567411E-03    3     1000023       -11        11   # BR(~chi_30 -> ~chi_20 e+      e-)
     5.93535273E-03    3     1000023       -13        13   # BR(~chi_30 -> ~chi_20 mu+     mu-)
     5.84452433E-03    3     1000023       -15        15   # BR(~chi_30 -> ~chi_20 tau+    tau-)
     1.18541090E-02    3     1000023       -12        12   # BR(~chi_30 -> ~chi_20 nu_eb   nu_e)
     1.18541090E-02    3     1000023       -14        14   # BR(~chi_30 -> ~chi_20 nu_mub  nu_mu)
     1.18541090E-02    3     1000023       -16        16   # BR(~chi_30 -> ~chi_20 nu_taub nu_tau)
     1.29357889E-01    3     1000024        -2         1   # BR(~chi_30 -> ~chi_1+ ub      d)
     1.29357889E-01    3    -1000024        -1         2   # BR(~chi_30 -> ~chi_1- db      u)
     1.28590017E-01    3     1000024        -4         3   # BR(~chi_30 -> ~chi_1+ cb      s)
     1.28590017E-01    3    -1000024        -3         4   # BR(~chi_30 -> ~chi_1- sb      c)
     4.31192353E-02    3     1000024       -12        11   # BR(~chi_30 -> ~chi_1+ nu_eb   e-)
     4.31192353E-02    3    -1000024        12       -11   # BR(~chi_30 -> ~chi_1- nu_e    e+)
     4.31177952E-02    3     1000024       -14        13   # BR(~chi_30 -> ~chi_1+ nu_mub  mu-)
     4.31177952E-02    3    -1000024        14       -13   # BR(~chi_30 -> ~chi_1- nu_mu   mu+)
     4.27155746E-02    3     1000024       -16        15   # BR(~chi_30 -> ~chi_1+ nu_taub tau-)
     4.27155746E-02    3    -1000024        16       -15   # BR(~chi_30 -> ~chi_1- nu_tau  tau+)
#
#         PDG            Width
DECAY   1000035     3.68718430E+01   # neutralino4 decays
#          BR         NDA      ID1       ID2
     3.90526067E-04    2     1000022        23   # BR(~chi_40 -> ~chi_10   Z )
     2.52181215E-01    2     1000023        23   # BR(~chi_40 -> ~chi_20   Z )
     4.65614556E-04    2     1000025        23   # BR(~chi_40 -> ~chi_30   Z )
     2.46644965E-01    2     1000024       -24   # BR(~chi_40 -> ~chi_1+   W-)
     2.46644965E-01    2    -1000024        24   # BR(~chi_40 -> ~chi_1-   W+)
     1.10586395E-01    2     1000022        25   # BR(~chi_40 -> ~chi_10   h )
     8.36767326E-04    2     1000023        25   # BR(~chi_40 -> ~chi_20   h )
     1.42241939E-01    2     1000025        25   # BR(~chi_40 -> ~chi_30   h )
     1.82019179E-06    2     1000039        22   # BR(~chi_40 -> ~G        gam)
     5.79006581E-06    2     1000039        23   # BR(~chi_40 -> ~G        Z)
     7.82969806E-10    2     1000039        25   # BR(~chi_40 -> ~G        h)
     1.11691428E-09    2     1000039        35   # BR(~chi_40 -> ~G        H)
     2.32585960E-11    2     1000039        36   # BR(~chi_40 -> ~G        A)
#
#         PDG            Width
DECAY        25     4.08767891E-03   # h decays
#          BR         NDA      ID1       ID2
     6.17967241E-01    2           5        -5   # BR(h -> b       bb     )
     6.37174399E-02    2         -15        15   # BR(h -> tau+    tau-   )
     2.25536270E-04    2         -13        13   # BR(h -> mu+     mu-    )
     4.77931722E-04    2           3        -3   # BR(h -> s       sb     )
     2.06190440E-02    2           4        -4   # BR(h -> c       cb     )
     6.69497068E-02    2          21        21   # BR(h -> g       g      )
     2.30217822E-03    2          22        22   # BR(h -> gam     gam    )
     1.53678592E-03    2          22        23   # BR(h -> Z       gam    )
     2.00599470E-01    2          24       -24   # BR(h -> W+      W-     )
     2.56046655E-02    2          23        23   # BR(h -> Z       Z      )
#
#         PDG            Width
DECAY        35     3.78097849E+01   # H decays
#          BR         NDA      ID1       ID2
     1.46680304E-03    2           5        -5   # BR(H -> b       bb     )
     2.46429096E-04    2         -15        15   # BR(H -> tau+    tau-   )
     8.71218601E-07    2         -13        13   # BR(H -> mu+     mu-    )
     1.11547867E-06    2           3        -3   # BR(H -> s       sb     )
     1.00668624E-05    2           4        -4   # BR(H -> c       cb     )
     9.96069286E-01    2           6        -6   # BR(H -> t       tb     )
     7.97661394E-04    2          21        21   # BR(H -> g       g      )
     2.71456306E-06    2          22        22   # BR(H -> gam     gam    )
     1.16021441E-06    2          23        22   # BR(H -> Z       gam    )
     3.34493633E-04    2          24       -24   # BR(H -> W+      W-     )
     1.66790665E-04    2          23        23   # BR(H -> Z       Z      )
     9.02608267E-04    2          25        25   # BR(H -> h       h      )
     7.42667533E-24    2          36        36   # BR(H -> A       A      )
     2.93397187E-11    2          23        36   # BR(H -> Z       A      )
     6.60514701E-12    2          24       -37   # BR(H -> W+      H-     )
     6.60514701E-12    2         -24        37   # BR(H -> W-      H+     )
#
#         PDG            Width
DECAY        36     3.82380657E+01   # A decays
#          BR         NDA      ID1       ID2
     1.46973319E-03    2           5        -5   # BR(A -> b       bb     )
     2.43898749E-04    2         -15        15   # BR(A -> tau+    tau-   )
     8.62270184E-07    2         -13        13   # BR(A -> mu+     mu-    )
     1.13677875E-06    2           3        -3   # BR(A -> s       sb     )
     9.96180683E-06    2           4        -4   # BR(A -> c       cb     )
     9.97000196E-01    2           6        -6   # BR(A -> t       tb     )
     9.43679626E-04    2          21        21   # BR(A -> g       g      )
     3.14917531E-06    2          22        22   # BR(A -> gam     gam    )
     1.35280623E-06    2          23        22   # BR(A -> Z       gam    )
     3.26029792E-04    2          23        25   # BR(A -> Z       h      )
#
#         PDG            Width
DECAY        37     3.74471798E+01   # H+ decays
#          BR         NDA      ID1       ID2
     2.35477645E-06    2           4        -5   # BR(H+ -> c       bb     )
     2.49238801E-04    2         -15        16   # BR(H+ -> tau+    nu_tau )
     8.81149196E-07    2         -13        14   # BR(H+ -> mu+     nu_mu  )
     1.49706827E-08    2           2        -5   # BR(H+ -> u       bb     )
     5.45696676E-08    2           2        -3   # BR(H+ -> u       sb     )
     1.08732132E-05    2           4        -3   # BR(H+ -> c       sb     )
     9.99402436E-01    2           6        -5   # BR(H+ -> t       bb     )
     3.34146239E-04    2          24        25   # BR(H+ -> W+      h      )
     2.82110154E-13    2          24        36   # BR(H+ -> W+      A      )
