#
#                              ======================
#                              | THE SUSYHIT OUTPUT |
#                              ======================
#
#
#              ------------------------------------------------------
#              |     This is the output of the SUSY-HIT package     |
#              |  created by A.Djouadi, M.Muehlleitner and M.Spira. |
#              |  In case of problems with SUSY-HIT email to        |
#              |           margarete.muehlleitner@kit.edu           |
#              |           michael.spira@psi.ch                     |
#              |           abdelhak.djouadi@cern.ch                 |
#              ------------------------------------------------------
#
#              ------------------------------------------------------
#              |  SUSY Les Houches Accord - MSSM Spectrum + Decays  |
#              |              based on the decay programs           |
#              |                                                    |
#              |                     SDECAY 1.5a                    |
#              |                                                    |
#              |  Authors: M.Muhlleitner, A.Djouadi and Y.Mambrini  |
#              |  Ref.:    Comput.Phys.Commun.168(2005)46           |
#              |           [hep-ph/0311167]                         |
#              |                                                    |
#              |                     HDECAY 3.4                     |
#              |                                                    |
#              |  By: A.Djouadi,J.Kalinowski,M.Muhlleitner,M.Spira  |
#              |  Ref.:    Comput.Phys.Commun.108(1998)56           |
#              |           [hep-ph/9704448]                         |
#              |                                                    |
#              |                                                    |
#              |  If not stated otherwise all DRbar couplings and   |
#              |  soft SUSY breaking masses are given at the scale  |
#              |  Q=  0.91187600E+02
#              |                                                    |
#              ------------------------------------------------------
#
#
BLOCK DCINFO  # Decay Program information
     1   SDECAY/HDECAY # decay calculator
     2   1.5a /3.4    # version number
#
BLOCK SPINFO  # Spectrum calculator information
     1   SuSpect     # RGE +Spectrum calculator            
     2   2.43         # version number                     
#
BLOCK MODSEL  # Model selection
     1     2   # GMSB                                              
#
BLOCK SMINPUTS  # Standard Model inputs
         1     1.27932904E+02   # alpha_em^-1(M_Z)^MSbar
         2     1.16639000E-05   # G_F [GeV^-2]
         3     1.17200000E-01   # alpha_S(M_Z)^MSbar
         4     9.11870000E+01   # M_Z pole mass
         5     4.25000000E+00   # mb(mb)^MSbar
         6     1.72900000E+02   # mt pole mass
         7     1.77700000E+00   # mtau pole mass
#
BLOCK MINPAR  # Input parameters - minimal models
#
BLOCK EXTPAR  # Input parameters - non-minimal models
         0     9.11876000E+01   # EWSB                
         1     2.03600000E+03   # M_1                 
         2     3.00000000E+03   # M_2                 
         3     2.80000000E+03   # M_3                 
        11     0.00000000E+00   # A_t                 
        12     0.00000000E+00   # A_b                 
        13     0.00000000E+00   # A_tau               
        14     0.00000000E+00   # A_u                 
        15     0.00000000E+00   # A_d                 
        16     0.00000000E+00   # A_e                 
        23     2.05000000E+03   # mu(EWSB)            
        25     1.50000000E+00   # tanbeta(in)         
        26     2.00000000E+03   # MA_pole             
        31     5.00000000E+03   # M_eL                
        32     5.00000000E+03   # M_muL               
        33     5.00000000E+03   # M_tauL              
        34     5.00000000E+03   # M_eR                
        35     5.00000000E+03   # M_muR               
        36     5.00000000E+03   # M_tauR              
        41     5.00000000E+03   # M_q1L               
        42     5.00000000E+03   # M_q2L               
        43     5.00000000E+03   # M_q3L               
        44     5.00000000E+03   # M_uR                
        45     5.00000000E+03   # M_cR                
        46     5.00000000E+03   # M_tR                
        47     5.00000000E+03   # M_dR                
        48     5.00000000E+03   # M_sR                
        49     5.00000000E+03   # M_bR                
#
BLOCK MASS  # Mass Spectrum
# PDG code           mass       particle
        24     8.05422102E+01   # W+
        25     1.25000000E+02   # h
        35     2.00398554E+03   # H
        36     2.00000000E+03   # A
        37     2.00152317E+03   # H+
         5     4.87877839E+00   # b-quark pole mass calculated from mb(mb)_Msbar
   1000001     5.00013292E+03   # ~d_L
   2000001     5.00002539E+03   # ~d_R
   1000002     4.99989247E+03   # ~u_L
   2000002     4.99994922E+03   # ~u_R
   1000003     5.00013292E+03   # ~s_L
   2000003     5.00002539E+03   # ~s_R
   1000004     4.99989247E+03   # ~c_L
   2000004     4.99994922E+03   # ~c_R
   1000005     4.99925299E+03   # ~b_1
   2000005     5.00090663E+03   # ~b_2
   1000006     4.98141238E+03   # ~t_1
   2000006     5.02296908E+03   # ~t_2
   1000011     5.00008214E+03   # ~e_L
   2000011     5.00007617E+03   # ~e_R
   1000012     4.99984169E+03   # ~nu_eL
   1000013     5.00008214E+03   # ~mu_L
   2000013     5.00007617E+03   # ~mu_R
   1000014     4.99984169E+03   # ~nu_muL
   1000015     4.99953245E+03   # ~tau_1
   2000015     5.00062644E+03   # ~tau_2
   1000016     4.99984169E+03   # ~nu_tauL
   1000021     2.80000000E+03   # ~g
   1000022     1.99619766E+03   # ~chi_10
   1000023    -2.05006628E+03   # ~chi_20
   1000025     2.08352225E+03   # ~chi_30
   1000035     3.00634638E+03   # ~chi_40
   1000024     2.04376151E+03   # ~chi_1+
   1000037     3.00633371E+03   # ~chi_2+
   1000039     1.00000000E-09   # ~gravitino
#
BLOCK NMIX  # Neutralino Mixing Matrix
  1  1     7.37650642E-01   # N_11
  1  2    -5.19678511E-02   # N_12
  1  3     4.77274126E-01   # N_13
  1  4    -4.74742332E-01   # N_14
  2  1     2.13677033E-03   # N_21
  2  2    -3.07177765E-03   # N_22
  2  3    -7.07044673E-01   # N_23
  2  4    -7.07158984E-01   # N_24
  3  1     6.75169241E-01   # N_31
  3  2     6.22029917E-02   # N_32
  3  3    -5.18904934E-01   # N_33
  3  4     5.20590965E-01   # N_34
  4  1     3.66895386E-03   # N_41
  4  2    -9.96704918E-01   # N_42
  4  3    -5.50899921E-02   # N_43
  4  4     5.94216888E-02   # N_44
#
BLOCK UMIX  # Chargino Mixing Matrix U
  1  1    -7.77507577E-02   # U_11
  1  2     9.96972828E-01   # U_12
  2  1     9.96972828E-01   # U_21
  2  2     7.77507577E-02   # U_22
#
BLOCK VMIX  # Chargino Mixing Matrix V
  1  1    -8.38717827E-02   # V_11
  1  2     9.96476555E-01   # V_12
  2  1     9.96476555E-01   # V_21
  2  2     8.38717827E-02   # V_22
#
BLOCK STOPMIX  # Stop Mixing Matrix
  1  1     7.07589232E-01   # cos(theta_t)
  1  2     7.06624001E-01   # sin(theta_t)
  2  1    -7.06624001E-01   # -sin(theta_t)
  2  2     7.07589232E-01   # cos(theta_t)
#
BLOCK SBOTMIX  # Sbottom Mixing Matrix
  1  1     6.83730195E-01   # cos(theta_b)
  1  2     7.29734897E-01   # sin(theta_b)
  2  1    -7.29734897E-01   # -sin(theta_b)
  2  2     6.83730195E-01   # cos(theta_b)
#
BLOCK STAUMIX  # Stau Mixing Matrix
  1  1     7.05174235E-01   # cos(theta_tau)
  1  2     7.09034060E-01   # sin(theta_tau)
  2  1    -7.09034060E-01   # -sin(theta_tau)
  2  2     7.05174235E-01   # cos(theta_tau)
#
BLOCK ALPHA  # Higgs mixing
          -5.90193130E-01   # Mixing angle in the neutral Higgs boson sector
#
BLOCK HMIX Q=  9.11876000E+01  # DRbar Higgs Parameters
         1     2.05000000E+03   # mu(Q)               
         2     1.49999979E+00   # tanbeta(Q)          
         3     2.52348480E+02   # vev(Q)              
         4     2.94306896E+06   # MA^2(Q)             
#
BLOCK GAUGE Q=  9.11876000E+01  # The gauge couplings
     1     3.52701188E-01   # gprime(Q) DRbar
     2     6.26657910E-01   # g(Q) DRbar
     3     1.07511318E+00   # g3(Q) DRbar
#
BLOCK AU Q=  9.11876000E+01  # The trilinear couplings
  1  1     0.00000000E+00   # A_u(Q) DRbar
  2  2     0.00000000E+00   # A_c(Q) DRbar
  3  3     0.00000000E+00   # A_t(Q) DRbar
#
BLOCK AD Q=  9.11876000E+01  # The trilinear couplings
  1  1     0.00000000E+00   # A_d(Q) DRbar
  2  2     0.00000000E+00   # A_s(Q) DRbar
  3  3     0.00000000E+00   # A_b(Q) DRbar
#
BLOCK AE Q=  9.11876000E+01  # The trilinear couplings
  1  1     0.00000000E+00   # A_e(Q) DRbar
  2  2     0.00000000E+00   # A_mu(Q) DRbar
  3  3     0.00000000E+00   # A_tau(Q) DRbar
#
BLOCK Yu Q=  9.11876000E+01  # The Yukawa couplings
  1  1     0.00000000E+00   # y_u(Q) DRbar
  2  2     0.00000000E+00   # y_c(Q) DRbar
  3  3     1.02447877E+00   # y_t(Q) DRbar
#
BLOCK Yd Q=  9.11876000E+01  # The Yukawa couplings
  1  1     0.00000000E+00   # y_d(Q) DRbar
  2  2     0.00000000E+00   # y_s(Q) DRbar
  3  3     2.71086590E-02   # y_b(Q) DRbar
#
BLOCK Ye Q=  9.11876000E+01  # The Yukawa couplings
  1  1     0.00000000E+00   # y_e(Q) DRbar
  2  2     0.00000000E+00   # y_mu(Q) DRbar
  3  3     1.79719036E-02   # y_tau(Q) DRbar
#
BLOCK MSOFT Q=  9.11876000E+01  # The soft SUSY breaking masses at the scale Q
         1     2.03600000E+03   # M_1                 
         2     3.00000000E+03   # M_2                 
         3     2.80000000E+03   # M_3                 
        14     0.00000000E+00   # A_u                 
        15     0.00000000E+00   # A_d                 
        16     0.00000000E+00   # A_e                 
        21    -1.65364884E+06   # M^2_Hd              
        22    -9.15105434E+06   # M^2_Hu              
        31     5.00000000E+03   # M_eL                
        32     5.00000000E+03   # M_muL               
        33     5.00000000E+03   # M_tauL              
        34     5.00000000E+03   # M_eR                
        35     5.00000000E+03   # M_muR               
        36     5.00000000E+03   # M_tauR              
        41     5.00000000E+03   # M_q1L               
        42     5.00000000E+03   # M_q2L               
        43     5.00000000E+03   # M_q3L               
        44     5.00000000E+03   # M_uR                
        45     5.00000000E+03   # M_cR                
        46     5.00000000E+03   # M_tR                
        47     5.00000000E+03   # M_dR                
        48     5.00000000E+03   # M_sR                
        49     5.00000000E+03   # M_bR                
#
#
#
#                             =================
#                             |The decay table|
#                             =================
#
# - The QCD corrections to the decays gluino -> squark  + quark
#                                     squark -> gaugino + quark_prime
#                                     squark -> squark_prime + Higgs
#                                     squark -> gluino  + quark
#   are included.
#
# - The multi-body decays for the inos, stops and sbottoms are included.
#
# - The loop induced decays for the gluino, neutralinos and stops
#   are included.
#
# - The SUSY decays of the top quark are included.
#
# - Possible decays of the NLSP in GMSB models are included.
#
#
#         PDG            Width
DECAY         6     1.36817748E+00   # top decays
#          BR         NDA      ID1       ID2
     1.00000000E+00    2           5        24   # BR(t ->  b    W+)
#
#         PDG            Width
DECAY   1000021     5.35569457E-04   # gluino decays
#          BR         NDA      ID1       ID2
     1.14991202E-02    2     1000022        21   # BR(~g -> ~chi_10 g)
     2.12272828E-02    2     1000023        21   # BR(~g -> ~chi_20 g)
     1.03812294E-02    2     1000025        21   # BR(~g -> ~chi_30 g)
#          BR         NDA      ID1       ID2
     0.00000000E+00    2     1000039        21   # BR(~g -> ~G      g)
#           BR         NDA      ID1       ID2       ID3
     5.41472337E-03    3     1000022         1        -1   # BR(~g -> ~chi_10 d  db)
     1.57229900E-07    3     1000023         1        -1   # BR(~g -> ~chi_20 d  db)
     1.99788348E-03    3     1000025         1        -1   # BR(~g -> ~chi_30 d  db)
     1.50639704E-02    3     1000022         2        -2   # BR(~g -> ~chi_10 u  ub)
     1.20158015E-07    3     1000023         2        -2   # BR(~g -> ~chi_20 u  ub)
     8.54927721E-03    3     1000025         2        -2   # BR(~g -> ~chi_30 u  ub)
     5.41472337E-03    3     1000022         3        -3   # BR(~g -> ~chi_10 s  sb)
     1.57229900E-07    3     1000023         3        -3   # BR(~g -> ~chi_20 s  sb)
     1.99788348E-03    3     1000025         3        -3   # BR(~g -> ~chi_30 s  sb)
     1.50639704E-02    3     1000022         4        -4   # BR(~g -> ~chi_10 c  cb)
     1.20158015E-07    3     1000023         4        -4   # BR(~g -> ~chi_20 c  cb)
     8.54927721E-03    3     1000025         4        -4   # BR(~g -> ~chi_30 c  cb)
     5.46532444E-03    3     1000022         5        -5   # BR(~g -> ~chi_10 b  bb)
     1.34839034E-04    3     1000023         5        -5   # BR(~g -> ~chi_20 b  bb)
     2.07156668E-03    3     1000025         5        -5   # BR(~g -> ~chi_30 b  bb)
     6.66126040E-02    3     1000022         6        -6   # BR(~g -> ~chi_10 t  tb)
     9.13503087E-02    3     1000023         6        -6   # BR(~g -> ~chi_20 t  tb)
     6.48778166E-02    3     1000025         6        -6   # BR(~g -> ~chi_30 t  tb)
     4.82762495E-04    3     1000024         1        -2   # BR(~g -> ~chi_1+ d  ub)
     4.82762495E-04    3    -1000024         2        -1   # BR(~g -> ~chi_1- u  db)
     4.82762495E-04    3     1000024         3        -4   # BR(~g -> ~chi_1+ s  cb)
     4.82762495E-04    3    -1000024         4        -3   # BR(~g -> ~chi_1- c  sb)
     1.46215745E-01    3     1000024         5        -6   # BR(~g -> ~chi_1+ b  tb)
     1.46215745E-01    3    -1000024         6        -5   # BR(~g -> ~chi_1- t  bb)
#
#         PDG            Width
DECAY   1000006     2.23476826E+02   # stop1 decays
#          BR         NDA      ID1       ID2
     8.38252703E-02    2     1000022         6   # BR(~t_1 -> ~chi_10 t )
     1.13465400E-01    2     1000023         6   # BR(~t_1 -> ~chi_20 t )
     4.75553466E-02    2     1000025         6   # BR(~t_1 -> ~chi_30 t )
     1.35438910E-02    2     1000035         6   # BR(~t_1 -> ~chi_40 t )
     1.23541165E-01    2     1000024         5   # BR(~t_1 -> ~chi_1+ b )
     2.64185129E-02    2     1000037         5   # BR(~t_1 -> ~chi_2+ b )
     5.91650415E-01    2     1000021         6   # BR(~t_1 -> ~g      t )
#
#         PDG            Width
DECAY   2000006     2.11578275E+02   # stop2 decays
#          BR         NDA      ID1       ID2
     3.68069642E-02    2     1000022         6   # BR(~t_2 -> ~chi_10 t )
     1.13797427E-01    2     1000023         6   # BR(~t_2 -> ~chi_20 t )
     9.37650244E-02    2     1000025         6   # BR(~t_2 -> ~chi_30 t )
     2.32633265E-02    2     1000035         6   # BR(~t_2 -> ~chi_40 t )
     1.03310341E-01    2     1000024         5   # BR(~t_2 -> ~chi_1+ b )
     4.56822948E-02    2     1000037         5   # BR(~t_2 -> ~chi_2+ b )
     5.83374622E-01    2     1000021         6   # BR(~t_2 -> ~g      t )
#
#         PDG            Width
DECAY   1000005     1.61604873E+02   # sbottom1 decays
#          BR         NDA      ID1       ID2
     5.80260688E-03    2     1000022         5   # BR(~b_1 -> ~chi_10 b )
     9.51088391E-05    2     1000023         5   # BR(~b_1 -> ~chi_20 b )
     2.32430624E-03    2     1000025         5   # BR(~b_1 -> ~chi_30 b )
     2.12253698E-02    2     1000035         5   # BR(~b_1 -> ~chi_40 b )
     1.35284821E-01    2    -1000024         6   # BR(~b_1 -> ~chi_1- t )
     4.33501728E-02    2    -1000037         6   # BR(~b_1 -> ~chi_2- t )
     7.91917614E-01    2     1000021         5   # BR(~b_1 -> ~g      b )
#
#         PDG            Width
DECAY   2000005     1.69188938E+02   # sbottom2 decays
#          BR         NDA      ID1       ID2
     3.41177350E-03    2     1000022         5   # BR(~b_2 -> ~chi_10 b )
     1.14822206E-04    2     1000023         5   # BR(~b_2 -> ~chi_20 b )
     3.07651186E-03    2     1000025         5   # BR(~b_2 -> ~chi_30 b )
     2.50330123E-02    2     1000035         5   # BR(~b_2 -> ~chi_40 b )
     1.61513565E-01    2    -1000024         6   # BR(~b_2 -> ~chi_1- t )
     5.11418168E-02    2    -1000037         6   # BR(~b_2 -> ~chi_2- t )
     7.55708498E-01    2     1000021         5   # BR(~b_2 -> ~g      b )
#
#         PDG            Width
DECAY   1000002     1.51587971E+02   # sup_L decays
#          BR         NDA      ID1       ID2
     6.54507048E-04    2     1000022         2   # BR(~u_L -> ~chi_10 u)
     6.12348708E-07    2     1000023         2   # BR(~u_L -> ~chi_20 u)
     3.02183821E-03    2     1000025         2   # BR(~u_L -> ~chi_30 u)
     5.04178671E-02    2     1000035         2   # BR(~u_L -> ~chi_40 u)
     1.21063581E-03    2     1000024         1   # BR(~u_L -> ~chi_1+ d)
     1.00929842E-01    2     1000037         1   # BR(~u_L -> ~chi_2+ d)
     8.43764697E-01    2     1000021         2   # BR(~u_L -> ~g      u)
#
#         PDG            Width
DECAY   2000002     1.35276063E+02   # sup_R decays
#          BR         NDA      ID1       ID2
     3.00915612E-02    2     1000022         2   # BR(~u_R -> ~chi_10 u)
     2.47333302E-07    2     1000023         2   # BR(~u_R -> ~chi_20 u)
     2.43695762E-02    2     1000025         2   # BR(~u_R -> ~chi_30 u)
     4.31743593E-07    2     1000035         2   # BR(~u_R -> ~chi_40 u)
     9.45538184E-01    2     1000021         2   # BR(~u_R -> ~g      u)
#
#         PDG            Width
DECAY   1000001     1.51597089E+02   # sdown_L decays
#          BR         NDA      ID1       ID2
     3.17551815E-03    2     1000022         1   # BR(~d_L -> ~chi_10 d)
     1.03518833E-06    2     1000023         1   # BR(~d_L -> ~chi_20 d)
     3.52049362E-04    2     1000025         1   # BR(~d_L -> ~chi_30 d)
     5.05621981E-02    2     1000035         1   # BR(~d_L -> ~chi_40 d)
     1.04040579E-03    2    -1000024         2   # BR(~d_L -> ~chi_1- u)
     1.01040116E-01    2    -1000037         2   # BR(~d_L -> ~chi_2- u)
     8.43828677E-01    2     1000021         1   # BR(~d_L -> ~g      d)
#
#         PDG            Width
DECAY   2000001     1.29756089E+02   # sdown_R decays
#          BR         NDA      ID1       ID2
     7.84313419E-03    2     1000022         1   # BR(~d_R -> ~chi_10 d)
     6.44655728E-08    2     1000023         1   # BR(~d_R -> ~chi_20 d)
     6.35175060E-03    2     1000025         1   # BR(~d_R -> ~chi_30 d)
     1.12533190E-07    2     1000035         1   # BR(~d_R -> ~chi_40 d)
     9.85804938E-01    2     1000021         1   # BR(~d_R -> ~g      d)
#
#         PDG            Width
DECAY   1000004     1.51587971E+02   # scharm_L decays
#          BR         NDA      ID1       ID2
     6.54507048E-04    2     1000022         4   # BR(~c_L -> ~chi_10 c)
     6.12348708E-07    2     1000023         4   # BR(~c_L -> ~chi_20 c)
     3.02183821E-03    2     1000025         4   # BR(~c_L -> ~chi_30 c)
     5.04178671E-02    2     1000035         4   # BR(~c_L -> ~chi_40 c)
     1.21063581E-03    2     1000024         3   # BR(~c_L -> ~chi_1+ s)
     1.00929842E-01    2     1000037         3   # BR(~c_L -> ~chi_2+ s)
     8.43764697E-01    2     1000021         4   # BR(~c_L -> ~g      c)
#
#         PDG            Width
DECAY   2000004     1.35276063E+02   # scharm_R decays
#          BR         NDA      ID1       ID2
     3.00915612E-02    2     1000022         4   # BR(~c_R -> ~chi_10 c)
     2.47333302E-07    2     1000023         4   # BR(~c_R -> ~chi_20 c)
     2.43695762E-02    2     1000025         4   # BR(~c_R -> ~chi_30 c)
     4.31743593E-07    2     1000035         4   # BR(~c_R -> ~chi_40 c)
     9.45538184E-01    2     1000021         4   # BR(~c_R -> ~g      c)
#
#         PDG            Width
DECAY   1000003     1.51597089E+02   # sstrange_L decays
#          BR         NDA      ID1       ID2
     3.17551815E-03    2     1000022         3   # BR(~s_L -> ~chi_10 s)
     1.03518833E-06    2     1000023         3   # BR(~s_L -> ~chi_20 s)
     3.52049362E-04    2     1000025         3   # BR(~s_L -> ~chi_30 s)
     5.05621981E-02    2     1000035         3   # BR(~s_L -> ~chi_40 s)
     1.04040579E-03    2    -1000024         4   # BR(~s_L -> ~chi_1- c)
     1.01040116E-01    2    -1000037         4   # BR(~s_L -> ~chi_2- c)
     8.43828677E-01    2     1000021         3   # BR(~s_L -> ~g      s)
#
#         PDG            Width
DECAY   2000003     1.29756089E+02   # sstrange_R decays
#          BR         NDA      ID1       ID2
     7.84313419E-03    2     1000022         3   # BR(~s_R -> ~chi_10 s)
     6.44655728E-08    2     1000023         3   # BR(~s_R -> ~chi_20 s)
     6.35175060E-03    2     1000025         3   # BR(~s_R -> ~chi_30 s)
     1.12533190E-07    2     1000035         3   # BR(~s_R -> ~chi_40 s)
     9.85804938E-01    2     1000021         3   # BR(~s_R -> ~g      s)
#
#         PDG            Width
DECAY   1000011     2.82985733E+01   # selectron_L decays
#          BR         NDA      ID1       ID2
     6.43376956E-02    2     1000022        11   # BR(~e_L -> ~chi_10 e-)
     1.66876369E-06    2     1000023        11   # BR(~e_L -> ~chi_20 e-)
     9.21654940E-02    2     1000025        11   # BR(~e_L -> ~chi_30 e-)
     2.78361955E-01    2     1000035        11   # BR(~e_L -> ~chi_40 e-)
     5.78931236E-03    2    -1000024        12   # BR(~e_L -> ~chi_1- nu_e)
     5.59343875E-01    2    -1000037        12   # BR(~e_L -> ~chi_2- nu_e)
#
#         PDG            Width
DECAY   2000011     1.72200015E+01   # selectron_R decays
#          BR         NDA      ID1       ID2
     5.52599789E-01    2     1000022        11   # BR(~e_R -> ~chi_10 e-)
     4.54118669E-06    2     1000023        11   # BR(~e_R -> ~chi_20 e-)
     4.47387783E-01    2     1000025        11   # BR(~e_R -> ~chi_30 e-)
     7.88687666E-06    2     1000035        11   # BR(~e_R -> ~chi_40 e-)
#
#         PDG            Width
DECAY   1000013     2.82985733E+01   # smuon_L decays
#          BR         NDA      ID1       ID2
     6.43376956E-02    2     1000022        13   # BR(~mu_L -> ~chi_10 mu-)
     1.66876369E-06    2     1000023        13   # BR(~mu_L -> ~chi_20 mu-)
     9.21654940E-02    2     1000025        13   # BR(~mu_L -> ~chi_30 mu-)
     2.78361955E-01    2     1000035        13   # BR(~mu_L -> ~chi_40 mu-)
     5.78931236E-03    2    -1000024        14   # BR(~mu_L -> ~chi_1- nu_mu)
     5.59343875E-01    2    -1000037        14   # BR(~mu_L -> ~chi_2- nu_mu)
#
#         PDG            Width
DECAY   2000013     1.72200015E+01   # smuon_R decays
#          BR         NDA      ID1       ID2
     5.52599789E-01    2     1000022        13   # BR(~mu_R -> ~chi_10 mu-)
     4.54118669E-06    2     1000023        13   # BR(~mu_R -> ~chi_20 mu-)
     4.47387783E-01    2     1000025        13   # BR(~mu_R -> ~chi_30 mu-)
     7.88687666E-06    2     1000035        13   # BR(~mu_R -> ~chi_40 mu-)
#
#         PDG            Width
DECAY   1000015     2.28036772E+01   # stau_1 decays
#          BR         NDA      ID1       ID2
     2.55197229E-01    2     1000022        15   # BR(~tau_1 -> ~chi_10  tau-)
     4.17601563E-04    2     1000023        15   # BR(~tau_1 -> ~chi_20  tau-)
     2.23091610E-01    2     1000025        15   # BR(~tau_1 -> ~chi_30  tau-)
     1.70939584E-01    2     1000035        15   # BR(~tau_1 -> ~chi_40  tau-)
     6.70160179E-03    2    -1000024        16   # BR(~tau_1 -> ~chi_1-  nu_tau)
     3.43494675E-01    2    -1000037        16   # BR(~tau_1 -> ~chi_2-  nu_tau)
     1.57698833E-04    2     1000039        15   # BR(~tau_1 -> ~G       tau-)
#
#         PDG            Width
DECAY   2000015     2.27851963E+01   # stau_2 decays
#          BR         NDA      ID1       ID2
     2.42578867E-01    2     1000022        15   # BR(~tau_2 -> ~chi_10  tau-)
     5.63211034E-04    2     1000023        15   # BR(~tau_2 -> ~chi_20  tau-)
     2.29832288E-01    2     1000025        15   # BR(~tau_2 -> ~chi_30  tau-)
     1.74650394E-01    2     1000035        15   # BR(~tau_2 -> ~chi_40  tau-)
     1.45443327E-03    2    -1000024        16   # BR(~tau_2 -> ~chi_1-  nu_tau)
     3.50920806E-01    2    -1000037        16   # BR(~tau_2 -> ~chi_2-  nu_tau)
#
#         PDG            Width
DECAY   1000012     2.83012993E+01   # snu_eL decays
#          BR         NDA      ID1       ID2
     1.06409316E-01    2     1000022        12   # BR(~nu_eL -> ~chi_10 nu_e)
     8.72537261E-06    2     1000023        12   # BR(~nu_eL -> ~chi_20 nu_e)
     4.75935394E-02    2     1000025        12   # BR(~nu_eL -> ~chi_30 nu_e)
     2.80607309E-01    2     1000035        12   # BR(~nu_eL -> ~chi_40 nu_e)
     6.73550236E-03    2     1000024        11   # BR(~nu_eL -> ~chi_1+ e-)
     5.58645609E-01    2     1000037        11   # BR(~nu_eL -> ~chi_2+ e-)
#
#         PDG            Width
DECAY   1000014     2.83012993E+01   # snu_muL decays
#          BR         NDA      ID1       ID2
     1.06409316E-01    2     1000022        14   # BR(~nu_muL -> ~chi_10 nu_mu)
     8.72537261E-06    2     1000023        14   # BR(~nu_muL -> ~chi_20 nu_mu)
     4.75935394E-02    2     1000025        14   # BR(~nu_muL -> ~chi_30 nu_mu)
     2.80607309E-01    2     1000035        14   # BR(~nu_muL -> ~chi_40 nu_mu)
     6.73550236E-03    2     1000024        13   # BR(~nu_muL -> ~chi_1+ mu-)
     5.58645609E-01    2     1000037        13   # BR(~nu_muL -> ~chi_2+ mu-)
#
#         PDG            Width
DECAY   1000016     2.83235240E+01   # snu_tauL decays
#          BR         NDA      ID1       ID2
     1.06325820E-01    2     1000022        16   # BR(~nu_tauL -> ~chi_10 nu_tau)
     8.71852607E-06    2     1000023        16   # BR(~nu_tauL -> ~chi_20 nu_tau)
     4.75561941E-02    2     1000025        16   # BR(~nu_tauL -> ~chi_30 nu_tau)
     2.80387124E-01    2     1000035        16   # BR(~nu_tauL -> ~chi_40 nu_tau)
     7.51076558E-03    2     1000024        15   # BR(~nu_tauL -> ~chi_1+ tau-)
     5.58211378E-01    2     1000037        15   # BR(~nu_tauL -> ~chi_2+ tau-)
#
#         PDG            Width
DECAY   1000024     1.71872846E-04   # chargino1+ decays
#          BR         NDA      ID1       ID2
     1.19466754E-01    2     1000039        24   # BR(~chi_1+ -> ~G       W+)
     3.32288905E-07    2     1000039        37   # BR(~chi_1+ -> ~G       H+)
#           BR         NDA      ID1       ID2       ID3
     2.94162262E-01    3     1000022         2        -1   # BR(~chi_1+ -> ~chi_10 u    db)
     2.92883360E-01    3     1000022         4        -3   # BR(~chi_1+ -> ~chi_10 c    sb)
     9.80541943E-02    3     1000022       -11        12   # BR(~chi_1+ -> ~chi_10 e+   nu_e)
     9.80517995E-02    3     1000022       -13        14   # BR(~chi_1+ -> ~chi_10 mu+  nu_mu)
     9.73812978E-02    3     1000022       -15        16   # BR(~chi_1+ -> ~chi_10 tau+ nu_tau)
#
#         PDG            Width
DECAY   1000037     3.29610296E+01   # chargino2+ decays
#          BR         NDA      ID1       ID2
     2.54399453E-01    2     1000024        23   # BR(~chi_2+ -> ~chi_1+  Z )
     1.04211917E-01    2     1000022        24   # BR(~chi_2+ -> ~chi_10  W+)
     2.46007487E-01    2     1000023        24   # BR(~chi_2+ -> ~chi_20  W+)
     1.43950820E-01    2     1000025        24   # BR(~chi_2+ -> ~chi_30  W+)
     2.51421793E-01    2     1000024        25   # BR(~chi_2+ -> ~chi_1+  h )
     8.52677550E-06    2     1000039        24   # BR(~chi_2+ -> ~G       W+)
     2.61655382E-09    2     1000039        37   # BR(~chi_2+ -> ~G       H+)
#
#         PDG            Width
DECAY   1000022    1.0E-05    # neutralino1 decays
#          BR         NDA      ID1       ID2
     4.95301715E-01    2     1000039        22   # BR(~chi_10 -> ~G        gam)
     4.94083203E-01    2     1000039        23   # BR(~chi_10 -> ~G        Z)
     1.06150823E-02    2     1000039        25   # BR(~chi_10 -> ~G        h)
#
#         PDG            Width
DECAY   1000023     2.52107643E-04   # neutralino2 decays
#          BR         NDA      ID1       ID2
     2.24898200E-04    2     1000022        22   # BR(~chi_20 -> ~chi_10 gam)
#          BR         NDA      ID1       ID2
     2.08931290E-08    2     1000039        22   # BR(~chi_20 -> ~G        gam)
     3.15975779E-03    2     1000039        23   # BR(~chi_20 -> ~G        Z)
     7.83957007E-02    2     1000039        25   # BR(~chi_20 -> ~G        h)
     1.21338646E-08    2     1000039        35   # BR(~chi_20 -> ~G        H)
     4.30767624E-07    2     1000039        36   # BR(~chi_20 -> ~G        A)
#           BR         NDA      ID1       ID2       ID3
     1.08760184E-01    3     1000022        -2         2   # BR(~chi_20 -> ~chi_10 ub      u)
     1.40839405E-01    3     1000022        -1         1   # BR(~chi_20 -> ~chi_10 db      d)
     1.08147368E-01    3     1000022        -4         4   # BR(~chi_20 -> ~chi_10 cb      c)
     1.40823341E-01    3     1000022        -3         3   # BR(~chi_20 -> ~chi_10 sb      s)
     1.30585920E-01    3     1000022        -5         5   # BR(~chi_20 -> ~chi_10 bb      b)
     3.21707223E-02    3     1000022       -11        11   # BR(~chi_20 -> ~chi_10 e+      e-)
     3.21697422E-02    3     1000022       -13        13   # BR(~chi_20 -> ~chi_10 mu+     mu-)
     3.18943361E-02    3     1000022       -15        15   # BR(~chi_20 -> ~chi_10 tau+    tau-)
     6.42501864E-02    3     1000022       -12        12   # BR(~chi_20 -> ~chi_10 nu_eb   nu_e)
     6.42501864E-02    3     1000022       -14        14   # BR(~chi_20 -> ~chi_10 nu_mub  nu_mu)
     6.42501864E-02    3     1000022       -16        16   # BR(~chi_20 -> ~chi_10 nu_taub nu_tau)
     1.44833530E-05    3     1000024        -2         1   # BR(~chi_20 -> ~chi_1+ ub      d)
     1.44833530E-05    3    -1000024        -1         2   # BR(~chi_20 -> ~chi_1- db      u)
     1.13666501E-05    3     1000024        -4         3   # BR(~chi_20 -> ~chi_1+ cb      s)
     1.13666501E-05    3    -1000024        -3         4   # BR(~chi_20 -> ~chi_1- sb      c)
     4.82778472E-06    3     1000024       -12        11   # BR(~chi_20 -> ~chi_1+ nu_eb   e-)
     4.82778472E-06    3    -1000024        12       -11   # BR(~chi_20 -> ~chi_1- nu_e    e+)
     4.82101829E-06    3     1000024       -14        13   # BR(~chi_20 -> ~chi_1+ nu_mub  mu-)
     4.82101829E-06    3    -1000024        14       -13   # BR(~chi_20 -> ~chi_1- nu_mu   mu+)
     3.30185637E-06    3     1000024       -16        15   # BR(~chi_20 -> ~chi_1+ nu_taub tau-)
     3.30185637E-06    3    -1000024        16       -15   # BR(~chi_20 -> ~chi_1- nu_tau  tau+)
#
#         PDG            Width
DECAY   1000025     1.92178344E-04   # neutralino3 decays
#          BR         NDA      ID1       ID2
     4.31781092E-04    2     1000022        22   # BR(~chi_30 -> ~chi_10 gam)
     4.60937027E-06    2     1000023        22   # BR(~chi_30 -> ~chi_20 gam)
#          BR         NDA      ID1       ID2
     9.00940589E-02    2     1000039        22   # BR(~chi_30 -> ~G        gam)
     7.85739695E-02    2     1000039        23   # BR(~chi_30 -> ~G        Z)
     2.39524077E-03    2     1000039        25   # BR(~chi_30 -> ~G        h)
     1.92240280E-06    2     1000039        35   # BR(~chi_30 -> ~G        H)
     9.16167899E-08    2     1000039        36   # BR(~chi_30 -> ~G        A)
#           BR         NDA      ID1       ID2       ID3
     1.85661361E-05    3     1000022        -2         2   # BR(~chi_30 -> ~chi_10 ub      u)
     2.23007502E-05    3     1000022        -1         1   # BR(~chi_30 -> ~chi_10 db      d)
     3.50076698E-05    3     1000022        -4         4   # BR(~chi_30 -> ~chi_10 cb      c)
     2.26082663E-05    3     1000022        -3         3   # BR(~chi_30 -> ~chi_10 sb      s)
     8.10465160E-05    3     1000022        -5         5   # BR(~chi_30 -> ~chi_10 bb      b)
     3.96814196E-06    3     1000022       -11        11   # BR(~chi_30 -> ~chi_10 e+      e-)
     3.96809664E-06    3     1000022       -13        13   # BR(~chi_30 -> ~chi_10 mu+     mu-)
     1.29139189E-05    3     1000022       -15        15   # BR(~chi_30 -> ~chi_10 tau+    tau-)
     1.08076761E-05    3     1000022       -12        12   # BR(~chi_30 -> ~chi_10 nu_eb   nu_e)
     1.08076761E-05    3     1000022       -14        14   # BR(~chi_30 -> ~chi_10 nu_mub  nu_mu)
     1.08076761E-05    3     1000022       -16        16   # BR(~chi_30 -> ~chi_10 nu_taub nu_tau)
     1.37184138E-02    3     1000023        -2         2   # BR(~chi_30 -> ~chi_20 ub      u)
     1.77647279E-02    3     1000023        -1         1   # BR(~chi_30 -> ~chi_20 db      d)
     1.35489540E-02    3     1000023        -4         4   # BR(~chi_30 -> ~chi_20 cb      c)
     1.77597992E-02    3     1000023        -3         3   # BR(~chi_30 -> ~chi_20 sb      s)
     1.47162679E-02    3     1000023        -5         5   # BR(~chi_30 -> ~chi_20 bb      b)
     4.05784578E-03    3     1000023       -11        11   # BR(~chi_30 -> ~chi_20 e+      e-)
     4.05759474E-03    3     1000023       -13        13   # BR(~chi_30 -> ~chi_20 mu+     mu-)
     3.98648883E-03    3     1000023       -15        15   # BR(~chi_30 -> ~chi_20 tau+    tau-)
     8.10414546E-03    3     1000023       -12        12   # BR(~chi_30 -> ~chi_20 nu_eb   nu_e)
     8.10414546E-03    3     1000023       -14        14   # BR(~chi_30 -> ~chi_20 nu_mub  nu_mu)
     8.10414546E-03    3     1000023       -16        16   # BR(~chi_30 -> ~chi_20 nu_taub nu_tau)
     1.19437793E-01    3     1000024        -2         1   # BR(~chi_30 -> ~chi_1+ ub      d)
     1.19437793E-01    3    -1000024        -1         2   # BR(~chi_30 -> ~chi_1- db      u)
     1.18690339E-01    3     1000024        -4         3   # BR(~chi_30 -> ~chi_1+ cb      s)
     1.18690339E-01    3    -1000024        -3         4   # BR(~chi_30 -> ~chi_1- sb      c)
     3.98125421E-02    3     1000024       -12        11   # BR(~chi_30 -> ~chi_1+ nu_eb   e-)
     3.98125421E-02    3    -1000024        12       -11   # BR(~chi_30 -> ~chi_1- nu_e    e+)
     3.98111399E-02    3     1000024       -14        13   # BR(~chi_30 -> ~chi_1+ nu_mub  mu-)
     3.98111399E-02    3    -1000024        14       -13   # BR(~chi_30 -> ~chi_1- nu_mu   mu+)
     3.94196832E-02    3     1000024       -16        15   # BR(~chi_30 -> ~chi_1+ nu_taub tau-)
     3.94196832E-02    3    -1000024        16       -15   # BR(~chi_30 -> ~chi_1- nu_tau  tau+)
#
#         PDG            Width
DECAY   1000035     3.29593380E+01   # neutralino4 decays
#          BR         NDA      ID1       ID2
     1.65676969E-04    2     1000022        23   # BR(~chi_40 -> ~chi_10   Z )
     2.52632051E-01    2     1000023        23   # BR(~chi_40 -> ~chi_20   Z )
     2.00070356E-04    2     1000025        23   # BR(~chi_40 -> ~chi_30   Z )
     2.47386835E-01    2     1000024       -24   # BR(~chi_40 -> ~chi_1+   W-)
     2.47386835E-01    2    -1000024        24   # BR(~chi_40 -> ~chi_1-   W+)
     1.05730899E-01    2     1000022        25   # BR(~chi_40 -> ~chi_10   h )
     3.51620556E-04    2     1000023        25   # BR(~chi_40 -> ~chi_20   h )
     1.46137482E-01    2     1000025        25   # BR(~chi_40 -> ~chi_30   h )
     2.02336281E-06    2     1000039        22   # BR(~chi_40 -> ~G        gam)
     6.50204363E-06    2     1000039        23   # BR(~chi_40 -> ~G        Z)
     1.49123401E-09    2     1000039        25   # BR(~chi_40 -> ~G        h)
     2.54163526E-09    2     1000039        35   # BR(~chi_40 -> ~G        H)
     6.86626787E-11    2     1000039        36   # BR(~chi_40 -> ~G        A)
#
#         PDG            Width
DECAY        25     4.08972224E-03   # h decays
#          BR         NDA      ID1       ID2
     6.18175259E-01    2           5        -5   # BR(h -> b       bb     )
     6.36839973E-02    2         -15        15   # BR(h -> tau+    tau-   )
     2.25417896E-04    2         -13        13   # BR(h -> mu+     mu-    )
     4.77681103E-04    2           3        -3   # BR(h -> s       sb     )
     2.06089756E-02    2           4        -4   # BR(h -> c       cb     )
     6.69161583E-02    2          21        21   # BR(h -> g       g      )
     2.30057873E-03    2          22        22   # BR(h -> gam     gam    )
     1.53604577E-03    2          22        23   # BR(h -> Z       gam    )
     2.00484013E-01    2          24       -24   # BR(h -> W+      W-     )
     2.55918737E-02    2          23        23   # BR(h -> Z       Z      )
#
#         PDG            Width
DECAY        35     3.78082006E+01   # H decays
#          BR         NDA      ID1       ID2
     1.46353158E-03    2           5        -5   # BR(H -> b       bb     )
     2.46440047E-04    2         -15        15   # BR(H -> tau+    tau-   )
     8.71257318E-07    2         -13        13   # BR(H -> mu+     mu-    )
     1.11552984E-06    2           3        -3   # BR(H -> s       sb     )
     1.00669539E-05    2           4        -4   # BR(H -> c       cb     )
     9.96077848E-01    2           6        -6   # BR(H -> t       tb     )
     7.97651533E-04    2          21        21   # BR(H -> g       g      )
     2.71680935E-06    2          22        22   # BR(H -> gam     gam    )
     1.16041523E-06    2          23        22   # BR(H -> Z       gam    )
     3.31931331E-04    2          24       -24   # BR(H -> W+      W-     )
     1.65513022E-04    2          23        23   # BR(H -> Z       Z      )
     9.01153471E-04    2          25        25   # BR(H -> h       h      )
     7.18421006E-24    2          36        36   # BR(H -> A       A      )
     2.87013098E-11    2          23        36   # BR(H -> Z       A      )
     6.29504690E-12    2          24       -37   # BR(H -> W+      H-     )
     6.29504690E-12    2         -24        37   # BR(H -> W-      H+     )
#
#         PDG            Width
DECAY        36     3.82378429E+01   # A decays
#          BR         NDA      ID1       ID2
     1.46643091E-03    2           5        -5   # BR(A -> b       bb     )
     2.43900170E-04    2         -15        15   # BR(A -> tau+    tau-   )
     8.62275210E-07    2         -13        13   # BR(A -> mu+     mu-    )
     1.13678538E-06    2           3        -3   # BR(A -> s       sb     )
     9.96186490E-06    2           4        -4   # BR(A -> c       cb     )
     9.97006007E-01    2           6        -6   # BR(A -> t       tb     )
     9.43685127E-04    2          21        21   # BR(A -> g       g      )
     3.13337871E-06    2          22        22   # BR(A -> gam     gam    )
     1.35298986E-06    2          23        22   # BR(A -> Z       gam    )
     3.23529284E-04    2          23        25   # BR(A -> Z       h      )
#
#         PDG            Width
DECAY        37     3.74470153E+01   # H+ decays
#          BR         NDA      ID1       ID2
     2.34747248E-06    2           4        -5   # BR(H+ -> c       bb     )
     2.49240669E-04    2         -15        16   # BR(H+ -> tau+    nu_tau )
     8.81155798E-07    2         -13        14   # BR(H+ -> mu+     nu_mu  )
     1.49239367E-08    2           2        -5   # BR(H+ -> u       bb     )
     5.45700536E-08    2           2        -3   # BR(H+ -> u       sb     )
     1.08732901E-05    2           4        -3   # BR(H+ -> c       sb     )
     9.99405002E-01    2           6        -5   # BR(H+ -> t       bb     )
     3.31586101E-04    2          24        25   # BR(H+ -> W+      h      )
     2.87923445E-13    2          24        36   # BR(H+ -> W+      A      )
