#
#                              ======================
#                              | THE SUSYHIT OUTPUT |
#                              ======================
#
#
#              ------------------------------------------------------
#              |     This is the output of the SUSY-HIT package     |
#              |  created by A.Djouadi, M.Muehlleitner and M.Spira. |
#              |  In case of problems with SUSY-HIT email to        |
#              |           margarete.muehlleitner@kit.edu           |
#              |           michael.spira@psi.ch                     |
#              |           abdelhak.djouadi@cern.ch                 |
#              ------------------------------------------------------
#
#              ------------------------------------------------------
#              |  SUSY Les Houches Accord - MSSM Spectrum + Decays  |
#              |              based on the decay programs           |
#              |                                                    |
#              |                     SDECAY 1.5a                    |
#              |                                                    |
#              |  Authors: M.Muhlleitner, A.Djouadi and Y.Mambrini  |
#              |  Ref.:    Comput.Phys.Commun.168(2005)46           |
#              |           [hep-ph/0311167]                         |
#              |                                                    |
#              |                     HDECAY 3.4                     |
#              |                                                    |
#              |  By: A.Djouadi,J.Kalinowski,M.Muhlleitner,M.Spira  |
#              |  Ref.:    Comput.Phys.Commun.108(1998)56           |
#              |           [hep-ph/9704448]                         |
#              |                                                    |
#              |                                                    |
#              |  If not stated otherwise all DRbar couplings and   |
#              |  soft SUSY breaking masses are given at the scale  |
#              |  Q=  0.91187600E+02
#              |                                                    |
#              ------------------------------------------------------
#
#
BLOCK DCINFO  # Decay Program information
     1   SDECAY/HDECAY # decay calculator
     2   1.5a /3.4    # version number
#
BLOCK SPINFO  # Spectrum calculator information
     1   SuSpect     # RGE +Spectrum calculator            
     2   2.43         # version number                     
#
BLOCK MODSEL  # Model selection
     1     2   # GMSB                                              
#
BLOCK SMINPUTS  # Standard Model inputs
         1     1.27932904E+02   # alpha_em^-1(M_Z)^MSbar
         2     1.16639000E-05   # G_F [GeV^-2]
         3     1.17200000E-01   # alpha_S(M_Z)^MSbar
         4     9.11870000E+01   # M_Z pole mass
         5     4.25000000E+00   # mb(mb)^MSbar
         6     1.72900000E+02   # mt pole mass
         7     1.77700000E+00   # mtau pole mass
#
BLOCK MINPAR  # Input parameters - minimal models
#
BLOCK EXTPAR  # Input parameters - non-minimal models
         0     9.11876000E+01   # EWSB                
         1     1.04500000E+03   # M_1                 
         2     3.00000000E+03   # M_2                 
         3     2.20000000E+03   # M_3                 
        11     0.00000000E+00   # A_t                 
        12     0.00000000E+00   # A_b                 
        13     0.00000000E+00   # A_tau               
        14     0.00000000E+00   # A_u                 
        15     0.00000000E+00   # A_d                 
        16     0.00000000E+00   # A_e                 
        23     1.05000000E+03   # mu(EWSB)            
        25     1.50000000E+00   # tanbeta(in)         
        26     2.00000000E+03   # MA_pole             
        31     5.00000000E+03   # M_eL                
        32     5.00000000E+03   # M_muL               
        33     5.00000000E+03   # M_tauL              
        34     5.00000000E+03   # M_eR                
        35     5.00000000E+03   # M_muR               
        36     5.00000000E+03   # M_tauR              
        41     5.00000000E+03   # M_q1L               
        42     5.00000000E+03   # M_q2L               
        43     5.00000000E+03   # M_q3L               
        44     5.00000000E+03   # M_uR                
        45     5.00000000E+03   # M_cR                
        46     5.00000000E+03   # M_tR                
        47     5.00000000E+03   # M_dR                
        48     5.00000000E+03   # M_sR                
        49     5.00000000E+03   # M_bR                
#
BLOCK MASS  # Mass Spectrum
# PDG code           mass       particle
        24     8.05405921E+01   # W+
        25     1.25000000E+02   # h
        35     2.00410320E+03   # H
        36     2.00000000E+03   # A
        37     2.00158062E+03   # H+
         5     4.87877839E+00   # b-quark pole mass calculated from mb(mb)_Msbar
   1000001     5.00013294E+03   # ~d_L
   2000001     5.00002536E+03   # ~d_R
   1000002     4.99989241E+03   # ~u_L
   2000002     4.99994929E+03   # ~u_R
   1000003     5.00013294E+03   # ~s_L
   2000003     5.00002536E+03   # ~s_R
   1000004     4.99989241E+03   # ~c_L
   2000004     4.99994929E+03   # ~c_R
   1000005     4.99965318E+03   # ~b_1
   2000005     5.00050653E+03   # ~b_2
   1000006     4.99157766E+03   # ~t_1
   2000006     5.01287110E+03   # ~t_2
   1000011     5.00008223E+03   # ~e_L
   2000011     5.00007607E+03   # ~e_R
   1000012     4.99984170E+03   # ~nu_eL
   1000013     5.00008223E+03   # ~mu_L
   2000013     5.00007607E+03   # ~mu_R
   1000014     4.99984170E+03   # ~nu_muL
   1000015     4.99979938E+03   # ~tau_1
   2000015     5.00035953E+03   # ~tau_2
   1000016     4.99984170E+03   # ~nu_tauL
   1000021     2.20000000E+03   # ~g
   1000022     1.00239649E+03   # ~chi_10
   1000023    -1.05009581E+03   # ~chi_20
   1000025     1.08955965E+03   # ~chi_30
   1000035     3.00313967E+03   # ~chi_40
   1000024     1.04698055E+03   # ~chi_1+
   1000037     3.00313822E+03   # ~chi_2+
   1000039     1.00000000E-09   # ~gravitino
#
BLOCK NMIX  # Neutralino Mixing Matrix
  1  1     7.14711509E-01   # N_11
  1  2    -2.71048706E-02   # N_12
  1  3     4.96479797E-01   # N_13
  1  4    -4.91894903E-01   # N_14
  2  1     4.16760650E-03   # N_21
  2  2    -3.83359055E-03   # N_22
  2  3    -7.06934139E-01   # N_23
  2  4    -7.07256713E-01   # N_24
  3  1     6.99406375E-01   # N_31
  3  2     2.90080315E-02   # N_32
  3  3    -5.03099148E-01   # N_33
  3  4     5.06833802E-01   # N_34
  4  1     9.00979260E-04   # N_41
  4  2    -9.99204265E-01   # N_42
  4  3    -2.53610212E-02   # N_43
  4  4     3.07708167E-02   # N_44
#
BLOCK UMIX  # Chargino Mixing Matrix U
  1  1    -3.58460911E-02   # U_11
  1  2     9.99357322E-01   # U_12
  2  1     9.99357322E-01   # U_21
  2  2     3.58460911E-02   # U_22
#
BLOCK VMIX  # Chargino Mixing Matrix V
  1  1    -4.34986441E-02   # V_11
  1  2     9.99053486E-01   # V_12
  2  1     9.99053486E-01   # V_21
  2  2     4.34986441E-02   # V_22
#
BLOCK STOPMIX  # Stop Mixing Matrix
  1  1     7.08050055E-01   # cos(theta_t)
  1  2     7.06162247E-01   # sin(theta_t)
  2  1    -7.06162247E-01   # -sin(theta_t)
  2  2     7.08050055E-01   # cos(theta_t)
#
BLOCK SBOTMIX  # Sbottom Mixing Matrix
  1  1     6.61032451E-01   # cos(theta_b)
  1  2     7.50357314E-01   # sin(theta_b)
  2  1    -7.50357314E-01   # -sin(theta_b)
  2  2     6.61032451E-01   # cos(theta_b)
#
BLOCK STAUMIX  # Stau Mixing Matrix
  1  1     7.03207209E-01   # cos(theta_tau)
  1  2     7.10984966E-01   # sin(theta_tau)
  2  1    -7.10984966E-01   # -sin(theta_tau)
  2  2     7.03207209E-01   # cos(theta_tau)
#
BLOCK ALPHA  # Higgs mixing
          -5.90207215E-01   # Mixing angle in the neutral Higgs boson sector
#
BLOCK HMIX Q=  9.11876000E+01  # DRbar Higgs Parameters
         1     1.05000000E+03   # mu(Q)               
         2     1.49999979E+00   # tanbeta(Q)          
         3     2.52100277E+02   # vev(Q)              
         4     3.48491366E+06   # MA^2(Q)             
#
BLOCK GAUGE Q=  9.11876000E+01  # The gauge couplings
     1     3.52814178E-01   # gprime(Q) DRbar
     2     6.27373914E-01   # g(Q) DRbar
     3     1.07892688E+00   # g3(Q) DRbar
#
BLOCK AU Q=  9.11876000E+01  # The trilinear couplings
  1  1     0.00000000E+00   # A_u(Q) DRbar
  2  2     0.00000000E+00   # A_c(Q) DRbar
  3  3     0.00000000E+00   # A_t(Q) DRbar
#
BLOCK AD Q=  9.11876000E+01  # The trilinear couplings
  1  1     0.00000000E+00   # A_d(Q) DRbar
  2  2     0.00000000E+00   # A_s(Q) DRbar
  3  3     0.00000000E+00   # A_b(Q) DRbar
#
BLOCK AE Q=  9.11876000E+01  # The trilinear couplings
  1  1     0.00000000E+00   # A_e(Q) DRbar
  2  2     0.00000000E+00   # A_mu(Q) DRbar
  3  3     0.00000000E+00   # A_tau(Q) DRbar
#
BLOCK Yu Q=  9.11876000E+01  # The Yukawa couplings
  1  1     0.00000000E+00   # y_u(Q) DRbar
  2  2     0.00000000E+00   # y_c(Q) DRbar
  3  3     1.02589141E+00   # y_t(Q) DRbar
#
BLOCK Yd Q=  9.11876000E+01  # The Yukawa couplings
  1  1     0.00000000E+00   # y_d(Q) DRbar
  2  2     0.00000000E+00   # y_s(Q) DRbar
  3  3     2.71787997E-02   # y_b(Q) DRbar
#
BLOCK Ye Q=  9.11876000E+01  # The Yukawa couplings
  1  1     0.00000000E+00   # y_e(Q) DRbar
  2  2     0.00000000E+00   # y_mu(Q) DRbar
  3  3     1.79826773E-02   # y_tau(Q) DRbar
#
BLOCK MSOFT Q=  9.11876000E+01  # The soft SUSY breaking masses at the scale Q
         1     1.04500000E+03   # M_1                 
         2     3.00000000E+03   # M_2                 
         3     2.20000000E+03   # M_3                 
        14     0.00000000E+00   # A_u                 
        15     0.00000000E+00   # A_d                 
        16     0.00000000E+00   # A_e                 
        21     1.81583817E+06   # M^2_Hd              
        22    -6.40002882E+06   # M^2_Hu              
        31     5.00000000E+03   # M_eL                
        32     5.00000000E+03   # M_muL               
        33     5.00000000E+03   # M_tauL              
        34     5.00000000E+03   # M_eR                
        35     5.00000000E+03   # M_muR               
        36     5.00000000E+03   # M_tauR              
        41     5.00000000E+03   # M_q1L               
        42     5.00000000E+03   # M_q2L               
        43     5.00000000E+03   # M_q3L               
        44     5.00000000E+03   # M_uR                
        45     5.00000000E+03   # M_cR                
        46     5.00000000E+03   # M_tR                
        47     5.00000000E+03   # M_dR                
        48     5.00000000E+03   # M_sR                
        49     5.00000000E+03   # M_bR                
#
#
#
#                             =================
#                             |The decay table|
#                             =================
#
# - The QCD corrections to the decays gluino -> squark  + quark
#                                     squark -> gaugino + quark_prime
#                                     squark -> squark_prime + Higgs
#                                     squark -> gluino  + quark
#   are included.
#
# - The multi-body decays for the inos, stops and sbottoms are included.
#
# - The loop induced decays for the gluino, neutralinos and stops
#   are included.
#
# - The SUSY decays of the top quark are included.
#
# - Possible decays of the NLSP in GMSB models are included.
#
#
#         PDG            Width
DECAY         6     1.37137472E+00   # top decays
#          BR         NDA      ID1       ID2
     1.00000000E+00    2           5        24   # BR(t ->  b    W+)
#
#         PDG            Width
DECAY   1000021     1.52865125E-03   # gluino decays
#          BR         NDA      ID1       ID2
     7.22227936E-03    2     1000022        21   # BR(~g -> ~chi_10 g)
     1.38462933E-02    2     1000023        21   # BR(~g -> ~chi_20 g)
     6.62461535E-03    2     1000025        21   # BR(~g -> ~chi_30 g)
#          BR         NDA      ID1       ID2
     0.00000000E+00    2     1000039        21   # BR(~g -> ~G      g)
#           BR         NDA      ID1       ID2       ID3
     5.08443973E-03    3     1000022         1        -1   # BR(~g -> ~chi_10 d  db)
     4.20325603E-07    3     1000023         1        -1   # BR(~g -> ~chi_20 d  db)
     3.15446792E-03    3     1000025         1        -1   # BR(~g -> ~chi_30 d  db)
     1.55345950E-02    3     1000022         2        -2   # BR(~g -> ~chi_10 u  ub)
     3.37948010E-07    3     1000023         2        -2   # BR(~g -> ~chi_20 u  ub)
     1.19790803E-02    3     1000025         2        -2   # BR(~g -> ~chi_30 u  ub)
     5.08443973E-03    3     1000022         3        -3   # BR(~g -> ~chi_10 s  sb)
     4.20325603E-07    3     1000023         3        -3   # BR(~g -> ~chi_20 s  sb)
     3.15446792E-03    3     1000025         3        -3   # BR(~g -> ~chi_30 s  sb)
     1.55345950E-02    3     1000022         4        -4   # BR(~g -> ~chi_10 c  cb)
     3.37948010E-07    3     1000023         4        -4   # BR(~g -> ~chi_20 c  cb)
     1.19790803E-02    3     1000025         4        -4   # BR(~g -> ~chi_30 c  cb)
     5.16191452E-03    3     1000022         5        -5   # BR(~g -> ~chi_10 b  bb)
     1.77308542E-04    3     1000023         5        -5   # BR(~g -> ~chi_20 b  bb)
     3.24843752E-03    3     1000025         5        -5   # BR(~g -> ~chi_30 b  bb)
     1.08464344E-01    3     1000022         6        -6   # BR(~g -> ~chi_10 t  tb)
     1.84187752E-01    3     1000023         6        -6   # BR(~g -> ~chi_20 t  tb)
     1.15988771E-01    3     1000025         6        -6   # BR(~g -> ~chi_30 t  tb)
     1.43983302E-04    3     1000024         1        -2   # BR(~g -> ~chi_1+ d  ub)
     1.43983302E-04    3    -1000024         2        -1   # BR(~g -> ~chi_1- u  db)
     1.43983302E-04    3     1000024         3        -4   # BR(~g -> ~chi_1+ s  cb)
     1.43983302E-04    3    -1000024         4        -3   # BR(~g -> ~chi_1- c  sb)
     2.22090700E-01    3     1000024         5        -6   # BR(~g -> ~chi_1+ b  tb)
     2.22090700E-01    3    -1000024         6        -5   # BR(~g -> ~chi_1- t  bb)
#
#         PDG            Width
DECAY   1000006     2.94286259E+02   # stop1 decays
#          BR         NDA      ID1       ID2
     8.72147266E-02    2     1000022         6   # BR(~t_1 -> ~chi_10 t )
     1.13954128E-01    2     1000023         6   # BR(~t_1 -> ~chi_20 t )
     4.41910685E-02    2     1000025         6   # BR(~t_1 -> ~chi_30 t )
     1.16821730E-02    2     1000035         6   # BR(~t_1 -> ~chi_40 t )
     1.18674939E-01    2     1000024         5   # BR(~t_1 -> ~chi_1+ b )
     2.32049583E-02    2     1000037         5   # BR(~t_1 -> ~chi_2+ b )
     6.01078007E-01    2     1000021         6   # BR(~t_1 -> ~g      t )
#
#         PDG            Width
DECAY   2000006     2.82556011E+02   # stop2 decays
#          BR         NDA      ID1       ID2
     4.07300849E-02    2     1000022         6   # BR(~t_2 -> ~chi_10 t )
     1.14872508E-01    2     1000023         6   # BR(~t_2 -> ~chi_20 t )
     9.18663866E-02    2     1000025         6   # BR(~t_2 -> ~chi_30 t )
     1.55364897E-02    2     1000035         6   # BR(~t_2 -> ~chi_40 t )
     1.10224042E-01    2     1000024         5   # BR(~t_2 -> ~chi_1+ b )
     3.09014643E-02    2     1000037         5   # BR(~t_2 -> ~chi_2+ b )
     5.95869025E-01    2     1000021         6   # BR(~t_2 -> ~g      t )
#
#         PDG            Width
DECAY   1000005     2.08331778E+02   # sbottom1 decays
#          BR         NDA      ID1       ID2
     5.46022314E-03    2     1000022         5   # BR(~b_1 -> ~chi_10 b )
     9.34741620E-05    2     1000023         5   # BR(~b_1 -> ~chi_20 b )
     3.05409951E-03    2     1000025         5   # BR(~b_1 -> ~chi_30 b )
     1.45028744E-02    2     1000035         5   # BR(~b_1 -> ~chi_40 b )
     1.18286375E-01    2    -1000024         6   # BR(~b_1 -> ~chi_1- t )
     2.91776706E-02    2    -1000037         6   # BR(~b_1 -> ~chi_2- t )
     8.29425284E-01    2     1000021         5   # BR(~b_1 -> ~g      b )
#
#         PDG            Width
DECAY   2000005     2.29488664E+02   # sbottom2 decays
#          BR         NDA      ID1       ID2
     2.54533802E-03    2     1000022         5   # BR(~b_2 -> ~chi_10 b )
     1.18730794E-04    2     1000023         5   # BR(~b_2 -> ~chi_20 b )
     3.23580477E-03    2     1000025         5   # BR(~b_2 -> ~chi_30 b )
     2.05712260E-02    2     1000035         5   # BR(~b_2 -> ~chi_40 b )
     1.79734144E-01    2    -1000024         6   # BR(~b_2 -> ~chi_1- t )
     4.14017354E-02    2    -1000037         6   # BR(~b_2 -> ~chi_2- t )
     7.52393021E-01    2     1000021         5   # BR(~b_2 -> ~g      b )
#
#         PDG            Width
DECAY   1000002     1.96628840E+02   # sup_L decays
#          BR         NDA      ID1       ID2
     1.00946699E-03    2     1000022         2   # BR(~u_L -> ~chi_10 u)
     8.16804029E-07    2     1000023         2   # BR(~u_L -> ~chi_20 u)
     2.23187661E-03    2     1000025         2   # BR(~u_L -> ~chi_30 u)
     3.93410724E-02    2     1000035         2   # BR(~u_L -> ~chi_40 u)
     3.31944876E-04    2     1000024         1   # BR(~u_L -> ~chi_1+ d)
     7.86850831E-02    2     1000037         1   # BR(~u_L -> ~chi_2+ d)
     8.78399739E-01    2     1000021         2   # BR(~u_L -> ~g      u)
#
#         PDG            Width
DECAY   2000002     1.82421805E+02   # sup_R decays
#          BR         NDA      ID1       ID2
     2.73602812E-02    2     1000022         2   # BR(~u_R -> ~chi_10 u)
     9.22817333E-07    2     1000023         2   # BR(~u_R -> ~chi_20 u)
     2.58080324E-02    2     1000025         2   # BR(~u_R -> ~chi_30 u)
     1.93917564E-08    2     1000035         2   # BR(~u_R -> ~chi_40 u)
     9.46830744E-01    2     1000021         2   # BR(~u_R -> ~g      u)
#
#         PDG            Width
DECAY   1000001     1.96634719E+02   # sdown_L decays
#          BR         NDA      ID1       ID2
     2.29334371E-03    2     1000022         1   # BR(~d_L -> ~chi_10 d)
     1.86712348E-06    2     1000023         1   # BR(~d_L -> ~chi_20 d)
     9.07533924E-04    2     1000025         1   # BR(~d_L -> ~chi_30 d)
     3.93726404E-02    2     1000035         1   # BR(~d_L -> ~chi_40 d)
     2.25429171E-04    2    -1000024         2   # BR(~d_L -> ~chi_1- u)
     7.87428702E-02    2    -1000037         2   # BR(~d_L -> ~chi_2- u)
     8.78456315E-01    2     1000021         1   # BR(~d_L -> ~g      d)
#
#         PDG            Width
DECAY   2000001     1.75152577E+02   # sdown_R decays
#          BR         NDA      ID1       ID2
     7.12407648E-03    2     1000022         1   # BR(~d_R -> ~chi_10 d)
     2.40283457E-07    2     1000023         1   # BR(~d_R -> ~chi_20 d)
     6.71990478E-03    2     1000025         1   # BR(~d_R -> ~chi_30 d)
     5.04938848E-09    2     1000035         1   # BR(~d_R -> ~chi_40 d)
     9.86155773E-01    2     1000021         1   # BR(~d_R -> ~g      d)
#
#         PDG            Width
DECAY   1000004     1.96628840E+02   # scharm_L decays
#          BR         NDA      ID1       ID2
     1.00946699E-03    2     1000022         4   # BR(~c_L -> ~chi_10 c)
     8.16804029E-07    2     1000023         4   # BR(~c_L -> ~chi_20 c)
     2.23187661E-03    2     1000025         4   # BR(~c_L -> ~chi_30 c)
     3.93410724E-02    2     1000035         4   # BR(~c_L -> ~chi_40 c)
     3.31944876E-04    2     1000024         3   # BR(~c_L -> ~chi_1+ s)
     7.86850831E-02    2     1000037         3   # BR(~c_L -> ~chi_2+ s)
     8.78399739E-01    2     1000021         4   # BR(~c_L -> ~g      c)
#
#         PDG            Width
DECAY   2000004     1.82421805E+02   # scharm_R decays
#          BR         NDA      ID1       ID2
     2.73602812E-02    2     1000022         4   # BR(~c_R -> ~chi_10 c)
     9.22817333E-07    2     1000023         4   # BR(~c_R -> ~chi_20 c)
     2.58080324E-02    2     1000025         4   # BR(~c_R -> ~chi_30 c)
     1.93917564E-08    2     1000035         4   # BR(~c_R -> ~chi_40 c)
     9.46830744E-01    2     1000021         4   # BR(~c_R -> ~g      c)
#
#         PDG            Width
DECAY   1000003     1.96634719E+02   # sstrange_L decays
#          BR         NDA      ID1       ID2
     2.29334371E-03    2     1000022         3   # BR(~s_L -> ~chi_10 s)
     1.86712348E-06    2     1000023         3   # BR(~s_L -> ~chi_20 s)
     9.07533924E-04    2     1000025         3   # BR(~s_L -> ~chi_30 s)
     3.93726404E-02    2     1000035         3   # BR(~s_L -> ~chi_40 s)
     2.25429171E-04    2    -1000024         4   # BR(~s_L -> ~chi_1- c)
     7.87428702E-02    2    -1000037         4   # BR(~s_L -> ~chi_2- c)
     8.78456315E-01    2     1000021         3   # BR(~s_L -> ~g      s)
#
#         PDG            Width
DECAY   2000003     1.75152577E+02   # sstrange_R decays
#          BR         NDA      ID1       ID2
     7.12407648E-03    2     1000022         3   # BR(~s_R -> ~chi_10 s)
     2.40283457E-07    2     1000023         3   # BR(~s_R -> ~chi_20 s)
     6.71990478E-03    2     1000025         3   # BR(~s_R -> ~chi_30 s)
     5.04938848E-09    2     1000035         3   # BR(~s_R -> ~chi_40 s)
     9.86155773E-01    2     1000021         3   # BR(~s_R -> ~g      s)
#
#         PDG            Width
DECAY   1000011     2.97059310E+01   # selectron_L decays
#          BR         NDA      ID1       ID2
     8.52931695E-02    2     1000022        11   # BR(~e_L -> ~chi_10 e-)
     1.33659952E-06    2     1000023        11   # BR(~e_L -> ~chi_20 e-)
     1.06644190E-01    2     1000025        11   # BR(~e_L -> ~chi_30 e-)
     2.68600809E-01    2     1000035        11   # BR(~e_L -> ~chi_40 e-)
     1.54830667E-03    2    -1000024        12   # BR(~e_L -> ~chi_1- nu_e)
     5.37912188E-01    2    -1000037        12   # BR(~e_L -> ~chi_2- nu_e)
#
#         PDG            Width
DECAY   2000011     2.26448831E+01   # selectron_R decays
#          BR         NDA      ID1       ID2
     5.14624150E-01    2     1000022        11   # BR(~e_R -> ~chi_10 e-)
     1.73560531E-05    2     1000023        11   # BR(~e_R -> ~chi_20 e-)
     4.85358131E-01    2     1000025        11   # BR(~e_R -> ~chi_30 e-)
     3.62776698E-07    2     1000035        11   # BR(~e_R -> ~chi_40 e-)
#
#         PDG            Width
DECAY   1000013     2.97059310E+01   # smuon_L decays
#          BR         NDA      ID1       ID2
     8.52931695E-02    2     1000022        13   # BR(~mu_L -> ~chi_10 mu-)
     1.33659952E-06    2     1000023        13   # BR(~mu_L -> ~chi_20 mu-)
     1.06644190E-01    2     1000025        13   # BR(~mu_L -> ~chi_30 mu-)
     2.68600809E-01    2     1000035        13   # BR(~mu_L -> ~chi_40 mu-)
     1.54830667E-03    2    -1000024        14   # BR(~mu_L -> ~chi_1- nu_mu)
     5.37912188E-01    2    -1000037        14   # BR(~mu_L -> ~chi_2- nu_mu)
#
#         PDG            Width
DECAY   2000013     2.26448831E+01   # smuon_R decays
#          BR         NDA      ID1       ID2
     5.14624150E-01    2     1000022        13   # BR(~mu_R -> ~chi_10 mu-)
     1.73560531E-05    2     1000023        13   # BR(~mu_R -> ~chi_20 mu-)
     4.85358131E-01    2     1000025        13   # BR(~mu_R -> ~chi_30 mu-)
     3.62776698E-07    2     1000035        13   # BR(~mu_R -> ~chi_40 mu-)
#
#         PDG            Width
DECAY   1000015     2.62157392E+01   # stau_1 decays
#          BR         NDA      ID1       ID2
     2.78730743E-01    2     1000022        15   # BR(~tau_1 -> ~chi_10  tau-)
     4.47903117E-04    2     1000023        15   # BR(~tau_1 -> ~chi_20  tau-)
     2.66953748E-01    2     1000025        15   # BR(~tau_1 -> ~chi_30  tau-)
     1.50165525E-01    2     1000035        15   # BR(~tau_1 -> ~chi_40  tau-)
     2.83561972E-03    2    -1000024        16   # BR(~tau_1 -> ~chi_1-  nu_tau)
     3.00729250E-01    2    -1000037        16   # BR(~tau_1 -> ~chi_2-  nu_tau)
     1.37210450E-04    2     1000039        15   # BR(~tau_1 -> ~G       tau-)
#
#         PDG            Width
DECAY   2000015     2.62268401E+01   # stau_2 decays
#          BR         NDA      ID1       ID2
     2.62888085E-01    2     1000022        15   # BR(~tau_2 -> ~chi_10  tau-)
     6.88915015E-04    2     1000023        15   # BR(~tau_2 -> ~chi_20  tau-)
     2.73585572E-01    2     1000025        15   # BR(~tau_2 -> ~chi_30  tau-)
     1.54131134E-01    2     1000035        15   # BR(~tau_2 -> ~chi_40  tau-)
     3.89596799E-05    2    -1000024        16   # BR(~tau_2 -> ~chi_1-  nu_tau)
     3.08667334E-01    2    -1000037        16   # BR(~tau_2 -> ~chi_2-  nu_tau)
#
#         PDG            Width
DECAY   1000012     2.97060035E+01   # snu_eL decays
#          BR         NDA      ID1       ID2
     1.11742042E-01    2     1000022        12   # BR(~nu_eL -> ~chi_10 nu_e)
     2.29762660E-05    2     1000023        12   # BR(~nu_eL -> ~chi_20 nu_e)
     7.93522182E-02    2     1000025        12   # BR(~nu_eL -> ~chi_30 nu_e)
     2.69103345E-01    2     1000035        12   # BR(~nu_eL -> ~chi_40 nu_e)
     2.27981197E-03    2     1000024        11   # BR(~nu_eL -> ~chi_1+ e-)
     5.37499606E-01    2     1000037        11   # BR(~nu_eL -> ~chi_2+ e-)
#
#         PDG            Width
DECAY   1000014     2.97060035E+01   # snu_muL decays
#          BR         NDA      ID1       ID2
     1.11742042E-01    2     1000022        14   # BR(~nu_muL -> ~chi_10 nu_mu)
     2.29762660E-05    2     1000023        14   # BR(~nu_muL -> ~chi_20 nu_mu)
     7.93522182E-02    2     1000025        14   # BR(~nu_muL -> ~chi_30 nu_mu)
     2.69103345E-01    2     1000035        14   # BR(~nu_muL -> ~chi_40 nu_mu)
     2.27981197E-03    2     1000024        13   # BR(~nu_muL -> ~chi_1+ mu-)
     5.37499606E-01    2     1000037        13   # BR(~nu_muL -> ~chi_2+ mu-)
#
#         PDG            Width
DECAY   1000016     2.97353876E+01   # snu_tauL decays
#          BR         NDA      ID1       ID2
     1.11631621E-01    2     1000022        16   # BR(~nu_tauL -> ~chi_10 nu_tau)
     2.29535612E-05    2     1000023        16   # BR(~nu_tauL -> ~chi_20 nu_tau)
     7.92738035E-02    2     1000025        16   # BR(~nu_tauL -> ~chi_30 nu_tau)
     2.68837421E-01    2     1000035        16   # BR(~nu_tauL -> ~chi_40 nu_tau)
     3.26476973E-03    2     1000024        15   # BR(~nu_tauL -> ~chi_1+ tau-)
     5.36969431E-01    2     1000037        15   # BR(~nu_tauL -> ~chi_2+ tau-)
#
#         PDG            Width
DECAY   1000024     1.10631416E-04   # chargino1+ decays
#          BR         NDA      ID1       ID2
     6.40723403E-03    2     1000039        24   # BR(~chi_1+ -> ~G       W+)
#           BR         NDA      ID1       ID2       ID3
     3.32036946E-01    3     1000022         2        -1   # BR(~chi_1+ -> ~chi_10 u    db)
     3.30388553E-01    3     1000022         4        -3   # BR(~chi_1+ -> ~chi_10 c    sb)
     1.10679117E-01    3     1000022       -11        12   # BR(~chi_1+ -> ~chi_10 e+   nu_e)
     1.10676028E-01    3     1000022       -13        14   # BR(~chi_1+ -> ~chi_10 mu+  nu_mu)
     1.09812122E-01    3     1000022       -15        16   # BR(~chi_1+ -> ~chi_10 tau+ nu_tau)
#
#         PDG            Width
DECAY   1000037     3.55738959E+01   # chargino2+ decays
#          BR         NDA      ID1       ID2
     2.53026617E-01    2     1000024        23   # BR(~chi_2+ -> ~chi_1+  Z )
     1.13651169E-01    2     1000022        24   # BR(~chi_2+ -> ~chi_10  W+)
     2.46356171E-01    2     1000023        24   # BR(~chi_2+ -> ~chi_20  W+)
     1.33022680E-01    2     1000025        24   # BR(~chi_2+ -> ~chi_30  W+)
     2.53935485E-01    2     1000024        25   # BR(~chi_2+ -> ~chi_1+  h )
     7.87777297E-06    2     1000039        24   # BR(~chi_2+ -> ~G       W+)
     5.55083063E-10    2     1000039        37   # BR(~chi_2+ -> ~G       H+)
#
#         PDG            Width
DECAY   1000022    1.0E-05    # neutralino1 decays
#          BR         NDA      ID1       ID2
     5.00992258E-01    2     1000039        22   # BR(~chi_10 -> ~G        gam)
     4.87916849E-01    2     1000039        23   # BR(~chi_10 -> ~G        Z)
     1.10908928E-02    2     1000039        25   # BR(~chi_10 -> ~G        h)
#
#         PDG            Width
DECAY   1000023     1.25616815E-04   # neutralino2 decays
#          BR         NDA      ID1       ID2
     1.35685442E-03    2     1000022        22   # BR(~chi_20 -> ~chi_10 gam)
#          BR         NDA      ID1       ID2
     3.59814901E-08    2     1000039        22   # BR(~chi_20 -> ~G        gam)
     2.19159053E-04    2     1000039        23   # BR(~chi_20 -> ~G        Z)
     5.31905510E-03    2     1000039        25   # BR(~chi_20 -> ~G        h)
#           BR         NDA      ID1       ID2       ID3
     1.18010454E-01    3     1000022        -2         2   # BR(~chi_20 -> ~chi_10 ub      u)
     1.52797131E-01    3     1000022        -1         1   # BR(~chi_20 -> ~chi_10 db      d)
     1.17205147E-01    3     1000022        -4         4   # BR(~chi_20 -> ~chi_10 cb      c)
     1.52775316E-01    3     1000022        -3         3   # BR(~chi_20 -> ~chi_10 sb      s)
     1.38954876E-01    3     1000022        -5         5   # BR(~chi_20 -> ~chi_10 bb      b)
     3.48923075E-02    3     1000022       -11        11   # BR(~chi_20 -> ~chi_10 e+      e-)
     3.48910489E-02    3     1000022       -13        13   # BR(~chi_20 -> ~chi_10 mu+     mu-)
     3.45370167E-02    3     1000022       -15        15   # BR(~chi_20 -> ~chi_10 tau+    tau-)
     6.96793305E-02    3     1000022       -12        12   # BR(~chi_20 -> ~chi_10 nu_eb   nu_e)
     6.96793305E-02    3     1000022       -14        14   # BR(~chi_20 -> ~chi_10 nu_mub  nu_mu)
     6.96793305E-02    3     1000022       -16        16   # BR(~chi_20 -> ~chi_10 nu_taub nu_tau)
     8.62243255E-07    3     1000024        -2         1   # BR(~chi_20 -> ~chi_1+ ub      d)
     8.62243255E-07    3    -1000024        -1         2   # BR(~chi_20 -> ~chi_1- db      u)
     3.12723642E-07    3     1000024        -4         3   # BR(~chi_20 -> ~chi_1+ cb      s)
     3.12723642E-07    3    -1000024        -3         4   # BR(~chi_20 -> ~chi_1- sb      c)
     2.87414438E-07    3     1000024       -12        11   # BR(~chi_20 -> ~chi_1+ nu_eb   e-)
     2.87414438E-07    3    -1000024        12       -11   # BR(~chi_20 -> ~chi_1- nu_e    e+)
     2.85772377E-07    3     1000024       -14        13   # BR(~chi_20 -> ~chi_1+ nu_mub  mu-)
     2.85772377E-07    3    -1000024        14       -13   # BR(~chi_20 -> ~chi_1- nu_mu   mu+)
     5.53847265E-08    3     1000024       -16        15   # BR(~chi_20 -> ~chi_1+ nu_taub tau-)
     5.53847265E-08    3    -1000024        16       -15   # BR(~chi_20 -> ~chi_1- nu_tau  tau+)
#
#         PDG            Width
DECAY   1000025     2.29048871E-04   # neutralino3 decays
#          BR         NDA      ID1       ID2
     3.61506217E-04    2     1000022        22   # BR(~chi_30 -> ~chi_10 gam)
     7.31813900E-06    2     1000023        22   # BR(~chi_30 -> ~chi_20 gam)
#          BR         NDA      ID1       ID2
     3.00371405E-03    2     1000039        22   # BR(~chi_30 -> ~G        gam)
     2.59931051E-03    2     1000039        23   # BR(~chi_30 -> ~G        Z)
     7.28643167E-05    2     1000039        25   # BR(~chi_30 -> ~G        h)
#           BR         NDA      ID1       ID2       ID3
     1.18422139E-05    3     1000022        -2         2   # BR(~chi_30 -> ~chi_10 ub      u)
     1.42256242E-05    3     1000022        -1         1   # BR(~chi_30 -> ~chi_10 db      d)
     1.39114903E-05    3     1000022        -4         4   # BR(~chi_30 -> ~chi_10 cb      c)
     1.42643764E-05    3     1000022        -3         3   # BR(~chi_30 -> ~chi_10 sb      s)
     2.14933098E-05    3     1000022        -5         5   # BR(~chi_30 -> ~chi_10 bb      b)
     2.55203787E-06    3     1000022       -11        11   # BR(~chi_30 -> ~chi_10 e+      e-)
     2.55200829E-06    3     1000022       -13        13   # BR(~chi_30 -> ~chi_10 mu+     mu-)
     3.68114135E-06    3     1000022       -15        15   # BR(~chi_30 -> ~chi_10 tau+    tau-)
     6.90938625E-06    3     1000022       -12        12   # BR(~chi_30 -> ~chi_10 nu_eb   nu_e)
     6.90938625E-06    3     1000022       -14        14   # BR(~chi_30 -> ~chi_10 nu_mub  nu_mu)
     6.90938625E-06    3     1000022       -16        16   # BR(~chi_30 -> ~chi_10 nu_taub nu_tau)
     2.50139297E-02    3     1000023        -2         2   # BR(~chi_30 -> ~chi_20 ub      u)
     3.23874974E-02    3     1000023        -1         1   # BR(~chi_30 -> ~chi_20 db      d)
     2.47811266E-02    3     1000023        -4         4   # BR(~chi_30 -> ~chi_20 cb      c)
     3.23809177E-02    3     1000023        -3         3   # BR(~chi_30 -> ~chi_20 sb      s)
     2.82612450E-02    3     1000023        -5         5   # BR(~chi_30 -> ~chi_20 bb      b)
     7.39593683E-03    3     1000023       -11        11   # BR(~chi_30 -> ~chi_20 e+      e-)
     7.39558418E-03    3     1000023       -13        13   # BR(~chi_30 -> ~chi_20 mu+     mu-)
     7.29609678E-03    3     1000023       -15        15   # BR(~chi_30 -> ~chi_20 tau+    tau-)
     1.47694461E-02    3     1000023       -12        12   # BR(~chi_30 -> ~chi_20 nu_eb   nu_e)
     1.47694461E-02    3     1000023       -14        14   # BR(~chi_30 -> ~chi_20 nu_mub  nu_mu)
     1.47694461E-02    3     1000023       -16        16   # BR(~chi_30 -> ~chi_20 nu_taub nu_tau)
     1.31135628E-01    3     1000024        -2         1   # BR(~chi_30 -> ~chi_1+ ub      d)
     1.31135628E-01    3    -1000024        -1         2   # BR(~chi_30 -> ~chi_1- db      u)
     1.30420832E-01    3     1000024        -4         3   # BR(~chi_30 -> ~chi_1+ cb      s)
     1.30420832E-01    3    -1000024        -3         4   # BR(~chi_30 -> ~chi_1- sb      c)
     4.37118073E-02    3     1000024       -12        11   # BR(~chi_30 -> ~chi_1+ nu_eb   e-)
     4.37118073E-02    3    -1000024        12       -11   # BR(~chi_30 -> ~chi_1- nu_e    e+)
     4.37104674E-02    3     1000024       -14        13   # BR(~chi_30 -> ~chi_1+ nu_mub  mu-)
     4.37104674E-02    3    -1000024        14       -13   # BR(~chi_30 -> ~chi_1- nu_mu   mu+)
     4.33359480E-02    3     1000024       -16        15   # BR(~chi_30 -> ~chi_1+ nu_taub tau-)
     4.33359480E-02    3    -1000024        16       -15   # BR(~chi_30 -> ~chi_1- nu_tau  tau+)
#
#         PDG            Width
DECAY   1000035     3.55742724E+01   # neutralino4 decays
#          BR         NDA      ID1       ID2
     1.07447692E-03    2     1000022        23   # BR(~chi_40 -> ~chi_10   Z )
     2.50711707E-01    2     1000023        23   # BR(~chi_40 -> ~chi_20   Z )
     1.24635697E-03    2     1000025        23   # BR(~chi_40 -> ~chi_30   Z )
     2.46340110E-01    2     1000024       -24   # BR(~chi_40 -> ~chi_1+   W-)
     2.46340110E-01    2    -1000024        24   # BR(~chi_40 -> ~chi_1-   W+)
     1.16089485E-01    2     1000022        25   # BR(~chi_40 -> ~chi_10   h )
     5.12200660E-07    2     1000022        36   # BR(~chi_40 -> ~chi_10   A )
     2.29060441E-03    2     1000023        25   # BR(~chi_40 -> ~chi_20   h )
     1.35898759E-01    2     1000025        25   # BR(~chi_40 -> ~chi_30   h )
     1.89033185E-06    2     1000039        22   # BR(~chi_40 -> ~G        gam)
     5.98660410E-06    2     1000039        23   # BR(~chi_40 -> ~G        Z)
     5.14711096E-10    2     1000039        25   # BR(~chi_40 -> ~G        h)
     5.45803293E-10    2     1000039        35   # BR(~chi_40 -> ~G        H)
     6.16562124E-12    2     1000039        36   # BR(~chi_40 -> ~G        A)
#
#         PDG            Width
DECAY        25     4.08547787E-03   # h decays
#          BR         NDA      ID1       ID2
     6.17726679E-01    2           5        -5   # BR(h -> b       bb     )
     6.37528391E-02    2         -15        15   # BR(h -> tau+    tau-   )
     2.25661571E-04    2         -13        13   # BR(h -> mu+     mu-    )
     4.78197094E-04    2           3        -3   # BR(h -> s       sb     )
     2.06299968E-02    2           4        -4   # BR(h -> c       cb     )
     6.69862677E-02    2          21        21   # BR(h -> g       g      )
     2.30472418E-03    2          22        22   # BR(h -> gam     gam    )
     1.53755409E-03    2          22        23   # BR(h -> Z       gam    )
     2.00739622E-01    2          24       -24   # BR(h -> W+      W-     )
     2.56184593E-02    2          23        23   # BR(h -> Z       Z      )
#
#         PDG            Width
DECAY        35     3.78124456E+01   # H decays
#          BR         NDA      ID1       ID2
     1.47036598E-03    2           5        -5   # BR(H -> b       bb     )
     2.46422199E-04    2         -15        15   # BR(H -> tau+    tau-   )
     8.71194216E-07    2         -13        13   # BR(H -> mu+     mu-    )
     1.11543955E-06    2           3        -3   # BR(H -> s       sb     )
     1.00667562E-05    2           4        -4   # BR(H -> c       cb     )
     9.96061536E-01    2           6        -6   # BR(H -> t       tb     )
     7.97644599E-04    2          21        21   # BR(H -> g       g      )
     2.70401195E-06    2          22        22   # BR(H -> gam     gam    )
     1.15982847E-06    2          23        22   # BR(H -> Z       gam    )
     3.36235772E-04    2          24       -24   # BR(H -> W+      W-     )
     1.67659361E-04    2          23        23   # BR(H -> Z       Z      )
     9.04218756E-04    2          25        25   # BR(H -> h       h      )
     8.28228705E-24    2          36        36   # BR(H -> A       A      )
     3.31898654E-11    2          23        36   # BR(H -> Z       A      )
     7.10232136E-12    2          24       -37   # BR(H -> W+      H-     )
     7.10232136E-12    2         -24        37   # BR(H -> W-      H+     )
#
#         PDG            Width
DECAY        36     3.82382707E+01   # A decays
#          BR         NDA      ID1       ID2
     1.47330958E-03    2           5        -5   # BR(A -> b       bb     )
     2.43897441E-04    2         -15        15   # BR(A -> tau+    tau-   )
     8.62265562E-07    2         -13        13   # BR(A -> mu+     mu-    )
     1.13677266E-06    2           3        -3   # BR(A -> s       sb     )
     9.96175344E-06    2           4        -4   # BR(A -> c       cb     )
     9.96994852E-01    2           6        -6   # BR(A -> t       tb     )
     9.43674569E-04    2          21        21   # BR(A -> g       g      )
     3.25325370E-06    2          22        22   # BR(A -> gam     gam    )
     1.35242946E-06    2          23        22   # BR(A -> Z       gam    )
     3.27699672E-04    2          23        25   # BR(A -> Z       h      )
#
#         PDG            Width
DECAY        37     3.74484812E+01   # H+ decays
#          BR         NDA      ID1       ID2
     2.36271747E-06    2           4        -5   # BR(H+ -> c       bb     )
     2.49238066E-04    2         -15        16   # BR(H+ -> tau+    nu_tau )
     8.81146597E-07    2         -13        14   # BR(H+ -> mu+     nu_mu  )
     1.50215059E-08    2           2        -5   # BR(H+ -> u       bb     )
     5.45692718E-08    2           2        -3   # BR(H+ -> u       sb     )
     1.08731342E-05    2           4        -3   # BR(H+ -> c       sb     )
     9.99400695E-01    2           6        -5   # BR(H+ -> t       bb     )
     3.35880264E-04    2          24        25   # BR(H+ -> W+      h      )
     3.46451920E-13    2          24        36   # BR(H+ -> W+      A      )
