#
#                              ======================
#                              | THE SUSYHIT OUTPUT |
#                              ======================
#
#
#              ------------------------------------------------------
#              |     This is the output of the SUSY-HIT package     |
#              |  created by A.Djouadi, M.Muehlleitner and M.Spira. |
#              |  In case of problems with SUSY-HIT email to        |
#              |           margarete.muehlleitner@kit.edu           |
#              |           michael.spira@psi.ch                     |
#              |           abdelhak.djouadi@cern.ch                 |
#              ------------------------------------------------------
#
#              ------------------------------------------------------
#              |  SUSY Les Houches Accord - MSSM Spectrum + Decays  |
#              |              based on the decay programs           |
#              |                                                    |
#              |                     SDECAY 1.5a                    |
#              |                                                    |
#              |  Authors: M.Muhlleitner, A.Djouadi and Y.Mambrini  |
#              |  Ref.:    Comput.Phys.Commun.168(2005)46           |
#              |           [hep-ph/0311167]                         |
#              |                                                    |
#              |                     HDECAY 3.4                     |
#              |                                                    |
#              |  By: A.Djouadi,J.Kalinowski,M.Muhlleitner,M.Spira  |
#              |  Ref.:    Comput.Phys.Commun.108(1998)56           |
#              |           [hep-ph/9704448]                         |
#              |                                                    |
#              |                                                    |
#              |  If not stated otherwise all DRbar couplings and   |
#              |  soft SUSY breaking masses are given at the scale  |
#              |  Q=  0.91187600E+02
#              |                                                    |
#              ------------------------------------------------------
#
#
BLOCK DCINFO  # Decay Program information
     1   SDECAY/HDECAY # decay calculator
     2   1.5a /3.4    # version number
#
BLOCK SPINFO  # Spectrum calculator information
     1   SuSpect     # RGE +Spectrum calculator            
     2   2.43         # version number                     
#
BLOCK MODSEL  # Model selection
     1     2   # GMSB                                              
#
BLOCK SMINPUTS  # Standard Model inputs
         1     1.27932904E+02   # alpha_em^-1(M_Z)^MSbar
         2     1.16639000E-05   # G_F [GeV^-2]
         3     1.17200000E-01   # alpha_S(M_Z)^MSbar
         4     9.11870000E+01   # M_Z pole mass
         5     4.25000000E+00   # mb(mb)^MSbar
         6     1.72900000E+02   # mt pole mass
         7     1.77700000E+00   # mtau pole mass
#
BLOCK MINPAR  # Input parameters - minimal models
#
BLOCK EXTPAR  # Input parameters - non-minimal models
         0     9.11876000E+01   # EWSB                
         1     4.59000000E+02   # M_1                 
         2     3.00000000E+03   # M_2                 
         3     2.00000000E+03   # M_3                 
        11     0.00000000E+00   # A_t                 
        12     0.00000000E+00   # A_b                 
        13     0.00000000E+00   # A_tau               
        14     0.00000000E+00   # A_u                 
        15     0.00000000E+00   # A_d                 
        16     0.00000000E+00   # A_e                 
        23     4.50000000E+02   # mu(EWSB)            
        25     1.50000000E+00   # tanbeta(in)         
        26     2.00000000E+03   # MA_pole             
        31     5.00000000E+03   # M_eL                
        32     5.00000000E+03   # M_muL               
        33     5.00000000E+03   # M_tauL              
        34     5.00000000E+03   # M_eR                
        35     5.00000000E+03   # M_muR               
        36     5.00000000E+03   # M_tauR              
        41     5.00000000E+03   # M_q1L               
        42     5.00000000E+03   # M_q2L               
        43     5.00000000E+03   # M_q3L               
        44     5.00000000E+03   # M_uR                
        45     5.00000000E+03   # M_cR                
        46     5.00000000E+03   # M_tR                
        47     5.00000000E+03   # M_dR                
        48     5.00000000E+03   # M_sR                
        49     5.00000000E+03   # M_bR                
#
BLOCK MASS  # Mass Spectrum
# PDG code           mass       particle
        24     8.05385980E+01   # W+
        25     1.25000000E+02   # h
        35     2.00422324E+03   # H
        36     2.00000000E+03   # A
        37     2.00201872E+03   # H+
         5     4.87877839E+00   # b-quark pole mass calculated from mb(mb)_Msbar
   1000001     5.00013309E+03   # ~d_L
   2000001     5.00002534E+03   # ~d_R
   1000002     4.99989224E+03   # ~u_L
   2000002     4.99994933E+03   # ~u_R
   1000003     5.00013309E+03   # ~s_L
   2000003     5.00002534E+03   # ~s_R
   1000004     4.99989224E+03   # ~c_L
   2000004     4.99994933E+03   # ~c_R
   1000005     4.99989059E+03   # ~b_1
   2000005     5.00026927E+03   # ~b_2
   1000006     4.99767062E+03   # ~t_1
   2000006     5.00679650E+03   # ~t_2
   1000011     5.00008242E+03   # ~e_L
   2000011     5.00007601E+03   # ~e_R
   1000012     4.99984157E+03   # ~nu_eL
   1000013     5.00008242E+03   # ~mu_L
   2000013     5.00007601E+03   # ~mu_R
   1000014     4.99984157E+03   # ~nu_muL
   1000015     4.99995950E+03   # ~tau_1
   2000015     5.00019955E+03   # ~tau_2
   1000016     4.99984157E+03   # ~nu_tauL
   1000021     2.00000000E+03   # ~g
   1000022     4.09424222E+02   # ~chi_10
   1000023    -4.50154065E+02   # ~chi_20
   1000025     4.97300365E+02   # ~chi_30
   1000035     3.00242948E+03   # ~chi_40
   1000024     4.47710760E+02   # ~chi_1+
   1000037     3.00242886E+03   # ~chi_2+
   1000039     1.00000000E-09   # ~gravitino
#
BLOCK NMIX  # Neutralino Mixing Matrix
  1  1     6.59434033E-01   # N_11
  1  2    -2.24641192E-02   # N_12
  1  3     5.36332214E-01   # N_13
  1  4    -5.26298277E-01   # N_14
  2  1     9.62978336E-03   # N_21
  2  2    -4.51710631E-03   # N_22
  2  3    -7.06461436E-01   # N_23
  2  4    -7.07671606E-01   # N_24
  3  1     7.51700563E-01   # N_31
  3  2     2.04778266E-02   # N_32
  3  3    -4.61437490E-01   # N_33
  3  4     4.70746604E-01   # N_34
  4  1     5.36343666E-04   # N_41
  4  2    -9.99527697E-01   # N_42
  4  3    -1.83149565E-02   # N_43
  4  4     2.46709746E-02   # N_44
#
BLOCK UMIX  # Chargino Mixing Matrix U
  1  1    -2.58912298E-02   # U_11
  1  2     9.99664766E-01   # U_12
  2  1     9.99664766E-01   # U_21
  2  2     2.58912298E-02   # U_22
#
BLOCK VMIX  # Chargino Mixing Matrix V
  1  1    -3.48834374E-02   # V_11
  1  2     9.99391388E-01   # V_12
  2  1     9.99391388E-01   # V_21
  2  2     3.48834374E-02   # V_22
#
BLOCK STOPMIX  # Stop Mixing Matrix
  1  1     7.09313899E-01   # cos(theta_t)
  1  2     7.04892753E-01   # sin(theta_t)
  2  1    -7.04892753E-01   # -sin(theta_t)
  2  2     7.09313899E-01   # cos(theta_t)
#
BLOCK SBOTMIX  # Sbottom Mixing Matrix
  1  1     5.98101784E-01   # cos(theta_b)
  1  2     8.01420149E-01   # sin(theta_b)
  2  1    -8.01420149E-01   # -sin(theta_b)
  2  2     5.98101784E-01   # cos(theta_b)
#
BLOCK STAUMIX  # Stau Mixing Matrix
  1  1     6.97596995E-01   # cos(theta_tau)
  1  2     7.16490358E-01   # sin(theta_tau)
  2  1    -7.16490358E-01   # -sin(theta_tau)
  2  2     6.97596995E-01   # cos(theta_tau)
#
BLOCK ALPHA  # Higgs mixing
          -5.90209418E-01   # Mixing angle in the neutral Higgs boson sector
#
BLOCK HMIX Q=  9.11876000E+01  # DRbar Higgs Parameters
         1     4.50000000E+02   # mu(Q)               
         2     1.49999979E+00   # tanbeta(Q)          
         3     2.51892389E+02   # vev(Q)              
         4     3.75573465E+06   # MA^2(Q)             
#
BLOCK GAUGE Q=  9.11876000E+01  # The gauge couplings
     1     3.52960560E-01   # gprime(Q) DRbar
     2     6.28305670E-01   # g(Q) DRbar
     3     1.08044608E+00   # g3(Q) DRbar
#
BLOCK AU Q=  9.11876000E+01  # The trilinear couplings
  1  1     0.00000000E+00   # A_u(Q) DRbar
  2  2     0.00000000E+00   # A_c(Q) DRbar
  3  3     0.00000000E+00   # A_t(Q) DRbar
#
BLOCK AD Q=  9.11876000E+01  # The trilinear couplings
  1  1     0.00000000E+00   # A_d(Q) DRbar
  2  2     0.00000000E+00   # A_s(Q) DRbar
  3  3     0.00000000E+00   # A_b(Q) DRbar
#
BLOCK AE Q=  9.11876000E+01  # The trilinear couplings
  1  1     0.00000000E+00   # A_e(Q) DRbar
  2  2     0.00000000E+00   # A_mu(Q) DRbar
  3  3     0.00000000E+00   # A_tau(Q) DRbar
#
BLOCK Yu Q=  9.11876000E+01  # The Yukawa couplings
  1  1     0.00000000E+00   # y_u(Q) DRbar
  2  2     0.00000000E+00   # y_c(Q) DRbar
  3  3     1.02673703E+00   # y_t(Q) DRbar
#
BLOCK Yd Q=  9.11876000E+01  # The Yukawa couplings
  1  1     0.00000000E+00   # y_d(Q) DRbar
  2  2     0.00000000E+00   # y_s(Q) DRbar
  3  3     2.72178989E-02   # y_b(Q) DRbar
#
BLOCK Ye Q=  9.11876000E+01  # The Yukawa couplings
  1  1     0.00000000E+00   # y_e(Q) DRbar
  2  2     0.00000000E+00   # y_mu(Q) DRbar
  3  3     1.79912165E-02   # y_tau(Q) DRbar
#
BLOCK MSOFT Q=  9.11876000E+01  # The soft SUSY breaking masses at the scale Q
         1     4.59000000E+02   # M_1                 
         2     3.00000000E+03   # M_2                 
         3     2.00000000E+03   # M_3                 
        14     0.00000000E+00   # A_u                 
        15     0.00000000E+00   # A_d                 
        16     0.00000000E+00   # A_e                 
        21     2.83418178E+06   # M^2_Hd              
        22    -5.59983417E+06   # M^2_Hu              
        31     5.00000000E+03   # M_eL                
        32     5.00000000E+03   # M_muL               
        33     5.00000000E+03   # M_tauL              
        34     5.00000000E+03   # M_eR                
        35     5.00000000E+03   # M_muR               
        36     5.00000000E+03   # M_tauR              
        41     5.00000000E+03   # M_q1L               
        42     5.00000000E+03   # M_q2L               
        43     5.00000000E+03   # M_q3L               
        44     5.00000000E+03   # M_uR                
        45     5.00000000E+03   # M_cR                
        46     5.00000000E+03   # M_tR                
        47     5.00000000E+03   # M_dR                
        48     5.00000000E+03   # M_sR                
        49     5.00000000E+03   # M_bR                
#
#
#
#                             =================
#                             |The decay table|
#                             =================
#
# - The QCD corrections to the decays gluino -> squark  + quark
#                                     squark -> gaugino + quark_prime
#                                     squark -> squark_prime + Higgs
#                                     squark -> gluino  + quark
#   are included.
#
# - The multi-body decays for the inos, stops and sbottoms are included.
#
# - The loop induced decays for the gluino, neutralinos and stops
#   are included.
#
# - The SUSY decays of the top quark are included.
#
# - Possible decays of the NLSP in GMSB models are included.
#
#
#         PDG            Width
DECAY         6     1.37553644E+00   # top decays
#          BR         NDA      ID1       ID2
     1.00000000E+00    2           5        24   # BR(t ->  b    W+)
#
#         PDG            Width
DECAY   1000021     3.19225507E-03   # gluino decays
#          BR         NDA      ID1       ID2
     5.01617102E-03    2     1000022        21   # BR(~g -> ~chi_10 g)
     8.86434598E-03    2     1000023        21   # BR(~g -> ~chi_20 g)
     3.75794847E-03    2     1000025        21   # BR(~g -> ~chi_30 g)
#          BR         NDA      ID1       ID2
     0.00000000E+00    2     1000039        21   # BR(~g -> ~G      g)
#           BR         NDA      ID1       ID2       ID3
     3.49218004E-03    3     1000022         1        -1   # BR(~g -> ~chi_10 d  db)
     1.14429172E-06    3     1000023         1        -1   # BR(~g -> ~chi_20 d  db)
     3.56742285E-03    3     1000025         1        -1   # BR(~g -> ~chi_30 d  db)
     1.07871059E-02    3     1000022         2        -2   # BR(~g -> ~chi_10 u  ub)
     1.28359900E-06    3     1000023         2        -2   # BR(~g -> ~chi_20 u  ub)
     1.30575438E-02    3     1000025         2        -2   # BR(~g -> ~chi_30 u  ub)
     3.49218004E-03    3     1000022         3        -3   # BR(~g -> ~chi_10 s  sb)
     1.14429172E-06    3     1000023         3        -3   # BR(~g -> ~chi_20 s  sb)
     3.56742285E-03    3     1000025         3        -3   # BR(~g -> ~chi_30 s  sb)
     1.07871059E-02    3     1000022         4        -4   # BR(~g -> ~chi_10 c  cb)
     1.28359900E-06    3     1000023         4        -4   # BR(~g -> ~chi_20 c  cb)
     1.30575438E-02    3     1000025         4        -4   # BR(~g -> ~chi_30 c  cb)
     3.58288503E-03    3     1000022         5        -5   # BR(~g -> ~chi_10 b  bb)
     1.75892908E-04    3     1000023         5        -5   # BR(~g -> ~chi_20 b  bb)
     3.64868045E-03    3     1000025         5        -5   # BR(~g -> ~chi_30 b  bb)
     1.21773052E-01    3     1000022         6        -6   # BR(~g -> ~chi_10 t  tb)
     2.07586370E-01    3     1000023         6        -6   # BR(~g -> ~chi_20 t  tb)
     1.13392688E-01    3     1000025         6        -6   # BR(~g -> ~chi_30 t  tb)
     7.59133206E-05    3     1000024         1        -2   # BR(~g -> ~chi_1+ d  ub)
     7.59133206E-05    3    -1000024         2        -1   # BR(~g -> ~chi_1- u  db)
     7.59133206E-05    3     1000024         3        -4   # BR(~g -> ~chi_1+ s  cb)
     7.59133206E-05    3    -1000024         4        -3   # BR(~g -> ~chi_1- c  sb)
     2.29272038E-01    3     1000024         5        -6   # BR(~g -> ~chi_1+ b  tb)
     2.29272038E-01    3    -1000024         6        -5   # BR(~g -> ~chi_1- t  bb)
#
#         PDG            Width
DECAY   1000006     3.15504636E+02   # stop1 decays
#          BR         NDA      ID1       ID2
     9.41081441E-02    2     1000022         6   # BR(~t_1 -> ~chi_10 t )
     1.14678583E-01    2     1000023         6   # BR(~t_1 -> ~chi_20 t )
     3.76908409E-02    2     1000025         6   # BR(~t_1 -> ~chi_30 t )
     1.13958403E-02    2     1000035         6   # BR(~t_1 -> ~chi_40 t )
     1.16506420E-01    2     1000024         5   # BR(~t_1 -> ~chi_1+ b )
     2.26992529E-02    2     1000037         5   # BR(~t_1 -> ~chi_2+ b )
     6.02920919E-01    2     1000021         6   # BR(~t_1 -> ~g      t )
#
#         PDG            Width
DECAY   2000006     3.04955216E+02   # stop2 decays
#          BR         NDA      ID1       ID2
     4.78345862E-02    2     1000022         6   # BR(~t_2 -> ~chi_10 t )
     1.15529006E-01    2     1000023         6   # BR(~t_2 -> ~chi_20 t )
     8.53338302E-02    2     1000025         6   # BR(~t_2 -> ~chi_30 t )
     1.38792125E-02    2     1000035         6   # BR(~t_2 -> ~chi_40 t )
     1.13626427E-01    2     1000024         5   # BR(~t_2 -> ~chi_1+ b )
     2.76680070E-02    2     1000037         5   # BR(~t_2 -> ~chi_2+ b )
     5.96128931E-01    2     1000021         6   # BR(~t_2 -> ~g      t )
#
#         PDG            Width
DECAY   1000005     2.00174137E+02   # sbottom1 decays
#          BR         NDA      ID1       ID2
     5.96945571E-03    2     1000022         5   # BR(~b_1 -> ~chi_10 b )
     9.81429159E-05    2     1000023         5   # BR(~b_1 -> ~chi_20 b )
     5.58693717E-03    2     1000025         5   # BR(~b_1 -> ~chi_30 b )
     6.84908505E-03    2     1000035         5   # BR(~b_1 -> ~chi_40 b )
     3.77222495E-02    2    -1000024         6   # BR(~b_1 -> ~chi_1- t )
     1.37318451E-02    2    -1000037         6   # BR(~b_1 -> ~chi_2- t )
     9.30042285E-01    2     1000021         5   # BR(~b_1 -> ~g      b )
#
#         PDG            Width
DECAY   2000005     2.70083856E+02   # sbottom2 decays
#          BR         NDA      ID1       ID2
     1.37081774E-03    2     1000022         5   # BR(~b_2 -> ~chi_10 b )
     1.16229275E-04    2     1000023         5   # BR(~b_2 -> ~chi_20 b )
     2.37590263E-03    2     1000025         5   # BR(~b_2 -> ~chi_30 b )
     2.37091865E-02    2     1000035         5   # BR(~b_2 -> ~chi_40 b )
     2.35875974E-01    2    -1000024         6   # BR(~b_2 -> ~chi_1- t )
     4.76034367E-02    2    -1000037         6   # BR(~b_2 -> ~chi_2- t )
     6.88948453E-01    2     1000021         5   # BR(~b_2 -> ~g      b )
#
#         PDG            Width
DECAY   1000002     2.10137173E+02   # sup_L decays
#          BR         NDA      ID1       ID2
     9.06559245E-04    2     1000022         2   # BR(~u_L -> ~chi_10 u)
     6.52512854E-07    2     1000023         2   # BR(~u_L -> ~chi_20 u)
     2.29518252E-03    2     1000025         2   # BR(~u_L -> ~chi_30 u)
     3.69747683E-02    2     1000035         2   # BR(~u_L -> ~chi_40 u)
     2.15650883E-04    2     1000024         1   # BR(~u_L -> ~chi_1+ d)
     7.39442617E-02    2     1000037         1   # BR(~u_L -> ~chi_2+ d)
     8.85662925E-01    2     1000021         2   # BR(~u_L -> ~g      u)
#
#         PDG            Width
DECAY   2000002     1.96551103E+02   # sup_R decays
#          BR         NDA      ID1       ID2
     2.31717480E-02    2     1000022         2   # BR(~u_R -> ~chi_10 u)
     4.92789654E-06    2     1000023         2   # BR(~u_R -> ~chi_20 u)
     2.99222577E-02    2     1000025         2   # BR(~u_R -> ~chi_30 u)
     6.38735013E-09    2     1000035         2   # BR(~u_R -> ~chi_40 u)
     9.46901060E-01    2     1000021         2   # BR(~u_R -> ~g      u)
#
#         PDG            Width
DECAY   1000001     2.10141758E+02   # sdown_L decays
#          BR         NDA      ID1       ID2
     1.89232534E-03    2     1000022         1   # BR(~d_L -> ~chi_10 d)
     3.53916218E-06    2     1000023         1   # BR(~d_L -> ~chi_20 d)
     1.27731541E-03    2     1000025         1   # BR(~d_L -> ~chi_30 d)
     3.69945958E-02    2     1000035         1   # BR(~d_L -> ~chi_40 d)
     1.18803824E-04    2    -1000024         2   # BR(~d_L -> ~chi_1- u)
     7.39946492E-02    2    -1000037         2   # BR(~d_L -> ~chi_2- u)
     8.85718771E-01    2     1000021         1   # BR(~d_L -> ~g      d)
#
#         PDG            Width
DECAY   2000001     1.88728638E+02   # sdown_R decays
#          BR         NDA      ID1       ID2
     6.03313916E-03    2     1000022         1   # BR(~d_R -> ~chi_10 d)
     1.28305763E-06    2     1000023         1   # BR(~d_R -> ~chi_20 d)
     7.79074498E-03    2     1000025         1   # BR(~d_R -> ~chi_30 d)
     1.66310547E-09    2     1000035         1   # BR(~d_R -> ~chi_40 d)
     9.86174831E-01    2     1000021         1   # BR(~d_R -> ~g      d)
#
#         PDG            Width
DECAY   1000004     2.10137173E+02   # scharm_L decays
#          BR         NDA      ID1       ID2
     9.06559245E-04    2     1000022         4   # BR(~c_L -> ~chi_10 c)
     6.52512854E-07    2     1000023         4   # BR(~c_L -> ~chi_20 c)
     2.29518252E-03    2     1000025         4   # BR(~c_L -> ~chi_30 c)
     3.69747683E-02    2     1000035         4   # BR(~c_L -> ~chi_40 c)
     2.15650883E-04    2     1000024         3   # BR(~c_L -> ~chi_1+ s)
     7.39442617E-02    2     1000037         3   # BR(~c_L -> ~chi_2+ s)
     8.85662925E-01    2     1000021         4   # BR(~c_L -> ~g      c)
#
#         PDG            Width
DECAY   2000004     1.96551103E+02   # scharm_R decays
#          BR         NDA      ID1       ID2
     2.31717480E-02    2     1000022         4   # BR(~c_R -> ~chi_10 c)
     4.92789654E-06    2     1000023         4   # BR(~c_R -> ~chi_20 c)
     2.99222577E-02    2     1000025         4   # BR(~c_R -> ~chi_30 c)
     6.38735013E-09    2     1000035         4   # BR(~c_R -> ~chi_40 c)
     9.46901060E-01    2     1000021         4   # BR(~c_R -> ~g      c)
#
#         PDG            Width
DECAY   1000003     2.10141758E+02   # sstrange_L decays
#          BR         NDA      ID1       ID2
     1.89232534E-03    2     1000022         3   # BR(~s_L -> ~chi_10 s)
     3.53916218E-06    2     1000023         3   # BR(~s_L -> ~chi_20 s)
     1.27731541E-03    2     1000025         3   # BR(~s_L -> ~chi_30 s)
     3.69945958E-02    2     1000035         3   # BR(~s_L -> ~chi_40 s)
     1.18803824E-04    2    -1000024         4   # BR(~s_L -> ~chi_1- c)
     7.39946492E-02    2    -1000037         4   # BR(~s_L -> ~chi_2- c)
     8.85718771E-01    2     1000021         3   # BR(~s_L -> ~g      s)
#
#         PDG            Width
DECAY   2000003     1.88728638E+02   # sstrange_R decays
#          BR         NDA      ID1       ID2
     6.03313916E-03    2     1000022         3   # BR(~s_R -> ~chi_10 s)
     1.28305763E-06    2     1000023         3   # BR(~s_R -> ~chi_20 s)
     7.79074498E-03    2     1000025         3   # BR(~s_R -> ~chi_30 s)
     1.66310547E-09    2     1000035         3   # BR(~s_R -> ~chi_40 s)
     9.86174831E-01    2     1000021         3   # BR(~s_R -> ~g      s)
#
#         PDG            Width
DECAY   1000011     3.02055882E+01   # selectron_L decays
#          BR         NDA      ID1       ID2
     7.76614194E-02    2     1000022        11   # BR(~e_L -> ~chi_10 e-)
     5.09510351E-07    2     1000023        11   # BR(~e_L -> ~chi_20 e-)
     1.24919084E-01    2     1000025        11   # BR(~e_L -> ~chi_30 e-)
     2.65365128E-01    2     1000035        11   # BR(~e_L -> ~chi_40 e-)
     8.57581333E-04    2    -1000024        12   # BR(~e_L -> ~chi_1- nu_e)
     5.31196277E-01    2    -1000037        12   # BR(~e_L -> ~chi_2- nu_e)
#
#         PDG            Width
DECAY   2000011     2.43652225E+01   # selectron_R decays
#          BR         NDA      ID1       ID2
     4.36433425E-01    2     1000022        11   # BR(~e_R -> ~chi_10 e-)
     9.28074622E-05    2     1000023        11   # BR(~e_R -> ~chi_20 e-)
     5.63473648E-01    2     1000025        11   # BR(~e_R -> ~chi_30 e-)
     1.19643157E-07    2     1000035        11   # BR(~e_R -> ~chi_40 e-)
#
#         PDG            Width
DECAY   1000013     3.02055882E+01   # smuon_L decays
#          BR         NDA      ID1       ID2
     7.76614194E-02    2     1000022        13   # BR(~mu_L -> ~chi_10 mu-)
     5.09510351E-07    2     1000023        13   # BR(~mu_L -> ~chi_20 mu-)
     1.24919084E-01    2     1000025        13   # BR(~mu_L -> ~chi_30 mu-)
     2.65365128E-01    2     1000035        13   # BR(~mu_L -> ~chi_40 mu-)
     8.57581333E-04    2    -1000024        14   # BR(~mu_L -> ~chi_1- nu_mu)
     5.31196277E-01    2    -1000037        14   # BR(~mu_L -> ~chi_2- nu_mu)
#
#         PDG            Width
DECAY   2000013     2.43652225E+01   # smuon_R decays
#          BR         NDA      ID1       ID2
     4.36433425E-01    2     1000022        13   # BR(~mu_R -> ~chi_10 mu-)
     9.28074622E-05    2     1000023        13   # BR(~mu_R -> ~chi_20 mu-)
     5.63473648E-01    2     1000025        13   # BR(~mu_R -> ~chi_30 mu-)
     1.19643157E-07    2     1000035        13   # BR(~mu_R -> ~chi_40 mu-)
#
#         PDG            Width
DECAY   1000015     2.72844919E+01   # stau_1 decays
#          BR         NDA      ID1       ID2
     2.48310526E-01    2     1000022        15   # BR(~tau_1 -> ~chi_10  tau-)
     4.21296229E-04    2     1000023        15   # BR(~tau_1 -> ~chi_20  tau-)
     3.20576540E-01    2     1000025        15   # BR(~tau_1 -> ~chi_30  tau-)
     1.42733894E-01    2     1000035        15   # BR(~tau_1 -> ~chi_40  tau-)
     2.10695166E-03    2    -1000024        16   # BR(~tau_1 -> ~chi_1-  nu_tau)
     2.85718935E-01    2    -1000037        16   # BR(~tau_1 -> ~chi_2-  nu_tau)
     1.31856933E-04    2     1000039        15   # BR(~tau_1 -> ~G       tau-)
#
#         PDG            Width
DECAY   2000015     2.73849378E+01   # stau_2 decays
#          BR         NDA      ID1       ID2
     2.27235348E-01    2     1000022        15   # BR(~tau_2 -> ~chi_10  tau-)
     8.18029268E-04    2     1000023        15   # BR(~tau_2 -> ~chi_20  tau-)
     3.20216657E-01    2     1000025        15   # BR(~tau_2 -> ~chi_30  tau-)
     1.50488030E-01    2     1000035        15   # BR(~tau_2 -> ~chi_40  tau-)
     2.83662382E-06    2    -1000024        16   # BR(~tau_2 -> ~chi_1-  nu_tau)
     3.01239100E-01    2    -1000037        16   # BR(~tau_2 -> ~chi_2-  nu_tau)
#
#         PDG            Width
DECAY   1000012     3.02044743E+01   # snu_eL decays
#          BR         NDA      ID1       ID2
     9.90085316E-02    2     1000022        12   # BR(~nu_eL -> ~chi_10 nu_e)
     6.30195129E-05    2     1000023        12   # BR(~nu_eL -> ~chi_20 nu_e)
     1.02876229E-01    2     1000025        12   # BR(~nu_eL -> ~chi_30 nu_e)
     2.65653422E-01    2     1000035        12   # BR(~nu_eL -> ~chi_40 nu_e)
     1.55669284E-03    2     1000024        11   # BR(~nu_eL -> ~chi_1+ e-)
     5.30842105E-01    2     1000037        11   # BR(~nu_eL -> ~chi_2+ e-)
#
#         PDG            Width
DECAY   1000014     3.02044743E+01   # snu_muL decays
#          BR         NDA      ID1       ID2
     9.90085316E-02    2     1000022        14   # BR(~nu_muL -> ~chi_10 nu_mu)
     6.30195129E-05    2     1000023        14   # BR(~nu_muL -> ~chi_20 nu_mu)
     1.02876229E-01    2     1000025        14   # BR(~nu_muL -> ~chi_30 nu_mu)
     2.65653422E-01    2     1000035        14   # BR(~nu_muL -> ~chi_40 nu_mu)
     1.55669284E-03    2     1000024        13   # BR(~nu_muL -> ~chi_1+ mu-)
     5.30842105E-01    2     1000037        13   # BR(~nu_muL -> ~chi_2+ mu-)
#
#         PDG            Width
DECAY   1000016     3.02361451E+01   # snu_tauL decays
#          BR         NDA      ID1       ID2
     9.89048255E-02    2     1000022        16   # BR(~nu_tauL -> ~chi_10 nu_tau)
     6.29535033E-05    2     1000023        16   # BR(~nu_tauL -> ~chi_20 nu_tau)
     1.02768471E-01    2     1000025        16   # BR(~nu_tauL -> ~chi_30 nu_tau)
     2.65375164E-01    2     1000035        16   # BR(~nu_tauL -> ~chi_40 nu_tau)
     2.60201945E-03    2     1000024        15   # BR(~nu_tauL -> ~chi_1+ tau-)
     5.30286566E-01    2     1000037        15   # BR(~nu_tauL -> ~chi_2+ tau-)
#
#         PDG            Width
DECAY   1000024     5.26163211E-05   # chargino1+ decays
#          BR         NDA      ID1       ID2
     1.73480883E-04    2     1000039        24   # BR(~chi_1+ -> ~G       W+)
#           BR         NDA      ID1       ID2       ID3
     3.34426287E-01    3     1000022         2        -1   # BR(~chi_1+ -> ~chi_10 u    db)
     3.32165646E-01    3     1000022         4        -3   # BR(~chi_1+ -> ~chi_10 c    sb)
     1.11475557E-01    3     1000022       -11        12   # BR(~chi_1+ -> ~chi_10 e+   nu_e)
     1.11471314E-01    3     1000022       -13        14   # BR(~chi_1+ -> ~chi_10 mu+  nu_mu)
     1.10287715E-01    3     1000022       -15        16   # BR(~chi_1+ -> ~chi_10 tau+ nu_tau)
#
#         PDG            Width
DECAY   1000037     3.27842462E+01   # chargino2+ decays
#          BR         NDA      ID1       ID2
     2.25788377E-01    2     1000024        23   # BR(~chi_2+ -> ~chi_1+  Z )
     1.17733593E-01    2     1000022        24   # BR(~chi_2+ -> ~chi_10  W+)
     2.20182645E-01    2     1000023        24   # BR(~chi_2+ -> ~chi_20  W+)
     1.02428100E-01    2     1000025        24   # BR(~chi_2+ -> ~chi_30  W+)
     2.26660800E-01    2     1000024        25   # BR(~chi_2+ -> ~chi_1+  h )
     2.66839563E-02    2     1000024        35   # BR(~chi_2+ -> ~chi_1+  H )
     2.69383621E-02    2     1000024        36   # BR(~chi_2+ -> ~chi_1+  A )
     1.63096254E-02    2     1000022        37   # BR(~chi_2+ -> ~chi_10  H+)
     2.66848601E-02    2     1000023        37   # BR(~chi_2+ -> ~chi_20  H+)
     1.05811399E-02    2     1000025        37   # BR(~chi_2+ -> ~chi_30  H+)
     8.54066829E-06    2     1000039        24   # BR(~chi_2+ -> ~G       W+)
     3.41754355E-10    2     1000039        37   # BR(~chi_2+ -> ~G       H+)
#
#         PDG            Width
DECAY   1000022    1.0E-05    # neutralino1 decays
#          BR         NDA      ID1       ID2
     4.96208350E-01    2     1000039        22   # BR(~chi_10 -> ~G        gam)
     4.93633169E-01    2     1000039        23   # BR(~chi_10 -> ~G        Z)
     1.01584808E-02    2     1000039        25   # BR(~chi_10 -> ~G        h)
#
#         PDG            Width
DECAY   1000023     5.80644203E-05   # neutralino2 decays
#          BR         NDA      ID1       ID2
     8.96107966E-04    2     1000022        22   # BR(~chi_20 -> ~chi_10 gam)
#          BR         NDA      ID1       ID2
     1.40129668E-08    2     1000039        22   # BR(~chi_20 -> ~G        gam)
     6.03427053E-06    2     1000039        23   # BR(~chi_20 -> ~G        Z)
     1.27968072E-04    2     1000039        25   # BR(~chi_20 -> ~G        h)
#           BR         NDA      ID1       ID2       ID3
     1.19333208E-01    3     1000022        -2         2   # BR(~chi_20 -> ~chi_10 ub      u)
     1.54482000E-01    3     1000022        -1         1   # BR(~chi_20 -> ~chi_10 db      d)
     1.18275064E-01    3     1000022        -4         4   # BR(~chi_20 -> ~chi_10 cb      c)
     1.54452343E-01    3     1000022        -3         3   # BR(~chi_20 -> ~chi_10 sb      s)
     1.35848835E-01    3     1000022        -5         5   # BR(~chi_20 -> ~chi_10 bb      b)
     3.52642605E-02    3     1000022       -11        11   # BR(~chi_20 -> ~chi_10 e+      e-)
     3.52626492E-02    3     1000022       -13        13   # BR(~chi_20 -> ~chi_10 mu+     mu-)
     3.48084803E-02    3     1000022       -15        15   # BR(~chi_20 -> ~chi_10 tau+    tau-)
     7.04136592E-02    3     1000022       -12        12   # BR(~chi_20 -> ~chi_10 nu_eb   nu_e)
     7.04136592E-02    3     1000022       -14        14   # BR(~chi_20 -> ~chi_10 nu_mub  nu_mu)
     7.04136592E-02    3     1000022       -16        16   # BR(~chi_20 -> ~chi_10 nu_taub nu_tau)
     5.55025088E-07    3     1000024        -2         1   # BR(~chi_20 -> ~chi_1+ ub      d)
     5.55025088E-07    3    -1000024        -1         2   # BR(~chi_20 -> ~chi_1- db      u)
     9.63685259E-08    3     1000024        -4         3   # BR(~chi_20 -> ~chi_1+ cb      s)
     9.63685259E-08    3    -1000024        -3         4   # BR(~chi_20 -> ~chi_1- sb      c)
     1.85008384E-07    3     1000024       -12        11   # BR(~chi_20 -> ~chi_1+ nu_eb   e-)
     1.85008384E-07    3    -1000024        12       -11   # BR(~chi_20 -> ~chi_1- nu_e    e+)
     1.83296022E-07    3     1000024       -14        13   # BR(~chi_20 -> ~chi_1+ nu_mub  mu-)
     1.83296022E-07    3    -1000024        14       -13   # BR(~chi_20 -> ~chi_1- nu_mu   mu+)
     9.11820727E-09    3     1000024       -16        15   # BR(~chi_20 -> ~chi_1+ nu_taub tau-)
     9.11820727E-09    3    -1000024        16       -15   # BR(~chi_20 -> ~chi_1- nu_tau  tau+)
#
#         PDG            Width
DECAY   1000025     4.21834498E-04   # neutralino3 decays
#          BR         NDA      ID1       ID2
     1.87539830E-04    2     1000022        22   # BR(~chi_30 -> ~chi_10 gam)
     4.81536322E-04    2     1000023        22   # BR(~chi_30 -> ~chi_20 gam)
#          BR         NDA      ID1       ID2
     3.67538076E-05    2     1000039        22   # BR(~chi_30 -> ~G        gam)
     2.40678686E-05    2     1000039        23   # BR(~chi_30 -> ~G        Z)
     5.76625602E-07    2     1000039        25   # BR(~chi_30 -> ~G        h)
#           BR         NDA      ID1       ID2       ID3
     1.86918820E-06    3     1000022        -2         2   # BR(~chi_30 -> ~chi_10 ub      u)
     2.67004719E-06    3     1000022        -1         1   # BR(~chi_30 -> ~chi_10 db      d)
     2.52543454E-06    3     1000022        -4         4   # BR(~chi_30 -> ~chi_10 cb      c)
     2.68231891E-06    3     1000022        -3         3   # BR(~chi_30 -> ~chi_10 sb      s)
     5.00205550E-06    3     1000022        -5         5   # BR(~chi_30 -> ~chi_10 bb      b)
     8.80002280E-07    3     1000022       -11        11   # BR(~chi_30 -> ~chi_10 e+      e-)
     8.79988364E-07    3     1000022       -13        13   # BR(~chi_30 -> ~chi_10 mu+     mu-)
     1.23482424E-06    3     1000022       -15        15   # BR(~chi_30 -> ~chi_10 tau+    tau-)
     1.10120846E-06    3     1000022       -12        12   # BR(~chi_30 -> ~chi_10 nu_eb   nu_e)
     1.10120846E-06    3     1000022       -14        14   # BR(~chi_30 -> ~chi_10 nu_mub  nu_mu)
     1.10120846E-06    3     1000022       -16        16   # BR(~chi_30 -> ~chi_10 nu_taub nu_tau)
     2.73607118E-02    3     1000023        -2         2   # BR(~chi_30 -> ~chi_20 ub      u)
     3.54197635E-02    3     1000023        -1         1   # BR(~chi_30 -> ~chi_20 db      d)
     2.71697136E-02    3     1000023        -4         4   # BR(~chi_30 -> ~chi_20 cb      c)
     3.54145834E-02    3     1000023        -3         3   # BR(~chi_30 -> ~chi_20 sb      s)
     3.21359264E-02    3     1000023        -5         5   # BR(~chi_30 -> ~chi_20 bb      b)
     8.08550041E-03    3     1000023       -11        11   # BR(~chi_30 -> ~chi_20 e+      e-)
     8.08520243E-03    3     1000023       -13        13   # BR(~chi_30 -> ~chi_20 mu+     mu-)
     8.00138092E-03    3     1000023       -15        15   # BR(~chi_30 -> ~chi_20 tau+    tau-)
     1.61443921E-02    3     1000023       -12        12   # BR(~chi_30 -> ~chi_20 nu_eb   nu_e)
     1.61443921E-02    3     1000023       -14        14   # BR(~chi_30 -> ~chi_20 nu_mub  nu_mu)
     1.61443921E-02    3     1000023       -16        16   # BR(~chi_30 -> ~chi_20 nu_taub nu_tau)
     1.28451829E-01    3     1000024        -2         1   # BR(~chi_30 -> ~chi_1+ ub      d)
     1.28451829E-01    3    -1000024        -1         2   # BR(~chi_30 -> ~chi_1- db      u)
     1.27938818E-01    3     1000024        -4         3   # BR(~chi_30 -> ~chi_1+ cb      s)
     1.27938818E-01    3    -1000024        -3         4   # BR(~chi_30 -> ~chi_1- sb      c)
     4.28171842E-02    3     1000024       -12        11   # BR(~chi_30 -> ~chi_1+ nu_eb   e-)
     4.28171842E-02    3    -1000024        12       -11   # BR(~chi_30 -> ~chi_1- nu_e    e+)
     4.28162238E-02    3     1000024       -14        13   # BR(~chi_30 -> ~chi_1+ nu_mub  mu-)
     4.28162238E-02    3    -1000024        14       -13   # BR(~chi_30 -> ~chi_1- nu_mu   mu+)
     4.25472050E-02    3     1000024       -16        15   # BR(~chi_30 -> ~chi_1+ nu_taub tau-)
     4.25472050E-02    3    -1000024        16       -15   # BR(~chi_30 -> ~chi_1- nu_tau  tau+)
#
#         PDG            Width
DECAY   1000035     3.27846556E+01   # neutralino4 decays
#          BR         NDA      ID1       ID2
     2.42463971E-03    2     1000022        23   # BR(~chi_40 -> ~chi_10   Z )
     2.21152141E-01    2     1000023        23   # BR(~chi_40 -> ~chi_20   Z )
     2.36191448E-03    2     1000025        23   # BR(~chi_40 -> ~chi_30   Z )
     2.19967675E-01    2     1000024       -24   # BR(~chi_40 -> ~chi_1+   W-)
     2.19967675E-01    2    -1000024        24   # BR(~chi_40 -> ~chi_1-   W+)
     1.18923697E-01    2     1000022        25   # BR(~chi_40 -> ~chi_10   h )
     1.77244751E-03    2     1000022        35   # BR(~chi_40 -> ~chi_10   H )
     1.45188950E-02    2     1000022        36   # BR(~chi_40 -> ~chi_10   A )
     4.78164973E-03    2     1000023        25   # BR(~chi_40 -> ~chi_20   h )
     2.36060094E-02    2     1000023        35   # BR(~chi_40 -> ~chi_20   H )
     2.98955765E-03    2     1000023        36   # BR(~chi_40 -> ~chi_20   A )
     1.03215459E-01    2     1000025        25   # BR(~chi_40 -> ~chi_30   h )
     1.16816513E-03    2     1000025        35   # BR(~chi_40 -> ~chi_30   H )
     9.40433583E-03    2     1000025        36   # BR(~chi_40 -> ~chi_30   A )
     2.68685989E-02    2     1000024       -37   # BR(~chi_40 -> ~chi_1+   H-)
     2.68685989E-02    2    -1000024        37   # BR(~chi_40 -> ~chi_1-   H+)
     2.04940911E-06    2     1000039        22   # BR(~chi_40 -> ~G        gam)
     6.49046821E-06    2     1000039        23   # BR(~chi_40 -> ~G        Z)
     4.51722504E-10    2     1000039        25   # BR(~chi_40 -> ~G        h)
     3.39105499E-10    2     1000039        35   # BR(~chi_40 -> ~G        H)
     9.90574809E-13    2     1000039        36   # BR(~chi_40 -> ~G        A)
#
#         PDG            Width
DECAY        25     4.08357675E-03   # h decays
#          BR         NDA      ID1       ID2
     6.17484921E-01    2           5        -5   # BR(h -> b       bb     )
     6.37829390E-02    2         -15        15   # BR(h -> tau+    tau-   )
     2.25768113E-04    2         -13        13   # BR(h -> mu+     mu-    )
     4.78422808E-04    2           3        -3   # BR(h -> s       sb     )
     2.06395403E-02    2           4        -4   # BR(h -> c       cb     )
     6.70178248E-02    2          21        21   # BR(h -> g       g      )
     2.31058168E-03    2          22        22   # BR(h -> gam     gam    )
     1.53816018E-03    2          22        23   # BR(h -> Z       gam    )
     2.00891457E-01    2          24       -24   # BR(h -> W+      W-     )
     2.56303858E-02    2          23        23   # BR(h -> Z       Z      )
#
#         PDG            Width
DECAY        35     3.99482380E+01   # H decays
#          BR         NDA      ID1       ID2
     1.39489397E-03    2           5        -5   # BR(H -> b       bb     )
     2.33260766E-04    2         -15        15   # BR(H -> tau+    tau-   )
     8.24663651E-07    2         -13        13   # BR(H -> mu+     mu-    )
     1.05585497E-06    2           3        -3   # BR(H -> s       sb     )
     9.52910162E-06    2           4        -4   # BR(H -> c       cb     )
     9.42866093E-01    2           6        -6   # BR(H -> t       tb     )
     7.55018406E-04    2          21        21   # BR(H -> g       g      )
     2.64080732E-06    2          22        22   # BR(H -> gam     gam    )
     1.09728842E-06    2          23        22   # BR(H -> Z       gam    )
     3.18953482E-04    2          24       -24   # BR(H -> W+      W-     )
     1.59041759E-04    2          23        23   # BR(H -> Z       Z      )
     8.56760014E-04    2          25        25   # BR(H -> h       h      )
     9.01244592E-24    2          36        36   # BR(H -> A       A      )
     3.62852497E-11    2          23        36   # BR(H -> Z       A      )
     3.42711698E-12    2          24       -37   # BR(H -> W+      H-     )
     3.42711698E-12    2         -24        37   # BR(H -> W-      H+     )
     6.49508011E-05    2     1000024  -1000024   # BR(H -> ~chi_1+ ~chi_1-)
     1.05134955E-03    2     1000022   1000022   # BR(H -> ~chi_10 ~chi_10)
     2.71765671E-05    2     1000023   1000023   # BR(H -> ~chi_20 ~chi_20)
     5.90506016E-04    2     1000025   1000025   # BR(H -> ~chi_30 ~chi_30)
     2.55437200E-02    2     1000022   1000023   # BR(H -> ~chi_10 ~chi_20)
     2.39840038E-05    2     1000022   1000025   # BR(H -> ~chi_10 ~chi_30)
     2.60991440E-02    2     1000023   1000025   # BR(H -> ~chi_20 ~chi_30)
#
#         PDG            Width
DECAY        36     4.03997204E+01   # A decays
#          BR         NDA      ID1       ID2
     1.39753119E-03    2           5        -5   # BR(A -> b       bb     )
     2.30848538E-04    2         -15        15   # BR(A -> tau+    tau-   )
     8.16132975E-07    2         -13        13   # BR(A -> mu+     mu-    )
     1.07595350E-06    2           3        -3   # BR(A -> s       sb     )
     9.42878369E-06    2           4        -4   # BR(A -> c       cb     )
     9.43654032E-01    2           6        -6   # BR(A -> t       tb     )
     8.93186469E-04    2          21        21   # BR(A -> g       g      )
     2.64847878E-06    2          22        22   # BR(A -> gam     gam    )
     1.27943647E-06    2          23        22   # BR(A -> Z       gam    )
     3.10787423E-04    2          23        25   # BR(A -> Z       h      )
     7.08883962E-04    2     1000024  -1000024   # BR(A -> ~chi_1+ ~chi_1-)
     2.90920994E-02    2     1000022   1000022   # BR(A -> ~chi_10 ~chi_10)
     1.33090481E-06    2     1000023   1000023   # BR(A -> ~chi_20 ~chi_20)
     2.18158790E-02    2     1000025   1000025   # BR(A -> ~chi_30 ~chi_30)
     6.68439582E-04    2     1000022   1000023   # BR(A -> ~chi_10 ~chi_20)
     2.87293490E-04    2     1000022   1000025   # BR(A -> ~chi_10 ~chi_30)
     9.24438796E-04    2     1000023   1000025   # BR(A -> ~chi_20 ~chi_30)
#
#         PDG            Width
DECAY        37     3.95880187E+01   # H+ decays
#          BR         NDA      ID1       ID2
     2.24224586E-06    2           4        -5   # BR(H+ -> c       bb     )
     2.35819580E-04    2         -15        16   # BR(H+ -> tau+    nu_tau )
     8.33707400E-07    2         -13        14   # BR(H+ -> mu+     nu_mu  )
     1.42558679E-08    2           2        -5   # BR(H+ -> u       bb     )
     5.16298401E-08    2           2        -3   # BR(H+ -> u       sb     )
     1.02874404E-05    2           4        -3   # BR(H+ -> c       sb     )
     9.45574764E-01    2           6        -5   # BR(H+ -> t       bb     )
     3.18574417E-04    2          24        25   # BR(H+ -> W+      h      )
     1.11346052E-12    2          24        36   # BR(H+ -> W+      A      )
     2.35484551E-02    2     1000024   1000022   # BR(H+ -> ~chi_1+ ~chi_10)
     1.59694974E-04    2     1000024   1000023   # BR(H+ -> ~chi_1+ ~chi_20)
     3.01492629E-02    2     1000024   1000025   # BR(H+ -> ~chi_1+ ~chi_30)
