#
#                              ======================
#                              | THE SUSYHIT OUTPUT |
#                              ======================
#
#
#              ------------------------------------------------------
#              |     This is the output of the SUSY-HIT package     |
#              |  created by A.Djouadi, M.Muehlleitner and M.Spira. |
#              |  In case of problems with SUSY-HIT email to        |
#              |           margarete.muehlleitner@kit.edu           |
#              |           michael.spira@psi.ch                     |
#              |           abdelhak.djouadi@cern.ch                 |
#              ------------------------------------------------------
#
#              ------------------------------------------------------
#              |  SUSY Les Houches Accord - MSSM Spectrum + Decays  |
#              |              based on the decay programs           |
#              |                                                    |
#              |                     SDECAY 1.5a                    |
#              |                                                    |
#              |  Authors: M.Muhlleitner, A.Djouadi and Y.Mambrini  |
#              |  Ref.:    Comput.Phys.Commun.168(2005)46           |
#              |           [hep-ph/0311167]                         |
#              |                                                    |
#              |                     HDECAY 3.4                     |
#              |                                                    |
#              |  By: A.Djouadi,J.Kalinowski,M.Muhlleitner,M.Spira  |
#              |  Ref.:    Comput.Phys.Commun.108(1998)56           |
#              |           [hep-ph/9704448]                         |
#              |                                                    |
#              |                                                    |
#              |  If not stated otherwise all DRbar couplings and   |
#              |  soft SUSY breaking masses are given at the scale  |
#              |  Q=  0.91187600E+02
#              |                                                    |
#              ------------------------------------------------------
#
#
BLOCK DCINFO  # Decay Program information
     1   SDECAY/HDECAY # decay calculator
     2   1.5a /3.4    # version number
#
BLOCK SPINFO  # Spectrum calculator information
     1   SuSpect     # RGE +Spectrum calculator            
     2   2.43         # version number                     
#
BLOCK MODSEL  # Model selection
     1     2   # GMSB                                              
#
BLOCK SMINPUTS  # Standard Model inputs
         1     1.27932904E+02   # alpha_em^-1(M_Z)^MSbar
         2     1.16639000E-05   # G_F [GeV^-2]
         3     1.17200000E-01   # alpha_S(M_Z)^MSbar
         4     9.11870000E+01   # M_Z pole mass
         5     4.25000000E+00   # mb(mb)^MSbar
         6     1.72900000E+02   # mt pole mass
         7     1.77700000E+00   # mtau pole mass
#
BLOCK MINPAR  # Input parameters - minimal models
#
BLOCK EXTPAR  # Input parameters - non-minimal models
         0     9.11876000E+01   # EWSB                
         1     2.03600000E+03   # M_1                 
         2     3.00000000E+03   # M_2                 
         3     2.60000000E+03   # M_3                 
        11     0.00000000E+00   # A_t                 
        12     0.00000000E+00   # A_b                 
        13     0.00000000E+00   # A_tau               
        14     0.00000000E+00   # A_u                 
        15     0.00000000E+00   # A_d                 
        16     0.00000000E+00   # A_e                 
        23     2.05000000E+03   # mu(EWSB)            
        25     1.50000000E+00   # tanbeta(in)         
        26     2.00000000E+03   # MA_pole             
        31     5.00000000E+03   # M_eL                
        32     5.00000000E+03   # M_muL               
        33     5.00000000E+03   # M_tauL              
        34     5.00000000E+03   # M_eR                
        35     5.00000000E+03   # M_muR               
        36     5.00000000E+03   # M_tauR              
        41     5.00000000E+03   # M_q1L               
        42     5.00000000E+03   # M_q2L               
        43     5.00000000E+03   # M_q3L               
        44     5.00000000E+03   # M_uR                
        45     5.00000000E+03   # M_cR                
        46     5.00000000E+03   # M_tR                
        47     5.00000000E+03   # M_dR                
        48     5.00000000E+03   # M_sR                
        49     5.00000000E+03   # M_bR                
#
BLOCK MASS  # Mass Spectrum
# PDG code           mass       particle
        24     8.05422105E+01   # W+
        25     1.25000000E+02   # h
        35     2.00398753E+03   # H
        36     2.00000000E+03   # A
        37     2.00152238E+03   # H+
         5     4.87877839E+00   # b-quark pole mass calculated from mb(mb)_Msbar
   1000001     5.00013292E+03   # ~d_L
   2000001     5.00002539E+03   # ~d_R
   1000002     4.99989247E+03   # ~u_L
   2000002     4.99994922E+03   # ~u_R
   1000003     5.00013292E+03   # ~s_L
   2000003     5.00002539E+03   # ~s_R
   1000004     4.99989247E+03   # ~c_L
   2000004     4.99994922E+03   # ~c_R
   1000005     4.99925279E+03   # ~b_1
   2000005     5.00090682E+03   # ~b_2
   1000006     4.98141095E+03   # ~t_1
   2000006     5.02297130E+03   # ~t_2
   1000011     5.00008214E+03   # ~e_L
   2000011     5.00007617E+03   # ~e_R
   1000012     4.99984169E+03   # ~nu_eL
   1000013     5.00008214E+03   # ~mu_L
   2000013     5.00007617E+03   # ~mu_R
   1000014     4.99984169E+03   # ~nu_muL
   1000015     4.99953245E+03   # ~tau_1
   2000015     5.00062644E+03   # ~tau_2
   1000016     4.99984169E+03   # ~nu_tauL
   1000021     2.60000000E+03   # ~g
   1000022     1.99619756E+03   # ~chi_10
   1000023    -2.05006628E+03   # ~chi_20
   1000025     2.08352233E+03   # ~chi_30
   1000035     3.00634639E+03   # ~chi_40
   1000024     2.04376150E+03   # ~chi_1+
   1000037     3.00633373E+03   # ~chi_2+
   1000039     1.00000000E-09   # ~gravitino
#
BLOCK NMIX  # Neutralino Mixing Matrix
  1  1     7.37650519E-01   # N_11
  1  2    -5.19679184E-02   # N_12
  1  3     4.77274220E-01   # N_13
  1  4    -4.74742421E-01   # N_14
  2  1     2.13677499E-03   # N_21
  2  2    -3.07178136E-03   # N_22
  2  3    -7.07044673E-01   # N_23
  2  4    -7.07158984E-01   # N_24
  3  1     6.75169375E-01   # N_31
  3  2     6.22030617E-02   # N_32
  3  3    -5.18904841E-01   # N_33
  3  4     5.20590876E-01   # N_34
  4  1     3.66896616E-03   # N_41
  4  2    -9.96704911E-01   # N_42
  4  3    -5.50900576E-02   # N_43
  4  4     5.94217596E-02   # N_44
#
BLOCK UMIX  # Chargino Mixing Matrix U
  1  1    -7.77508495E-02   # U_11
  1  2     9.96972821E-01   # U_12
  2  1     9.96972821E-01   # U_21
  2  2     7.77508495E-02   # U_22
#
BLOCK VMIX  # Chargino Mixing Matrix V
  1  1    -8.38718818E-02   # V_11
  1  2     9.96476546E-01   # V_12
  2  1     9.96476546E-01   # V_21
  2  2     8.38718818E-02   # V_22
#
BLOCK STOPMIX  # Stop Mixing Matrix
  1  1     7.07589189E-01   # cos(theta_t)
  1  2     7.06624044E-01   # sin(theta_t)
  2  1    -7.06624044E-01   # -sin(theta_t)
  2  2     7.07589189E-01   # cos(theta_t)
#
BLOCK SBOTMIX  # Sbottom Mixing Matrix
  1  1     6.83735769E-01   # cos(theta_b)
  1  2     7.29729675E-01   # sin(theta_b)
  2  1    -7.29729675E-01   # -sin(theta_b)
  2  2     6.83735769E-01   # cos(theta_b)
#
BLOCK STAUMIX  # Stau Mixing Matrix
  1  1     7.05174303E-01   # cos(theta_tau)
  1  2     7.09033992E-01   # sin(theta_tau)
  2  1    -7.09033992E-01   # -sin(theta_tau)
  2  2     7.05174303E-01   # cos(theta_tau)
#
BLOCK ALPHA  # Higgs mixing
          -5.90194844E-01   # Mixing angle in the neutral Higgs boson sector
#
BLOCK HMIX Q=  9.11876000E+01  # DRbar Higgs Parameters
         1     2.05000000E+03   # mu(Q)               
         2     1.49999979E+00   # tanbeta(Q)          
         3     2.52349113E+02   # vev(Q)              
         4     2.95979941E+06   # MA^2(Q)             
#
BLOCK GAUGE Q=  9.11876000E+01  # The gauge couplings
     1     3.52701072E-01   # gprime(Q) DRbar
     2     6.26657093E-01   # g(Q) DRbar
     3     1.07628099E+00   # g3(Q) DRbar
#
BLOCK AU Q=  9.11876000E+01  # The trilinear couplings
  1  1     0.00000000E+00   # A_u(Q) DRbar
  2  2     0.00000000E+00   # A_c(Q) DRbar
  3  3     0.00000000E+00   # A_t(Q) DRbar
#
BLOCK AD Q=  9.11876000E+01  # The trilinear couplings
  1  1     0.00000000E+00   # A_d(Q) DRbar
  2  2     0.00000000E+00   # A_s(Q) DRbar
  3  3     0.00000000E+00   # A_b(Q) DRbar
#
BLOCK AE Q=  9.11876000E+01  # The trilinear couplings
  1  1     0.00000000E+00   # A_e(Q) DRbar
  2  2     0.00000000E+00   # A_mu(Q) DRbar
  3  3     0.00000000E+00   # A_tau(Q) DRbar
#
BLOCK Yu Q=  9.11876000E+01  # The Yukawa couplings
  1  1     0.00000000E+00   # y_u(Q) DRbar
  2  2     0.00000000E+00   # y_c(Q) DRbar
  3  3     1.02456643E+00   # y_t(Q) DRbar
#
BLOCK Yd Q=  9.11876000E+01  # The Yukawa couplings
  1  1     0.00000000E+00   # y_d(Q) DRbar
  2  2     0.00000000E+00   # y_s(Q) DRbar
  3  3     2.71150337E-02   # y_b(Q) DRbar
#
BLOCK Ye Q=  9.11876000E+01  # The Yukawa couplings
  1  1     0.00000000E+00   # y_e(Q) DRbar
  2  2     0.00000000E+00   # y_mu(Q) DRbar
  3  3     1.79718588E-02   # y_tau(Q) DRbar
#
BLOCK MSOFT Q=  9.11876000E+01  # The soft SUSY breaking masses at the scale Q
         1     2.03600000E+03   # M_1                 
         2     3.00000000E+03   # M_2                 
         3     2.60000000E+03   # M_3                 
        14     0.00000000E+00   # A_u                 
        15     0.00000000E+00   # A_d                 
        16     0.00000000E+00   # A_e                 
        21    -1.65491792E+06   # M^2_Hd              
        22    -9.19220733E+06   # M^2_Hu              
        31     5.00000000E+03   # M_eL                
        32     5.00000000E+03   # M_muL               
        33     5.00000000E+03   # M_tauL              
        34     5.00000000E+03   # M_eR                
        35     5.00000000E+03   # M_muR               
        36     5.00000000E+03   # M_tauR              
        41     5.00000000E+03   # M_q1L               
        42     5.00000000E+03   # M_q2L               
        43     5.00000000E+03   # M_q3L               
        44     5.00000000E+03   # M_uR                
        45     5.00000000E+03   # M_cR                
        46     5.00000000E+03   # M_tR                
        47     5.00000000E+03   # M_dR                
        48     5.00000000E+03   # M_sR                
        49     5.00000000E+03   # M_bR                
#
#
#
#                             =================
#                             |The decay table|
#                             =================
#
# - The QCD corrections to the decays gluino -> squark  + quark
#                                     squark -> gaugino + quark_prime
#                                     squark -> squark_prime + Higgs
#                                     squark -> gluino  + quark
#   are included.
#
# - The multi-body decays for the inos, stops and sbottoms are included.
#
# - The loop induced decays for the gluino, neutralinos and stops
#   are included.
#
# - The SUSY decays of the top quark are included.
#
# - Possible decays of the NLSP in GMSB models are included.
#
#
#         PDG            Width
DECAY         6     1.36817390E+00   # top decays
#          BR         NDA      ID1       ID2
     1.00000000E+00    2           5        24   # BR(t ->  b    W+)
#
#         PDG            Width
DECAY   1000021     1.98822738E-04   # gluino decays
#          BR         NDA      ID1       ID2
     1.39095544E-02    2     1000022        21   # BR(~g -> ~chi_10 g)
     2.39368835E-02    2     1000023        21   # BR(~g -> ~chi_20 g)
     1.11335083E-02    2     1000025        21   # BR(~g -> ~chi_30 g)
#          BR         NDA      ID1       ID2
     0.00000000E+00    2     1000039        21   # BR(~g -> ~G      g)
#           BR         NDA      ID1       ID2       ID3
     3.67730407E-03    3     1000022         1        -1   # BR(~g -> ~chi_10 d  db)
     9.29859466E-08    3     1000023         1        -1   # BR(~g -> ~chi_20 d  db)
     1.10446127E-03    3     1000025         1        -1   # BR(~g -> ~chi_30 d  db)
     1.02303698E-02    3     1000022         2        -2   # BR(~g -> ~chi_10 u  ub)
     7.10610789E-08    3     1000023         2        -2   # BR(~g -> ~chi_20 u  ub)
     4.72616225E-03    3     1000025         2        -2   # BR(~g -> ~chi_30 u  ub)
     3.67730407E-03    3     1000022         3        -3   # BR(~g -> ~chi_10 s  sb)
     9.29859466E-08    3     1000023         3        -3   # BR(~g -> ~chi_20 s  sb)
     1.10446127E-03    3     1000025         3        -3   # BR(~g -> ~chi_30 s  sb)
     1.02303698E-02    3     1000022         4        -4   # BR(~g -> ~chi_10 c  cb)
     7.10610789E-08    3     1000023         4        -4   # BR(~g -> ~chi_20 c  cb)
     4.72616225E-03    3     1000025         4        -4   # BR(~g -> ~chi_30 c  cb)
     3.70384938E-03    3     1000022         5        -5   # BR(~g -> ~chi_10 b  bb)
     8.08827405E-05    3     1000023         5        -5   # BR(~g -> ~chi_20 b  bb)
     1.14779309E-03    3     1000025         5        -5   # BR(~g -> ~chi_30 b  bb)
     2.92200361E-02    3     1000022         6        -6   # BR(~g -> ~chi_10 t  tb)
     2.60746197E-02    3     1000023         6        -6   # BR(~g -> ~chi_20 t  tb)
     1.95519975E-02    3     1000025         6        -6   # BR(~g -> ~chi_30 t  tb)
     2.95142216E-04    3     1000024         1        -2   # BR(~g -> ~chi_1+ d  ub)
     2.95142216E-04    3    -1000024         2        -1   # BR(~g -> ~chi_1- u  db)
     2.95142216E-04    3     1000024         3        -4   # BR(~g -> ~chi_1+ s  cb)
     2.95142216E-04    3    -1000024         4        -3   # BR(~g -> ~chi_1- c  sb)
     7.12927547E-02    3     1000024         5        -6   # BR(~g -> ~chi_1+ b  tb)
     7.12927547E-02    3    -1000024         6        -5   # BR(~g -> ~chi_1- t  bb)
#
#         PDG            Width
DECAY   1000006     2.39104911E+02   # stop1 decays
#          BR         NDA      ID1       ID2
     7.85488695E-02    2     1000022         6   # BR(~t_1 -> ~chi_10 t )
     1.06390537E-01    2     1000023         6   # BR(~t_1 -> ~chi_20 t )
     4.45917556E-02    2     1000025         6   # BR(~t_1 -> ~chi_30 t )
     1.26616840E-02    2     1000035         6   # BR(~t_1 -> ~chi_40 t )
     1.15826145E-01    2     1000024         5   # BR(~t_1 -> ~chi_1+ b )
     2.46963600E-02    2     1000037         5   # BR(~t_1 -> ~chi_2+ b )
     6.17284650E-01    2     1000021         6   # BR(~t_1 -> ~g      t )
#
#         PDG            Width
DECAY   2000006     2.27578259E+02   # stop2 decays
#          BR         NDA      ID1       ID2
     3.43621707E-02    2     1000022         6   # BR(~t_2 -> ~chi_10 t )
     1.06183903E-01    2     1000023         6   # BR(~t_2 -> ~chi_20 t )
     8.74452938E-02    2     1000025         6   # BR(~t_2 -> ~chi_30 t )
     2.16501898E-02    2     1000035         6   # BR(~t_2 -> ~chi_40 t )
     9.64117691E-02    2     1000024         5   # BR(~t_2 -> ~chi_1+ b )
     4.25129688E-02    2     1000037         5   # BR(~t_2 -> ~chi_2+ b )
     6.11433705E-01    2     1000021         6   # BR(~t_2 -> ~g      t )
#
#         PDG            Width
DECAY   1000005     1.77300478E+02   # sbottom1 decays
#          BR         NDA      ID1       ID2
     5.29365417E-03    2     1000022         5   # BR(~b_1 -> ~chi_10 b )
     8.70179422E-05    2     1000023         5   # BR(~b_1 -> ~chi_20 b )
     2.11685446E-03    2     1000025         5   # BR(~b_1 -> ~chi_30 b )
     1.93901834E-02    2     1000035         5   # BR(~b_1 -> ~chi_40 b )
     1.24038102E-01    2    -1000024         6   # BR(~b_1 -> ~chi_1- t )
     3.96044055E-02    2    -1000037         6   # BR(~b_1 -> ~chi_2- t )
     8.09469783E-01    2     1000021         5   # BR(~b_1 -> ~g      b )
#
#         PDG            Width
DECAY   2000005     1.84771271E+02   # sbottom2 decays
#          BR         NDA      ID1       ID2
     3.12873649E-03    2     1000022         5   # BR(~b_2 -> ~chi_10 b )
     1.05526256E-04    2     1000023         5   # BR(~b_2 -> ~chi_20 b )
     2.82409548E-03    2     1000025         5   # BR(~b_2 -> ~chi_30 b )
     2.29052750E-02    2     1000035         5   # BR(~b_2 -> ~chi_40 b )
     1.48107209E-01    2    -1000024         6   # BR(~b_2 -> ~chi_1- t )
     4.67963881E-02    2    -1000037         6   # BR(~b_2 -> ~chi_2- t )
     7.76132769E-01    2     1000021         5   # BR(~b_2 -> ~g      b )
#
#         PDG            Width
DECAY   1000002     1.67148665E+02   # sup_L decays
#          BR         NDA      ID1       ID2
     5.94226857E-04    2     1000022         2   # BR(~u_L -> ~chi_10 u)
     5.55938644E-07    2     1000023         2   # BR(~u_L -> ~chi_20 u)
     2.74342485E-03    2     1000025         2   # BR(~u_L -> ~chi_30 u)
     4.57522556E-02    2     1000035         2   # BR(~u_L -> ~chi_40 u)
     1.09911468E-03    2     1000024         1   # BR(~u_L -> ~chi_1+ d)
     9.15899104E-02    2     1000037         1   # BR(~u_L -> ~chi_2+ d)
     8.58220512E-01    2     1000021         2   # BR(~u_L -> ~g      u)
#
#         PDG            Width
DECAY   2000002     1.50829797E+02   # sup_R decays
#          BR         NDA      ID1       ID2
     2.70181057E-02    2     1000022         2   # BR(~u_R -> ~chi_10 u)
     2.22067279E-07    2     1000023         2   # BR(~u_R -> ~chi_20 u)
     2.18797232E-02    2     1000025         2   # BR(~u_R -> ~chi_30 u)
     3.87462510E-07    2     1000035         2   # BR(~u_R -> ~chi_40 u)
     9.51101562E-01    2     1000021         2   # BR(~u_R -> ~g      u)
#
#         PDG            Width
DECAY   1000001     1.67157503E+02   # sdown_L decays
#          BR         NDA      ID1       ID2
     2.88307559E-03    2     1000022         1   # BR(~d_L -> ~chi_10 d)
     9.39833637E-07    2     1000023         1   # BR(~d_L -> ~chi_20 d)
     3.19616055E-04    2     1000025         1   # BR(~d_L -> ~chi_30 d)
     4.58835620E-02    2     1000035         1   # BR(~d_L -> ~chi_40 d)
     9.44572643E-04    2    -1000024         2   # BR(~d_L -> ~chi_1- u)
     9.16906418E-02    2    -1000037         2   # BR(~d_L -> ~chi_2- u)
     8.58277592E-01    2     1000021         1   # BR(~d_L -> ~g      d)
#
#         PDG            Width
DECAY   2000001     1.45303766E+02   # sdown_R decays
#          BR         NDA      ID1       ID2
     7.01159575E-03    2     1000022         1   # BR(~d_R -> ~chi_10 d)
     5.76297678E-08    2     1000023         1   # BR(~d_R -> ~chi_20 d)
     5.67811693E-03    2     1000025         1   # BR(~d_R -> ~chi_30 d)
     1.00554490E-07    2     1000035         1   # BR(~d_R -> ~chi_40 d)
     9.87310129E-01    2     1000021         1   # BR(~d_R -> ~g      d)
#
#         PDG            Width
DECAY   1000004     1.67148665E+02   # scharm_L decays
#          BR         NDA      ID1       ID2
     5.94226857E-04    2     1000022         4   # BR(~c_L -> ~chi_10 c)
     5.55938644E-07    2     1000023         4   # BR(~c_L -> ~chi_20 c)
     2.74342485E-03    2     1000025         4   # BR(~c_L -> ~chi_30 c)
     4.57522556E-02    2     1000035         4   # BR(~c_L -> ~chi_40 c)
     1.09911468E-03    2     1000024         3   # BR(~c_L -> ~chi_1+ s)
     9.15899104E-02    2     1000037         3   # BR(~c_L -> ~chi_2+ s)
     8.58220512E-01    2     1000021         4   # BR(~c_L -> ~g      c)
#
#         PDG            Width
DECAY   2000004     1.50829797E+02   # scharm_R decays
#          BR         NDA      ID1       ID2
     2.70181057E-02    2     1000022         4   # BR(~c_R -> ~chi_10 c)
     2.22067279E-07    2     1000023         4   # BR(~c_R -> ~chi_20 c)
     2.18797232E-02    2     1000025         4   # BR(~c_R -> ~chi_30 c)
     3.87462510E-07    2     1000035         4   # BR(~c_R -> ~chi_40 c)
     9.51101562E-01    2     1000021         4   # BR(~c_R -> ~g      c)
#
#         PDG            Width
DECAY   1000003     1.67157503E+02   # sstrange_L decays
#          BR         NDA      ID1       ID2
     2.88307559E-03    2     1000022         3   # BR(~s_L -> ~chi_10 s)
     9.39833637E-07    2     1000023         3   # BR(~s_L -> ~chi_20 s)
     3.19616055E-04    2     1000025         3   # BR(~s_L -> ~chi_30 s)
     4.58835620E-02    2     1000035         3   # BR(~s_L -> ~chi_40 s)
     9.44572643E-04    2    -1000024         4   # BR(~s_L -> ~chi_1- c)
     9.16906418E-02    2    -1000037         4   # BR(~s_L -> ~chi_2- c)
     8.58277592E-01    2     1000021         3   # BR(~s_L -> ~g      s)
#
#         PDG            Width
DECAY   2000003     1.45303766E+02   # sstrange_R decays
#          BR         NDA      ID1       ID2
     7.01159575E-03    2     1000022         3   # BR(~s_R -> ~chi_10 s)
     5.76297678E-08    2     1000023         3   # BR(~s_R -> ~chi_20 s)
     5.67811693E-03    2     1000025         3   # BR(~s_R -> ~chi_30 s)
     1.00554490E-07    2     1000035         3   # BR(~s_R -> ~chi_40 s)
     9.87310129E-01    2     1000021         3   # BR(~s_R -> ~g      s)
#
#         PDG            Width
DECAY   1000011     2.82985079E+01   # selectron_L decays
#          BR         NDA      ID1       ID2
     6.43377740E-02    2     1000022        11   # BR(~e_L -> ~chi_10 e-)
     1.66876304E-06    2     1000023        11   # BR(~e_L -> ~chi_20 e-)
     9.21656788E-02    2     1000025        11   # BR(~e_L -> ~chi_30 e-)
     2.78361861E-01    2     1000035        11   # BR(~e_L -> ~chi_40 e-)
     5.78932434E-03    2    -1000024        12   # BR(~e_L -> ~chi_1- nu_e)
     5.59343693E-01    2    -1000037        12   # BR(~e_L -> ~chi_2- nu_e)
#
#         PDG            Width
DECAY   2000011     1.72199902E+01   # selectron_R decays
#          BR         NDA      ID1       ID2
     5.52599625E-01    2     1000022        11   # BR(~e_R -> ~chi_10 e-)
     4.54120650E-06    2     1000023        11   # BR(~e_R -> ~chi_20 e-)
     4.47387947E-01    2     1000025        11   # BR(~e_R -> ~chi_30 e-)
     7.88692948E-06    2     1000035        11   # BR(~e_R -> ~chi_40 e-)
#
#         PDG            Width
DECAY   1000013     2.82985079E+01   # smuon_L decays
#          BR         NDA      ID1       ID2
     6.43377740E-02    2     1000022        13   # BR(~mu_L -> ~chi_10 mu-)
     1.66876304E-06    2     1000023        13   # BR(~mu_L -> ~chi_20 mu-)
     9.21656788E-02    2     1000025        13   # BR(~mu_L -> ~chi_30 mu-)
     2.78361861E-01    2     1000035        13   # BR(~mu_L -> ~chi_40 mu-)
     5.78932434E-03    2    -1000024        14   # BR(~mu_L -> ~chi_1- nu_mu)
     5.59343693E-01    2    -1000037        14   # BR(~mu_L -> ~chi_2- nu_mu)
#
#         PDG            Width
DECAY   2000013     1.72199902E+01   # smuon_R decays
#          BR         NDA      ID1       ID2
     5.52599625E-01    2     1000022        13   # BR(~mu_R -> ~chi_10 mu-)
     4.54120650E-06    2     1000023        13   # BR(~mu_R -> ~chi_20 mu-)
     4.47387947E-01    2     1000025        13   # BR(~mu_R -> ~chi_30 mu-)
     7.88692948E-06    2     1000035        13   # BR(~mu_R -> ~chi_40 mu-)
#
#         PDG            Width
DECAY   1000015     2.28036397E+01   # stau_1 decays
#          BR         NDA      ID1       ID2
     2.55197356E-01    2     1000022        15   # BR(~tau_1 -> ~chi_10  tau-)
     4.17599969E-04    2     1000023        15   # BR(~tau_1 -> ~chi_20  tau-)
     2.23091897E-01    2     1000025        15   # BR(~tau_1 -> ~chi_30  tau-)
     1.70939445E-01    2     1000035        15   # BR(~tau_1 -> ~chi_40  tau-)
     6.70160317E-03    2    -1000024        16   # BR(~tau_1 -> ~chi_1-  nu_tau)
     3.43494400E-01    2    -1000037        16   # BR(~tau_1 -> ~chi_2-  nu_tau)
     1.57699092E-04    2     1000039        15   # BR(~tau_1 -> ~G       tau-)
#
#         PDG            Width
DECAY   2000015     2.27851567E+01   # stau_2 decays
#          BR         NDA      ID1       ID2
     2.42579094E-01    2     1000022        15   # BR(~tau_2 -> ~chi_10  tau-)
     5.63209438E-04    2     1000023        15   # BR(~tau_2 -> ~chi_20  tau-)
     2.29832630E-01    2     1000025        15   # BR(~tau_2 -> ~chi_30  tau-)
     1.74650203E-01    2     1000035        15   # BR(~tau_2 -> ~chi_40  tau-)
     1.45443883E-03    2    -1000024        16   # BR(~tau_2 -> ~chi_1-  nu_tau)
     3.50920425E-01    2    -1000037        16   # BR(~tau_2 -> ~chi_2-  nu_tau)
#
#         PDG            Width
DECAY   1000012     2.83012339E+01   # snu_eL decays
#          BR         NDA      ID1       ID2
     1.06409472E-01    2     1000022        12   # BR(~nu_eL -> ~chi_10 nu_e)
     8.72540067E-06    2     1000023        12   # BR(~nu_eL -> ~chi_20 nu_e)
     4.75936364E-02    2     1000025        12   # BR(~nu_eL -> ~chi_30 nu_e)
     2.80607225E-01    2     1000035        12   # BR(~nu_eL -> ~chi_40 nu_e)
     6.73551632E-03    2     1000024        11   # BR(~nu_eL -> ~chi_1+ e-)
     5.58645425E-01    2     1000037        11   # BR(~nu_eL -> ~chi_2+ e-)
#
#         PDG            Width
DECAY   1000014     2.83012339E+01   # snu_muL decays
#          BR         NDA      ID1       ID2
     1.06409472E-01    2     1000022        14   # BR(~nu_muL -> ~chi_10 nu_mu)
     8.72540067E-06    2     1000023        14   # BR(~nu_muL -> ~chi_20 nu_mu)
     4.75936364E-02    2     1000025        14   # BR(~nu_muL -> ~chi_30 nu_mu)
     2.80607225E-01    2     1000035        14   # BR(~nu_muL -> ~chi_40 nu_mu)
     6.73551632E-03    2     1000024        13   # BR(~nu_muL -> ~chi_1+ mu-)
     5.58645425E-01    2     1000037        13   # BR(~nu_muL -> ~chi_2+ mu-)
#
#         PDG            Width
DECAY   1000016     2.83234584E+01   # snu_tauL decays
#          BR         NDA      ID1       ID2
     1.06325976E-01    2     1000022        16   # BR(~nu_tauL -> ~chi_10 nu_tau)
     8.71855413E-06    2     1000023        16   # BR(~nu_tauL -> ~chi_20 nu_tau)
     4.75562912E-02    2     1000025        16   # BR(~nu_tauL -> ~chi_30 nu_tau)
     2.80387041E-01    2     1000035        16   # BR(~nu_tauL -> ~chi_40 nu_tau)
     7.51077745E-03    2     1000024        15   # BR(~nu_tauL -> ~chi_1+ tau-)
     5.58211196E-01    2     1000037        15   # BR(~nu_tauL -> ~chi_2+ tau-)
#
#         PDG            Width
DECAY   1000024     1.71873699E-04   # chargino1+ decays
#          BR         NDA      ID1       ID2
     1.19466159E-01    2     1000039        24   # BR(~chi_1+ -> ~G       W+)
     3.32311540E-07    2     1000039        37   # BR(~chi_1+ -> ~G       H+)
#           BR         NDA      ID1       ID2       ID3
     2.94162458E-01    3     1000022         2        -1   # BR(~chi_1+ -> ~chi_10 u    db)
     2.92883560E-01    3     1000022         4        -3   # BR(~chi_1+ -> ~chi_10 c    sb)
     9.80542598E-02    3     1000022       -11        12   # BR(~chi_1+ -> ~chi_10 e+   nu_e)
     9.80518650E-02    3     1000022       -13        14   # BR(~chi_1+ -> ~chi_10 mu+  nu_mu)
     9.73813655E-02    3     1000022       -15        16   # BR(~chi_1+ -> ~chi_10 tau+ nu_tau)
#
#         PDG            Width
DECAY   1000037     3.29610125E+01   # chargino2+ decays
#          BR         NDA      ID1       ID2
     2.54399659E-01    2     1000024        23   # BR(~chi_2+ -> ~chi_1+  Z )
     1.04211978E-01    2     1000022        24   # BR(~chi_2+ -> ~chi_10  W+)
     2.46007567E-01    2     1000023        24   # BR(~chi_2+ -> ~chi_20  W+)
     1.43950847E-01    2     1000025        24   # BR(~chi_2+ -> ~chi_30  W+)
     2.51421420E-01    2     1000024        25   # BR(~chi_2+ -> ~chi_1+  h )
     8.52678010E-06    2     1000039        24   # BR(~chi_2+ -> ~G       W+)
     2.61656814E-09    2     1000039        37   # BR(~chi_2+ -> ~G       H+)
#
#         PDG            Width
DECAY   1000022    1.0E-05    # neutralino1 decays
#          BR         NDA      ID1       ID2
     4.95301369E-01    2     1000039        22   # BR(~chi_10 -> ~G        gam)
     4.94083729E-01    2     1000039        23   # BR(~chi_10 -> ~G        Z)
     1.06149024E-02    2     1000039        25   # BR(~chi_10 -> ~G        h)
#
#         PDG            Width
DECAY   1000023     2.52109051E-04   # neutralino2 decays
#          BR         NDA      ID1       ID2
     2.24895167E-04    2     1000022        22   # BR(~chi_20 -> ~chi_10 gam)
#          BR         NDA      ID1       ID2
     2.08930933E-08    2     1000039        22   # BR(~chi_20 -> ~G        gam)
     3.15974016E-03    2     1000039        23   # BR(~chi_20 -> ~G        Z)
     7.83953161E-02    2     1000039        25   # BR(~chi_20 -> ~G        h)
     1.21315144E-08    2     1000039        35   # BR(~chi_20 -> ~G        H)
     4.30765219E-07    2     1000039        36   # BR(~chi_20 -> ~G        A)
#           BR         NDA      ID1       ID2       ID3
     1.08760200E-01    3     1000022        -2         2   # BR(~chi_20 -> ~chi_10 ub      u)
     1.40839449E-01    3     1000022        -1         1   # BR(~chi_20 -> ~chi_10 db      d)
     1.08147386E-01    3     1000022        -4         4   # BR(~chi_20 -> ~chi_10 cb      c)
     1.40823385E-01    3     1000022        -3         3   # BR(~chi_20 -> ~chi_10 sb      s)
     1.30585996E-01    3     1000022        -5         5   # BR(~chi_20 -> ~chi_10 bb      b)
     3.21707430E-02    3     1000022       -11        11   # BR(~chi_20 -> ~chi_10 e+      e-)
     3.21697630E-02    3     1000022       -13        13   # BR(~chi_20 -> ~chi_10 mu+     mu-)
     3.18943574E-02    3     1000022       -15        15   # BR(~chi_20 -> ~chi_10 tau+    tau-)
     6.42502348E-02    3     1000022       -12        12   # BR(~chi_20 -> ~chi_10 nu_eb   nu_e)
     6.42502348E-02    3     1000022       -14        14   # BR(~chi_20 -> ~chi_10 nu_mub  nu_mu)
     6.42502348E-02    3     1000022       -16        16   # BR(~chi_20 -> ~chi_10 nu_taub nu_tau)
     1.44833110E-05    3     1000024        -2         1   # BR(~chi_20 -> ~chi_1+ ub      d)
     1.44833110E-05    3    -1000024        -1         2   # BR(~chi_20 -> ~chi_1- db      u)
     1.13666258E-05    3     1000024        -4         3   # BR(~chi_20 -> ~chi_1+ cb      s)
     1.13666258E-05    3    -1000024        -3         4   # BR(~chi_20 -> ~chi_1- sb      c)
     4.82777074E-06    3     1000024       -12        11   # BR(~chi_20 -> ~chi_1+ nu_eb   e-)
     4.82777074E-06    3    -1000024        12       -11   # BR(~chi_20 -> ~chi_1- nu_e    e+)
     4.82100436E-06    3     1000024       -14        13   # BR(~chi_20 -> ~chi_1+ nu_mub  mu-)
     4.82100436E-06    3    -1000024        14       -13   # BR(~chi_20 -> ~chi_1- nu_mu   mu+)
     3.30185077E-06    3     1000024       -16        15   # BR(~chi_20 -> ~chi_1+ nu_taub tau-)
     3.30185077E-06    3    -1000024        16       -15   # BR(~chi_20 -> ~chi_1- nu_tau  tau+)
#
#         PDG            Width
DECAY   1000025     1.92179410E-04   # neutralino3 decays
#          BR         NDA      ID1       ID2
     4.31769997E-04    2     1000022        22   # BR(~chi_30 -> ~chi_10 gam)
     4.60943955E-06    2     1000023        22   # BR(~chi_30 -> ~chi_20 gam)
#          BR         NDA      ID1       ID2
     9.00935870E-02    2     1000039        22   # BR(~chi_30 -> ~G        gam)
     7.85735617E-02    2     1000039        23   # BR(~chi_30 -> ~G        Z)
     2.39518604E-03    2     1000039        25   # BR(~chi_30 -> ~G        h)
     1.92221180E-06    2     1000039        35   # BR(~chi_30 -> ~G        H)
     9.16165936E-08    2     1000039        36   # BR(~chi_30 -> ~G        A)
#           BR         NDA      ID1       ID2       ID3
     1.85667432E-05    3     1000022        -2         2   # BR(~chi_30 -> ~chi_10 ub      u)
     2.23015176E-05    3     1000022        -1         1   # BR(~chi_30 -> ~chi_10 db      d)
     3.50082524E-05    3     1000022        -4         4   # BR(~chi_30 -> ~chi_10 cb      c)
     2.26090355E-05    3     1000022        -3         3   # BR(~chi_30 -> ~chi_10 sb      s)
     8.10757671E-05    3     1000022        -5         5   # BR(~chi_30 -> ~chi_10 bb      b)
     3.96830204E-06    3     1000022       -11        11   # BR(~chi_30 -> ~chi_10 e+      e-)
     3.96825672E-06    3     1000022       -13        13   # BR(~chi_30 -> ~chi_10 mu+     mu-)
     1.29141321E-05    3     1000022       -15        15   # BR(~chi_30 -> ~chi_10 tau+    tau-)
     1.08080387E-05    3     1000022       -12        12   # BR(~chi_30 -> ~chi_10 nu_eb   nu_e)
     1.08080387E-05    3     1000022       -14        14   # BR(~chi_30 -> ~chi_10 nu_mub  nu_mu)
     1.08080387E-05    3     1000022       -16        16   # BR(~chi_30 -> ~chi_10 nu_taub nu_tau)
     1.37184349E-02    3     1000023        -2         2   # BR(~chi_30 -> ~chi_20 ub      u)
     1.77647580E-02    3     1000023        -1         1   # BR(~chi_30 -> ~chi_20 db      d)
     1.35489756E-02    3     1000023        -4         4   # BR(~chi_30 -> ~chi_20 cb      c)
     1.77598294E-02    3     1000023        -3         3   # BR(~chi_30 -> ~chi_20 sb      s)
     1.47163066E-02    3     1000023        -5         5   # BR(~chi_30 -> ~chi_20 bb      b)
     4.05785401E-03    3     1000023       -11        11   # BR(~chi_30 -> ~chi_20 e+      e-)
     4.05760298E-03    3     1000023       -13        13   # BR(~chi_30 -> ~chi_20 mu+     mu-)
     3.98649722E-03    3     1000023       -15        15   # BR(~chi_30 -> ~chi_20 tau+    tau-)
     8.10416278E-03    3     1000023       -12        12   # BR(~chi_30 -> ~chi_20 nu_eb   nu_e)
     8.10416278E-03    3     1000023       -14        14   # BR(~chi_30 -> ~chi_20 nu_mub  nu_mu)
     8.10416278E-03    3     1000023       -16        16   # BR(~chi_30 -> ~chi_20 nu_taub nu_tau)
     1.19437907E-01    3     1000024        -2         1   # BR(~chi_30 -> ~chi_1+ ub      d)
     1.19437907E-01    3    -1000024        -1         2   # BR(~chi_30 -> ~chi_1- db      u)
     1.18690456E-01    3     1000024        -4         3   # BR(~chi_30 -> ~chi_1+ cb      s)
     1.18690456E-01    3    -1000024        -3         4   # BR(~chi_30 -> ~chi_1- sb      c)
     3.98125802E-02    3     1000024       -12        11   # BR(~chi_30 -> ~chi_1+ nu_eb   e-)
     3.98125802E-02    3    -1000024        12       -11   # BR(~chi_30 -> ~chi_1- nu_e    e+)
     3.98111779E-02    3     1000024       -14        13   # BR(~chi_30 -> ~chi_1+ nu_mub  mu-)
     3.98111779E-02    3    -1000024        14       -13   # BR(~chi_30 -> ~chi_1- nu_mu   mu+)
     3.94197227E-02    3     1000024       -16        15   # BR(~chi_30 -> ~chi_1+ nu_taub tau-)
     3.94197227E-02    3    -1000024        16       -15   # BR(~chi_30 -> ~chi_1- nu_tau  tau+)
#
#         PDG            Width
DECAY   1000035     3.29593200E+01   # neutralino4 decays
#          BR         NDA      ID1       ID2
     1.65677173E-04    2     1000022        23   # BR(~chi_40 -> ~chi_10   Z )
     2.52632257E-01    2     1000023        23   # BR(~chi_40 -> ~chi_20   Z )
     2.00070462E-04    2     1000025        23   # BR(~chi_40 -> ~chi_30   Z )
     2.47386913E-01    2     1000024       -24   # BR(~chi_40 -> ~chi_1+   W-)
     2.47386913E-01    2    -1000024        24   # BR(~chi_40 -> ~chi_1-   W+)
     1.05730777E-01    2     1000022        25   # BR(~chi_40 -> ~chi_10   h )
     3.51613733E-04    2     1000023        25   # BR(~chi_40 -> ~chi_20   h )
     1.46137248E-01    2     1000025        25   # BR(~chi_40 -> ~chi_30   h )
     2.02336685E-06    2     1000039        22   # BR(~chi_40 -> ~G        gam)
     6.50204434E-06    2     1000039        23   # BR(~chi_40 -> ~G        Z)
     1.49121688E-09    2     1000039        25   # BR(~chi_40 -> ~G        h)
     2.54162872E-09    2     1000039        35   # BR(~chi_40 -> ~G        H)
     6.86628812E-11    2     1000039        36   # BR(~chi_40 -> ~G        A)
#
#         PDG            Width
DECAY        25     4.08940745E-03   # h decays
#          BR         NDA      ID1       ID2
     6.18145774E-01    2           5        -5   # BR(h -> b       bb     )
     6.36892255E-02    2         -15        15   # BR(h -> tau+    tau-   )
     2.25436402E-04    2         -13        13   # BR(h -> mu+     mu-    )
     4.77720273E-04    2           3        -3   # BR(h -> s       sb     )
     2.06105147E-02    2           4        -4   # BR(h -> c       cb     )
     6.69211282E-02    2          21        21   # BR(h -> g       g      )
     2.30075729E-03    2          22        22   # BR(h -> gam     gam    )
     1.53616424E-03    2          22        23   # BR(h -> Z       gam    )
     2.00499436E-01    2          24       -24   # BR(h -> W+      W-     )
     2.55938435E-02    2          23        23   # BR(h -> Z       Z      )
#
#         PDG            Width
DECAY        35     3.78084783E+01   # H decays
#          BR         NDA      ID1       ID2
     1.46408883E-03    2           5        -5   # BR(H -> b       bb     )
     2.46437916E-04    2         -15        15   # BR(H -> tau+    tau-   )
     8.71249782E-07    2         -13        13   # BR(H -> mu+     mu-    )
     1.11551999E-06    2           3        -3   # BR(H -> s       sb     )
     1.00669401E-05    2           4        -4   # BR(H -> c       cb     )
     9.96076536E-01    2           6        -6   # BR(H -> t       tb     )
     7.97649803E-04    2          21        21   # BR(H -> g       g      )
     2.71681488E-06    2          22        22   # BR(H -> gam     gam    )
     1.16040637E-06    2          23        22   # BR(H -> Z       gam    )
     3.32449550E-04    2          24       -24   # BR(H -> W+      W-     )
     1.65771425E-04    2          23        23   # BR(H -> Z       Z      )
     9.01135722E-04    2          25        25   # BR(H -> h       h      )
     7.06894946E-24    2          36        36   # BR(H -> A       A      )
     2.87728125E-11    2          23        36   # BR(H -> Z       A      )
     6.33061012E-12    2          24       -37   # BR(H -> W+      H-     )
     6.33061012E-12    2         -24        37   # BR(H -> W-      H+     )
#
#         PDG            Width
DECAY        36     3.82378839E+01   # A decays
#          BR         NDA      ID1       ID2
     1.46699496E-03    2           5        -5   # BR(A -> b       bb     )
     2.43899909E-04    2         -15        15   # BR(A -> tau+    tau-   )
     8.62274286E-07    2         -13        13   # BR(A -> mu+     mu-    )
     1.13678416E-06    2           3        -3   # BR(A -> s       sb     )
     9.96185422E-06    2           4        -4   # BR(A -> c       cb     )
     9.97004938E-01    2           6        -6   # BR(A -> t       tb     )
     9.43684115E-04    2          21        21   # BR(A -> g       g      )
     3.13337541E-06    2          22        22   # BR(A -> gam     gam    )
     1.35298851E-06    2          23        22   # BR(A -> Z       gam    )
     3.24035447E-04    2          23        25   # BR(A -> Z       h      )
#
#         PDG            Width
DECAY        37     3.74470499E+01   # H+ decays
#          BR         NDA      ID1       ID2
     2.34867929E-06    2           4        -5   # BR(H+ -> c       bb     )
     2.49240340E-04    2         -15        16   # BR(H+ -> tau+    nu_tau )
     8.81154635E-07    2         -13        14   # BR(H+ -> mu+     nu_mu  )
     1.49316604E-08    2           2        -5   # BR(H+ -> u       bb     )
     5.45699845E-08    2           2        -3   # BR(H+ -> u       sb     )
     1.08732763E-05    2           4        -3   # BR(H+ -> c       sb     )
     9.99404483E-01    2           6        -5   # BR(H+ -> t       bb     )
     3.32104519E-04    2          24        25   # BR(H+ -> W+      h      )
     2.87176995E-13    2          24        36   # BR(H+ -> W+      A      )
