#
#                              ======================
#                              | THE SUSYHIT OUTPUT |
#                              ======================
#
#
#              ------------------------------------------------------
#              |     This is the output of the SUSY-HIT package     |
#              |  created by A.Djouadi, M.Muehlleitner and M.Spira. |
#              |  In case of problems with SUSY-HIT email to        |
#              |           margarete.muehlleitner@kit.edu           |
#              |           michael.spira@psi.ch                     |
#              |           abdelhak.djouadi@cern.ch                 |
#              ------------------------------------------------------
#
#              ------------------------------------------------------
#              |  SUSY Les Houches Accord - MSSM Spectrum + Decays  |
#              |              based on the decay programs           |
#              |                                                    |
#              |                     SDECAY 1.5a                    |
#              |                                                    |
#              |  Authors: M.Muhlleitner, A.Djouadi and Y.Mambrini  |
#              |  Ref.:    Comput.Phys.Commun.168(2005)46           |
#              |           [hep-ph/0311167]                         |
#              |                                                    |
#              |                     HDECAY 3.4                     |
#              |                                                    |
#              |  By: A.Djouadi,J.Kalinowski,M.Muhlleitner,M.Spira  |
#              |  Ref.:    Comput.Phys.Commun.108(1998)56           |
#              |           [hep-ph/9704448]                         |
#              |                                                    |
#              |                                                    |
#              |  If not stated otherwise all DRbar couplings and   |
#              |  soft SUSY breaking masses are given at the scale  |
#              |  Q=  0.91187600E+02
#              |                                                    |
#              ------------------------------------------------------
#
#
BLOCK DCINFO  # Decay Program information
     1   SDECAY/HDECAY # decay calculator
     2   1.5a /3.4    # version number
#
BLOCK SPINFO  # Spectrum calculator information
     1   SuSpect     # RGE +Spectrum calculator            
     2   2.43         # version number                     
#
BLOCK MODSEL  # Model selection
     1     2   # GMSB                                              
#
BLOCK SMINPUTS  # Standard Model inputs
         1     1.27932904E+02   # alpha_em^-1(M_Z)^MSbar
         2     1.16639000E-05   # G_F [GeV^-2]
         3     1.17200000E-01   # alpha_S(M_Z)^MSbar
         4     9.11870000E+01   # M_Z pole mass
         5     4.25000000E+00   # mb(mb)^MSbar
         6     1.72900000E+02   # mt pole mass
         7     1.77700000E+00   # mtau pole mass
#
BLOCK MINPAR  # Input parameters - minimal models
#
BLOCK EXTPAR  # Input parameters - non-minimal models
         0     9.11876000E+01   # EWSB                
         1     4.59000000E+02   # M_1                 
         2     3.00000000E+03   # M_2                 
         3     1.80000000E+03   # M_3                 
        11     0.00000000E+00   # A_t                 
        12     0.00000000E+00   # A_b                 
        13     0.00000000E+00   # A_tau               
        14     0.00000000E+00   # A_u                 
        15     0.00000000E+00   # A_d                 
        16     0.00000000E+00   # A_e                 
        23     4.50000000E+02   # mu(EWSB)            
        25     1.50000000E+00   # tanbeta(in)         
        26     2.00000000E+03   # MA_pole             
        31     5.00000000E+03   # M_eL                
        32     5.00000000E+03   # M_muL               
        33     5.00000000E+03   # M_tauL              
        34     5.00000000E+03   # M_eR                
        35     5.00000000E+03   # M_muR               
        36     5.00000000E+03   # M_tauR              
        41     5.00000000E+03   # M_q1L               
        42     5.00000000E+03   # M_q2L               
        43     5.00000000E+03   # M_q3L               
        44     5.00000000E+03   # M_uR                
        45     5.00000000E+03   # M_cR                
        46     5.00000000E+03   # M_tR                
        47     5.00000000E+03   # M_dR                
        48     5.00000000E+03   # M_sR                
        49     5.00000000E+03   # M_bR                
#
BLOCK MASS  # Mass Spectrum
# PDG code           mass       particle
        24     8.05385980E+01   # W+
        25     1.25000000E+02   # h
        35     2.00421685E+03   # H
        36     2.00000000E+03   # A
        37     2.00202267E+03   # H+
         5     4.87877839E+00   # b-quark pole mass calculated from mb(mb)_Msbar
   1000001     5.00013309E+03   # ~d_L
   2000001     5.00002534E+03   # ~d_R
   1000002     4.99989224E+03   # ~u_L
   2000002     4.99994933E+03   # ~u_R
   1000003     5.00013309E+03   # ~s_L
   2000003     5.00002534E+03   # ~s_R
   1000004     4.99989224E+03   # ~c_L
   2000004     4.99994933E+03   # ~c_R
   1000005     4.99989059E+03   # ~b_1
   2000005     5.00026928E+03   # ~b_2
   1000006     4.99767062E+03   # ~t_1
   2000006     5.00679553E+03   # ~t_2
   1000011     5.00008242E+03   # ~e_L
   2000011     5.00007601E+03   # ~e_R
   1000012     4.99984157E+03   # ~nu_eL
   1000013     5.00008242E+03   # ~mu_L
   2000013     5.00007601E+03   # ~mu_R
   1000014     4.99984157E+03   # ~nu_muL
   1000015     4.99995950E+03   # ~tau_1
   2000015     5.00019955E+03   # ~tau_2
   1000016     4.99984157E+03   # ~nu_tauL
   1000021     1.80000000E+03   # ~g
   1000022     4.09424360E+02   # ~chi_10
   1000023    -4.50154064E+02   # ~chi_20
   1000025     4.97300242E+02   # ~chi_30
   1000035     3.00242946E+03   # ~chi_40
   1000024     4.47710774E+02   # ~chi_1+
   1000037     3.00242884E+03   # ~chi_2+
   1000039     1.00000000E-09   # ~gravitino
#
BLOCK NMIX  # Neutralino Mixing Matrix
  1  1     6.59433953E-01   # N_11
  1  2    -2.24640509E-02   # N_12
  1  3     5.36332248E-01   # N_13
  1  4    -5.26298345E-01   # N_14
  2  1     9.62975415E-03   # N_21
  2  2    -4.51709177E-03   # N_22
  2  3    -7.06461440E-01   # N_23
  2  4    -7.07671603E-01   # N_24
  3  1     7.51700633E-01   # N_31
  3  2     2.04777577E-02   # N_32
  3  3    -4.61437447E-01   # N_33
  3  4     4.70746537E-01   # N_34
  4  1     5.36340347E-04   # N_41
  4  2    -9.99527700E-01   # N_42
  4  3    -1.83148981E-02   # N_43
  4  4     2.46708960E-02   # N_44
#
BLOCK UMIX  # Chargino Mixing Matrix U
  1  1    -2.58911474E-02   # U_11
  1  2     9.99664768E-01   # U_12
  2  1     9.99664768E-01   # U_21
  2  2     2.58911474E-02   # U_22
#
BLOCK VMIX  # Chargino Mixing Matrix V
  1  1    -3.48833263E-02   # V_11
  1  2     9.99391392E-01   # V_12
  2  1     9.99391392E-01   # V_21
  2  2     3.48833263E-02   # V_22
#
BLOCK STOPMIX  # Stop Mixing Matrix
  1  1     7.09314116E-01   # cos(theta_t)
  1  2     7.04892534E-01   # sin(theta_t)
  2  1    -7.04892534E-01   # -sin(theta_t)
  2  2     7.09314116E-01   # cos(theta_t)
#
BLOCK SBOTMIX  # Sbottom Mixing Matrix
  1  1     5.98104844E-01   # cos(theta_b)
  1  2     8.01417866E-01   # sin(theta_b)
  2  1    -8.01417866E-01   # -sin(theta_b)
  2  2     5.98104844E-01   # cos(theta_b)
#
BLOCK STAUMIX  # Stau Mixing Matrix
  1  1     6.97597120E-01   # cos(theta_tau)
  1  2     7.16490236E-01   # sin(theta_tau)
  2  1    -7.16490236E-01   # -sin(theta_tau)
  2  2     6.97597120E-01   # cos(theta_tau)
#
BLOCK ALPHA  # Higgs mixing
          -5.90208481E-01   # Mixing angle in the neutral Higgs boson sector
#
BLOCK HMIX Q=  9.11876000E+01  # DRbar Higgs Parameters
         1     4.50000000E+02   # mu(Q)               
         2     1.49999979E+00   # tanbeta(Q)          
         3     2.51891647E+02   # vev(Q)              
         4     3.75977093E+06   # MA^2(Q)             
#
BLOCK GAUGE Q=  9.11876000E+01  # The gauge couplings
     1     3.52960538E-01   # gprime(Q) DRbar
     2     6.28305514E-01   # g(Q) DRbar
     3     1.08213364E+00   # g3(Q) DRbar
#
BLOCK AU Q=  9.11876000E+01  # The trilinear couplings
  1  1     0.00000000E+00   # A_u(Q) DRbar
  2  2     0.00000000E+00   # A_c(Q) DRbar
  3  3     0.00000000E+00   # A_t(Q) DRbar
#
BLOCK AD Q=  9.11876000E+01  # The trilinear couplings
  1  1     0.00000000E+00   # A_d(Q) DRbar
  2  2     0.00000000E+00   # A_s(Q) DRbar
  3  3     0.00000000E+00   # A_b(Q) DRbar
#
BLOCK AE Q=  9.11876000E+01  # The trilinear couplings
  1  1     0.00000000E+00   # A_e(Q) DRbar
  2  2     0.00000000E+00   # A_mu(Q) DRbar
  3  3     0.00000000E+00   # A_tau(Q) DRbar
#
BLOCK Yu Q=  9.11876000E+01  # The Yukawa couplings
  1  1     0.00000000E+00   # y_u(Q) DRbar
  2  2     0.00000000E+00   # y_c(Q) DRbar
  3  3     1.02663183E+00   # y_t(Q) DRbar
#
BLOCK Yd Q=  9.11876000E+01  # The Yukawa couplings
  1  1     0.00000000E+00   # y_d(Q) DRbar
  2  2     0.00000000E+00   # y_s(Q) DRbar
  3  3     2.72185661E-02   # y_b(Q) DRbar
#
BLOCK Ye Q=  9.11876000E+01  # The Yukawa couplings
  1  1     0.00000000E+00   # y_e(Q) DRbar
  2  2     0.00000000E+00   # y_mu(Q) DRbar
  3  3     1.79912712E-02   # y_tau(Q) DRbar
#
BLOCK MSOFT Q=  9.11876000E+01  # The soft SUSY breaking masses at the scale Q
         1     4.59000000E+02   # M_1                 
         2     3.00000000E+03   # M_2                 
         3     1.80000000E+03   # M_3                 
        14     0.00000000E+00   # A_u                 
        15     0.00000000E+00   # A_d                 
        16     0.00000000E+00   # A_e                 
        21     2.83425700E+06   # M^2_Hd              
        22    -5.62597917E+06   # M^2_Hu              
        31     5.00000000E+03   # M_eL                
        32     5.00000000E+03   # M_muL               
        33     5.00000000E+03   # M_tauL              
        34     5.00000000E+03   # M_eR                
        35     5.00000000E+03   # M_muR               
        36     5.00000000E+03   # M_tauR              
        41     5.00000000E+03   # M_q1L               
        42     5.00000000E+03   # M_q2L               
        43     5.00000000E+03   # M_q3L               
        44     5.00000000E+03   # M_uR                
        45     5.00000000E+03   # M_cR                
        46     5.00000000E+03   # M_tR                
        47     5.00000000E+03   # M_dR                
        48     5.00000000E+03   # M_sR                
        49     5.00000000E+03   # M_bR                
#
#
#
#                             =================
#                             |The decay table|
#                             =================
#
# - The QCD corrections to the decays gluino -> squark  + quark
#                                     squark -> gaugino + quark_prime
#                                     squark -> squark_prime + Higgs
#                                     squark -> gluino  + quark
#   are included.
#
# - The multi-body decays for the inos, stops and sbottoms are included.
#
# - The loop induced decays for the gluino, neutralinos and stops
#   are included.
#
# - The SUSY decays of the top quark are included.
#
# - Possible decays of the NLSP in GMSB models are included.
#
#
#         PDG            Width
DECAY         6     1.37553576E+00   # top decays
#          BR         NDA      ID1       ID2
     1.00000000E+00    2           5        24   # BR(t ->  b    W+)
#
#         PDG            Width
DECAY   1000021     1.65356030E-03   # gluino decays
#          BR         NDA      ID1       ID2
     6.71392932E-03    2     1000022        21   # BR(~g -> ~chi_10 g)
     1.17868660E-02    2     1000023        21   # BR(~g -> ~chi_20 g)
     4.95422068E-03    2     1000025        21   # BR(~g -> ~chi_30 g)
#          BR         NDA      ID1       ID2
     0.00000000E+00    2     1000039        21   # BR(~g -> ~G      g)
#           BR         NDA      ID1       ID2       ID3
     3.68207429E-03    3     1000022         1        -1   # BR(~g -> ~chi_10 d  db)
     1.13228990E-06    3     1000023         1        -1   # BR(~g -> ~chi_20 d  db)
     3.63879197E-03    3     1000025         1        -1   # BR(~g -> ~chi_30 d  db)
     1.13736658E-02    3     1000022         2        -2   # BR(~g -> ~chi_10 u  ub)
     1.27013352E-06    3     1000023         2        -2   # BR(~g -> ~chi_20 u  ub)
     1.33187518E-02    3     1000025         2        -2   # BR(~g -> ~chi_30 u  ub)
     3.68207429E-03    3     1000022         3        -3   # BR(~g -> ~chi_10 s  sb)
     1.13228990E-06    3     1000023         3        -3   # BR(~g -> ~chi_20 s  sb)
     3.63879197E-03    3     1000025         3        -3   # BR(~g -> ~chi_30 s  sb)
     1.13736658E-02    3     1000022         4        -4   # BR(~g -> ~chi_10 c  cb)
     1.27013352E-06    3     1000023         4        -4   # BR(~g -> ~chi_20 c  cb)
     1.33187518E-02    3     1000025         4        -4   # BR(~g -> ~chi_30 c  cb)
     3.77373378E-03    3     1000022         5        -5   # BR(~g -> ~chi_10 b  bb)
     1.79793382E-04    3     1000023         5        -5   # BR(~g -> ~chi_20 b  bb)
     3.72212761E-03    3     1000025         5        -5   # BR(~g -> ~chi_30 b  bb)
     1.20342782E-01    3     1000022         6        -6   # BR(~g -> ~chi_10 t  tb)
     2.00988133E-01    3     1000023         6        -6   # BR(~g -> ~chi_20 t  tb)
     1.11130703E-01    3     1000025         6        -6   # BR(~g -> ~chi_30 t  tb)
     7.89179720E-05    3     1000024         1        -2   # BR(~g -> ~chi_1+ d  ub)
     7.89179720E-05    3    -1000024         2        -1   # BR(~g -> ~chi_1- u  db)
     7.89179720E-05    3     1000024         3        -4   # BR(~g -> ~chi_1+ s  cb)
     7.89179720E-05    3    -1000024         4        -3   # BR(~g -> ~chi_1- c  sb)
     2.29452257E-01    3     1000024         5        -6   # BR(~g -> ~chi_1+ b  tb)
     2.29452257E-01    3    -1000024         6        -5   # BR(~g -> ~chi_1- t  bb)
#
#         PDG            Width
DECAY   1000006     3.27599594E+02   # stop1 decays
#          BR         NDA      ID1       ID2
     9.07121105E-02    2     1000022         6   # BR(~t_1 -> ~chi_10 t )
     1.10525630E-01    2     1000023         6   # BR(~t_1 -> ~chi_20 t )
     3.63328345E-02    2     1000025         6   # BR(~t_1 -> ~chi_30 t )
     1.09622454E-02    2     1000035         6   # BR(~t_1 -> ~chi_40 t )
     1.12432899E-01    2     1000024         5   # BR(~t_1 -> ~chi_1+ b )
     2.18356443E-02    2     1000037         5   # BR(~t_1 -> ~chi_2+ b )
     6.17198637E-01    2     1000021         6   # BR(~t_1 -> ~g      t )
#
#         PDG            Width
DECAY   2000006     3.17873983E+02   # stop2 decays
#          BR         NDA      ID1       ID2
     4.59426394E-02    2     1000022         6   # BR(~t_2 -> ~chi_10 t )
     1.10971399E-01    2     1000023         6   # BR(~t_2 -> ~chi_20 t )
     8.19555545E-02    2     1000025         6   # BR(~t_2 -> ~chi_30 t )
     1.33284234E-02    2     1000035         6   # BR(~t_2 -> ~chi_40 t )
     1.08993675E-01    2     1000024         5   # BR(~t_2 -> ~chi_1+ b )
     2.65699918E-02    2     1000037         5   # BR(~t_2 -> ~chi_2+ b )
     6.12238316E-01    2     1000021         6   # BR(~t_2 -> ~g      t )
#
#         PDG            Width
DECAY   1000005     2.14296950E+02   # sbottom1 decays
#          BR         NDA      ID1       ID2
     5.54223174E-03    2     1000022         5   # BR(~b_1 -> ~chi_10 b )
     9.15015303E-05    2     1000023         5   # BR(~b_1 -> ~chi_20 b )
     5.13562029E-03    2     1000025         5   # BR(~b_1 -> ~chi_30 b )
     6.90584285E-03    2     1000035         5   # BR(~b_1 -> ~chi_40 b )
     4.18860621E-02    2    -1000024         6   # BR(~b_1 -> ~chi_1- t )
     1.38480468E-02    2    -1000037         6   # BR(~b_1 -> ~chi_2- t )
     9.26590695E-01    2     1000021         5   # BR(~b_1 -> ~g      b )
#
#         PDG            Width
DECAY   2000005     2.80836563E+02   # sbottom2 decays
#          BR         NDA      ID1       ID2
     1.35015975E-03    2     1000022         5   # BR(~b_2 -> ~chi_10 b )
     1.12137943E-04    2     1000023         5   # BR(~b_2 -> ~chi_20 b )
     2.35492612E-03    2     1000025         5   # BR(~b_2 -> ~chi_30 b )
     2.24130890E-02    2     1000035         5   # BR(~b_2 -> ~chi_40 b )
     2.22020669E-01    2    -1000024         6   # BR(~b_2 -> ~chi_1- t )
     4.50003412E-02    2    -1000037         6   # BR(~b_2 -> ~chi_2- t )
     7.06748677E-01    2     1000021         5   # BR(~b_2 -> ~g      b )
#
#         PDG            Width
DECAY   1000002     2.22538357E+02   # sup_L decays
#          BR         NDA      ID1       ID2
     8.56962190E-04    2     1000022         2   # BR(~u_L -> ~chi_10 u)
     6.16799217E-07    2     1000023         2   # BR(~u_L -> ~chi_20 u)
     2.16953489E-03    2     1000025         2   # BR(~u_L -> ~chi_30 u)
     3.49136048E-02    2     1000035         2   # BR(~u_L -> ~chi_40 u)
     2.03848092E-04    2     1000024         1   # BR(~u_L -> ~chi_1+ d)
     6.98222290E-02    2     1000037         1   # BR(~u_L -> ~chi_2+ d)
     8.92033204E-01    2     1000021         2   # BR(~u_L -> ~g      u)
#
#         PDG            Width
DECAY   2000002     2.08962897E+02   # sup_R decays
#          BR         NDA      ID1       ID2
     2.18188547E-02    2     1000022         2   # BR(~u_R -> ~chi_10 u)
     4.64007654E-06    2     1000023         2   # BR(~u_R -> ~chi_20 u)
     2.81742560E-02    2     1000025         2   # BR(~u_R -> ~chi_30 u)
     6.00776637E-09    2     1000035         2   # BR(~u_R -> ~chi_40 u)
     9.50002243E-01    2     1000021         2   # BR(~u_R -> ~g      u)
#
#         PDG            Width
DECAY   1000001     2.22542383E+02   # sdown_L decays
#          BR         NDA      ID1       ID2
     1.78880015E-03    2     1000022         1   # BR(~d_L -> ~chi_10 d)
     3.34546952E-06    2     1000023         1   # BR(~d_L -> ~chi_20 d)
     1.20739693E-03    2     1000025         1   # BR(~d_L -> ~chi_30 d)
     3.49324572E-02    2     1000035         1   # BR(~d_L -> ~chi_40 d)
     1.12301975E-04    2    -1000024         2   # BR(~d_L -> ~chi_1- u)
     6.98700678E-02    2    -1000037         2   # BR(~d_L -> ~chi_2- u)
     8.92085630E-01    2     1000021         1   # BR(~d_L -> ~g      d)
#
#         PDG            Width
DECAY   2000001     2.01131996E+02   # sdown_R decays
#          BR         NDA      ID1       ID2
     5.66717751E-03    2     1000022         1   # BR(~d_R -> ~chi_10 d)
     1.20520256E-06    2     1000023         1   # BR(~d_R -> ~chi_20 d)
     7.31791574E-03    2     1000025         1   # BR(~d_R -> ~chi_30 d)
     1.56049521E-09    2     1000035         1   # BR(~d_R -> ~chi_40 d)
     9.87013700E-01    2     1000021         1   # BR(~d_R -> ~g      d)
#
#         PDG            Width
DECAY   1000004     2.22538357E+02   # scharm_L decays
#          BR         NDA      ID1       ID2
     8.56962190E-04    2     1000022         4   # BR(~c_L -> ~chi_10 c)
     6.16799217E-07    2     1000023         4   # BR(~c_L -> ~chi_20 c)
     2.16953489E-03    2     1000025         4   # BR(~c_L -> ~chi_30 c)
     3.49136048E-02    2     1000035         4   # BR(~c_L -> ~chi_40 c)
     2.03848092E-04    2     1000024         3   # BR(~c_L -> ~chi_1+ s)
     6.98222290E-02    2     1000037         3   # BR(~c_L -> ~chi_2+ s)
     8.92033204E-01    2     1000021         4   # BR(~c_L -> ~g      c)
#
#         PDG            Width
DECAY   2000004     2.08962897E+02   # scharm_R decays
#          BR         NDA      ID1       ID2
     2.18188547E-02    2     1000022         4   # BR(~c_R -> ~chi_10 c)
     4.64007654E-06    2     1000023         4   # BR(~c_R -> ~chi_20 c)
     2.81742560E-02    2     1000025         4   # BR(~c_R -> ~chi_30 c)
     6.00776637E-09    2     1000035         4   # BR(~c_R -> ~chi_40 c)
     9.50002243E-01    2     1000021         4   # BR(~c_R -> ~g      c)
#
#         PDG            Width
DECAY   1000003     2.22542383E+02   # sstrange_L decays
#          BR         NDA      ID1       ID2
     1.78880015E-03    2     1000022         3   # BR(~s_L -> ~chi_10 s)
     3.34546952E-06    2     1000023         3   # BR(~s_L -> ~chi_20 s)
     1.20739693E-03    2     1000025         3   # BR(~s_L -> ~chi_30 s)
     3.49324572E-02    2     1000035         3   # BR(~s_L -> ~chi_40 s)
     1.12301975E-04    2    -1000024         4   # BR(~s_L -> ~chi_1- c)
     6.98700678E-02    2    -1000037         4   # BR(~s_L -> ~chi_2- c)
     8.92085630E-01    2     1000021         3   # BR(~s_L -> ~g      s)
#
#         PDG            Width
DECAY   2000003     2.01131996E+02   # sstrange_R decays
#          BR         NDA      ID1       ID2
     5.66717751E-03    2     1000022         3   # BR(~s_R -> ~chi_10 s)
     1.20520256E-06    2     1000023         3   # BR(~s_R -> ~chi_20 s)
     7.31791574E-03    2     1000025         3   # BR(~s_R -> ~chi_30 s)
     1.56049521E-09    2     1000035         3   # BR(~s_R -> ~chi_40 s)
     9.87013700E-01    2     1000021         3   # BR(~s_R -> ~g      s)
#
#         PDG            Width
DECAY   1000011     3.02055757E+01   # selectron_L decays
#          BR         NDA      ID1       ID2
     7.76614537E-02    2     1000022        11   # BR(~e_L -> ~chi_10 e-)
     5.09509325E-07    2     1000023        11   # BR(~e_L -> ~chi_20 e-)
     1.24919103E-01    2     1000025        11   # BR(~e_L -> ~chi_30 e-)
     2.65365114E-01    2     1000035        11   # BR(~e_L -> ~chi_40 e-)
     8.57575805E-04    2    -1000024        12   # BR(~e_L -> ~chi_1- nu_e)
     5.31196245E-01    2    -1000037        12   # BR(~e_L -> ~chi_2- nu_e)
#
#         PDG            Width
DECAY   2000011     2.43652195E+01   # selectron_R decays
#          BR         NDA      ID1       ID2
     4.36433315E-01    2     1000022        11   # BR(~e_R -> ~chi_10 e-)
     9.28068992E-05    2     1000023        11   # BR(~e_R -> ~chi_20 e-)
     5.63473759E-01    2     1000025        11   # BR(~e_R -> ~chi_30 e-)
     1.19641678E-07    2     1000035        11   # BR(~e_R -> ~chi_40 e-)
#
#         PDG            Width
DECAY   1000013     3.02055757E+01   # smuon_L decays
#          BR         NDA      ID1       ID2
     7.76614537E-02    2     1000022        13   # BR(~mu_L -> ~chi_10 mu-)
     5.09509325E-07    2     1000023        13   # BR(~mu_L -> ~chi_20 mu-)
     1.24919103E-01    2     1000025        13   # BR(~mu_L -> ~chi_30 mu-)
     2.65365114E-01    2     1000035        13   # BR(~mu_L -> ~chi_40 mu-)
     8.57575805E-04    2    -1000024        14   # BR(~mu_L -> ~chi_1- nu_mu)
     5.31196245E-01    2    -1000037        14   # BR(~mu_L -> ~chi_2- nu_mu)
#
#         PDG            Width
DECAY   2000013     2.43652195E+01   # smuon_R decays
#          BR         NDA      ID1       ID2
     4.36433315E-01    2     1000022        13   # BR(~mu_R -> ~chi_10 mu-)
     9.28068992E-05    2     1000023        13   # BR(~mu_R -> ~chi_20 mu-)
     5.63473759E-01    2     1000025        13   # BR(~mu_R -> ~chi_30 mu-)
     1.19641678E-07    2     1000035        13   # BR(~mu_R -> ~chi_40 mu-)
#
#         PDG            Width
DECAY   1000015     2.72844855E+01   # stau_1 decays
#          BR         NDA      ID1       ID2
     2.48310476E-01    2     1000022        15   # BR(~tau_1 -> ~chi_10  tau-)
     4.21299621E-04    2     1000023        15   # BR(~tau_1 -> ~chi_20  tau-)
     3.20576537E-01    2     1000025        15   # BR(~tau_1 -> ~chi_30  tau-)
     1.42733911E-01    2     1000035        15   # BR(~tau_1 -> ~chi_40  tau-)
     2.10695217E-03    2    -1000024        16   # BR(~tau_1 -> ~chi_1-  nu_tau)
     2.85718968E-01    2    -1000037        16   # BR(~tau_1 -> ~chi_2-  nu_tau)
     1.31856964E-04    2     1000039        15   # BR(~tau_1 -> ~G       tau-)
#
#         PDG            Width
DECAY   2000015     2.73849292E+01   # stau_2 decays
#          BR         NDA      ID1       ID2
     2.27235388E-01    2     1000022        15   # BR(~tau_2 -> ~chi_10  tau-)
     8.18032766E-04    2     1000023        15   # BR(~tau_2 -> ~chi_20  tau-)
     3.20216838E-01    2     1000025        15   # BR(~tau_2 -> ~chi_30  tau-)
     1.50487955E-01    2     1000035        15   # BR(~tau_2 -> ~chi_40  tau-)
     2.83714942E-06    2    -1000024        16   # BR(~tau_2 -> ~chi_1-  nu_tau)
     3.01238949E-01    2    -1000037        16   # BR(~tau_2 -> ~chi_2-  nu_tau)
#
#         PDG            Width
DECAY   1000012     3.02044617E+01   # snu_eL decays
#          BR         NDA      ID1       ID2
     9.90085004E-02    2     1000022        12   # BR(~nu_eL -> ~chi_10 nu_e)
     6.30191277E-05    2     1000023        12   # BR(~nu_eL -> ~chi_20 nu_e)
     1.02876317E-01    2     1000025        12   # BR(~nu_eL -> ~chi_30 nu_e)
     2.65653406E-01    2     1000035        12   # BR(~nu_eL -> ~chi_40 nu_e)
     1.55668280E-03    2     1000024        11   # BR(~nu_eL -> ~chi_1+ e-)
     5.30842075E-01    2     1000037        11   # BR(~nu_eL -> ~chi_2+ e-)
#
#         PDG            Width
DECAY   1000014     3.02044617E+01   # snu_muL decays
#          BR         NDA      ID1       ID2
     9.90085004E-02    2     1000022        14   # BR(~nu_muL -> ~chi_10 nu_mu)
     6.30191277E-05    2     1000023        14   # BR(~nu_muL -> ~chi_20 nu_mu)
     1.02876317E-01    2     1000025        14   # BR(~nu_muL -> ~chi_30 nu_mu)
     2.65653406E-01    2     1000035        14   # BR(~nu_muL -> ~chi_40 nu_mu)
     1.55668280E-03    2     1000024        13   # BR(~nu_muL -> ~chi_1+ mu-)
     5.30842075E-01    2     1000037        13   # BR(~nu_muL -> ~chi_2+ mu-)
#
#         PDG            Width
DECAY   1000016     3.02361327E+01   # snu_tauL decays
#          BR         NDA      ID1       ID2
     9.89047936E-02    2     1000022        16   # BR(~nu_tauL -> ~chi_10 nu_tau)
     6.29531181E-05    2     1000023        16   # BR(~nu_tauL -> ~chi_20 nu_tau)
     1.02768559E-01    2     1000025        16   # BR(~nu_tauL -> ~chi_30 nu_tau)
     2.65375146E-01    2     1000035        16   # BR(~nu_tauL -> ~chi_40 nu_tau)
     2.60201621E-03    2     1000024        15   # BR(~nu_tauL -> ~chi_1+ tau-)
     5.30286532E-01    2     1000037        15   # BR(~nu_tauL -> ~chi_2+ tau-)
#
#         PDG            Width
DECAY   1000024     5.26153942E-05   # chargino1+ decays
#          BR         NDA      ID1       ID2
     1.73484109E-04    2     1000039        24   # BR(~chi_1+ -> ~G       W+)
#           BR         NDA      ID1       ID2       ID3
     3.34426293E-01    3     1000022         2        -1   # BR(~chi_1+ -> ~chi_10 u    db)
     3.32165638E-01    3     1000022         4        -3   # BR(~chi_1+ -> ~chi_10 c    sb)
     1.11475559E-01    3     1000022       -11        12   # BR(~chi_1+ -> ~chi_10 e+   nu_e)
     1.11471316E-01    3     1000022       -13        14   # BR(~chi_1+ -> ~chi_10 mu+  nu_mu)
     1.10287709E-01    3     1000022       -15        16   # BR(~chi_1+ -> ~chi_10 tau+ nu_tau)
#
#         PDG            Width
DECAY   1000037     3.27840870E+01   # chargino2+ decays
#          BR         NDA      ID1       ID2
     2.25787940E-01    2     1000024        23   # BR(~chi_2+ -> ~chi_1+  Z )
     1.17733396E-01    2     1000022        24   # BR(~chi_2+ -> ~chi_10  W+)
     2.20182198E-01    2     1000023        24   # BR(~chi_2+ -> ~chi_20  W+)
     1.02427848E-01    2     1000025        24   # BR(~chi_2+ -> ~chi_30  W+)
     2.26661757E-01    2     1000024        25   # BR(~chi_2+ -> ~chi_1+  h )
     2.66845209E-02    2     1000024        35   # BR(~chi_2+ -> ~chi_1+  H )
     2.69384780E-02    2     1000024        36   # BR(~chi_2+ -> ~chi_1+  A )
     1.63095422E-02    2     1000022        37   # BR(~chi_2+ -> ~chi_10  H+)
     2.66847091E-02    2     1000023        37   # BR(~chi_2+ -> ~chi_20  H+)
     1.05810708E-02    2     1000025        37   # BR(~chi_2+ -> ~chi_30  H+)
     8.54070965E-06    2     1000039        24   # BR(~chi_2+ -> ~G       W+)
     3.41749494E-10    2     1000039        37   # BR(~chi_2+ -> ~G       H+)
#
#         PDG            Width
DECAY   1000022    1.0E-05    # neutralino1 decays
#          BR         NDA      ID1       ID2
     4.96208193E-01    2     1000039        22   # BR(~chi_10 -> ~G        gam)
     4.93633217E-01    2     1000039        23   # BR(~chi_10 -> ~G        Z)
     1.01585895E-02    2     1000039        25   # BR(~chi_10 -> ~G        h)
#
#         PDG            Width
DECAY   1000023     5.80633574E-05   # neutralino2 decays
#          BR         NDA      ID1       ID2
     8.96116705E-04    2     1000022        22   # BR(~chi_20 -> ~chi_10 gam)
#          BR         NDA      ID1       ID2
     1.40131370E-08    2     1000039        22   # BR(~chi_20 -> ~G        gam)
     6.03438050E-06    2     1000039        23   # BR(~chi_20 -> ~G        Z)
     1.27970366E-04    2     1000039        25   # BR(~chi_20 -> ~G        h)
#           BR         NDA      ID1       ID2       ID3
     1.19333215E-01    3     1000022        -2         2   # BR(~chi_20 -> ~chi_10 ub      u)
     1.54482015E-01    3     1000022        -1         1   # BR(~chi_20 -> ~chi_10 db      d)
     1.18275066E-01    3     1000022        -4         4   # BR(~chi_20 -> ~chi_10 cb      c)
     1.54452357E-01    3     1000022        -3         3   # BR(~chi_20 -> ~chi_10 sb      s)
     1.35848734E-01    3     1000022        -5         5   # BR(~chi_20 -> ~chi_10 bb      b)
     3.52642660E-02    3     1000022       -11        11   # BR(~chi_20 -> ~chi_10 e+      e-)
     3.52626547E-02    3     1000022       -13        13   # BR(~chi_20 -> ~chi_10 mu+     mu-)
     3.48084834E-02    3     1000022       -15        15   # BR(~chi_20 -> ~chi_10 tau+    tau-)
     7.04136717E-02    3     1000022       -12        12   # BR(~chi_20 -> ~chi_10 nu_eb   nu_e)
     7.04136717E-02    3     1000022       -14        14   # BR(~chi_20 -> ~chi_10 nu_mub  nu_mu)
     7.04136717E-02    3     1000022       -16        16   # BR(~chi_20 -> ~chi_10 nu_taub nu_tau)
     5.55017688E-07    3     1000024        -2         1   # BR(~chi_20 -> ~chi_1+ ub      d)
     5.55017688E-07    3    -1000024        -1         2   # BR(~chi_20 -> ~chi_1- db      u)
     9.63647645E-08    3     1000024        -4         3   # BR(~chi_20 -> ~chi_1+ cb      s)
     9.63647645E-08    3    -1000024        -3         4   # BR(~chi_20 -> ~chi_1- sb      c)
     1.85005917E-07    3     1000024       -12        11   # BR(~chi_20 -> ~chi_1+ nu_eb   e-)
     1.85005917E-07    3    -1000024        12       -11   # BR(~chi_20 -> ~chi_1- nu_e    e+)
     1.83293557E-07    3     1000024       -14        13   # BR(~chi_20 -> ~chi_1+ nu_mub  mu-)
     1.83293557E-07    3    -1000024        14       -13   # BR(~chi_20 -> ~chi_1- nu_mu   mu+)
     9.11761793E-09    3     1000024       -16        15   # BR(~chi_20 -> ~chi_1+ nu_taub tau-)
     9.11761793E-09    3    -1000024        16       -15   # BR(~chi_20 -> ~chi_1- nu_tau  tau+)
#
#         PDG            Width
DECAY   1000025     4.21827744E-04   # neutralino3 decays
#          BR         NDA      ID1       ID2
     1.87545571E-04    2     1000022        22   # BR(~chi_30 -> ~chi_10 gam)
     4.81542654E-04    2     1000023        22   # BR(~chi_30 -> ~chi_20 gam)
#          BR         NDA      ID1       ID2
     3.67543506E-05    2     1000039        22   # BR(~chi_30 -> ~G        gam)
     2.40682263E-05    2     1000039        23   # BR(~chi_30 -> ~G        Z)
     5.76638964E-07    2     1000039        25   # BR(~chi_30 -> ~G        h)
#           BR         NDA      ID1       ID2       ID3
     1.86914067E-06    3     1000022        -2         2   # BR(~chi_30 -> ~chi_10 ub      u)
     2.66998596E-06    3     1000022        -1         1   # BR(~chi_30 -> ~chi_10 db      d)
     2.52539569E-06    3     1000022        -4         4   # BR(~chi_30 -> ~chi_10 cb      c)
     2.68225779E-06    3     1000022        -3         3   # BR(~chi_30 -> ~chi_10 sb      s)
     5.00211832E-06    3     1000022        -5         5   # BR(~chi_30 -> ~chi_10 bb      b)
     8.79988612E-07    3     1000022       -11        11   # BR(~chi_30 -> ~chi_10 e+      e-)
     8.79974696E-07    3     1000022       -13        13   # BR(~chi_30 -> ~chi_10 mu+     mu-)
     1.23481389E-06    3     1000022       -15        15   # BR(~chi_30 -> ~chi_10 tau+    tau-)
     1.10118056E-06    3     1000022       -12        12   # BR(~chi_30 -> ~chi_10 nu_eb   nu_e)
     1.10118056E-06    3     1000022       -14        14   # BR(~chi_30 -> ~chi_10 nu_mub  nu_mu)
     1.10118056E-06    3     1000022       -16        16   # BR(~chi_30 -> ~chi_10 nu_taub nu_tau)
     2.73607460E-02    3     1000023        -2         2   # BR(~chi_30 -> ~chi_20 ub      u)
     3.54198090E-02    3     1000023        -1         1   # BR(~chi_30 -> ~chi_20 db      d)
     2.71697468E-02    3     1000023        -4         4   # BR(~chi_30 -> ~chi_20 cb      c)
     3.54146288E-02    3     1000023        -3         3   # BR(~chi_30 -> ~chi_20 sb      s)
     3.21359525E-02    3     1000023        -5         5   # BR(~chi_30 -> ~chi_20 bb      b)
     8.08551129E-03    3     1000023       -11        11   # BR(~chi_30 -> ~chi_20 e+      e-)
     8.08521330E-03    3     1000023       -13        13   # BR(~chi_30 -> ~chi_20 mu+     mu-)
     8.00139138E-03    3     1000023       -15        15   # BR(~chi_30 -> ~chi_20 tau+    tau-)
     1.61444141E-02    3     1000023       -12        12   # BR(~chi_30 -> ~chi_20 nu_eb   nu_e)
     1.61444141E-02    3     1000023       -14        14   # BR(~chi_30 -> ~chi_20 nu_mub  nu_mu)
     1.61444141E-02    3     1000023       -16        16   # BR(~chi_30 -> ~chi_20 nu_taub nu_tau)
     1.28451781E-01    3     1000024        -2         1   # BR(~chi_30 -> ~chi_1+ ub      d)
     1.28451781E-01    3    -1000024        -1         2   # BR(~chi_30 -> ~chi_1- db      u)
     1.27938767E-01    3     1000024        -4         3   # BR(~chi_30 -> ~chi_1+ cb      s)
     1.27938767E-01    3    -1000024        -3         4   # BR(~chi_30 -> ~chi_1- sb      c)
     4.28171682E-02    3     1000024       -12        11   # BR(~chi_30 -> ~chi_1+ nu_eb   e-)
     4.28171682E-02    3    -1000024        12       -11   # BR(~chi_30 -> ~chi_1- nu_e    e+)
     4.28162079E-02    3     1000024       -14        13   # BR(~chi_30 -> ~chi_1+ nu_mub  mu-)
     4.28162079E-02    3    -1000024        14       -13   # BR(~chi_30 -> ~chi_1- nu_mu   mu+)
     4.25471876E-02    3     1000024       -16        15   # BR(~chi_30 -> ~chi_1+ nu_taub tau-)
     4.25471876E-02    3    -1000024        16       -15   # BR(~chi_30 -> ~chi_1- nu_tau  tau+)
#
#         PDG            Width
DECAY   1000035     3.27844964E+01   # neutralino4 decays
#          BR         NDA      ID1       ID2
     2.42463656E-03    2     1000022        23   # BR(~chi_40 -> ~chi_10   Z )
     2.21151710E-01    2     1000023        23   # BR(~chi_40 -> ~chi_20   Z )
     2.36190873E-03    2     1000025        23   # BR(~chi_40 -> ~chi_30   Z )
     2.19967229E-01    2     1000024       -24   # BR(~chi_40 -> ~chi_1+   W-)
     2.19967229E-01    2    -1000024        24   # BR(~chi_40 -> ~chi_1-   W+)
     1.18924214E-01    2     1000022        25   # BR(~chi_40 -> ~chi_10   h )
     1.77248822E-03    2     1000022        35   # BR(~chi_40 -> ~chi_10   H )
     1.45189569E-02    2     1000022        36   # BR(~chi_40 -> ~chi_10   A )
     4.78171558E-03    2     1000023        25   # BR(~chi_40 -> ~chi_20   h )
     2.36065039E-02    2     1000023        35   # BR(~chi_40 -> ~chi_20   H )
     2.98957070E-03    2     1000023        36   # BR(~chi_40 -> ~chi_20   A )
     1.03215832E-01    2     1000025        25   # BR(~chi_40 -> ~chi_30   h )
     1.16819409E-03    2     1000025        35   # BR(~chi_40 -> ~chi_30   H )
     9.40437665E-03    2     1000025        36   # BR(~chi_40 -> ~chi_30   A )
     2.68684467E-02    2     1000024       -37   # BR(~chi_40 -> ~chi_1+   H-)
     2.68684467E-02    2    -1000024        37   # BR(~chi_40 -> ~chi_1-   H+)
     2.04941960E-06    2     1000039        22   # BR(~chi_40 -> ~G        gam)
     6.49049891E-06    2     1000039        23   # BR(~chi_40 -> ~G        Z)
     4.51724183E-10    2     1000039        25   # BR(~chi_40 -> ~G        h)
     3.39111683E-10    2     1000039        35   # BR(~chi_40 -> ~G        H)
     9.90573176E-13    2     1000039        36   # BR(~chi_40 -> ~G        A)
#
#         PDG            Width
DECAY        25     4.08348233E-03   # h decays
#          BR         NDA      ID1       ID2
     6.17476132E-01    2           5        -5   # BR(h -> b       bb     )
     6.37842353E-02    2         -15        15   # BR(h -> tau+    tau-   )
     2.25772701E-04    2         -13        13   # BR(h -> mu+     mu-    )
     4.78432556E-04    2           3        -3   # BR(h -> s       sb     )
     2.06400434E-02    2           4        -4   # BR(h -> c       cb     )
     6.70194734E-02    2          21        21   # BR(h -> g       g      )
     2.31063426E-03    2          22        22   # BR(h -> gam     gam    )
     1.53819562E-03    2          22        23   # BR(h -> Z       gam    )
     2.00896102E-01    2          24       -24   # BR(h -> W+      W-     )
     2.56309785E-02    2          23        23   # BR(h -> Z       Z      )
#
#         PDG            Width
DECAY        35     3.99480039E+01   # H decays
#          BR         NDA      ID1       ID2
     1.39506577E-03    2           5        -5   # BR(H -> b       bb     )
     2.33261682E-04    2         -15        15   # BR(H -> tau+    tau-   )
     8.24666890E-07    2         -13        13   # BR(H -> mu+     mu-    )
     1.05585961E-06    2           3        -3   # BR(H -> s       sb     )
     9.52910464E-06    2           4        -4   # BR(H -> c       cb     )
     9.42866225E-01    2           6        -6   # BR(H -> t       tb     )
     7.55020652E-04    2          21        21   # BR(H -> g       g      )
     2.64080917E-06    2          22        22   # BR(H -> gam     gam    )
     1.09729421E-06    2          23        22   # BR(H -> Z       gam    )
     3.18681481E-04    2          24       -24   # BR(H -> W+      W-     )
     1.58906127E-04    2          23        23   # BR(H -> Z       Z      )
     8.56769020E-04    2          25        25   # BR(H -> h       h      )
     8.98988955E-24    2          36        36   # BR(H -> A       A      )
     3.60118200E-11    2          23        36   # BR(H -> Z       A      )
     3.34752775E-12    2          24       -37   # BR(H -> W+      H-     )
     3.34752775E-12    2         -24        37   # BR(H -> W-      H+     )
     6.49507459E-05    2     1000024  -1000024   # BR(H -> ~chi_1+ ~chi_1-)
     1.05135887E-03    2     1000022   1000022   # BR(H -> ~chi_10 ~chi_10)
     2.71763944E-05    2     1000023   1000023   # BR(H -> ~chi_20 ~chi_20)
     5.90512145E-04    2     1000025   1000025   # BR(H -> ~chi_30 ~chi_30)
     2.55437440E-02    2     1000022   1000023   # BR(H -> ~chi_10 ~chi_20)
     2.39842382E-05    2     1000022   1000025   # BR(H -> ~chi_10 ~chi_30)
     2.60991961E-02    2     1000023   1000025   # BR(H -> ~chi_20 ~chi_30)
#
#         PDG            Width
DECAY        36     4.03997161E+01   # A decays
#          BR         NDA      ID1       ID2
     1.39769579E-03    2           5        -5   # BR(A -> b       bb     )
     2.30848563E-04    2         -15        15   # BR(A -> tau+    tau-   )
     8.16133062E-07    2         -13        13   # BR(A -> mu+     mu-    )
     1.07595362E-06    2           3        -3   # BR(A -> s       sb     )
     9.42878469E-06    2           4        -4   # BR(A -> c       cb     )
     9.43654132E-01    2           6        -6   # BR(A -> t       tb     )
     8.93186564E-04    2          21        21   # BR(A -> g       g      )
     2.64847990E-06    2          22        22   # BR(A -> gam     gam    )
     1.27943660E-06    2          23        22   # BR(A -> Z       gam    )
     3.10523588E-04    2          23        25   # BR(A -> Z       h      )
     7.08879521E-04    2     1000024  -1000024   # BR(A -> ~chi_1+ ~chi_1-)
     2.90920884E-02    2     1000022   1000022   # BR(A -> ~chi_10 ~chi_10)
     1.33089671E-06    2     1000023   1000023   # BR(A -> ~chi_20 ~chi_20)
     2.18158903E-02    2     1000025   1000025   # BR(A -> ~chi_30 ~chi_30)
     6.68439618E-04    2     1000022   1000023   # BR(A -> ~chi_10 ~chi_20)
     2.87296487E-04    2     1000022   1000025   # BR(A -> ~chi_10 ~chi_30)
     9.24439058E-04    2     1000023   1000025   # BR(A -> ~chi_20 ~chi_30)
#
#         PDG            Width
DECAY        37     3.95880869E+01   # H+ decays
#          BR         NDA      ID1       ID2
     2.24258617E-06    2           4        -5   # BR(H+ -> c       bb     )
     2.35819638E-04    2         -15        16   # BR(H+ -> tau+    nu_tau )
     8.33707608E-07    2         -13        14   # BR(H+ -> mu+     nu_mu  )
     1.42580459E-08    2           2        -5   # BR(H+ -> u       bb     )
     5.16298392E-08    2           2        -3   # BR(H+ -> u       sb     )
     1.02874402E-05    2           4        -3   # BR(H+ -> c       sb     )
     9.45574991E-01    2           6        -5   # BR(H+ -> t       bb     )
     3.18305293E-04    2          24        25   # BR(H+ -> W+      h      )
     1.12439255E-12    2          24        36   # BR(H+ -> W+      A      )
     2.35484657E-02    2     1000024   1000022   # BR(H+ -> ~chi_1+ ~chi_10)
     1.59694074E-04    2     1000024   1000023   # BR(H+ -> ~chi_1+ ~chi_20)
     3.01492947E-02    2     1000024   1000025   # BR(H+ -> ~chi_1+ ~chi_30)
