#
#                              ======================
#                              | THE SUSYHIT OUTPUT |
#                              ======================
#
#
#              ------------------------------------------------------
#              |     This is the output of the SUSY-HIT package     |
#              |  created by A.Djouadi, M.Muehlleitner and M.Spira. |
#              |  In case of problems with SUSY-HIT email to        |
#              |           margarete.muehlleitner@kit.edu           |
#              |           michael.spira@psi.ch                     |
#              |           abdelhak.djouadi@cern.ch                 |
#              ------------------------------------------------------
#
#              ------------------------------------------------------
#              |  SUSY Les Houches Accord - MSSM Spectrum + Decays  |
#              |              based on the decay programs           |
#              |                                                    |
#              |                     SDECAY 1.5                     |
#              |                                                    |
#              |  Authors: M.Muhlleitner, A.Djouadi and Y.Mambrini  |
#              |  Ref.:    Comput.Phys.Commun.168(2005)46           |
#              |           [hep-ph/0311167]                         |
#              |                                                    |
#              |                     HDECAY 3.4                     |
#              |                                                    |
#              |  By: A.Djouadi,J.Kalinowski,M.Muhlleitner,M.Spira  |
#              |  Ref.:    Comput.Phys.Commun.108(1998)56           |
#              |           [hep-ph/9704448]                         |
#              |                                                    |
#              |                                                    |
#              |  If not stated otherwise all DRbar couplings and   |
#              |  soft SUSY breaking masses are given at the scale  |
#              |  Q=  0.91187600E+02
#              |                                                    |
#              ------------------------------------------------------
#
#
BLOCK DCINFO  # Decay Program information
     1   SDECAY/HDECAY # decay calculator
     2   1.5  /3.4    # version number
#
BLOCK SPINFO  # Spectrum calculator information
     1   SuSpect     # RGE +Spectrum calculator            
     2   2.43         # version number                     
#
BLOCK MODSEL  # Model selection
     1     2   # GMSB                                              
#
BLOCK SMINPUTS  # Standard Model inputs
         1     1.27932904E+02   # alpha_em^-1(M_Z)^MSbar
         2     1.16639000E-05   # G_F [GeV^-2]
         3     1.17200000E-01   # alpha_S(M_Z)^MSbar
         4     9.11870000E+01   # M_Z pole mass
         5     4.25000000E+00   # mb(mb)^MSbar
         6     1.72900000E+02   # mt pole mass
         7     1.77700000E+00   # mtau pole mass
#
BLOCK MINPAR  # Input parameters - minimal models
#
BLOCK EXTPAR  # Input parameters - non-minimal models
         0     9.11876000E+01   # EWSB                
         1     1.24900000E+03   # M_1                 
         2     3.00000000E+03   # M_2                 
         3     1.70000000E+03   # M_3                 
        11     0.00000000E+00   # A_t                 
        12     0.00000000E+00   # A_b                 
        13     0.00000000E+00   # A_tau               
        14     0.00000000E+00   # A_u                 
        15     0.00000000E+00   # A_d                 
        16     0.00000000E+00   # A_e                 
        23     1.25000000E+03   # mu(EWSB)            
        25     1.50000000E+00   # tanbeta(in)         
        26     2.00000000E+03   # MA_pole             
        31     5.00000000E+03   # M_eL                
        32     5.00000000E+03   # M_muL               
        33     5.00000000E+03   # M_tauL              
        34     5.00000000E+03   # M_eR                
        35     5.00000000E+03   # M_muR               
        36     5.00000000E+03   # M_tauR              
        41     5.00000000E+03   # M_q1L               
        42     5.00000000E+03   # M_q2L               
        43     5.00000000E+03   # M_q3L               
        44     5.00000000E+03   # M_uR                
        45     5.00000000E+03   # M_cR                
        46     5.00000000E+03   # M_tR                
        47     5.00000000E+03   # M_dR                
        48     5.00000000E+03   # M_sR                
        49     5.00000000E+03   # M_bR                
#
BLOCK MASS  # Mass Spectrum
# PDG code           mass       particle
        24     8.05410169E+01   # W+
        25     1.26000000E+02   # h
        35     2.00402493E+03   # H
        36     2.00000000E+03   # A
        37     2.00150920E+03   # H+
         5     4.87877839E+00   # b-quark pole mass calculated from mb(mb)_Msbar
   1000001     4.97172757E+03   # ~d_L
   2000001     4.97161782E+03   # ~d_R
   1000002     4.97148219E+03   # ~u_L
   2000002     4.97154018E+03   # ~u_R
   1000003     4.97172757E+03   # ~s_L
   2000003     4.97161782E+03   # ~s_R
   1000004     4.97148219E+03   # ~c_L
   2000004     4.97154018E+03   # ~c_R
   1000005     4.97115628E+03   # ~b_1
   2000005     4.97219053E+03   # ~b_2
   1000006     5.09281535E+03   # ~t_1
   2000006     5.38832599E+03   # ~t_2
   1000011     5.00008220E+03   # ~e_L
   2000011     5.00007609E+03   # ~e_R
   1000012     4.99984171E+03   # ~nu_eL
   1000013     5.00008220E+03   # ~mu_L
   2000013     5.00007609E+03   # ~mu_R
   1000014     4.99984171E+03   # ~nu_muL
   1000015     4.99974600E+03   # ~tau_1
   2000015     5.00041289E+03   # ~tau_2
   1000016     4.99984171E+03   # ~nu_tauL
   1000021     1.79543584E+03   # ~g
   1000022     1.28283521E+03   # ~chi_10
   1000023    -1.33142297E+03   # ~chi_20
   1000025     1.37003427E+03   # ~chi_30
   1000035     3.12827816E+03   # ~chi_40
   1000024     1.32804834E+03   # ~chi_1+
   1000037     3.12827628E+03   # ~chi_2+
   1000039     1.96500000E-07   # ~gravitino
#
BLOCK NMIX  # Neutralino Mixing Matrix
  1  1     7.19639831E-01   # N_11
  1  2    -2.91800491E-02   # N_12
  1  3     4.92361088E-01   # N_13
  1  4    -4.88720367E-01   # N_14
  2  1     3.28640826E-03   # N_21
  2  2    -3.48261299E-03   # N_22
  2  3    -7.06988893E-01   # N_23
  2  4    -7.07208439E-01   # N_24
  3  1     6.94338959E-01   # N_31
  3  2     3.17850451E-02   # N_32
  3  3    -5.06913036E-01   # N_33
  3  4     5.09825750E-01   # N_34
  4  1     1.06001793E-03   # N_41
  4  2    -9.99062614E-01   # N_42
  4  3    -2.80434933E-02   # N_43
  4  4     3.29595479E-02   # N_44
#
BLOCK UMIX  # Chargino Mixing Matrix U
  1  1    -3.96346270E-02   # U_11
  1  2     9.99214239E-01   # U_12
  2  1     9.99214239E-01   # U_21
  2  2     3.96346270E-02   # U_22
#
BLOCK VMIX  # Chargino Mixing Matrix V
  1  1    -4.65880623E-02   # V_11
  1  2     9.98914187E-01   # V_12
  2  1     9.98914187E-01   # V_21
  2  2     4.65880623E-02   # V_22
#
BLOCK STOPMIX  # Stop Mixing Matrix
  1  1     9.99991759E-01   # cos(theta_t)
  1  2     4.05979459E-03   # sin(theta_t)
  2  1    -4.05979459E-03   # -sin(theta_t)
  2  2     9.99991759E-01   # cos(theta_t)
#
BLOCK SBOTMIX  # Sbottom Mixing Matrix
  1  1     6.68537691E-01   # cos(theta_b)
  1  2     7.43678261E-01   # sin(theta_b)
  2  1    -7.43678261E-01   # -sin(theta_b)
  2  2     6.68537691E-01   # cos(theta_b)
#
BLOCK STAUMIX  # Stau Mixing Matrix
  1  1     7.03859905E-01   # cos(theta_tau)
  1  2     7.10338816E-01   # sin(theta_tau)
  2  1    -7.10338816E-01   # -sin(theta_tau)
  2  2     7.03859905E-01   # cos(theta_tau)
#
BLOCK ALPHA  # Higgs mixing
          -5.90205325E-01   # Mixing angle in the neutral Higgs boson sector
#
BLOCK HMIX Q=  9.11876000E+01  # DRbar Higgs Parameters
         1     1.25000000E+03   # mu(Q)               
         2     1.49999979E+00   # tanbeta(Q)          
         3     2.52156201E+02   # vev(Q)              
         4     3.41739934E+06   # MA^2(Q)             
#
BLOCK GAUGE Q=  9.11876000E+01  # The gauge couplings
     1     3.52784178E-01   # gprime(Q) DRbar
     2     6.27183660E-01   # g(Q) DRbar
     3     1.08305259E+00   # g3(Q) DRbar
#
BLOCK AU Q=  9.11876000E+01  # The trilinear couplings
  1  1     0.00000000E+00   # A_u(Q) DRbar
  2  2     0.00000000E+00   # A_c(Q) DRbar
  3  3     0.00000000E+00   # A_t(Q) DRbar
#
BLOCK AD Q=  9.11876000E+01  # The trilinear couplings
  1  1     0.00000000E+00   # A_d(Q) DRbar
  2  2     0.00000000E+00   # A_s(Q) DRbar
  3  3     0.00000000E+00   # A_b(Q) DRbar
#
BLOCK AE Q=  9.11876000E+01  # The trilinear couplings
  1  1     0.00000000E+00   # A_e(Q) DRbar
  2  2     0.00000000E+00   # A_mu(Q) DRbar
  3  3     0.00000000E+00   # A_tau(Q) DRbar
#
BLOCK Yu Q=  9.11876000E+01  # The Yukawa couplings
  1  1     0.00000000E+00   # y_u(Q) DRbar
  2  2     0.00000000E+00   # y_c(Q) DRbar
  3  3     1.02549230E+00   # y_t(Q) DRbar
#
BLOCK Yd Q=  9.11876000E+01  # The Yukawa couplings
  1  1     0.00000000E+00   # y_d(Q) DRbar
  2  2     0.00000000E+00   # y_s(Q) DRbar
  3  3     2.71758984E-02   # y_b(Q) DRbar
#
BLOCK Ye Q=  9.11876000E+01  # The Yukawa couplings
  1  1     0.00000000E+00   # y_e(Q) DRbar
  2  2     0.00000000E+00   # y_mu(Q) DRbar
  3  3     1.79803795E-02   # y_tau(Q) DRbar
#
BLOCK MSOFT Q=  9.11876000E+01  # The soft SUSY breaking masses at the scale Q
         1     1.24900000E+03   # M_1                 
         2     3.00000000E+03   # M_2                 
         3     1.70000000E+03   # M_3                 
        14     0.00000000E+00   # A_u                 
        15     0.00000000E+00   # A_d                 
        16     0.00000000E+00   # A_e                 
        21     1.29743404E+06   # M^2_Hd              
        22    -6.89474572E+06   # M^2_Hu              
        31     5.00000000E+03   # M_eL                
        32     5.00000000E+03   # M_muL               
        33     5.00000000E+03   # M_tauL              
        34     5.00000000E+03   # M_eR                
        35     5.00000000E+03   # M_muR               
        36     5.00000000E+03   # M_tauR              
        41     5.00000000E+03   # M_q1L               
        42     5.00000000E+03   # M_q2L               
        43     5.00000000E+03   # M_q3L               
        44     5.00000000E+03   # M_uR                
        45     5.00000000E+03   # M_cR                
        46     5.00000000E+03   # M_tR                
        47     5.00000000E+03   # M_dR                
        48     5.00000000E+03   # M_sR                
        49     5.00000000E+03   # M_bR                
#
#
#
#                             =================
#                             |The decay table|
#                             =================
#
# - The QCD corrections to the decays gluino -> squark  + quark
#                                     squark -> gaugino + quark_prime
#                                     squark -> squark_prime + Higgs
#                                     squark -> gluino  + quark
#   are included.
#
# - The multi-body decays for the inos, stops and sbottoms are included.
#
# - The loop induced decays for the gluino, neutralinos and stops
#   are included.
#
# - The SUSY decays of the top quark are included.
#
# - Possible decays of the NLSP in GMSB models are included.
#
#
#         PDG            Width
DECAY         6     1.37052500E+00   # top decays
#          BR         NDA      ID1       ID2
     1.00000000E+00    2           5        24   # BR(t ->  b    W+)
#
#         PDG            Width
DECAY   1000021     1.46098913E-05   # gluino decays
#          BR         NDA      ID1       ID2
     8.03906599E-02    2     1000022        21   # BR(~g -> ~chi_10 g)
     1.30792643E-01    2     1000023        21   # BR(~g -> ~chi_20 g)
     5.36608154E-02    2     1000025        21   # BR(~g -> ~chi_30 g)
#          BR         NDA      ID1       ID2
     3.80770912E-05    2     1000039        21   # BR(~g -> ~G      g)
#           BR         NDA      ID1       ID2       ID3
     1.39208764E-02    3     1000022         1        -1   # BR(~g -> ~chi_10 d  db)
     5.64741680E-07    3     1000023         1        -1   # BR(~g -> ~chi_20 d  db)
     4.71502992E-03    3     1000025         1        -1   # BR(~g -> ~chi_30 d  db)
     4.22148521E-02    3     1000022         2        -2   # BR(~g -> ~chi_10 u  ub)
     4.40663548E-07    3     1000023         2        -2   # BR(~g -> ~chi_20 u  ub)
     1.81011823E-02    3     1000025         2        -2   # BR(~g -> ~chi_30 u  ub)
     1.39208764E-02    3     1000022         3        -3   # BR(~g -> ~chi_10 s  sb)
     5.64741680E-07    3     1000023         3        -3   # BR(~g -> ~chi_20 s  sb)
     4.71502992E-03    3     1000025         3        -3   # BR(~g -> ~chi_30 s  sb)
     4.22148521E-02    3     1000022         4        -4   # BR(~g -> ~chi_10 c  cb)
     4.40663548E-07    3     1000023         4        -4   # BR(~g -> ~chi_20 c  cb)
     1.81011823E-02    3     1000025         4        -4   # BR(~g -> ~chi_30 c  cb)
     1.40317890E-02    3     1000022         5        -5   # BR(~g -> ~chi_10 b  bb)
     3.40429837E-04    3     1000023         5        -5   # BR(~g -> ~chi_20 b  bb)
     4.88655053E-03    3     1000025         5        -5   # BR(~g -> ~chi_30 b  bb)
     7.23653375E-02    3     1000022         6        -6   # BR(~g -> ~chi_10 t  tb)
     3.89993140E-02    3     1000023         6        -6   # BR(~g -> ~chi_20 t  tb)
     2.25960835E-02    3     1000025         6        -6   # BR(~g -> ~chi_30 t  tb)
     3.45689129E-04    3     1000024         1        -2   # BR(~g -> ~chi_1+ d  ub)
     3.45689129E-04    3    -1000024         2        -1   # BR(~g -> ~chi_1- u  db)
     3.45689129E-04    3     1000024         3        -4   # BR(~g -> ~chi_1+ s  cb)
     3.45689129E-04    3    -1000024         4        -3   # BR(~g -> ~chi_1- c  sb)
     2.11304826E-01    3     1000024         5        -6   # BR(~g -> ~chi_1+ b  tb)
     2.11304826E-01    3    -1000024         6        -5   # BR(~g -> ~chi_1- t  bb)
#
#         PDG            Width
DECAY   1000006     2.93688190E+02   # stop1 decays
#          BR         NDA      ID1       ID2
     5.18948635E-02    2     1000022         6   # BR(~t_1 -> ~chi_10 t )
     1.07971811E-01    2     1000023         6   # BR(~t_1 -> ~chi_20 t )
     5.79092883E-02    2     1000025         6   # BR(~t_1 -> ~chi_30 t )
     2.57149165E-02    2     1000035         6   # BR(~t_1 -> ~chi_40 t )
    -4.06878314E-06    2     1000024         5   # BR(~t_1 -> ~chi_1+ b )
     5.10473615E-02    2     1000037         5   # BR(~t_1 -> ~chi_2+ b )
     6.92488911E-01    2     1000021         6   # BR(~t_1 -> ~g      t )
     5.94629761E-03    2     1000005        24   # BR(~t_1 -> ~b_1    W+)
     7.03061921E-03    2     2000005        24   # BR(~t_1 -> ~b_2    W+)
#
#         PDG            Width
DECAY   2000006     3.66018062E+02   # stop2 decays
#          BR         NDA      ID1       ID2
     5.97837585E-02    2     1000022         6   # BR(~t_2 -> ~chi_10 t )
     9.36401608E-02    2     1000023         6   # BR(~t_2 -> ~chi_20 t )
     6.12176242E-02    2     1000025         6   # BR(~t_2 -> ~chi_30 t )
     1.85693104E-05    2     1000035         6   # BR(~t_2 -> ~chi_40 t )
     1.87597672E-01    2     1000024         5   # BR(~t_2 -> ~chi_1+ b )
     3.79467793E-05    2     1000037         5   # BR(~t_2 -> ~chi_2+ b )
     5.97748041E-01    2     1000021         6   # BR(~t_2 -> ~g      t )
    -6.53078969E-05    2     1000006        25   # BR(~t_2 -> ~t_1    h )
     2.79025504E-06    2     1000006        23   # BR(~t_2 -> ~t_1    Z )
     8.42387186E-06    2     1000005        24   # BR(~t_2 -> ~b_1    W+)
     1.03215642E-05    2     2000005        24   # BR(~t_2 -> ~b_2    W+)
#
#         PDG            Width
DECAY   1000005     2.32933153E+02   # sbottom1 decays
#          BR         NDA      ID1       ID2
     4.59338854E-03    2     1000022         5   # BR(~b_1 -> ~chi_10 b )
     8.04799109E-05    2     1000023         5   # BR(~b_1 -> ~chi_20 b )
     2.39391173E-03    2     1000025         5   # BR(~b_1 -> ~chi_30 b )
     1.22834182E-02    2     1000035         5   # BR(~b_1 -> ~chi_40 b )
     1.07266826E-01    2    -1000024         6   # BR(~b_1 -> ~chi_1- t )
     2.47503530E-02    2    -1000037         6   # BR(~b_1 -> ~chi_2- t )
     8.48631623E-01    2     1000021         5   # BR(~b_1 -> ~g      b )
#
#         PDG            Width
DECAY   2000005     2.47511535E+02   # sbottom2 decays
#          BR         NDA      ID1       ID2
     2.35885565E-03    2     1000022         5   # BR(~b_2 -> ~chi_10 b )
     1.01351743E-04    2     1000023         5   # BR(~b_2 -> ~chi_20 b )
     2.85814106E-03    2     1000025         5   # BR(~b_2 -> ~chi_30 b )
     1.62182532E-02    2     1000035         5   # BR(~b_2 -> ~chi_40 b )
     1.47500130E-01    2    -1000024         6   # BR(~b_2 -> ~chi_1- t )
     3.26862248E-02    2    -1000037         6   # BR(~b_2 -> ~chi_2- t )
     7.98277044E-01    2     1000021         5   # BR(~b_2 -> ~g      b )
#
#         PDG            Width
DECAY   1000002     2.18898764E+02   # sup_L decays
#          BR         NDA      ID1       ID2
     8.36059493E-04    2     1000022         2   # BR(~u_L -> ~chi_10 u)
     6.07543012E-07    2     1000023         2   # BR(~u_L -> ~chi_20 u)
     1.92231869E-03    2     1000025         2   # BR(~u_L -> ~chi_30 u)
     3.13776607E-02    2     1000035         2   # BR(~u_L -> ~chi_40 u)
     3.21228781E-04    2     1000024         1   # BR(~u_L -> ~chi_1+ d)
     6.27617428E-02    2     1000037         1   # BR(~u_L -> ~chi_2+ d)
     9.02780382E-01    2     1000021         2   # BR(~u_L -> ~g      u)
#
#         PDG            Width
DECAY   2000002     2.06738106E+02   # sup_R decays
#          BR         NDA      ID1       ID2
     2.30591500E-02    2     1000022         2   # BR(~u_R -> ~chi_10 u)
     4.75636449E-07    2     1000023         2   # BR(~u_R -> ~chi_20 u)
     2.10391817E-02    2     1000025         2   # BR(~u_R -> ~chi_30 u)
     2.10465827E-08    2     1000035         2   # BR(~u_R -> ~chi_40 u)
     9.55901172E-01    2     1000021         2   # BR(~u_R -> ~g      u)
#
#         PDG            Width
DECAY   1000001     2.18904763E+02   # sdown_L decays
#          BR         NDA      ID1       ID2
     2.01355344E-03    2     1000022         1   # BR(~d_L -> ~chi_10 d)
     1.24230098E-06    2     1000023         1   # BR(~d_L -> ~chi_20 d)
     7.09522739E-04    2     1000025         1   # BR(~d_L -> ~chi_30 d)
     3.14073568E-02    2     1000035         1   # BR(~d_L -> ~chi_40 d)
     2.32504279E-04    2    -1000024         2   # BR(~d_L -> ~chi_1- u)
     6.28088871E-02    2    -1000037         2   # BR(~d_L -> ~chi_2- u)
     9.02826933E-01    2     1000021         1   # BR(~d_L -> ~g      d)
#
#         PDG            Width
DECAY   2000001     1.99905410E+02   # sdown_R decays
#          BR         NDA      ID1       ID2
     5.96194614E-03    2     1000022         1   # BR(~d_R -> ~chi_10 d)
     1.22975909E-07    2     1000023         1   # BR(~d_R -> ~chi_20 d)
     5.43968674E-03    2     1000025         1   # BR(~d_R -> ~chi_30 d)
     5.44179269E-09    2     1000035         1   # BR(~d_R -> ~chi_40 d)
     9.88598239E-01    2     1000021         1   # BR(~d_R -> ~g      d)
#
#         PDG            Width
DECAY   1000004     2.18898764E+02   # scharm_L decays
#          BR         NDA      ID1       ID2
     8.36059493E-04    2     1000022         4   # BR(~c_L -> ~chi_10 c)
     6.07543012E-07    2     1000023         4   # BR(~c_L -> ~chi_20 c)
     1.92231869E-03    2     1000025         4   # BR(~c_L -> ~chi_30 c)
     3.13776607E-02    2     1000035         4   # BR(~c_L -> ~chi_40 c)
     3.21228781E-04    2     1000024         3   # BR(~c_L -> ~chi_1+ s)
     6.27617428E-02    2     1000037         3   # BR(~c_L -> ~chi_2+ s)
     9.02780382E-01    2     1000021         4   # BR(~c_L -> ~g      c)
#
#         PDG            Width
DECAY   2000004     2.06738106E+02   # scharm_R decays
#          BR         NDA      ID1       ID2
     2.30591500E-02    2     1000022         4   # BR(~c_R -> ~chi_10 c)
     4.75636449E-07    2     1000023         4   # BR(~c_R -> ~chi_20 c)
     2.10391817E-02    2     1000025         4   # BR(~c_R -> ~chi_30 c)
     2.10465827E-08    2     1000035         4   # BR(~c_R -> ~chi_40 c)
     9.55901172E-01    2     1000021         4   # BR(~c_R -> ~g      c)
#
#         PDG            Width
DECAY   1000003     2.18904763E+02   # sstrange_L decays
#          BR         NDA      ID1       ID2
     2.01355344E-03    2     1000022         3   # BR(~s_L -> ~chi_10 s)
     1.24230098E-06    2     1000023         3   # BR(~s_L -> ~chi_20 s)
     7.09522739E-04    2     1000025         3   # BR(~s_L -> ~chi_30 s)
     3.14073568E-02    2     1000035         3   # BR(~s_L -> ~chi_40 s)
     2.32504279E-04    2    -1000024         4   # BR(~s_L -> ~chi_1- c)
     6.28088871E-02    2    -1000037         4   # BR(~s_L -> ~chi_2- c)
     9.02826933E-01    2     1000021         3   # BR(~s_L -> ~g      s)
#
#         PDG            Width
DECAY   2000003     1.99905410E+02   # sstrange_R decays
#          BR         NDA      ID1       ID2
     5.96194614E-03    2     1000022         3   # BR(~s_R -> ~chi_10 s)
     1.22975909E-07    2     1000023         3   # BR(~s_R -> ~chi_20 s)
     5.43968674E-03    2     1000025         3   # BR(~s_R -> ~chi_30 s)
     5.44179269E-09    2     1000035         3   # BR(~s_R -> ~chi_40 s)
     9.88598239E-01    2     1000021         3   # BR(~s_R -> ~g      s)
#
#         PDG            Width
DECAY   1000011     2.71397472E+01   # selectron_L decays
#          BR         NDA      ID1       ID2
     8.87547566E-02    2     1000022        11   # BR(~e_L -> ~chi_10 e-)
     1.66152958E-06    2     1000023        11   # BR(~e_L -> ~chi_20 e-)
     1.10002667E-01    2     1000025        11   # BR(~e_L -> ~chi_30 e-)
     2.66161925E-01    2     1000035        11   # BR(~e_L -> ~chi_40 e-)
     1.95657342E-03    2    -1000024        12   # BR(~e_L -> ~chi_1- nu_e)
     5.33122417E-01    2    -1000037        12   # BR(~e_L -> ~chi_2- nu_e)
#
#         PDG            Width
DECAY   2000011     2.14025033E+01   # selectron_R decays
#          BR         NDA      ID1       ID2
     5.22850560E-01    2     1000022        11   # BR(~e_R -> ~chi_10 e-)
     1.07858244E-05    2     1000023        11   # BR(~e_R -> ~chi_20 e-)
     4.77138173E-01    2     1000025        11   # BR(~e_R -> ~chi_30 e-)
     4.81430410E-07    2     1000035        11   # BR(~e_R -> ~chi_40 e-)
#
#         PDG            Width
DECAY   1000013     2.71397472E+01   # smuon_L decays
#          BR         NDA      ID1       ID2
     8.87547566E-02    2     1000022        13   # BR(~mu_L -> ~chi_10 mu-)
     1.66152958E-06    2     1000023        13   # BR(~mu_L -> ~chi_20 mu-)
     1.10002667E-01    2     1000025        13   # BR(~mu_L -> ~chi_30 mu-)
     2.66161925E-01    2     1000035        13   # BR(~mu_L -> ~chi_40 mu-)
     1.95657342E-03    2    -1000024        14   # BR(~mu_L -> ~chi_1- nu_mu)
     5.33122417E-01    2    -1000037        14   # BR(~mu_L -> ~chi_2- nu_mu)
#
#         PDG            Width
DECAY   2000013     2.14025033E+01   # smuon_R decays
#          BR         NDA      ID1       ID2
     5.22850560E-01    2     1000022        13   # BR(~mu_R -> ~chi_10 mu-)
     1.07858244E-05    2     1000023        13   # BR(~mu_R -> ~chi_20 mu-)
     4.77138173E-01    2     1000025        13   # BR(~mu_R -> ~chi_30 mu-)
     4.81430410E-07    2     1000035        13   # BR(~mu_R -> ~chi_40 mu-)
#
#         PDG            Width
DECAY   1000015     2.43206253E+01   # stau_1 decays
#          BR         NDA      ID1       ID2
     2.87610467E-01    2     1000022        15   # BR(~tau_1 -> ~chi_10  tau-)
     4.70179765E-04    2     1000023        15   # BR(~tau_1 -> ~chi_20  tau-)
     2.67924151E-01    2     1000025        15   # BR(~tau_1 -> ~chi_30  tau-)
     1.46772943E-01    2     1000035        15   # BR(~tau_1 -> ~chi_40  tau-)
     3.23484730E-03    2    -1000024        16   # BR(~tau_1 -> ~chi_1-  nu_tau)
     2.93987408E-01    2    -1000037        16   # BR(~tau_1 -> ~chi_2-  nu_tau)
     3.83024248E-09    2     1000039        15   # BR(~tau_1 -> ~G       tau-)
#
#         PDG            Width
DECAY   2000015     2.43048991E+01   # stau_2 decays
#          BR         NDA      ID1       ID2
     2.72280380E-01    2     1000022        15   # BR(~tau_2 -> ~chi_10  tau-)
     6.82633812E-04    2     1000023        15   # BR(~tau_2 -> ~chi_20  tau-)
     2.75480380E-01    2     1000025        15   # BR(~tau_2 -> ~chi_30  tau-)
     1.50340028E-01    2     1000035        15   # BR(~tau_2 -> ~chi_40  tau-)
     8.88241461E-05    2    -1000024        16   # BR(~tau_2 -> ~chi_1-  nu_tau)
     3.01127754E-01    2    -1000037        16   # BR(~tau_2 -> ~chi_2-  nu_tau)
#
#         PDG            Width
DECAY   1000012     2.71405452E+01   # snu_eL decays
#          BR         NDA      ID1       ID2
     1.18467027E-01    2     1000022        12   # BR(~nu_eL -> ~chi_10 nu_e)
     1.76843131E-05    2     1000023        12   # BR(~nu_eL -> ~chi_20 nu_e)
     7.93727800E-02    2     1000025        12   # BR(~nu_eL -> ~chi_30 nu_e)
     2.66744384E-01    2     1000035        12   # BR(~nu_eL -> ~chi_40 nu_e)
     2.70306129E-03    2     1000024        11   # BR(~nu_eL -> ~chi_1+ e-)
     5.32695064E-01    2     1000037        11   # BR(~nu_eL -> ~chi_2+ e-)
#
#         PDG            Width
DECAY   1000014     2.71405452E+01   # snu_muL decays
#          BR         NDA      ID1       ID2
     1.18467027E-01    2     1000022        14   # BR(~nu_muL -> ~chi_10 nu_mu)
     1.76843131E-05    2     1000023        14   # BR(~nu_muL -> ~chi_20 nu_mu)
     7.93727800E-02    2     1000025        14   # BR(~nu_muL -> ~chi_30 nu_mu)
     2.66744384E-01    2     1000035        14   # BR(~nu_muL -> ~chi_40 nu_mu)
     2.70306129E-03    2     1000024        13   # BR(~nu_muL -> ~chi_1+ mu-)
     5.32695064E-01    2     1000037        13   # BR(~nu_muL -> ~chi_2+ mu-)
#
#         PDG            Width
DECAY   1000016     2.71682961E+01   # snu_tauL decays
#          BR         NDA      ID1       ID2
     1.18346019E-01    2     1000022        16   # BR(~nu_tauL -> ~chi_10 nu_tau)
     1.76662495E-05    2     1000023        16   # BR(~nu_tauL -> ~chi_20 nu_tau)
     7.92917050E-02    2     1000025        16   # BR(~nu_tauL -> ~chi_30 nu_tau)
     2.66471919E-01    2     1000035        16   # BR(~nu_tauL -> ~chi_40 nu_tau)
     3.72053641E-03    2     1000024        15   # BR(~nu_tauL -> ~chi_1+ tau-)
     5.32152155E-01    2     1000037        15   # BR(~nu_tauL -> ~chi_2+ tau-)
#
#         PDG            Width
DECAY   1000024     1.18606425E-04   # chargino1+ decays
#          BR         NDA      ID1       ID2
     5.12843192E-07    2     1000039        24   # BR(~chi_1+ -> ~G       W+)
#           BR         NDA      ID1       ID2       ID3
     3.33615220E-01    3     1000022         2        -1   # BR(~chi_1+ -> ~chi_10 u    db)
     3.33615220E-01    3     1000022         4        -3   # BR(~chi_1+ -> ~chi_10 c    sb)
     1.11205201E-01    3     1000022       -11        12   # BR(~chi_1+ -> ~chi_10 e+   nu_e)
     1.11205201E-01    3     1000022       -13        14   # BR(~chi_1+ -> ~chi_10 mu+  nu_mu)
     1.10358645E-01    3     1000022       -15        16   # BR(~chi_1+ -> ~chi_10 tau+ nu_tau)
#
#         PDG            Width
DECAY   1000037     3.84114186E+01   # chargino2+ decays
#          BR         NDA      ID1       ID2
     2.53103725E-01    2     1000024        23   # BR(~chi_2+ -> ~chi_1+  Z )
     1.12121808E-01    2     1000022        24   # BR(~chi_2+ -> ~chi_10  W+)
     2.46285479E-01    2     1000023        24   # BR(~chi_2+ -> ~chi_20  W+)
     1.34603658E-01    2     1000025        24   # BR(~chi_2+ -> ~chi_30  W+)
     2.53885331E-01    2     1000024        25   # BR(~chi_2+ -> ~chi_1+  h )
     2.31758041E-10    2     1000039        24   # BR(~chi_2+ -> ~G       W+)
     2.48404751E-14    2     1000039        37   # BR(~chi_2+ -> ~G       H+)
#
#         PDG            Width
DECAY   1000022     7.77589530E-11   # neutralino1 decays
#          BR         NDA      ID1       ID2
     5.00460176E-01    2     1000039        22   # BR(~chi_10 -> ~G        gam)
     4.88370615E-01    2     1000039        23   # BR(~chi_10 -> ~G        Z)
     1.11692090E-02    2     1000039        25   # BR(~chi_10 -> ~G        h)
#
#         PDG            Width
DECAY   1000023     1.37821496E-04   # neutralino2 decays
#          BR         NDA      ID1       ID2
     8.51563289E-04    2     1000022        22   # BR(~chi_20 -> ~chi_10 gam)
#          BR         NDA      ID1       ID2
     1.21168974E-12    2     1000039        22   # BR(~chi_20 -> ~G        gam)
     1.71278880E-08    2     1000039        23   # BR(~chi_20 -> ~G        Z)
     4.20175098E-07    2     1000039        25   # BR(~chi_20 -> ~G        h)
#           BR         NDA      ID1       ID2       ID3
     1.18567287E-01    3     1000022        -2         2   # BR(~chi_20 -> ~chi_10 ub      u)
     1.53523720E-01    3     1000022        -1         1   # BR(~chi_20 -> ~chi_10 db      d)
     1.18567287E-01    3     1000022        -4         4   # BR(~chi_20 -> ~chi_10 cb      c)
     1.53523720E-01    3     1000022        -3         3   # BR(~chi_20 -> ~chi_10 sb      s)
     1.40071883E-01    3     1000022        -5         5   # BR(~chi_20 -> ~chi_10 bb      b)
     3.50608438E-02    3     1000022       -11        11   # BR(~chi_20 -> ~chi_10 e+      e-)
     3.50608438E-02    3     1000022       -13        13   # BR(~chi_20 -> ~chi_10 mu+     mu-)
     3.47132466E-02    3     1000022       -15        15   # BR(~chi_20 -> ~chi_10 tau+    tau-)
     7.00175745E-02    3     1000022       -12        12   # BR(~chi_20 -> ~chi_10 nu_eb   nu_e)
     7.00175745E-02    3     1000022       -14        14   # BR(~chi_20 -> ~chi_10 nu_mub  nu_mu)
     7.00175745E-02    3     1000022       -16        16   # BR(~chi_20 -> ~chi_10 nu_taub nu_tau)
     1.17140433E-06    3     1000024        -2         1   # BR(~chi_20 -> ~chi_1+ ub      d)
     1.17140433E-06    3    -1000024        -1         2   # BR(~chi_20 -> ~chi_1- db      u)
     1.17140433E-06    3     1000024        -4         3   # BR(~chi_20 -> ~chi_1+ cb      s)
     1.17140433E-06    3    -1000024        -3         4   # BR(~chi_20 -> ~chi_1- sb      c)
     3.90468135E-07    3     1000024       -12        11   # BR(~chi_20 -> ~chi_1+ nu_eb   e-)
     3.90468135E-07    3    -1000024        12       -11   # BR(~chi_20 -> ~chi_1- nu_e    e+)
     3.90468135E-07    3     1000024       -14        13   # BR(~chi_20 -> ~chi_1+ nu_mub  mu-)
     3.90468135E-07    3    -1000024        14       -13   # BR(~chi_20 -> ~chi_1- nu_mu   mu+)
     9.85844219E-08    3     1000024       -16        15   # BR(~chi_20 -> ~chi_1+ nu_taub tau-)
     9.85844219E-08    3    -1000024        16       -15   # BR(~chi_20 -> ~chi_1- nu_tau  tau+)
#
#         PDG            Width
DECAY   1000025     2.15197290E-04   # neutralino3 decays
#          BR         NDA      ID1       ID2
     3.90248537E-04    2     1000022        22   # BR(~chi_30 -> ~chi_10 gam)
     8.90089051E-06    2     1000023        22   # BR(~chi_30 -> ~chi_20 gam)
#          BR         NDA      ID1       ID2
     2.57704012E-07    2     1000039        22   # BR(~chi_30 -> ~G        gam)
     2.27695196E-07    2     1000039        23   # BR(~chi_30 -> ~G        Z)
     6.46822309E-09    2     1000039        25   # BR(~chi_30 -> ~G        h)
#           BR         NDA      ID1       ID2       ID3
     1.06369892E-05    3     1000022        -2         2   # BR(~chi_30 -> ~chi_10 ub      u)
     1.26263932E-05    3     1000022        -1         1   # BR(~chi_30 -> ~chi_10 db      d)
     1.06369892E-05    3     1000022        -4         4   # BR(~chi_30 -> ~chi_10 cb      c)
     1.26263932E-05    3     1000022        -3         3   # BR(~chi_30 -> ~chi_10 sb      s)
     2.40135570E-05    3     1000022        -5         5   # BR(~chi_30 -> ~chi_10 bb      b)
     2.19371598E-06    3     1000022       -11        11   # BR(~chi_30 -> ~chi_10 e+      e-)
     2.19371598E-06    3     1000022       -13        13   # BR(~chi_30 -> ~chi_10 mu+     mu-)
     3.94063345E-06    3     1000022       -15        15   # BR(~chi_30 -> ~chi_10 tau+    tau-)
     6.18548245E-06    3     1000022       -12        12   # BR(~chi_30 -> ~chi_10 nu_eb   nu_e)
     6.18548245E-06    3     1000022       -14        14   # BR(~chi_30 -> ~chi_10 nu_mub  nu_mu)
     6.18548245E-06    3     1000022       -16        16   # BR(~chi_30 -> ~chi_10 nu_taub nu_tau)
     2.43316278E-02    3     1000023        -2         2   # BR(~chi_30 -> ~chi_20 ub      u)
     3.15052097E-02    3     1000023        -1         1   # BR(~chi_30 -> ~chi_20 db      d)
     2.43316278E-02    3     1000023        -4         4   # BR(~chi_30 -> ~chi_20 cb      c)
     3.15052097E-02    3     1000023        -3         3   # BR(~chi_30 -> ~chi_20 sb      s)
     2.73307611E-02    3     1000023        -5         5   # BR(~chi_30 -> ~chi_20 bb      b)
     7.19498931E-03    3     1000023       -11        11   # BR(~chi_30 -> ~chi_20 e+      e-)
     7.19498931E-03    3     1000023       -13        13   # BR(~chi_30 -> ~chi_20 mu+     mu-)
     7.09453599E-03    3     1000023       -15        15   # BR(~chi_30 -> ~chi_20 tau+    tau-)
     1.43685257E-02    3     1000023       -12        12   # BR(~chi_30 -> ~chi_20 nu_eb   nu_e)
     1.43685257E-02    3     1000023       -14        14   # BR(~chi_30 -> ~chi_20 nu_mub  nu_mu)
     1.43685257E-02    3     1000023       -16        16   # BR(~chi_30 -> ~chi_20 nu_taub nu_tau)
     1.32781957E-01    3     1000024        -2         1   # BR(~chi_30 -> ~chi_1+ ub      d)
     1.32781957E-01    3    -1000024        -1         2   # BR(~chi_30 -> ~chi_1- db      u)
     1.32781957E-01    3     1000024        -4         3   # BR(~chi_30 -> ~chi_1+ cb      s)
     1.32781957E-01    3    -1000024        -3         4   # BR(~chi_30 -> ~chi_1- sb      c)
     4.42605879E-02    3     1000024       -12        11   # BR(~chi_30 -> ~chi_1+ nu_eb   e-)
     4.42605879E-02    3    -1000024        12       -11   # BR(~chi_30 -> ~chi_1- nu_e    e+)
     4.42605879E-02    3     1000024       -14        13   # BR(~chi_30 -> ~chi_1+ nu_mub  mu-)
     4.42605879E-02    3    -1000024        14       -13   # BR(~chi_30 -> ~chi_1- nu_mu   mu+)
     4.38691137E-02    3     1000024       -16        15   # BR(~chi_30 -> ~chi_1+ nu_taub tau-)
     4.38691137E-02    3    -1000024        16       -15   # BR(~chi_30 -> ~chi_1- nu_tau  tau+)
#
#         PDG            Width
DECAY   1000035     3.84116740E+01   # neutralino4 decays
#          BR         NDA      ID1       ID2
     7.54204691E-04    2     1000022        23   # BR(~chi_40 -> ~chi_10   Z )
     2.51375615E-01    2     1000023        23   # BR(~chi_40 -> ~chi_20   Z )
     8.75784518E-04    2     1000025        23   # BR(~chi_40 -> ~chi_30   Z )
     2.46376885E-01    2     1000024       -24   # BR(~chi_40 -> ~chi_1+   W-)
     2.46376885E-01    2    -1000024        24   # BR(~chi_40 -> ~chi_1-   W+)
     1.14789557E-01    2     1000022        25   # BR(~chi_40 -> ~chi_10   h )
     1.60433399E-03    2     1000023        25   # BR(~chi_40 -> ~chi_20   h )
     1.37846735E-01    2     1000025        25   # BR(~chi_40 -> ~chi_30   h )
     5.55792982E-11    2     1000039        22   # BR(~chi_40 -> ~G        gam)
     1.76154570E-10    2     1000039        23   # BR(~chi_40 -> ~G        Z)
     1.60218329E-14    2     1000039        25   # BR(~chi_40 -> ~G        h)
     2.43684150E-14    2     1000039        35   # BR(~chi_40 -> ~G        H)
     3.62530941E-16    2     1000039        36   # BR(~chi_40 -> ~G        A)
#
#         PDG            Width
DECAY        25     4.21954102E-03   # h decays
#          BR         NDA      ID1       ID2
     6.01987197E-01    2           5        -5   # BR(h -> b       bb     )
     6.22219466E-02    2         -15        15   # BR(h -> tau+    tau-   )
     2.20238564E-04    2         -13        13   # BR(h -> mu+     mu-    )
     4.65982139E-04    2           3        -3   # BR(h -> s       sb     )
     2.01031177E-02    2           4        -4   # BR(h -> c       cb     )
     6.63899073E-02    2          21        21   # BR(h -> g       g      )
     2.30664668E-03    2          22        22   # BR(h -> gam     gam    )
     1.62617714E-03    2          22        23   # BR(h -> Z       gam    )
     2.16605704E-01    2          24       -24   # BR(h -> W+      W-     )
     2.80730828E-02    2          23        23   # BR(h -> Z       Z      )
#
#         PDG            Width
DECAY        35     3.78108103E+01   # H decays
#          BR         NDA      ID1       ID2
     1.47014814E-03    2           5        -5   # BR(H -> b       bb     )
     2.46423856E-04    2         -15        15   # BR(H -> tau+    tau-   )
     8.71200075E-07    2         -13        13   # BR(H -> mu+     mu-    )
     1.11545316E-06    2           3        -3   # BR(H -> s       sb     )
     1.00667961E-05    2           4        -4   # BR(H -> c       cb     )
     9.96063320E-01    2           6        -6   # BR(H -> t       tb     )
     7.97758695E-04    2          21        21   # BR(H -> g       g      )
     2.71239617E-06    2          22        22   # BR(H -> gam     gam    )
     1.15998953E-06    2          23        22   # BR(H -> Z       gam    )
     3.35634399E-04    2          24       -24   # BR(H -> W+      W-     )
     1.67359475E-04    2          23        23   # BR(H -> Z       Z      )
     9.03429490E-04    2          25        25   # BR(H -> h       h      )
     7.40808725E-24    2          36        36   # BR(H -> A       A      )
     3.01448357E-11    2          23        36   # BR(H -> Z       A      )
     7.00672883E-12    2          24       -37   # BR(H -> W+      H-     )
     7.00672883E-12    2         -24        37   # BR(H -> W-      H+     )
#
#         PDG            Width
DECAY        36     3.82382347E+01   # A decays
#          BR         NDA      ID1       ID2
     1.47307701E-03    2           5        -5   # BR(A -> b       bb     )
     2.43897671E-04    2         -15        15   # BR(A -> tau+    tau-   )
     8.62266373E-07    2         -13        13   # BR(A -> mu+     mu-    )
     1.13677373E-06    2           3        -3   # BR(A -> s       sb     )
     9.96176281E-06    2           4        -4   # BR(A -> c       cb     )
     9.96995789E-01    2           6        -6   # BR(A -> t       tb     )
     9.43675456E-04    2          21        21   # BR(A -> g       g      )
     3.17091442E-06    2          22        22   # BR(A -> gam     gam    )
     1.35257387E-06    2          23        22   # BR(A -> Z       gam    )
     3.27076123E-04    2          23        25   # BR(A -> Z       h      )
#
#         PDG            Width
DECAY        37     3.74472667E+01   # H+ decays
#          BR         NDA      ID1       ID2
     2.36225510E-06    2           4        -5   # BR(H+ -> c       bb     )
     2.49237256E-04    2         -15        16   # BR(H+ -> tau+    nu_tau )
     8.81143733E-07    2         -13        14   # BR(H+ -> mu+     nu_mu  )
     1.50185465E-08    2           2        -5   # BR(H+ -> u       bb     )
     5.45693580E-08    2           2        -3   # BR(H+ -> u       sb     )
     1.08731515E-05    2           4        -3   # BR(H+ -> c       sb     )
     9.99401361E-01    2           6        -5   # BR(H+ -> t       bb     )
     3.35215588E-04    2          24        25   # BR(H+ -> W+      h      )
     2.74959750E-13    2          24        36   # BR(H+ -> W+      A      )
