#
#                              ======================
#                              | THE SUSYHIT OUTPUT |
#                              ======================
#
#
#              ------------------------------------------------------
#              |     This is the output of the SUSY-HIT package     |
#              |  created by A.Djouadi, M.Muehlleitner and M.Spira. |
#              |  In case of problems with SUSY-HIT email to        |
#              |           margarete.muehlleitner@kit.edu           |
#              |           michael.spira@psi.ch                     |
#              |           abdelhak.djouadi@cern.ch                 |
#              ------------------------------------------------------
#
#              ------------------------------------------------------
#              |  SUSY Les Houches Accord - MSSM Spectrum + Decays  |
#              |              based on the decay programs           |
#              |                                                    |
#              |                     SDECAY 1.5                     |
#              |                                                    |
#              |  Authors: M.Muhlleitner, A.Djouadi and Y.Mambrini  |
#              |  Ref.:    Comput.Phys.Commun.168(2005)46           |
#              |           [hep-ph/0311167]                         |
#              |                                                    |
#              |                     HDECAY 3.4                     |
#              |                                                    |
#              |  By: A.Djouadi,J.Kalinowski,M.Muhlleitner,M.Spira  |
#              |  Ref.:    Comput.Phys.Commun.108(1998)56           |
#              |           [hep-ph/9704448]                         |
#              |                                                    |
#              |                                                    |
#              |  If not stated otherwise all DRbar couplings and   |
#              |  soft SUSY breaking masses are given at the scale  |
#              |  Q=  0.91187600E+02
#              |                                                    |
#              ------------------------------------------------------
#
#
BLOCK DCINFO  # Decay Program information
     1   SDECAY/HDECAY # decay calculator
     2   1.5  /3.4    # version number
#
BLOCK SPINFO  # Spectrum calculator information
     1   SuSpect     # RGE +Spectrum calculator            
     2   2.43         # version number                     
#
BLOCK MODSEL  # Model selection
     1     2   # GMSB                                              
#
BLOCK SMINPUTS  # Standard Model inputs
         1     1.27932904E+02   # alpha_em^-1(M_Z)^MSbar
         2     1.16639000E-05   # G_F [GeV^-2]
         3     1.17200000E-01   # alpha_S(M_Z)^MSbar
         4     9.11870000E+01   # M_Z pole mass
         5     4.25000000E+00   # mb(mb)^MSbar
         6     1.72900000E+02   # mt pole mass
         7     1.77700000E+00   # mtau pole mass
#
BLOCK MINPAR  # Input parameters - minimal models
#
BLOCK EXTPAR  # Input parameters - non-minimal models
         0     9.11876000E+01   # EWSB                
         1     1.05200000E+03   # M_1                 
         2     3.00000000E+03   # M_2                 
         3     1.20000000E+03   # M_3                 
        11     0.00000000E+00   # A_t                 
        12     0.00000000E+00   # A_b                 
        13     0.00000000E+00   # A_tau               
        14     0.00000000E+00   # A_u                 
        15     0.00000000E+00   # A_d                 
        16     0.00000000E+00   # A_e                 
        23     1.05000000E+03   # mu(EWSB)            
        25     1.50000000E+00   # tanbeta(in)         
        26     2.00000000E+03   # MA_pole             
        31     5.00000000E+03   # M_eL                
        32     5.00000000E+03   # M_muL               
        33     5.00000000E+03   # M_tauL              
        34     5.00000000E+03   # M_eR                
        35     5.00000000E+03   # M_muR               
        36     5.00000000E+03   # M_tauR              
        41     5.00000000E+03   # M_q1L               
        42     5.00000000E+03   # M_q2L               
        43     5.00000000E+03   # M_q3L               
        44     5.00000000E+03   # M_uR                
        45     5.00000000E+03   # M_cR                
        46     5.00000000E+03   # M_tR                
        47     5.00000000E+03   # M_dR                
        48     5.00000000E+03   # M_sR                
        49     5.00000000E+03   # M_bR                
#
BLOCK MASS  # Mass Spectrum
# PDG code           mass       particle
        24     8.05405952E+01   # W+
        25     1.26000000E+02   # h
        35     2.00408204E+03   # H
        36     2.00000000E+03   # A
        37     2.00155886E+03   # H+
         5     4.87877839E+00   # b-quark pole mass calculated from mb(mb)_Msbar
   1000001     5.01048218E+03   # ~d_L
   2000001     5.01037295E+03   # ~d_R
   1000002     5.01023797E+03   # ~u_L
   2000002     5.01029571E+03   # ~u_R
   1000003     5.01048218E+03   # ~s_L
   2000003     5.01037295E+03   # ~s_R
   1000004     5.01023797E+03   # ~c_L
   2000004     5.01029571E+03   # ~c_R
   1000005     5.00999492E+03   # ~b_1
   2000005     5.01086165E+03   # ~b_2
   1000006     5.13312054E+03   # ~t_1
   2000006     5.42805919E+03   # ~t_2
   1000011     5.00008223E+03   # ~e_L
   2000011     5.00007607E+03   # ~e_R
   1000012     4.99984171E+03   # ~nu_eL
   1000013     5.00008223E+03   # ~mu_L
   2000013     5.00007607E+03   # ~mu_R
   1000014     4.99984171E+03   # ~nu_muL
   1000015     4.99979938E+03   # ~tau_1
   2000015     5.00035953E+03   # ~tau_2
   1000016     4.99984171E+03   # ~nu_tauL
   1000021     1.33582342E+03   # ~g
   1000022     1.07289981E+03   # ~chi_10
   1000023    -1.12037522E+03   # ~chi_20
   1000025     1.16006026E+03   # ~chi_30
   1000035     3.12881424E+03   # ~chi_40
   1000024     1.11734732E+03   # ~chi_1+
   1000037     3.12881290E+03   # ~chi_2+
   1000039     1.62687500E-07   # ~gravitino
#
BLOCK NMIX  # Neutralino Mixing Matrix
  1  1     7.13648423E-01   # N_11
  1  2    -2.64183735E-02   # N_12
  1  3     4.97112989E-01   # N_13
  1  4    -4.92835342E-01   # N_14
  2  1     3.90439251E-03   # N_21
  2  2    -3.65605753E-03   # N_22
  2  3    -7.06953452E-01   # N_23
  2  4    -7.07239850E-01   # N_24
  3  1     7.00492654E-01   # N_31
  3  2     2.81500693E-02   # N_32
  3  3    -5.02478683E-01   # N_33
  3  4     5.05996826E-01   # N_34
  4  1     8.51852174E-04   # N_41
  4  2    -9.99247855E-01   # N_42
  4  3    -2.47116506E-02   # N_43
  4  4     2.98719314E-02   # N_44
#
BLOCK UMIX  # Chargino Mixing Matrix U
  1  1    -3.49293818E-02   # U_11
  1  2     9.99389783E-01   # U_12
  2  1     9.99389783E-01   # U_21
  2  2     3.49293818E-02   # U_22
#
BLOCK VMIX  # Chargino Mixing Matrix V
  1  1    -4.22287766E-02   # V_11
  1  2     9.99107967E-01   # V_12
  2  1     9.99107967E-01   # V_21
  2  2     4.22287766E-02   # V_22
#
BLOCK STOPMIX  # Stop Mixing Matrix
  1  1     9.99992503E-01   # cos(theta_t)
  1  2     3.87220141E-03   # sin(theta_t)
  2  1    -3.87220141E-03   # -sin(theta_t)
  2  2     9.99992503E-01   # cos(theta_t)
#
BLOCK SBOTMIX  # Sbottom Mixing Matrix
  1  1     6.61047647E-01   # cos(theta_b)
  1  2     7.50343927E-01   # sin(theta_b)
  2  1    -7.50343927E-01   # -sin(theta_b)
  2  2     6.61047647E-01   # cos(theta_b)
#
BLOCK STAUMIX  # Stau Mixing Matrix
  1  1     7.03207679E-01   # cos(theta_tau)
  1  2     7.10984501E-01   # sin(theta_tau)
  2  1    -7.10984501E-01   # -sin(theta_tau)
  2  2     7.03207679E-01   # cos(theta_tau)
#
BLOCK ALPHA  # Higgs mixing
          -5.90200897E-01   # Mixing angle in the neutral Higgs boson sector
#
BLOCK HMIX Q=  9.11876000E+01  # DRbar Higgs Parameters
         1     1.05000000E+03   # mu(Q)               
         2     1.49999979E+00   # tanbeta(Q)          
         3     2.52095666E+02   # vev(Q)              
         4     3.53045354E+06   # MA^2(Q)             
#
BLOCK GAUGE Q=  9.11876000E+01  # The gauge couplings
     1     3.52813898E-01   # gprime(Q) DRbar
     2     6.27372108E-01   # g(Q) DRbar
     3     1.08870368E+00   # g3(Q) DRbar
#
BLOCK AU Q=  9.11876000E+01  # The trilinear couplings
  1  1     0.00000000E+00   # A_u(Q) DRbar
  2  2     0.00000000E+00   # A_c(Q) DRbar
  3  3     0.00000000E+00   # A_t(Q) DRbar
#
BLOCK AD Q=  9.11876000E+01  # The trilinear couplings
  1  1     0.00000000E+00   # A_d(Q) DRbar
  2  2     0.00000000E+00   # A_s(Q) DRbar
  3  3     0.00000000E+00   # A_b(Q) DRbar
#
BLOCK AE Q=  9.11876000E+01  # The trilinear couplings
  1  1     0.00000000E+00   # A_e(Q) DRbar
  2  2     0.00000000E+00   # A_mu(Q) DRbar
  3  3     0.00000000E+00   # A_tau(Q) DRbar
#
BLOCK Yu Q=  9.11876000E+01  # The Yukawa couplings
  1  1     0.00000000E+00   # y_u(Q) DRbar
  2  2     0.00000000E+00   # y_c(Q) DRbar
  3  3     1.02518779E+00   # y_t(Q) DRbar
#
BLOCK Yd Q=  9.11876000E+01  # The Yukawa couplings
  1  1     0.00000000E+00   # y_d(Q) DRbar
  2  2     0.00000000E+00   # y_s(Q) DRbar
  3  3     2.71869376E-02   # y_b(Q) DRbar
#
BLOCK Ye Q=  9.11876000E+01  # The Yukawa couplings
  1  1     0.00000000E+00   # y_e(Q) DRbar
  2  2     0.00000000E+00   # y_mu(Q) DRbar
  3  3     1.79830179E-02   # y_tau(Q) DRbar
#
BLOCK MSOFT Q=  9.11876000E+01  # The soft SUSY breaking masses at the scale Q
         1     1.05200000E+03   # M_1                 
         2     3.00000000E+03   # M_2                 
         3     1.20000000E+03   # M_3                 
        14     0.00000000E+00   # A_u                 
        15     0.00000000E+00   # A_d                 
        16     0.00000000E+00   # A_e                 
        21     1.81564074E+06   # M^2_Hd              
        22    -6.51107743E+06   # M^2_Hu              
        31     5.00000000E+03   # M_eL                
        32     5.00000000E+03   # M_muL               
        33     5.00000000E+03   # M_tauL              
        34     5.00000000E+03   # M_eR                
        35     5.00000000E+03   # M_muR               
        36     5.00000000E+03   # M_tauR              
        41     5.00000000E+03   # M_q1L               
        42     5.00000000E+03   # M_q2L               
        43     5.00000000E+03   # M_q3L               
        44     5.00000000E+03   # M_uR                
        45     5.00000000E+03   # M_cR                
        46     5.00000000E+03   # M_tR                
        47     5.00000000E+03   # M_dR                
        48     5.00000000E+03   # M_sR                
        49     5.00000000E+03   # M_bR                
#
#
#
#                             =================
#                             |The decay table|
#                             =================
#
# - The QCD corrections to the decays gluino -> squark  + quark
#                                     squark -> gaugino + quark_prime
#                                     squark -> squark_prime + Higgs
#                                     squark -> gluino  + quark
#   are included.
#
# - The multi-body decays for the inos, stops and sbottoms are included.
#
# - The loop induced decays for the gluino, neutralinos and stops
#   are included.
#
# - The SUSY decays of the top quark are included.
#
# - Possible decays of the NLSP in GMSB models are included.
#
#
#         PDG            Width
DECAY         6     1.37136669E+00   # top decays
#          BR         NDA      ID1       ID2
     1.00000000E+00    2           5        24   # BR(t ->  b    W+)
#
#         PDG            Width
DECAY   1000021     5.31673722E-07   # gluino decays
#          BR         NDA      ID1       ID2
     3.29138726E-01    2     1000022        21   # BR(~g -> ~chi_10 g)
     3.97284197E-01    2     1000023        21   # BR(~g -> ~chi_20 g)
     1.14926883E-01    2     1000025        21   # BR(~g -> ~chi_30 g)
#          BR         NDA      ID1       ID2
     3.47999089E-04    2     1000039        21   # BR(~g -> ~G      g)
#           BR         NDA      ID1       ID2       ID3
     1.40397001E-02    3     1000022         1        -1   # BR(~g -> ~chi_10 d  db)
     4.10405515E-07    3     1000023         1        -1   # BR(~g -> ~chi_20 d  db)
     1.73088572E-03    3     1000025         1        -1   # BR(~g -> ~chi_30 d  db)
     4.30070998E-02    3     1000022         2        -2   # BR(~g -> ~chi_10 u  ub)
     3.28459003E-07    3     1000023         2        -2   # BR(~g -> ~chi_20 u  ub)
     6.55141319E-03    3     1000025         2        -2   # BR(~g -> ~chi_30 u  ub)
     1.40397001E-02    3     1000022         3        -3   # BR(~g -> ~chi_10 s  sb)
     4.10405515E-07    3     1000023         3        -3   # BR(~g -> ~chi_20 s  sb)
     1.73088572E-03    3     1000025         3        -3   # BR(~g -> ~chi_30 s  sb)
     4.30070998E-02    3     1000022         4        -4   # BR(~g -> ~chi_10 c  cb)
     3.28459003E-07    3     1000023         4        -4   # BR(~g -> ~chi_20 c  cb)
     6.55141319E-03    3     1000025         4        -4   # BR(~g -> ~chi_30 c  cb)
     1.40006846E-02    3     1000022         5        -5   # BR(~g -> ~chi_10 b  bb)
     2.14363817E-04    3     1000023         5        -5   # BR(~g -> ~chi_20 b  bb)
     1.81012182E-03    3     1000025         5        -5   # BR(~g -> ~chi_30 b  bb)
     1.81719722E-04    3     1000024         1        -2   # BR(~g -> ~chi_1+ d  ub)
     1.81719722E-04    3    -1000024         2        -1   # BR(~g -> ~chi_1- u  db)
     1.81719722E-04    3     1000024         3        -4   # BR(~g -> ~chi_1+ s  cb)
     1.81719722E-04    3    -1000024         4        -3   # BR(~g -> ~chi_1- c  sb)
     5.44523531E-03    3     1000024         5        -6   # BR(~g -> ~chi_1+ b  tb)
     5.44523531E-03    3    -1000024         6        -5   # BR(~g -> ~chi_1- t  bb)
#
#         PDG            Width
DECAY   1000006     3.24197108E+02   # stop1 decays
#          BR         NDA      ID1       ID2
     5.04280997E-02    2     1000022         6   # BR(~t_1 -> ~chi_10 t )
     1.02920725E-01    2     1000023         6   # BR(~t_1 -> ~chi_20 t )
     5.42185370E-02    2     1000025         6   # BR(~t_1 -> ~chi_30 t )
     2.38621390E-02    2     1000035         6   # BR(~t_1 -> ~chi_40 t )
     7.74391158E-05    2     1000024         5   # BR(~t_1 -> ~chi_1+ b )
     4.74308325E-02    2     1000037         5   # BR(~t_1 -> ~chi_2+ b )
     7.08603567E-01    2     1000021         6   # BR(~t_1 -> ~g      t )
     5.55769727E-03    2     1000005        24   # BR(~t_1 -> ~b_1    W+)
     6.90096342E-03    2     2000005        24   # BR(~t_1 -> ~b_2    W+)
#
#         PDG            Width
DECAY   2000006     3.97366015E+02   # stop2 decays
#          BR         NDA      ID1       ID2
     5.78588999E-02    2     1000022         6   # BR(~t_2 -> ~chi_10 t )
     9.00870135E-02    2     1000023         6   # BR(~t_2 -> ~chi_20 t )
     5.86636682E-02    2     1000025         6   # BR(~t_2 -> ~chi_30 t )
     2.57063083E-05    2     1000035         6   # BR(~t_2 -> ~chi_40 t )
     1.80445438E-01    2     1000024         5   # BR(~t_2 -> ~chi_1+ b )
     5.19595075E-05    2     1000037         5   # BR(~t_2 -> ~chi_2+ b )
     6.12879012E-01    2     1000021         6   # BR(~t_2 -> ~g      t )
    -2.87370757E-05    2     1000006        25   # BR(~t_2 -> ~t_1    h )
     2.24428985E-06    2     1000006        23   # BR(~t_2 -> ~t_1    Z )
     6.49726693E-06    2     1000005        24   # BR(~t_2 -> ~b_1    W+)
     8.29802178E-06    2     2000005        24   # BR(~t_2 -> ~b_2    W+)
#
#         PDG            Width
DECAY   1000005     2.60160880E+02   # sbottom1 decays
#          BR         NDA      ID1       ID2
     4.28908324E-03    2     1000022         5   # BR(~b_1 -> ~chi_10 b )
     7.48971688E-05    2     1000023         5   # BR(~b_1 -> ~chi_20 b )
     2.38702467E-03    2     1000025         5   # BR(~b_1 -> ~chi_30 b )
     1.09463817E-02    2     1000035         5   # BR(~b_1 -> ~chi_40 b )
     9.76119412E-02    2    -1000024         6   # BR(~b_1 -> ~chi_1- t )
     2.20269758E-02    2    -1000037         6   # BR(~b_1 -> ~chi_2- t )
     8.62663696E-01    2     1000021         5   # BR(~b_1 -> ~g      b )
#
#         PDG            Width
DECAY   2000005     2.77909348E+02   # sbottom2 decays
#          BR         NDA      ID1       ID2
     2.10740794E-03    2     1000022         5   # BR(~b_2 -> ~chi_10 b )
     9.65299260E-05    2     1000023         5   # BR(~b_2 -> ~chi_20 b )
     2.71373475E-03    2     1000025         5   # BR(~b_2 -> ~chi_30 b )
     1.51805809E-02    2     1000035         5   # BR(~b_2 -> ~chi_40 b )
     1.41978016E-01    2    -1000024         6   # BR(~b_2 -> ~chi_1- t )
     3.05530801E-02    2    -1000037         6   # BR(~b_2 -> ~chi_2- t )
     8.07370651E-01    2     1000021         5   # BR(~b_2 -> ~g      b )
#
#         PDG            Width
DECAY   1000002     2.46267384E+02   # sup_L decays
#          BR         NDA      ID1       ID2
     8.07889140E-04    2     1000022         2   # BR(~u_L -> ~chi_10 u)
     5.94137718E-07    2     1000023         2   # BR(~u_L -> ~chi_20 u)
     1.75344934E-03    2     1000025         2   # BR(~u_L -> ~chi_30 u)
     2.86709100E-02    2     1000035         2   # BR(~u_L -> ~chi_40 u)
     2.47959061E-04    2     1000024         1   # BR(~u_L -> ~chi_1+ d)
     5.73441548E-02    2     1000037         1   # BR(~u_L -> ~chi_2+ d)
     9.11175044E-01    2     1000021         2   # BR(~u_L -> ~g      u)
#
#         PDG            Width
DECAY   2000002     2.34024126E+02   # sup_R decays
#          BR         NDA      ID1       ID2
     2.11208790E-02    2     1000022         2   # BR(~u_R -> ~chi_10 u)
     6.26705892E-07    2     1000023         2   # BR(~u_R -> ~chi_20 u)
     2.00197707E-02    2     1000025         2   # BR(~u_R -> ~chi_30 u)
     1.23323178E-08    2     1000035         2   # BR(~u_R -> ~chi_40 u)
     9.58858711E-01    2     1000021         2   # BR(~u_R -> ~g      u)
#
#         PDG            Width
DECAY   1000001     2.46271673E+02   # sdown_L decays
#          BR         NDA      ID1       ID2
     1.79884543E-03    2     1000022         1   # BR(~d_L -> ~chi_10 d)
     1.33791753E-06    2     1000023         1   # BR(~d_L -> ~chi_20 d)
     7.33895759E-04    2     1000025         1   # BR(~d_L -> ~chi_30 d)
     2.86936884E-02    2     1000035         1   # BR(~d_L -> ~chi_40 d)
     1.69653524E-04    2    -1000024         2   # BR(~d_L -> ~chi_1- u)
     5.73854000E-02    2    -1000037         2   # BR(~d_L -> ~chi_2- u)
     9.11217179E-01    2     1000021         1   # BR(~d_L -> ~g      d)
#
#         PDG            Width
DECAY   2000001     2.26807648E+02   # sdown_R decays
#          BR         NDA      ID1       ID2
     5.44832415E-03    2     1000022         1   # BR(~d_R -> ~chi_10 d)
     1.61664569E-07    2     1000023         1   # BR(~d_R -> ~chi_20 d)
     5.16428591E-03    2     1000025         1   # BR(~d_R -> ~chi_30 d)
     3.18134911E-09    2     1000035         1   # BR(~d_R -> ~chi_40 d)
     9.89387225E-01    2     1000021         1   # BR(~d_R -> ~g      d)
#
#         PDG            Width
DECAY   1000004     2.46267384E+02   # scharm_L decays
#          BR         NDA      ID1       ID2
     8.07889140E-04    2     1000022         4   # BR(~c_L -> ~chi_10 c)
     5.94137718E-07    2     1000023         4   # BR(~c_L -> ~chi_20 c)
     1.75344934E-03    2     1000025         4   # BR(~c_L -> ~chi_30 c)
     2.86709100E-02    2     1000035         4   # BR(~c_L -> ~chi_40 c)
     2.47959061E-04    2     1000024         3   # BR(~c_L -> ~chi_1+ s)
     5.73441548E-02    2     1000037         3   # BR(~c_L -> ~chi_2+ s)
     9.11175044E-01    2     1000021         4   # BR(~c_L -> ~g      c)
#
#         PDG            Width
DECAY   2000004     2.34024126E+02   # scharm_R decays
#          BR         NDA      ID1       ID2
     2.11208790E-02    2     1000022         4   # BR(~c_R -> ~chi_10 c)
     6.26705892E-07    2     1000023         4   # BR(~c_R -> ~chi_20 c)
     2.00197707E-02    2     1000025         4   # BR(~c_R -> ~chi_30 c)
     1.23323178E-08    2     1000035         4   # BR(~c_R -> ~chi_40 c)
     9.58858711E-01    2     1000021         4   # BR(~c_R -> ~g      c)
#
#         PDG            Width
DECAY   1000003     2.46271673E+02   # sstrange_L decays
#          BR         NDA      ID1       ID2
     1.79884543E-03    2     1000022         3   # BR(~s_L -> ~chi_10 s)
     1.33791753E-06    2     1000023         3   # BR(~s_L -> ~chi_20 s)
     7.33895759E-04    2     1000025         3   # BR(~s_L -> ~chi_30 s)
     2.86936884E-02    2     1000035         3   # BR(~s_L -> ~chi_40 s)
     1.69653524E-04    2    -1000024         4   # BR(~s_L -> ~chi_1- c)
     5.73854000E-02    2    -1000037         4   # BR(~s_L -> ~chi_2- c)
     9.11217179E-01    2     1000021         3   # BR(~s_L -> ~g      s)
#
#         PDG            Width
DECAY   2000003     2.26807648E+02   # sstrange_R decays
#          BR         NDA      ID1       ID2
     5.44832415E-03    2     1000022         3   # BR(~s_R -> ~chi_10 s)
     1.61664569E-07    2     1000023         3   # BR(~s_R -> ~chi_20 s)
     5.16428591E-03    2     1000025         3   # BR(~s_R -> ~chi_30 s)
     3.18134911E-09    2     1000035         3   # BR(~s_R -> ~chi_40 s)
     9.89387225E-01    2     1000021         3   # BR(~s_R -> ~g      s)
#
#         PDG            Width
DECAY   1000011     2.73747892E+01   # selectron_L decays
#          BR         NDA      ID1       ID2
     9.14742951E-02    2     1000022        11   # BR(~e_L -> ~chi_10 e-)
     1.37578163E-06    2     1000023        11   # BR(~e_L -> ~chi_20 e-)
     1.14055520E-01    2     1000025        11   # BR(~e_L -> ~chi_30 e-)
     2.64078738E-01    2     1000035        11   # BR(~e_L -> ~chi_40 e-)
     1.57504718E-03    2    -1000024        12   # BR(~e_L -> ~chi_1- nu_e)
     5.28815024E-01    2    -1000037        12   # BR(~e_L -> ~chi_2- nu_e)
#
#         PDG            Width
DECAY   2000011     2.23566922E+01   # selectron_R decays
#          BR         NDA      ID1       ID2
     5.13389104E-01    2     1000022        11   # BR(~e_R -> ~chi_10 e-)
     1.52329648E-05    2     1000023        11   # BR(~e_R -> ~chi_20 e-)
     4.86595366E-01    2     1000025        11   # BR(~e_R -> ~chi_30 e-)
     2.97559789E-07    2     1000035        11   # BR(~e_R -> ~chi_40 e-)
#
#         PDG            Width
DECAY   1000013     2.73747892E+01   # smuon_L decays
#          BR         NDA      ID1       ID2
     9.14742951E-02    2     1000022        13   # BR(~mu_L -> ~chi_10 mu-)
     1.37578163E-06    2     1000023        13   # BR(~mu_L -> ~chi_20 mu-)
     1.14055520E-01    2     1000025        13   # BR(~mu_L -> ~chi_30 mu-)
     2.64078738E-01    2     1000035        13   # BR(~mu_L -> ~chi_40 mu-)
     1.57504718E-03    2    -1000024        14   # BR(~mu_L -> ~chi_1- nu_mu)
     5.28815024E-01    2    -1000037        14   # BR(~mu_L -> ~chi_2- nu_mu)
#
#         PDG            Width
DECAY   2000013     2.23566922E+01   # smuon_R decays
#          BR         NDA      ID1       ID2
     5.13389104E-01    2     1000022        13   # BR(~mu_R -> ~chi_10 mu-)
     1.52329648E-05    2     1000023        13   # BR(~mu_R -> ~chi_20 mu-)
     4.86595366E-01    2     1000025        13   # BR(~mu_R -> ~chi_30 mu-)
     2.97559789E-07    2     1000035        13   # BR(~mu_R -> ~chi_40 mu-)
#
#         PDG            Width
DECAY   1000015     2.49141968E+01   # stau_1 decays
#          BR         NDA      ID1       ID2
     2.89046833E-01    2     1000022        15   # BR(~tau_1 -> ~chi_10  tau-)
     4.70977383E-04    2     1000023        15   # BR(~tau_1 -> ~chi_20  tau-)
     2.77768281E-01    2     1000025        15   # BR(~tau_1 -> ~chi_30  tau-)
     1.43164451E-01    2     1000035        15   # BR(~tau_1 -> ~chi_40  tau-)
     2.86322886E-03    2    -1000024        16   # BR(~tau_1 -> ~chi_1-  nu_tau)
     2.86686223E-01    2    -1000037        16   # BR(~tau_1 -> ~chi_2-  nu_tau)
     5.45499099E-09    2     1000039        15   # BR(~tau_1 -> ~G       tau-)
#
#         PDG            Width
DECAY   2000015     2.49043345E+01   # stau_2 decays
#          BR         NDA      ID1       ID2
     2.72835974E-01    2     1000022        15   # BR(~tau_2 -> ~chi_10  tau-)
     7.08730646E-04    2     1000023        15   # BR(~tau_2 -> ~chi_20  tau-)
     2.84895714E-01    2     1000025        15   # BR(~tau_2 -> ~chi_30  tau-)
     1.47054877E-01    2     1000035        15   # BR(~tau_2 -> ~chi_40  tau-)
     3.12119740E-05    2    -1000024        16   # BR(~tau_2 -> ~chi_1-  nu_tau)
     2.94473493E-01    2    -1000037        16   # BR(~tau_2 -> ~chi_2-  nu_tau)
#
#         PDG            Width
DECAY   1000012     2.73750718E+01   # snu_eL decays
#          BR         NDA      ID1       ID2
     1.19065994E-01    2     1000022        12   # BR(~nu_eL -> ~chi_10 nu_e)
     2.20890748E-05    2     1000023        12   # BR(~nu_eL -> ~chi_20 nu_e)
     8.56520327E-02    2     1000025        12   # BR(~nu_eL -> ~chi_30 nu_e)
     2.64537415E-01    2     1000035        12   # BR(~nu_eL -> ~chi_40 nu_e)
     2.30196651E-03    2     1000024        11   # BR(~nu_eL -> ~chi_1+ e-)
     5.28420503E-01    2     1000037        11   # BR(~nu_eL -> ~chi_2+ e-)
#
#         PDG            Width
DECAY   1000014     2.73750718E+01   # snu_muL decays
#          BR         NDA      ID1       ID2
     1.19065994E-01    2     1000022        14   # BR(~nu_muL -> ~chi_10 nu_mu)
     2.20890748E-05    2     1000023        14   # BR(~nu_muL -> ~chi_20 nu_mu)
     8.56520327E-02    2     1000025        14   # BR(~nu_muL -> ~chi_30 nu_mu)
     2.64537415E-01    2     1000035        14   # BR(~nu_muL -> ~chi_40 nu_mu)
     2.30196651E-03    2     1000024        13   # BR(~nu_muL -> ~chi_1+ mu-)
     5.28420503E-01    2     1000037        13   # BR(~nu_muL -> ~chi_2+ mu-)
#
#         PDG            Width
DECAY   1000016     2.74040823E+01   # snu_tauL decays
#          BR         NDA      ID1       ID2
     1.18939949E-01    2     1000022        16   # BR(~nu_tauL -> ~chi_10 nu_tau)
     2.20656910E-05    2     1000023        16   # BR(~nu_tauL -> ~chi_20 nu_tau)
     8.55613600E-02    2     1000025        16   # BR(~nu_tauL -> ~chi_30 nu_tau)
     2.64257371E-01    2     1000035        16   # BR(~nu_tauL -> ~chi_40 nu_tau)
     3.35720409E-03    2     1000024        15   # BR(~nu_tauL -> ~chi_1+ tau-)
     5.27862051E-01    2     1000037        15   # BR(~nu_tauL -> ~chi_2+ tau-)
#
#         PDG            Width
DECAY   1000024     1.09056870E-04   # chargino1+ decays
#          BR         NDA      ID1       ID2
     3.40892470E-07    2     1000039        24   # BR(~chi_1+ -> ~G       W+)
#           BR         NDA      ID1       ID2       ID3
     3.33625275E-01    3     1000022         2        -1   # BR(~chi_1+ -> ~chi_10 u    db)
     3.33625275E-01    3     1000022         4        -3   # BR(~chi_1+ -> ~chi_10 c    sb)
     1.11208556E-01    3     1000022       -11        12   # BR(~chi_1+ -> ~chi_10 e+   nu_e)
     1.11208556E-01    3     1000022       -13        14   # BR(~chi_1+ -> ~chi_10 mu+  nu_mu)
     1.10331997E-01    3     1000022       -15        16   # BR(~chi_1+ -> ~chi_10 tau+ nu_tau)
#
#         PDG            Width
DECAY   1000037     3.73828786E+01   # chargino2+ decays
#          BR         NDA      ID1       ID2
     2.52224390E-01    2     1000024        23   # BR(~chi_2+ -> ~chi_1+  Z )
     1.13930919E-01    2     1000022        24   # BR(~chi_2+ -> ~chi_10  W+)
     2.45567865E-01    2     1000023        24   # BR(~chi_2+ -> ~chi_20  W+)
     1.31942648E-01    2     1000025        24   # BR(~chi_2+ -> ~chi_30  W+)
     2.53246854E-01    2     1000024        25   # BR(~chi_2+ -> ~chi_1+  h )
     6.08967153E-04    2     1000024        35   # BR(~chi_2+ -> ~chi_1+  H )
     8.01417225E-04    2     1000024        36   # BR(~chi_2+ -> ~chi_1+  A )
     1.07519750E-03    2     1000022        37   # BR(~chi_2+ -> ~chi_10  H+)
     6.01741584E-04    2     1000023        37   # BR(~chi_2+ -> ~chi_20  H+)
     3.47768736E-10    2     1000039        24   # BR(~chi_2+ -> ~G       W+)
     2.96061071E-14    2     1000039        37   # BR(~chi_2+ -> ~G       H+)
#
#         PDG            Width
DECAY   1000022     4.59357406E-11   # neutralino1 decays
#          BR         NDA      ID1       ID2
     4.99433411E-01    2     1000039        22   # BR(~chi_10 -> ~G        gam)
     4.89336232E-01    2     1000039        23   # BR(~chi_10 -> ~G        Z)
     1.12303564E-02    2     1000039        25   # BR(~chi_10 -> ~G        h)
#
#         PDG            Width
DECAY   1000023     1.22819796E-04   # neutralino2 decays
#          BR         NDA      ID1       ID2
     1.25327591E-03    2     1000022        22   # BR(~chi_20 -> ~chi_10 gam)
#          BR         NDA      ID1       ID2
     1.62274970E-12    2     1000039        22   # BR(~chi_20 -> ~G        gam)
     1.17470888E-08    2     1000039        23   # BR(~chi_20 -> ~G        Z)
     2.85926412E-07    2     1000039        25   # BR(~chi_20 -> ~G        h)
#           BR         NDA      ID1       ID2       ID3
     1.18595957E-01    3     1000022        -2         2   # BR(~chi_20 -> ~chi_10 ub      u)
     1.53555291E-01    3     1000022        -1         1   # BR(~chi_20 -> ~chi_10 db      d)
     1.18595957E-01    3     1000022        -4         4   # BR(~chi_20 -> ~chi_10 cb      c)
     1.53555291E-01    3     1000022        -3         3   # BR(~chi_20 -> ~chi_10 sb      s)
     1.39527377E-01    3     1000022        -5         5   # BR(~chi_20 -> ~chi_10 bb      b)
     3.50654672E-02    3     1000022       -11        11   # BR(~chi_20 -> ~chi_10 e+      e-)
     3.50654672E-02    3     1000022       -13        13   # BR(~chi_20 -> ~chi_10 mu+     mu-)
     3.47060649E-02    3     1000022       -15        15   # BR(~chi_20 -> ~chi_10 tau+    tau-)
     7.00251277E-02    3     1000022       -12        12   # BR(~chi_20 -> ~chi_10 nu_eb   nu_e)
     7.00251277E-02    3     1000022       -14        14   # BR(~chi_20 -> ~chi_10 nu_mub  nu_mu)
     7.00251277E-02    3     1000022       -16        16   # BR(~chi_20 -> ~chi_10 nu_taub nu_tau)
     7.65295032E-07    3     1000024        -2         1   # BR(~chi_20 -> ~chi_1+ ub      d)
     7.65295032E-07    3    -1000024        -1         2   # BR(~chi_20 -> ~chi_1- db      u)
     7.65295032E-07    3     1000024        -4         3   # BR(~chi_20 -> ~chi_1+ cb      s)
     7.65295032E-07    3    -1000024        -3         4   # BR(~chi_20 -> ~chi_1- sb      c)
     2.55098360E-07    3     1000024       -12        11   # BR(~chi_20 -> ~chi_1+ nu_eb   e-)
     2.55098360E-07    3    -1000024        12       -11   # BR(~chi_20 -> ~chi_1- nu_e    e+)
     2.55098360E-07    3     1000024       -14        13   # BR(~chi_20 -> ~chi_1+ nu_mub  mu-)
     2.55098360E-07    3    -1000024        14       -13   # BR(~chi_20 -> ~chi_1- nu_mu   mu+)
     4.39809787E-08    3     1000024       -16        15   # BR(~chi_20 -> ~chi_1+ nu_taub tau-)
     4.39809787E-08    3    -1000024        16       -15   # BR(~chi_20 -> ~chi_1- nu_tau  tau+)
#
#         PDG            Width
DECAY   1000025     2.32707207E-04   # neutralino3 decays
#          BR         NDA      ID1       ID2
     3.61125135E-04    2     1000022        22   # BR(~chi_30 -> ~chi_10 gam)
     7.92444532E-06    2     1000023        22   # BR(~chi_30 -> ~chi_20 gam)
#          BR         NDA      ID1       ID2
     1.53090511E-07    2     1000039        22   # BR(~chi_30 -> ~G        gam)
     1.32729560E-07    2     1000039        23   # BR(~chi_30 -> ~G        Z)
     3.70973358E-09    2     1000039        25   # BR(~chi_30 -> ~G        h)
#           BR         NDA      ID1       ID2       ID3
     9.27642834E-06    3     1000022        -2         2   # BR(~chi_30 -> ~chi_10 ub      u)
     1.10275980E-05    3     1000022        -1         1   # BR(~chi_30 -> ~chi_10 db      d)
     9.27642834E-06    3     1000022        -4         4   # BR(~chi_30 -> ~chi_10 cb      c)
     1.10275980E-05    3     1000022        -3         3   # BR(~chi_30 -> ~chi_10 sb      s)
     1.72035907E-05    3     1000022        -5         5   # BR(~chi_30 -> ~chi_10 bb      b)
     1.91664056E-06    3     1000022       -11        11   # BR(~chi_30 -> ~chi_10 e+      e-)
     1.91664056E-06    3     1000022       -13        13   # BR(~chi_30 -> ~chi_10 mu+     mu-)
     2.87344370E-06    3     1000022       -15        15   # BR(~chi_30 -> ~chi_10 tau+    tau-)
     5.40248750E-06    3     1000022       -12        12   # BR(~chi_30 -> ~chi_10 nu_eb   nu_e)
     5.40248750E-06    3     1000022       -14        14   # BR(~chi_30 -> ~chi_10 nu_mub  nu_mu)
     5.40248750E-06    3     1000022       -16        16   # BR(~chi_30 -> ~chi_10 nu_taub nu_tau)
     2.53581484E-02    3     1000023        -2         2   # BR(~chi_30 -> ~chi_20 ub      u)
     3.28331945E-02    3     1000023        -1         1   # BR(~chi_30 -> ~chi_20 db      d)
     2.53581484E-02    3     1000023        -4         4   # BR(~chi_30 -> ~chi_20 cb      c)
     3.28331945E-02    3     1000023        -3         3   # BR(~chi_30 -> ~chi_20 sb      s)
     2.86923106E-02    3     1000023        -5         5   # BR(~chi_30 -> ~chi_20 bb      b)
     7.49771968E-03    3     1000023       -11        11   # BR(~chi_30 -> ~chi_20 e+      e-)
     7.49771968E-03    3     1000023       -13        13   # BR(~chi_30 -> ~chi_20 mu+     mu-)
     7.39738991E-03    3     1000023       -15        15   # BR(~chi_30 -> ~chi_20 tau+    tau-)
     1.49727096E-02    3     1000023       -12        12   # BR(~chi_30 -> ~chi_20 nu_eb   nu_e)
     1.49727096E-02    3     1000023       -14        14   # BR(~chi_30 -> ~chi_20 nu_mub  nu_mu)
     1.49727096E-02    3     1000023       -16        16   # BR(~chi_30 -> ~chi_20 nu_taub nu_tau)
     1.31318727E-01    3     1000024        -2         1   # BR(~chi_30 -> ~chi_1+ ub      d)
     1.31318727E-01    3    -1000024        -1         2   # BR(~chi_30 -> ~chi_1- db      u)
     1.31318727E-01    3     1000024        -4         3   # BR(~chi_30 -> ~chi_1+ cb      s)
     1.31318727E-01    3    -1000024        -3         4   # BR(~chi_30 -> ~chi_1- sb      c)
     4.37728436E-02    3     1000024       -12        11   # BR(~chi_30 -> ~chi_1+ nu_eb   e-)
     4.37728436E-02    3    -1000024        12       -11   # BR(~chi_30 -> ~chi_1- nu_e    e+)
     4.37728436E-02    3     1000024       -14        13   # BR(~chi_30 -> ~chi_1+ nu_mub  mu-)
     4.37728436E-02    3    -1000024        14       -13   # BR(~chi_30 -> ~chi_1- nu_mu   mu+)
     4.33988487E-02    3     1000024       -16        15   # BR(~chi_30 -> ~chi_1+ nu_taub tau-)
     4.33988487E-02    3    -1000024        16       -15   # BR(~chi_30 -> ~chi_1- nu_tau  tau+)
#
#         PDG            Width
DECAY   1000035     3.73863727E+01   # neutralino4 decays
#          BR         NDA      ID1       ID2
     1.03868472E-03    2     1000022        23   # BR(~chi_40 -> ~chi_10   Z )
     2.49971787E-01    2     1000023        23   # BR(~chi_40 -> ~chi_20   Z )
     1.18887902E-03    2     1000025        23   # BR(~chi_40 -> ~chi_30   Z )
     2.45542329E-01    2     1000024       -24   # BR(~chi_40 -> ~chi_1+   W-)
     2.45542329E-01    2    -1000024        24   # BR(~chi_40 -> ~chi_1-   W+)
     1.16456366E-01    2     1000022        25   # BR(~chi_40 -> ~chi_10   h )
     7.41639742E-04    2     1000022        35   # BR(~chi_40 -> ~chi_10   H )
     3.07096931E-04    2     1000022        36   # BR(~chi_40 -> ~chi_10   A )
     2.19808018E-03    2     1000023        25   # BR(~chi_40 -> ~chi_20   h )
     1.42405443E-05    2     1000023        35   # BR(~chi_40 -> ~chi_20   H )
     6.36994857E-04    2     1000023        36   # BR(~chi_40 -> ~chi_20   A )
     1.34890284E-01    2     1000025        25   # BR(~chi_40 -> ~chi_30   h )
     7.35645068E-04    2     1000024       -37   # BR(~chi_40 -> ~chi_1+   H-)
     7.35645068E-04    2    -1000024        37   # BR(~chi_40 -> ~chi_1-   H+)
     8.34434834E-11    2     1000039        22   # BR(~chi_40 -> ~G        gam)
     2.64261790E-10    2     1000039        23   # BR(~chi_40 -> ~G        Z)
     2.12214450E-14    2     1000039        25   # BR(~chi_40 -> ~G        h)
     2.91268254E-14    2     1000039        35   # BR(~chi_40 -> ~G        H)
     3.39935554E-16    2     1000039        36   # BR(~chi_40 -> ~G        A)
#
#         PDG            Width
DECAY        25     4.21829806E-03   # h decays
#          BR         NDA      ID1       ID2
     6.01857610E-01    2           5        -5   # BR(h -> b       bb     )
     6.22394579E-02    2         -15        15   # BR(h -> tau+    tau-   )
     2.20300547E-04    2         -13        13   # BR(h -> mu+     mu-    )
     4.66113398E-04    2           3        -3   # BR(h -> s       sb     )
     2.01091606E-02    2           4        -4   # BR(h -> c       cb     )
     6.64087814E-02    2          21        21   # BR(h -> g       g      )
     2.30784512E-03    2          22        22   # BR(h -> gam     gam    )
     1.62663154E-03    2          22        23   # BR(h -> Z       gam    )
     2.16682744E-01    2          24       -24   # BR(h -> W+      W-     )
     2.80813553E-02    2          23        23   # BR(h -> Z       Z      )
#
#         PDG            Width
DECAY        35     3.78113165E+01   # H decays
#          BR         NDA      ID1       ID2
     1.47215081E-03    2           5        -5   # BR(H -> b       bb     )
     2.46429041E-04    2         -15        15   # BR(H -> tau+    tau-   )
     8.71218406E-07    2         -13        13   # BR(H -> mu+     mu-    )
     1.11547234E-06    2           3        -3   # BR(H -> s       sb     )
     1.00667754E-05    2           4        -4   # BR(H -> c       cb     )
     9.96062845E-01    2           6        -6   # BR(H -> t       tb     )
     7.97750484E-04    2          21        21   # BR(H -> g       g      )
     2.70806269E-06    2          22        22   # BR(H -> gam     gam    )
     1.15986303E-06    2          23        22   # BR(H -> Z       gam    )
     3.34310628E-04    2          24       -24   # BR(H -> W+      W-     )
     1.66699405E-04    2          23        23   # BR(H -> Z       Z      )
     9.03893398E-04    2          25        25   # BR(H -> h       h      )
     8.07835534E-24    2          36        36   # BR(H -> A       A      )
     3.23439485E-11    2          23        36   # BR(H -> Z       A      )
     7.11098237E-12    2          24       -37   # BR(H -> W+      H-     )
     7.11098237E-12    2         -24        37   # BR(H -> W-      H+     )
#
#         PDG            Width
DECAY        36     3.82382610E+01   # A decays
#          BR         NDA      ID1       ID2
     1.47503723E-03    2           5        -5   # BR(A -> b       bb     )
     2.43897503E-04    2         -15        15   # BR(A -> tau+    tau-   )
     8.62265780E-07    2         -13        13   # BR(A -> mu+     mu-    )
     1.13677295E-06    2           3        -3   # BR(A -> s       sb     )
     9.96175596E-06    2           4        -4   # BR(A -> c       cb     )
     9.96995104E-01    2           6        -6   # BR(A -> t       tb     )
     9.43674807E-04    2          21        21   # BR(A -> g       g      )
     3.21134273E-06    2          22        22   # BR(A -> gam     gam    )
     1.35243085E-06    2          23        22   # BR(A -> Z       gam    )
     3.25762181E-04    2          23        25   # BR(A -> Z       h      )
#
#         PDG            Width
DECAY        37     3.74481371E+01   # H+ decays
#          BR         NDA      ID1       ID2
     2.36655929E-06    2           4        -5   # BR(H+ -> c       bb     )
     2.49237646E-04    2         -15        16   # BR(H+ -> tau+    nu_tau )
     8.81145113E-07    2         -13        14   # BR(H+ -> mu+     nu_mu  )
     1.50460935E-08    2           2        -5   # BR(H+ -> u       bb     )
     5.45692602E-08    2           2        -3   # BR(H+ -> u       sb     )
     1.08731319E-05    2           4        -3   # BR(H+ -> c       sb     )
     9.99402685E-01    2           6        -5   # BR(H+ -> t       bb     )
     3.33886565E-04    2          24        25   # BR(H+ -> W+      h      )
     3.23258405E-13    2          24        36   # BR(H+ -> W+      A      )
