#
#                              ======================
#                              | THE SUSYHIT OUTPUT |
#                              ======================
#
#
#              ------------------------------------------------------
#              |     This is the output of the SUSY-HIT package     |
#              |  created by A.Djouadi, M.Muehlleitner and M.Spira. |
#              |  In case of problems with SUSY-HIT email to        |
#              |           margarete.muehlleitner@kit.edu           |
#              |           michael.spira@psi.ch                     |
#              |           abdelhak.djouadi@cern.ch                 |
#              ------------------------------------------------------
#
#              ------------------------------------------------------
#              |  SUSY Les Houches Accord - MSSM Spectrum + Decays  |
#              |              based on the decay programs           |
#              |                                                    |
#              |                     SDECAY 1.5                     |
#              |                                                    |
#              |  Authors: M.Muhlleitner, A.Djouadi and Y.Mambrini  |
#              |  Ref.:    Comput.Phys.Commun.168(2005)46           |
#              |           [hep-ph/0311167]                         |
#              |                                                    |
#              |                     HDECAY 3.4                     |
#              |                                                    |
#              |  By: A.Djouadi,J.Kalinowski,M.Muhlleitner,M.Spira  |
#              |  Ref.:    Comput.Phys.Commun.108(1998)56           |
#              |           [hep-ph/9704448]                         |
#              |                                                    |
#              |                                                    |
#              |  If not stated otherwise all DRbar couplings and   |
#              |  soft SUSY breaking masses are given at the scale  |
#              |  Q=  0.91187600E+02
#              |                                                    |
#              ------------------------------------------------------
#
#
BLOCK DCINFO  # Decay Program information
     1   SDECAY/HDECAY # decay calculator
     2   1.5  /3.4    # version number
#
BLOCK SPINFO  # Spectrum calculator information
     1   SuSpect     # RGE +Spectrum calculator            
     2   2.43         # version number                     
#
BLOCK MODSEL  # Model selection
     1     2   # GMSB                                              
#
BLOCK SMINPUTS  # Standard Model inputs
         1     1.27932904E+02   # alpha_em^-1(M_Z)^MSbar
         2     1.16639000E-05   # G_F [GeV^-2]
         3     1.17200000E-01   # alpha_S(M_Z)^MSbar
         4     9.11870000E+01   # M_Z pole mass
         5     4.25000000E+00   # mb(mb)^MSbar
         6     1.72900000E+02   # mt pole mass
         7     1.77700000E+00   # mtau pole mass
#
BLOCK MINPAR  # Input parameters - minimal models
#
BLOCK EXTPAR  # Input parameters - non-minimal models
         0     9.11876000E+01   # EWSB                
         1     4.63000000E+02   # M_1                 
         2     3.00000000E+03   # M_2                 
         3     1.00000000E+03   # M_3                 
        11     0.00000000E+00   # A_t                 
        12     0.00000000E+00   # A_b                 
        13     0.00000000E+00   # A_tau               
        14     0.00000000E+00   # A_u                 
        15     0.00000000E+00   # A_d                 
        16     0.00000000E+00   # A_e                 
        23     4.50000000E+02   # mu(EWSB)            
        25     1.50000000E+00   # tanbeta(in)         
        26     2.00000000E+03   # MA_pole             
        31     5.00000000E+03   # M_eL                
        32     5.00000000E+03   # M_muL               
        33     5.00000000E+03   # M_tauL              
        34     5.00000000E+03   # M_eR                
        35     5.00000000E+03   # M_muR               
        36     5.00000000E+03   # M_tauR              
        41     5.00000000E+03   # M_q1L               
        42     5.00000000E+03   # M_q2L               
        43     5.00000000E+03   # M_q3L               
        44     5.00000000E+03   # M_uR                
        45     5.00000000E+03   # M_cR                
        46     5.00000000E+03   # M_tR                
        47     5.00000000E+03   # M_dR                
        48     5.00000000E+03   # M_sR                
        49     5.00000000E+03   # M_bR                
#
BLOCK MASS  # Mass Spectrum
# PDG code           mass       particle
        24     8.05385995E+01   # W+
        25     1.26000000E+02   # h
        35     2.00418504E+03   # H
        36     2.00000000E+03   # A
        37     2.00203823E+03   # H+
         5     4.87877839E+00   # b-quark pole mass calculated from mb(mb)_Msbar
   1000001     5.02256744E+03   # ~d_L
   2000001     5.02245820E+03   # ~d_R
   1000002     5.02232328E+03   # ~u_L
   2000002     5.02238115E+03   # ~u_R
   1000003     5.02256744E+03   # ~s_L
   2000003     5.02245820E+03   # ~s_R
   1000004     5.02232328E+03   # ~c_L
   2000004     5.02238115E+03   # ~c_R
   1000005     5.02232165E+03   # ~b_1
   2000005     5.02270546E+03   # ~b_2
   1000006     5.15075951E+03   # ~t_1
   2000006     5.44717194E+03   # ~t_2
   1000011     5.00008241E+03   # ~e_L
   2000011     5.00007600E+03   # ~e_R
   1000012     4.99984158E+03   # ~nu_eL
   1000013     5.00008241E+03   # ~mu_L
   2000013     5.00007600E+03   # ~mu_R
   1000014     4.99984158E+03   # ~nu_muL
   1000015     4.99995950E+03   # ~tau_1
   2000015     5.00019955E+03   # ~tau_2
   1000016     4.99984158E+03   # ~nu_tauL
   1000021     1.14584688E+03   # ~g
   1000022     4.42327120E+02   # ~chi_10
   1000023    -4.84121884E+02   # ~chi_20
   1000025     5.29902633E+02   # ~chi_30
   1000035     3.12901574E+03   # ~chi_40
   1000024     4.81767068E+02   # ~chi_1+
   1000037     3.12901518E+03   # ~chi_2+
   1000039     1.75833333E-08   # ~gravitino
#
BLOCK NMIX  # Neutralino Mixing Matrix
  1  1     6.70489581E-01   # N_11
  1  2    -2.13974736E-02   # N_12
  1  3     5.29092008E-01   # N_13
  1  4    -5.19660963E-01   # N_14
  2  1     8.97840798E-03   # N_21
  2  2    -4.31375571E-03   # N_22
  2  3    -7.06541166E-01   # N_23
  2  4    -7.07601837E-01   # N_24
  3  1     7.41864449E-01   # N_31
  3  2     2.00630051E-02   # N_32
  3  3    -4.69625193E-01   # N_33
  3  4     4.78212079E-01   # N_34
  4  1     4.98735724E-04   # N_41
  4  2    -9.99560411E-01   # N_42
  4  3    -1.77032611E-02   # N_43
  4  4     2.37766766E-02   # N_44
#
BLOCK UMIX  # Chargino Mixing Matrix U
  1  1    -2.50272229E-02   # U_11
  1  2     9.99686770E-01   # U_12
  2  1     9.99686770E-01   # U_21
  2  2     2.50272229E-02   # U_22
#
BLOCK VMIX  # Chargino Mixing Matrix V
  1  1    -3.36193400E-02   # V_11
  1  2     9.99434710E-01   # V_12
  2  1     9.99434710E-01   # V_21
  2  2     3.36193400E-02   # V_22
#
BLOCK STOPMIX  # Stop Mixing Matrix
  1  1     9.99962238E-01   # cos(theta_t)
  1  2    -8.69037249E-03   # sin(theta_t)
  2  1     8.69037249E-03   # -sin(theta_t)
  2  2     9.99962238E-01   # cos(theta_t)
#
BLOCK SBOTMIX  # Sbottom Mixing Matrix
  1  1     5.98073269E-01   # cos(theta_b)
  1  2     8.01441429E-01   # sin(theta_b)
  2  1    -8.01441429E-01   # -sin(theta_b)
  2  2     5.98073269E-01   # cos(theta_b)
#
BLOCK STAUMIX  # Stau Mixing Matrix
  1  1     6.97597957E-01   # cos(theta_tau)
  1  2     7.16489421E-01   # sin(theta_tau)
  2  1    -7.16489421E-01   # -sin(theta_tau)
  2  2     6.97597957E-01   # cos(theta_tau)
#
BLOCK ALPHA  # Higgs mixing
          -5.90197377E-01   # Mixing angle in the neutral Higgs boson sector
#
BLOCK HMIX Q=  9.11876000E+01  # DRbar Higgs Parameters
         1     4.50000000E+02   # mu(Q)               
         2     1.49999979E+00   # tanbeta(Q)          
         3     2.51884030E+02   # vev(Q)              
         4     3.77643204E+06   # MA^2(Q)             
#
BLOCK GAUGE Q=  9.11876000E+01  # The gauge couplings
     1     3.52960440E-01   # gprime(Q) DRbar
     2     6.28304912E-01   # g(Q) DRbar
     3     1.09169861E+00   # g3(Q) DRbar
#
BLOCK AU Q=  9.11876000E+01  # The trilinear couplings
  1  1     0.00000000E+00   # A_u(Q) DRbar
  2  2     0.00000000E+00   # A_c(Q) DRbar
  3  3     0.00000000E+00   # A_t(Q) DRbar
#
BLOCK AD Q=  9.11876000E+01  # The trilinear couplings
  1  1     0.00000000E+00   # A_d(Q) DRbar
  2  2     0.00000000E+00   # A_s(Q) DRbar
  3  3     0.00000000E+00   # A_b(Q) DRbar
#
BLOCK AE Q=  9.11876000E+01  # The trilinear couplings
  1  1     0.00000000E+00   # A_e(Q) DRbar
  2  2     0.00000000E+00   # A_mu(Q) DRbar
  3  3     0.00000000E+00   # A_tau(Q) DRbar
#
BLOCK Yu Q=  9.11876000E+01  # The Yukawa couplings
  1  1     0.00000000E+00   # y_u(Q) DRbar
  2  2     0.00000000E+00   # y_c(Q) DRbar
  3  3     1.02548806E+00   # y_t(Q) DRbar
#
BLOCK Yd Q=  9.11876000E+01  # The Yukawa couplings
  1  1     0.00000000E+00   # y_d(Q) DRbar
  2  2     0.00000000E+00   # y_s(Q) DRbar
  3  3     2.72098263E-02   # y_b(Q) DRbar
#
BLOCK Ye Q=  9.11876000E+01  # The Yukawa couplings
  1  1     0.00000000E+00   # y_e(Q) DRbar
  2  2     0.00000000E+00   # y_mu(Q) DRbar
  3  3     1.79918315E-02   # y_tau(Q) DRbar
#
BLOCK MSOFT Q=  9.11876000E+01  # The soft SUSY breaking masses at the scale Q
         1     4.63000000E+02   # M_1                 
         2     3.00000000E+03   # M_2                 
         3     1.00000000E+03   # M_3                 
        14     0.00000000E+00   # A_u                 
        15     0.00000000E+00   # A_d                 
        16     0.00000000E+00   # A_e                 
        21     2.83481171E+06   # M^2_Hd              
        22    -5.68528635E+06   # M^2_Hu              
        31     5.00000000E+03   # M_eL                
        32     5.00000000E+03   # M_muL               
        33     5.00000000E+03   # M_tauL              
        34     5.00000000E+03   # M_eR                
        35     5.00000000E+03   # M_muR               
        36     5.00000000E+03   # M_tauR              
        41     5.00000000E+03   # M_q1L               
        42     5.00000000E+03   # M_q2L               
        43     5.00000000E+03   # M_q3L               
        44     5.00000000E+03   # M_uR                
        45     5.00000000E+03   # M_cR                
        46     5.00000000E+03   # M_tR                
        47     5.00000000E+03   # M_dR                
        48     5.00000000E+03   # M_sR                
        49     5.00000000E+03   # M_bR                
#
#
#
#                             =================
#                             |The decay table|
#                             =================
#
# - The QCD corrections to the decays gluino -> squark  + quark
#                                     squark -> gaugino + quark_prime
#                                     squark -> squark_prime + Higgs
#                                     squark -> gluino  + quark
#   are included.
#
# - The multi-body decays for the inos, stops and sbottoms are included.
#
# - The loop induced decays for the gluino, neutralinos and stops
#   are included.
#
# - The SUSY decays of the top quark are included.
#
# - Possible decays of the NLSP in GMSB models are included.
#
#
#         PDG            Width
DECAY         6     1.37553306E+00   # top decays
#          BR         NDA      ID1       ID2
     1.00000000E+00    2           5        24   # BR(t ->  b    W+)
#
#         PDG            Width
DECAY   1000021     4.56414637E-05   # gluino decays
#          BR         NDA      ID1       ID2
     3.58823119E-02    2     1000022        21   # BR(~g -> ~chi_10 g)
     5.96854179E-02    2     1000023        21   # BR(~g -> ~chi_20 g)
     2.34363933E-02    2     1000025        21   # BR(~g -> ~chi_30 g)
#          BR         NDA      ID1       ID2
     1.61160037E-04    2     1000039        21   # BR(~g -> ~G      g)
#           BR         NDA      ID1       ID2       ID3
     7.22904802E-03    3     1000022         1        -1   # BR(~g -> ~chi_10 d  db)
     1.33157747E-06    3     1000023         1        -1   # BR(~g -> ~chi_20 d  db)
     4.96309646E-03    3     1000025         1        -1   # BR(~g -> ~chi_30 d  db)
     2.24679044E-02    3     1000022         2        -2   # BR(~g -> ~chi_10 u  ub)
     1.47014254E-06    3     1000023         2        -2   # BR(~g -> ~chi_20 u  ub)
     1.81564776E-02    3     1000025         2        -2   # BR(~g -> ~chi_30 u  ub)
     7.22904802E-03    3     1000022         3        -3   # BR(~g -> ~chi_10 s  sb)
     1.33157747E-06    3     1000023         3        -3   # BR(~g -> ~chi_20 s  sb)
     4.96309646E-03    3     1000025         3        -3   # BR(~g -> ~chi_30 s  sb)
     2.24679044E-02    3     1000022         4        -4   # BR(~g -> ~chi_10 c  cb)
     1.47014254E-06    3     1000023         4        -4   # BR(~g -> ~chi_20 c  cb)
     1.81564776E-02    3     1000025         4        -4   # BR(~g -> ~chi_30 c  cb)
     7.35223883E-03    3     1000022         5        -5   # BR(~g -> ~chi_10 b  bb)
     2.77251958E-04    3     1000023         5        -5   # BR(~g -> ~chi_20 b  bb)
     5.09407402E-03    3     1000025         5        -5   # BR(~g -> ~chi_30 b  bb)
     1.01598523E-01    3     1000022         6        -6   # BR(~g -> ~chi_10 t  tb)
     1.18574436E-01    3     1000023         6        -6   # BR(~g -> ~chi_20 t  tb)
     7.06142031E-02    3     1000025         6        -6   # BR(~g -> ~chi_30 t  tb)
     1.22537238E-04    3     1000024         1        -2   # BR(~g -> ~chi_1+ d  ub)
     1.22537238E-04    3    -1000024         2        -1   # BR(~g -> ~chi_1- u  db)
     1.22537238E-04    3     1000024         3        -4   # BR(~g -> ~chi_1+ s  cb)
     1.22537238E-04    3    -1000024         4        -3   # BR(~g -> ~chi_1- c  sb)
     2.35597592E-01    3     1000024         5        -6   # BR(~g -> ~chi_1+ b  tb)
     2.35597592E-01    3    -1000024         6        -5   # BR(~g -> ~chi_1- t  bb)
#
#         PDG            Width
DECAY   1000006     3.40637028E+02   # stop1 decays
#          BR         NDA      ID1       ID2
     5.72152782E-02    2     1000022         6   # BR(~t_1 -> ~chi_10 t )
     1.06549871E-01    2     1000023         6   # BR(~t_1 -> ~chi_20 t )
     5.09165934E-02    2     1000025         6   # BR(~t_1 -> ~chi_30 t )
     2.29802659E-02    2     1000035         6   # BR(~t_1 -> ~chi_40 t )
     1.03899700E-04    2     1000024         5   # BR(~t_1 -> ~chi_1+ b )
     4.57878791E-02    2     1000037         5   # BR(~t_1 -> ~chi_2+ b )
     7.01589930E-01    2     1000021         6   # BR(~t_1 -> ~g      t )
     5.36412819E-03    2     1000005        24   # BR(~t_1 -> ~b_1    W+)
     9.49215541E-03    2     2000005        24   # BR(~t_1 -> ~b_2    W+)
#
#         PDG            Width
DECAY   2000006     4.18081367E+02   # stop2 decays
#          BR         NDA      ID1       ID2
     6.29512575E-02    2     1000022         6   # BR(~t_2 -> ~chi_10 t )
     9.22838177E-02    2     1000023         6   # BR(~t_2 -> ~chi_20 t )
     5.62689477E-02    2     1000025         6   # BR(~t_2 -> ~chi_30 t )
     1.87147261E-06    2     1000035         6   # BR(~t_2 -> ~chi_40 t )
     1.84637489E-01    2     1000024         5   # BR(~t_2 -> ~chi_1+ b )
     3.95672641E-06    2     1000037         5   # BR(~t_2 -> ~chi_2+ b )
     6.03816514E-01    2     1000021         6   # BR(~t_2 -> ~g      t )
    -3.04350874E-05    2     1000006        25   # BR(~t_2 -> ~t_1    h )
     9.71709936E-06    2     1000006        23   # BR(~t_2 -> ~t_1    Z )
     2.03545271E-05    2     1000005        24   # BR(~t_2 -> ~b_1    W+)
     3.65097263E-05    2     2000005        24   # BR(~t_2 -> ~b_2    W+)
#
#         PDG            Width
DECAY   1000005     2.54640451E+02   # sbottom1 decays
#          BR         NDA      ID1       ID2
     4.68460940E-03    2     1000022         5   # BR(~b_1 -> ~chi_10 b )
     7.72298074E-05    2     1000023         5   # BR(~b_1 -> ~chi_20 b )
     3.95843601E-03    2     1000025         5   # BR(~b_1 -> ~chi_30 b )
     6.72126936E-03    2     1000035         5   # BR(~b_1 -> ~chi_40 b )
     5.36287754E-02    2    -1000024         6   # BR(~b_1 -> ~chi_1- t )
     1.34883930E-02    2    -1000037         6   # BR(~b_1 -> ~chi_2- t )
     9.17441287E-01    2     1000021         5   # BR(~b_1 -> ~g      b )
#
#         PDG            Width
DECAY   2000005     3.08163063E+02   # sbottom2 decays
#          BR         NDA      ID1       ID2
     1.37701393E-03    2     1000022         5   # BR(~b_2 -> ~chi_10 b )
     1.01531443E-04    2     1000023         5   # BR(~b_2 -> ~chi_20 b )
     2.32627910E-03    2     1000025         5   # BR(~b_2 -> ~chi_30 b )
     1.76388422E-02    2     1000035         5   # BR(~b_2 -> ~chi_40 b )
     1.85176214E-01    2    -1000024         6   # BR(~b_2 -> ~chi_1- t )
     3.54122585E-02    2    -1000037         6   # BR(~b_2 -> ~chi_2- t )
     7.57967861E-01    2     1000021         5   # BR(~b_2 -> ~g      b )
#
#         PDG            Width
DECAY   1000002     2.55733931E+02   # sup_L decays
#          BR         NDA      ID1       ID2
     7.96342441E-04    2     1000022         2   # BR(~u_L -> ~chi_10 u)
     5.07151247E-07    2     1000023         2   # BR(~u_L -> ~chi_20 u)
     1.84282509E-03    2     1000025         2   # BR(~u_L -> ~chi_30 u)
     2.79314494E-02    2     1000035         2   # BR(~u_L -> ~chi_40 u)
     1.65457925E-04    2     1000024         1   # BR(~u_L -> ~chi_1+ d)
     5.58593124E-02    2     1000037         1   # BR(~u_L -> ~chi_2+ d)
     9.13404106E-01    2     1000021         2   # BR(~u_L -> ~g      u)
#
#         PDG            Width
DECAY   2000002     2.44084743E+02   # sup_R decays
#          BR         NDA      ID1       ID2
     1.93982520E-02    2     1000022         2   # BR(~u_R -> ~chi_10 u)
     3.46769442E-06    2     1000023         2   # BR(~u_R -> ~chi_20 u)
     2.35875983E-02    2     1000025         2   # BR(~u_R -> ~chi_30 u)
     4.08838179E-09    2     1000035         2   # BR(~u_R -> ~chi_40 u)
     9.57010678E-01    2     1000021         2   # BR(~u_R -> ~g      u)
#
#         PDG            Width
DECAY   1000001     2.55736898E+02   # sdown_L decays
#          BR         NDA      ID1       ID2
     1.58523818E-03    2     1000022         1   # BR(~d_L -> ~chi_10 d)
     2.63025278E-06    2     1000023         1   # BR(~d_L -> ~chi_20 d)
     1.03002037E-03    2     1000025         1   # BR(~d_L -> ~chi_30 d)
     2.79463449E-02    2     1000035         1   # BR(~d_L -> ~chi_40 d)
     9.16962243E-05    2    -1000024         2   # BR(~d_L -> ~chi_1- u)
     5.58964017E-02    2    -1000037         2   # BR(~d_L -> ~chi_2- u)
     9.13447668E-01    2     1000021         1   # BR(~d_L -> ~g      d)
#
#         PDG            Width
DECAY   2000001     2.36219378E+02   # sdown_R decays
#          BR         NDA      ID1       ID2
     5.01111778E-03    2     1000022         1   # BR(~d_R -> ~chi_10 d)
     8.95803744E-07    2     1000023         1   # BR(~d_R -> ~chi_20 d)
     6.09334582E-03    2     1000025         1   # BR(~d_R -> ~chi_30 d)
     1.05618502E-09    2     1000035         1   # BR(~d_R -> ~chi_40 d)
     9.88894640E-01    2     1000021         1   # BR(~d_R -> ~g      d)
#
#         PDG            Width
DECAY   1000004     2.55733931E+02   # scharm_L decays
#          BR         NDA      ID1       ID2
     7.96342441E-04    2     1000022         4   # BR(~c_L -> ~chi_10 c)
     5.07151247E-07    2     1000023         4   # BR(~c_L -> ~chi_20 c)
     1.84282509E-03    2     1000025         4   # BR(~c_L -> ~chi_30 c)
     2.79314494E-02    2     1000035         4   # BR(~c_L -> ~chi_40 c)
     1.65457925E-04    2     1000024         3   # BR(~c_L -> ~chi_1+ s)
     5.58593124E-02    2     1000037         3   # BR(~c_L -> ~chi_2+ s)
     9.13404106E-01    2     1000021         4   # BR(~c_L -> ~g      c)
#
#         PDG            Width
DECAY   2000004     2.44084743E+02   # scharm_R decays
#          BR         NDA      ID1       ID2
     1.93982520E-02    2     1000022         4   # BR(~c_R -> ~chi_10 c)
     3.46769442E-06    2     1000023         4   # BR(~c_R -> ~chi_20 c)
     2.35875983E-02    2     1000025         4   # BR(~c_R -> ~chi_30 c)
     4.08838179E-09    2     1000035         4   # BR(~c_R -> ~chi_40 c)
     9.57010678E-01    2     1000021         4   # BR(~c_R -> ~g      c)
#
#         PDG            Width
DECAY   1000003     2.55736898E+02   # sstrange_L decays
#          BR         NDA      ID1       ID2
     1.58523818E-03    2     1000022         3   # BR(~s_L -> ~chi_10 s)
     2.63025278E-06    2     1000023         3   # BR(~s_L -> ~chi_20 s)
     1.03002037E-03    2     1000025         3   # BR(~s_L -> ~chi_30 s)
     2.79463449E-02    2     1000035         3   # BR(~s_L -> ~chi_40 s)
     9.16962243E-05    2    -1000024         4   # BR(~s_L -> ~chi_1- c)
     5.58964017E-02    2    -1000037         4   # BR(~s_L -> ~chi_2- c)
     9.13447668E-01    2     1000021         3   # BR(~s_L -> ~g      s)
#
#         PDG            Width
DECAY   2000003     2.36219378E+02   # sstrange_R decays
#          BR         NDA      ID1       ID2
     5.01111778E-03    2     1000022         3   # BR(~s_R -> ~chi_10 s)
     8.95803744E-07    2     1000023         3   # BR(~s_R -> ~chi_20 s)
     6.09334582E-03    2     1000025         3   # BR(~s_R -> ~chi_30 s)
     1.05618502E-09    2     1000035         3   # BR(~s_R -> ~chi_40 s)
     9.88894640E-01    2     1000021         3   # BR(~s_R -> ~g      s)
#
#         PDG            Width
DECAY   1000011     2.79086665E+01   # selectron_L decays
#          BR         NDA      ID1       ID2
     8.74077056E-02    2     1000022        11   # BR(~e_L -> ~chi_10 e-)
     3.67921988E-07    2     1000023        11   # BR(~e_L -> ~chi_20 e-)
     1.31240580E-01    2     1000025        11   # BR(~e_L -> ~chi_30 e-)
     2.60020952E-01    2     1000035        11   # BR(~e_L -> ~chi_40 e-)
     8.65033833E-04    2    -1000024        12   # BR(~e_L -> ~chi_1- nu_e)
     5.20465361E-01    2    -1000037        12   # BR(~e_L -> ~chi_2- nu_e)
#
#         PDG            Width
DECAY   2000011     2.43065466E+01   # selectron_R decays
#          BR         NDA      ID1       ID2
     4.51258499E-01    2     1000022        11   # BR(~e_R -> ~chi_10 e-)
     8.06646167E-05    2     1000023        11   # BR(~e_R -> ~chi_20 e-)
     5.48660742E-01    2     1000025        11   # BR(~e_R -> ~chi_30 e-)
     9.38771035E-08    2     1000035        11   # BR(~e_R -> ~chi_40 e-)
#
#         PDG            Width
DECAY   1000013     2.79086665E+01   # smuon_L decays
#          BR         NDA      ID1       ID2
     8.74077056E-02    2     1000022        13   # BR(~mu_L -> ~chi_10 mu-)
     3.67921988E-07    2     1000023        13   # BR(~mu_L -> ~chi_20 mu-)
     1.31240580E-01    2     1000025        13   # BR(~mu_L -> ~chi_30 mu-)
     2.60020952E-01    2     1000035        13   # BR(~mu_L -> ~chi_40 mu-)
     8.65033833E-04    2    -1000024        14   # BR(~mu_L -> ~chi_1- nu_mu)
     5.20465361E-01    2    -1000037        14   # BR(~mu_L -> ~chi_2- nu_mu)
#
#         PDG            Width
DECAY   2000013     2.43065466E+01   # smuon_R decays
#          BR         NDA      ID1       ID2
     4.51258499E-01    2     1000022        13   # BR(~mu_R -> ~chi_10 mu-)
     8.06646167E-05    2     1000023        13   # BR(~mu_R -> ~chi_20 mu-)
     5.48660742E-01    2     1000025        13   # BR(~mu_R -> ~chi_30 mu-)
     9.38771035E-08    2     1000035        13   # BR(~mu_R -> ~chi_40 mu-)
#
#         PDG            Width
DECAY   1000015     2.61337135E+01   # stau_1 decays
#          BR         NDA      ID1       ID2
     2.67536307E-01    2     1000022        15   # BR(~tau_1 -> ~chi_10  tau-)
     4.44991097E-04    2     1000023        15   # BR(~tau_1 -> ~chi_20  tau-)
     3.24910278E-01    2     1000025        15   # BR(~tau_1 -> ~chi_30  tau-)
     1.34920540E-01    2     1000035        15   # BR(~tau_1 -> ~chi_40  tau-)
     2.12620738E-03    2    -1000024        16   # BR(~tau_1 -> ~chi_1-  nu_tau)
     2.70061232E-01    2    -1000037        16   # BR(~tau_1 -> ~chi_2-  nu_tau)
     4.45261654E-07    2     1000039        15   # BR(~tau_1 -> ~G       tau-)
#
#         PDG            Width
DECAY   2000015     2.61762963E+01   # stau_2 decays
#          BR         NDA      ID1       ID2
     2.45793616E-01    2     1000022        15   # BR(~tau_2 -> ~chi_10  tau-)
     8.36249647E-04    2     1000023        15   # BR(~tau_2 -> ~chi_20  tau-)
     3.25546344E-01    2     1000025        15   # BR(~tau_2 -> ~chi_30  tau-)
     1.42528883E-01    2     1000035        15   # BR(~tau_2 -> ~chi_40  tau-)
     6.11631443E-06    2    -1000024        16   # BR(~tau_2 -> ~chi_1-  nu_tau)
     2.85288791E-01    2    -1000037        16   # BR(~tau_2 -> ~chi_2-  nu_tau)
#
#         PDG            Width
DECAY   1000012     2.79076214E+01   # snu_eL decays
#          BR         NDA      ID1       ID2
     1.09733088E-01    2     1000022        12   # BR(~nu_eL -> ~chi_10 nu_e)
     6.04524952E-05    2     1000023        12   # BR(~nu_eL -> ~chi_20 nu_e)
     1.08235123E-01    2     1000025        12   # BR(~nu_eL -> ~chi_30 nu_e)
     2.60277573E-01    2     1000035        12   # BR(~nu_eL -> ~chi_40 nu_e)
     1.56092019E-03    2     1000024        11   # BR(~nu_eL -> ~chi_1+ e-)
     5.20132844E-01    2     1000037        11   # BR(~nu_eL -> ~chi_2+ e-)
#
#         PDG            Width
DECAY   1000014     2.79076214E+01   # snu_muL decays
#          BR         NDA      ID1       ID2
     1.09733088E-01    2     1000022        14   # BR(~nu_muL -> ~chi_10 nu_mu)
     6.04524952E-05    2     1000023        14   # BR(~nu_muL -> ~chi_20 nu_mu)
     1.08235123E-01    2     1000025        14   # BR(~nu_muL -> ~chi_30 nu_mu)
     2.60277573E-01    2     1000035        14   # BR(~nu_muL -> ~chi_40 nu_mu)
     1.56092019E-03    2     1000024        13   # BR(~nu_muL -> ~chi_1+ mu-)
     5.20132844E-01    2     1000037        13   # BR(~nu_muL -> ~chi_2+ mu-)
#
#         PDG            Width
DECAY   1000016     2.79392127E+01   # snu_tauL decays
#          BR         NDA      ID1       ID2
     1.09609011E-01    2     1000022        16   # BR(~nu_tauL -> ~chi_10 nu_tau)
     6.03841406E-05    2     1000023        16   # BR(~nu_tauL -> ~chi_20 nu_tau)
     1.08112739E-01    2     1000025        16   # BR(~nu_tauL -> ~chi_30 nu_tau)
     2.59983273E-01    2     1000035        16   # BR(~nu_tauL -> ~chi_40 nu_tau)
     2.68941411E-03    2     1000024        15   # BR(~nu_tauL -> ~chi_1+ tau-)
     5.19545179E-01    2     1000037        15   # BR(~nu_tauL -> ~chi_2+ tau-)
#
#         PDG            Width
DECAY   1000024     6.04833318E-05   # chargino1+ decays
#          BR         NDA      ID1       ID2
     7.16694215E-07    2     1000039        24   # BR(~chi_1+ -> ~G       W+)
#           BR         NDA      ID1       ID2       ID3
     3.33705219E-01    3     1000022         2        -1   # BR(~chi_1+ -> ~chi_10 u    db)
     3.33705219E-01    3     1000022         4        -3   # BR(~chi_1+ -> ~chi_10 c    sb)
     1.11235200E-01    3     1000022       -11        12   # BR(~chi_1+ -> ~chi_10 e+   nu_e)
     1.11235200E-01    3     1000022       -13        14   # BR(~chi_1+ -> ~chi_10 mu+  nu_mu)
     1.10118445E-01    3     1000022       -15        16   # BR(~chi_1+ -> ~chi_10 tau+ nu_tau)
#
#         PDG            Width
DECAY   1000037     3.50039419E+01   # chargino2+ decays
#          BR         NDA      ID1       ID2
     2.21821001E-01    2     1000024        23   # BR(~chi_2+ -> ~chi_1+  Z )
     1.12758687E-01    2     1000022        24   # BR(~chi_2+ -> ~chi_10  W+)
     2.16293907E-01    2     1000023        24   # BR(~chi_2+ -> ~chi_20  W+)
     1.03526755E-01    2     1000025        24   # BR(~chi_2+ -> ~chi_30  W+)
     2.22785025E-01    2     1000024        25   # BR(~chi_2+ -> ~chi_1+  h )
     3.05929046E-02    2     1000024        35   # BR(~chi_2+ -> ~chi_1+  H )
     3.08333065E-02    2     1000024        36   # BR(~chi_2+ -> ~chi_1+  A )
     1.80137811E-02    2     1000022        37   # BR(~chi_2+ -> ~chi_10  H+)
     3.05952093E-02    2     1000023        37   # BR(~chi_2+ -> ~chi_20  H+)
     1.27793917E-02    2     1000025        37   # BR(~chi_2+ -> ~chi_30  H+)
     3.18144419E-08    2     1000039        24   # BR(~chi_2+ -> ~G       W+)
     1.51697304E-12    2     1000039        37   # BR(~chi_2+ -> ~G       H+)
#
#         PDG            Width
DECAY   1000022     4.15491706E-11   # neutralino1 decays
#          BR         NDA      ID1       ID2
     5.00141322E-01    2     1000039        22   # BR(~chi_10 -> ~G        gam)
     4.89662793E-01    2     1000039        23   # BR(~chi_10 -> ~G        Z)
     1.01958845E-02    2     1000039        25   # BR(~chi_10 -> ~G        h)
#
#         PDG            Width
DECAY   1000023     6.53433228E-05   # neutralino2 decays
#          BR         NDA      ID1       ID2
     8.04254485E-04    2     1000022        22   # BR(~chi_20 -> ~chi_10 gam)
#          BR         NDA      ID1       ID2
     4.94988907E-11    2     1000039        22   # BR(~chi_20 -> ~G        gam)
     2.54975905E-08    2     1000039        23   # BR(~chi_20 -> ~G        Z)
     5.50946852E-07    2     1000039        25   # BR(~chi_20 -> ~G        h)
#           BR         NDA      ID1       ID2       ID3
     1.19126502E-01    3     1000022        -2         2   # BR(~chi_20 -> ~chi_10 ub      u)
     1.54214449E-01    3     1000022        -1         1   # BR(~chi_20 -> ~chi_10 db      d)
     1.19126502E-01    3     1000022        -4         4   # BR(~chi_20 -> ~chi_10 cb      c)
     1.54214449E-01    3     1000022        -3         3   # BR(~chi_20 -> ~chi_10 sb      s)
     1.36463442E-01    3     1000022        -5         5   # BR(~chi_20 -> ~chi_10 bb      b)
     3.52032026E-02    3     1000022       -11        11   # BR(~chi_20 -> ~chi_10 e+      e-)
     3.52032026E-02    3     1000022       -13        13   # BR(~chi_20 -> ~chi_10 mu+     mu-)
     3.47660408E-02    3     1000022       -15        15   # BR(~chi_20 -> ~chi_10 tau+    tau-)
     7.02917268E-02    3     1000022       -12        12   # BR(~chi_20 -> ~chi_10 nu_eb   nu_e)
     7.02917268E-02    3     1000022       -14        14   # BR(~chi_20 -> ~chi_10 nu_mub  nu_mu)
     7.02917268E-02    3     1000022       -16        16   # BR(~chi_20 -> ~chi_10 nu_taub nu_tau)
     4.10486203E-07    3     1000024        -2         1   # BR(~chi_20 -> ~chi_1+ ub      d)
     4.10486203E-07    3    -1000024        -1         2   # BR(~chi_20 -> ~chi_1- db      u)
     4.10486203E-07    3     1000024        -4         3   # BR(~chi_20 -> ~chi_1+ cb      s)
     4.10486203E-07    3    -1000024        -3         4   # BR(~chi_20 -> ~chi_1- sb      c)
     1.36828748E-07    3     1000024       -12        11   # BR(~chi_20 -> ~chi_1+ nu_eb   e-)
     1.36828748E-07    3    -1000024        12       -11   # BR(~chi_20 -> ~chi_1- nu_e    e+)
     1.36828748E-07    3     1000024       -14        13   # BR(~chi_20 -> ~chi_1+ nu_mub  mu-)
     1.36828748E-07    3    -1000024        14       -13   # BR(~chi_20 -> ~chi_1- nu_mu   mu+)
     4.83219997E-09    3     1000024       -16        15   # BR(~chi_20 -> ~chi_1+ nu_taub tau-)
     4.83219997E-09    3    -1000024        16       -15   # BR(~chi_20 -> ~chi_1- nu_tau  tau+)
#
#         PDG            Width
DECAY   1000025     3.75329851E-04   # neutralino3 decays
#          BR         NDA      ID1       ID2
     2.16764629E-04    2     1000022        22   # BR(~chi_30 -> ~chi_10 gam)
     5.19898172E-04    2     1000023        22   # BR(~chi_30 -> ~chi_20 gam)
#          BR         NDA      ID1       ID2
     1.78722593E-07    2     1000039        22   # BR(~chi_30 -> ~G        gam)
     1.23633372E-07    2     1000039        23   # BR(~chi_30 -> ~G        Z)
     3.03534733E-09    2     1000039        25   # BR(~chi_30 -> ~G        h)
#           BR         NDA      ID1       ID2       ID3
     3.87905200E-08    3     1000022        -2         2   # BR(~chi_30 -> ~chi_10 ub      u)
     5.07350308E-08    3     1000022        -1         1   # BR(~chi_30 -> ~chi_10 db      d)
     3.87905200E-08    3     1000022        -4         4   # BR(~chi_30 -> ~chi_10 cb      c)
     5.07350308E-08    3     1000022        -3         3   # BR(~chi_30 -> ~chi_10 sb      s)
     1.06132271E-06    3     1000022        -5         5   # BR(~chi_30 -> ~chi_10 bb      b)
     9.79469149E-08    3     1000022       -11        11   # BR(~chi_30 -> ~chi_10 e+      e-)
     9.79469149E-08    3     1000022       -13        13   # BR(~chi_30 -> ~chi_10 mu+     mu-)
     2.49615328E-07    3     1000022       -15        15   # BR(~chi_30 -> ~chi_10 tau+    tau-)
     9.45966215E-09    3     1000022       -12        12   # BR(~chi_30 -> ~chi_10 nu_eb   nu_e)
     9.45966215E-09    3     1000022       -14        14   # BR(~chi_30 -> ~chi_10 nu_mub  nu_mu)
     9.45966215E-09    3     1000022       -16        16   # BR(~chi_30 -> ~chi_10 nu_taub nu_tau)
     2.75041342E-02    3     1000023        -2         2   # BR(~chi_30 -> ~chi_20 ub      u)
     3.56054288E-02    3     1000023        -1         1   # BR(~chi_30 -> ~chi_20 db      d)
     2.75041342E-02    3     1000023        -4         4   # BR(~chi_30 -> ~chi_20 cb      c)
     3.56054288E-02    3     1000023        -3         3   # BR(~chi_30 -> ~chi_20 sb      s)
     3.21268799E-02    3     1000023        -5         5   # BR(~chi_30 -> ~chi_20 bb      b)
     8.12788136E-03    3     1000023       -11        11   # BR(~chi_30 -> ~chi_20 e+      e-)
     8.12788136E-03    3     1000023       -13        13   # BR(~chi_30 -> ~chi_20 mu+     mu-)
     8.03973609E-03    3     1000023       -15        15   # BR(~chi_30 -> ~chi_20 tau+    tau-)
     1.62290296E-02    3     1000023       -12        12   # BR(~chi_30 -> ~chi_20 nu_eb   nu_e)
     1.62290296E-02    3     1000023       -14        14   # BR(~chi_30 -> ~chi_20 nu_mub  nu_mu)
     1.62290296E-02    3     1000023       -16        16   # BR(~chi_30 -> ~chi_20 nu_taub nu_tau)
     1.28084275E-01    3     1000024        -2         1   # BR(~chi_30 -> ~chi_1+ ub      d)
     1.28084275E-01    3    -1000024        -1         2   # BR(~chi_30 -> ~chi_1- db      u)
     1.28084275E-01    3     1000024        -4         3   # BR(~chi_30 -> ~chi_1+ cb      s)
     1.28084275E-01    3    -1000024        -3         4   # BR(~chi_30 -> ~chi_1- sb      c)
     4.26946739E-02    3     1000024       -12        11   # BR(~chi_30 -> ~chi_1+ nu_eb   e-)
     4.26946739E-02    3    -1000024        12       -11   # BR(~chi_30 -> ~chi_1- nu_e    e+)
     4.26946739E-02    3     1000024       -14        13   # BR(~chi_30 -> ~chi_1+ nu_mub  mu-)
     4.26946739E-02    3    -1000024        14       -13   # BR(~chi_30 -> ~chi_1- nu_mu   mu+)
     4.24084646E-02    3     1000024       -16        15   # BR(~chi_30 -> ~chi_1+ nu_taub tau-)
     4.24084646E-02    3    -1000024        16       -15   # BR(~chi_30 -> ~chi_1- nu_tau  tau+)
#
#         PDG            Width
DECAY   1000035     3.50043372E+01   # neutralino4 decays
#          BR         NDA      ID1       ID2
     2.28815827E-03    2     1000022        23   # BR(~chi_40 -> ~chi_10   Z )
     2.17337165E-01    2     1000023        23   # BR(~chi_40 -> ~chi_20   Z )
     2.32952025E-03    2     1000025        23   # BR(~chi_40 -> ~chi_30   Z )
     2.16105568E-01    2     1000024       -24   # BR(~chi_40 -> ~chi_1+   W-)
     2.16105568E-01    2    -1000024        24   # BR(~chi_40 -> ~chi_1-   W+)
     1.13986299E-01    2     1000022        25   # BR(~chi_40 -> ~chi_10   h )
     1.89798844E-03    2     1000022        35   # BR(~chi_40 -> ~chi_10   H )
     1.60905479E-02    2     1000022        36   # BR(~chi_40 -> ~chi_10   A )
     4.60617872E-03    2     1000023        25   # BR(~chi_40 -> ~chi_20   h )
     2.72139158E-02    2     1000023        35   # BR(~chi_40 -> ~chi_20   H )
     3.30335732E-03    2     1000023        36   # BR(~chi_40 -> ~chi_20   A )
     1.04428343E-01    2     1000025        25   # BR(~chi_40 -> ~chi_30   h )
     1.34957677E-03    2     1000025        35   # BR(~chi_40 -> ~chi_30   H )
     1.14144224E-02    2     1000025        36   # BR(~chi_40 -> ~chi_30   A )
     3.07716794E-02    2     1000024       -37   # BR(~chi_40 -> ~chi_1+   H-)
     3.07716794E-02    2    -1000024        37   # BR(~chi_40 -> ~chi_1-   H+)
     7.63379727E-09    2     1000039        22   # BR(~chi_40 -> ~G        gam)
     2.41779290E-08    2     1000039        23   # BR(~chi_40 -> ~G        Z)
     1.55419428E-12    2     1000039        25   # BR(~chi_40 -> ~G        h)
     1.50655868E-12    2     1000039        35   # BR(~chi_40 -> ~G        H)
     4.63652142E-15    2     1000039        36   # BR(~chi_40 -> ~G        A)
#
#         PDG            Width
DECAY        25     4.21699792E-03   # h decays
#          BR         NDA      ID1       ID2
     6.01668771E-01    2           5        -5   # BR(h -> b       bb     )
     6.22579926E-02    2         -15        15   # BR(h -> tau+    tau-   )
     2.20366151E-04    2         -13        13   # BR(h -> mu+     mu-    )
     4.66252297E-04    2           3        -3   # BR(h -> s       sb     )
     2.01154553E-02    2           4        -4   # BR(h -> c       cb     )
     6.64292348E-02    2          21        21   # BR(h -> g       g      )
     2.31279109E-03    2          22        22   # BR(h -> gam     gam    )
     1.62701806E-03    2          22        23   # BR(h -> Z       gam    )
     2.16812105E-01    2          24       -24   # BR(h -> W+      W-     )
     2.80900135E-02    2          23        23   # BR(h -> Z       Z      )
#
#         PDG            Width
DECAY        35     3.99016523E+01   # H decays
#          BR         NDA      ID1       ID2
     1.39728581E-03    2           5        -5   # BR(H -> b       bb     )
     2.33532417E-04    2         -15        15   # BR(H -> tau+    tau-   )
     8.25624038E-07    2         -13        13   # BR(H -> mu+     mu-    )
     1.05708772E-06    2           3        -3   # BR(H -> s       sb     )
     9.53972734E-06    2           4        -4   # BR(H -> c       cb     )
     9.43916467E-01    2           6        -6   # BR(H -> t       tb     )
     7.55959247E-04    2          21        21   # BR(H -> g       g      )
     2.63735728E-06    2          22        22   # BR(H -> gam     gam    )
     1.09856864E-06    2          23        22   # BR(H -> Z       gam    )
     3.15832435E-04    2          24       -24   # BR(H -> W+      W-     )
     1.57485476E-04    2          23        23   # BR(H -> Z       Z      )
     8.57445840E-04    2          25        25   # BR(H -> h       h      )
     8.66338343E-24    2          36        36   # BR(H -> A       A      )
     3.47143431E-11    2          23        36   # BR(H -> Z       A      )
     3.00498727E-12    2          24       -37   # BR(H -> W+      H-     )
     3.00498727E-12    2         -24        37   # BR(H -> W-      H+     )
     5.65345848E-05    2     1000024  -1000024   # BR(H -> ~chi_1+ ~chi_1-)
     9.95205764E-04    2     1000022   1000022   # BR(H -> ~chi_10 ~chi_10)
     2.27713274E-05    2     1000023   1000023   # BR(H -> ~chi_20 ~chi_20)
     5.62253688E-04    2     1000025   1000025   # BR(H -> ~chi_30 ~chi_30)
     2.57719123E-02    2     1000022   1000023   # BR(H -> ~chi_10 ~chi_20)
     1.26341853E-05    2     1000022   1000025   # BR(H -> ~chi_10 ~chi_30)
     2.49295215E-02    2     1000023   1000025   # BR(H -> ~chi_20 ~chi_30)
#
#         PDG            Width
DECAY        36     4.03526357E+01   # A decays
#          BR         NDA      ID1       ID2
     1.39991910E-03    2           5        -5   # BR(A -> b       bb     )
     2.31117899E-04    2         -15        15   # BR(A -> tau+    tau-   )
     8.17085263E-07    2         -13        13   # BR(A -> mu+     mu-    )
     1.07720896E-06    2           3        -3   # BR(A -> s       sb     )
     9.43978547E-06    2           4        -4   # BR(A -> c       cb     )
     9.44755115E-01    2           6        -6   # BR(A -> t       tb     )
     8.94228665E-04    2          21        21   # BR(A -> g       g      )
     2.66894098E-06    2          22        22   # BR(A -> gam     gam    )
     1.28092983E-06    2          23        22   # BR(A -> Z       gam    )
     3.07705257E-04    2          23        25   # BR(A -> Z       h      )
     6.47335996E-04    2     1000024  -1000024   # BR(A -> ~chi_1+ ~chi_1-)
     2.86071273E-02    2     1000022   1000022   # BR(A -> ~chi_10 ~chi_10)
     1.16224395E-06    2     1000023   1000023   # BR(A -> ~chi_20 ~chi_20)
     2.15239686E-02    2     1000025   1000025   # BR(A -> ~chi_30 ~chi_30)
     6.61467074E-04    2     1000022   1000023   # BR(A -> ~chi_10 ~chi_20)
     1.12664576E-04    2     1000022   1000025   # BR(A -> ~chi_10 ~chi_30)
     8.42903995E-04    2     1000023   1000025   # BR(A -> ~chi_20 ~chi_30)
#
#         PDG            Width
DECAY        37     3.95434898E+01   # H+ decays
#          BR         NDA      ID1       ID2
     2.24646064E-06    2           4        -5   # BR(H+ -> c       bb     )
     2.36087430E-04    2         -15        16   # BR(H+ -> tau+    nu_tau )
     8.34654349E-07    2         -13        14   # BR(H+ -> mu+     nu_mu  )
     1.42827353E-08    2           2        -5   # BR(H+ -> u       bb     )
     5.16884146E-08    2           2        -3   # BR(H+ -> u       sb     )
     1.02991115E-05    2           4        -3   # BR(H+ -> c       sb     )
     9.46648727E-01    2           6        -5   # BR(H+ -> t       bb     )
     3.15411714E-04    2          24        25   # BR(H+ -> W+      h      )
     1.16962285E-12    2          24        36   # BR(H+ -> W+      A      )
     2.39065785E-02    2     1000024   1000022   # BR(H+ -> ~chi_1+ ~chi_10)
     1.46282893E-04    2     1000024   1000023   # BR(H+ -> ~chi_1+ ~chi_20)
     2.87334658E-02    2     1000024   1000025   # BR(H+ -> ~chi_1+ ~chi_30)
