# SUSY Les Houches Accord 2 - MSSM spectrum + Decays
# SPheno v3.1.12 
# W. Porod, Comput. Phys. Commun. 153 (2003) 275-315, hep-ph/0301101
# in case of problems send email to porod@physik.uni-wuerzburg.de
# Created: 09.12.2016,  15:23
Block SPINFO         # Program information
     1   SPheno      # spectrum calculator
     2   v3.1.12     # version number
#
Block SPhenoINFO     # SPheno specific information
    1      2         # using 2-loop RGEs
    2      1         # using running masses for boundary conditions at mZ
Block MODSEL  # Model selection
    1    2    # mGMSB model
Block MINPAR  # Input parameters
    1    1.30000000E+05  # Lambda, scale of SUSY breaking
    2    2.50000000E+05  # M_M, messenger mass scale
    3    6.00000000E+01  # tanb at m_Z   
    4    1.00000000E+00  # Sign(mu)
    5    3.00000000E+00  # N_5 number of effective five-plets
    6    1.00000000E+00  # c_grav, Gravitino mass factor
Block gauge Q=  2.50000000E+05  # (GMSB scale)
   1    4.93189066E-01  # g'(Q)^DRbar
   2    6.47247737E-01  # g(Q)^DRbar
   3    9.34707604E-01  # g3(Q)^DRbar
Block SMINPUTS  # SM parameters
         1     1.27932544E+02  # alpha_em^-1(MZ)^MSbar
         2     1.16639000E-05  # G_mu [GeV^-2]
         3     1.17200000E-01  # alpha_s(MZ)^MSbar
         4     9.11876000E+01  # m_Z(pole)
         5     4.20000000E+00  # m_b(m_b), MSbar
         6     1.72500000E+02  # m_t(pole)
         7     1.77700000E+00  # m_tau(pole)
         8     0.00000000E+00  # m_nu_3
        11     5.10998910E-04  # m_e(pole)
        12     0.00000000E+00  # m_nu_1
        13     1.05658000E-01  # m_muon(pole)
        14     0.00000000E+00  # m_nu_2
        21     5.00000000E-03  # m_d(2 GeV), MSbar
        22     3.00000000E-03  # m_u(2 GeV), MSbar
        23     1.05000000E-01  # m_s(2 GeV), MSbar
        24     1.27000000E+00  # m_c(m_c), MSbar
Block gauge Q=  2.43068601E+03  # (SUSY scale)
   1    3.64993925E-01  # g'(Q)^DRbar
   2    6.38190474E-01  # g(Q)^DRbar
   3    1.01358848E+00  # g3(Q)^DRbar
Block Yu Q=  2.43068601E+03  # (SUSY scale)
  1  1     8.33277714E-06   # Y_u(Q)^DRbar
  2  2     3.52754635E-03   # Y_c(Q)^DRbar
  3  3     8.39878965E-01   # Y_t(Q)^DRbar
Block Yd Q=  2.43068601E+03  # (SUSY scale)
  1  1     6.87702221E-04   # Y_d(Q)^DRbar
  2  2     1.44417319E-02   # Y_s(Q)^DRbar
  3  3     7.02700473E-01   # Y_b(Q)^DRbar
Block Ye Q=  2.43068601E+03  # (SUSY scale)
  1  1     1.97000657E-04   # Y_e(Q)^DRbar
  2  2     4.07345516E-02   # Y_mu(Q)^DRbar
  3  3     6.90433130E-01   # Y_tau(Q)^DRbar
Block Au Q=  2.43068601E+03  # (SUSY scale)
  1  1    -7.57592659E+02   # A_u(Q)^DRbar
  2  2    -7.57587850E+02   # A_c(Q)^DRbar
  3  3    -7.07001820E+02   # A_t(Q)^DRbar
Block Ad Q=  2.43068601E+03  # (SUSY scale)
  1  1    -7.68997394E+02   # A_d(Q)^DRbar
  2  2    -7.68984693E+02   # A_s(Q)^DRbar
  3  3    -7.26408974E+02   # A_b(Q)^DRbar
Block Ae Q=  2.43068601E+03  # (SUSY scale)
  1  1    -5.38336456E+01   # A_e(Q)^DRbar
  2  2    -5.38232729E+01   # A_mu(Q)^DRbar
  3  3    -5.08765835E+01   # A_tau(Q)^DRbar
Block MSOFT Q=  2.43068601E+03  # soft SUSY breaking masses at Q
   1    5.72695110E+02  # M_1
   2    1.04719763E+03  # M_2
   3    2.65272454E+03  # M_3
  21   -2.51245391E+05  # M^2_(H,d)
  22   -5.84221406E+05  # M^2_(H,u)
  31    8.08704607E+02  # M_(L,11)
  32    8.08652820E+02  # M_(L,22)
  33    7.93912035E+02  # M_(L,33)
  34    3.93331415E+02  # M_(E,11)
  35    3.93113066E+02  # M_(E,22)
  36    3.25116990E+02  # M_(E,33)
  41    2.55569755E+03  # M_(Q,11)
  42    2.55567367E+03  # M_(Q,22)
  43    2.42556188E+03  # M_(Q,33)
  44    2.44987903E+03  # M_(U,11)
  45    2.44987623E+03  # M_(U,22)
  46    2.28836623E+03  # M_(U,33)
  47    2.43962370E+03  # M_(D,11)
  48    2.43957597E+03  # M_(D,22)
  49    2.32545087E+03  # M_(D,33)
Block MASS  # Mass spectrum
#   PDG code      mass          particle
         6     1.72500000E+02  # m_t(pole)
        23     9.11876000E+01  # m_Z(pole)
        24     8.03088747E+01  # W+
        15     1.77700000E+00  # m_tau(pole)
        25     1.20274723E+02  # h0
        35     5.88956385E+02  # H0
        36     5.88922276E+02  # A0
        37     5.95676918E+02  # H+
   1000001     2.66003161E+03  # ~d_L
   2000001     2.53764359E+03  # ~d_R
   1000002     2.65882849E+03  # ~u_L
   2000002     2.54740055E+03  # ~u_R
   1000003     2.66000402E+03  # ~s_L
   2000003     2.53758462E+03  # ~s_R
   1000004     2.65879970E+03  # ~c_L
   2000004     2.54739717E+03  # ~c_R
   1000005     2.39523145E+03  # ~b_1
   2000005     2.50545906E+03  # ~b_2
   1000006     2.35444107E+03  # ~t_1
   2000006     2.50939981E+03  # ~t_2
   1000011     8.27202877E+02  # ~e_L-
   2000011     4.07934123E+02  # ~e_R-
   1000012     8.22958333E+02  # ~nu_eL
   1000013     8.27172583E+02  # ~mu_L-
   2000013     4.07588356E+02  # ~mu_R-
   1000014     8.22884994E+02  # ~nu_muL
   1000015     2.98625222E+02  # ~tau_1-
   2000015     8.18077509E+02  # ~tau_2-
   1000016     8.02714655E+02  # ~nu_tauL
   1000021     2.78139540E+03  # ~g
   1000022     5.56984819E+02  # ~chi_10
   1000023     8.36873516E+02  # ~chi_20
   1000025    -8.49073409E+02  # ~chi_30
   1000035     1.08263928E+03  # ~chi_40
   1000024     8.34843079E+02  # ~chi_1+
   1000037     1.08282425E+03  # ~chi_2+
   1000039     7.80000000E-09  # ~G
# Higgs mixing
Block alpha # Effective Higgs mixing angle
          -1.78775800E-02   # alpha
Block Hmix Q=  2.43068601E+03  # Higgs mixing parameters
   1    8.43480113E+02  # mu
   2    5.97328131E+01  # tan[beta](Q)
   3    2.43392999E+02  # v(Q)
   4    3.25157774E+05  # m^2_A(Q)
Block stopmix # stop mixing matrix
   1  1     1.70793380E-01   # Re[R_st(1,1)]
   1  2     9.85306867E-01   # Re[R_st(1,2)]
   2  1    -9.85306867E-01   # Re[R_st(2,1)]
   2  2     1.70793380E-01   # Re[R_st(2,2)]
Block sbotmix # sbottom mixing matrix
   1  1     2.02987894E-01   # Re[R_sb(1,1)]
   1  2     9.79181247E-01   # Re[R_sb(1,2)]
   2  1    -9.79181247E-01   # Re[R_sb(2,1)]
   2  2     2.02987894E-01   # Re[R_sb(2,2)]
Block staumix # stau mixing matrix
   1  1     1.76501603E-01   # Re[R_sta(1,1)]
   1  2     9.84300353E-01   # Re[R_sta(1,2)]
   2  1    -9.84300353E-01   # Re[R_sta(2,1)]
   2  2     1.76501603E-01   # Re[R_sta(2,2)]
Block Nmix # neutralino mixing matrix
   1  1    -9.93305429E-01   # Re[N(1,1)]
   1  2     1.00478758E-02   # Re[N(1,2)]
   1  3    -9.55075043E-02   # Re[N(1,3)]
   1  4     6.42003201E-02   # Re[N(1,4)]
   2  1    -1.12294090E-01   # Re[N(2,1)]
   2  2    -2.33438727E-01   # Re[N(2,2)]
   2  3     6.86884260E-01   # Re[N(2,3)]
   2  4    -6.79033439E-01   # Re[N(2,4)]
   3  1    -2.18281068E-02   # Re[N(3,1)]
   3  2     2.86492103E-02   # Re[N(3,2)]
   3  3     7.05687472E-01   # Re[N(3,3)]
   3  4     7.07607199E-01   # Re[N(3,4)]
   4  1    -1.60591243E-02   # Re[N(4,1)]
   4  2     9.71897435E-01   # Re[N(4,2)]
   4  3     1.45167217E-01   # Re[N(4,3)]
   4  4    -1.84618417E-01   # Re[N(4,4)]
Block Umix # chargino mixing matrix
   1  1    -2.04960330E-01   # Re[U(1,1)]
   1  2     9.78770281E-01   # Re[U(1,2)]
   2  1     9.78770281E-01   # Re[U(2,1)]
   2  2     2.04960330E-01   # Re[U(2,2)]
Block Vmix # chargino mixing matrix
   1  1    -2.60628942E-01   # Re[V(1,1)]
   1  2     9.65439047E-01   # Re[V(1,2)]
   2  1     9.65439047E-01   # Re[V(2,1)]
   2  2     2.60628942E-01   # Re[V(2,2)]
DECAY   2000011     7.80395709E-06   # ~e^-_R
#    BR                NDA      ID1      ID2
     2.72645745E-05    2     1000039        11   # BR(~e^-_R -> ~G e^-)
#    BR                NDA      ID1      ID2       ID3
     9.18198734E-14    3     2000013        11       -13   # BR(~e^-_R -> ~mu^-_R e^- mu^+)
     3.22255916E-13    3    -2000013        11        13   # BR(~e^-_R -> ~mu^+_R e^- mu^-)
     1.81287997E-01    3     1000015        11       -15   # BR(~e^-_R -> ~tau^-_1 e^- tau^+)
     8.18684738E-01    3    -1000015        11        15   # BR(~e^-_R -> ~tau^+_1 e^- tau^-)
DECAY   1000011     3.11831522E-01   # ~e^-_L
#    BR                NDA      ID1      ID2
     9.99998469E-01    2     1000022        11   # BR(~e^-_L -> chi^0_1 e^-)
     7.37720193E-07    2     2000011        23   # BR(~e^-_L -> ~e^-_R Z)
     7.69433333E-07    2     2000011        25   # BR(~e^-_L -> ~e^-_R h^0)
     2.33939516E-08    2     1000039        11   # BR(~e^-_L -> ~G e^-)
DECAY   2000013     7.73614196E-06   # ~mu^-_R
#    BR                NDA      ID1      ID2
     2.73872053E-05    2     1000039        13   # BR(~mu^-_R -> ~G mu^-)
#    BR                NDA      ID1      ID2       ID3
     1.80145356E-01    3     1000015        13       -15   # BR(~mu^-_R -> ~tau^-_1 mu^- tau^+)
     8.19827257E-01    3    -1000015        13        15   # BR(~mu^-_R -> ~tau^+_1 mu^- tau^-)
DECAY   1000013     3.31971322E-01   # ~mu^-_L
#    BR                NDA      ID1      ID2
     9.39450379E-01    2     1000022        13   # BR(~mu^-_L -> chi^0_1 mu^-)
     2.96453940E-02    2     2000013        23   # BR(~mu^-_L -> ~mu^-_R Z)
     3.09042046E-02    2     2000013        25   # BR(~mu^-_L -> ~mu^-_R h^0)
     2.19706792E-08    2     1000039        13   # BR(~mu^-_L -> ~G mu^-)
DECAY   1000015     4.47233513E-11   # ~tau^-_1
#    BR                NDA      ID1      ID2
     1.00000000E+00    2     1000039        15   # BR(~tau^-_1 -> ~G tau^-)
DECAY   2000015     6.64802190E+00   # ~tau^-_2
#    BR                NDA      ID1      ID2
     4.78548945E-02    2     1000022        15   # BR(~tau^-_2 -> chi^0_1 tau^-)
     4.94285340E-01    2     1000015        23   # BR(~tau^-_2 -> ~tau^-_1 Z)
     4.57859764E-01    2     1000015        25   # BR(~tau^-_2 -> ~tau^-_1 h^0)
     1.03809010E-09    2     1000039        15   # BR(~tau^-_2 -> ~G tau^-)
DECAY   1000012     3.27289287E-01   # ~nu_e
#    BR                NDA      ID1      ID2
     9.99998624E-01    2     1000022        12   # BR(~nu_e -> chi^0_1 nu_e)
     1.35457074E-06    2     2000011        24   # BR(~nu_e -> ~e^-_R W^+)
     2.17230533E-08    2     1000039        12   # BR(~nu_e -> ~G nu_e)
DECAY   1000014     3.46124600E-01   # ~nu_mu
#    BR                NDA      ID1      ID2
     9.45211810E-01    2     1000022        14   # BR(~nu_mu -> chi^0_1 nu_mu)
     5.47881696E-02    2     2000013        24   # BR(~nu_mu -> ~mu^-_R W^+)
     2.05317832E-08    2     1000039        14   # BR(~nu_mu -> ~G nu_mu)
DECAY   1000016     6.47177043E+00   # ~nu_tau
#    BR                NDA      ID1      ID2
     4.51606850E-02    2     1000022        16   # BR(~nu_tau -> chi^0_1 nu_tau)
     9.54839314E-01    2     1000015        24   # BR(~nu_tau -> ~tau^-_1 W^+)
     9.69943144E-10    2     1000039        16   # BR(~nu_tau -> ~G nu_tau)
DECAY   2000001     1.35180720E+00   # ~d_R
#    BR                NDA      ID1      ID2
     9.88289926E-01    2     1000022         1   # BR(~d_R -> chi^0_1 d)
     1.10811400E-02    2     1000023         1   # BR(~d_R -> chi^0_2 d)
     4.22289641E-04    2     1000025         1   # BR(~d_R -> chi^0_3 d)
     1.90797578E-04    2     1000035         1   # BR(~d_R -> chi^0_4 d)
     1.43474132E-05    2    -1000024         2   # BR(~d_R -> chi^-_1 u)
     3.27073433E-08    2    -1000037         2   # BR(~d_R -> chi^-_2 u)
     1.46622897E-06    2     1000039         1   # BR(~d_R -> ~G d)
DECAY   1000001     2.30333792E+01   # ~d_L
#    BR                NDA      ID1      ID2
     1.70093657E-02    2     1000022         1   # BR(~d_L -> chi^0_1 d)
     1.70768485E-02    2     1000023         1   # BR(~d_L -> chi^0_2 d)
     4.06715587E-04    2     1000025         1   # BR(~d_L -> chi^0_3 d)
     3.09598012E-01    2     1000035         1   # BR(~d_L -> chi^0_4 d)
     3.19470139E-02    2    -1000024         2   # BR(~d_L -> chi^-_1 u)
     6.23961933E-01    2    -1000037         2   # BR(~d_L -> chi^-_2 u)
     6.00881622E-13    2     2000002       -24   # BR(~d_L -> ~u_R W^-)
     1.60173355E-09    2     2000001        23   # BR(~d_L -> ~d_R Z)
     9.20704523E-10    2     2000001        25   # BR(~d_L -> ~d_R h^0)
     1.08902978E-07    2     1000039         1   # BR(~d_L -> ~G d)
DECAY   2000003     1.36874874E+00   # ~s_R
#    BR                NDA      ID1      ID2
     9.76169023E-01    2     1000022         3   # BR(~s_R -> chi^0_1 s)
     1.39793800E-02    2     1000023         3   # BR(~s_R -> chi^0_2 s)
     3.39259427E-03    2     1000025         3   # BR(~s_R -> chi^0_3 s)
     1.94795840E-04    2     1000035         3   # BR(~s_R -> chi^0_4 s)
     6.24849487E-03    2    -1000024         4   # BR(~s_R -> chi^-_1 c)
     1.42637440E-05    2    -1000037         4   # BR(~s_R -> chi^-_2 c)
     1.44791263E-06    2     1000039         3   # BR(~s_R -> ~G s)
DECAY   1000003     2.30420054E+01   # ~s_L
#    BR                NDA      ID1      ID2
     1.70020086E-02    2     1000022         3   # BR(~s_L -> chi^0_1 s)
     1.72430295E-02    2     1000023         3   # BR(~s_L -> chi^0_2 s)
     6.00967773E-04    2     1000025         3   # BR(~s_L -> chi^0_3 s)
     3.09490069E-01    2     1000035         3   # BR(~s_L -> chi^0_4 s)
     3.19310147E-02    2    -1000024         4   # BR(~s_L -> chi^-_1 c)
     6.23731578E-01    2    -1000037         4   # BR(~s_L -> chi^-_2 c)
     1.07552697E-07    2     2000004       -24   # BR(~s_L -> ~c_R W^-)
     7.06963420E-07    2     2000003        23   # BR(~s_L -> ~s_R Z)
     4.08892816E-07    2     2000003        25   # BR(~s_L -> ~s_R h^0)
     1.08856560E-07    2     1000039         3   # BR(~s_L -> ~G s)
DECAY   1000005     3.80007795E+01   # ~b_1
#    BR                NDA      ID1      ID2
     4.46313323E-02    2     1000022         5   # BR(~b_1 -> chi^0_1 b)
     2.39933409E-01    2     1000023         5   # BR(~b_1 -> chi^0_2 b)
     2.32367872E-01    2     1000025         5   # BR(~b_1 -> chi^0_3 b)
     3.45476485E-04    2     1000035         5   # BR(~b_1 -> chi^0_4 b)
     4.81103484E-01    2    -1000024         6   # BR(~b_1 -> chi^-_1 t)
     1.61838741E-03    2    -1000037         6   # BR(~b_1 -> chi^-_2 t)
     3.90753615E-08    2     1000039         5   # BR(~b_1 -> ~G b)
DECAY   2000005     6.63982545E+01   # ~b_2
#    BR                NDA      ID1      ID2
     4.41440508E-03    2     1000022         5   # BR(~b_2 -> chi^0_1 b)
     1.34574130E-01    2     1000023         5   # BR(~b_2 -> chi^0_2 b)
     1.46822295E-01    2     1000025         5   # BR(~b_2 -> chi^0_3 b)
     1.06313439E-01    2     1000035         5   # BR(~b_2 -> chi^0_4 b)
     3.70136316E-01    2    -1000024         6   # BR(~b_2 -> chi^-_1 t)
     2.33359571E-01    2    -1000037         6   # BR(~b_2 -> chi^-_2 t)
     4.03812415E-03    2     1000006       -24   # BR(~b_2 -> ~t_1 W^-)
     3.41690988E-04    2     1000005        23   # BR(~b_2 -> ~b_1 Z)
     2.80051839E-08    2     1000039         5   # BR(~b_2 -> ~G b)
DECAY   2000002     5.43213084E+00   # ~u_R
#    BR                NDA      ID1      ID2
     9.88305982E-01    2     1000022         2   # BR(~u_R -> chi^0_1 u)
     1.10864296E-02    2     1000023         2   # BR(~u_R -> chi^0_2 u)
     4.15928470E-04    2     1000025         2   # BR(~u_R -> chi^0_3 u)
     1.91287749E-04    2     1000035         2   # BR(~u_R -> chi^0_4 u)
     5.30869888E-10    2     1000024         1   # BR(~u_R -> chi^+_1 d)
     2.78550685E-12    2     1000037         1   # BR(~u_R -> chi^+_2 d)
     3.71945575E-07    2     1000039         2   # BR(~u_R -> ~G u)
DECAY   1000002     2.30866375E+01   # ~u_L
#    BR                NDA      ID1      ID2
     1.37147894E-02    2     1000022         2   # BR(~u_L -> chi^0_1 u)
     2.45963393E-02    2     1000023         2   # BR(~u_L -> chi^0_2 u)
     2.25635181E-04    2     1000025         2   # BR(~u_L -> chi^0_3 u)
     3.04768665E-01    2     1000035         2   # BR(~u_L -> chi^0_4 u)
     5.15060669E-02    2     1000024         1   # BR(~u_L -> chi^+_1 d)
     6.05188392E-01    2     1000037         1   # BR(~u_L -> chi^+_2 d)
     4.26992721E-09    2     2000001        24   # BR(~u_L -> ~d_R W^+)
     1.64629462E-13    2     2000002        23   # BR(~u_L -> ~u_R Z)
     1.08406259E-07    2     1000039         2   # BR(~u_L -> ~G u)
DECAY   2000004     5.43314530E+00   # ~c_R
#    BR                NDA      ID1      ID2
     9.88119613E-01    2     1000022         4   # BR(~c_R -> chi^0_1 c)
     1.11303513E-02    2     1000023         4   # BR(~c_R -> chi^0_2 c)
     4.62581554E-04    2     1000025         4   # BR(~c_R -> chi^0_3 c)
     1.91459960E-04    2     1000035         4   # BR(~c_R -> chi^0_4 c)
     9.51236050E-05    2     1000024         3   # BR(~c_R -> chi^+_1 s)
     4.98641625E-07    2     1000037         3   # BR(~c_R -> chi^+_2 s)
     3.71873289E-07    2     1000039         4   # BR(~c_R -> ~G c)
DECAY   1000004     2.30956282E+01   # ~c_L
#    BR                NDA      ID1      ID2
     1.37093574E-02    2     1000022         4   # BR(~c_L -> chi^0_1 c)
     2.45959587E-02    2     1000023         4   # BR(~c_L -> chi^0_2 c)
     2.36908622E-04    2     1000025         4   # BR(~c_L -> chi^0_3 c)
     3.04645629E-01    2     1000035         4   # BR(~c_L -> chi^0_4 c)
     5.18537129E-02    2     1000024         3   # BR(~c_L -> chi^+_1 s)
     6.04956411E-01    2     1000037         3   # BR(~c_L -> chi^+_2 s)
     1.88388233E-06    2     2000003        24   # BR(~c_L -> ~s_R W^+)
     2.94447959E-08    2     2000004        23   # BR(~c_L -> ~c_R Z)
     1.08358092E-07    2     1000039         4   # BR(~c_L -> ~G c)
DECAY   1000006     5.52711330E+01   # ~t_1
#    BR                NDA      ID1      ID2
     7.86099546E-04    2     1000022         4   # BR(~t_1 -> chi^0_1 c)
     8.97351952E-02    2     1000022         6   # BR(~t_1 -> chi^0_1 t)
     1.35982543E-03    2     1000023         4   # BR(~t_1 -> chi^0_2 c)
     2.15314373E-01    2     1000023         6   # BR(~t_1 -> chi^0_2 t)
     2.30653649E-01    2     1000025         6   # BR(~t_1 -> chi^0_3 t)
     3.24230416E-03    2     1000035         6   # BR(~t_1 -> chi^0_4 t)
     4.52143216E-01    2     1000024         5   # BR(~t_1 -> chi^+_1 b)
     6.74009589E-03    2     1000037         5   # BR(~t_1 -> chi^+_2 b)
     2.41298212E-08    2     1000039         6   # BR(~t_1 -> ~G t)
#    BR                NDA      ID1      ID2       ID3
     2.52174148E-05    3     1000022        24         5   # BR(~t_1 -> chi^0_1 W^+ b)
DECAY   2000006     6.70421625E+01   # ~t_2
#    BR                NDA      ID1      ID2
     5.26707900E-03    2     1000022         6   # BR(~t_2 -> chi^0_1 t)
     1.87458670E-01    2     1000023         6   # BR(~t_2 -> chi^0_2 t)
     1.98455646E-01    2     1000025         6   # BR(~t_2 -> chi^0_3 t)
     1.18163487E-01    2     1000035         6   # BR(~t_2 -> chi^0_4 t)
     2.70818794E-01    2     1000024         5   # BR(~t_2 -> chi^+_1 b)
     2.14918307E-01    2     1000037         5   # BR(~t_2 -> chi^+_2 b)
     1.49474611E-03    2     1000005        24   # BR(~t_2 -> ~b_1 W^+)
     1.95462443E-03    2     1000006        23   # BR(~t_2 -> ~t_1 Z)
     1.46861964E-03    2     1000006        25   # BR(~t_2 -> ~t_1 h^0)
     2.74306688E-08    2     1000039         6   # BR(~t_2 -> ~G t)
DECAY   1000024     3.40201897E+00   # chi^+_1
#    BR                NDA      ID1      ID2
     5.66671760E-08    2    -2000011        12   # BR(chi^+_1 -> ~e^+_R nu_e)
     1.38638802E-05    2    -1000011        12   # BR(chi^+_1 -> ~e^+_L nu_e)
     2.42501317E-03    2    -2000013        14   # BR(chi^+_1 -> ~mu^+_R nu_mu)
     1.38731045E-05    2    -1000013        14   # BR(chi^+_1 -> ~mu^+_L nu_mu)
     8.79319025E-01    2    -1000015        16   # BR(chi^+_1 -> ~tau^+_1 nu_tau)
     3.46434736E-07    2    -2000015        16   # BR(chi^+_1 -> ~tau^+_2 nu_tau)
     5.39684796E-05    2     1000012       -11   # BR(chi^+_1 -> ~nu_e e^+)
     5.80014966E-05    2     1000014       -13   # BR(chi^+_1 -> ~nu_mu mu^+)
     6.90321313E-03    2     1000016       -15   # BR(chi^+_1 -> ~nu_tau tau^+)
     1.11093163E-01    2     1000022        24   # BR(chi^+_1 -> chi^0_1 W^+)
#    BR                NDA      ID1      ID2       ID3
     6.28149489E-10    3     1000022        -1         2   # BR(chi^+_1 -> chi^0_1 d_bar u)
     8.65876103E-09    3     1000022        -3         4   # BR(chi^+_1 -> chi^0_1 s_bar c)
     1.06969761E-04    3     1000022        -5         6   # BR(chi^+_1 -> chi^0_1 b_bar t)
     1.66706953E-12    3     1000022       -11        12   # BR(chi^+_1 -> chi^0_1 e^+ nu_e)
     7.11180116E-08    3     1000022       -13        14   # BR(chi^+_1 -> chi^0_1 mu^+ nu_mu)
     1.24262447E-05    3     1000022       -15        16   # BR(chi^+_1 -> chi^0_1 tau^+ nu_tau)
DECAY   1000037     9.00977044E+00   # chi^+_2
#    BR                NDA      ID1      ID2
     2.51938508E-11    2    -2000011        12   # BR(chi^+_2 -> ~e^+_R nu_e)
     8.08812916E-02    2    -1000011        12   # BR(chi^+_2 -> ~e^+_L nu_e)
     1.08259298E-06    2    -2000013        14   # BR(chi^+_2 -> ~mu^+_R nu_mu)
     8.09120940E-02    2    -1000013        14   # BR(chi^+_2 -> ~mu^+_L nu_mu)
     8.60619794E-04    2    -1000015        16   # BR(chi^+_2 -> ~tau^+_1 nu_tau)
     9.01567240E-02    2    -2000015        16   # BR(chi^+_2 -> ~tau^+_2 nu_tau)
     8.09670290E-02    2     1000012       -11   # BR(chi^+_2 -> ~nu_e e^+)
     8.10203561E-02    2     1000014       -13   # BR(chi^+_2 -> ~nu_mu mu^+)
     9.66331839E-02    2     1000016       -15   # BR(chi^+_2 -> ~nu_tau tau^+)
     7.06356925E-04    2     1000022        24   # BR(chi^+_2 -> chi^0_1 W^+)
     1.31217394E-01    2     1000023        24   # BR(chi^+_2 -> chi^0_2 W^+)
     1.16279528E-01    2     1000025        24   # BR(chi^+_2 -> chi^0_3 W^+)
     1.27722020E-01    2     1000024        23   # BR(chi^+_2 -> chi^+_1 Z)
     1.12478202E-01    2     1000024        25   # BR(chi^+_2 -> chi^+_1 h^0)
#    BR                NDA      ID1      ID2       ID3
     2.55452298E-09    3     1000024         2        -2   # BR(chi^+_2 -> chi^+_1 u u_bar)
     2.55134902E-09    3     1000024         4        -4   # BR(chi^+_2 -> chi^+_1 c c_bar)
     4.05354723E-09    3     1000024         1        -1   # BR(chi^+_2 -> chi^+_1 d d_bar)
     1.56203074E-08    3     1000024         3        -3   # BR(chi^+_2 -> chi^+_1 s s_bar)
     2.75876488E-05    3     1000024         5        -5   # BR(chi^+_2 -> chi^+_1 b b_bar)
     1.51960479E-06    3     1000024        11       -11   # BR(chi^+_2 -> chi^+_1 e^- e^+)
     1.58882114E-06    3     1000024        13       -13   # BR(chi^+_2 -> chi^+_1 mu^- mu^+)
     1.99242058E-05    3     1000024        15       -15   # BR(chi^+_2 -> chi^+_1 tau^- tau^+)
     2.20124944E-06    3     1000024        12       -12   # BR(chi^+_2 -> chi^+_1 nu_e nu_bar_e)
     7.52619504E-08    3     1000022        -1         2   # BR(chi^+_2 -> chi^0_1 d_bar u)
     7.54683939E-08    3     1000022        -3         4   # BR(chi^+_2 -> chi^0_1 s_bar c)
     5.82644593E-06    3     1000022        -5         6   # BR(chi^+_2 -> chi^0_1 b_bar t)
     2.36797017E-14    3     1000022       -11        12   # BR(chi^+_2 -> chi^0_1 e^+ nu_e)
     1.01347974E-09    3     1000022       -13        14   # BR(chi^+_2 -> chi^0_1 mu^+ nu_mu)
     3.56385461E-07    3     1000022       -15        16   # BR(chi^+_2 -> chi^0_1 tau^+ nu_tau)
     1.64967121E-09    3     1000023        -1         2   # BR(chi^+_2 -> chi^0_2 d_bar u)
     7.64286005E-09    3     1000023        -3         4   # BR(chi^+_2 -> chi^0_2 s_bar c)
     5.63227211E-05    3     1000023        -5         6   # BR(chi^+_2 -> chi^0_2 b_bar t)
     9.70310152E-07    3     1000023       -11        12   # BR(chi^+_2 -> chi^0_2 e^+ nu_e)
     1.00379266E-06    3     1000023       -13        14   # BR(chi^+_2 -> chi^0_2 mu^+ nu_mu)
     8.98333197E-06    3     1000023       -15        16   # BR(chi^+_2 -> chi^0_2 tau^+ nu_tau)
     6.66255004E-11    3     1000025        -1         2   # BR(chi^+_2 -> chi^0_3 d_bar u)
     4.34340215E-09    3     1000025        -3         4   # BR(chi^+_2 -> chi^0_3 s_bar c)
     3.13638673E-05    3     1000025        -5         6   # BR(chi^+_2 -> chi^0_3 b_bar t)
     1.62736457E-08    3     1000025       -11        12   # BR(chi^+_2 -> chi^0_3 e^+ nu_e)
     4.10776493E-08    3     1000025       -13        14   # BR(chi^+_2 -> chi^0_3 mu^+ nu_mu)
     6.22332741E-06    3     1000025       -15        16   # BR(chi^+_2 -> chi^0_3 tau^+ nu_tau)
DECAY   1000022     2.75778956E+00   # chi^0_1
#    BR                NDA      ID1      ID2
     1.13507751E-01    2     2000011       -11   # BR(chi^0_1 -> ~e^-_R e^+)
     1.13507751E-01    2    -2000011        11   # BR(chi^0_1 -> ~e^+_R e^-)
     1.13958756E-01    2     2000013       -13   # BR(chi^0_1 -> ~mu^-_R mu^+)
     1.13958756E-01    2    -2000013        13   # BR(chi^0_1 -> ~mu^+_R mu^-)
     2.72533492E-01    2     1000015       -15   # BR(chi^0_1 -> ~tau^-_1 tau^+)
     2.72533492E-01    2    -1000015        15   # BR(chi^0_1 -> ~tau^+_1 tau^-)
     2.69056726E-10    2     1000039        22   # BR(chi^0_1 -> ~G photon)
     8.04623370E-11    2     1000039        23   # BR(chi^0_1 -> ~G Z)
     1.58639195E-12    2     1000039        25   # BR(chi^0_1 -> ~G h^0)
DECAY   1000023     3.55602162E+00   # chi^0_2
#    BR                NDA      ID1      ID2
     4.57162105E-03    2     2000011       -11   # BR(chi^0_2 -> ~e^-_R e^+)
     4.57162105E-03    2    -2000011        11   # BR(chi^0_2 -> ~e^+_R e^-)
     2.23013425E-05    2     1000011       -11   # BR(chi^0_2 -> ~e^-_L e^+)
     2.23013425E-05    2    -1000011        11   # BR(chi^0_2 -> ~e^+_L e^-)
     5.71139339E-03    2     2000013       -13   # BR(chi^0_2 -> ~mu^-_R mu^+)
     5.71139339E-03    2    -2000013        13   # BR(chi^0_2 -> ~mu^+_R mu^-)
     2.34532832E-05    2     1000013       -13   # BR(chi^0_2 -> ~mu^-_L mu^+)
     2.34532832E-05    2    -1000013        13   # BR(chi^0_2 -> ~mu^+_L mu^-)
     4.30428080E-01    2     1000015       -15   # BR(chi^0_2 -> ~tau^-_1 tau^+)
     4.30428080E-01    2    -1000015        15   # BR(chi^0_2 -> ~tau^+_1 tau^-)
     1.07744673E-03    2     2000015       -15   # BR(chi^0_2 -> ~tau^-_2 tau^+)
     1.07744673E-03    2    -2000015        15   # BR(chi^0_2 -> ~tau^+_2 tau^-)
     1.48461268E-05    2     1000012       -12   # BR(chi^0_2 -> ~nu_e nu_bar_e)
     1.48461268E-05    2    -1000012        12   # BR(chi^0_2 -> ~nu^*_e nu_e)
     1.50017044E-05    2     1000014       -14   # BR(chi^0_2 -> ~nu_mu nu_bar_mu)
     1.50017044E-05    2    -1000014        14   # BR(chi^0_2 -> ~nu^*_mu nu_mu)
     8.72938124E-05    2     1000016       -16   # BR(chi^0_2 -> ~nu_tau nu_bar_tau)
     8.72938124E-05    2    -1000016        16   # BR(chi^0_2 -> ~nu^*_tau nu_tau)
     5.08034355E-03    2     1000022        23   # BR(chi^0_2 -> chi^0_1 Z)
     1.10981608E-01    2     1000022        25   # BR(chi^0_2 -> chi^0_1 h^0)
     9.89849347E-11    2     1000039        22   # BR(chi^0_2 -> ~G photon)
     8.54867350E-11    2     1000039        23   # BR(chi^0_2 -> ~G Z)
     1.03830619E-09    2     1000039        25   # BR(chi^0_2 -> ~G h^0)
     9.89615688E-08    2     1000022        22   # BR(chi^0_2 -> chi^0_1 photon)
#    BR                NDA      ID1      ID2       ID3
     1.12277529E-09    3     1000022         2        -2   # BR(chi^0_2 -> chi^0_1 u u_bar)
     1.12423195E-09    3     1000022         4        -4   # BR(chi^0_2 -> chi^0_1 c c_bar)
     3.51118206E-10    3     1000022         1        -1   # BR(chi^0_2 -> chi^0_1 d d_bar)
     9.31737256E-09    3     1000022         3        -3   # BR(chi^0_2 -> chi^0_1 s s_bar)
     2.13801151E-05    3     1000022         5        -5   # BR(chi^0_2 -> chi^0_1 b b_bar)
     5.24831778E-07    3     1000022        11       -11   # BR(chi^0_2 -> chi^0_1 e^- e^+)
     5.89472150E-07    3     1000022        13       -13   # BR(chi^0_2 -> chi^0_1 mu^- mu^+)
     1.25669073E-05    3     1000022        15       -15   # BR(chi^0_2 -> chi^0_1 tau^- tau^+)
     4.26731787E-12    3     1000024         1        -2   # BR(chi^0_2 -> chi^+_1 d u_bar)
     4.26731787E-12    3    -1000024        -1         2   # BR(chi^0_2 -> chi^-_1 d_bar u)
     5.27040192E-13    3     1000024         3        -4   # BR(chi^0_2 -> chi^+_1 s c_bar)
     5.27040192E-13    3    -1000024        -3         4   # BR(chi^0_2 -> chi^-_1 s_bar c)
     1.36790643E-12    3     1000024        11       -12   # BR(chi^0_2 -> chi^+_1 e^- nu_bar_e)
     1.36790643E-12    3    -1000024       -11        12   # BR(chi^0_2 -> chi^-_1 e^+ nu_e)
     1.34967299E-12    3     1000024        13       -14   # BR(chi^0_2 -> chi^+_1 mu^- nu_bar_mu)
     1.34967299E-12    3    -1000024       -13        14   # BR(chi^0_2 -> chi^-_1 mu^+ nu_mu)
DECAY   1000025     3.48413475E+00   # chi^0_3
#    BR                NDA      ID1      ID2
     1.82093843E-04    2     2000011       -11   # BR(chi^0_3 -> ~e^-_R e^+)
     1.82093843E-04    2    -2000011        11   # BR(chi^0_3 -> ~e^+_R e^-)
     3.33715869E-07    2     1000011       -11   # BR(chi^0_3 -> ~e^-_L e^+)
     3.33715869E-07    2    -1000011        11   # BR(chi^0_3 -> ~e^+_L e^-)
     1.35105791E-03    2     2000013       -13   # BR(chi^0_3 -> ~mu^-_R mu^+)
     1.35105791E-03    2    -2000013        13   # BR(chi^0_3 -> ~mu^+_R mu^-)
     5.61995464E-06    2     1000013       -13   # BR(chi^0_3 -> ~mu^-_L mu^+)
     5.61995464E-06    2    -1000013        13   # BR(chi^0_3 -> ~mu^+_L mu^-)
     4.35646916E-01    2     1000015       -15   # BR(chi^0_3 -> ~tau^-_1 tau^+)
     4.35646916E-01    2    -1000015        15   # BR(chi^0_3 -> ~tau^+_1 tau^-)
     3.05686638E-03    2     2000015       -15   # BR(chi^0_3 -> ~tau^-_2 tau^+)
     3.05686638E-03    2    -2000015        15   # BR(chi^0_3 -> ~tau^+_2 tau^-)
     3.06404753E-06    2     1000012       -12   # BR(chi^0_3 -> ~nu_e nu_bar_e)
     3.06404753E-06    2    -1000012        12   # BR(chi^0_3 -> ~nu^*_e nu_e)
     3.08101093E-06    2     1000014       -14   # BR(chi^0_3 -> ~nu_mu nu_bar_mu)
     3.08101093E-06    2    -1000014        14   # BR(chi^0_3 -> ~nu^*_mu nu_mu)
     9.42314884E-06    2     1000016       -16   # BR(chi^0_3 -> ~nu_tau nu_bar_tau)
     9.42314884E-06    2    -1000016        16   # BR(chi^0_3 -> ~nu^*_tau nu_tau)
     1.15337308E-01    2     1000022        23   # BR(chi^0_3 -> chi^0_1 Z)
     4.10468417E-03    2     1000022        25   # BR(chi^0_3 -> chi^0_1 h^0)
     5.32571559E-14    2     1000039        22   # BR(chi^0_3 -> ~G photon)
     2.32442317E-10    2     1000039        23   # BR(chi^0_3 -> ~G Z)
     1.15143100E-09    2     1000039        25   # BR(chi^0_3 -> ~G h^0)
     4.73066012E-08    2     1000022        22   # BR(chi^0_3 -> chi^0_1 photon)
     6.54636958E-10    2     1000023        22   # BR(chi^0_3 -> chi^0_2 photon)
#    BR                NDA      ID1      ID2       ID3
     1.44654035E-11    3     1000022         2        -2   # BR(chi^0_3 -> chi^0_1 u u_bar)
     1.75642986E-11    3     1000022         4        -4   # BR(chi^0_3 -> chi^0_1 c c_bar)
     2.86401798E-11    3     1000022         1        -1   # BR(chi^0_3 -> chi^0_1 d d_bar)
     1.09718658E-08    3     1000022         3        -3   # BR(chi^0_3 -> chi^0_1 s s_bar)
     2.60794447E-05    3     1000022         5        -5   # BR(chi^0_3 -> chi^0_1 b b_bar)
     8.64591148E-09    3     1000022        11       -11   # BR(chi^0_3 -> chi^0_1 e^- e^+)
     8.76650348E-08    3     1000022        13       -13   # BR(chi^0_3 -> chi^0_1 mu^- mu^+)
     1.44241166E-05    3     1000022        15       -15   # BR(chi^0_3 -> chi^0_1 tau^- tau^+)
     8.50087717E-09    3     1000023         2        -2   # BR(chi^0_3 -> chi^0_2 u u_bar)
     7.93653768E-09    3     1000023         4        -4   # BR(chi^0_3 -> chi^0_2 c c_bar)
     1.10357993E-08    3     1000023         1        -1   # BR(chi^0_3 -> chi^0_2 d d_bar)
     1.10291867E-08    3     1000023         3        -3   # BR(chi^0_3 -> chi^0_2 s s_bar)
     3.06559400E-09    3     1000023         5        -5   # BR(chi^0_3 -> chi^0_2 b b_bar)
     2.54223765E-09    3     1000023        11       -11   # BR(chi^0_3 -> chi^0_2 e^- e^+)
     2.53734164E-09    3     1000023        13       -13   # BR(chi^0_3 -> chi^0_2 mu^- mu^+)
     1.51841432E-09    3     1000023        15       -15   # BR(chi^0_3 -> chi^0_2 tau^- tau^+)
     1.51797797E-08    3     1000023        12       -12   # BR(chi^0_3 -> chi^0_2 nu_e nu_bar_e)
     6.33039655E-08    3     1000024         1        -2   # BR(chi^0_3 -> chi^+_1 d u_bar)
     6.33039655E-08    3    -1000024        -1         2   # BR(chi^0_3 -> chi^-_1 d_bar u)
     6.08847001E-08    3     1000024         3        -4   # BR(chi^0_3 -> chi^+_1 s c_bar)
     6.08847001E-08    3    -1000024        -3         4   # BR(chi^0_3 -> chi^-_1 s_bar c)
     2.10712194E-08    3     1000024        11       -12   # BR(chi^0_3 -> chi^+_1 e^- nu_bar_e)
     2.10712194E-08    3    -1000024       -11        12   # BR(chi^0_3 -> chi^-_1 e^+ nu_e)
     2.10669367E-08    3     1000024        13       -14   # BR(chi^0_3 -> chi^+_1 mu^- nu_bar_mu)
     2.10669367E-08    3    -1000024       -13        14   # BR(chi^0_3 -> chi^-_1 mu^+ nu_mu)
     1.93051461E-08    3     1000024        15       -16   # BR(chi^0_3 -> chi^+_1 tau^- nu_bar_tau)
     1.93051461E-08    3    -1000024       -15        16   # BR(chi^0_3 -> chi^-_1 tau^+ nu_tau)
DECAY   1000035     8.99933673E+00   # chi^0_4
#    BR                NDA      ID1      ID2
     6.05366011E-05    2     2000011       -11   # BR(chi^0_4 -> ~e^-_R e^+)
     6.05366011E-05    2    -2000011        11   # BR(chi^0_4 -> ~e^+_R e^-)
     3.91257858E-02    2     1000011       -11   # BR(chi^0_4 -> ~e^-_L e^+)
     3.91257858E-02    2    -1000011        11   # BR(chi^0_4 -> ~e^+_L e^-)
     6.02411534E-05    2     2000013       -13   # BR(chi^0_4 -> ~mu^-_R mu^+)
     6.02411534E-05    2    -2000013        13   # BR(chi^0_4 -> ~mu^+_R mu^-)
     3.91478918E-02    2     1000013       -13   # BR(chi^0_4 -> ~mu^-_L mu^+)
     3.91478918E-02    2    -1000013        13   # BR(chi^0_4 -> ~mu^+_L mu^-)
     5.87599272E-04    2     1000015       -15   # BR(chi^0_4 -> ~tau^-_1 tau^+)
     5.87599272E-04    2    -1000015        15   # BR(chi^0_4 -> ~tau^+_1 tau^-)
     4.57340755E-02    2     2000015       -15   # BR(chi^0_4 -> ~tau^-_2 tau^+)
     4.57340755E-02    2    -2000015        15   # BR(chi^0_4 -> ~tau^+_2 tau^-)
     4.18082622E-02    2     1000012       -12   # BR(chi^0_4 -> ~nu_e nu_bar_e)
     4.18082622E-02    2    -1000012        12   # BR(chi^0_4 -> ~nu^*_e nu_e)
     4.18286606E-02    2     1000014       -14   # BR(chi^0_4 -> ~nu_mu nu_bar_mu)
     4.18286606E-02    2    -1000014        14   # BR(chi^0_4 -> ~nu^*_mu nu_mu)
     4.75540530E-02    2     1000016       -16   # BR(chi^0_4 -> ~nu_tau nu_bar_tau)
     4.75540530E-02    2    -1000016        16   # BR(chi^0_4 -> ~nu^*_tau nu_tau)
     1.30662466E-01    2     1000024       -24   # BR(chi^0_4 -> chi^+_1 W^-)
     1.30662466E-01    2    -1000024        24   # BR(chi^0_4 -> chi^-_1 W^+)
     7.62529312E-05    2     1000022        23   # BR(chi^0_4 -> chi^0_1 Z)
     2.30784268E-03    2     1000023        23   # BR(chi^0_4 -> chi^0_2 Z)
     1.10590885E-01    2     1000025        23   # BR(chi^0_4 -> chi^0_3 Z)
     7.53318508E-04    2     1000022        25   # BR(chi^0_4 -> chi^0_1 h^0)
     1.11702973E-01    2     1000023        25   # BR(chi^0_4 -> chi^0_2 h^0)
     1.24702913E-03    2     1000025        25   # BR(chi^0_4 -> chi^0_3 h^0)
     6.83467516E-10    2     1000039        22   # BR(chi^0_4 -> ~G photon)
     2.78064325E-09    2     1000039        23   # BR(chi^0_4 -> ~G Z)
     1.09054399E-10    2     1000039        25   # BR(chi^0_4 -> ~G h^0)
     1.92916173E-07    2     1000022        22   # BR(chi^0_4 -> chi^0_1 photon)
     8.44108572E-07    2     1000023        22   # BR(chi^0_4 -> chi^0_2 photon)
     7.98942153E-07    2     1000025        22   # BR(chi^0_4 -> chi^0_3 photon)
#    BR                NDA      ID1      ID2       ID3
     3.35836822E-08    3     1000022         2        -2   # BR(chi^0_4 -> chi^0_1 u u_bar)
     3.35819309E-08    3     1000022         4        -4   # BR(chi^0_4 -> chi^0_1 c c_bar)
     9.04736861E-07    3     1000022         6        -6   # BR(chi^0_4 -> chi^0_1 t t_bar)
     4.18383985E-08    3     1000022         1        -1   # BR(chi^0_4 -> chi^0_1 d d_bar)
     4.19793943E-08    3     1000022         3        -3   # BR(chi^0_4 -> chi^0_1 s s_bar)
     3.86202157E-07    3     1000022         5        -5   # BR(chi^0_4 -> chi^0_1 b b_bar)
     3.14510145E-08    3     1000022        11       -11   # BR(chi^0_4 -> chi^0_1 e^- e^+)
     3.17753526E-08    3     1000022        13       -13   # BR(chi^0_4 -> chi^0_1 mu^- mu^+)
     3.45356851E-07    3     1000022        15       -15   # BR(chi^0_4 -> chi^0_1 tau^- tau^+)
     2.77918122E-09    3     1000023         2        -2   # BR(chi^0_4 -> chi^0_2 u u_bar)
     2.77757288E-09    3     1000023         4        -4   # BR(chi^0_4 -> chi^0_2 c c_bar)
     1.95592174E-09    3     1000023         1        -1   # BR(chi^0_4 -> chi^0_2 d d_bar)
     7.16035378E-09    3     1000023         3        -3   # BR(chi^0_4 -> chi^0_2 s s_bar)
     1.24016316E-05    3     1000023         5        -5   # BR(chi^0_4 -> chi^0_2 b b_bar)
     1.36761632E-06    3     1000023        11       -11   # BR(chi^0_4 -> chi^0_2 e^- e^+)
     1.40115516E-06    3     1000023        13       -13   # BR(chi^0_4 -> chi^0_2 mu^- mu^+)
     9.72038244E-06    3     1000023        15       -15   # BR(chi^0_4 -> chi^0_2 tau^- tau^+)
     1.09434040E-06    3     1000023        12       -12   # BR(chi^0_4 -> chi^0_2 nu_e nu_bar_e)
     6.93297982E-12    3     1000025         2        -2   # BR(chi^0_4 -> chi^0_3 u u_bar)
     7.46719624E-12    3     1000025         4        -4   # BR(chi^0_4 -> chi^0_3 c c_bar)
     2.31881001E-11    3     1000025         1        -1   # BR(chi^0_4 -> chi^0_3 d d_bar)
     4.69216926E-09    3     1000025         3        -3   # BR(chi^0_4 -> chi^0_3 s s_bar)
     1.11236323E-05    3     1000025         5        -5   # BR(chi^0_4 -> chi^0_3 b b_bar)
     1.13999184E-09    3     1000025        11       -11   # BR(chi^0_4 -> chi^0_3 e^- e^+)
     2.47176934E-08    3     1000025        13       -13   # BR(chi^0_4 -> chi^0_3 mu^- mu^+)
     5.84247519E-06    3     1000025        15       -15   # BR(chi^0_4 -> chi^0_3 tau^- tau^+)
     1.82612763E-08    3     1000025        12       -12   # BR(chi^0_4 -> chi^0_3 nu_e nu_bar_e)
     1.72964182E-09    3     1000024         1        -2   # BR(chi^0_4 -> chi^+_1 d u_bar)
     1.72964182E-09    3    -1000024        -1         2   # BR(chi^0_4 -> chi^-_1 d_bar u)
     7.66877542E-09    3     1000024         3        -4   # BR(chi^0_4 -> chi^+_1 s c_bar)
     7.66877542E-09    3    -1000024        -3         4   # BR(chi^0_4 -> chi^-_1 s_bar c)
     5.88053119E-05    3     1000024         5        -6   # BR(chi^0_4 -> chi^+_1 b t_bar)
     5.88053119E-05    3    -1000024        -5         6   # BR(chi^0_4 -> chi^-_1 b_bar t)
     8.84875415E-07    3     1000024        11       -12   # BR(chi^0_4 -> chi^+_1 e^- nu_bar_e)
     8.84875415E-07    3    -1000024       -11        12   # BR(chi^0_4 -> chi^-_1 e^+ nu_e)
     9.15992534E-07    3     1000024        13       -14   # BR(chi^0_4 -> chi^+_1 mu^- nu_bar_mu)
     9.15992534E-07    3    -1000024       -13        14   # BR(chi^0_4 -> chi^-_1 mu^+ nu_mu)
     7.30939828E-06    3     1000024        15       -16   # BR(chi^0_4 -> chi^+_1 tau^- nu_bar_tau)
     7.30939828E-06    3    -1000024       -15        16   # BR(chi^0_4 -> chi^-_1 tau^+ nu_tau)
DECAY   1000021     1.98740348E+01   # ~g
#    BR                NDA      ID1      ID2
     3.71552334E-02    2     2000002        -2   # BR(~g -> ~u_R u_bar)
     3.71552334E-02    2    -2000002         2   # BR(~g -> ~u^*_R u)
     1.06250073E-02    2     1000002        -2   # BR(~g -> ~u_L u_bar)
     1.06250073E-02    2    -1000002         2   # BR(~g -> ~u^*_L u)
     3.71553240E-02    2     2000004        -4   # BR(~g -> ~c_R c_bar)
     3.71553240E-02    2    -2000004         4   # BR(~g -> ~c^*_R c)
     1.06295751E-02    2     1000004        -4   # BR(~g -> ~c_L c_bar)
     1.06295751E-02    2    -1000004         4   # BR(~g -> ~c^*_L c)
     1.82643214E-02    2     1000006        -4   # BR(~g -> ~t_1 c_bar)
     1.82643214E-02    2    -1000006         4   # BR(~g -> ~t^*_1 c)
     9.10020617E-02    2     1000006        -6   # BR(~g -> ~t_1 t_bar)
     9.10020617E-02    2    -1000006         6   # BR(~g -> ~t^*_1 t)
     4.76170853E-02    2     2000006        -6   # BR(~g -> ~t_2 t_bar)
     4.76170853E-02    2    -2000006         6   # BR(~g -> ~t^*_2 t)
     4.01708737E-02    2     2000001        -1   # BR(~g -> ~d_R d_bar)
     4.01708737E-02    2    -2000001         1   # BR(~g -> ~d^*_R d)
     1.04220483E-02    2     1000001        -1   # BR(~g -> ~d_L d_bar)
     1.04220483E-02    2    -1000001         1   # BR(~g -> ~d^*_L d)
     4.01892900E-02    2     2000003        -3   # BR(~g -> ~s_R s_bar)
     4.01892900E-02    2    -2000003         3   # BR(~g -> ~s^*_R s)
     1.04267437E-02    2     1000003        -3   # BR(~g -> ~s_L s_bar)
     1.04267437E-02    2    -1000003         3   # BR(~g -> ~s^*_L s)
     9.50477753E-02    2     1000005        -5   # BR(~g -> ~b_1 b_bar)
     9.50477753E-02    2    -1000005         5   # BR(~g -> ~b^*_1 b)
     5.11767467E-02    2     2000005        -5   # BR(~g -> ~b_2 b_bar)
     5.11767467E-02    2    -2000005         5   # BR(~g -> ~b^*_2 b)
     9.64410548E-07    2     1000022        21   # BR(~g -> chi^0_1 g)
     9.92630249E-05    2     1000023        21   # BR(~g -> chi^0_2 g)
     1.25653501E-04    2     1000025        21   # BR(~g -> chi^0_3 g)
     9.94764592E-06    2     1000035        21   # BR(~g -> chi^0_4 g)
DECAY        25     2.48452721E-03   # h^0
#    BR                NDA      ID1      ID2
     1.17331578E-08    2          11       -11   # BR(h^0 -> e^- e^+)
     5.01559485E-04    2          13       -13   # BR(h^0 -> mu^- mu^+)
     1.36638286E-01    2          15       -15   # BR(h^0 -> tau^- tau^+)
     5.89703847E-07    2           1        -1   # BR(h^0 -> d d_bar)
     2.60052026E-04    2           3        -3   # BR(h^0 -> s s_bar)
     5.63070303E-01    2           5        -5   # BR(h^0 -> b b_bar)
     2.69658945E-07    2           2        -2   # BR(h^0 -> u u_bar)
     4.83158278E-02    2           4        -4   # BR(h^0 -> c c_bar)
     7.25189788E-02    2          21        21   # BR(h^0 -> g g)
     3.61747514E-03    2          22        22   # BR(h^0 -> photon photon)
# writing decays into V V* as 3-body decays
#    BR                NDA      ID1      ID2       ID3
     7.99905067E-03    3          24        11        12   # BR(h^0 -> W^+ e^- nu_e)
     7.99905067E-03    3          24        13        14   # BR(h^0 -> W^+ mu^- nu_mu)
     7.99905067E-03    3          24        15        16   # BR(h^0 -> W^+ tau^- nu_tau)
     2.79966773E-02    3          24         1        -2   # BR(h^0 -> W^+ d u_bar)
     2.79966773E-02    3          24         3        -4   # BR(h^0 -> W^+ s c_bar)
     7.99905067E-03    3         -24       -11       -12   # BR(h^0 -> W^- e^+ nu_bar_e)
     7.99905067E-03    3         -24       -13       -14   # BR(h^0 -> W^- mu^+ nu_bar_mu)
     7.99905067E-03    3         -24       -15       -16   # BR(h^0 -> W^- tau^+ nu_bar_tau)
     2.79966773E-02    3         -24        -1         2   # BR(h^0 -> W^- d_bar u)
     2.79966773E-02    3         -24        -3         4   # BR(h^0 -> W^- s_bar c)
     5.28347187E-04    3          23        11       -11   # BR(h^0 -> Z e^- e^+)
     5.28347187E-04    3          23        13       -13   # BR(h^0 -> Z mu^- mu^+)
     4.52869017E-04    3          23        15       -15   # BR(h^0 -> Z tau^- tau^+)
     3.01912678E-03    3          23        12       -12   # BR(h^0 -> Z nu_e nu_bar_e)
     2.11338875E-03    3          23         1        -1   # BR(h^0 -> Z u u_bar)
     2.11338875E-03    3          23         3        -3   # BR(h^0 -> Z c c_bar)
     2.11338875E-03    3          23         5        -5   # BR(h^0 -> Z t t_bar)
     2.11338875E-03    3          23         2        -2   # BR(h^0 -> Z u u_bar)
     2.11338875E-03    3          23         4        -4   # BR(h^0 -> Z c c_bar)
DECAY        35     2.52010859E+01   # H^0
#    BR                NDA      ID1      ID2
     1.80380905E-08    2          11       -11   # BR(H^0 -> e^- e^+)
     7.71224843E-04    2          13       -13   # BR(H^0 -> mu^- mu^+)
     2.21551521E-01    2          15       -15   # BR(H^0 -> tau^- tau^+)
     7.44241371E-07    2           1        -1   # BR(H^0 -> d d_bar)
     3.28209803E-04    2           3        -3   # BR(H^0 -> s s_bar)
     7.77019972E-01    2           5        -5   # BR(H^0 -> b b_bar)
     3.49303151E-14    2           2        -2   # BR(H^0 -> u u_bar)
     6.25991844E-09    2           4        -4   # BR(H^0 -> c c_bar)
     2.22727887E-04    2           6        -6   # BR(H^0 -> t t_bar)
     1.75190194E-06    2          23        23   # BR(H^0 -> Z Z)
     3.41498459E-06    2          24       -24   # BR(H^0 -> W^+ W^-)
     8.10326472E-06    2          25        25   # BR(H^0 -> h^0 h^0)
     9.21577612E-05    2          21        21   # BR(H^0 -> g g)
     1.47902621E-07    2          22        22   # BR(H^0 -> photon photon)
DECAY        36     2.52012708E+01   # A^0
#    BR                NDA      ID1      ID2
     1.80376689E-08    2          11       -11   # BR(A^0 -> e^- e^+)
     7.71206919E-04    2          13       -13   # BR(A^0 -> mu^- mu^+)
     2.21554411E-01    2          15       -15   # BR(A^0 -> tau^- tau^+)
     7.44223611E-07    2           1        -1   # BR(A^0 -> d d_bar)
     3.28201946E-04    2           3        -3   # BR(A^0 -> s s_bar)
     7.77040790E-01    2           5        -5   # BR(A^0 -> b b_bar)
     3.03514618E-14    2           2        -2   # BR(A^0 -> u u_bar)
     5.43934165E-09    2           4        -4   # BR(A^0 -> c c_bar)
     2.76082642E-04    2           6        -6   # BR(A^0 -> t t_bar)
     3.12013402E-06    2          25        23   # BR(A^0 -> h^0 Z)
     2.53749808E-05    2          21        21   # BR(A^0 -> g g)
     4.46539520E-08    2          22        22   # BR(A^0 -> photon photon)
DECAY        37     2.04062377E+01   # H^+
#    BR                NDA      ID1      ID2
     2.25316347E-08    2         -11        12   # BR(H^+ -> e^+ nu_e)
     9.63348018E-04    2         -13        12   # BR(H^+ -> mu^+ nu_e)
     2.76753339E-01    2         -15        12   # BR(H^+ -> tau^+ nu_e)
     8.23719752E-07    2          -1         2   # BR(H^+ -> d_bar u)
     3.63262348E-04    2          -3         4   # BR(H^+ -> s_bar c)
     7.21915239E-01    2          -5         6   # BR(H^+ -> b_bar t)
     3.96557278E-06    2          25        24   # BR(H^+ -> h^0 W^+)
DECAY         6     2.43000000E+00   # top
#    BR                NDA      ID1      ID2
     1.00000000E+00    2           5        24   # BR(t -> b W)
Block HiggsBoundsInputHiggsCouplingsFermions
# ScalarNormEffCoupSq PseudoSNormEffCoupSq NP IP1 IP2 IP2
    1.15078531E+00    0.00000000E+00        3  25   5   5  # h0-b-b eff. coupling^2, normalised to SM
    3.59984921E+03    0.00000000E+00        3  35   5   5  # H0-b-b eff. coupling^2, normalised to SM
    0.00000000E+00    3.60000000E+03        3  36   5   5  # A0-b-b eff. coupling^2, normalised to SM
#
    9.99958115E-01    0.00000000E+00        3  25   6   6  # h0-t-t eff. coupling^2, normalised to SM
    3.19662587E-04    0.00000000E+00        3  35   6   6  # H0-t-t eff. coupling^2, normalised to SM
    0.00000000E+00    2.77777778E-04        3  36   6   6  # A0-t-t eff. coupling^2, normalised to SM
#
    1.15078531E+00    0.00000000E+00        3  25  15  15  # h0-tau-tau eff. coupling^2, normalised to SM
    3.59984921E+03    0.00000000E+00        3  35  15  15  # H0-tau-tau eff. coupling^2, normalised to SM
    0.00000000E+00    3.60000000E+03        3  36  15  15  # A0-tau-tau eff. coupling^2, normalised to SM
#
Block HiggsBoundsInputHiggsCouplingsBosons
    9.99998530E-01        3  25  24  24  # h0-W-W eff. coupling^2, normalised to SM
    1.47004943E-06        3  35  24  24  # H0-W-W eff. coupling^2, normalised to SM
    0.00000000E+00        3  36  24  24  # A0-W-W eff. coupling^2, normalised to SM
#
    9.99998530E-01        3  25  23  23  # h0-Z-Z eff. coupling^2, normalised to SM
    1.47004943E-06        3  35  23  23  # H0-Z-Z eff. coupling^2, normalised to SM
    0.00000000E+00        3  36  23  23  # A0-Z-Z eff. coupling^2, normalised to SM
#
    1.15782484E+00        3  25  21  21  # h0-g-g eff. coupling^2, normalised to SM
    1.00998942E-01        3  35  21  21  # H0-g-g eff. coupling^2, normalised to SM
    2.61175197E-01        3  36  21  21  # A0-g-g eff. coupling^2, normalised to SM
#
    0.00000000E+00        3  25  25  23  # h0-h0-Z eff. coupling^2, normalised to SM
    0.00000000E+00        3  35  25  23  # H0-h0-Z eff. coupling^2, normalised to SM
    1.47004943E-06        3  36  25  23  # A0-h0-Z eff. coupling^2, normalised to SM
    0.00000000E+00        3  35  35  23  # H0-H0-Z eff. coupling^2, normalised to SM
    9.99998530E-01        3  36  35  23  # A0-H0-Z eff. coupling^2, normalised to SM
    0.00000000E+00        3  36  36  23  # A0-A0-Z eff. coupling^2, normalised to SM
#
    0.00000000E+00        4  25  21  21  23  # h0-g-g-Z eff. coupling^2, normalised to SM
    0.00000000E+00        4  35  21  21  23  # H0-g-g-Z eff. coupling^2, normalised to SM
    0.00000000E+00        4  36  21  21  23  # A0-g-g-Z eff. coupling^2, normalised to SM
Block SPhenoLowEnergy  # low energy observables
    1    3.28420285E-04   # BR(b -> s gamma)
    2    1.58986117E-06   # BR(b -> s mu+ mu-)
    3    3.53975647E-05   # BR(b -> s nu nu)
    4    1.22199245E-10   # BR(Bd -> mu+ mu-)
    5    8.14570415E-09   # BR(Bs -> mu+ mu-)
    6    7.53982645E-05   # BR(B_u -> tau nu)
    7    6.81761444E-01   # BR(B_u -> tau nu)/BR(B_u -> tau nu)_SM
    8    2.72860945E-01   # |Delta(M_Bd)| [ps^-1] 
    9    2.01151441E+01   # |Delta(M_Bs)| [ps^-1] 
   20    3.93248251E-14   # Delta(g-2)_electron/2
   21    8.58959454E-10   # Delta(g-2)_muon/2
   22    8.63866568E-08   # Delta(g-2)_tau/2
   23    0.00000000E+00   # electric dipole moment of the electron
   24    0.00000000E+00   # electric dipole moment of the muon
   25    0.00000000E+00   # electric dipole moment of the tau
   26    0.00000000E+00   # Br(mu -> e gamma)
   27    0.00000000E+00   # Br(tau -> e gamma)
   28    0.00000000E+00   # Br(tau -> mu gamma)
   29    0.00000000E+00   # Br(mu -> 3 e)
   30    0.00000000E+00   # Br(tau -> 3 e)
   31    0.00000000E+00   # Br(tau -> 3 mu)
   39    2.47804978E-03   # Delta(rho_parameter)
   40    0.00000000E+00   # BR(Z -> e mu)
   41    0.00000000E+00   # BR(Z -> e tau)
   42    0.00000000E+00   # BR(Z -> mu tau)
Block FWCOEF Q=  9.11876000E+01  # Wilson coefficients at scale Q
#    id        order  M        value         comment
Block FWCOEF Q=  1.60000000E+02  # Wilson coefficients at scale Q
#    id        order  M        value         comment
     0305 4422   00   0    -1.87764375E-01   # C7
     0305 4422   00   1    -2.86485234E-02   # C7
     0305 4322   00   1    -5.95056907E-04   # C7'
     0305 6421   00   0    -9.48916078E-02   # C8
     0305 6421   00   1    -4.06024707E-02   # C8
     0305 6321   00   1    -8.43695181E-04   # C8'
 03051111 4133   00   0    -1.24876709E+00   # C9 e+e-
 03051111 4133   00   1     8.13078070E-04   # C9 e+e-
 03051111 4233   00   1    -2.62057166E-04   # C9' e+e-
 03051111 4137   00   0    -3.94885960E+00   # C10 e+e-
 03051111 4137   00   1     2.89440493E-03   # C10 e+e-
 03051111 4237   00   1     6.72390713E-03   # C10' e+e-
 03051313 4133   00   0    -1.24876709E+00   # C9 mu+mu-
 03051313 4133   00   1     8.12653439E-04   # C9 mu+mu-
 03051313 4233   00   1    -2.62438209E-04   # C9' mu+mu-
 03051313 4137   00   0    -3.94885960E+00   # C10 mu+mu-
 03051313 4137   00   1     2.89398002E-03   # C10 mu+mu-
 03051313 4237   00   1     6.72428844E-03   # C10' mu+mu-
 03051212 4237   00   0     1.49024557E+00   # C11 nu_1 nu_1
 03051212 4237   00   1    -6.96738534E-04   # C11 nu_1 nu_1
 03051212 4137   00   1    -1.61565029E-03   # C11' nu_1 nu_1
 03051414 4237   00   0     1.49024557E+00   # C11 nu_2 nu_2
 03051414 4237   00   1    -6.96738269E-04   # C11 nu_2 nu_2
 03051414 4137   00   1    -1.61555879E-03   # C11' nu_2 nu_2
 03051616 4237   00   0     1.49024557E+00   # C11 nu_3 nu_3
 03051616 4237   00   1    -6.96493992E-04   # C11 nu_3 nu_3
 03051616 4137   00   1    -1.58976731E-03   # C11' nu_3 nu_3
