# SUSY Les Houches Accord 2 - MSSM spectrum + Decays
# SPheno v3.1.12 
# W. Porod, Comput. Phys. Commun. 153 (2003) 275-315, hep-ph/0301101
# in case of problems send email to porod@physik.uni-wuerzburg.de
# Created: 09.12.2016,  15:23
Block SPINFO         # Program information
     1   SPheno      # spectrum calculator
     2   v3.1.12     # version number
#
Block SPhenoINFO     # SPheno specific information
    1      2         # using 2-loop RGEs
    2      1         # using running masses for boundary conditions at mZ
Block MODSEL  # Model selection
    1    2    # mGMSB model
Block MINPAR  # Input parameters
    1    1.60000000E+05  # Lambda, scale of SUSY breaking
    2    2.50000000E+05  # M_M, messenger mass scale
    3    5.00000000E+01  # tanb at m_Z   
    4    1.00000000E+00  # Sign(mu)
    5    3.00000000E+00  # N_5 number of effective five-plets
    6    1.00000000E+00  # c_grav, Gravitino mass factor
Block gauge Q=  2.50000000E+05  # (GMSB scale)
   1    4.92787882E-01  # g'(Q)^DRbar
   2    6.45697525E-01  # g(Q)^DRbar
   3    9.30334411E-01  # g3(Q)^DRbar
Block SMINPUTS  # SM parameters
         1     1.27932525E+02  # alpha_em^-1(MZ)^MSbar
         2     1.16639000E-05  # G_mu [GeV^-2]
         3     1.17200000E-01  # alpha_s(MZ)^MSbar
         4     9.11876000E+01  # m_Z(pole)
         5     4.20000000E+00  # m_b(m_b), MSbar
         6     1.72500000E+02  # m_t(pole)
         7     1.77700000E+00  # m_tau(pole)
         8     0.00000000E+00  # m_nu_3
        11     5.10998910E-04  # m_e(pole)
        12     0.00000000E+00  # m_nu_1
        13     1.05658000E-01  # m_muon(pole)
        14     0.00000000E+00  # m_nu_2
        21     5.00000000E-03  # m_d(2 GeV), MSbar
        22     3.00000000E-03  # m_u(2 GeV), MSbar
        23     1.05000000E-01  # m_s(2 GeV), MSbar
        24     1.27000000E+00  # m_c(m_c), MSbar
Block gauge Q=  2.97906805E+03  # (SUSY scale)
   1    3.65408637E-01  # g'(Q)^DRbar
   2    6.37047233E-01  # g(Q)^DRbar
   3    1.00411412E+00  # g3(Q)^DRbar
Block Yu Q=  2.97906805E+03  # (SUSY scale)
  1  1     8.26663156E-06   # Y_u(Q)^DRbar
  2  2     3.49954300E-03   # Y_c(Q)^DRbar
  3  3     8.33014340E-01   # Y_t(Q)^DRbar
Block Yd Q=  2.97906805E+03  # (SUSY scale)
  1  1     5.79842765E-04   # Y_d(Q)^DRbar
  2  2     1.21766880E-02   # Y_s(Q)^DRbar
  3  3     5.88134022E-01   # Y_b(Q)^DRbar
Block Ye Q=  2.97906805E+03  # (SUSY scale)
  1  1     1.58849571E-04   # Y_e(Q)^DRbar
  2  2     3.28454520E-02   # Y_mu(Q)^DRbar
  3  3     5.54708541E-01   # Y_tau(Q)^DRbar
Block Au Q=  2.97906805E+03  # (SUSY scale)
  1  1    -8.97751547E+02   # A_u(Q)^DRbar
  2  2    -8.97747398E+02   # A_c(Q)^DRbar
  3  3    -8.43871079E+02   # A_t(Q)^DRbar
Block Ad Q=  2.97906805E+03  # (SUSY scale)
  1  1    -9.22503129E+02   # A_d(Q)^DRbar
  2  2    -9.22492690E+02   # A_s(Q)^DRbar
  3  3    -8.83923572E+02   # A_b(Q)^DRbar
Block Ae Q=  2.97906805E+03  # (SUSY scale)
  1  1    -7.96952842E+01   # A_e(Q)^DRbar
  2  2    -7.96863785E+01   # A_mu(Q)^DRbar
  3  3    -7.71672307E+01   # A_tau(Q)^DRbar
Block MSOFT Q=  2.97906805E+03  # soft SUSY breaking masses at Q
   1    7.28248467E+02  # M_1
   2    1.32409612E+03  # M_2
   3    3.30270189E+03  # M_3
  21    7.11558081E+04  # M^2_(H,d)
  22   -7.68759221E+05  # M^2_(H,u)
  31    9.91540485E+02  # M_(L,11)
  32    9.91493730E+02  # M_(L,22)
  33    9.78232511E+02  # M_(L,33)
  34    4.83487523E+02  # M_(E,11)
  35    4.83291415E+02  # M_(E,22)
  36    4.24145907E+02  # M_(E,33)
  41    3.11419227E+03  # M_(Q,11)
  42    3.11417180E+03  # M_(Q,22)
  43    2.98176831E+03  # M_(Q,33)
  44    2.98368563E+03  # M_(U,11)
  45    2.98368238E+03  # M_(U,22)
  46    2.79638386E+03  # M_(U,33)
  47    2.97092633E+03  # M_(D,11)
  48    2.97088627E+03  # M_(D,22)
  49    2.87697572E+03  # M_(D,33)
Block MASS  # Mass spectrum
#   PDG code      mass          particle
         6     1.72500000E+02  # m_t(pole)
        23     9.11876000E+01  # m_Z(pole)
        24     8.03102322E+01  # W+
        15     1.77700000E+00  # m_tau(pole)
        25     1.21587549E+02  # h0
        35     9.57992694E+02  # H0
        36     9.57964226E+02  # A0
        37     9.62040780E+02  # H+
   1000001     3.24153774E+03  # ~d_L
   2000001     3.09030154E+03  # ~d_R
   1000002     3.24054488E+03  # ~u_L
   2000002     3.10250656E+03  # ~u_R
   1000003     3.24151322E+03  # ~s_L
   2000003     3.09025175E+03  # ~s_R
   1000004     3.24051976E+03  # ~c_L
   2000004     3.10250262E+03  # ~c_R
   1000005     2.97221940E+03  # ~b_1
   2000005     3.08163660E+03  # ~b_2
   1000006     2.87717043E+03  # ~t_1
   2000006     3.08457399E+03  # ~t_2
   1000011     1.01455035E+03  # ~e_L-
   2000011     5.01508410E+02  # ~e_R-
   1000012     1.01100878E+03  # ~nu_eL
   1000013     1.01450339E+03  # ~mu_L-
   2000013     5.01223456E+02  # ~mu_R-
   1000014     1.01094114E+03  # ~nu_muL
   1000015     4.14827337E+02  # ~tau_1-
   2000015     1.00116745E+03  # ~tau_2-
   1000016     9.92100156E+02  # ~nu_tauL
   1000021     3.44766179E+03  # ~g
   1000022     7.08727052E+02  # ~chi_10
   1000023     9.81416490E+02  # ~chi_20
   1000025    -9.87776143E+02  # ~chi_30
   1000035     1.36018681E+03  # ~chi_40
   1000024     9.78789418E+02  # ~chi_1+
   1000037     1.36038078E+03  # ~chi_2+
   1000039     9.60000000E-09  # ~G
# Higgs mixing
Block alpha # Effective Higgs mixing angle
          -2.08801068E-02   # alpha
Block Hmix Q=  2.97906805E+03  # Higgs mixing parameters
   1    9.78206661E+02  # mu
   2    4.91160777E+01  # tan[beta](Q)
   3    2.43374223E+02  # v(Q)
   4    8.32625052E+05  # m^2_A(Q)
Block stopmix # stop mixing matrix
   1  1     1.23115158E-01   # Re[R_st(1,1)]
   1  2     9.92392391E-01   # Re[R_st(1,2)]
   2  1    -9.92392391E-01   # Re[R_st(2,1)]
   2  2     1.23115158E-01   # Re[R_st(2,2)]
Block sbotmix # sbottom mixing matrix
   1  1     1.63002938E-01   # Re[R_sb(1,1)]
   1  2     9.86625584E-01   # Re[R_sb(1,2)]
   2  1    -9.86625584E-01   # Re[R_sb(2,1)]
   2  2     1.63002938E-01   # Re[R_sb(2,2)]
Block staumix # stau mixing matrix
   1  1     1.14659494E-01   # Re[R_sta(1,1)]
   1  2     9.93404852E-01   # Re[R_sta(1,2)]
   2  1    -9.93404852E-01   # Re[R_sta(2,1)]
   2  2     1.14659494E-01   # Re[R_sta(2,2)]
Block Nmix # neutralino mixing matrix
   1  1    -9.92783241E-01   # Re[N(1,1)]
   1  2     8.81877016E-03   # Re[N(1,2)]
   1  3    -9.64668169E-02   # Re[N(1,3)]
   1  4     7.06952510E-02   # Re[N(1,4)]
   2  1    -1.18247430E-01   # Re[N(2,1)]
   2  2    -1.49520390E-01   # Re[N(2,2)]
   2  3     6.95763711E-01   # Re[N(2,3)]
   2  4    -6.92512857E-01   # Re[N(2,4)]
   3  1    -1.80267215E-02   # Re[N(3,1)]
   3  2     2.33706394E-02   # Re[N(3,2)]
   3  3     7.06124953E-01   # Re[N(3,3)]
   3  4     7.07471838E-01   # Re[N(3,4)]
   4  1    -8.60340767E-03   # Re[N(4,1)]
   4  2     9.88443066E-01   # Re[N(4,2)]
   4  3     8.94123210E-02   # Re[N(4,3)]
   4  4    -1.22113566E-01   # Re[N(4,4)]
Block Umix # chargino mixing matrix
   1  1    -1.26469996E-01   # Re[U(1,1)]
   1  2     9.91970433E-01   # Re[U(1,2)]
   2  1     9.91970433E-01   # Re[U(2,1)]
   2  2     1.26469996E-01   # Re[U(2,2)]
Block Vmix # chargino mixing matrix
   1  1    -1.72670272E-01   # Re[V(1,1)]
   1  2     9.84979684E-01   # Re[V(1,2)]
   2  1     9.84979684E-01   # Re[V(2,1)]
   2  2     1.72670272E-01   # Re[V(2,2)]
DECAY   2000011     1.19483601E-06   # ~e^-_R
#    BR                NDA      ID1      ID2
     3.30136059E-04    2     1000039        11   # BR(~e^-_R -> ~G e^-)
#    BR                NDA      ID1      ID2       ID3
     5.93192328E-14    3     2000013        11       -13   # BR(~e^-_R -> ~mu^-_R e^- mu^+)
     2.38917330E-13    3    -2000013        11        13   # BR(~e^-_R -> ~mu^+_R e^- mu^-)
     1.73707991E-01    3     1000015        11       -15   # BR(~e^-_R -> ~tau^-_1 e^- tau^+)
     8.25961873E-01    3    -1000015        11        15   # BR(~e^-_R -> ~tau^+_1 e^- tau^-)
DECAY   1000011     3.38903752E-01   # ~e^-_L
#    BR                NDA      ID1      ID2
     9.95782589E-01    2     1000022        11   # BR(~e^-_L -> chi^0_1 e^-)
     2.35669784E-03    2     1000023        11   # BR(~e^-_L -> chi^0_2 e^-)
     5.56845796E-06    2     1000025        11   # BR(~e^-_L -> chi^0_3 e^-)
     1.85409250E-03    2    -1000024        12   # BR(~e^-_L -> chi^-_1 nu_e)
     4.99910202E-07    2     2000011        23   # BR(~e^-_L -> ~e^-_R Z)
     5.12561929E-07    2     2000011        25   # BR(~e^-_L -> ~e^-_R h^0)
     3.94368122E-08    2     1000039        11   # BR(~e^-_L -> ~G e^-)
DECAY   2000013     1.17958158E-06   # ~mu^-_R
#    BR                NDA      ID1      ID2
     3.33456381E-04    2     1000039        13   # BR(~mu^-_R -> ~G mu^-)
#    BR                NDA      ID1      ID2       ID3
     1.73173498E-01    3     1000015        13       -15   # BR(~mu^-_R -> ~tau^-_1 mu^- tau^+)
     8.26493045E-01    3    -1000015        13        15   # BR(~mu^-_R -> ~tau^+_1 mu^- tau^-)
DECAY   1000013     3.53610731E-01   # ~mu^-_L
#    BR                NDA      ID1      ID2
     9.54281241E-01    2     1000022        13   # BR(~mu^-_L -> chi^0_1 mu^-)
     2.36889744E-03    2     1000023        13   # BR(~mu^-_L -> chi^0_2 mu^-)
     8.89424235E-05    2     1000025        13   # BR(~mu^-_L -> chi^0_3 mu^-)
     1.76200865E-03    2    -1000024        14   # BR(~mu^-_L -> chi^-_1 nu_mu)
     2.04919599E-02    2     2000013        23   # BR(~mu^-_L -> ~mu^-_R Z)
     2.10069133E-02    2     2000013        25   # BR(~mu^-_L -> ~mu^-_R h^0)
     3.77878528E-08    2     1000039        13   # BR(~mu^-_L -> ~G mu^-)
DECAY   1000015     1.52726757E-10   # ~tau^-_1
#    BR                NDA      ID1      ID2
     1.00000000E+00    2     1000039        15   # BR(~tau^-_1 -> ~G tau^-)
DECAY   2000015     4.86598128E+00   # ~tau^-_2
#    BR                NDA      ID1      ID2
     6.73094173E-02    2     1000022        15   # BR(~tau^-_2 -> chi^0_1 tau^-)
     9.42774863E-04    2     1000023        15   # BR(~tau^-_2 -> chi^0_2 tau^-)
     4.28485379E-04    2     1000025        15   # BR(~tau^-_2 -> chi^0_3 tau^-)
     2.29631938E-06    2    -1000024        16   # BR(~tau^-_2 -> chi^-_1 nu_tau)
     4.69926788E-01    2     1000015        23   # BR(~tau^-_2 -> ~tau^-_1 Z)
     4.61390235E-01    2     1000015        25   # BR(~tau^-_2 -> ~tau^-_1 h^0)
     2.57020561E-09    2     1000039        15   # BR(~tau^-_2 -> ~G tau^-)
DECAY   1000012     3.54076255E-01   # ~nu_e
#    BR                NDA      ID1      ID2
     9.97012081E-01    2     1000022        12   # BR(~nu_e -> chi^0_1 nu_e)
     2.55966434E-04    2     1000023        12   # BR(~nu_e -> chi^0_2 nu_e)
     2.70362789E-05    2     1000025        12   # BR(~nu_e -> chi^0_3 nu_e)
     2.70395657E-03    2     1000024        11   # BR(~nu_e -> chi^+_1 e^-)
     9.23058657E-07    2     2000011        24   # BR(~nu_e -> ~e^-_R W^+)
     3.70926609E-08    2     1000039        12   # BR(~nu_e -> ~G nu_e)
DECAY   1000014     3.68016464E-01   # ~nu_mu
#    BR                NDA      ID1      ID2
     9.58933735E-01    2     1000022        14   # BR(~nu_mu -> chi^0_1 nu_mu)
     2.45178606E-04    2     1000023        14   # BR(~nu_mu -> chi^0_2 nu_mu)
     2.58643557E-05    2     1000025        14   # BR(~nu_mu -> chi^0_3 nu_mu)
     2.81329722E-03    2     1000024        13   # BR(~nu_mu -> chi^+_1 mu^-)
     3.79818896E-02    2     2000013        24   # BR(~nu_mu -> ~mu^-_R W^+)
     3.56756797E-08    2     1000039        14   # BR(~nu_mu -> ~G nu_mu)
DECAY   1000016     4.68800128E+00   # ~nu_tau
#    BR                NDA      ID1      ID2
     6.85011886E-02    2     1000022        16   # BR(~nu_tau -> chi^0_1 nu_tau)
     2.61632334E-06    2     1000023        16   # BR(~nu_tau -> chi^0_2 nu_tau)
     7.34472082E-08    2     1000025        16   # BR(~nu_tau -> chi^0_3 nu_tau)
     8.85657201E-04    2     1000024        15   # BR(~nu_tau -> chi^+_1 tau^-)
     9.30610462E-01    2     1000015        24   # BR(~nu_tau -> ~tau^-_1 W^+)
     2.54917723E-09    2     1000039        16   # BR(~nu_tau -> ~G nu_tau)
DECAY   2000001     1.63504399E+00   # ~d_R
#    BR                NDA      ID1      ID2
     9.87019328E-01    2     1000022         1   # BR(~d_R -> chi^0_1 d)
     1.26171617E-02    2     1000023         1   # BR(~d_R -> chi^0_2 d)
     2.97300386E-04    2     1000025         1   # BR(~d_R -> chi^0_3 d)
     5.36843366E-05    2     1000035         1   # BR(~d_R -> chi^0_4 d)
     1.03818344E-05    2    -1000024         2   # BR(~d_R -> chi^-_1 u)
     3.61592718E-10    2    -1000037         2   # BR(~d_R -> chi^-_2 u)
     2.14331010E-06    2     1000039         1   # BR(~d_R -> ~G d)
DECAY   1000001     2.71837172E+01   # ~d_L
#    BR                NDA      ID1      ID2
     1.72212300E-02    2     1000022         1   # BR(~d_L -> chi^0_1 d)
     6.39736700E-03    2     1000023         1   # BR(~d_L -> chi^0_2 d)
     2.85214062E-04    2     1000025         1   # BR(~d_L -> chi^0_3 d)
     3.20339005E-01    2     1000035         1   # BR(~d_L -> chi^0_4 d)
     1.27189245E-02    2    -1000024         2   # BR(~d_L -> chi^-_1 u)
     6.43038092E-01    2    -1000037         2   # BR(~d_L -> chi^-_2 u)
     9.10143052E-13    2     2000002       -24   # BR(~d_L -> ~u_R W^-)
     1.87775306E-09    2     2000001        23   # BR(~d_L -> ~d_R Z)
     2.02011088E-09    2     2000001        25   # BR(~d_L -> ~d_R h^0)
     1.63703035E-07    2     1000039         1   # BR(~d_L -> ~G d)
DECAY   2000003     1.64988515E+00   # ~s_R
#    BR                NDA      ID1      ID2
     9.78210720E-01    2     1000022         3   # BR(~s_R -> chi^0_1 s)
     1.47047063E-02    2     1000023         3   # BR(~s_R -> chi^0_2 s)
     2.49214134E-03    2     1000025         3   # BR(~s_R -> chi^0_3 s)
     5.31039672E-05    2     1000035         3   # BR(~s_R -> chi^0_4 s)
     4.53704526E-03    2    -1000024         4   # BR(~s_R -> chi^-_1 c)
     1.58934120E-07    2    -1000037         4   # BR(~s_R -> chi^-_2 c)
     2.12385934E-06    2     1000039         3   # BR(~s_R -> ~G s)
DECAY   1000003     2.71916877E+01   # ~s_L
#    BR                NDA      ID1      ID2
     1.72161930E-02    2     1000022         3   # BR(~s_L -> chi^0_1 s)
     6.53267165E-03    2     1000023         3   # BR(~s_L -> chi^0_2 s)
     4.30246361E-04    2     1000025         3   # BR(~s_L -> chi^0_3 s)
     3.20244477E-01    2     1000035         3   # BR(~s_L -> chi^0_4 s)
     1.27291992E-02    2    -1000024         4   # BR(~s_L -> chi^-_1 c)
     6.42845166E-01    2    -1000037         4   # BR(~s_L -> chi^-_2 c)
     1.63002151E-07    2     2000004       -24   # BR(~s_L -> ~c_R W^-)
     8.28226475E-07    2     2000003        23   # BR(~s_L -> ~s_R Z)
     8.91019020E-07    2     2000003        25   # BR(~s_L -> ~s_R h^0)
     1.63648858E-07    2     1000039         3   # BR(~s_L -> ~G s)
DECAY   1000005     3.47583419E+01   # ~b_1
#    BR                NDA      ID1      ID2
     5.54376555E-02    2     1000022         5   # BR(~b_1 -> chi^0_1 b)
     2.33276082E-01    2     1000023         5   # BR(~b_1 -> chi^0_2 b)
     2.29533642E-01    2     1000025         5   # BR(~b_1 -> chi^0_3 b)
     5.14942031E-04    2     1000035         5   # BR(~b_1 -> chi^0_4 b)
     4.79630982E-01    2    -1000024         6   # BR(~b_1 -> chi^-_1 t)
     1.59935211E-03    2    -1000037         6   # BR(~b_1 -> chi^-_2 t)
     7.26116130E-06    2     1000006       -24   # BR(~b_1 -> ~t_1 W^-)
     8.29758984E-08    2     1000039         5   # BR(~b_1 -> ~G b)
DECAY   2000005     7.51975724E+01   # ~b_2
#    BR                NDA      ID1      ID2
     5.14339459E-03    2     1000022         5   # BR(~b_2 -> chi^0_1 b)
     1.09146158E-01    2     1000023         5   # BR(~b_2 -> chi^0_2 b)
     1.14585189E-01    2     1000025         5   # BR(~b_2 -> chi^0_3 b)
     1.07841705E-01    2     1000035         5   # BR(~b_2 -> chi^0_4 b)
     4.29393661E-01    2    -1000024         6   # BR(~b_2 -> chi^-_1 t)
     2.27802569E-01    2    -1000037         6   # BR(~b_2 -> chi^-_2 t)
     5.90130695E-03    2     1000006       -24   # BR(~b_2 -> ~t_1 W^-)
     1.85970886E-04    2     1000005        23   # BR(~b_2 -> ~b_1 Z)
     4.59526148E-08    2     1000039         5   # BR(~b_2 -> ~G b)
DECAY   2000002     6.57166223E+00   # ~u_R
#    BR                NDA      ID1      ID2
     9.87029617E-01    2     1000022         2   # BR(~u_R -> chi^0_1 u)
     1.26234665E-02    2     1000023         2   # BR(~u_R -> chi^0_2 u)
     2.92531370E-04    2     1000025         2   # BR(~u_R -> chi^0_3 u)
     5.38409484E-05    2     1000035         2   # BR(~u_R -> chi^0_4 u)
     5.31161192E-10    2     1000024         1   # BR(~u_R -> chi^+_1 d)
     3.39763043E-13    2     1000037         1   # BR(~u_R -> chi^+_2 d)
     5.43874218E-07    2     1000039         2   # BR(~u_R -> ~G u)
DECAY   1000002     2.72269923E+01   # ~u_L
#    BR                NDA      ID1      ID2
     1.42707987E-02    2     1000022         2   # BR(~u_L -> chi^0_1 u)
     1.17438109E-02    2     1000023         2   # BR(~u_L -> chi^0_2 u)
     1.56931325E-04    2     1000025         2   # BR(~u_L -> chi^0_3 u)
     3.17527371E-01    2     1000035         2   # BR(~u_L -> chi^0_4 u)
     2.36616925E-02    2     1000024         1   # BR(~u_L -> chi^+_1 d)
     6.32639228E-01    2     1000037         1   # BR(~u_L -> chi^+_2 d)
     4.24197202E-09    2     2000001        24   # BR(~u_L -> ~d_R W^+)
     3.56740955E-13    2     2000002        23   # BR(~u_L -> ~u_R Z)
     2.58365486E-13    2     2000002        25   # BR(~u_L -> ~u_R h^0)
     1.63192688E-07    2     1000039         2   # BR(~u_L -> ~G u)
DECAY   2000004     6.57289228E+00   # ~c_R
#    BR                NDA      ID1      ID2
     9.86843589E-01    2     1000022         4   # BR(~c_R -> chi^0_1 c)
     1.26672981E-02    2     1000023         4   # BR(~c_R -> chi^0_2 c)
     3.39485152E-04    2     1000025         4   # BR(~c_R -> chi^0_3 c)
     5.38492013E-05    2     1000035         4   # BR(~c_R -> chi^0_4 c)
     9.51735005E-05    2     1000024         3   # BR(~c_R -> chi^+_1 s)
     6.07923477E-08    2     1000037         3   # BR(~c_R -> chi^+_2 s)
     5.43768622E-07    2     1000039         4   # BR(~c_R -> ~G c)
DECAY   1000004     2.72351379E+01   # ~c_L
#    BR                NDA      ID1      ID2
     1.42664532E-02    2     1000022         4   # BR(~c_L -> chi^0_1 c)
     1.17511554E-02    2     1000023         4   # BR(~c_L -> chi^0_2 c)
     1.68726012E-04    2     1000025         4   # BR(~c_L -> chi^0_3 c)
     3.17428522E-01    2     1000035         4   # BR(~c_L -> chi^0_4 c)
     2.39376103E-02    2     1000024         3   # BR(~c_L -> chi^+_1 s)
     6.32445389E-01    2     1000037         3   # BR(~c_L -> chi^+_2 s)
     1.87083513E-06    2     2000003        24   # BR(~c_L -> ~s_R W^+)
     6.38808918E-08    2     2000004        23   # BR(~c_L -> ~c_R Z)
     4.62568693E-08    2     2000004        25   # BR(~c_L -> ~c_R h^0)
     1.63137456E-07    2     1000039         4   # BR(~c_L -> ~G c)
DECAY   1000006     6.78132373E+01   # ~t_1
#    BR                NDA      ID1      ID2
     1.79669120E-04    2     1000022         4   # BR(~t_1 -> chi^0_1 c)
     8.97257170E-02    2     1000022         6   # BR(~t_1 -> chi^0_1 t)
     1.43789599E-04    2     1000023         4   # BR(~t_1 -> chi^0_2 c)
     2.20748573E-01    2     1000023         6   # BR(~t_1 -> chi^0_2 t)
     2.30283594E-01    2     1000025         6   # BR(~t_1 -> chi^0_3 t)
     1.08791100E-03    2     1000035         6   # BR(~t_1 -> chi^0_4 t)
     4.55591253E-01    2     1000024         5   # BR(~t_1 -> chi^+_1 b)
     2.22407698E-03    2     1000037         5   # BR(~t_1 -> chi^+_2 b)
     3.56342781E-08    2     1000039         6   # BR(~t_1 -> ~G t)
#    BR                NDA      ID1      ID2       ID3
     1.53819684E-05    3     1000022        24         5   # BR(~t_1 -> chi^0_1 W^+ b)
DECAY   2000006     7.60062682E+01   # ~t_2
#    BR                NDA      ID1      ID2
     5.83959096E-03    2     1000022         6   # BR(~t_2 -> chi^0_1 t)
     2.15673135E-01    2     1000023         6   # BR(~t_2 -> chi^0_2 t)
     2.20818783E-01    2     1000025         6   # BR(~t_2 -> chi^0_3 t)
     1.15043210E-01    2     1000035         6   # BR(~t_2 -> chi^0_4 t)
     2.18919029E-01    2     1000024         5   # BR(~t_2 -> chi^+_1 b)
     2.17770576E-01    2     1000037         5   # BR(~t_2 -> chi^+_2 b)
     7.91168749E-04    2     1000005        24   # BR(~t_2 -> ~b_1 W^+)
     2.95602455E-03    2     1000006        23   # BR(~t_2 -> ~t_1 Z)
     2.18843906E-03    2     1000006        25   # BR(~t_2 -> ~t_1 h^0)
     4.51123336E-08    2     1000039         6   # BR(~t_2 -> ~G t)
DECAY   1000024     2.43655126E+00   # chi^+_1
#    BR                NDA      ID1      ID2
     5.59124076E-08    2    -2000011        12   # BR(chi^+_1 -> ~e^+_R nu_e)
     2.39227789E-03    2    -2000013        14   # BR(chi^+_1 -> ~mu^+_R nu_mu)
     8.30958415E-01    2    -1000015        16   # BR(chi^+_1 -> ~tau^+_1 nu_tau)
     1.66503570E-01    2     1000022        24   # BR(chi^+_1 -> chi^0_1 W^+)
#    BR                NDA      ID1      ID2       ID3
     1.56032614E-10    3     1000022        -1         2   # BR(chi^+_1 -> chi^0_1 d_bar u)
     1.10200157E-09    3     1000022        -3         4   # BR(chi^+_1 -> chi^0_1 s_bar c)
     1.34564488E-04    3     1000022        -5         6   # BR(chi^+_1 -> chi^0_1 b_bar t)
     6.19249111E-07    3     1000022       -11        12   # BR(chi^+_1 -> chi^0_1 e^+ nu_e)
     6.45773356E-07    3     1000022       -13        14   # BR(chi^+_1 -> chi^0_1 mu^+ nu_mu)
     9.85008693E-06    3     1000022       -15        16   # BR(chi^+_1 -> chi^0_1 tau^+ nu_tau)
DECAY   1000037     1.39200696E+01   # chi^+_2
#    BR                NDA      ID1      ID2
     3.10991670E-12    2    -2000011        12   # BR(chi^+_2 -> ~e^+_R nu_e)
     7.64621421E-02    2    -1000011        12   # BR(chi^+_2 -> ~e^+_L nu_e)
     1.32379788E-07    2    -2000013        14   # BR(chi^+_2 -> ~mu^+_R nu_mu)
     7.64831535E-02    2    -1000013        14   # BR(chi^+_2 -> ~mu^+_L nu_mu)
     6.11725190E-06    2    -1000015        16   # BR(chi^+_2 -> ~tau^+_1 nu_tau)
     8.25710852E-02    2    -2000015        16   # BR(chi^+_2 -> ~tau^+_2 nu_tau)
     7.67109035E-02    2     1000012       -11   # BR(chi^+_2 -> ~nu_e e^+)
     7.67392404E-02    2     1000014       -13   # BR(chi^+_2 -> ~nu_mu mu^+)
     8.48283247E-02    2     1000016       -15   # BR(chi^+_2 -> ~nu_tau tau^+)
     7.61507911E-07    2     1000022        24   # BR(chi^+_2 -> chi^0_1 W^+)
     1.32881905E-01    2     1000023        24   # BR(chi^+_2 -> chi^0_2 W^+)
     1.28368767E-01    2     1000025        24   # BR(chi^+_2 -> chi^0_3 W^+)
     1.34695262E-01    2     1000024        23   # BR(chi^+_2 -> chi^+_1 Z)
     1.29260309E-01    2     1000024        25   # BR(chi^+_2 -> chi^+_1 h^0)
#    BR                NDA      ID1      ID2       ID3
     2.29442939E-09    3     1000024         2        -2   # BR(chi^+_2 -> chi^+_1 u u_bar)
     2.29535921E-09    3     1000024         4        -4   # BR(chi^+_2 -> chi^+_1 c c_bar)
     3.14785518E-05    3     1000024         6        -6   # BR(chi^+_2 -> chi^+_1 t t_bar)
     4.23747545E-09    3     1000024         1        -1   # BR(chi^+_2 -> chi^+_1 d d_bar)
     1.06703199E-08    3     1000024         3        -3   # BR(chi^+_2 -> chi^+_1 s s_bar)
     1.52119385E-05    3     1000024         5        -5   # BR(chi^+_2 -> chi^+_1 b b_bar)
     3.31924692E-13    3     1000024        11       -11   # BR(chi^+_2 -> chi^+_1 e^- e^+)
     1.41911619E-08    3     1000024        13       -13   # BR(chi^+_2 -> chi^+_1 mu^- mu^+)
     4.04677678E-06    3     1000024        15       -15   # BR(chi^+_2 -> chi^+_1 tau^- tau^+)
     4.19672139E-11    3     1000024        12       -12   # BR(chi^+_2 -> chi^+_1 nu_e nu_bar_e)
     6.86490909E-08    3     1000022        -1         2   # BR(chi^+_2 -> chi^0_1 d_bar u)
     6.88629804E-08    3     1000022        -3         4   # BR(chi^+_2 -> chi^0_1 s_bar c)
     4.43048214E-07    3     1000022        -5         6   # BR(chi^+_2 -> chi^0_1 b_bar t)
     4.12692771E-10    3     1000022       -13        14   # BR(chi^+_2 -> chi^0_1 mu^+ nu_mu)
     1.30140849E-07    3     1000022       -15        16   # BR(chi^+_2 -> chi^0_1 tau^+ nu_tau)
     1.69482198E-09    3     1000023        -1         2   # BR(chi^+_2 -> chi^0_2 d_bar u)
     4.85426134E-09    3     1000023        -3         4   # BR(chi^+_2 -> chi^0_2 s_bar c)
     4.90511086E-04    3     1000023        -5         6   # BR(chi^+_2 -> chi^0_2 b_bar t)
     1.66420353E-13    3     1000023       -11        12   # BR(chi^+_2 -> chi^0_2 e^+ nu_e)
     7.11511257E-09    3     1000023       -13        14   # BR(chi^+_2 -> chi^0_2 mu^+ nu_mu)
     2.02676029E-06    3     1000023       -15        16   # BR(chi^+_2 -> chi^0_2 tau^+ nu_tau)
     1.11678156E-10    3     1000025        -1         2   # BR(chi^+_2 -> chi^0_3 d_bar u)
     2.92520149E-09    3     1000025        -3         4   # BR(chi^+_2 -> chi^0_3 s_bar c)
     4.46042894E-04    3     1000025        -5         6   # BR(chi^+_2 -> chi^0_3 b_bar t)
     1.48598953E-13    3     1000025       -11        12   # BR(chi^+_2 -> chi^0_3 e^+ nu_e)
     6.35319785E-09    3     1000025       -13        14   # BR(chi^+_2 -> chi^0_3 mu^+ nu_mu)
     1.81092031E-06    3     1000025       -15        16   # BR(chi^+_2 -> chi^0_3 tau^+ nu_tau)
DECAY   1000022     3.47820764E+00   # chi^0_1
#    BR                NDA      ID1      ID2
     1.32984645E-01    2     2000011       -11   # BR(chi^0_1 -> ~e^-_R e^+)
     1.32984645E-01    2    -2000011        11   # BR(chi^0_1 -> ~e^+_R e^-)
     1.33294092E-01    2     2000013       -13   # BR(chi^0_1 -> ~mu^-_R mu^+)
     1.33294092E-01    2    -2000013        13   # BR(chi^0_1 -> ~mu^+_R mu^-)
     2.33721263E-01    2     1000015       -15   # BR(chi^0_1 -> ~tau^-_1 tau^+)
     2.33721263E-01    2    -1000015        15   # BR(chi^0_1 -> ~tau^+_1 tau^-)
     4.69236830E-10    2     1000039        22   # BR(chi^0_1 -> ~G photon)
     1.38361795E-10    2     1000039        23   # BR(chi^0_1 -> ~G Z)
     3.37496800E-12    2     1000039        25   # BR(chi^0_1 -> ~G h^0)
DECAY   1000023     2.58140498E+00   # chi^0_2
#    BR                NDA      ID1      ID2
     7.70922773E-03    2     2000011       -11   # BR(chi^0_2 -> ~e^-_R e^+)
     7.70922773E-03    2    -2000011        11   # BR(chi^0_2 -> ~e^+_R e^-)
     8.81859104E-03    2     2000013       -13   # BR(chi^0_2 -> ~mu^-_R mu^+)
     8.81859104E-03    2    -2000013        13   # BR(chi^0_2 -> ~mu^+_R mu^-)
     3.97841017E-01    2     1000015       -15   # BR(chi^0_2 -> ~tau^-_1 tau^+)
     3.97841017E-01    2    -1000015        15   # BR(chi^0_2 -> ~tau^+_1 tau^-)
     4.90122891E-03    2     1000022        23   # BR(chi^0_2 -> chi^0_1 Z)
     1.66350687E-01    2     1000022        25   # BR(chi^0_2 -> chi^0_1 h^0)
     1.37341688E-10    2     1000039        22   # BR(chi^0_2 -> ~G photon)
     3.49419487E-10    2     1000039        23   # BR(chi^0_2 -> ~G Z)
     2.19088832E-09    2     1000039        25   # BR(chi^0_2 -> ~G h^0)
     8.77951076E-08    2     1000022        22   # BR(chi^0_2 -> chi^0_1 photon)
#    BR                NDA      ID1      ID2       ID3
     6.34193630E-10    3     1000022         2        -2   # BR(chi^0_2 -> chi^0_1 u u_bar)
     6.34939991E-10    3     1000022         4        -4   # BR(chi^0_2 -> chi^0_1 c c_bar)
     9.72473010E-11    3     1000022         1        -1   # BR(chi^0_2 -> chi^0_1 d d_bar)
     1.13325726E-09    3     1000022         3        -3   # BR(chi^0_2 -> chi^0_1 s s_bar)
     2.44197471E-06    3     1000022         5        -5   # BR(chi^0_2 -> chi^0_1 b b_bar)
     9.69403311E-07    3     1000022        11       -11   # BR(chi^0_2 -> chi^0_1 e^- e^+)
     9.84100609E-07    3     1000022        13       -13   # BR(chi^0_2 -> chi^0_1 mu^- mu^+)
     5.58024203E-06    3     1000022        15       -15   # BR(chi^0_2 -> chi^0_1 tau^- tau^+)
     3.43649246E-07    3     1000022        12       -12   # BR(chi^0_2 -> chi^0_1 nu_e nu_bar_e)
     1.98625206E-11    3     1000024         1        -2   # BR(chi^0_2 -> chi^+_1 d u_bar)
     1.98625206E-11    3    -1000024        -1         2   # BR(chi^0_2 -> chi^-_1 d_bar u)
     6.23003920E-12    3     1000024         3        -4   # BR(chi^0_2 -> chi^+_1 s c_bar)
     6.23003920E-12    3    -1000024        -3         4   # BR(chi^0_2 -> chi^-_1 s_bar c)
     6.64727867E-12    3     1000024        11       -12   # BR(chi^0_2 -> chi^+_1 e^- nu_bar_e)
     6.64727867E-12    3    -1000024       -11        12   # BR(chi^0_2 -> chi^-_1 e^+ nu_e)
     6.59391319E-12    3     1000024        13       -14   # BR(chi^0_2 -> chi^+_1 mu^- nu_bar_mu)
     6.59391319E-12    3    -1000024       -13        14   # BR(chi^0_2 -> chi^-_1 mu^+ nu_mu)
     5.44404046E-13    3     1000024        15       -16   # BR(chi^0_2 -> chi^+_1 tau^- nu_bar_tau)
     5.44404046E-13    3    -1000024       -15        16   # BR(chi^0_2 -> chi^-_1 tau^+ nu_tau)
DECAY   1000025     2.46371792E+00   # chi^0_3
#    BR                NDA      ID1      ID2
     1.90687986E-04    2     2000011       -11   # BR(chi^0_3 -> ~e^-_R e^+)
     1.90687986E-04    2    -2000011        11   # BR(chi^0_3 -> ~e^+_R e^-)
     1.36260500E-03    2     2000013       -13   # BR(chi^0_3 -> ~mu^-_R mu^+)
     1.36260500E-03    2    -2000013        13   # BR(chi^0_3 -> ~mu^+_R mu^-)
     4.11315230E-01    2     1000015       -15   # BR(chi^0_3 -> ~tau^-_1 tau^+)
     4.11315230E-01    2    -1000015        15   # BR(chi^0_3 -> ~tau^+_1 tau^-)
     1.70552316E-01    2     1000022        23   # BR(chi^0_3 -> chi^0_1 Z)
     3.70061683E-03    2     1000022        25   # BR(chi^0_3 -> chi^0_1 h^0)
     7.62651829E-14    2     1000039        22   # BR(chi^0_3 -> ~G photon)
     4.77963313E-10    2     1000039        23   # BR(chi^0_3 -> ~G Z)
     2.27585932E-09    2     1000039        25   # BR(chi^0_3 -> ~G h^0)
     1.18803844E-07    2     1000022        22   # BR(chi^0_3 -> chi^0_1 photon)
     1.01561582E-10    2     1000023        22   # BR(chi^0_3 -> chi^0_2 photon)
#    BR                NDA      ID1      ID2       ID3
     5.56672683E-12    3     1000022         2        -2   # BR(chi^0_3 -> chi^0_1 u u_bar)
     7.37327607E-12    3     1000022         4        -4   # BR(chi^0_3 -> chi^0_1 c c_bar)
     4.09907466E-12    3     1000022         1        -1   # BR(chi^0_3 -> chi^0_1 d d_bar)
     1.18803535E-09    3     1000022         3        -3   # BR(chi^0_3 -> chi^0_1 s s_bar)
     2.78412103E-06    3     1000022         5        -5   # BR(chi^0_3 -> chi^0_1 b b_bar)
     4.74266266E-09    3     1000022        11       -11   # BR(chi^0_3 -> chi^0_1 e^- e^+)
     2.57434805E-08    3     1000022        13       -13   # BR(chi^0_3 -> chi^0_1 mu^- mu^+)
     6.98731064E-06    3     1000022        15       -15   # BR(chi^0_3 -> chi^0_1 tau^- tau^+)
     4.01916461E-08    3     1000022        12       -12   # BR(chi^0_3 -> chi^0_1 nu_e nu_bar_e)
     4.77460078E-10    3     1000023         2        -2   # BR(chi^0_3 -> chi^0_2 u u_bar)
     3.60020329E-10    3     1000023         4        -4   # BR(chi^0_3 -> chi^0_2 c c_bar)
     6.20116746E-10    3     1000023         1        -1   # BR(chi^0_3 -> chi^0_2 d d_bar)
     6.18752217E-10    3     1000023         3        -3   # BR(chi^0_3 -> chi^0_2 s s_bar)
     1.42595162E-10    3     1000023        11       -11   # BR(chi^0_3 -> chi^0_2 e^- e^+)
     1.42443640E-10    3     1000023        13       -13   # BR(chi^0_3 -> chi^0_2 mu^- mu^+)
     1.03763818E-10    3     1000023        15       -15   # BR(chi^0_3 -> chi^0_2 tau^- tau^+)
     8.57128214E-10    3     1000023        12       -12   # BR(chi^0_3 -> chi^0_2 nu_e nu_bar_e)
     9.22848620E-09    3     1000024         1        -2   # BR(chi^0_3 -> chi^+_1 d u_bar)
     9.22848620E-09    3    -1000024        -1         2   # BR(chi^0_3 -> chi^-_1 d_bar u)
     8.37123364E-09    3     1000024         3        -4   # BR(chi^0_3 -> chi^+_1 s c_bar)
     8.37123364E-09    3    -1000024        -3         4   # BR(chi^0_3 -> chi^-_1 s_bar c)
     3.07778278E-09    3     1000024        11       -12   # BR(chi^0_3 -> chi^+_1 e^- nu_bar_e)
     3.07778278E-09    3    -1000024       -11        12   # BR(chi^0_3 -> chi^-_1 e^+ nu_e)
     3.07548514E-09    3     1000024        13       -14   # BR(chi^0_3 -> chi^+_1 mu^- nu_bar_mu)
     3.07548514E-09    3    -1000024       -13        14   # BR(chi^0_3 -> chi^-_1 mu^+ nu_mu)
     2.51918272E-09    3     1000024        15       -16   # BR(chi^0_3 -> chi^+_1 tau^- nu_bar_tau)
     2.51918272E-09    3    -1000024       -15        16   # BR(chi^0_3 -> chi^-_1 tau^+ nu_tau)
DECAY   1000035     1.39226774E+01   # chi^0_4
#    BR                NDA      ID1      ID2
     1.43412996E-05    2     2000011       -11   # BR(chi^0_4 -> ~e^-_R e^+)
     1.43412996E-05    2    -2000011        11   # BR(chi^0_4 -> ~e^+_R e^-)
     3.75423214E-02    2     1000011       -11   # BR(chi^0_4 -> ~e^-_L e^+)
     3.75423214E-02    2    -1000011        11   # BR(chi^0_4 -> ~e^+_L e^-)
     1.42637425E-05    2     2000013       -13   # BR(chi^0_4 -> ~mu^-_R mu^+)
     1.42637425E-05    2    -2000013        13   # BR(chi^0_4 -> ~mu^+_R mu^-)
     3.75541824E-02    2     1000013       -13   # BR(chi^0_4 -> ~mu^-_L mu^+)
     3.75541824E-02    2    -1000013        13   # BR(chi^0_4 -> ~mu^+_L mu^-)
     3.14520948E-06    2     1000015       -15   # BR(chi^0_4 -> ~tau^-_1 tau^+)
     3.14520948E-06    2    -1000015        15   # BR(chi^0_4 -> ~tau^+_1 tau^-)
     4.10057267E-02    2     2000015       -15   # BR(chi^0_4 -> ~tau^-_2 tau^+)
     4.10057267E-02    2    -2000015        15   # BR(chi^0_4 -> ~tau^+_2 tau^-)
     3.89719913E-02    2     1000012       -12   # BR(chi^0_4 -> ~nu_e nu_bar_e)
     3.89719913E-02    2    -1000012        12   # BR(chi^0_4 -> ~nu^*_e nu_e)
     3.89848676E-02    2     1000014       -14   # BR(chi^0_4 -> ~nu_mu nu_bar_mu)
     3.89848676E-02    2    -1000014        14   # BR(chi^0_4 -> ~nu^*_mu nu_mu)
     4.26191476E-02    2     1000016       -16   # BR(chi^0_4 -> ~nu_tau nu_bar_tau)
     4.26191476E-02    2    -1000016        16   # BR(chi^0_4 -> ~nu^*_tau nu_tau)
     1.33510480E-01    2     1000024       -24   # BR(chi^0_4 -> chi^+_1 W^-)
     1.33510480E-01    2    -1000024        24   # BR(chi^0_4 -> chi^-_1 W^+)
     1.31050149E-09    2     1000022        23   # BR(chi^0_4 -> chi^0_1 Z)
     3.46946679E-03    2     1000023        23   # BR(chi^0_4 -> chi^0_2 Z)
     1.25730959E-01    2     1000025        23   # BR(chi^0_4 -> chi^0_3 Z)
     9.22771324E-08    2     1000022        25   # BR(chi^0_4 -> chi^0_1 h^0)
     1.26576038E-01    2     1000023        25   # BR(chi^0_4 -> chi^0_2 h^0)
     2.75494735E-03    2     1000025        25   # BR(chi^0_4 -> chi^0_3 h^0)
     9.75409460E-10    2     1000039        22   # BR(chi^0_4 -> ~G photon)
     3.54702007E-09    2     1000039        23   # BR(chi^0_4 -> ~G Z)
     6.38810140E-11    2     1000039        25   # BR(chi^0_4 -> ~G h^0)
     1.32739928E-07    2     1000022        22   # BR(chi^0_4 -> chi^0_1 photon)
     6.68866040E-07    2     1000023        22   # BR(chi^0_4 -> chi^0_2 photon)
     7.53973018E-07    2     1000025        22   # BR(chi^0_4 -> chi^0_3 photon)
#    BR                NDA      ID1      ID2       ID3
     3.10678381E-08    3     1000022         2        -2   # BR(chi^0_4 -> chi^0_1 u u_bar)
     3.10673056E-08    3     1000022         4        -4   # BR(chi^0_4 -> chi^0_1 c c_bar)
     1.50994032E-08    3     1000022         6        -6   # BR(chi^0_4 -> chi^0_1 t t_bar)
     3.75825261E-08    3     1000022         1        -1   # BR(chi^0_4 -> chi^0_1 d d_bar)
     3.77894857E-08    3     1000022         3        -3   # BR(chi^0_4 -> chi^0_1 s s_bar)
     5.33612172E-07    3     1000022         5        -5   # BR(chi^0_4 -> chi^0_1 b b_bar)
     6.51831775E-09    3     1000022        11       -11   # BR(chi^0_4 -> chi^0_1 e^- e^+)
     6.84615971E-09    3     1000022        13       -13   # BR(chi^0_4 -> chi^0_1 mu^- mu^+)
     1.27276938E-07    3     1000022        15       -15   # BR(chi^0_4 -> chi^0_1 tau^- tau^+)
     3.02836515E-09    3     1000023         2        -2   # BR(chi^0_4 -> chi^0_2 u u_bar)
     3.02814725E-09    3     1000023         4        -4   # BR(chi^0_4 -> chi^0_2 c c_bar)
     2.76087692E-06    3     1000023         6        -6   # BR(chi^0_4 -> chi^0_2 t t_bar)
     1.66180482E-09    3     1000023         1        -1   # BR(chi^0_4 -> chi^0_2 d d_bar)
     4.69653067E-09    3     1000023         3        -3   # BR(chi^0_4 -> chi^0_2 s s_bar)
     7.17601670E-06    3     1000023         5        -5   # BR(chi^0_4 -> chi^0_2 b b_bar)
     4.47907679E-12    3     1000023        11       -11   # BR(chi^0_4 -> chi^0_2 e^- e^+)
     6.65415305E-09    3     1000023        13       -13   # BR(chi^0_4 -> chi^0_2 mu^- mu^+)
     1.91283440E-06    3     1000023        15       -15   # BR(chi^0_4 -> chi^0_2 tau^- tau^+)
     1.30059367E-11    3     1000025         2        -2   # BR(chi^0_4 -> chi^0_3 u u_bar)
     1.46094488E-11    3     1000025         4        -4   # BR(chi^0_4 -> chi^0_3 c c_bar)
     1.54684168E-05    3     1000025         6        -6   # BR(chi^0_4 -> chi^0_3 t t_bar)
     3.04374736E-11    3     1000025         1        -1   # BR(chi^0_4 -> chi^0_3 d d_bar)
     3.00122257E-09    3     1000025         3        -3   # BR(chi^0_4 -> chi^0_3 s s_bar)
     7.02048477E-06    3     1000025         5        -5   # BR(chi^0_4 -> chi^0_3 b b_bar)
     1.83915886E-13    3     1000025        11       -11   # BR(chi^0_4 -> chi^0_3 e^- e^+)
     6.50360416E-09    3     1000025        13       -13   # BR(chi^0_4 -> chi^0_3 mu^- mu^+)
     1.87154032E-06    3     1000025        15       -15   # BR(chi^0_4 -> chi^0_3 tau^- tau^+)
     1.75229027E-09    3     1000024         1        -2   # BR(chi^0_4 -> chi^+_1 d u_bar)
     1.75229027E-09    3    -1000024        -1         2   # BR(chi^0_4 -> chi^-_1 d_bar u)
     4.99826871E-09    3     1000024         3        -4   # BR(chi^0_4 -> chi^+_1 s c_bar)
     4.99826871E-09    3    -1000024        -3         4   # BR(chi^0_4 -> chi^-_1 s_bar c)
     4.92417557E-04    3     1000024         5        -6   # BR(chi^0_4 -> chi^+_1 b t_bar)
     4.92417557E-04    3    -1000024        -5         6   # BR(chi^0_4 -> chi^-_1 b_bar t)
     1.68640361E-13    3     1000024        11       -12   # BR(chi^0_4 -> chi^+_1 e^- nu_bar_e)
     1.68640361E-13    3    -1000024       -11        12   # BR(chi^0_4 -> chi^-_1 e^+ nu_e)
     7.20978972E-09    3     1000024        13       -14   # BR(chi^0_4 -> chi^+_1 mu^- nu_bar_mu)
     7.20978972E-09    3    -1000024       -13        14   # BR(chi^0_4 -> chi^-_1 mu^+ nu_mu)
     2.03609925E-06    3     1000024        15       -16   # BR(chi^0_4 -> chi^+_1 tau^- nu_bar_tau)
     2.03609925E-06    3    -1000024       -15        16   # BR(chi^0_4 -> chi^-_1 tau^+ nu_tau)
DECAY   1000021     3.00582158E+01   # ~g
#    BR                NDA      ID1      ID2
     4.16162519E-02    2     2000002        -2   # BR(~g -> ~u_R u_bar)
     4.16162519E-02    2    -2000002         2   # BR(~g -> ~u^*_R u)
     1.56235460E-02    2     1000002        -2   # BR(~g -> ~u_L u_bar)
     1.56235460E-02    2    -1000002         2   # BR(~g -> ~u^*_L u)
     4.16166396E-02    2     2000004        -4   # BR(~g -> ~c_R c_bar)
     4.16166396E-02    2    -2000004         4   # BR(~g -> ~c^*_R c)
     1.56271017E-02    2     1000004        -4   # BR(~g -> ~c_L c_bar)
     1.56271017E-02    2    -1000004         4   # BR(~g -> ~c^*_L c)
     3.84691121E-03    2     1000006        -4   # BR(~g -> ~t_1 c_bar)
     3.84691121E-03    2    -1000006         4   # BR(~g -> ~t^*_1 c)
     9.37020116E-02    2     1000006        -6   # BR(~g -> ~t_1 t_bar)
     9.37020116E-02    2    -1000006         6   # BR(~g -> ~t^*_1 t)
     4.57305607E-02    2     2000006        -6   # BR(~g -> ~t_2 t_bar)
     4.57305607E-02    2    -2000006         6   # BR(~g -> ~t^*_2 t)
     4.44453751E-02    2     2000001        -1   # BR(~g -> ~d_R d_bar)
     4.44453751E-02    2    -2000001         1   # BR(~g -> ~d^*_R d)
     1.54787097E-02    2     1000001        -1   # BR(~g -> ~d_L d_bar)
     1.54787097E-02    2    -1000001         1   # BR(~g -> ~d^*_L d)
     4.44570190E-02    2     2000003        -3   # BR(~g -> ~s_R s_bar)
     4.44570190E-02    2    -2000003         3   # BR(~g -> ~s^*_R s)
     1.54823151E-02    2     1000003        -3   # BR(~g -> ~s_L s_bar)
     1.54823151E-02    2    -1000003         3   # BR(~g -> ~s^*_L s)
     7.56200543E-02    2     1000005        -5   # BR(~g -> ~b_1 b_bar)
     7.56200543E-02    2    -1000005         5   # BR(~g -> ~b^*_1 b)
     4.66818515E-02    2     2000005        -5   # BR(~g -> ~b_2 b_bar)
     4.66818515E-02    2    -2000005         5   # BR(~g -> ~b^*_2 b)
     1.13999265E-06    2     1000022        21   # BR(~g -> chi^0_1 g)
     6.41841975E-05    2     1000023        21   # BR(~g -> chi^0_2 g)
     7.52238273E-05    2     1000025        21   # BR(~g -> chi^0_3 g)
     2.75728019E-06    2     1000035        21   # BR(~g -> chi^0_4 g)
DECAY        25     2.54598741E-03   # h^0
#    BR                NDA      ID1      ID2
     1.05065078E-08    2          11       -11   # BR(h^0 -> e^- e^+)
     4.49136041E-04    2          13       -13   # BR(h^0 -> mu^- mu^+)
     1.23356721E-01    2          15       -15   # BR(h^0 -> tau^- tau^+)
     5.82314589E-07    2           1        -1   # BR(h^0 -> d d_bar)
     2.56795055E-04    2           3        -3   # BR(h^0 -> s s_bar)
     5.54643123E-01    2           5        -5   # BR(h^0 -> b b_bar)
     2.63864872E-07    2           2        -2   # BR(h^0 -> u u_bar)
     4.72777450E-02    2           4        -4   # BR(h^0 -> c c_bar)
     7.10914105E-02    2          21        21   # BR(h^0 -> g g)
     3.64333453E-03    2          22        22   # BR(h^0 -> photon photon)
# writing decays into V V* as 3-body decays
#    BR                NDA      ID1      ID2       ID3
     9.06473996E-03    3          24        11        12   # BR(h^0 -> W^+ e^- nu_e)
     9.06473996E-03    3          24        13        14   # BR(h^0 -> W^+ mu^- nu_mu)
     9.06473996E-03    3          24        15        16   # BR(h^0 -> W^+ tau^- nu_tau)
     3.17265899E-02    3          24         1        -2   # BR(h^0 -> W^+ d u_bar)
     3.17265899E-02    3          24         3        -4   # BR(h^0 -> W^+ s c_bar)
     9.06473996E-03    3         -24       -11       -12   # BR(h^0 -> W^- e^+ nu_bar_e)
     9.06473996E-03    3         -24       -13       -14   # BR(h^0 -> W^- mu^+ nu_bar_mu)
     9.06473996E-03    3         -24       -15       -16   # BR(h^0 -> W^- tau^+ nu_bar_tau)
     3.17265899E-02    3         -24        -1         2   # BR(h^0 -> W^- d_bar u)
     3.17265899E-02    3         -24        -3         4   # BR(h^0 -> W^- s_bar c)
     6.29512788E-04    3          23        11       -11   # BR(h^0 -> Z e^- e^+)
     6.29512788E-04    3          23        13       -13   # BR(h^0 -> Z mu^- mu^+)
     5.39582390E-04    3          23        15       -15   # BR(h^0 -> Z tau^- tau^+)
     3.59721593E-03    3          23        12       -12   # BR(h^0 -> Z nu_e nu_bar_e)
     2.51805115E-03    3          23         1        -1   # BR(h^0 -> Z u u_bar)
     2.51805115E-03    3          23         3        -3   # BR(h^0 -> Z c c_bar)
     2.51805115E-03    3          23         5        -5   # BR(h^0 -> Z t t_bar)
     2.51805115E-03    3          23         2        -2   # BR(h^0 -> Z u u_bar)
     2.51805115E-03    3          23         4        -4   # BR(h^0 -> Z c c_bar)
DECAY        35     2.82857477E+01   # H^0
#    BR                NDA      ID1      ID2
     1.69944616E-08    2          11       -11   # BR(H^0 -> e^- e^+)
     7.26583906E-04    2          13       -13   # BR(H^0 -> mu^- mu^+)
     2.07231638E-01    2          15       -15   # BR(H^0 -> tau^- tau^+)
     7.68889164E-07    2           1        -1   # BR(H^0 -> d d_bar)
     3.39079565E-04    2           3        -3   # BR(H^0 -> s s_bar)
     7.91029241E-01    2           5        -5   # BR(H^0 -> b b_bar)
     6.81541188E-14    2           2        -2   # BR(H^0 -> u u_bar)
     1.22140062E-08    2           4        -4   # BR(H^0 -> c c_bar)
     6.04238538E-04    2           6        -6   # BR(H^0 -> t t_bar)
     6.46527889E-06    2     1000015  -1000015   # BR(H^0 -> ~tau^-_1 ~tau^+_1)
     3.89559485E-06    2          23        23   # BR(H^0 -> Z Z)
     7.42160873E-06    2          24       -24   # BR(H^0 -> W^+ W^-)
     6.47071378E-06    2          25        25   # BR(H^0 -> h^0 h^0)
     4.41073764E-05    2          21        21   # BR(H^0 -> g g)
     6.05296579E-08    2          22        22   # BR(H^0 -> photon photon)
DECAY        36     2.82852612E+01   # A^0
#    BR                NDA      ID1      ID2
     1.69948623E-08    2          11       -11   # BR(A^0 -> e^- e^+)
     7.26601072E-04    2          13       -13   # BR(A^0 -> mu^- mu^+)
     2.07239376E-01    2          15       -15   # BR(A^0 -> tau^- tau^+)
     7.68907053E-07    2           1        -1   # BR(A^0 -> d d_bar)
     3.39087456E-04    2           3        -3   # BR(A^0 -> s s_bar)
     7.91057199E-01    2           5        -5   # BR(A^0 -> b b_bar)
     6.25130424E-14    2           2        -2   # BR(A^0 -> u u_bar)
     1.12030553E-08    2           4        -4   # BR(A^0 -> c c_bar)
     6.15277568E-04    2           6        -6   # BR(A^0 -> t t_bar)
     7.23173860E-06    2          25        23   # BR(A^0 -> h^0 Z)
     1.43992083E-05    2          21        21   # BR(A^0 -> g g)
     3.05194554E-08    2          22        22   # BR(A^0 -> photon photon)
DECAY        37     2.45254413E+01   # H^+
#    BR                NDA      ID1      ID2
     1.96836305E-08    2         -11        12   # BR(H^+ -> e^+ nu_e)
     8.41557099E-04    2         -13        12   # BR(H^+ -> mu^+ nu_e)
     2.40026866E-01    2         -15        12   # BR(H^+ -> tau^+ nu_e)
     7.86819091E-07    2          -1         2   # BR(H^+ -> d_bar u)
     3.46996863E-04    2          -3         4   # BR(H^+ -> s_bar c)
     7.58775521E-01    2          -5         6   # BR(H^+ -> b_bar t)
     8.25259092E-06    2          25        24   # BR(H^+ -> h^0 W^+)
DECAY         6     2.43000000E+00   # top
#    BR                NDA      ID1      ID2
     1.00000000E+00    2           5        24   # BR(t -> b W)
Block HiggsBoundsInputHiggsCouplingsFermions
# ScalarNormEffCoupSq PseudoSNormEffCoupSq NP IP1 IP2 IP2
    1.09022468E+00    0.00000000E+00        3  25   5   5  # h0-b-b eff. coupling^2, normalised to SM
    2.49990978E+03    0.00000000E+00        3  35   5   5  # H0-b-b eff. coupling^2, normalised to SM
    0.00000000E+00    2.50000000E+03        3  36   5   5  # A0-b-b eff. coupling^2, normalised to SM
#
    9.99963910E-01    0.00000000E+00        3  25   6   6  # h0-t-t eff. coupling^2, normalised to SM
    4.36089871E-04    0.00000000E+00        3  35   6   6  # H0-t-t eff. coupling^2, normalised to SM
    0.00000000E+00    4.00000000E-04        3  36   6   6  # A0-t-t eff. coupling^2, normalised to SM
#
    1.09022468E+00    0.00000000E+00        3  25  15  15  # h0-tau-tau eff. coupling^2, normalised to SM
    2.49990978E+03    0.00000000E+00        3  35  15  15  # H0-tau-tau eff. coupling^2, normalised to SM
    0.00000000E+00    2.50000000E+03        3  36  15  15  # A0-tau-tau eff. coupling^2, normalised to SM
#
Block HiggsBoundsInputHiggsCouplingsBosons
    9.99999221E-01        3  25  24  24  # h0-W-W eff. coupling^2, normalised to SM
    7.79287690E-07        3  35  24  24  # H0-W-W eff. coupling^2, normalised to SM
    0.00000000E+00        3  36  24  24  # A0-W-W eff. coupling^2, normalised to SM
#
    9.99999221E-01        3  25  23  23  # h0-Z-Z eff. coupling^2, normalised to SM
    7.79287690E-07        3  35  23  23  # H0-Z-Z eff. coupling^2, normalised to SM
    0.00000000E+00        3  36  23  23  # A0-Z-Z eff. coupling^2, normalised to SM
#
    1.15777251E+00        3  25  21  21  # h0-g-g eff. coupling^2, normalised to SM
    3.63896446E-02        3  35  21  21  # H0-g-g eff. coupling^2, normalised to SM
    1.91310086E-01        3  36  21  21  # A0-g-g eff. coupling^2, normalised to SM
#
    0.00000000E+00        3  25  25  23  # h0-h0-Z eff. coupling^2, normalised to SM
    0.00000000E+00        3  35  25  23  # H0-h0-Z eff. coupling^2, normalised to SM
    7.79287690E-07        3  36  25  23  # A0-h0-Z eff. coupling^2, normalised to SM
    0.00000000E+00        3  35  35  23  # H0-H0-Z eff. coupling^2, normalised to SM
    9.99999221E-01        3  36  35  23  # A0-H0-Z eff. coupling^2, normalised to SM
    0.00000000E+00        3  36  36  23  # A0-A0-Z eff. coupling^2, normalised to SM
#
    0.00000000E+00        4  25  21  21  23  # h0-g-g-Z eff. coupling^2, normalised to SM
    0.00000000E+00        4  35  21  21  23  # H0-g-g-Z eff. coupling^2, normalised to SM
    0.00000000E+00        4  36  21  21  23  # A0-g-g-Z eff. coupling^2, normalised to SM
Block SPhenoLowEnergy  # low energy observables
    1    3.14608531E-04   # BR(b -> s gamma)
    2    1.59108186E-06   # BR(b -> s mu+ mu-)
    3    3.54065189E-05   # BR(b -> s nu nu)
    4    5.54930253E-11   # BR(Bd -> mu+ mu-)
    5    3.63678802E-09   # BR(Bs -> mu+ mu-)
    6    1.00446052E-04   # BR(B_u -> tau nu)
    7    9.08246973E-01   # BR(B_u -> tau nu)/BR(B_u -> tau nu)_SM
    8    2.73673501E-01   # |Delta(M_Bd)| [ps^-1] 
    9    2.02765341E+01   # |Delta(M_Bs)| [ps^-1] 
   20    2.08533869E-14   # Delta(g-2)_electron/2
   21    4.53785945E-10   # Delta(g-2)_muon/2
   22    3.79489280E-08   # Delta(g-2)_tau/2
   23    0.00000000E+00   # electric dipole moment of the electron
   24    0.00000000E+00   # electric dipole moment of the muon
   25    0.00000000E+00   # electric dipole moment of the tau
   26    0.00000000E+00   # Br(mu -> e gamma)
   27    0.00000000E+00   # Br(tau -> e gamma)
   28    0.00000000E+00   # Br(tau -> mu gamma)
   29    0.00000000E+00   # Br(mu -> 3 e)
   30    0.00000000E+00   # Br(tau -> 3 e)
   31    0.00000000E+00   # Br(tau -> 3 mu)
   39    1.67069815E-03   # Delta(rho_parameter)
   40    0.00000000E+00   # BR(Z -> e mu)
   41    0.00000000E+00   # BR(Z -> e tau)
   42    0.00000000E+00   # BR(Z -> mu tau)
Block FWCOEF Q=  9.11876000E+01  # Wilson coefficients at scale Q
#    id        order  M        value         comment
Block FWCOEF Q=  1.60000000E+02  # Wilson coefficients at scale Q
#    id        order  M        value         comment
     0305 4422   00   0    -1.87762381E-01   # C7
     0305 4422   00   1    -1.54613966E-02   # C7
     0305 4322   00   1    -3.31029104E-04   # C7'
     0305 6421   00   0    -9.48909705E-02   # C8
     0305 6421   00   1    -2.36134206E-02   # C8
     0305 6321   00   1    -5.02969167E-04   # C8'
 03051111 4133   00   0    -1.43945871E+00   # C9 e+e-
 03051111 4133   00   1     5.40902986E-04   # C9 e+e-
 03051111 4233   00   1    -9.18120982E-05   # C9' e+e-
 03051111 4137   00   0    -3.93890181E+00   # C10 e+e-
 03051111 4137   00   1     1.81886046E-03   # C10 e+e-
 03051111 4237   00   1     2.50744243E-03   # C10' e+e-
 03051313 4133   00   0    -1.43945871E+00   # C9 mu+mu-
 03051313 4133   00   1     5.40718295E-04   # C9 mu+mu-
 03051313 4233   00   1    -9.18500757E-05   # C9' mu+mu-
 03051313 4137   00   0    -3.93890181E+00   # C10 mu+mu-
 03051313 4137   00   1     1.81867560E-03   # C10 mu+mu-
 03051313 4237   00   1     2.50748042E-03   # C10' mu+mu-
 03051212 4237   00   0     1.49021720E+00   # C11 nu_1 nu_1
 03051212 4237   00   1    -4.39008635E-04   # C11 nu_1 nu_1
 03051212 4137   00   1    -6.04006713E-04   # C11' nu_1 nu_1
 03051414 4237   00   0     1.49021720E+00   # C11 nu_2 nu_2
 03051414 4237   00   1    -4.39008553E-04   # C11 nu_2 nu_2
 03051414 4137   00   1    -6.03997604E-04   # C11' nu_2 nu_2
 03051616 4237   00   0     1.49021720E+00   # C11 nu_3 nu_3
 03051616 4237   00   1    -4.38957983E-04   # C11 nu_3 nu_3
 03051616 4137   00   1    -6.01430292E-04   # C11' nu_3 nu_3
