#
#                              ======================
#                              | THE SUSYHIT OUTPUT |
#                              ======================
#
#
#              ------------------------------------------------------
#              |     This is the output of the SUSY-HIT package     |
#              |  created by A.Djouadi, M.Muehlleitner and M.Spira. |
#              |  In case of problems with SUSY-HIT email to        |
#              |           margarete.muehlleitner@cern.ch           |
#              |           michael.spira@psi.ch                     |
#              |           abdelhak.djouadi@cern.ch                 |
#              ------------------------------------------------------
#
#              ------------------------------------------------------
#              |  SUSY Les Houches Accord - MSSM Spectrum + Decays  |
#              |              based on the decay programs           |
#              |                                                    |
#              |                     SDECAY 1.3b                    |
#              |                                                    |
#              |  Authors: M.Muhlleitner, A.Djouadi and Y.Mambrini  |
#              |  Ref.:    Comput.Phys.Commun.168(2005)46           |
#              |           [hep-ph/0311167]                         |
#              |                                                    |
#              |                     HDECAY 3.4                     |
#              |                                                    |
#              |  By: A.Djouadi,J.Kalinowski,M.Muhlleitner,M.Spira  |
#              |  Ref.:    Comput.Phys.Commun.108(1998)56           |
#              |           [hep-ph/9704448]                         |
#              |                                                    |
#              |                                                    |
#              |  If not stated otherwise all DRbar couplings and   |
#              |  soft SUSY breaking masses are given at the scale  |
#              |  Q=  0.91187600E+02
#              |                                                    |
#              ------------------------------------------------------
#
#
BLOCK DCINFO  # Decay Program information
     1   SDECAY/HDECAY # decay calculator
     2   1.3b  /3.4    # version number
#
BLOCK SPINFO  # Spectrum calculator information
     1   SuSpect     # RGE +Spectrum calculator            
     2   2.41         # version number                     
#
BLOCK MODSEL  # Model selection
     1     0   # #general MSSM low scale                           
#
BLOCK SMINPUTS  # Standard Model inputs
         1     1.27934000E+02   # alpha_em^-1(M_Z)^MSbar
         2     1.16639000E-05   # G_F [GeV^-2]
         3     1.17200000E-01   # alpha_S(M_Z)^MSbar
         4     9.11870000E+01   # M_Z pole mass
         5     4.25000000E+00   # mb(mb)^MSbar
         6     1.72500000E+02   # mt pole mass
         7     1.77700000E+00   # mtau pole mass
#
BLOCK MINPAR  # Input parameters - minimal models
#
BLOCK EXTPAR  # Input parameters - non-minimal models
         0     9.11876000E+01   # EWSB                
         1     2.10000000E+03   # M_1                 
         2     1.00000000E+05   # M_2                 
         3     2.30000000E+03   # M_3                 
        11     0.00000000E+00   # A_t                 
        12     0.00000000E+00   # A_b                 
        13     0.00000000E+00   # A_tau               
        14     0.00000000E+00   # A_u                 
        15     0.00000000E+00   # A_d                 
        16     0.00000000E+00   # A_e                 
        23     1.00000000E+05   # mu(EWSB)            
        25     1.50000000E+00   # tanbeta(in)         
        26     2.00000000E+03   # MA_pole             
        31     1.00000000E+05   # M_eL                
        32     1.00000000E+05   # M_muL               
        33     1.00000000E+05   # M_tauL              
        34     1.00000000E+05   # M_eR                
        35     1.00000000E+05   # M_muR               
        36     1.00000000E+05   # M_tauR              
        41     3.00000000E+03   # M_q1L               
        42     3.00000000E+03   # M_q2L               
        43     3.00000000E+03   # M_q3L               
        44     1.00000000E+05   # M_uR                
        45     1.00000000E+05   # M_cR                
        46     1.00000000E+05   # M_tR                
        47     3.00000000E+03   # M_dR                
        48     3.00000000E+03   # M_sR                
        49     3.00000000E+03   # M_bR                
#
BLOCK MASS  # Mass Spectrum
# PDG code           mass       particle
        24     8.06060142E+01   # W+
        25     1.25000000E+02   # h
        35     2.00232221E+03   # H
        36     2.00000000E+03   # A
        37     2.02284499E+03   # H+
         5     4.87877839E+00   # b-quark pole mass calculated from mb(mb)_Msbar
   1000001     3.00021870E+03   # ~d_L
   2000001     3.00004261E+03   # ~d_R
   1000002     2.99982390E+03   # ~u_L
   2000002     9.99999974E+04   # ~u_R
   1000003     3.00021870E+03   # ~s_L
   2000003     3.00004261E+03   # ~s_R
   1000004     2.99982390E+03   # ~c_L
   2000004     9.99999974E+04   # ~c_R
   1000005     2.95142317E+03   # ~b_1
   2000005     3.04806113E+03   # ~b_2
   1000006     3.00183801E+03   # ~t_1
   2000006     1.00000155E+05   # ~t_2
   1000011     1.00000004E+05   # ~e_L
   2000011     1.00000004E+05   # ~e_R
   1000012     9.99999922E+04   # ~nu_eL
   1000013     1.00000004E+05   # ~mu_L
   2000013     1.00000004E+05   # ~mu_R
   1000014     9.99999922E+04   # ~nu_muL
   1000015     9.99986709E+04   # ~tau_1
   2000015     1.00001337E+05   # ~tau_2
   1000016     9.99999922E+04   # ~nu_tauL
   1000021     2.30000000E+03   # ~g
   1000022     2.09998117E+03   # ~chi_10
   1000023     9.99230559E+04   # ~chi_20
   1000025    -1.00000002E+05   # ~chi_30
   1000035     1.00076965E+05   # ~chi_40
   1000024     9.99230467E+04   # ~chi_1+
   1000037     1.00076956E+05   # ~chi_2+
   1000039     1.25000000E-07   # ~gravitino
#
BLOCK NMIX  # Neutralino Mixing Matrix
  1  1     9.99999896E-01   # N_11
  1  2    -3.38094020E-07   # N_12
  1  3     3.76920494E-04   # N_13
  1  4    -2.55616961E-04   # N_14
  2  1     3.16493532E-04   # N_21
  2  2     7.07149050E-01   # N_22
  2  3    -5.00008543E-01   # N_23
  2  4     4.99931573E-01   # N_24
  3  1     8.57744570E-05   # N_31
  3  2    -7.69544989E-05   # N_32
  3  3    -7.07106742E-01   # N_33
  3  4    -7.07106811E-01   # N_34
  4  1     3.16043871E-04   # N_41
  4  2    -7.07064512E-01   # N_42
  4  3    -4.99991366E-01   # N_43
  4  4     5.00068306E-01   # N_44
#
BLOCK UMIX  # Chargino Mixing Matrix U
  1  1    -7.07052364E-01   # U_11
  1  2     7.07161194E-01   # U_12
  2  1     7.07161194E-01   # U_21
  2  2     7.07052364E-01   # U_22
#
BLOCK VMIX  # Chargino Mixing Matrix V
  1  1    -7.07161194E-01   # V_11
  1  2     7.07052364E-01   # V_12
  2  1     7.07052364E-01   # V_21
  2  2     7.07161194E-01   # V_22
#
BLOCK STOPMIX  # Stop Mixing Matrix
  1  1     9.99999515E-01   # cos(theta_t)
  1  2     9.84885661E-04   # sin(theta_t)
  2  1    -9.84885661E-04   # -sin(theta_t)
  2  2     9.99999515E-01   # cos(theta_t)
#
BLOCK SBOTMIX  # Sbottom Mixing Matrix
  1  1     7.06462180E-01   # cos(theta_b)
  1  2     7.07750795E-01   # sin(theta_b)
  2  1    -7.07750795E-01   # -sin(theta_b)
  2  2     7.06462180E-01   # cos(theta_b)
#
BLOCK STAUMIX  # Stau Mixing Matrix
  1  1     7.07084255E-01   # cos(theta_tau)
  1  2     7.07129307E-01   # sin(theta_tau)
  2  1    -7.07129307E-01   # -sin(theta_tau)
  2  2     7.07084255E-01   # cos(theta_tau)
#
BLOCK ALPHA  # Higgs mixing
          -5.63855744E-01   # Mixing angle in the neutral Higgs boson sector
#
BLOCK HMIX Q=  9.11876000E+01  # DRbar Higgs Parameters
         1     1.00000000E+05   # mu(Q)               
         2     1.49999982E+00   # tanbeta(Q)          
         3     2.55231558E+02   # vev(Q)              
         4    -2.18051784E+09   # MA^2(Q)             
#
BLOCK GAUGE Q=  9.11876000E+01  # The gauge couplings
     1     3.49930415E-01   # gprime(Q) DRbar
     2     6.14981396E-01   # g(Q) DRbar
     3     1.07261162E+00   # g3(Q) DRbar
#
BLOCK AU Q=  9.11876000E+01  # The trilinear couplings
  1  1     0.00000000E+00   # A_u(Q) DRbar
  2  2     0.00000000E+00   # A_c(Q) DRbar
  3  3     0.00000000E+00   # A_t(Q) DRbar
#
BLOCK AD Q=  9.11876000E+01  # The trilinear couplings
  1  1     0.00000000E+00   # A_d(Q) DRbar
  2  2     0.00000000E+00   # A_s(Q) DRbar
  3  3     0.00000000E+00   # A_b(Q) DRbar
#
BLOCK AE Q=  9.11876000E+01  # The trilinear couplings
  1  1     0.00000000E+00   # A_e(Q) DRbar
  2  2     0.00000000E+00   # A_mu(Q) DRbar
  3  3     0.00000000E+00   # A_tau(Q) DRbar
#
BLOCK Yu Q=  9.11876000E+01  # The Yukawa couplings
  1  1     0.00000000E+00   # y_u(Q) DRbar
  2  2     0.00000000E+00   # y_c(Q) DRbar
  3  3     9.82690765E-01   # y_t(Q) DRbar
#
BLOCK Yd Q=  9.11876000E+01  # The Yukawa couplings
  1  1     0.00000000E+00   # y_d(Q) DRbar
  2  2     0.00000000E+00   # y_s(Q) DRbar
  3  3     1.93053496E-02   # y_b(Q) DRbar
#
BLOCK Ye Q=  9.11876000E+01  # The Yukawa couplings
  1  1     0.00000000E+00   # y_e(Q) DRbar
  2  2     0.00000000E+00   # y_mu(Q) DRbar
  3  3     1.77553350E-02   # y_tau(Q) DRbar
#
BLOCK MSOFT Q=  9.11876000E+01  # The soft SUSY breaking masses at the scale Q
         1     2.10000000E+03   # M_1                 
         2     1.00000000E+05   # M_2                 
         3     2.30000000E+03   # M_3                 
        14     0.00000000E+00   # A_u                 
        15     0.00000000E+00   # A_d                 
        16     0.00000000E+00   # A_e                 
        21    -1.06479465E+10   # M^2_Hd              
        22    -1.00476761E+10   # M^2_Hu              
        31     1.00000000E+05   # M_eL                
        32     1.00000000E+05   # M_muL               
        33     1.00000000E+05   # M_tauL              
        34     1.00000000E+05   # M_eR                
        35     1.00000000E+05   # M_muR               
        36     1.00000000E+05   # M_tauR              
        41     3.00000000E+03   # M_q1L               
        42     3.00000000E+03   # M_q2L               
        43     3.00000000E+03   # M_q3L               
        44     1.00000000E+05   # M_uR                
        45     1.00000000E+05   # M_cR                
        46     1.00000000E+05   # M_tR                
        47     3.00000000E+03   # M_dR                
        48     3.00000000E+03   # M_sR                
        49     3.00000000E+03   # M_bR                
#
#
#
#                             =================
#                             |The decay table|
#                             =================
#
# - The QCD corrections to the decays gluino -> squark  + quark
#                                     squark -> gaugino + quark_prime
#                                     squark -> squark_prime + Higgs
#                                     squark -> gluino  + quark
#   are included.
#
# - The multi-body decays for the inos, stops and sbottoms are included.
#
# - The loop induced decays for the gluino, neutralinos and stops
#   are included.
#
# - The SUSY decays of the top quark are included.
#
# - Possible decays of the NLSP in GMSB models are included.
#
#
#         PDG            Width
DECAY         6     1.30441679E+00   # top decays
#          BR         NDA      ID1       ID2
     1.00000000E+00    2           5        24   # BR(t ->  b    W+)
#
#         PDG            Width
DECAY   1000021     1.E-04   # gluino decays (OJ Mods)
#          BR         NDA      ID1       ID2
     2.13850217E-02    2     1000022        21   # BR(~g -> ~chi_10 g)
#          BR         NDA      ID1       ID2
     1.05480743E-02    2     1000039        21   # BR(~g -> ~G      g)
#           BR         NDA      ID1       ID2       ID3
     2.84954429E-01    3     1000022         1        -1   # BR(~g -> ~chi_10 d  db)
     5.70327415E-02    3     1000022         2        -2   # BR(~g -> ~chi_10 u  ub)
     2.84954429E-01    3     1000022         3        -3   # BR(~g -> ~chi_10 s  sb)
     5.70327415E-02    3     1000022         4        -4   # BR(~g -> ~chi_10 c  cb)
     2.84092564E-01    3     1000022         5        -5   # BR(~g -> ~chi_10 b  bb)
#
#         PDG            Width
DECAY   1000006     3.40613343E+01   # stop1 decays
#          BR         NDA      ID1       ID2
     2.95630256E-03    2     1000022         6   # BR(~t_1 -> ~chi_10 t )
     9.97043697E-01    2     1000021         6   # BR(~t_1 -> ~g      t )
#
#         PDG            Width
DECAY   2000006     4.77987574E+03   # stop2 decays
#          BR         NDA      ID1       ID2
     4.38725124E-02    2     1000022         6   # BR(~t_2 -> ~chi_10 t )
     3.25785613E-07    2     1000024         5   # BR(~t_2 -> ~chi_1+ b )
     5.55216958E-01    2     1000021         6   # BR(~t_2 -> ~g      t )
     1.93221519E-02    2     1000006        25   # BR(~t_2 -> ~t_1    h )
     5.29244064E-02    2     1000006        35   # BR(~t_2 -> ~t_1    H )
     5.13590760E-02    2     1000006        36   # BR(~t_2 -> ~t_1    A )
     5.10883793E-02    2     1000005        37   # BR(~t_2 -> ~b_1    H+)
     5.16837625E-02    2     2000005        37   # BR(~t_2 -> ~b_2    H+)
     5.75928341E-02    2     1000006        23   # BR(~t_2 -> ~t_1    Z )
     5.82622055E-02    2     1000005        24   # BR(~t_2 -> ~b_1    W+)
     5.86773879E-02    2     2000005        24   # BR(~t_2 -> ~b_2    W+)
#
#         PDG            Width
DECAY   1000005     3.14753710E+01   # sbottom1 decays
#          BR         NDA      ID1       ID2
     7.49678481E-03    2     1000022         5   # BR(~b_1 -> ~chi_10 b )
     9.92503215E-01    2     1000021         5   # BR(~b_1 -> ~g      b )
#
#         PDG            Width
DECAY   2000005     3.82287012E+01   # sbottom2 decays
#          BR         NDA      ID1       ID2
     7.20990059E-03    2     1000022         5   # BR(~b_2 -> ~chi_10 b )
     9.92047885E-01    2     1000021         5   # BR(~b_2 -> ~g      b )
     7.42214239E-04    2     1000005        23   # BR(~b_2 -> ~b_1    Z )
#
#         PDG            Width
DECAY   1000002     1.92156303E+01   # sup_L decays
#          BR         NDA      ID1       ID2
     5.89772859E-03    2     1000022         2   # BR(~u_L -> ~chi_10 u)
     9.94102271E-01    2     1000021         2   # BR(~u_L -> ~g      u)
#
#         PDG            Width
DECAY   2000002     3.95442896E+03   # sup_R decays
#          BR         NDA      ID1       ID2
     5.30453747E-02    2     1000022         2   # BR(~u_R -> ~chi_10 u)
     6.71468525E-13    2     1000023         2   # BR(~u_R -> ~chi_20 u)
     9.46954625E-01    2     1000021         2   # BR(~u_R -> ~g      u)
#
#         PDG            Width
DECAY   1000001     1.92325569E+01   # sdown_L decays
#          BR         NDA      ID1       ID2
     5.89607758E-03    2     1000022         1   # BR(~d_L -> ~chi_10 d)
     9.94103922E-01    2     1000021         1   # BR(~d_L -> ~g      d)
#
#         PDG            Width
DECAY   2000001     1.95651055E+01   # sdown_R decays
#          BR         NDA      ID1       ID2
     2.31772305E-02    2     1000022         1   # BR(~d_R -> ~chi_10 d)
     9.76822769E-01    2     1000021         1   # BR(~d_R -> ~g      d)
#
#         PDG            Width
DECAY   1000004     1.92156303E+01   # scharm_L decays
#          BR         NDA      ID1       ID2
     5.89772859E-03    2     1000022         4   # BR(~c_L -> ~chi_10 c)
     9.94102271E-01    2     1000021         4   # BR(~c_L -> ~g      c)
#
#         PDG            Width
DECAY   2000004     3.95442896E+03   # scharm_R decays
#          BR         NDA      ID1       ID2
     5.30453747E-02    2     1000022         4   # BR(~c_R -> ~chi_10 c)
     6.71468525E-13    2     1000023         4   # BR(~c_R -> ~chi_20 c)
     9.46954625E-01    2     1000021         4   # BR(~c_R -> ~g      c)
#
#         PDG            Width
DECAY   1000003     1.92325569E+01   # sstrange_L decays
#          BR         NDA      ID1       ID2
     5.89607758E-03    2     1000022         3   # BR(~s_L -> ~chi_10 s)
     9.94103922E-01    2     1000021         3   # BR(~s_L -> ~g      s)
#
#         PDG            Width
DECAY   2000003     1.95651055E+01   # sstrange_R decays
#          BR         NDA      ID1       ID2
     2.31772305E-02    2     1000022         3   # BR(~s_R -> ~chi_10 s)
     9.76822769E-01    2     1000021         3   # BR(~s_R -> ~g      s)
#
#         PDG            Width
DECAY   1000011     1.21698321E+02   # selectron_L decays
#          BR         NDA      ID1       ID2
     9.99989023E-01    2     1000022        11   # BR(~e_L -> ~chi_10 e-)
     3.66019436E-06    2     1000023        11   # BR(~e_L -> ~chi_20 e-)
     3.91881209E-24    2     1000025        11   # BR(~e_L -> ~chi_30 e-)
     7.31640951E-06    2    -1000024        12   # BR(~e_L -> ~chi_1- nu_e)
#
#         PDG            Width
DECAY   2000011     4.86788518E+02   # selectron_R decays
#          BR         NDA      ID1       ID2
     1.00000000E+00    2     1000022        11   # BR(~e_R -> ~chi_10 e-)
     2.37265398E-13    2     1000023        11   # BR(~e_R -> ~chi_20 e-)
     1.17820026E-23    2     1000025        11   # BR(~e_R -> ~chi_30 e-)
#
#         PDG            Width
DECAY   1000013     1.21698321E+02   # smuon_L decays
#          BR         NDA      ID1       ID2
     9.99989023E-01    2     1000022        13   # BR(~mu_L -> ~chi_10 mu-)
     3.66019436E-06    2     1000023        13   # BR(~mu_L -> ~chi_20 mu-)
     3.91881209E-24    2     1000025        13   # BR(~mu_L -> ~chi_30 mu-)
     7.31640951E-06    2    -1000024        14   # BR(~mu_L -> ~chi_1- nu_mu)
#
#         PDG            Width
DECAY   2000013     4.86788518E+02   # smuon_R decays
#          BR         NDA      ID1       ID2
     1.00000000E+00    2     1000022        13   # BR(~mu_R -> ~chi_10 mu-)
     2.37265398E-13    2     1000023        13   # BR(~mu_R -> ~chi_20 mu-)
     1.17820026E-23    2     1000025        13   # BR(~mu_R -> ~chi_30 mu-)
#
#         PDG            Width
DECAY   1000015     3.04991254E+02   # stau_1 decays
#          BR         NDA      ID1       ID2
     9.97582022E-01    2     1000022        15   # BR(~tau_1 -> ~chi_10  tau-)
     7.45828906E-07    2     1000023        15   # BR(~tau_1 -> ~chi_20  tau-)
     1.49210196E-06    2    -1000024        16   # BR(~tau_1 -> ~chi_1-  nu_tau)
     2.41573969E-03    2     1000039        15   # BR(~tau_1 -> ~G       tau-)
#
#         PDG            Width
DECAY   2000015     3.04232362E+02   # stau_2 decays
#          BR         NDA      ID1       ID2
     9.99997858E-01    2     1000022        15   # BR(~tau_2 -> ~chi_10  tau-)
     7.14067766E-07    2     1000023        15   # BR(~tau_2 -> ~chi_20  tau-)
     1.42833726E-06    2    -1000024        16   # BR(~tau_2 -> ~chi_1-  nu_tau)
#
#         PDG            Width
DECAY   1000012     1.21698595E+02   # snu_eL decays
#          BR         NDA      ID1       ID2
     9.99989028E-01    2     1000022        12   # BR(~nu_eL -> ~chi_10 nu_e)
     3.65533900E-06    2     1000023        12   # BR(~nu_eL -> ~chi_20 nu_e)
     7.31640302E-06    2     1000024        11   # BR(~nu_eL -> ~chi_1+ e-)
#
#         PDG            Width
DECAY   1000014     1.21698595E+02   # snu_muL decays
#          BR         NDA      ID1       ID2
     9.99989028E-01    2     1000022        14   # BR(~nu_muL -> ~chi_10 nu_mu)
     3.65533900E-06    2     1000023        14   # BR(~nu_muL -> ~chi_20 nu_mu)
     7.31640302E-06    2     1000024        13   # BR(~nu_muL -> ~chi_1+ mu-)
#
#         PDG            Width
DECAY   1000016     1.21698594E+02   # snu_tauL decays
#          BR         NDA      ID1       ID2
     9.99989034E-01    2     1000022        16   # BR(~nu_tauL -> ~chi_10 nu_tau)
     3.65533902E-06    2     1000023        16   # BR(~nu_tauL -> ~chi_20 nu_tau)
     7.31079696E-06    2     1000024        15   # BR(~nu_tauL -> ~chi_1+ tau-)
#
#         PDG            Width
DECAY   1000024     3.90422016E+03   # chargino1+ decays
#          BR         NDA      ID1       ID2
     1.39804234E-01    2     1000002        -1   # BR(~chi_1+ -> ~u_L     db)
     1.39761156E-01    2    -1000001         2   # BR(~chi_1+ -> ~d_L*    u )
     1.39804234E-01    2     1000004        -3   # BR(~chi_1+ -> ~c_L     sb)
     1.39761156E-01    2    -1000003         4   # BR(~chi_1+ -> ~s_L*    c )
     1.24572313E-01    2     1000006        -5   # BR(~chi_1+ -> ~t_1     bb)
     1.52719072E-01    2    -1000005         6   # BR(~chi_1+ -> ~b_1*    t )
     1.48209810E-01    2    -2000005         6   # BR(~chi_1+ -> ~b_2*    t )
     7.68338895E-03    2     1000022        24   # BR(~chi_1+ -> ~chi_10  W+)
     7.49674695E-03    2     1000022        37   # BR(~chi_1+ -> ~chi_10  H+)
     1.40971212E-04    2     1000039        24   # BR(~chi_1+ -> ~G       W+)
     4.69172393E-05    2     1000039        37   # BR(~chi_1+ -> ~G       H+)
#
#         PDG            Width
DECAY   1000037     3.90855694E+03   # chargino2+ decays
#          BR         NDA      ID1       ID2
     1.39821591E-01    2     1000002        -1   # BR(~chi_2+ -> ~u_L     db)
     1.39864586E-01    2    -1000001         2   # BR(~chi_2+ -> ~d_L*    u )
     1.39821591E-01    2     1000004        -3   # BR(~chi_2+ -> ~c_L     sb)
     1.39864586E-01    2    -1000003         4   # BR(~chi_2+ -> ~s_L*    c )
     1.24250712E-01    2     1000006        -5   # BR(~chi_2+ -> ~t_1     bb)
     9.26634552E-07    2     2000006        -5   # BR(~chi_2+ -> ~t_2     bb)
     1.46689124E-01    2    -1000005         6   # BR(~chi_2+ -> ~b_1*    t )
     1.53733764E-01    2    -2000005         6   # BR(~chi_2+ -> ~b_2*    t )
     1.13813433E-07    2     1000012       -11   # BR(~chi_2+ -> ~nu_eL   e+  )
     1.13813433E-07    2     1000014       -13   # BR(~chi_2+ -> ~nu_muL  mu+ )
     1.13726206E-07    2     1000016       -15   # BR(~chi_2+ -> ~nu_tau1 tau+)
     1.13813579E-07    2    -1000011        12   # BR(~chi_2+ -> ~e_L+    nu_e)
     1.13813579E-07    2    -1000013        14   # BR(~chi_2+ -> ~mu_L+   nu_mu)
     5.55398749E-08    2    -1000015        16   # BR(~chi_2+ -> ~tau_1+  nu_tau)
     5.81750022E-08    2    -2000015        16   # BR(~chi_2+ -> ~tau_2+  nu_tau)
     2.91345867E-04    2     1000024        23   # BR(~chi_2+ -> ~chi_1+  Z )
     7.66468993E-03    2     1000022        24   # BR(~chi_2+ -> ~chi_10  W+)
     3.33103401E-04    2     1000023        24   # BR(~chi_2+ -> ~chi_20  W+)
     3.35637858E-12    2     1000024        25   # BR(~chi_2+ -> ~chi_1+  h )
     7.47416800E-03    2     1000022        37   # BR(~chi_2+ -> ~chi_10  H+)
     1.41908037E-04    2     1000039        24   # BR(~chi_2+ -> ~G       W+)
     4.72218109E-05    2     1000039        37   # BR(~chi_2+ -> ~G       H+)
#
#         PDG            Width
DECAY   1000022     1.E-08   # neutralino1 decays (OJ Mods)
#          BR         NDA      ID1       ID2
     7.56808808E-01    2     1000039        22   # BR(~chi_10 -> ~G        gam)
     2.43191192E-01    2     1000039        23   # BR(~chi_10 -> ~G        Z)
     1.05312083E-10    2     1000039        25   # BR(~chi_10 -> ~G        h)
     7.06947211E-12    2     1000039        35   # BR(~chi_10 -> ~G        H)
     1.10414106E-12    2     1000039        36   # BR(~chi_10 -> ~G        A)
#
#         PDG            Width
DECAY   1000023     1.E-08   # neutralino2 decays (OJ Mods)
#          BR         NDA      ID1       ID2
     2.81174457E-04    2     1000022        23   # BR(~chi_20 -> ~chi_10   Z )
     7.73507368E-03    2     1000022        25   # BR(~chi_20 -> ~chi_10   h )
     3.92947465E-04    2     1000022        35   # BR(~chi_20 -> ~chi_10   H )
     7.18024232E-03    2     1000022        36   # BR(~chi_20 -> ~chi_10   A )
     6.77086180E-02    2     1000002        -2   # BR(~chi_20 -> ~u_L      ub)
     6.77086180E-02    2    -1000002         2   # BR(~chi_20 -> ~u_L*     u )
     6.76856142E-02    2     1000001        -1   # BR(~chi_20 -> ~d_L      db)
     6.76856142E-02    2    -1000001         1   # BR(~chi_20 -> ~d_L*     d )
     1.95134842E-09    2     2000001        -1   # BR(~chi_20 -> ~d_R      db)
     1.95134842E-09    2    -2000001         1   # BR(~chi_20 -> ~d_R*     d )
     6.77086180E-02    2     1000004        -4   # BR(~chi_20 -> ~c_L      cb)
     6.77086180E-02    2    -1000004         4   # BR(~chi_20 -> ~c_L*     c )
     6.76856142E-02    2     1000003        -3   # BR(~chi_20 -> ~s_L      sb)
     6.76856142E-02    2    -1000003         3   # BR(~chi_20 -> ~s_L*     s )
     1.95134842E-09    2     2000003        -3   # BR(~chi_20 -> ~s_R      sb)
     1.95134842E-09    2    -2000003         3   # BR(~chi_20 -> ~s_R*     s )
     1.50399559E-01    2     1000006        -6   # BR(~chi_20 -> ~t_1      tb)
     1.50399559E-01    2    -1000006         6   # BR(~chi_20 -> ~t_1*     t )
     3.24441922E-02    2     1000005        -5   # BR(~chi_20 -> ~b_1      bb)
     3.24441922E-02    2    -1000005         5   # BR(~chi_20 -> ~b_1*     b )
     2.97683891E-02    2     2000005        -5   # BR(~chi_20 -> ~b_2      bb)
     2.97683891E-02    2    -2000005         5   # BR(~chi_20 -> ~b_2*     b )
     2.30173494E-05    2     1000039        22   # BR(~chi_20 -> ~G        gam)
     1.16104175E-04    2     1000039        23   # BR(~chi_20 -> ~G        Z)
     2.26625907E-06    2     1000039        25   # BR(~chi_20 -> ~G        h)
     4.46310695E-05    2     1000039        35   # BR(~chi_20 -> ~G        H)
     1.80499833E-06    2     1000039        36   # BR(~chi_20 -> ~G        A)
#
#         PDG            Width
DECAY   1000025     1.49744163E+03   # neutralino3 decays
#          BR         NDA      ID1       ID2
     3.99342821E-02    2     1000022        23   # BR(~chi_30 -> ~chi_10   Z )
     1.88035853E-03    2     1000022        25   # BR(~chi_30 -> ~chi_10   h )
     3.70336169E-02    2     1000022        35   # BR(~chi_30 -> ~chi_10   H )
     1.62785398E-03    2     1000022        36   # BR(~chi_30 -> ~chi_10   A )
     1.30095643E-09    2     1000002        -2   # BR(~chi_30 -> ~u_L      ub)
     1.30095643E-09    2    -1000002         2   # BR(~chi_30 -> ~u_L*     u )
     2.28050962E-17    2     2000002        -2   # BR(~chi_30 -> ~u_R      ub)
     2.28050962E-17    2    -2000002         2   # BR(~chi_30 -> ~u_R*     u )
     3.07000918E-09    2     1000001        -1   # BR(~chi_30 -> ~d_L      db)
     3.07000918E-09    2    -1000001         1   # BR(~chi_30 -> ~d_L*     d )
     3.73992878E-10    2     2000001        -1   # BR(~chi_30 -> ~d_R      db)
     3.73992878E-10    2    -2000001         1   # BR(~chi_30 -> ~d_R*     d )
     1.30095643E-09    2     1000004        -4   # BR(~chi_30 -> ~c_L      cb)
     1.30095643E-09    2    -1000004         4   # BR(~chi_30 -> ~c_L*     c )
     2.28050962E-17    2     2000004        -4   # BR(~chi_30 -> ~c_R      cb)
     2.28050962E-17    2    -2000004         4   # BR(~chi_30 -> ~c_R*     c )
     3.07000918E-09    2     1000003        -3   # BR(~chi_30 -> ~s_L      sb)
     3.07000918E-09    2    -1000003         3   # BR(~chi_30 -> ~s_L*     s )
     3.73992878E-10    2     2000003        -3   # BR(~chi_30 -> ~s_R      sb)
     3.73992878E-10    2    -2000003         3   # BR(~chi_30 -> ~s_R*     s )
     4.59209173E-01    2     1000006        -6   # BR(~chi_30 -> ~t_1      tb)
     4.59209173E-01    2    -1000006         6   # BR(~chi_30 -> ~t_1*     t )
     1.52141071E-04    2     1000005        -5   # BR(~chi_30 -> ~b_1      bb)
     1.52141071E-04    2    -1000005         5   # BR(~chi_30 -> ~b_1*     b )
     1.54911144E-04    2     2000005        -5   # BR(~chi_30 -> ~b_2      bb)
     1.54911144E-04    2    -2000005         5   # BR(~chi_30 -> ~b_2*     b )
     7.62842364E-23    2     1000012       -12   # BR(~chi_30 -> ~nu_eL    nu_eb)
     7.62842364E-23    2    -1000012        12   # BR(~chi_30 -> ~nu_eL*   nu_e )
     7.62842364E-23    2     1000014       -14   # BR(~chi_30 -> ~nu_muL   nu_mub)
     7.62842364E-23    2    -1000014        14   # BR(~chi_30 -> ~nu_muL*  nu_mu )
     7.62842364E-23    2     1000016       -16   # BR(~chi_30 -> ~nu_tau1  nu_taub)
     7.62842364E-23    2    -1000016        16   # BR(~chi_30 -> ~nu_tau1* nu_tau )
     6.54954549E-13    2     1000039        22   # BR(~chi_30 -> ~G        gam)
     9.45798231E-06    2     1000039        23   # BR(~chi_30 -> ~G        Z)
     2.34033504E-04    2     1000039        25   # BR(~chi_30 -> ~G        h)
     1.18542247E-05    2     1000039        35   # BR(~chi_30 -> ~G        H)
     2.36072120E-04    2     1000039        36   # BR(~chi_30 -> ~G        A)
#
#         PDG            Width
DECAY   1000035     3.90949960E+03   # neutralino4 decays
#          BR         NDA      ID1       ID2
     2.81810393E-04    2     1000022        23   # BR(~chi_40 -> ~chi_10   Z )
     1.17388759E-18    2     1000023        23   # BR(~chi_40 -> ~chi_20   Z )
     3.32946921E-04    2     1000024       -24   # BR(~chi_40 -> ~chi_1+   W-)
     3.32946921E-04    2    -1000024        24   # BR(~chi_40 -> ~chi_1-   W+)
     7.71792876E-03    2     1000022        25   # BR(~chi_40 -> ~chi_10   h )
     3.90415093E-04    2     1000022        35   # BR(~chi_40 -> ~chi_10   H )
     7.16249746E-03    2     1000022        36   # BR(~chi_40 -> ~chi_10   A )
     4.53885436E-12    2     1000023        25   # BR(~chi_40 -> ~chi_20   h )
     6.77064112E-02    2     1000002        -2   # BR(~chi_40 -> ~u_L      ub)
     6.77064112E-02    2    -1000002         2   # BR(~chi_40 -> ~u_L*     u )
     2.01242538E-12    2     2000002        -2   # BR(~chi_40 -> ~u_R      ub)
     2.01242538E-12    2    -2000002         2   # BR(~chi_40 -> ~u_R*     u )
     6.77293586E-02    2     1000001        -1   # BR(~chi_40 -> ~d_L      db)
     6.77293586E-02    2    -1000001         1   # BR(~chi_40 -> ~d_L*     d )
     1.94686999E-09    2     2000001        -1   # BR(~chi_40 -> ~d_R      db)
     1.94686999E-09    2    -2000001         1   # BR(~chi_40 -> ~d_R*     d )
     6.77064112E-02    2     1000004        -4   # BR(~chi_40 -> ~c_L      cb)
     6.77064112E-02    2    -1000004         4   # BR(~chi_40 -> ~c_L*     c )
     2.01242538E-12    2     2000004        -4   # BR(~chi_40 -> ~c_R      cb)
     2.01242538E-12    2    -2000004         4   # BR(~chi_40 -> ~c_R*     c )
     6.77293586E-02    2     1000003        -3   # BR(~chi_40 -> ~s_L      sb)
     6.77293586E-02    2    -1000003         3   # BR(~chi_40 -> ~s_L*     s )
     1.94686999E-09    2     2000003        -3   # BR(~chi_40 -> ~s_R      sb)
     1.94686999E-09    2    -2000003         3   # BR(~chi_40 -> ~s_R*     s )
     1.49953174E-01    2     1000006        -6   # BR(~chi_40 -> ~t_1      tb)
     1.49953174E-01    2    -1000006         6   # BR(~chi_40 -> ~t_1*     t )
     2.95773311E-02    2     1000005        -5   # BR(~chi_40 -> ~b_1      bb)
     2.95773311E-02    2    -1000005         5   # BR(~chi_40 -> ~b_1*     b )
     3.26799842E-02    2     2000005        -5   # BR(~chi_40 -> ~b_2      bb)
     3.26799842E-02    2    -2000005         5   # BR(~chi_40 -> ~b_2*     b )
     5.68618745E-08    2     1000011       -11   # BR(~chi_40 -> ~e_L-     e+)
     5.68618745E-08    2    -1000011        11   # BR(~chi_40 -> ~e_L+     e-)
     1.47203521E-14    2     2000011       -11   # BR(~chi_40 -> ~e_R-     e+)
     1.47203521E-14    2    -2000011        11   # BR(~chi_40 -> ~e_R+     e-)
     5.68618745E-08    2     1000013       -13   # BR(~chi_40 -> ~mu_L-    mu+)
     5.68618745E-08    2    -1000013        13   # BR(~chi_40 -> ~mu_L+    mu-)
     1.47203521E-14    2     2000013       -13   # BR(~chi_40 -> ~mu_R-    mu+)
     1.47203521E-14    2    -2000013        13   # BR(~chi_40 -> ~mu_R+    mu-)
     2.77268977E-08    2     1000015       -15   # BR(~chi_40 -> ~tau_1-   tau+)
     2.77268977E-08    2    -1000015        15   # BR(~chi_40 -> ~tau_1+   tau-)
     2.90420691E-08    2     2000015       -15   # BR(~chi_40 -> ~tau_2-   tau+)
     2.90420691E-08    2    -2000015        15   # BR(~chi_40 -> ~tau_2+   tau-)
     5.69372011E-08    2     1000012       -12   # BR(~chi_40 -> ~nu_eL    nu_eb)
     5.69372011E-08    2    -1000012        12   # BR(~chi_40 -> ~nu_eL*   nu_e )
     5.69372011E-08    2     1000014       -14   # BR(~chi_40 -> ~nu_muL   nu_mub)
     5.69372011E-08    2    -1000014        14   # BR(~chi_40 -> ~nu_muL*  nu_mu )
     5.69372011E-08    2     1000016       -16   # BR(~chi_40 -> ~nu_tau1  nu_taub)
     5.69372011E-08    2    -1000016        16   # BR(~chi_40 -> ~nu_tau1* nu_tau )
     2.30938007E-05    2     1000039        22   # BR(~chi_40 -> ~G        gam)
     1.16953924E-04    2     1000039        23   # BR(~chi_40 -> ~G        Z)
     2.28515883E-06    2     1000039        25   # BR(~chi_40 -> ~G        h)
     4.49389203E-05    2     1000039        35   # BR(~chi_40 -> ~G        H)
     1.81477935E-06    2     1000039        36   # BR(~chi_40 -> ~G        A)
#
#
#
#
