#
#                              ======================
#                              | THE SUSYHIT OUTPUT |
#                              ======================
#
#
#              ------------------------------------------------------
#              |     This is the output of the SUSY-HIT package     |
#              |  created by A.Djouadi, M.Muehlleitner and M.Spira. |
#              |  In case of problems with SUSY-HIT email to        |
#              |           margarete.muehlleitner@cern.ch           |
#              |           michael.spira@psi.ch                     |
#              |           abdelhak.djouadi@cern.ch                 |
#              ------------------------------------------------------
#
#              ------------------------------------------------------
#              |  SUSY Les Houches Accord - MSSM Spectrum + Decays  |
#              |              based on the decay programs           |
#              |                                                    |
#              |                     SDECAY 1.3b                    |
#              |                                                    |
#              |  Authors: M.Muhlleitner, A.Djouadi and Y.Mambrini  |
#              |  Ref.:    Comput.Phys.Commun.168(2005)46           |
#              |           [hep-ph/0311167]                         |
#              |                                                    |
#              |                     HDECAY 3.4                     |
#              |                                                    |
#              |  By: A.Djouadi,J.Kalinowski,M.Muhlleitner,M.Spira  |
#              |  Ref.:    Comput.Phys.Commun.108(1998)56           |
#              |           [hep-ph/9704448]                         |
#              |                                                    |
#              |                                                    |
#              |  If not stated otherwise all DRbar couplings and   |
#              |  soft SUSY breaking masses are given at the scale  |
#              |  Q=  0.91187600E+02
#              |                                                    |
#              ------------------------------------------------------
#
#
BLOCK DCINFO  # Decay Program information
     1   SDECAY/HDECAY # decay calculator
     2   1.3b  /3.4    # version number
#
BLOCK SPINFO  # Spectrum calculator information
     1   SuSpect     # RGE +Spectrum calculator            
     2   2.41         # version number                     
#
BLOCK MODSEL  # Model selection
     1     0   # #general MSSM low scale                           
#
BLOCK SMINPUTS  # Standard Model inputs
         1     1.27934000E+02   # alpha_em^-1(M_Z)^MSbar
         2     1.16639000E-05   # G_F [GeV^-2]
         3     1.17200000E-01   # alpha_S(M_Z)^MSbar
         4     9.11870000E+01   # M_Z pole mass
         5     4.25000000E+00   # mb(mb)^MSbar
         6     1.72500000E+02   # mt pole mass
         7     1.77700000E+00   # mtau pole mass
#
BLOCK MINPAR  # Input parameters - minimal models
#
BLOCK EXTPAR  # Input parameters - non-minimal models
         0     9.11876000E+01   # EWSB                
         1     2.00000000E+02   # M_1                 
         2     1.00000000E+05   # M_2                 
         3     1.00000000E+05   # M_3                 
        11     0.00000000E+00   # A_t                 
        12     0.00000000E+00   # A_b                 
        13     0.00000000E+00   # A_tau               
        14     0.00000000E+00   # A_u                 
        15     0.00000000E+00   # A_d                 
        16     0.00000000E+00   # A_e                 
        23     3.50000000E+03   # mu(EWSB)            
        25     1.50000000E+00   # tanbeta(in)         
        26     2.00000000E+03   # MA_pole             
        31     1.00000000E+05   # M_eL                
        32     1.00000000E+05   # M_muL               
        33     1.00000000E+05   # M_tauL              
        34     1.00000000E+05   # M_eR                
        35     1.00000000E+05   # M_muR               
        36     1.00000000E+05   # M_tauR              
        41     1.40000000E+03   # M_q1L               
        42     1.40000000E+03   # M_q2L               
        43     1.40000000E+03   # M_q3L               
        44     1.00000000E+05   # M_uR                
        45     1.00000000E+05   # M_cR                
        46     1.00000000E+05   # M_tR                
        47     1.40000000E+03   # M_dR                
        48     1.40000000E+03   # M_sR                
        49     1.40000000E+03   # M_bR                
#
BLOCK MASS  # Mass Spectrum
# PDG code           mass       particle
        24     8.05821814E+01   # W+
        25     1.25000000E+02   # h
        35     2.00399581E+03   # H
        36     2.00000000E+03   # A
        37     2.02369895E+03   # H+
         5     4.87877839E+00   # b-quark pole mass calculated from mb(mb)_Msbar
   1000001     1.40047467E+03   # ~d_L
   2000001     1.40009139E+03   # ~d_R
   1000002     1.39961659E+03   # ~u_L
   2000002     9.99999974E+04   # ~u_R
   1000003     1.40047467E+03   # ~s_L
   2000003     1.40009139E+03   # ~s_R
   1000004     1.39961659E+03   # ~c_L
   2000004     9.99999974E+04   # ~c_R
   1000005     1.39543012E+03   # ~b_1
   2000005     1.40512395E+03   # ~b_2
   1000006     1.40736284E+03   # ~t_1
   2000006     1.00000106E+05   # ~t_2
   1000011     1.00000004E+05   # ~e_L
   2000011     1.00000004E+05   # ~e_R
   1000012     9.99999921E+04   # ~nu_eL
   1000013     1.00000004E+05   # ~mu_L
   2000013     1.00000004E+05   # ~mu_R
   1000014     9.99999921E+04   # ~nu_muL
   1000015     9.99999574E+04   # ~tau_1
   2000015     1.00000051E+05   # ~tau_2
   1000016     9.99999921E+04   # ~nu_tauL
   1000021     1.00000000E+05   # ~g
   1000022     1.99439262E+02   # ~chi_10
   1000023    -3.50002307E+03   # ~chi_20
   1000025     3.50051924E+03   # ~chi_30
   1000035     1.00000065E+05   # ~chi_40
   1000024     3.49994008E+03   # ~chi_1+
   1000037     1.00000065E+05   # ~chi_2+
   1000039     1.00000000E-09   # ~gravitino
#
BLOCK NMIX  # Neutralino Mixing Matrix
  1  1     9.99909116E-01   # N_11
  1  2    -9.93906808E-06   # N_12
  1  3     1.10594221E-02   # N_13
  1  4    -7.71024270E-03   # N_14
  2  1     2.36821448E-03   # N_21
  2  2    -1.49776319E-04   # N_22
  2  3    -7.07093138E-01   # N_23
  2  4    -7.07116443E-01   # N_24
  3  1     1.32721615E-02   # N_31
  3  2     8.03076814E-04   # N_32
  3  3    -7.07033783E-01   # N_33
  3  4     7.07054760E-01   # N_34
  4  1     3.65699078E-07   # N_41
  4  2    -9.99999666E-01   # N_42
  4  3    -4.62006705E-04   # N_43
  4  4     6.73805439E-04   # N_44
#
BLOCK UMIX  # Chargino Mixing Matrix U
  1  1    -6.53375942E-04   # U_11
  1  2     9.99999787E-01   # U_12
  2  1     9.99999787E-01   # U_21
  2  2     6.53375942E-04   # U_22
#
BLOCK VMIX  # Chargino Mixing Matrix V
  1  1    -9.52904703E-04   # V_11
  1  2     9.99999546E-01   # V_12
  2  1     9.99999546E-01   # V_21
  2  2     9.52904703E-04   # V_22
#
BLOCK STOPMIX  # Stop Mixing Matrix
  1  1     9.99999999E-01   # cos(theta_t)
  1  2     4.47213589E-05   # sin(theta_t)
  2  1    -4.47213589E-05   # -sin(theta_t)
  2  2     9.99999999E-01   # cos(theta_t)
#
BLOCK SBOTMIX  # Sbottom Mixing Matrix
  1  1     6.92986779E-01   # cos(theta_b)
  1  2     7.20950292E-01   # sin(theta_b)
  2  1    -7.20950292E-01   # -sin(theta_b)
  2  2     6.92986779E-01   # cos(theta_b)
#
BLOCK STAUMIX  # Stau Mixing Matrix
  1  1     7.06160172E-01   # cos(theta_tau)
  1  2     7.08052125E-01   # sin(theta_tau)
  2  1    -7.08052125E-01   # -sin(theta_tau)
  2  2     7.06160172E-01   # cos(theta_tau)
#
BLOCK ALPHA  # Higgs mixing
          -5.90281470E-01   # Mixing angle in the neutral Higgs boson sector
#
BLOCK HMIX Q=  9.11876000E+01  # DRbar Higgs Parameters
         1     3.50000000E+03   # mu(Q)               
         2     1.49999982E+00   # tanbeta(Q)          
         3     2.54857761E+02   # vev(Q)              
         4    -6.82653295E+07   # MA^2(Q)             
#
BLOCK GAUGE Q=  9.11876000E+01  # The gauge couplings
     1     3.50598299E-01   # gprime(Q) DRbar
     2     6.20251666E-01   # g(Q) DRbar
     3     1.02581509E+00   # g3(Q) DRbar
#
BLOCK AU Q=  9.11876000E+01  # The trilinear couplings
  1  1     0.00000000E+00   # A_u(Q) DRbar
  2  2     0.00000000E+00   # A_c(Q) DRbar
  3  3     0.00000000E+00   # A_t(Q) DRbar
#
BLOCK AD Q=  9.11876000E+01  # The trilinear couplings
  1  1     0.00000000E+00   # A_d(Q) DRbar
  2  2     0.00000000E+00   # A_s(Q) DRbar
  3  3     0.00000000E+00   # A_b(Q) DRbar
#
BLOCK AE Q=  9.11876000E+01  # The trilinear couplings
  1  1     0.00000000E+00   # A_e(Q) DRbar
  2  2     0.00000000E+00   # A_mu(Q) DRbar
  3  3     0.00000000E+00   # A_tau(Q) DRbar
#
BLOCK Yu Q=  9.11876000E+01  # The Yukawa couplings
  1  1     0.00000000E+00   # y_u(Q) DRbar
  2  2     0.00000000E+00   # y_c(Q) DRbar
  3  3     9.83674042E-01   # y_t(Q) DRbar
#
BLOCK Yd Q=  9.11876000E+01  # The Yukawa couplings
  1  1     0.00000000E+00   # y_d(Q) DRbar
  2  2     0.00000000E+00   # y_s(Q) DRbar
  3  3     2.58445617E-02   # y_b(Q) DRbar
#
BLOCK Ye Q=  9.11876000E+01  # The Yukawa couplings
  1  1     0.00000000E+00   # y_e(Q) DRbar
  2  2     0.00000000E+00   # y_mu(Q) DRbar
  3  3     1.77403372E-02   # y_tau(Q) DRbar
#
BLOCK MSOFT Q=  9.11876000E+01  # The soft SUSY breaking masses at the scale Q
         1     2.00000000E+02   # M_1                 
         2     1.00000000E+05   # M_2                 
         3     1.00000000E+05   # M_3                 
        14     0.00000000E+00   # A_u                 
        15     0.00000000E+00   # A_d                 
        16     0.00000000E+00   # A_e                 
        21     6.32543113E+08   # M^2_Hd              
        22    -1.14818342E+09   # M^2_Hu              
        31     1.00000000E+05   # M_eL                
        32     1.00000000E+05   # M_muL               
        33     1.00000000E+05   # M_tauL              
        34     1.00000000E+05   # M_eR                
        35     1.00000000E+05   # M_muR               
        36     1.00000000E+05   # M_tauR              
        41     1.40000000E+03   # M_q1L               
        42     1.40000000E+03   # M_q2L               
        43     1.40000000E+03   # M_q3L               
        44     1.00000000E+05   # M_uR                
        45     1.00000000E+05   # M_cR                
        46     1.00000000E+05   # M_tR                
        47     1.40000000E+03   # M_dR                
        48     1.40000000E+03   # M_sR                
        49     1.40000000E+03   # M_bR                
#
#
#
#                             =================
#                             |The decay table|
#                             =================
#
# - The QCD corrections to the decays gluino -> squark  + quark
#                                     squark -> gaugino + quark_prime
#                                     squark -> squark_prime + Higgs
#                                     squark -> gluino  + quark
#   are included.
#
# - The multi-body decays for the inos, stops and sbottoms are included.
#
# - The loop induced decays for the gluino, neutralinos and stops
#   are included.
#
# - The SUSY decays of the top quark are included.
#
# - Possible decays of the NLSP in GMSB models are included.
#
#
#         PDG            Width
DECAY         6     1.32785468E+00   # top decays
#          BR         NDA      ID1       ID2
     1.00000000E+00    2           5        24   # BR(t ->  b    W+)
#
#         PDG            Width
DECAY   1000021     1.E-04   # gluino decays (OJ Mods)
#          BR         NDA      ID1       ID2
     3.71857922E-04    2     1000001        -1   # BR(~g -> ~d_L  db)
     3.71857922E-04    2    -1000001         1   # BR(~g -> ~d_L* d )
     3.71858002E-04    2     2000001        -1   # BR(~g -> ~d_R  db)
     3.71858002E-04    2    -2000001         1   # BR(~g -> ~d_R* d )
     3.71858101E-04    2     1000002        -2   # BR(~g -> ~u_L  ub)
     3.71858101E-04    2    -1000002         2   # BR(~g -> ~u_L* u )
     1.00589834E-18    2     2000002        -2   # BR(~g -> ~u_R  ub)
     1.00589834E-18    2    -2000002         2   # BR(~g -> ~u_R* u )
     3.71857922E-04    2     1000003        -3   # BR(~g -> ~s_L  sb)
     3.71857922E-04    2    -1000003         3   # BR(~g -> ~s_L* s )
     3.71858002E-04    2     2000003        -3   # BR(~g -> ~s_R  sb)
     3.71858002E-04    2    -2000003         3   # BR(~g -> ~s_R* s )
     3.71858101E-04    2     1000004        -4   # BR(~g -> ~c_L  cb)
     3.71858101E-04    2    -1000004         4   # BR(~g -> ~c_L* c )
     1.00589834E-18    2     2000004        -4   # BR(~g -> ~c_R  cb)
     1.00589834E-18    2    -2000004         4   # BR(~g -> ~c_R* c )
     2.46193536E-01    2     1000005        -5   # BR(~g -> ~b_1  bb)
     2.46193536E-01    2    -1000005         5   # BR(~g -> ~b_1* b )
     2.46003236E-01    2     2000005        -5   # BR(~g -> ~b_2  bb)
     2.46003236E-01    2    -2000005         5   # BR(~g -> ~b_2* b )
     3.65951320E-04    2     1000006        -6   # BR(~g -> ~t_1  tb)
     3.65951320E-04    2    -1000006         6   # BR(~g -> ~t_1* t )
     1.04122574E-02    2     1000039        21   # BR(~g -> ~G g)
#
#         PDG            Width
DECAY   1000006     2.16179281E-01   # stop1 decays
#          BR         NDA      ID1       ID2
     1.00000000E+00    2     1000022         6   # BR(~t_1 -> ~chi_10 t )
#
#         PDG            Width
DECAY   2000006     4.94766642E+05   # stop2 decays
#          BR         NDA      ID1       ID2
     4.21205065E-04    2     1000022         6   # BR(~t_2 -> ~chi_10 t )
     1.00796963E-03    2     1000023         6   # BR(~t_2 -> ~chi_20 t )
     1.00785025E-03    2     1000025         6   # BR(~t_2 -> ~chi_30 t )
     9.97598011E-01    2     1000024         5   # BR(~t_2 -> ~chi_1+ b )
    -2.75645771E-05    2     1000006        25   # BR(~t_2 -> ~t_1    h )
     2.88589041E-05    2     1000006        35   # BR(~t_2 -> ~t_1    H )
     2.88087856E-05    2     1000006        36   # BR(~t_2 -> ~t_1    A )
     2.71354600E-05    2     1000005        37   # BR(~t_2 -> ~b_1    H+)
     3.04820536E-05    2     2000005        37   # BR(~t_2 -> ~b_2    H+)
    -1.97035712E-05    2     1000006        23   # BR(~t_2 -> ~t_1    Z )
    -4.94900682E-05    2     1000005        24   # BR(~t_2 -> ~b_1    W+)
    -5.35625936E-05    2     2000005        24   # BR(~t_2 -> ~b_2    W+)
#
#         PDG            Width
DECAY   1000005     1.22930623E+02   # sbottom1 decays
#          BR         NDA      ID1       ID2
     1.00000000E+00    2     1000022         5   # BR(~b_1 -> ~chi_10 b )
#
#         PDG            Width
DECAY   2000005     1.16906924E+02   # sbottom2 decays
#          BR         NDA      ID1       ID2
     1.00000000E+00    2     1000022         5   # BR(~b_2 -> ~chi_10 b )
#
#         PDG            Width
DECAY   1000002     2.19888157E-01   # sup_L decays
#          BR         NDA      ID1       ID2
     1.00000000E+00    2     1000022         2   # BR(~u_L -> ~chi_10 u)
#
#         PDG            Width
DECAY   2000002     2.08378856E+02   # sup_R decays
#          BR         NDA      ID1       ID2
     9.99818438E-01    2     1000022         2   # BR(~u_R -> ~chi_10 u)
     5.60237607E-06    2     1000023         2   # BR(~u_R -> ~chi_20 u)
     1.75959743E-04    2     1000025         2   # BR(~u_R -> ~chi_30 u)
#
#         PDG            Width
DECAY   1000001     2.20073681E-01   # sdown_L decays
#          BR         NDA      ID1       ID2
     1.00000000E+00    2     1000022         1   # BR(~d_L -> ~chi_10 d)
#
#         PDG            Width
DECAY   2000001     8.79953323E-01   # sdown_R decays
#          BR         NDA      ID1       ID2
     1.00000000E+00    2     1000022         1   # BR(~d_R -> ~chi_10 d)
#
#         PDG            Width
DECAY   1000004     2.19888157E-01   # scharm_L decays
#          BR         NDA      ID1       ID2
     1.00000000E+00    2     1000022         4   # BR(~c_L -> ~chi_10 c)
#
#         PDG            Width
DECAY   2000004     2.08378856E+02   # scharm_R decays
#          BR         NDA      ID1       ID2
     9.99818438E-01    2     1000022         4   # BR(~c_R -> ~chi_10 c)
     5.60237607E-06    2     1000023         4   # BR(~c_R -> ~chi_20 c)
     1.75959743E-04    2     1000025         4   # BR(~c_R -> ~chi_30 c)
#
#         PDG            Width
DECAY   1000003     2.20073681E-01   # sstrange_L decays
#          BR         NDA      ID1       ID2
     1.00000000E+00    2     1000022         3   # BR(~s_L -> ~chi_10 s)
#
#         PDG            Width
DECAY   2000003     8.79953323E-01   # sstrange_R decays
#          BR         NDA      ID1       ID2
     1.00000000E+00    2     1000022         3   # BR(~s_R -> ~chi_10 s)
#
#         PDG            Width
DECAY   1000011     1.22269663E+02   # selectron_L decays
#          BR         NDA      ID1       ID2
     9.99777568E-01    2     1000022        11   # BR(~e_L -> ~chi_10 e-)
     4.41280499E-06    2     1000023        11   # BR(~e_L -> ~chi_20 e-)
     2.15353198E-04    2     1000025        11   # BR(~e_L -> ~chi_30 e-)
     2.66568586E-06    2    -1000024        12   # BR(~e_L -> ~chi_1- nu_e)
#
#         PDG            Width
DECAY   2000011     4.89075738E+02   # selectron_R decays
#          BR         NDA      ID1       ID2
     9.99818685E-01    2     1000022        11   # BR(~e_R -> ~chi_10 e-)
     5.59475438E-06    2     1000023        11   # BR(~e_R -> ~chi_20 e-)
     1.75720315E-04    2     1000025        11   # BR(~e_R -> ~chi_30 e-)
#
#         PDG            Width
DECAY   1000013     1.22269663E+02   # smuon_L decays
#          BR         NDA      ID1       ID2
     9.99777568E-01    2     1000022        13   # BR(~mu_L -> ~chi_10 mu-)
     4.41280499E-06    2     1000023        13   # BR(~mu_L -> ~chi_20 mu-)
     2.15353198E-04    2     1000025        13   # BR(~mu_L -> ~chi_30 mu-)
     2.66568586E-06    2    -1000024        14   # BR(~mu_L -> ~chi_1- nu_mu)
#
#         PDG            Width
DECAY   2000013     4.89075738E+02   # smuon_R decays
#          BR         NDA      ID1       ID2
     9.99818685E-01    2     1000022        13   # BR(~mu_R -> ~chi_10 mu-)
     5.59475438E-06    2     1000023        13   # BR(~mu_R -> ~chi_20 mu-)
     1.75720315E-04    2     1000025        13   # BR(~mu_R -> ~chi_30 mu-)
#
#         PDG            Width
DECAY   1000015     1.18200425E+04   # stau_1 decays
#          BR         NDA      ID1       ID2
     2.59053305E-02    2     1000022        15   # BR(~tau_1 -> ~chi_10  tau-)
     2.51834022E-05    2     1000023        15   # BR(~tau_1 -> ~chi_20  tau-)
     2.49834478E-05    2     1000025        15   # BR(~tau_1 -> ~chi_30  tau-)
     2.77119534E-05    2    -1000024        16   # BR(~tau_1 -> ~chi_1-  nu_tau)
     9.74016791E-01    2     1000039        15   # BR(~tau_1 -> ~G       tau-)
#
#         PDG            Width
DECAY   2000015     3.06096508E+02   # stau_2 decays
#          BR         NDA      ID1       ID2
     9.96507853E-01    2     1000022        15   # BR(~tau_2 -> ~chi_10  tau-)
     1.07862858E-03    2     1000023        15   # BR(~tau_2 -> ~chi_20  tau-)
     1.44209029E-03    2     1000025        15   # BR(~tau_2 -> ~chi_30  tau-)
     9.71428596E-04    2    -1000024        16   # BR(~tau_2 -> ~chi_1-  nu_tau)
#
#         PDG            Width
DECAY   1000012     1.22269721E+02   # snu_eL decays
#          BR         NDA      ID1       ID2
     9.99847301E-01    2     1000022        12   # BR(~nu_eL -> ~chi_10 nu_e)
     6.91671070E-06    2     1000023        12   # BR(~nu_eL -> ~chi_20 nu_e)
     1.40112394E-04    2     1000025        12   # BR(~nu_eL -> ~chi_30 nu_e)
     5.66997798E-06    2     1000024        11   # BR(~nu_eL -> ~chi_1+ e-)
#
#         PDG            Width
DECAY   1000014     1.22269721E+02   # snu_muL decays
#          BR         NDA      ID1       ID2
     9.99847301E-01    2     1000022        14   # BR(~nu_muL -> ~chi_10 nu_mu)
     6.91671070E-06    2     1000023        14   # BR(~nu_muL -> ~chi_20 nu_mu)
     1.40112394E-04    2     1000025        14   # BR(~nu_muL -> ~chi_30 nu_mu)
     5.66997798E-06    2     1000024        13   # BR(~nu_muL -> ~chi_1+ mu-)
#
#         PDG            Width
DECAY   1000016     1.22894302E+02   # snu_tauL decays
#          BR         NDA      ID1       ID2
     9.94765813E-01    2     1000022        16   # BR(~nu_tauL -> ~chi_10 nu_tau)
     6.88155815E-06    2     1000023        16   # BR(~nu_tauL -> ~chi_20 nu_tau)
     1.39400306E-04    2     1000025        16   # BR(~nu_tauL -> ~chi_30 nu_tau)
     5.08790544E-03    2     1000024        15   # BR(~nu_tauL -> ~chi_1+ tau-)
#
#         PDG            Width
DECAY   1000024     7.52561829E+01   # chargino1+ decays
#          BR         NDA      ID1       ID2
     4.03516155E-07    2     1000002        -1   # BR(~chi_1+ -> ~u_L     db)
     1.89625326E-07    2    -1000001         2   # BR(~chi_1+ -> ~d_L*    u )
     4.03516155E-07    2     1000004        -3   # BR(~chi_1+ -> ~c_L     sb)
     1.89625326E-07    2    -1000003         4   # BR(~chi_1+ -> ~s_L*    c )
     1.71915140E-01    2     1000006        -5   # BR(~chi_1+ -> ~t_1     bb)
     6.89427837E-02    2    -1000005         6   # BR(~chi_1+ -> ~b_1*    t )
     7.18363639E-01    2    -2000005         6   # BR(~chi_1+ -> ~b_2*    t )
     3.02098934E-02    2     1000022        24   # BR(~chi_1+ -> ~chi_10  W+)
     1.05625603E-02    2     1000022        37   # BR(~chi_1+ -> ~chi_10  H+)
     4.00893754E-06    2     1000039        24   # BR(~chi_1+ -> ~G       W+)
     7.88788240E-07    2     1000039        37   # BR(~chi_1+ -> ~G       H+)
#
#         PDG            Width
DECAY   1000037     3.02858471E+05   # chargino2+ decays
#          BR         NDA      ID1       ID2
     3.50088770E-03    2     1000002        -1   # BR(~chi_2+ -> ~u_L     db)
     3.50088887E-03    2    -1000001         2   # BR(~chi_2+ -> ~d_L*    u )
     3.50088770E-03    2     1000004        -3   # BR(~chi_2+ -> ~c_L     sb)
     3.50088887E-03    2    -1000003         4   # BR(~chi_2+ -> ~s_L*    c )
     9.40470304E-01    2     1000006        -5   # BR(~chi_2+ -> ~t_1     bb)
     7.60392528E-04    2    -1000005         6   # BR(~chi_2+ -> ~b_1*    t )
     3.33119385E-03    2    -2000005         6   # BR(~chi_2+ -> ~b_2*    t )
     2.58765886E-15    2     1000012       -11   # BR(~chi_2+ -> ~nu_eL   e+  )
     2.58765886E-15    2     1000014       -13   # BR(~chi_2+ -> ~nu_muL  mu+ )
     1.81180684E-15    2    -1000011        12   # BR(~chi_2+ -> ~e_L+    nu_e)
     1.81180684E-15    2    -1000013        14   # BR(~chi_2+ -> ~mu_L+   nu_mu)
     2.81103808E-15    2    -1000015        16   # BR(~chi_2+ -> ~tau_1+  nu_tau)
     4.78470481E-17    2    -2000015        16   # BR(~chi_2+ -> ~tau_2+  nu_tau)
     6.42304259E-04    2     1000024        23   # BR(~chi_2+ -> ~chi_1+  Z )
     8.59108225E-08    2     1000022        24   # BR(~chi_2+ -> ~chi_10  W+)
     6.23331057E-04    2     1000023        24   # BR(~chi_2+ -> ~chi_20  W+)
     6.23238496E-04    2     1000025        24   # BR(~chi_2+ -> ~chi_30  W+)
     6.47992442E-04    2     1000024        25   # BR(~chi_2+ -> ~chi_1+  h )
     5.68816274E-04    2     1000024        35   # BR(~chi_2+ -> ~chi_1+  H )
     5.68891020E-04    2     1000024        36   # BR(~chi_2+ -> ~chi_1+  A )
     1.17935339E-07    2     1000022        37   # BR(~chi_2+ -> ~chi_10  H+)
     5.68869264E-04    2     1000023        37   # BR(~chi_2+ -> ~chi_20  H+)
     5.68773872E-04    2     1000025        37   # BR(~chi_2+ -> ~chi_30  H+)
     3.66221255E-02    2     1000039        24   # BR(~chi_2+ -> ~G       W+)
     1.05105435E-08    2     1000039        37   # BR(~chi_2+ -> ~G       H+)
#
#         PDG            Width
DECAY   1000022     1.E-08   # neutralino1 decays (OJ Mods)
#          BR         NDA      ID1       ID2
     8.88812179E-01    2     1000039        22   # BR(~chi_10 -> ~G        gam)
     1.11187816E-01    2     1000039        23   # BR(~chi_10 -> ~G        Z)
     4.97927055E-09    2     1000039        25   # BR(~chi_10 -> ~G        h)
#
#         PDG            Width
DECAY   1000023     1.E-08   # neutralino2 decays (OJ Mods)
#          BR         NDA      ID1       ID2
     2.58146535E-02    2     1000022        23   # BR(~chi_20 -> ~chi_10   Z )
     8.08708623E-04    2     1000022        25   # BR(~chi_20 -> ~chi_10   h )
     8.75008427E-03    2     1000022        35   # BR(~chi_20 -> ~chi_10   H )
     4.93196369E-04    2     1000022        36   # BR(~chi_20 -> ~chi_10   A )
     1.92486216E-08    2     1000002        -2   # BR(~chi_20 -> ~u_L      ub)
     1.92486216E-08    2    -1000002         2   # BR(~chi_20 -> ~u_L*     u )
     7.77731495E-08    2     1000001        -1   # BR(~chi_20 -> ~d_L      db)
     7.77731495E-08    2    -1000001         1   # BR(~chi_20 -> ~d_L*     d )
     1.74413072E-07    2     2000001        -1   # BR(~chi_20 -> ~d_R      db)
     1.74413072E-07    2    -2000001         1   # BR(~chi_20 -> ~d_R*     d )
     1.92486216E-08    2     1000004        -4   # BR(~chi_20 -> ~c_L      cb)
     1.92486216E-08    2    -1000004         4   # BR(~chi_20 -> ~c_L*     c )
     7.77731495E-08    2     1000003        -3   # BR(~chi_20 -> ~s_L      sb)
     7.77731495E-08    2    -1000003         3   # BR(~chi_20 -> ~s_L*     s )
     1.74413072E-07    2     2000003        -3   # BR(~chi_20 -> ~s_R      sb)
     1.74413072E-07    2    -2000003         3   # BR(~chi_20 -> ~s_R*     s )
     3.36221251E-01    2     1000006        -6   # BR(~chi_20 -> ~t_1      tb)
     3.36221251E-01    2    -1000006         6   # BR(~chi_20 -> ~t_1*     t )
     7.02275146E-02    2     1000005        -5   # BR(~chi_20 -> ~b_1      bb)
     7.02275146E-02    2    -1000005         5   # BR(~chi_20 -> ~b_1*     b )
     7.56153763E-02    2     2000005        -5   # BR(~chi_20 -> ~b_2      bb)
     7.56153763E-02    2    -2000005         5   # BR(~chi_20 -> ~b_2*     b )
     2.71714523E-11    2     1000039        22   # BR(~chi_20 -> ~G        gam)
     1.31894597E-07    2     1000039        23   # BR(~chi_20 -> ~G        Z)
     3.29167173E-06    2     1000039        25   # BR(~chi_20 -> ~G        h)
     2.63741968E-08    2     1000039        35   # BR(~chi_20 -> ~G        H)
     6.80012690E-07    2     1000039        36   # BR(~chi_20 -> ~G        A)
#
#         PDG            Width
DECAY   1000025     8.81648270E+01   # neutralino3 decays
#          BR         NDA      ID1       ID2
     8.20380569E-04    2     1000022        23   # BR(~chi_30 -> ~chi_10   Z )
     2.59344304E-02    2     1000022        25   # BR(~chi_30 -> ~chi_10   h )
     4.79091445E-04    2     1000022        35   # BR(~chi_30 -> ~chi_10   H )
     8.75860294E-03    2     1000022        36   # BR(~chi_30 -> ~chi_10   A )
     2.38561271E-06    2     1000002        -2   # BR(~chi_30 -> ~u_L      ub)
     2.38561271E-06    2    -1000002         2   # BR(~chi_30 -> ~u_L*     u )
     6.29619651E-07    2     1000001        -1   # BR(~chi_30 -> ~d_L      db)
     6.29619651E-07    2    -1000001         1   # BR(~chi_30 -> ~d_L*     d )
     5.46588323E-06    2     2000001        -1   # BR(~chi_30 -> ~d_R      db)
     5.46588323E-06    2    -2000001         1   # BR(~chi_30 -> ~d_R*     d )
     2.38561271E-06    2     1000004        -4   # BR(~chi_30 -> ~c_L      cb)
     2.38561271E-06    2    -1000004         4   # BR(~chi_30 -> ~c_L*     c )
     6.29619651E-07    2     1000003        -3   # BR(~chi_30 -> ~s_L      sb)
     6.29619651E-07    2    -1000003         3   # BR(~chi_30 -> ~s_L*     s )
     5.46588323E-06    2     2000003        -3   # BR(~chi_30 -> ~s_R      sb)
     5.46588323E-06    2    -2000003         3   # BR(~chi_30 -> ~s_R*     s )
     3.35495681E-01    2     1000006        -6   # BR(~chi_30 -> ~t_1      tb)
     3.35495681E-01    2    -1000006         6   # BR(~chi_30 -> ~t_1*     t )
     6.19015743E-02    2     1000005        -5   # BR(~chi_30 -> ~b_1      bb)
     6.19015743E-02    2    -1000005         5   # BR(~chi_30 -> ~b_1*     b )
     8.45897085E-02    2     2000005        -5   # BR(~chi_30 -> ~b_2      bb)
     8.45897085E-02    2    -2000005         5   # BR(~chi_30 -> ~b_2*     b )
     9.80016836E-10    2     1000039        22   # BR(~chi_30 -> ~G        gam)
     3.29052790E-06    2     1000039        23   # BR(~chi_30 -> ~G        Z)
     1.28340592E-07    2     1000039        25   # BR(~chi_30 -> ~G        h)
     6.74455113E-07    2     1000039        35   # BR(~chi_30 -> ~G        H)
     2.71598944E-08    2     1000039        36   # BR(~chi_30 -> ~G        A)
#
#         PDG            Width
DECAY   1000035     3.02859761E+05   # neutralino4 decays
#          BR         NDA      ID1       ID2
     7.08965259E-12    2     1000022        23   # BR(~chi_40 -> ~chi_10   Z )
     6.20718698E-04    2     1000023        23   # BR(~chi_40 -> ~chi_20   Z )
     2.15834226E-05    2     1000025        23   # BR(~chi_40 -> ~chi_30   Z )
     6.23324610E-04    2     1000024       -24   # BR(~chi_40 -> ~chi_1+   W-)
     6.23324610E-04    2    -1000024        24   # BR(~chi_40 -> ~chi_1-   W+)
     8.94577926E-08    2     1000022        25   # BR(~chi_40 -> ~chi_10   h )
     1.46094343E-08    2     1000022        35   # BR(~chi_40 -> ~chi_10   H )
     1.03162330E-07    2     1000022        36   # BR(~chi_40 -> ~chi_10   A )
     2.12822308E-05    2     1000023        25   # BR(~chi_40 -> ~chi_20   h )
     5.44347165E-04    2     1000023        35   # BR(~chi_40 -> ~chi_20   H )
     2.50224998E-05    2     1000023        36   # BR(~chi_40 -> ~chi_20   A )
     6.26618754E-04    2     1000025        25   # BR(~chi_40 -> ~chi_30   h )
     2.44514611E-05    2     1000025        35   # BR(~chi_40 -> ~chi_30   H )
     5.43763011E-04    2     1000025        36   # BR(~chi_40 -> ~chi_30   A )
     5.68878558E-04    2     1000024       -37   # BR(~chi_40 -> ~chi_1+   H-)
     5.68878558E-04    2    -1000024        37   # BR(~chi_40 -> ~chi_1-   H+)
     1.67566635E-03    2     1000002        -2   # BR(~chi_40 -> ~u_L      ub)
     1.67566635E-03    2    -1000002         2   # BR(~chi_40 -> ~u_L*     u )
     2.66596296E-23    2     2000002        -2   # BR(~chi_40 -> ~u_R      ub)
     2.66596296E-23    2    -2000002         2   # BR(~chi_40 -> ~u_R*     u )
     1.67566717E-03    2     1000001        -1   # BR(~chi_40 -> ~d_L      db)
     1.67566717E-03    2    -1000001         1   # BR(~chi_40 -> ~d_L*     d )
     3.18226903E-17    2     2000001        -1   # BR(~chi_40 -> ~d_R      db)
     3.18226903E-17    2    -2000001         1   # BR(~chi_40 -> ~d_R*     d )
     1.67566635E-03    2     1000004        -4   # BR(~chi_40 -> ~c_L      cb)
     1.67566635E-03    2    -1000004         4   # BR(~chi_40 -> ~c_L*     c )
     2.66596296E-23    2     2000004        -4   # BR(~chi_40 -> ~c_R      cb)
     2.66596296E-23    2    -2000004         4   # BR(~chi_40 -> ~c_R*     c )
     1.67566717E-03    2     1000003        -3   # BR(~chi_40 -> ~s_L      sb)
     1.67566717E-03    2    -1000003         3   # BR(~chi_40 -> ~s_L*     s )
     3.18226903E-17    2     2000003        -3   # BR(~chi_40 -> ~s_R      sb)
     3.18226903E-17    2    -2000003         3   # BR(~chi_40 -> ~s_R*     s )
     2.04578920E-03    2     1000006        -6   # BR(~chi_40 -> ~t_1      tb)
     2.04578920E-03    2    -1000006         6   # BR(~chi_40 -> ~t_1*     t )
     2.25207041E-01    2     1000005        -5   # BR(~chi_40 -> ~b_1      bb)
     2.25207041E-01    2    -1000005         5   # BR(~chi_40 -> ~b_1*     b )
     2.45028229E-01    2     2000005        -5   # BR(~chi_40 -> ~b_2      bb)
     2.45028229E-01    2    -2000005         5   # BR(~chi_40 -> ~b_2*     b )
     9.05899109E-16    2     1000011       -11   # BR(~chi_40 -> ~e_L-     e+)
     9.05899109E-16    2    -1000011        11   # BR(~chi_40 -> ~e_L+     e-)
     1.54835933E-28    2     2000011       -11   # BR(~chi_40 -> ~e_R-     e+)
     1.54835933E-28    2    -2000011        11   # BR(~chi_40 -> ~e_R+     e-)
     9.05899109E-16    2     1000013       -13   # BR(~chi_40 -> ~mu_L-    mu+)
     9.05899109E-16    2    -1000013        13   # BR(~chi_40 -> ~mu_L+    mu-)
     1.54835933E-28    2     2000013       -13   # BR(~chi_40 -> ~mu_R-    mu+)
     1.54835933E-28    2    -2000013        13   # BR(~chi_40 -> ~mu_R+    mu-)
     1.29382496E-15    2     1000012       -12   # BR(~chi_40 -> ~nu_eL    nu_eb)
     1.29382496E-15    2    -1000012        12   # BR(~chi_40 -> ~nu_eL*   nu_e )
     1.29382496E-15    2     1000014       -14   # BR(~chi_40 -> ~nu_muL   nu_mub)
     1.29382496E-15    2    -1000014        14   # BR(~chi_40 -> ~nu_muL*  nu_mu )
     1.29382496E-15    2     1000016       -16   # BR(~chi_40 -> ~nu_tau1  nu_taub)
     1.29382496E-15    2    -1000016        16   # BR(~chi_40 -> ~nu_tau1* nu_tau )
     8.86774798E-03    2     1000039        22   # BR(~chi_40 -> ~G        gam)
     2.77542247E-02    2     1000039        23   # BR(~chi_40 -> ~G        Z)
     1.67707363E-09    2     1000039        25   # BR(~chi_40 -> ~G        h)
     1.05279453E-08    2     1000039        35   # BR(~chi_40 -> ~G        H)
     2.07463781E-12    2     1000039        36   # BR(~chi_40 -> ~G        A)
#
#
#
#
