# SUSY Les Houches Accord 2 - MSSM spectrum + Decays
# SPheno v3.1.12 
# W. Porod, Comput. Phys. Commun. 153 (2003) 275-315, hep-ph/0301101
# in case of problems send email to porod@physik.uni-wuerzburg.de
# Created: 09.12.2016,  15:23
Block SPINFO         # Program information
     1   SPheno      # spectrum calculator
     2   v3.1.12     # version number
#
Block SPhenoINFO     # SPheno specific information
    1      2         # using 2-loop RGEs
    2      1         # using running masses for boundary conditions at mZ
Block MODSEL  # Model selection
    1    2    # mGMSB model
Block MINPAR  # Input parameters
    1    1.60000000E+05  # Lambda, scale of SUSY breaking
    2    2.50000000E+05  # M_M, messenger mass scale
    3    2.00000000E+01  # tanb at m_Z   
    4    1.00000000E+00  # Sign(mu)
    5    3.00000000E+00  # N_5 number of effective five-plets
    6    1.00000000E+00  # c_grav, Gravitino mass factor
Block gauge Q=  2.50000000E+05  # (GMSB scale)
   1    4.92782483E-01  # g'(Q)^DRbar
   2    6.45786729E-01  # g(Q)^DRbar
   3    9.30540106E-01  # g3(Q)^DRbar
Block SMINPUTS  # SM parameters
         1     1.27932470E+02  # alpha_em^-1(MZ)^MSbar
         2     1.16639000E-05  # G_mu [GeV^-2]
         3     1.17200000E-01  # alpha_s(MZ)^MSbar
         4     9.11876000E+01  # m_Z(pole)
         5     4.20000000E+00  # m_b(m_b), MSbar
         6     1.72500000E+02  # m_t(pole)
         7     1.77700000E+00  # m_tau(pole)
         8     0.00000000E+00  # m_nu_3
        11     5.10998910E-04  # m_e(pole)
        12     0.00000000E+00  # m_nu_1
        13     1.05658000E-01  # m_muon(pole)
        14     0.00000000E+00  # m_nu_2
        21     5.00000000E-03  # m_d(2 GeV), MSbar
        22     3.00000000E-03  # m_u(2 GeV), MSbar
        23     1.05000000E-01  # m_s(2 GeV), MSbar
        24     1.27000000E+00  # m_c(m_c), MSbar
Block gauge Q=  3.00265798E+03  # (SUSY scale)
   1    3.65406796E-01  # g'(Q)^DRbar
   2    6.37048698E-01  # g(Q)^DRbar
   3    1.00403188E+00  # g3(Q)^DRbar
Block Yu Q=  3.00265798E+03  # (SUSY scale)
  1  1     8.26674469E-06   # Y_u(Q)^DRbar
  2  2     3.49958917E-03   # Y_c(Q)^DRbar
  3  3     8.31881321E-01   # Y_t(Q)^DRbar
Block Yd Q=  3.00265798E+03  # (SUSY scale)
  1  1     2.47835728E-04   # Y_d(Q)^DRbar
  2  2     5.20454898E-03   # Y_s(Q)^DRbar
  3  3     2.46410989E-01   # Y_b(Q)^DRbar
Block Ye Q=  3.00265798E+03  # (SUSY scale)
  1  1     5.82426229E-05   # Y_e(Q)^DRbar
  2  2     1.20427062E-02   # Y_mu(Q)^DRbar
  3  3     2.02638392E-01   # Y_tau(Q)^DRbar
Block Au Q=  3.00265798E+03  # (SUSY scale)
  1  1    -8.96522781E+02   # A_u(Q)^DRbar
  2  2    -8.96521344E+02   # A_c(Q)^DRbar
  3  3    -8.49114225E+02   # A_t(Q)^DRbar
Block Ad Q=  3.00265798E+03  # (SUSY scale)
  1  1    -9.45678932E+02   # A_d(Q)^DRbar
  2  2    -9.45676789E+02   # A_s(Q)^DRbar
  3  3    -9.26521393E+02   # A_b(Q)^DRbar
Block Ae Q=  3.00265798E+03  # (SUSY scale)
  1  1    -1.04139400E+02   # A_e(Q)^DRbar
  2  2    -1.04137968E+02   # A_mu(Q)^DRbar
  3  3    -1.03734303E+02   # A_tau(Q)^DRbar
Block MSOFT Q=  3.00265798E+03  # soft SUSY breaking masses at Q
   1    7.28218111E+02  # M_1
   2    1.32401541E+03  # M_2
   3    3.30201742E+03  # M_3
  21    8.23467118E+05  # M^2_(H,d)
  22   -7.67791354E+05  # M^2_(H,u)
  31    9.91739108E+02  # M_(L,11)
  32    9.91731262E+02  # M_(L,22)
  33    9.89517376E+02  # M_(L,33)
  34    4.83049147E+02  # M_(E,11)
  35    4.83016336E+02  # M_(E,22)
  36    4.73672993E+02  # M_(E,33)
  41    3.11444659E+03  # M_(Q,11)
  42    3.11444157E+03  # M_(Q,22)
  43    3.01974085E+03  # M_(Q,33)
  44    2.98395755E+03  # M_(U,11)
  45    2.98395431E+03  # M_(U,22)
  46    2.79665931E+03  # M_(U,33)
  47    2.97113813E+03  # M_(D,11)
  48    2.97113077E+03  # M_(D,22)
  49    2.95469373E+03  # M_(D,33)
Block MASS  # Mass spectrum
#   PDG code      mass          particle
         6     1.72500000E+02  # m_t(pole)
        23     9.11876000E+01  # m_Z(pole)
        24     8.03141948E+01  # W+
        15     1.77700000E+00  # m_tau(pole)
        25     1.21256063E+02  # h0
        35     1.34968641E+03  # H0
        36     1.34960661E+03  # A0
        37     1.35193016E+03  # H+
   1000001     3.24277641E+03  # ~d_L
   2000001     3.09154745E+03  # ~d_R
   1000002     3.24178867E+03  # ~u_L
   2000002     3.10361332E+03  # ~u_R
   1000003     3.24277034E+03  # ~s_L
   2000003     3.09153820E+03  # ~s_R
   1000004     3.24178261E+03  # ~c_L
   2000004     3.10360937E+03  # ~c_R
   1000005     3.07020438E+03  # ~b_1
   2000005     3.12767761E+03  # ~b_2
   1000006     2.87870926E+03  # ~t_1
   2000006     3.13193810E+03  # ~t_2
   1000011     1.01455569E+03  # ~e_L-
   2000011     5.02266305E+02  # ~e_R-
   1000012     1.01102760E+03  # ~nu_eL
   1000013     1.01454719E+03  # ~mu_L-
   2000013     5.02218886E+02  # ~mu_R-
   1000014     1.01101625E+03  # ~nu_muL
   1000015     4.88705111E+02  # ~tau_1-
   2000015     1.01214656E+03  # ~tau_2-
   1000016     1.00782253E+03  # ~nu_tauL
   1000021     3.45034116E+03  # ~g
   1000022     7.08606765E+02  # ~chi_10
   1000023     9.87690335E+02  # ~chi_20
   1000025    -9.94413151E+02  # ~chi_30
   1000035     1.36170846E+03  # ~chi_40
   1000024     9.84869636E+02  # ~chi_1+
   1000037     1.36189396E+03  # ~chi_2+
   1000039     9.60000000E-09  # ~G
# Higgs mixing
Block alpha # Effective Higgs mixing angle
          -5.29301463E-02   # alpha
Block Hmix Q=  3.00265798E+03  # Higgs mixing parameters
   1    9.79884477E+02  # mu
   2    1.91159835E+01  # tan[beta](Q)
   3    2.43441350E+02  # v(Q)
   4    1.59200054E+06  # m^2_A(Q)
Block stopmix # stop mixing matrix
   1  1     1.03589158E-01   # Re[R_st(1,1)]
   1  2     9.94620172E-01   # Re[R_st(1,2)]
   2  1    -9.94620172E-01   # Re[R_st(2,1)]
   2  2     1.03589158E-01   # Re[R_st(2,2)]
Block sbotmix # sbottom mixing matrix
   1  1     1.32377177E-01   # Re[R_sb(1,1)]
   1  2     9.91199416E-01   # Re[R_sb(1,2)]
   2  1    -9.91199416E-01   # Re[R_sb(2,1)]
   2  2     1.32377177E-01   # Re[R_sb(2,2)]
Block staumix # stau mixing matrix
   1  1     4.47386417E-02   # Re[R_sta(1,1)]
   1  2     9.98998726E-01   # Re[R_sta(1,2)]
   2  1    -9.98998726E-01   # Re[R_sta(2,1)]
   2  2     4.47386417E-02   # Re[R_sta(2,2)]
Block Nmix # neutralino mixing matrix
   1  1    -9.92748000E-01   # Re[N(1,1)]
   1  2     9.23463088E-03   # Re[N(1,2)]
   1  3    -9.62607239E-02   # Re[N(1,3)]
   1  4     7.14143099E-02   # Re[N(1,4)]
   2  1    -1.18608533E-01   # Re[N(2,1)]
   2  2    -1.55873227E-01   # Re[N(2,2)]
   2  3     6.95086734E-01   # Re[N(2,3)]
   2  4    -6.91729706E-01   # Re[N(2,4)]
   3  1    -1.73685752E-02   # Re[N(3,1)]
   3  2     2.25393351E-02   # Re[N(3,2)]
   3  3     7.06157044E-01   # Re[N(3,3)]
   3  4     7.07483243E-01   # Re[N(3,4)]
   4  1    -9.04199287E-03   # Re[N(4,1)]
   4  2     9.87476702E-01   # Re[N(4,2)]
   4  3     9.45015050E-02   # Re[N(4,3)]
   4  4    -1.26005837E-01   # Re[N(4,4)]
Block Umix # chargino mixing matrix
   1  1    -1.33731199E-01   # Re[U(1,1)]
   1  2     9.91017642E-01   # Re[U(1,2)]
   2  1     9.91017642E-01   # Re[U(2,1)]
   2  2     1.33731199E-01   # Re[U(2,2)]
Block Vmix # chargino mixing matrix
   1  1    -1.78236056E-01   # Re[V(1,1)]
   1  2     9.83987758E-01   # Re[V(1,2)]
   2  1     9.83987758E-01   # Re[V(2,1)]
   2  2     1.78236056E-01   # Re[V(2,2)]
DECAY   2000011     5.44963452E-10   # ~e^-_R
#    BR                NDA      ID1      ID2
     7.29311403E-01    2     1000039        11   # BR(~e^-_R -> ~G e^-)
#    BR                NDA      ID1      ID2       ID3
     5.30723388E-02    3     1000015        11       -15   # BR(~e^-_R -> ~tau^-_1 e^- tau^+)
     2.17616259E-01    3    -1000015        11        15   # BR(~e^-_R -> ~tau^+_1 e^- tau^-)
DECAY   1000011     3.38221702E-01   # ~e^-_L
#    BR                NDA      ID1      ID2
     9.96898707E-01    2     1000022        11   # BR(~e^-_L -> chi^0_1 e^-)
     1.65794065E-03    2     1000023        11   # BR(~e^-_L -> chi^0_2 e^-)
     2.96044562E-06    2     1000025        11   # BR(~e^-_L -> chi^0_3 e^-)
     1.44021428E-03    2    -1000024        12   # BR(~e^-_L -> chi^-_1 nu_e)
     6.86456068E-08    2     2000011        23   # BR(~e^-_L -> ~e^-_R Z)
     6.95997198E-08    2     2000011        25   # BR(~e^-_L -> ~e^-_R h^0)
     3.95173806E-08    2     1000039        11   # BR(~e^-_L -> ~G e^-)
DECAY   2000013     5.42183950E-10   # ~mu^-_R
#    BR                NDA      ID1      ID2
     7.32704116E-01    2     1000039        13   # BR(~mu^-_R -> ~G mu^-)
#    BR                NDA      ID1      ID2       ID3
     5.23935170E-02    3     1000015        13       -15   # BR(~mu^-_R -> ~tau^-_1 mu^- tau^+)
     2.14902367E-01    3    -1000015        13        15   # BR(~mu^-_R -> ~tau^+_1 mu^- tau^-)
DECAY   1000013     3.40217801E-01   # ~mu^-_L
#    BR                NDA      ID1      ID2
     9.91027323E-01    2     1000022        13   # BR(~mu^-_L -> chi^0_1 mu^-)
     1.65715193E-03    2     1000023        13   # BR(~mu^-_L -> chi^0_2 mu^-)
     9.58092178E-06    2     1000025        13   # BR(~mu^-_L -> chi^0_3 mu^-)
     1.42988021E-03    2    -1000024        14   # BR(~mu^-_L -> chi^-_1 nu_mu)
     2.91777129E-03    2     2000013        23   # BR(~mu^-_L -> ~mu^-_R Z)
     2.95825357E-03    2     2000013        25   # BR(~mu^-_L -> ~mu^-_R h^0)
     3.92838793E-08    2     1000039        13   # BR(~mu^-_L -> ~G mu^-)
DECAY   1000015     3.46594446E-10   # ~tau^-_1
#    BR                NDA      ID1      ID2
     1.00000000E+00    2     1000039        15   # BR(~tau^-_1 -> ~G tau^-)
DECAY   2000015     9.11353145E-01   # ~tau^-_2
#    BR                NDA      ID1      ID2
     3.67558729E-01    2     1000022        15   # BR(~tau^-_2 -> chi^0_1 tau^-)
     1.38393912E-03    2     1000023        15   # BR(~tau^-_2 -> chi^0_2 tau^-)
     5.39732914E-04    2     1000025        15   # BR(~tau^-_2 -> chi^0_3 tau^-)
     3.61998110E-04    2    -1000024        16   # BR(~tau^-_2 -> chi^-_1 nu_tau)
     3.13965841E-01    2     1000015        23   # BR(~tau^-_2 -> ~tau^-_1 Z)
     3.16189746E-01    2     1000015        25   # BR(~tau^-_2 -> ~tau^-_1 h^0)
     1.44922268E-08    2     1000039        15   # BR(~tau^-_2 -> ~G tau^-)
DECAY   1000012     3.54508676E-01   # ~nu_e
#    BR                NDA      ID1      ID2
     9.97893689E-01    2     1000022        12   # BR(~nu_e -> chi^0_1 nu_e)
     1.84977466E-04    2     1000023        12   # BR(~nu_e -> chi^0_2 nu_e)
     1.29222047E-05    2     1000025        12   # BR(~nu_e -> chi^0_3 nu_e)
     1.90824835E-03    2     1000024        11   # BR(~nu_e -> chi^+_1 e^-)
     1.26337611E-07    2     2000011        24   # BR(~nu_e -> ~e^-_R W^+)
     3.70508646E-08    2     1000039        12   # BR(~nu_e -> ~G nu_e)
DECAY   1000014     3.56410507E-01   # ~nu_mu
#    BR                NDA      ID1      ID2
     9.92514713E-01    2     1000022        14   # BR(~nu_mu -> chi^0_1 nu_mu)
     1.83815688E-04    2     1000023        14   # BR(~nu_mu -> chi^0_2 nu_mu)
     1.28359922E-05    2     1000025        14   # BR(~nu_mu -> chi^0_3 nu_mu)
     1.91580745E-03    2     1000024        13   # BR(~nu_mu -> chi^+_1 mu^-)
     5.37279086E-03    2     2000013        24   # BR(~nu_mu -> ~mu^-_R W^+)
     3.68510912E-08    2     1000039        14   # BR(~nu_mu -> ~G nu_mu)
DECAY   1000016     9.01271972E-01   # ~nu_tau
#    BR                NDA      ID1      ID2
     3.86471311E-01    2     1000022        16   # BR(~nu_tau -> chi^0_1 nu_tau)
     5.44897845E-05    2     1000023        16   # BR(~nu_tau -> chi^0_2 nu_tau)
     3.33196680E-06    2     1000025        16   # BR(~nu_tau -> chi^0_3 nu_tau)
     2.23646612E-03    2     1000024        15   # BR(~nu_tau -> chi^+_1 tau^-)
     6.11234387E-01    2     1000015        24   # BR(~nu_tau -> ~tau^-_1 W^+)
     1.43441431E-08    2     1000039        16   # BR(~nu_tau -> ~G nu_tau)
DECAY   2000001     1.63579356E+00   # ~d_R
#    BR                NDA      ID1      ID2
     9.87010090E-01    2     1000022         1   # BR(~d_R -> chi^0_1 d)
     1.26551881E-02    2     1000023         1   # BR(~d_R -> chi^0_2 d)
     2.71428362E-04    2     1000025         1   # BR(~d_R -> chi^0_3 d)
     5.92528765E-05    2     1000035         1   # BR(~d_R -> chi^0_4 d)
     1.89385926E-06    2    -1000024         2   # BR(~d_R -> chi^-_1 u)
     1.21199338E-10    2    -1000037         2   # BR(~d_R -> chi^-_2 u)
     2.14665005E-06    2     1000039         1   # BR(~d_R -> ~G d)
DECAY   1000001     2.71872999E+01   # ~d_L
#    BR                NDA      ID1      ID2
     1.72983230E-02    2     1000022         1   # BR(~d_L -> chi^0_1 d)
     7.03095042E-03    2     1000023         1   # BR(~d_L -> chi^0_2 d)
     2.64349523E-04    2     1000025         1   # BR(~d_L -> chi^0_3 d)
     3.19648336E-01    2     1000035         1   # BR(~d_L -> chi^0_4 d)
     1.41916512E-02    2    -1000024         2   # BR(~d_L -> chi^-_1 u)
     6.41566225E-01    2    -1000037         2   # BR(~d_L -> chi^-_2 u)
     9.63850569E-13    2     2000002       -24   # BR(~d_L -> ~u_R W^-)
     3.72296340E-10    2     2000001        23   # BR(~d_L -> ~d_R Z)
     3.94087242E-10    2     2000001        25   # BR(~d_L -> ~d_R h^0)
     1.63994436E-07    2     1000039         1   # BR(~d_L -> ~G d)
DECAY   2000003     1.63850111E+00   # ~s_R
#    BR                NDA      ID1      ID2
     9.85392100E-01    2     1000022         3   # BR(~s_R -> chi^0_1 s)
     1.30385091E-02    2     1000023         3   # BR(~s_R -> chi^0_2 s)
     6.74244699E-04    2     1000025         3   # BR(~s_R -> chi^0_3 s)
     5.91438088E-05    2     1000035         3   # BR(~s_R -> chi^0_4 s)
     8.33806094E-04    2    -1000024         4   # BR(~s_R -> chi^-_1 c)
     5.33961688E-08    2    -1000037         4   # BR(~s_R -> chi^-_2 c)
     2.14307074E-06    2     1000039         3   # BR(~s_R -> ~G s)
DECAY   1000003     2.71892563E+01   # ~s_L
#    BR                NDA      ID1      ID2
     1.72970478E-02    2     1000022         3   # BR(~s_L -> chi^0_1 s)
     7.05532733E-03    2     1000023         3   # BR(~s_L -> chi^0_2 s)
     2.90786263E-04    2     1000025         3   # BR(~s_L -> chi^0_3 s)
     3.19625024E-01    2     1000035         3   # BR(~s_L -> chi^0_4 s)
     1.42116935E-02    2    -1000024         4   # BR(~s_L -> chi^-_1 c)
     6.41519446E-01    2    -1000037         4   # BR(~s_L -> chi^-_2 c)
     1.72713603E-07    2     2000004       -24   # BR(~s_L -> ~c_R W^-)
     1.64180546E-07    2     2000003        23   # BR(~s_L -> ~s_R Z)
     1.73789936E-07    2     2000003        25   # BR(~s_L -> ~s_R h^0)
     1.63981099E-07    2     1000039         3   # BR(~s_L -> ~G s)
DECAY   1000005     8.47119959E+00   # ~b_1
#    BR                NDA      ID1      ID2
     2.00650848E-01    2     1000022         5   # BR(~b_1 -> chi^0_1 b)
     1.83046934E-01    2     1000023         5   # BR(~b_1 -> chi^0_2 b)
     1.71150167E-01    2     1000025         5   # BR(~b_1 -> chi^0_3 b)
     6.01000300E-03    2     1000035         5   # BR(~b_1 -> chi^0_4 b)
     4.24323251E-01    2    -1000024         6   # BR(~b_1 -> chi^-_1 t)
     1.42876284E-02    2    -1000037         6   # BR(~b_1 -> chi^-_2 t)
     5.30768332E-04    2     1000006       -24   # BR(~b_1 -> ~t_1 W^-)
     4.00404021E-07    2     1000039         5   # BR(~b_1 -> ~G b)
DECAY   2000005     6.26219739E+01   # ~b_2
#    BR                NDA      ID1      ID2
     6.57346407E-03    2     1000022         5   # BR(~b_2 -> chi^0_1 b)
     2.50374021E-02    2     1000023         5   # BR(~b_2 -> chi^0_2 b)
     2.49447000E-02    2     1000025         5   # BR(~b_2 -> chi^0_3 b)
     1.29473547E-01    2     1000035         5   # BR(~b_2 -> chi^0_4 b)
     5.26405122E-01    2    -1000024         6   # BR(~b_2 -> chi^-_1 t)
     2.77802537E-01    2    -1000037         6   # BR(~b_2 -> chi^-_2 t)
     9.76316896E-03    2     1000006       -24   # BR(~b_2 -> ~t_1 W^-)
     5.94278722E-08    2     1000039         5   # BR(~b_2 -> ~G b)
DECAY   2000002     6.57440821E+00   # ~u_R
#    BR                NDA      ID1      ID2
     9.87003653E-01    2     1000022         2   # BR(~u_R -> chi^0_1 u)
     1.26656181E-02    2     1000023         2   # BR(~u_R -> chi^0_2 u)
     2.70760492E-04    2     1000025         2   # BR(~u_R -> chi^0_3 u)
     5.94229326E-05    2     1000035         2   # BR(~u_R -> chi^0_4 u)
     5.30320140E-10    2     1000024         1   # BR(~u_R -> chi^+_1 d)
     3.84144842E-13    2     1000037         1   # BR(~u_R -> chi^+_2 d)
     5.44617421E-07    2     1000039         2   # BR(~u_R -> ~G u)
DECAY   1000002     2.72303207E+01   # ~u_L
#    BR                NDA      ID1      ID2
     1.42093783E-02    2     1000022         2   # BR(~u_L -> chi^0_1 u)
     1.26090439E-02    2     1000023         2   # BR(~u_L -> chi^0_2 u)
     1.45674133E-04    2     1000025         2   # BR(~u_L -> chi^0_3 u)
     3.16736988E-01    2     1000035         2   # BR(~u_L -> chi^0_4 u)
     2.51586856E-02    2     1000024         1   # BR(~u_L -> chi^+_1 d)
     6.31140065E-01    2     1000037         1   # BR(~u_L -> chi^+_2 d)
     8.41058816E-10    2     2000001        24   # BR(~u_L -> ~d_R W^+)
     3.78240444E-13    2     2000002        23   # BR(~u_L -> ~u_R Z)
     2.78542995E-13    2     2000002        25   # BR(~u_L -> ~u_R h^0)
     1.63486127E-07    2     1000039         2   # BR(~u_L -> ~G u)
DECAY   2000004     6.57563626E+00   # ~c_R
#    BR                NDA      ID1      ID2
     9.86818016E-01    2     1000022         4   # BR(~c_R -> chi^0_1 c)
     1.27093400E-02    2     1000023         4   # BR(~c_R -> chi^0_2 c)
     3.17576632E-04    2     1000025         4   # BR(~c_R -> chi^0_3 c)
     5.94327160E-05    2     1000035         4   # BR(~c_R -> chi^0_4 c)
     9.50215129E-05    2     1000024         3   # BR(~c_R -> chi^+_1 s)
     6.88217256E-08    2     1000037         3   # BR(~c_R -> chi^+_2 s)
     5.44511884E-07    2     1000039         4   # BR(~c_R -> ~G c)
DECAY   1000004     2.72322940E+01   # ~c_L
#    BR                NDA      ID1      ID2
     1.42083746E-02    2     1000022         4   # BR(~c_L -> chi^0_1 c)
     1.26189963E-02    2     1000023         4   # BR(~c_L -> chi^0_2 c)
     1.57482807E-04    2     1000025         4   # BR(~c_L -> chi^0_3 c)
     3.16713666E-01    2     1000035         4   # BR(~c_L -> chi^0_4 c)
     2.52072611E-02    2     1000024         3   # BR(~c_L -> chi^+_1 s)
     6.31093567E-01    2     1000037         3   # BR(~c_L -> chi^+_2 s)
     3.70898331E-07    2     2000003        24   # BR(~c_L -> ~s_R W^+)
     6.77765068E-08    2     2000004        23   # BR(~c_L -> ~c_R Z)
     4.99109895E-08    2     2000004        25   # BR(~c_L -> ~c_R h^0)
     1.63472651E-07    2     1000039         4   # BR(~c_L -> ~G c)
DECAY   1000006     6.72705444E+01   # ~t_1
#    BR                NDA      ID1      ID2
     8.82248098E-06    2     1000022         4   # BR(~t_1 -> chi^0_1 c)
     9.04673986E-02    2     1000022         6   # BR(~t_1 -> chi^0_1 t)
     7.60805905E-06    2     1000023         4   # BR(~t_1 -> chi^0_2 c)
     2.20951425E-01    2     1000023         6   # BR(~t_1 -> chi^0_2 t)
     2.30205308E-01    2     1000025         6   # BR(~t_1 -> chi^0_3 t)
     1.71735338E-03    2     1000035         6   # BR(~t_1 -> chi^0_4 t)
     4.53135230E-01    2     1000024         5   # BR(~t_1 -> chi^+_1 b)
     3.49965456E-03    2     1000037         5   # BR(~t_1 -> chi^+_2 b)
     3.60184720E-08    2     1000039         6   # BR(~t_1 -> ~G t)
#    BR                NDA      ID1      ID2       ID3
     7.16400124E-06    3     1000022        24         5   # BR(~t_1 -> chi^0_1 W^+ b)
DECAY   2000006     6.35518719E+01   # ~t_2
#    BR                NDA      ID1      ID2
     7.23056333E-03    2     1000022         6   # BR(~t_2 -> chi^0_1 t)
     2.61960570E-01    2     1000023         6   # BR(~t_2 -> chi^0_2 t)
     2.69306147E-01    2     1000025         6   # BR(~t_2 -> chi^0_3 t)
     1.41386681E-01    2     1000035         6   # BR(~t_2 -> chi^0_4 t)
     4.75848430E-02    2     1000024         5   # BR(~t_2 -> chi^+_1 b)
     2.63842570E-01    2     1000037         5   # BR(~t_2 -> chi^+_2 b)
     5.02024601E-03    2     1000006        23   # BR(~t_2 -> ~t_1 Z)
     3.66832193E-03    2     1000006        25   # BR(~t_2 -> ~t_1 h^0)
     5.82464992E-08    2     1000039         6   # BR(~t_2 -> ~G t)
DECAY   1000024     6.69785836E-01   # chi^+_1
#    BR                NDA      ID1      ID2
     2.77117700E-08    2    -2000011        12   # BR(chi^+_1 -> ~e^+_R nu_e)
     1.18490770E-03    2    -2000013        14   # BR(chi^+_1 -> ~mu^+_R nu_mu)
     3.47301713E-01    2    -1000015        16   # BR(chi^+_1 -> ~tau^+_1 nu_tau)
     6.50895373E-01    2     1000022        24   # BR(chi^+_1 -> chi^0_1 W^+)
#    BR                NDA      ID1      ID2       ID3
     6.75366427E-10    3     1000022        -1         2   # BR(chi^+_1 -> chi^0_1 d_bar u)
     8.32992953E-10    3     1000022        -3         4   # BR(chi^+_1 -> chi^0_1 s_bar c)
     6.04373399E-04    3     1000022        -5         6   # BR(chi^+_1 -> chi^0_1 b_bar t)
     2.91192784E-06    3     1000022       -11        12   # BR(chi^+_1 -> chi^0_1 e^+ nu_e)
     2.92858117E-06    3     1000022       -13        14   # BR(chi^+_1 -> chi^0_1 mu^+ nu_mu)
     7.76295885E-06    3     1000022       -15        16   # BR(chi^+_1 -> chi^0_1 tau^+ nu_tau)
DECAY   1000037     1.41098186E+01   # chi^+_2
#    BR                NDA      ID1      ID2
     1.25834272E-13    2    -2000011        12   # BR(chi^+_2 -> ~e^+_R nu_e)
     7.57913027E-02    2    -1000011        12   # BR(chi^+_2 -> ~e^+_L nu_e)
     5.37257186E-09    2    -2000013        14   # BR(chi^+_2 -> ~mu^+_R nu_mu)
     7.57949632E-02    2    -1000013        14   # BR(chi^+_2 -> ~mu^+_L nu_mu)
     1.00230440E-06    2    -1000015        16   # BR(chi^+_2 -> ~tau^+_1 nu_tau)
     7.68316326E-02    2    -2000015        16   # BR(chi^+_2 -> ~tau^+_2 nu_tau)
     7.60192742E-02    2     1000012       -11   # BR(chi^+_2 -> ~nu_e e^+)
     7.60238272E-02    2     1000014       -13   # BR(chi^+_2 -> ~nu_mu mu^+)
     7.73105416E-02    2     1000016       -15   # BR(chi^+_2 -> ~nu_tau tau^+)
     4.20558569E-07    2     1000022        24   # BR(chi^+_2 -> chi^0_1 W^+)
     1.36935897E-01    2     1000023        24   # BR(chi^+_2 -> chi^0_2 W^+)
     1.32264840E-01    2     1000025        24   # BR(chi^+_2 -> chi^0_3 W^+)
     1.39176684E-01    2     1000024        23   # BR(chi^+_2 -> chi^+_1 Z)
     1.32900728E-01    2     1000024        25   # BR(chi^+_2 -> chi^+_1 h^0)
#    BR                NDA      ID1      ID2       ID3
     2.39481281E-09    3     1000024         2        -2   # BR(chi^+_2 -> chi^+_1 u u_bar)
     2.39676224E-09    3     1000024         4        -4   # BR(chi^+_2 -> chi^+_1 c c_bar)
     2.50210820E-05    3     1000024         6        -6   # BR(chi^+_2 -> chi^+_1 t t_bar)
     4.20036232E-09    3     1000024         1        -1   # BR(chi^+_2 -> chi^+_1 d d_bar)
     4.46463992E-09    3     1000024         3        -3   # BR(chi^+_2 -> chi^+_1 s s_bar)
     6.10028562E-07    3     1000024         5        -5   # BR(chi^+_2 -> chi^+_1 b b_bar)
     3.80895800E-10    3     1000024        13       -13   # BR(chi^+_2 -> chi^+_1 mu^- mu^+)
     1.07822373E-07    3     1000024        15       -15   # BR(chi^+_2 -> chi^+_1 tau^- tau^+)
     1.05881807E-12    3     1000024        12       -12   # BR(chi^+_2 -> chi^+_1 nu_e nu_bar_e)
     6.82438148E-08    3     1000022        -1         2   # BR(chi^+_2 -> chi^0_1 d_bar u)
     6.82483708E-08    3     1000022        -3         4   # BR(chi^+_2 -> chi^0_1 s_bar c)
     8.76111894E-08    3     1000022        -5         6   # BR(chi^+_2 -> chi^0_1 b_bar t)
     8.14606573E-12    3     1000022       -13        14   # BR(chi^+_2 -> chi^0_1 mu^+ nu_mu)
     2.37925065E-09    3     1000022       -15        16   # BR(chi^+_2 -> chi^0_1 tau^+ nu_tau)
     1.69857689E-09    3     1000023        -1         2   # BR(chi^+_2 -> chi^0_2 d_bar u)
     1.82344164E-09    3     1000023        -3         4   # BR(chi^+_2 -> chi^0_2 s_bar c)
     4.85554226E-04    3     1000023        -5         6   # BR(chi^+_2 -> chi^0_2 b_bar t)
     1.94416535E-10    3     1000023       -13        14   # BR(chi^+_2 -> chi^0_2 mu^+ nu_mu)
     5.50172885E-08    3     1000023       -15        16   # BR(chi^+_2 -> chi^0_2 tau^+ nu_tau)
     9.08271345E-11    3     1000025        -1         2   # BR(chi^+_2 -> chi^0_3 d_bar u)
     1.99357431E-10    3     1000025        -3         4   # BR(chi^+_2 -> chi^0_3 s_bar c)
     4.37240256E-04    3     1000025        -5         6   # BR(chi^+_2 -> chi^0_3 b_bar t)
     1.72645589E-10    3     1000025       -13        14   # BR(chi^+_2 -> chi^0_3 mu^+ nu_mu)
     4.88663958E-08    3     1000025       -15        16   # BR(chi^+_2 -> chi^0_3 tau^+ nu_tau)
DECAY   1000022     2.85970926E+00   # chi^0_1
#    BR                NDA      ID1      ID2
     1.60616328E-01    2     2000011       -11   # BR(chi^0_1 -> ~e^-_R e^+)
     1.60616328E-01    2    -2000011        11   # BR(chi^0_1 -> ~e^+_R e^-)
     1.60678671E-01    2     2000013       -13   # BR(chi^0_1 -> ~mu^-_R mu^+)
     1.60678671E-01    2    -2000013        13   # BR(chi^0_1 -> ~mu^+_R mu^-)
     1.78705002E-01    2     1000015       -15   # BR(chi^0_1 -> ~tau^-_1 tau^+)
     1.78705002E-01    2    -1000015        15   # BR(chi^0_1 -> ~tau^+_1 tau^-)
     5.69925324E-10    2     1000039        22   # BR(chi^0_1 -> ~G photon)
     1.67118785E-10    2     1000039        23   # BR(chi^0_1 -> ~G Z)
     4.53115214E-12    2     1000039        25   # BR(chi^0_1 -> ~G h^0)
DECAY   1000023     8.30255925E-01   # chi^0_2
#    BR                NDA      ID1      ID2
     2.44360414E-02    2     2000011       -11   # BR(chi^0_2 -> ~e^-_R e^+)
     2.44360414E-02    2    -2000011        11   # BR(chi^0_2 -> ~e^+_R e^-)
     2.49049725E-02    2     2000013       -13   # BR(chi^0_2 -> ~mu^-_R mu^+)
     2.49049725E-02    2    -2000013        13   # BR(chi^0_2 -> ~mu^+_R mu^-)
     1.62171526E-01    2     1000015       -15   # BR(chi^0_2 -> ~tau^-_1 tau^+)
     1.62171526E-01    2    -1000015        15   # BR(chi^0_2 -> ~tau^+_1 tau^-)
     1.49806608E-02    2     1000022        23   # BR(chi^0_2 -> chi^0_1 Z)
     5.61978485E-01    2     1000022        25   # BR(chi^0_2 -> chi^0_1 h^0)
     4.58320402E-10    2     1000039        22   # BR(chi^0_2 -> ~G photon)
     1.15611973E-09    2     1000039        23   # BR(chi^0_2 -> ~G Z)
     7.44922518E-09    2     1000039        25   # BR(chi^0_2 -> ~G h^0)
     2.78712328E-07    2     1000022        22   # BR(chi^0_2 -> chi^0_1 photon)
#    BR                NDA      ID1      ID2       ID3
     2.22756970E-09    3     1000022         2        -2   # BR(chi^0_2 -> chi^0_1 u u_bar)
     2.23015894E-09    3     1000022         4        -4   # BR(chi^0_2 -> chi^0_1 c c_bar)
     3.51419587E-10    3     1000022         1        -1   # BR(chi^0_2 -> chi^0_1 d d_bar)
     5.16139203E-10    3     1000022         3        -3   # BR(chi^0_2 -> chi^0_1 s s_bar)
     3.72147870E-07    3     1000022         5        -5   # BR(chi^0_2 -> chi^0_1 b b_bar)
     3.63344085E-06    3     1000022        11       -11   # BR(chi^0_2 -> chi^0_1 e^- e^+)
     3.64367304E-06    3     1000022        13       -13   # BR(chi^0_2 -> chi^0_1 mu^- mu^+)
     6.53770866E-06    3     1000022        15       -15   # BR(chi^0_2 -> chi^0_1 tau^- tau^+)
     1.29425370E-06    3     1000022        12       -12   # BR(chi^0_2 -> chi^0_1 nu_e nu_bar_e)
     8.84287002E-11    3     1000024         1        -2   # BR(chi^0_2 -> chi^+_1 d u_bar)
     8.84287002E-11    3    -1000024        -1         2   # BR(chi^0_2 -> chi^-_1 d_bar u)
     3.26697719E-11    3     1000024         3        -4   # BR(chi^0_2 -> chi^+_1 s c_bar)
     3.26697719E-11    3    -1000024        -3         4   # BR(chi^0_2 -> chi^-_1 s_bar c)
     2.96341798E-11    3     1000024        11       -12   # BR(chi^0_2 -> chi^+_1 e^- nu_bar_e)
     2.96341798E-11    3    -1000024       -11        12   # BR(chi^0_2 -> chi^-_1 e^+ nu_e)
     2.94280444E-11    3     1000024        13       -14   # BR(chi^0_2 -> chi^+_1 mu^- nu_bar_mu)
     2.94280444E-11    3    -1000024       -13        14   # BR(chi^0_2 -> chi^-_1 mu^+ nu_mu)
     3.70454651E-12    3     1000024        15       -16   # BR(chi^0_2 -> chi^+_1 tau^- nu_bar_tau)
     3.70454651E-12    3    -1000024       -15        16   # BR(chi^0_2 -> chi^-_1 tau^+ nu_tau)
DECAY   1000025     6.97753992E-01   # chi^0_3
#    BR                NDA      ID1      ID2
     6.33672576E-04    2     2000011       -11   # BR(chi^0_3 -> ~e^-_R e^+)
     6.33672576E-04    2    -2000011        11   # BR(chi^0_3 -> ~e^+_R e^-)
     1.19773387E-03    2     2000013       -13   # BR(chi^0_3 -> ~mu^-_R mu^+)
     1.19773387E-03    2    -2000013        13   # BR(chi^0_3 -> ~mu^+_R mu^-)
     1.66148197E-01    2     1000015       -15   # BR(chi^0_3 -> ~tau^-_1 tau^+)
     1.66148197E-01    2    -1000015        15   # BR(chi^0_3 -> ~tau^+_1 tau^-)
     6.50879282E-01    2     1000022        23   # BR(chi^0_3 -> chi^0_1 Z)
     1.31554319E-02    2     1000022        25   # BR(chi^0_3 -> chi^0_1 h^0)
     2.57047018E-13    2     1000039        22   # BR(chi^0_3 -> ~G photon)
     1.63806685E-09    2     1000039        23   # BR(chi^0_3 -> ~G Z)
     7.75659034E-09    2     1000039        25   # BR(chi^0_3 -> ~G h^0)
     5.70436081E-07    2     1000022        22   # BR(chi^0_3 -> chi^0_1 photon)
     2.00392191E-10    2     1000023        22   # BR(chi^0_3 -> chi^0_2 photon)
#    BR                NDA      ID1      ID2       ID3
     2.03912421E-11    3     1000022         2        -2   # BR(chi^0_3 -> chi^0_1 u u_bar)
     2.74479173E-11    3     1000022         4        -4   # BR(chi^0_3 -> chi^0_1 c c_bar)
     5.66981124E-12    3     1000022         1        -1   # BR(chi^0_3 -> chi^0_1 d d_bar)
     2.20181423E-10    3     1000022         3        -3   # BR(chi^0_3 -> chi^0_1 s s_bar)
     4.83669091E-07    3     1000022         5        -5   # BR(chi^0_3 -> chi^0_1 b b_bar)
     1.78265287E-08    3     1000022        11       -11   # BR(chi^0_3 -> chi^0_1 e^- e^+)
     3.37350566E-08    3     1000022        13       -13   # BR(chi^0_3 -> chi^0_1 mu^- mu^+)
     4.56210993E-06    3     1000022        15       -15   # BR(chi^0_3 -> chi^0_1 tau^- tau^+)
     1.34509112E-07    3     1000022        12       -12   # BR(chi^0_3 -> chi^0_1 nu_e nu_bar_e)
     2.22055802E-09    3     1000023         2        -2   # BR(chi^0_3 -> chi^0_2 u u_bar)
     1.73135774E-09    3     1000023         4        -4   # BR(chi^0_3 -> chi^0_2 c c_bar)
     2.88401824E-09    3     1000023         1        -1   # BR(chi^0_3 -> chi^0_2 d d_bar)
     2.87834022E-09    3     1000023         3        -3   # BR(chi^0_3 -> chi^0_2 s s_bar)
     6.63068923E-10    3     1000023        11       -11   # BR(chi^0_3 -> chi^0_2 e^- e^+)
     6.62258165E-10    3     1000023        13       -13   # BR(chi^0_3 -> chi^0_2 mu^- mu^+)
     4.05251617E-10    3     1000023        15       -15   # BR(chi^0_3 -> chi^0_2 tau^- tau^+)
     3.98516652E-09    3     1000023        12       -12   # BR(chi^0_3 -> chi^0_2 nu_e nu_bar_e)
     4.39189464E-08    3     1000024         1        -2   # BR(chi^0_3 -> chi^+_1 d u_bar)
     4.39189464E-08    3    -1000024        -1         2   # BR(chi^0_3 -> chi^-_1 d_bar u)
     4.02784511E-08    3     1000024         3        -4   # BR(chi^0_3 -> chi^+_1 s c_bar)
     4.02784511E-08    3    -1000024        -3         4   # BR(chi^0_3 -> chi^-_1 s_bar c)
     1.46496427E-08    3     1000024        11       -12   # BR(chi^0_3 -> chi^+_1 e^- nu_bar_e)
     1.46496427E-08    3    -1000024       -11        12   # BR(chi^0_3 -> chi^-_1 e^+ nu_e)
     1.46404414E-08    3     1000024        13       -14   # BR(chi^0_3 -> chi^+_1 mu^- nu_bar_mu)
     1.46404414E-08    3    -1000024       -13        14   # BR(chi^0_3 -> chi^-_1 mu^+ nu_mu)
     1.23398875E-08    3     1000024        15       -16   # BR(chi^0_3 -> chi^+_1 tau^- nu_bar_tau)
     1.23398875E-08    3    -1000024       -15        16   # BR(chi^0_3 -> chi^-_1 tau^+ nu_tau)
DECAY   1000035     1.41234861E+01   # chi^0_4
#    BR                NDA      ID1      ID2
     1.56289838E-05    2     2000011       -11   # BR(chi^0_4 -> ~e^-_R e^+)
     1.56289838E-05    2    -2000011        11   # BR(chi^0_4 -> ~e^+_R e^-)
     3.71647732E-02    2     1000011       -11   # BR(chi^0_4 -> ~e^-_L e^+)
     3.71647732E-02    2    -1000011        11   # BR(chi^0_4 -> ~e^+_L e^-)
     1.56112931E-05    2     2000013       -13   # BR(chi^0_4 -> ~mu^-_R mu^+)
     1.56112931E-05    2    -2000013        13   # BR(chi^0_4 -> ~mu^+_R mu^-)
     3.71667559E-02    2     1000013       -13   # BR(chi^0_4 -> ~mu^-_L mu^+)
     3.71667559E-02    2    -1000013        13   # BR(chi^0_4 -> ~mu^+_L mu^-)
     1.09064099E-05    2     1000015       -15   # BR(chi^0_4 -> ~tau^-_1 tau^+)
     1.09064099E-05    2    -1000015        15   # BR(chi^0_4 -> ~tau^+_1 tau^-)
     3.77286619E-02    2     2000015       -15   # BR(chi^0_4 -> ~tau^-_2 tau^+)
     3.77286619E-02    2    -2000015        15   # BR(chi^0_4 -> ~tau^+_2 tau^-)
     3.86142737E-02    2     1000012       -12   # BR(chi^0_4 -> ~nu_e nu_bar_e)
     3.86142737E-02    2    -1000012        12   # BR(chi^0_4 -> ~nu^*_e nu_e)
     3.86164027E-02    2     1000014       -14   # BR(chi^0_4 -> ~nu_mu nu_bar_mu)
     3.86164027E-02    2    -1000014        14   # BR(chi^0_4 -> ~nu^*_mu nu_mu)
     3.92171708E-02    2     1000016       -16   # BR(chi^0_4 -> ~nu_tau nu_bar_tau)
     3.92171708E-02    2    -1000016        16   # BR(chi^0_4 -> ~nu^*_tau nu_tau)
     1.37995404E-01    2     1000024       -24   # BR(chi^0_4 -> chi^+_1 W^-)
     1.37995404E-01    2    -1000024        24   # BR(chi^0_4 -> chi^-_1 W^+)
     2.21054487E-07    2     1000022        23   # BR(chi^0_4 -> chi^0_1 Z)
     3.06476270E-03    2     1000023        23   # BR(chi^0_4 -> chi^0_2 Z)
     1.29785769E-01    2     1000025        23   # BR(chi^0_4 -> chi^0_3 Z)
     6.27106319E-09    2     1000022        25   # BR(chi^0_4 -> chi^0_1 h^0)
     1.30650539E-01    2     1000023        25   # BR(chi^0_4 -> chi^0_2 h^0)
     2.41749187E-03    2     1000025        25   # BR(chi^0_4 -> chi^0_3 h^0)
     9.63484863E-10    2     1000039        22   # BR(chi^0_4 -> ~G photon)
     3.53698352E-09    2     1000039        23   # BR(chi^0_4 -> ~G Z)
     7.05455702E-11    2     1000039        25   # BR(chi^0_4 -> ~G h^0)
     1.28207584E-07    2     1000022        22   # BR(chi^0_4 -> chi^0_1 photon)
     6.06356904E-07    2     1000023        22   # BR(chi^0_4 -> chi^0_2 photon)
     7.63256885E-07    2     1000025        22   # BR(chi^0_4 -> chi^0_3 photon)
#    BR                NDA      ID1      ID2       ID3
     3.07157494E-08    3     1000022         2        -2   # BR(chi^0_4 -> chi^0_1 u u_bar)
     3.07143977E-08    3     1000022         4        -4   # BR(chi^0_4 -> chi^0_1 c c_bar)
     1.26455913E-08    3     1000022         6        -6   # BR(chi^0_4 -> chi^0_1 t t_bar)
     3.74937078E-08    3     1000022         1        -1   # BR(chi^0_4 -> chi^0_1 d d_bar)
     3.75001359E-08    3     1000022         3        -3   # BR(chi^0_4 -> chi^0_1 s s_bar)
     5.81565036E-08    3     1000022         5        -5   # BR(chi^0_4 -> chi^0_1 b b_bar)
     7.17100770E-09    3     1000022        11       -11   # BR(chi^0_4 -> chi^0_1 e^- e^+)
     7.16808661E-09    3     1000022        13       -13   # BR(chi^0_4 -> chi^0_1 mu^- mu^+)
     6.82360095E-09    3     1000022        15       -15   # BR(chi^0_4 -> chi^0_1 tau^- tau^+)
     3.03160692E-09    3     1000023         2        -2   # BR(chi^0_4 -> chi^0_2 u u_bar)
     3.03118046E-09    3     1000023         4        -4   # BR(chi^0_4 -> chi^0_2 c c_bar)
     1.88711758E-06    3     1000023         6        -6   # BR(chi^0_4 -> chi^0_2 t t_bar)
     1.69677941E-09    3     1000023         1        -1   # BR(chi^0_4 -> chi^0_2 d d_bar)
     1.82076019E-09    3     1000023         3        -3   # BR(chi^0_4 -> chi^0_2 s s_bar)
     2.85479773E-07    3     1000023         5        -5   # BR(chi^0_4 -> chi^0_2 b b_bar)
     4.41084912E-12    3     1000023        11       -11   # BR(chi^0_4 -> chi^0_2 e^- e^+)
     1.80003291E-10    3     1000023        13       -13   # BR(chi^0_4 -> chi^0_2 mu^- mu^+)
     4.98547343E-08    3     1000023        15       -15   # BR(chi^0_4 -> chi^0_2 tau^- tau^+)
     1.11843738E-11    3     1000025         2        -2   # BR(chi^0_4 -> chi^0_3 u u_bar)
     1.26310683E-11    3     1000025         4        -4   # BR(chi^0_4 -> chi^0_3 c c_bar)
     1.07723101E-05    3     1000025         6        -6   # BR(chi^0_4 -> chi^0_3 t t_bar)
     2.06412744E-11    3     1000025         1        -1   # BR(chi^0_4 -> chi^0_3 d d_bar)
     1.42885763E-10    3     1000025         3        -3   # BR(chi^0_4 -> chi^0_3 s s_bar)
     2.79527511E-07    3     1000025         5        -5   # BR(chi^0_4 -> chi^0_3 b b_bar)
     3.37329626E-14    3     1000025        11       -11   # BR(chi^0_4 -> chi^0_3 e^- e^+)
     1.73235147E-10    3     1000025        13       -13   # BR(chi^0_4 -> chi^0_3 mu^- mu^+)
     4.91835548E-08    3     1000025        15       -15   # BR(chi^0_4 -> chi^0_3 tau^- tau^+)
     1.75249963E-09    3     1000024         1        -2   # BR(chi^0_4 -> chi^+_1 d u_bar)
     1.75249963E-09    3    -1000024        -1         2   # BR(chi^0_4 -> chi^-_1 d_bar u)
     1.88926175E-09    3     1000024         3        -4   # BR(chi^0_4 -> chi^+_1 s c_bar)
     1.88926175E-09    3    -1000024        -3         4   # BR(chi^0_4 -> chi^-_1 s_bar c)
     4.87424172E-04    3     1000024         5        -6   # BR(chi^0_4 -> chi^+_1 b t_bar)
     4.87424172E-04    3    -1000024        -5         6   # BR(chi^0_4 -> chi^-_1 b_bar t)
     1.98608851E-10    3     1000024        13       -14   # BR(chi^0_4 -> chi^+_1 mu^- nu_bar_mu)
     1.98608851E-10    3    -1000024       -13        14   # BR(chi^0_4 -> chi^-_1 mu^+ nu_mu)
     5.60357112E-08    3     1000024        15       -16   # BR(chi^0_4 -> chi^+_1 tau^- nu_bar_tau)
     5.60357112E-08    3    -1000024       -15        16   # BR(chi^0_4 -> chi^-_1 tau^+ nu_tau)
DECAY   1000021     2.71887725E+01   # ~g
#    BR                NDA      ID1      ID2
     4.63664368E-02    2     2000002        -2   # BR(~g -> ~u_R u_bar)
     4.63664368E-02    2    -2000002         2   # BR(~g -> ~u^*_R u)
     1.74895616E-02    2     1000002        -2   # BR(~g -> ~u_L u_bar)
     1.74895616E-02    2    -1000002         2   # BR(~g -> ~u^*_L u)
     4.63668616E-02    2     2000004        -4   # BR(~g -> ~c_R c_bar)
     4.63668616E-02    2    -2000004         4   # BR(~g -> ~c^*_R c)
     1.74904241E-02    2     1000004        -4   # BR(~g -> ~c_L c_bar)
     1.74904241E-02    2    -1000004         4   # BR(~g -> ~c^*_L c)
     2.08577685E-04    2     1000006        -4   # BR(~g -> ~t_1 c_bar)
     2.08577685E-04    2    -1000006         4   # BR(~g -> ~t^*_1 c)
     1.05331682E-01    2     1000006        -6   # BR(~g -> ~t_1 t_bar)
     1.05331682E-01    2    -1000006         6   # BR(~g -> ~t^*_1 t)
     3.74872518E-02    2     2000006        -6   # BR(~g -> ~t_2 t_bar)
     3.74872518E-02    2    -2000006         6   # BR(~g -> ~t^*_2 t)
     4.94669771E-02    2     2000001        -1   # BR(~g -> ~d_R d_bar)
     4.94669771E-02    2    -2000001         1   # BR(~g -> ~d^*_R d)
     1.73294008E-02    2     1000001        -1   # BR(~g -> ~d_L d_bar)
     1.73294008E-02    2    -1000001         1   # BR(~g -> ~d^*_L d)
     4.94693550E-02    2     2000003        -3   # BR(~g -> ~s_R s_bar)
     4.94693550E-02    2    -2000003         3   # BR(~g -> ~s^*_R s)
     1.73303995E-02    2     1000003        -3   # BR(~g -> ~s_L s_bar)
     1.73303995E-02    2    -1000003         3   # BR(~g -> ~s^*_L s)
     5.49931918E-02    2     1000005        -5   # BR(~g -> ~b_1 b_bar)
     5.49931918E-02    2    -1000005         5   # BR(~g -> ~b^*_1 b)
     4.05909938E-02    2     2000005        -5   # BR(~g -> ~b_2 b_bar)
     4.05909938E-02    2    -2000005         5   # BR(~g -> ~b^*_2 b)
     2.08255625E-06    2     1000022        21   # BR(~g -> chi^0_1 g)
     7.31518537E-05    2     1000023        21   # BR(~g -> chi^0_2 g)
     7.92251765E-05    2     1000025        21   # BR(~g -> chi^0_3 g)
     3.31424722E-06    2     1000035        21   # BR(~g -> chi^0_4 g)
DECAY        25     2.81616591E-03   # h^0
#    BR                NDA      ID1      ID2
     8.58423585E-09    2          11       -11   # BR(h^0 -> e^- e^+)
     3.66993248E-04    2          13       -13   # BR(h^0 -> mu^- mu^+)
     1.03244513E-01    2          15       -15   # BR(h^0 -> tau^- tau^+)
     6.46974089E-07    2           1        -1   # BR(h^0 -> d d_bar)
     2.85314228E-04    2           3        -3   # BR(h^0 -> s s_bar)
     6.14030506E-01    2           5        -5   # BR(h^0 -> b b_bar)
     2.37371779E-07    2           2        -2   # BR(h^0 -> u u_bar)
     4.25309931E-02    2           4        -4   # BR(h^0 -> c c_bar)
     6.35671941E-02    2          21        21   # BR(h^0 -> g g)
     3.24124469E-03    2          22        22   # BR(h^0 -> photon photon)
# writing decays into V V* as 3-body decays
#    BR                NDA      ID1      ID2       ID3
     7.86502691E-03    3          24        11        12   # BR(h^0 -> W^+ e^- nu_e)
     7.86502691E-03    3          24        13        14   # BR(h^0 -> W^+ mu^- nu_mu)
     7.86502691E-03    3          24        15        16   # BR(h^0 -> W^+ tau^- nu_tau)
     2.75275942E-02    3          24         1        -2   # BR(h^0 -> W^+ d u_bar)
     2.75275942E-02    3          24         3        -4   # BR(h^0 -> W^+ s c_bar)
     7.86502691E-03    3         -24       -11       -12   # BR(h^0 -> W^- e^+ nu_bar_e)
     7.86502691E-03    3         -24       -13       -14   # BR(h^0 -> W^- mu^+ nu_bar_mu)
     7.86502691E-03    3         -24       -15       -16   # BR(h^0 -> W^- tau^+ nu_bar_tau)
     2.75275942E-02    3         -24        -1         2   # BR(h^0 -> W^- d_bar u)
     2.75275942E-02    3         -24        -3         4   # BR(h^0 -> W^- s_bar c)
     5.40113373E-04    3          23        11       -11   # BR(h^0 -> Z e^- e^+)
     5.40113373E-04    3          23        13       -13   # BR(h^0 -> Z mu^- mu^+)
     4.62954320E-04    3          23        15       -15   # BR(h^0 -> Z tau^- tau^+)
     3.08636213E-03    3          23        12       -12   # BR(h^0 -> Z nu_e nu_bar_e)
     2.16045349E-03    3          23         1        -1   # BR(h^0 -> Z u u_bar)
     2.16045349E-03    3          23         3        -3   # BR(h^0 -> Z c c_bar)
     2.16045349E-03    3          23         5        -5   # BR(h^0 -> Z t t_bar)
     2.16045349E-03    3          23         2        -2   # BR(h^0 -> Z u u_bar)
     2.16045349E-03    3          23         4        -4   # BR(h^0 -> Z c c_bar)
DECAY        35     6.82317247E+00   # H^0
#    BR                NDA      ID1      ID2
     1.33119363E-08    2          11       -11   # BR(H^0 -> e^- e^+)
     5.69124851E-04    2          13       -13   # BR(H^0 -> mu^- mu^+)
     1.61138133E-01    2          15       -15   # BR(H^0 -> tau^- tau^+)
     8.21191939E-07    2           1        -1   # BR(H^0 -> d d_bar)
     3.62145461E-04    2           3        -3   # BR(H^0 -> s s_bar)
     8.11778016E-01    2           5        -5   # BR(H^0 -> b b_bar)
     2.56450772E-12    2           2        -2   # BR(H^0 -> u u_bar)
     4.59588653E-07    2           4        -4   # BR(H^0 -> c c_bar)
     2.44737510E-02    2           6        -6   # BR(H^0 -> t t_bar)
     4.40563093E-06    2     2000011  -2000011   # BR(H^0 -> ~e^-_R ~e^+_R)
     4.40889450E-06    2     2000013  -2000013   # BR(H^0 -> ~mu^-_R ~mu^+_R)
     5.31286133E-06    2     1000015  -1000015   # BR(H^0 -> ~tau^-_1 ~tau^+_1)
     5.25990986E-04    2          23        23   # BR(H^0 -> Z Z)
     9.95848790E-04    2          24       -24   # BR(H^0 -> W^+ W^-)
     1.22402153E-04    2          25        25   # BR(H^0 -> h^0 h^0)
     1.90850245E-05    2          21        21   # BR(H^0 -> g g)
     8.09284665E-08    2          22        22   # BR(H^0 -> photon photon)
DECAY        36     6.80909470E+00   # A^0
#    BR                NDA      ID1      ID2
     1.33427526E-08    2          11       -11   # BR(A^0 -> e^- e^+)
     5.70442351E-04    2          13       -13   # BR(A^0 -> mu^- mu^+)
     1.61512277E-01    2          15       -15   # BR(A^0 -> tau^- tau^+)
     8.23092390E-07    2           1        -1   # BR(A^0 -> d d_bar)
     3.62983583E-04    2           3        -3   # BR(A^0 -> s s_bar)
     8.13659291E-01    2           5        -5   # BR(A^0 -> b b_bar)
     2.28944330E-12    2           2        -2   # BR(A^0 -> u u_bar)
     4.10294046E-07    2           4        -4   # BR(A^0 -> c c_bar)
     2.28835980E-02    2           6        -6   # BR(A^0 -> t t_bar)
     9.89826285E-04    2          25        23   # BR(A^0 -> h^0 Z)
     2.02385733E-05    2          21        21   # BR(A^0 -> g g)
     9.66992777E-08    2          22        22   # BR(A^0 -> photon photon)
DECAY        37     5.97684180E+00   # H^+
#    BR                NDA      ID1      ID2
     1.52268514E-08    2         -11        12   # BR(H^+ -> e^+ nu_e)
     6.50993178E-04    2         -13        12   # BR(H^+ -> mu^+ nu_e)
     1.84319049E-01    2         -15        12   # BR(H^+ -> tau^+ nu_e)
     8.27139105E-07    2          -1         2   # BR(H^+ -> d_bar u)
     3.65178803E-04    2          -3         4   # BR(H^+ -> s_bar c)
     8.13560868E-01    2          -5         6   # BR(H^+ -> b_bar t)
     1.10306829E-03    2          25        24   # BR(H^+ -> h^0 W^+)
DECAY         6     2.43000000E+00   # top
#    BR                NDA      ID1      ID2
     1.00000000E+00    2           5        24   # BR(t -> b W)
Block HiggsBoundsInputHiggsCouplingsFermions
# ScalarNormEffCoupSq PseudoSNormEffCoupSq NP IP1 IP2 IP2
    1.12239300E+00    0.00000000E+00        3  25   5   5  # h0-b-b eff. coupling^2, normalised to SM
    3.99877607E+02    0.00000000E+00        3  35   5   5  # H0-b-b eff. coupling^2, normalised to SM
    0.00000000E+00    4.00000000E+02        3  36   5   5  # A0-b-b eff. coupling^2, normalised to SM
#
    9.99694017E-01    0.00000000E+00        3  25   6   6  # h0-t-t eff. coupling^2, normalised to SM
    2.80598250E-03    0.00000000E+00        3  35   6   6  # H0-t-t eff. coupling^2, normalised to SM
    0.00000000E+00    2.50000000E-03        3  36   6   6  # A0-t-t eff. coupling^2, normalised to SM
#
    1.12239300E+00    0.00000000E+00        3  25  15  15  # h0-tau-tau eff. coupling^2, normalised to SM
    3.99877607E+02    0.00000000E+00        3  35  15  15  # H0-tau-tau eff. coupling^2, normalised to SM
    0.00000000E+00    4.00000000E+02        3  36  15  15  # A0-tau-tau eff. coupling^2, normalised to SM
#
Block HiggsBoundsInputHiggsCouplingsBosons
    9.99991169E-01        3  25  24  24  # h0-W-W eff. coupling^2, normalised to SM
    8.83127521E-06        3  35  24  24  # H0-W-W eff. coupling^2, normalised to SM
    0.00000000E+00        3  36  24  24  # A0-W-W eff. coupling^2, normalised to SM
#
    9.99991169E-01        3  25  23  23  # h0-Z-Z eff. coupling^2, normalised to SM
    8.83127521E-06        3  35  23  23  # H0-Z-Z eff. coupling^2, normalised to SM
    0.00000000E+00        3  36  23  23  # A0-Z-Z eff. coupling^2, normalised to SM
#
    1.15562269E+00        3  25  21  21  # h0-g-g eff. coupling^2, normalised to SM
    3.18498479E-03        3  35  21  21  # H0-g-g eff. coupling^2, normalised to SM
    1.05390104E-01        3  36  21  21  # A0-g-g eff. coupling^2, normalised to SM
#
    0.00000000E+00        3  25  25  23  # h0-h0-Z eff. coupling^2, normalised to SM
    0.00000000E+00        3  35  25  23  # H0-h0-Z eff. coupling^2, normalised to SM
    8.83127521E-06        3  36  25  23  # A0-h0-Z eff. coupling^2, normalised to SM
    0.00000000E+00        3  35  35  23  # H0-H0-Z eff. coupling^2, normalised to SM
    9.99991169E-01        3  36  35  23  # A0-H0-Z eff. coupling^2, normalised to SM
    0.00000000E+00        3  36  36  23  # A0-A0-Z eff. coupling^2, normalised to SM
#
    0.00000000E+00        4  25  21  21  23  # h0-g-g-Z eff. coupling^2, normalised to SM
    0.00000000E+00        4  35  21  21  23  # H0-g-g-Z eff. coupling^2, normalised to SM
    0.00000000E+00        4  36  21  21  23  # A0-g-g-Z eff. coupling^2, normalised to SM
Block SPhenoLowEnergy  # low energy observables
    1    3.10549423E-04   # BR(b -> s gamma)
    2    1.59186948E-06   # BR(b -> s mu+ mu-)
    3    3.54047550E-05   # BR(b -> s nu nu)
    4    5.18041735E-11   # BR(Bd -> mu+ mu-)
    5    3.38444451E-09   # BR(Bs -> mu+ mu-)
    6    1.09703421E-04   # BR(B_u -> tau nu)
    7    9.91953372E-01   # BR(B_u -> tau nu)/BR(B_u -> tau nu)_SM
    8    2.73885876E-01   # |Delta(M_Bd)| [ps^-1] 
    9    2.03254286E+01   # |Delta(M_Bs)| [ps^-1] 
   20    7.84918525E-15   # Delta(g-2)_electron/2
   21    1.69145631E-10   # Delta(g-2)_muon/2
   22    1.08759986E-08   # Delta(g-2)_tau/2
   23    0.00000000E+00   # electric dipole moment of the electron
   24    0.00000000E+00   # electric dipole moment of the muon
   25    0.00000000E+00   # electric dipole moment of the tau
   26    0.00000000E+00   # Br(mu -> e gamma)
   27    0.00000000E+00   # Br(tau -> e gamma)
   28    0.00000000E+00   # Br(tau -> mu gamma)
   29    0.00000000E+00   # Br(mu -> 3 e)
   30    0.00000000E+00   # Br(tau -> 3 e)
   31    0.00000000E+00   # Br(tau -> 3 mu)
   39    6.50633222E-04   # Delta(rho_parameter)
   40    0.00000000E+00   # BR(Z -> e mu)
   41    0.00000000E+00   # BR(Z -> e tau)
   42    0.00000000E+00   # BR(Z -> mu tau)
Block FWCOEF Q=  9.11876000E+01  # Wilson coefficients at scale Q
#    id        order  M        value         comment
Block FWCOEF Q=  1.60000000E+02  # Wilson coefficients at scale Q
#    id        order  M        value         comment
     0305 4422   00   0    -1.87756559E-01   # C7
     0305 4422   00   1    -1.20039515E-02   # C7
     0305 4322   00   1    -2.61208973E-04   # C7'
     0305 6421   00   0    -9.48891104E-02   # C8
     0305 6421   00   1    -1.70087717E-02   # C8
     0305 6321   00   1    -3.66899950E-04   # C8'
 03051111 4133   00   0    -1.44654705E+00   # C9 e+e-
 03051111 4133   00   1     5.25046505E-04   # C9 e+e-
 03051111 4233   00   1    -9.14288544E-06   # C9' e+e-
 03051111 4137   00   0    -3.93853540E+00   # C10 e+e-
 03051111 4137   00   1     1.53729905E-03   # C10 e+e-
 03051111 4237   00   1     2.48267712E-04   # C10' e+e-
 03051313 4133   00   0    -1.44654705E+00   # C9 mu+mu-
 03051313 4133   00   1     5.25020341E-04   # C9 mu+mu-
 03051313 4233   00   1    -9.14319485E-06   # C9' mu+mu-
 03051313 4137   00   0    -3.93853540E+00   # C10 mu+mu-
 03051313 4137   00   1     1.53727283E-03   # C10 mu+mu-
 03051313 4237   00   1     2.48268022E-04   # C10' mu+mu-
 03051212 4237   00   0     1.49013439E+00   # C11 nu_1 nu_1
 03051212 4237   00   1    -3.71439351E-04   # C11 nu_1 nu_1
 03051212 4137   00   1    -5.98050972E-05   # C11' nu_1 nu_1
 03051414 4237   00   0     1.49013439E+00   # C11 nu_2 nu_2
 03051414 4237   00   1    -3.71439340E-04   # C11 nu_2 nu_2
 03051414 4137   00   1    -5.98050241E-05   # C11' nu_2 nu_2
 03051616 4237   00   0     1.49013439E+00   # C11 nu_3 nu_3
 03051616 4237   00   1    -3.71435597E-04   # C11 nu_3 nu_3
 03051616 4137   00   1    -5.97844212E-05   # C11' nu_3 nu_3
