# SUSY Les Houches Accord 2 - MSSM spectrum + Decays
# SPheno v3.1.12 
# W. Porod, Comput. Phys. Commun. 153 (2003) 275-315, hep-ph/0301101
# in case of problems send email to porod@physik.uni-wuerzburg.de
# Created: 09.12.2016,  15:23
Block SPINFO         # Program information
     1   SPheno      # spectrum calculator
     2   v3.1.12     # version number
#
Block SPhenoINFO     # SPheno specific information
    1      2         # using 2-loop RGEs
    2      1         # using running masses for boundary conditions at mZ
Block MODSEL  # Model selection
    1    2    # mGMSB model
Block MINPAR  # Input parameters
    1    1.40000000E+05  # Lambda, scale of SUSY breaking
    2    2.50000000E+05  # M_M, messenger mass scale
    3    2.00000000E+01  # tanb at m_Z   
    4    1.00000000E+00  # Sign(mu)
    5    3.00000000E+00  # N_5 number of effective five-plets
    6    1.00000000E+00  # c_grav, Gravitino mass factor
Block gauge Q=  2.50000000E+05  # (GMSB scale)
   1    4.93039886E-01  # g'(Q)^DRbar
   2    6.46801717E-01  # g(Q)^DRbar
   3    9.33447593E-01  # g3(Q)^DRbar
Block SMINPUTS  # SM parameters
         1     1.27932480E+02  # alpha_em^-1(MZ)^MSbar
         2     1.16639000E-05  # G_mu [GeV^-2]
         3     1.17200000E-01  # alpha_s(MZ)^MSbar
         4     9.11876000E+01  # m_Z(pole)
         5     4.20000000E+00  # m_b(m_b), MSbar
         6     1.72500000E+02  # m_t(pole)
         7     1.77700000E+00  # m_tau(pole)
         8     0.00000000E+00  # m_nu_3
        11     5.10998910E-04  # m_e(pole)
        12     0.00000000E+00  # m_nu_1
        13     1.05658000E-01  # m_muon(pole)
        14     0.00000000E+00  # m_nu_2
        21     5.00000000E-03  # m_d(2 GeV), MSbar
        22     3.00000000E-03  # m_u(2 GeV), MSbar
        23     1.05000000E-01  # m_s(2 GeV), MSbar
        24     1.27000000E+00  # m_c(m_c), MSbar
Block gauge Q=  2.64113866E+03  # (SUSY scale)
   1    3.65136798E-01  # g'(Q)^DRbar
   2    6.37763700E-01  # g(Q)^DRbar
   3    1.01009176E+00  # g3(Q)^DRbar
Block Yu Q=  2.64113866E+03  # (SUSY scale)
  1  1     8.30572776E-06   # Y_u(Q)^DRbar
  2  2     3.51609199E-03   # Y_c(Q)^DRbar
  3  3     8.35236554E-01   # Y_t(Q)^DRbar
Block Yd Q=  2.64113866E+03  # (SUSY scale)
  1  1     2.49090106E-04   # Y_d(Q)^DRbar
  2  2     5.23089102E-03   # Y_s(Q)^DRbar
  3  3     2.47842982E-01   # Y_b(Q)^DRbar
Block Ye Q=  2.64113866E+03  # (SUSY scale)
  1  1     5.82792573E-05   # Y_e(Q)^DRbar
  2  2     1.20502814E-02   # Y_mu(Q)^DRbar
  3  3     2.02767607E-01   # Y_tau(Q)^DRbar
Block Au Q=  2.64113866E+03  # (SUSY scale)
  1  1    -8.02381572E+02   # A_u(Q)^DRbar
  2  2    -8.02380243E+02   # A_c(Q)^DRbar
  3  3    -7.58587516E+02   # A_t(Q)^DRbar
Block Ad Q=  2.64113866E+03  # (SUSY scale)
  1  1    -8.47754082E+02   # A_d(Q)^DRbar
  2  2    -8.47752098E+02   # A_s(Q)^DRbar
  3  3    -8.30037863E+02   # A_b(Q)^DRbar
Block Ae Q=  2.64113866E+03  # (SUSY scale)
  1  1    -9.20027595E+01   # A_e(Q)^DRbar
  2  2    -9.20014599E+01   # A_mu(Q)^DRbar
  3  3    -9.16350134E+01   # A_tau(Q)^DRbar
Block MSOFT Q=  2.64113866E+03  # soft SUSY breaking masses at Q
   1    6.22815260E+02  # M_1
   2    1.13644988E+03  # M_2
   3    2.86263617E+03  # M_3
  21    6.28396850E+05  # M^2_(H,d)
  22   -6.42072814E+05  # M^2_(H,u)
  31    8.69884213E+02  # M_(L,11)
  32    8.69877138E+02  # M_(L,22)
  33    8.67880788E+02  # M_(L,33)
  34    4.22881882E+02  # M_(E,11)
  35    4.22852252E+02  # M_(E,22)
  36    4.14412058E+02  # M_(E,33)
  41    2.74197268E+03  # M_(Q,11)
  42    2.74196812E+03  # M_(Q,22)
  43    2.65595192E+03  # M_(Q,33)
  44    2.62793377E+03  # M_(U,11)
  45    2.62793083E+03  # M_(U,22)
  46    2.45783584E+03  # M_(U,33)
  47    2.61676661E+03  # M_(D,11)
  48    2.61675992E+03  # M_(D,22)
  49    2.60178791E+03  # M_(D,33)
Block MASS  # Mass spectrum
#   PDG code      mass          particle
         6     1.72500000E+02  # m_t(pole)
        23     9.11876000E+01  # m_Z(pole)
        24     8.03135148E+01  # W+
        15     1.77700000E+00  # m_tau(pole)
        25     1.20435385E+02  # h0
        35     1.20268011E+03  # H0
        36     1.20259117E+03  # A0
        37     1.20580654E+03  # H+
   1000001     2.85501550E+03  # ~d_L
   2000001     2.72304620E+03  # ~d_R
   1000002     2.85389778E+03  # ~u_L
   2000002     2.73344602E+03  # ~u_R
   1000003     2.85501006E+03  # ~s_L
   2000003     2.72303779E+03  # ~s_R
   1000004     2.85389236E+03  # ~c_L
   2000004     2.73344245E+03  # ~c_R
   1000005     2.70334580E+03  # ~b_1
   2000005     2.75155350E+03  # ~b_2
   1000006     2.53067855E+03  # ~t_1
   2000006     2.75641577E+03  # ~t_2
   1000011     8.89551989E+02  # ~e_L-
   2000011     4.40084676E+02  # ~e_R-
   1000012     8.85590665E+02  # ~nu_eL
   1000013     8.89545320E+02  # ~mu_L-
   2000013     4.40040386E+02  # ~mu_R-
   1000014     8.85580530E+02  # ~nu_muL
   1000015     4.27411865E+02  # ~tau_1-
   2000015     8.87659247E+02  # ~tau_2-
   1000016     8.82727369E+02  # ~nu_tauL
   1000021     3.00165537E+03  # ~g
   1000022     6.05840060E+02  # ~chi_10
   1000023     8.92524505E+02  # ~chi_20
   1000025    -9.02762179E+02  # ~chi_30
   1000035     1.17398589E+03  # ~chi_40
   1000024     8.90012187E+02  # ~chi_1+
   1000037     1.17416368E+03  # ~chi_2+
   1000039     8.40000000E-09  # ~G
# Higgs mixing
Block alpha # Effective Higgs mixing angle
          -5.30233725E-02   # alpha
Block Hmix Q=  2.64113866E+03  # Higgs mixing parameters
   1    8.89469527E+02  # mu
   2    1.91418607E+01  # tan[beta](Q)
   3    2.43489496E+02  # v(Q)
   4    1.26941855E+06  # m^2_A(Q)
Block stopmix # stop mixing matrix
   1  1     1.18888658E-01   # Re[R_st(1,1)]
   1  2     9.92907592E-01   # Re[R_st(1,2)]
   2  1    -9.92907592E-01   # Re[R_st(2,1)]
   2  2     1.18888658E-01   # Re[R_st(2,2)]
Block sbotmix # sbottom mixing matrix
   1  1     1.65053440E-01   # Re[R_sb(1,1)]
   1  2     9.86284625E-01   # Re[R_sb(1,2)]
   2  1    -9.86284625E-01   # Re[R_sb(2,1)]
   2  2     1.65053440E-01   # Re[R_sb(2,2)]
Block staumix # stau mixing matrix
   1  1     5.27446268E-02   # Re[R_sta(1,1)]
   1  2     9.98608033E-01   # Re[R_sta(1,2)]
   2  1    -9.98608033E-01   # Re[R_sta(2,1)]
   2  2     5.27446268E-02   # Re[R_sta(2,2)]
Block Nmix # neutralino mixing matrix
   1  1    -9.93203649E-01   # Re[N(1,1)]
   1  2     1.00374872E-02   # Re[N(1,2)]
   1  3    -9.48340939E-02   # Re[N(1,3)]
   1  4     6.67252186E-02   # Re[N(1,4)]
   2  1    -1.13912730E-01   # Re[N(2,1)]
   2  2    -2.08959731E-01   # Re[N(2,2)]
   2  3     6.89804651E-01   # Re[N(2,3)]
   2  4    -6.83761117E-01   # Re[N(2,4)]
   3  1    -1.96068635E-02   # Re[N(3,1)]
   3  2     2.56589924E-02   # Re[N(3,2)]
   3  3     7.05905388E-01   # Re[N(3,3)]
   3  4     7.07569622E-01   # Re[N(3,4)]
   4  1    -1.36371569E-02   # Re[N(4,1)]
   4  2     9.77536033E-01   # Re[N(4,2)]
   4  3     1.29898505E-01   # Re[N(4,3)]
   4  4    -1.65419801E-01   # Re[N(4,4)]
Block Umix # chargino mixing matrix
   1  1    -1.83886601E-01   # Re[U(1,1)]
   1  2     9.82947465E-01   # Re[U(1,2)]
   2  1     9.82947465E-01   # Re[U(2,1)]
   2  2     1.83886601E-01   # Re[U(2,2)]
Block Vmix # chargino mixing matrix
   1  1    -2.34035440E-01   # Re[V(1,1)]
   1  2     9.72228066E-01   # Re[V(1,2)]
   2  1     9.72228066E-01   # Re[V(2,1)]
   2  2     2.34035440E-01   # Re[V(2,2)]
DECAY   2000011     4.65343576E-10   # ~e^-_R
#    BR                NDA      ID1      ID2
     5.76104897E-01    2     1000039        11   # BR(~e^-_R -> ~G e^-)
#    BR                NDA      ID1      ID2       ID3
     8.97849598E-02    3     1000015        11       -15   # BR(~e^-_R -> ~tau^-_1 e^- tau^+)
     3.34110143E-01    3    -1000015        11        15   # BR(~e^-_R -> ~tau^+_1 e^- tau^-)
DECAY   1000011     3.22827260E-01   # ~e^-_L
#    BR                NDA      ID1      ID2
     9.99999837E-01    2     1000022        11   # BR(~e^-_L -> chi^0_1 e^-)
     6.66305767E-08    2     2000011        23   # BR(~e^-_L -> ~e^-_R Z)
     6.79748197E-08    2     2000011        25   # BR(~e^-_L -> ~e^-_R h^0)
     2.80208001E-08    2     1000039        11   # BR(~e^-_L -> ~G e^-)
DECAY   2000013     4.61706542E-10   # ~mu^-_R
#    BR                NDA      ID1      ID2
     5.80350834E-01    2     1000039        13   # BR(~mu^-_R -> ~G mu^-)
#    BR                NDA      ID1      ID2       ID3
     8.88617690E-02    3     1000015        13       -15   # BR(~mu^-_R -> ~tau^-_1 mu^- tau^+)
     3.30787397E-01    3    -1000015        13        15   # BR(~mu^-_R -> ~tau^+_1 mu^- tau^-)
DECAY   1000013     3.24681150E-01   # ~mu^-_L
#    BR                NDA      ID1      ID2
     9.94277752E-01    2     1000022        13   # BR(~mu^-_L -> chi^0_1 mu^-)
     2.83259093E-03    2     2000013        23   # BR(~mu^-_L -> ~mu^-_R Z)
     2.88962937E-03    2     2000013        25   # BR(~mu^-_L -> ~mu^-_R h^0)
     2.78597588E-08    2     1000039        13   # BR(~mu^-_L -> ~G mu^-)
DECAY   1000015     2.31631115E-10   # ~tau^-_1
#    BR                NDA      ID1      ID2
     1.00000000E+00    2     1000039        15   # BR(~tau^-_1 -> ~G tau^-)
DECAY   2000015     8.55454920E-01   # ~tau^-_2
#    BR                NDA      ID1      ID2
     3.76000204E-01    2     1000022        15   # BR(~tau^-_2 -> chi^0_1 tau^-)
     3.10492891E-01    2     1000015        23   # BR(~tau^-_2 -> ~tau^-_1 Z)
     3.13506894E-01    2     1000015        25   # BR(~tau^-_2 -> ~tau^-_1 h^0)
     1.04621604E-08    2     1000039        15   # BR(~tau^-_2 -> ~G tau^-)
DECAY   1000012     3.39574960E-01   # ~nu_e
#    BR                NDA      ID1      ID2
     9.99999852E-01    2     1000022        12   # BR(~nu_e -> chi^0_1 nu_e)
     1.22132578E-07    2     2000011        24   # BR(~nu_e -> ~e^-_R W^+)
     2.60509490E-08    2     1000039        12   # BR(~nu_e -> ~G nu_e)
DECAY   1000014     3.41330565E-01   # ~nu_mu
#    BR                NDA      ID1      ID2
     9.94804985E-01    2     1000022        14   # BR(~nu_mu -> chi^0_1 nu_mu)
     5.19498946E-03    2     2000013        24   # BR(~nu_mu -> ~mu^-_R W^+)
     2.59154751E-08    2     1000039        14   # BR(~nu_mu -> ~G nu_mu)
DECAY   1000016     8.45317802E-01   # ~nu_tau
#    BR                NDA      ID1      ID2
     3.95849204E-01    2     1000022        16   # BR(~nu_tau -> chi^0_1 nu_tau)
     6.04150786E-01    2     1000015        24   # BR(~nu_tau -> ~tau^-_1 W^+)
     1.02969120E-08    2     1000039        16   # BR(~nu_tau -> ~G nu_tau)
DECAY   2000001     1.44771051E+00   # ~d_R
#    BR                NDA      ID1      ID2
     9.88059078E-01    2     1000022         1   # BR(~d_R -> chi^0_1 d)
     1.14621194E-02    2     1000023         1   # BR(~d_R -> chi^0_2 d)
     3.38571723E-04    2     1000025         1   # BR(~d_R -> chi^0_3 d)
     1.36658677E-04    2     1000035         1   # BR(~d_R -> chi^0_4 d)
     1.89046962E-06    2    -1000024         2   # BR(~d_R -> chi^-_1 u)
     2.19737947E-09    2    -1000037         2   # BR(~d_R -> chi^-_2 u)
     1.67952850E-06    2     1000039         1   # BR(~d_R -> ~G d)
DECAY   1000001     2.44646736E+01   # ~d_L
#    BR                NDA      ID1      ID2
     1.71519843E-02    2     1000022         1   # BR(~d_L -> chi^0_1 d)
     1.34731985E-02    2     1000023         1   # BR(~d_L -> chi^0_2 d)
     3.30662704E-04    2     1000025         1   # BR(~d_L -> chi^0_3 d)
     3.13166599E-01    2     1000035         1   # BR(~d_L -> chi^0_4 d)
     2.60268496E-02    2    -1000024         2   # BR(~d_L -> chi^-_1 u)
     6.29850580E-01    2    -1000037         2   # BR(~d_L -> chi^-_2 u)
     7.70241726E-13    2     2000002       -24   # BR(~d_L -> ~u_R W^-)
     2.87992542E-10    2     2000001        23   # BR(~d_L -> ~d_R Z)
     2.79452189E-10    2     2000001        25   # BR(~d_L -> ~d_R h^0)
     1.25920656E-07    2     1000039         1   # BR(~d_L -> ~G d)
DECAY   2000003     1.45010021E+00   # ~s_R
#    BR                NDA      ID1      ID2
     9.86444848E-01    2     1000022         3   # BR(~s_R -> chi^0_1 s)
     1.18471535E-02    2     1000023         3   # BR(~s_R -> chi^0_2 s)
     7.36211366E-04    2     1000025         3   # BR(~s_R -> chi^0_3 s)
     1.36825861E-04    2     1000035         3   # BR(~s_R -> chi^0_4 s)
     8.32316544E-04    2    -1000024         4   # BR(~s_R -> chi^-_1 c)
     9.67601768E-07    2    -1000037         4   # BR(~s_R -> chi^-_2 c)
     1.67673480E-06    2     1000039         3   # BR(~s_R -> ~G s)
DECAY   1000003     2.44663706E+01   # ~s_L
#    BR                NDA      ID1      ID2
     1.71506735E-02    2     1000022         3   # BR(~s_L -> chi^0_1 s)
     1.34956540E-02    2     1000023         3   # BR(~s_L -> chi^0_2 s)
     3.56496156E-04    2     1000025         3   # BR(~s_L -> chi^0_3 s)
     3.13145282E-01    2     1000035         3   # BR(~s_L -> chi^0_4 s)
     2.60437927E-02    2    -1000024         4   # BR(~s_L -> chi^-_1 c)
     6.29807588E-01    2    -1000037         4   # BR(~s_L -> chi^-_2 c)
     1.38019121E-07    2     2000004       -24   # BR(~s_L -> ~c_R W^-)
     1.27006870E-07    2     2000003        23   # BR(~s_L -> ~s_R Z)
     1.23246131E-07    2     2000003        25   # BR(~s_L -> ~s_R h^0)
     1.25910724E-07    2     1000039         3   # BR(~s_L -> ~G s)
DECAY   1000005     7.90489783E+00   # ~b_1
#    BR                NDA      ID1      ID2
     1.91425767E-01    2     1000022         5   # BR(~b_1 -> chi^0_1 b)
     1.80403812E-01    2     1000023         5   # BR(~b_1 -> chi^0_2 b)
     1.59441722E-01    2     1000025         5   # BR(~b_1 -> chi^0_3 b)
     7.64637664E-03    2     1000035         5   # BR(~b_1 -> chi^0_4 b)
     4.39390459E-01    2    -1000024         6   # BR(~b_1 -> chi^-_1 t)
     2.08999063E-02    2    -1000037         6   # BR(~b_1 -> chi^-_2 t)
     7.91659029E-04    2     1000006       -24   # BR(~b_1 -> ~t_1 W^-)
     2.96620809E-07    2     1000039         5   # BR(~b_1 -> ~G b)
DECAY   2000005     5.48446350E+01   # ~b_2
#    BR                NDA      ID1      ID2
     6.53576548E-03    2     1000022         5   # BR(~b_2 -> chi^0_1 b)
     2.60063202E-02    2     1000023         5   # BR(~b_2 -> chi^0_2 b)
     2.52035266E-02    2     1000025         5   # BR(~b_2 -> chi^0_3 b)
     1.30744754E-01    2     1000035         5   # BR(~b_2 -> chi^0_4 b)
     5.08398847E-01    2    -1000024         6   # BR(~b_2 -> chi^-_1 t)
     2.93423092E-01    2    -1000037         6   # BR(~b_2 -> chi^-_2 t)
     9.68764879E-03    2     1000006       -24   # BR(~b_2 -> ~t_1 W^-)
     4.67030954E-08    2     1000039         5   # BR(~b_2 -> ~G b)
DECAY   2000002     5.81760184E+00   # ~u_R
#    BR                NDA      ID1      ID2
     9.88051523E-01    2     1000022         2   # BR(~u_R -> chi^0_1 u)
     1.14729988E-02    2     1000023         2   # BR(~u_R -> chi^0_2 u)
     3.38029102E-04    2     1000025         2   # BR(~u_R -> chi^0_3 u)
     1.37022659E-04    2     1000035         2   # BR(~u_R -> chi^0_4 u)
     5.29357159E-10    2     1000024         1   # BR(~u_R -> chi^+_1 d)
     1.68230441E-12    2     1000037         1   # BR(~u_R -> chi^+_2 d)
     4.25993108E-07    2     1000039         2   # BR(~u_R -> ~G u)
DECAY   1000002     2.45139191E+01   # ~u_L
#    BR                NDA      ID1      ID2
     1.38407435E-02    2     1000022         2   # BR(~u_L -> chi^0_1 u)
     2.04050420E-02    2     1000023         2   # BR(~u_L -> chi^0_2 u)
     1.83248194E-04    2     1000025         2   # BR(~u_L -> chi^0_3 u)
     3.09007182E-01    2     1000035         2   # BR(~u_L -> chi^0_4 u)
     4.20503224E-02    2     1000024         1   # BR(~u_L -> chi^+_1 d)
     6.14513336E-01    2     1000037         1   # BR(~u_L -> chi^+_2 d)
     7.09152527E-10    2     2000001        24   # BR(~u_L -> ~d_R W^+)
     2.53972973E-13    2     2000002        23   # BR(~u_L -> ~u_R Z)
     1.25421900E-07    2     1000039         2   # BR(~u_L -> ~G u)
DECAY   2000004     5.81868493E+00   # ~c_R
#    BR                NDA      ID1      ID2
     9.87865972E-01    2     1000022         4   # BR(~c_R -> chi^0_1 c)
     1.15167718E-02    2     1000023         4   # BR(~c_R -> chi^0_2 c)
     3.84563502E-04    2     1000025         4   # BR(~c_R -> chi^0_3 c)
     1.37115984E-04    2     1000035         4   # BR(~c_R -> chi^0_4 c)
     9.48490812E-05    2     1000024         3   # BR(~c_R -> chi^+_1 s)
     3.01410617E-07    2     1000037         3   # BR(~c_R -> chi^+_2 s)
     4.25910663E-07    2     1000039         4   # BR(~c_R -> ~G c)
DECAY   1000004     2.45156380E+01   # ~c_L
#    BR                NDA      ID1      ID2
     1.38398142E-02    2     1000022         4   # BR(~c_L -> chi^0_1 c)
     2.04135582E-02    2     1000023         4   # BR(~c_L -> chi^0_2 c)
     1.94721832E-04    2     1000025         4   # BR(~c_L -> chi^0_3 c)
     3.08985688E-01    2     1000035         4   # BR(~c_L -> chi^0_4 c)
     4.20950572E-02    2     1000024         3   # BR(~c_L -> chi^+_1 s)
     6.14470676E-01    2     1000037         3   # BR(~c_L -> chi^+_2 s)
     3.12735319E-07    2     2000003        24   # BR(~c_L -> ~s_R W^+)
     4.55080278E-08    2     2000004        23   # BR(~c_L -> ~c_R Z)
     1.64027725E-09    2     2000004        25   # BR(~c_L -> ~c_R h^0)
     1.25411815E-07    2     1000039         4   # BR(~c_L -> ~G c)
DECAY   1000006     5.85777878E+01   # ~t_1
#    BR                NDA      ID1      ID2
     1.17836858E-05    2     1000022         4   # BR(~t_1 -> chi^0_1 c)
     9.12908406E-02    2     1000022         6   # BR(~t_1 -> chi^0_1 t)
     1.67909411E-05    2     1000023         4   # BR(~t_1 -> chi^0_2 c)
     2.17897089E-01    2     1000023         6   # BR(~t_1 -> chi^0_2 t)
     2.30673979E-01    2     1000025         6   # BR(~t_1 -> chi^0_3 t)
     3.74708255E-03    2     1000035         6   # BR(~t_1 -> chi^0_4 t)
     4.48672085E-01    2     1000024         5   # BR(~t_1 -> chi^+_1 b)
     7.68281436E-03    2     1000037         5   # BR(~t_1 -> chi^+_2 b)
     2.82459255E-08    2     1000039         6   # BR(~t_1 -> ~G t)
#    BR                NDA      ID1      ID2       ID3
     7.50697052E-06    3     1000022        24         5   # BR(~t_1 -> chi^0_1 W^+ b)
DECAY   2000006     5.61499279E+01   # ~t_2
#    BR                NDA      ID1      ID2
     6.89205537E-03    2     1000022         6   # BR(~t_2 -> chi^0_1 t)
     2.52836539E-01    2     1000023         6   # BR(~t_2 -> chi^0_2 t)
     2.64950524E-01    2     1000025         6   # BR(~t_2 -> chi^0_3 t)
     1.50265994E-01    2     1000035         6   # BR(~t_2 -> chi^0_4 t)
     4.79177572E-02    2     1000024         5   # BR(~t_2 -> chi^+_1 b)
     2.68494891E-01    2     1000037         5   # BR(~t_2 -> chi^+_2 b)
     4.97940155E-03    2     1000006        23   # BR(~t_2 -> ~t_1 Z)
     3.66279247E-03    2     1000006        25   # BR(~t_2 -> ~t_1 h^0)
     4.53055720E-08    2     1000039         6   # BR(~t_2 -> ~G t)
DECAY   1000024     6.44010256E-01   # chi^+_1
#    BR                NDA      ID1      ID2
     2.73924277E-08    2    -2000011        12   # BR(chi^+_1 -> ~e^+_R nu_e)
     2.02095273E-07    2    -1000011        12   # BR(chi^+_1 -> ~e^+_L nu_e)
     1.17124583E-03    2    -2000013        14   # BR(chi^+_1 -> ~mu^+_R nu_mu)
     2.07858111E-07    2    -1000013        14   # BR(chi^+_1 -> ~mu^+_L nu_mu)
     3.42700020E-01    2    -1000015        16   # BR(chi^+_1 -> ~tau^+_1 nu_tau)
     4.35574283E-06    2    -2000015        16   # BR(chi^+_1 -> ~tau^+_2 nu_tau)
     3.00841521E-05    2     1000012       -11   # BR(chi^+_1 -> ~nu_e e^+)
     3.05182134E-05    2     1000014       -13   # BR(chi^+_1 -> ~nu_mu mu^+)
     2.71395717E-04    2     1000016       -15   # BR(chi^+_1 -> ~nu_tau tau^+)
     6.55073168E-01    2     1000022        24   # BR(chi^+_1 -> chi^0_1 W^+)
#    BR                NDA      ID1      ID2       ID3
     2.24668162E-09    3     1000022        -1         2   # BR(chi^+_1 -> chi^0_1 d_bar u)
     2.53338143E-09    3     1000022        -3         4   # BR(chi^+_1 -> chi^0_1 s_bar c)
     7.10016909E-04    3     1000022        -5         6   # BR(chi^+_1 -> chi^0_1 b_bar t)
     7.75684805E-13    3     1000022       -11        12   # BR(chi^+_1 -> chi^0_1 e^+ nu_e)
     3.31540664E-08    3     1000022       -13        14   # BR(chi^+_1 -> chi^0_1 mu^+ nu_mu)
     8.72041424E-06    3     1000022       -15        16   # BR(chi^+_1 -> chi^0_1 tau^+ nu_tau)
DECAY   1000037     1.06140431E+01   # chi^+_2
#    BR                NDA      ID1      ID2
     9.75926756E-13    2    -2000011        12   # BR(chi^+_2 -> ~e^+_R nu_e)
     7.84908053E-02    2    -1000011        12   # BR(chi^+_2 -> ~e^+_L nu_e)
     4.17546020E-08    2    -2000013        14   # BR(chi^+_2 -> ~mu^+_R nu_mu)
     7.84949468E-02    2    -1000013        14   # BR(chi^+_2 -> ~mu^+_L nu_mu)
     1.43952634E-05    2    -1000015        16   # BR(chi^+_2 -> ~tau^+_1 nu_tau)
     7.96697670E-02    2    -2000015        16   # BR(chi^+_2 -> ~tau^+_2 nu_tau)
     7.86378398E-02    2     1000012       -11   # BR(chi^+_2 -> ~nu_e e^+)
     7.86433556E-02    2     1000014       -13   # BR(chi^+_2 -> ~nu_mu mu^+)
     8.02044415E-02    2     1000016       -15   # BR(chi^+_2 -> ~nu_tau tau^+)
     2.85421556E-04    2     1000022        24   # BR(chi^+_2 -> chi^0_1 W^+)
     1.37065011E-01    2     1000023        24   # BR(chi^+_2 -> chi^0_2 W^+)
     1.27190941E-01    2     1000025        24   # BR(chi^+_2 -> chi^0_3 W^+)
     1.37076656E-01    2     1000024        23   # BR(chi^+_2 -> chi^+_1 Z)
     1.23948897E-01    2     1000024        25   # BR(chi^+_2 -> chi^+_1 h^0)
#    BR                NDA      ID1      ID2       ID3
     2.55933547E-09    3     1000024         2        -2   # BR(chi^+_2 -> chi^+_1 u u_bar)
     2.55906293E-09    3     1000024         4        -4   # BR(chi^+_2 -> chi^+_1 c c_bar)
     4.06334531E-09    3     1000024         1        -1   # BR(chi^+_2 -> chi^+_1 d d_bar)
     4.20116757E-09    3     1000024         3        -3   # BR(chi^+_2 -> chi^+_1 s s_bar)
     3.21604154E-07    3     1000024         5        -5   # BR(chi^+_2 -> chi^+_1 b b_bar)
     1.78797697E-06    3     1000024        11       -11   # BR(chi^+_2 -> chi^+_1 e^- e^+)
     1.79750978E-06    3     1000024        13       -13   # BR(chi^+_2 -> chi^+_1 mu^- mu^+)
     4.20382251E-06    3     1000024        15       -15   # BR(chi^+_2 -> chi^+_1 tau^- tau^+)
     3.77084802E-06    3     1000024        12       -12   # BR(chi^+_2 -> chi^+_1 nu_e nu_bar_e)
     7.23526618E-08    3     1000022        -1         2   # BR(chi^+_2 -> chi^0_1 d_bar u)
     7.23518026E-08    3     1000022        -3         4   # BR(chi^+_2 -> chi^0_1 s_bar c)
     2.43316781E-06    3     1000022        -5         6   # BR(chi^+_2 -> chi^0_1 b_bar t)
     1.43333587E-11    3     1000022       -13        14   # BR(chi^+_2 -> chi^0_1 mu^+ nu_mu)
     4.43382553E-09    3     1000022       -15        16   # BR(chi^+_2 -> chi^0_1 tau^+ nu_tau)
     1.64714708E-09    3     1000023        -1         2   # BR(chi^+_2 -> chi^0_2 d_bar u)
     1.71578291E-09    3     1000023        -3         4   # BR(chi^+_2 -> chi^0_2 s_bar c)
     1.48507678E-04    3     1000023        -5         6   # BR(chi^+_2 -> chi^0_2 b_bar t)
     1.21559180E-06    3     1000023       -11        12   # BR(chi^+_2 -> chi^0_2 e^+ nu_e)
     1.22017278E-06    3     1000023       -13        14   # BR(chi^+_2 -> chi^0_2 mu^+ nu_mu)
     2.30389079E-06    3     1000023       -15        16   # BR(chi^+_2 -> chi^0_2 tau^+ nu_tau)
     6.04975479E-11    3     1000025        -1         2   # BR(chi^+_2 -> chi^0_3 d_bar u)
     1.12641017E-10    3     1000025        -3         4   # BR(chi^+_2 -> chi^0_3 s_bar c)
     1.08744192E-04    3     1000025        -5         6   # BR(chi^+_2 -> chi^0_3 b_bar t)
     1.92377957E-08    3     1000025       -11        12   # BR(chi^+_2 -> chi^0_3 e^+ nu_e)
     2.27772467E-08    3     1000025       -13        14   # BR(chi^+_2 -> chi^0_3 mu^+ nu_mu)
     9.66488963E-07    3     1000025       -15        16   # BR(chi^+_2 -> chi^0_3 tau^+ nu_tau)
DECAY   1000022     2.21603393E+00   # chi^0_1
#    BR                NDA      ID1      ID2
     1.59589294E-01    2     2000011       -11   # BR(chi^0_1 -> ~e^-_R e^+)
     1.59589294E-01    2    -2000011        11   # BR(chi^0_1 -> ~e^+_R e^-)
     1.59661924E-01    2     2000013       -13   # BR(chi^0_1 -> ~mu^-_R mu^+)
     1.59661924E-01    2    -2000013        13   # BR(chi^0_1 -> ~mu^+_R mu^-)
     1.80748782E-01    2     1000015       -15   # BR(chi^0_1 -> ~tau^-_1 tau^+)
     1.80748782E-01    2    -1000015        15   # BR(chi^0_1 -> ~tau^+_1 tau^-)
     4.39253787E-10    2     1000039        22   # BR(chi^0_1 -> ~G photon)
     1.30104520E-10    2     1000039        23   # BR(chi^0_1 -> ~G Z)
     3.06656562E-12    2     1000039        25   # BR(chi^0_1 -> ~G h^0)
DECAY   1000023     7.88464302E-01   # chi^0_2
#    BR                NDA      ID1      ID2
     2.23188013E-02    2     2000011       -11   # BR(chi^0_2 -> ~e^-_R e^+)
     2.23188013E-02    2    -2000011        11   # BR(chi^0_2 -> ~e^+_R e^-)
     7.61225035E-06    2     1000011       -11   # BR(chi^0_2 -> ~e^-_L e^+)
     7.61225035E-06    2    -1000011        11   # BR(chi^0_2 -> ~e^+_L e^-)
     2.27881859E-02    2     2000013       -13   # BR(chi^0_2 -> ~mu^-_R mu^+)
     2.27881859E-02    2    -2000013        13   # BR(chi^0_2 -> ~mu^+_R mu^-)
     7.71167110E-06    2     1000013       -13   # BR(chi^0_2 -> ~mu^-_L mu^+)
     7.71167110E-06    2    -1000013        13   # BR(chi^0_2 -> ~mu^+_L mu^-)
     1.60064939E-01    2     1000015       -15   # BR(chi^0_2 -> ~tau^-_1 tau^+)
     1.60064939E-01    2    -1000015        15   # BR(chi^0_2 -> ~tau^+_1 tau^-)
     5.70206105E-05    2     2000015       -15   # BR(chi^0_2 -> ~tau^-_2 tau^+)
     5.70206105E-05    2    -2000015        15   # BR(chi^0_2 -> ~tau^+_2 tau^-)
     1.13339139E-05    2     1000012       -12   # BR(chi^0_2 -> ~nu_e nu_bar_e)
     1.13339139E-05    2    -1000012        12   # BR(chi^0_2 -> ~nu^*_e nu_e)
     1.13669420E-05    2     1000014       -14   # BR(chi^0_2 -> ~nu_mu nu_bar_mu)
     1.13669420E-05    2    -1000014        14   # BR(chi^0_2 -> ~nu^*_mu nu_mu)
     2.25543721E-05    2     1000016       -16   # BR(chi^0_2 -> ~nu_tau nu_bar_tau)
     2.25543721E-05    2    -1000016        16   # BR(chi^0_2 -> ~nu^*_tau nu_tau)
     2.02832466E-02    2     1000022        23   # BR(chi^0_2 -> chi^0_1 Z)
     5.69123433E-01    2     1000022        25   # BR(chi^0_2 -> chi^0_1 h^0)
     4.79220999E-10    2     1000039        22   # BR(chi^0_2 -> ~G photon)
     6.38339942E-10    2     1000039        23   # BR(chi^0_2 -> ~G Z)
     6.03475800E-09    2     1000039        25   # BR(chi^0_2 -> ~G h^0)
     4.41291712E-07    2     1000022        22   # BR(chi^0_2 -> chi^0_1 photon)
#    BR                NDA      ID1      ID2       ID3
     4.28363475E-09    3     1000022         2        -2   # BR(chi^0_2 -> chi^0_1 u u_bar)
     4.28936842E-09    3     1000022         4        -4   # BR(chi^0_2 -> chi^0_1 c c_bar)
     1.06476530E-09    3     1000022         1        -1   # BR(chi^0_2 -> chi^0_1 d d_bar)
     1.37071461E-09    3     1000022         3        -3   # BR(chi^0_2 -> chi^0_1 s s_bar)
     6.93252188E-07    3     1000022         5        -5   # BR(chi^0_2 -> chi^0_1 b b_bar)
     2.11034291E-06    3     1000022        11       -11   # BR(chi^0_2 -> chi^0_1 e^- e^+)
     2.13640501E-06    3     1000022        13       -13   # BR(chi^0_2 -> chi^0_1 mu^- mu^+)
     8.86969418E-06    3     1000022        15       -15   # BR(chi^0_2 -> chi^0_1 tau^- tau^+)
     5.44918069E-11    3     1000024         1        -2   # BR(chi^0_2 -> chi^+_1 d u_bar)
     5.44918069E-11    3    -1000024        -1         2   # BR(chi^0_2 -> chi^-_1 d_bar u)
     1.51815474E-11    3     1000024         3        -4   # BR(chi^0_2 -> chi^+_1 s c_bar)
     1.51815474E-11    3    -1000024        -3         4   # BR(chi^0_2 -> chi^-_1 s_bar c)
     1.59714098E-11    3     1000024        11       -12   # BR(chi^0_2 -> chi^+_1 e^- nu_bar_e)
     1.59714098E-11    3    -1000024       -11        12   # BR(chi^0_2 -> chi^-_1 e^+ nu_e)
     1.58312198E-11    3     1000024        13       -14   # BR(chi^0_2 -> chi^+_1 mu^- nu_bar_mu)
     1.58312198E-11    3    -1000024       -13        14   # BR(chi^0_2 -> chi^-_1 mu^+ nu_mu)
     1.00969878E-12    3     1000024        15       -16   # BR(chi^0_2 -> chi^+_1 tau^- nu_bar_tau)
     1.00969878E-12    3    -1000024       -15        16   # BR(chi^0_2 -> chi^-_1 tau^+ nu_tau)
DECAY   1000025     6.81491351E-01   # chi^0_3
#    BR                NDA      ID1      ID2
     7.85044016E-04    2     2000011       -11   # BR(chi^0_3 -> ~e^-_R e^+)
     7.85044016E-04    2    -2000011        11   # BR(chi^0_3 -> ~e^+_R e^-)
     4.71214953E-07    2     1000011       -11   # BR(chi^0_3 -> ~e^-_L e^+)
     4.71214953E-07    2    -1000011        11   # BR(chi^0_3 -> ~e^+_L e^-)
     1.33285651E-03    2     2000013       -13   # BR(chi^0_3 -> ~mu^-_R mu^+)
     1.33285651E-03    2    -2000013        13   # BR(chi^0_3 -> ~mu^+_R mu^-)
     1.29718011E-06    2     1000013       -13   # BR(chi^0_3 -> ~mu^-_L mu^+)
     1.29718011E-06    2    -1000013        13   # BR(chi^0_3 -> ~mu^+_L mu^-)
     1.61351740E-01    2     1000015       -15   # BR(chi^0_3 -> ~tau^-_1 tau^+)
     1.61351740E-01    2    -1000015        15   # BR(chi^0_3 -> ~tau^+_1 tau^-)
     3.06282684E-04    2     2000015       -15   # BR(chi^0_3 -> ~tau^-_2 tau^+)
     3.06282684E-04    2    -2000015        15   # BR(chi^0_3 -> ~tau^+_2 tau^-)
     5.17630019E-06    2     1000012       -12   # BR(chi^0_3 -> ~nu_e nu_bar_e)
     5.17630019E-06    2    -1000012        12   # BR(chi^0_3 -> ~nu^*_e nu_e)
     5.18235370E-06    2     1000014       -14   # BR(chi^0_3 -> ~nu_mu nu_bar_mu)
     5.18235370E-06    2    -1000014        14   # BR(chi^0_3 -> ~nu^*_mu nu_mu)
     7.02394254E-06    2     1000016       -16   # BR(chi^0_3 -> ~nu_tau nu_bar_tau)
     7.02394254E-06    2    -1000016        16   # BR(chi^0_3 -> ~nu^*_tau nu_tau)
     6.53961759E-01    2     1000022        23   # BR(chi^0_3 -> chi^0_1 Z)
     1.84359493E-02    2     1000022        25   # BR(chi^0_3 -> chi^0_1 h^0)
     2.60116008E-13    2     1000039        22   # BR(chi^0_3 -> ~G photon)
     1.31785774E-09    2     1000039        23   # BR(chi^0_3 -> ~G Z)
     6.39627405E-09    2     1000039        25   # BR(chi^0_3 -> ~G h^0)
     6.27004158E-07    2     1000022        22   # BR(chi^0_3 -> chi^0_1 photon)
     6.98396988E-10    2     1000023        22   # BR(chi^0_3 -> chi^0_2 photon)
#    BR                NDA      ID1      ID2       ID3
     5.00974307E-11    3     1000022         2        -2   # BR(chi^0_3 -> chi^0_1 u u_bar)
     6.36635122E-11    3     1000022         4        -4   # BR(chi^0_3 -> chi^0_1 c c_bar)
     1.38986783E-11    3     1000022         1        -1   # BR(chi^0_3 -> chi^0_1 d d_bar)
     4.16663055E-10    3     1000022         3        -3   # BR(chi^0_3 -> chi^0_1 s s_bar)
     9.09953249E-07    3     1000022         5        -5   # BR(chi^0_3 -> chi^0_1 b b_bar)
     2.98824900E-08    3     1000022        11       -11   # BR(chi^0_3 -> chi^0_1 e^- e^+)
     6.48981523E-08    3     1000022        13       -13   # BR(chi^0_3 -> chi^0_1 mu^- mu^+)
     9.26899485E-06    3     1000022        15       -15   # BR(chi^0_3 -> chi^0_1 tau^- tau^+)
     1.82789268E-08    3     1000023         2        -2   # BR(chi^0_3 -> chi^0_2 u u_bar)
     1.65481976E-08    3     1000023         4        -4   # BR(chi^0_3 -> chi^0_2 c c_bar)
     2.37335790E-08    3     1000023         1        -1   # BR(chi^0_3 -> chi^0_2 d d_bar)
     2.37134678E-08    3     1000023         3        -3   # BR(chi^0_3 -> chi^0_2 s s_bar)
     2.56235183E-09    3     1000023         5        -5   # BR(chi^0_3 -> chi^0_2 b b_bar)
     5.47720714E-09    3     1000023        11       -11   # BR(chi^0_3 -> chi^0_2 e^- e^+)
     5.47394290E-09    3     1000023        13       -13   # BR(chi^0_3 -> chi^0_2 mu^- mu^+)
     4.40157852E-09    3     1000023        15       -15   # BR(chi^0_3 -> chi^0_2 tau^- tau^+)
     3.26362136E-08    3     1000023        12       -12   # BR(chi^0_3 -> chi^0_2 nu_e nu_bar_e)
     1.88416748E-07    3     1000024         1        -2   # BR(chi^0_3 -> chi^+_1 d u_bar)
     1.88416748E-07    3    -1000024        -1         2   # BR(chi^0_3 -> chi^-_1 d_bar u)
     1.79482134E-07    3     1000024         3        -4   # BR(chi^0_3 -> chi^+_1 s c_bar)
     1.79482134E-07    3    -1000024        -3         4   # BR(chi^0_3 -> chi^-_1 s_bar c)
     6.27121602E-08    3     1000024        11       -12   # BR(chi^0_3 -> chi^+_1 e^- nu_bar_e)
     6.27121602E-08    3    -1000024       -11        12   # BR(chi^0_3 -> chi^-_1 e^+ nu_e)
     6.26940017E-08    3     1000024        13       -14   # BR(chi^0_3 -> chi^+_1 mu^- nu_bar_mu)
     6.26940017E-08    3    -1000024       -13        14   # BR(chi^0_3 -> chi^-_1 mu^+ nu_mu)
     5.75380760E-08    3     1000024        15       -16   # BR(chi^0_3 -> chi^+_1 tau^- nu_bar_tau)
     5.75380760E-08    3    -1000024       -15        16   # BR(chi^0_3 -> chi^-_1 tau^+ nu_tau)
DECAY   1000035     1.06330918E+01   # chi^0_4
#    BR                NDA      ID1      ID2
     4.02310224E-05    2     2000011       -11   # BR(chi^0_4 -> ~e^-_R e^+)
     4.02310224E-05    2    -2000011        11   # BR(chi^0_4 -> ~e^+_R e^-)
     3.80916150E-02    2     1000011       -11   # BR(chi^0_4 -> ~e^-_L e^+)
     3.80916150E-02    2    -1000011        11   # BR(chi^0_4 -> ~e^+_L e^-)
     4.02016976E-05    2     2000013       -13   # BR(chi^0_4 -> ~mu^-_R mu^+)
     4.02016976E-05    2    -2000013        13   # BR(chi^0_4 -> ~mu^+_R mu^-)
     3.80940200E-02    2     1000013       -13   # BR(chi^0_4 -> ~mu^-_L mu^+)
     3.80940200E-02    2    -1000013        13   # BR(chi^0_4 -> ~mu^+_L mu^-)
     3.48662680E-05    2     1000015       -15   # BR(chi^0_4 -> ~tau^-_1 tau^+)
     3.48662680E-05    2    -1000015        15   # BR(chi^0_4 -> ~tau^+_1 tau^-)
     3.87766458E-02    2     2000015       -15   # BR(chi^0_4 -> ~tau^-_2 tau^+)
     3.87766458E-02    2    -2000015        15   # BR(chi^0_4 -> ~tau^+_2 tau^-)
     4.02762500E-02    2     1000012       -12   # BR(chi^0_4 -> ~nu_e nu_bar_e)
     4.02762500E-02    2    -1000012        12   # BR(chi^0_4 -> ~nu^*_e nu_e)
     4.02786845E-02    2     1000014       -14   # BR(chi^0_4 -> ~nu_mu nu_bar_mu)
     4.02786845E-02    2    -1000014        14   # BR(chi^0_4 -> ~nu^*_mu nu_mu)
     4.09658333E-02    2     1000016       -16   # BR(chi^0_4 -> ~nu_tau nu_bar_tau)
     4.09658333E-02    2    -1000016        16   # BR(chi^0_4 -> ~nu^*_tau nu_tau)
     1.38468626E-01    2     1000024       -24   # BR(chi^0_4 -> chi^+_1 W^-)
     1.38468626E-01    2    -1000024        24   # BR(chi^0_4 -> chi^-_1 W^+)
     3.29411296E-05    2     1000022        23   # BR(chi^0_4 -> chi^0_1 Z)
     2.32929699E-03    2     1000023        23   # BR(chi^0_4 -> chi^0_2 Z)
     1.22479734E-01    2     1000025        23   # BR(chi^0_4 -> chi^0_3 Z)
     3.06717571E-04    2     1000022        25   # BR(chi^0_4 -> chi^0_1 h^0)
     1.22902074E-01    2     1000023        25   # BR(chi^0_4 -> chi^0_2 h^0)
     1.49192193E-03    2     1000025        25   # BR(chi^0_4 -> chi^0_3 h^0)
     7.64805432E-10    2     1000039        22   # BR(chi^0_4 -> ~G photon)
     3.01563191E-09    2     1000039        23   # BR(chi^0_4 -> ~G Z)
     1.00837001E-10    2     1000039        25   # BR(chi^0_4 -> ~G h^0)
     1.59757549E-07    2     1000022        22   # BR(chi^0_4 -> chi^0_1 photon)
     7.11490180E-07    2     1000023        22   # BR(chi^0_4 -> chi^0_2 photon)
     8.15067922E-07    2     1000025        22   # BR(chi^0_4 -> chi^0_3 photon)
#    BR                NDA      ID1      ID2       ID3
     3.22158114E-08    3     1000022         2        -2   # BR(chi^0_4 -> chi^0_1 u u_bar)
     3.22134586E-08    3     1000022         4        -4   # BR(chi^0_4 -> chi^0_1 c c_bar)
     5.64195226E-07    3     1000022         6        -6   # BR(chi^0_4 -> chi^0_1 t t_bar)
     4.00867892E-08    3     1000022         1        -1   # BR(chi^0_4 -> chi^0_1 d d_bar)
     4.00882256E-08    3     1000022         3        -3   # BR(chi^0_4 -> chi^0_1 s s_bar)
     4.97668354E-08    3     1000022         5        -5   # BR(chi^0_4 -> chi^0_1 b b_bar)
     2.02405850E-08    3     1000022        11       -11   # BR(chi^0_4 -> chi^0_1 e^- e^+)
     2.02241167E-08    3     1000022        13       -13   # BR(chi^0_4 -> chi^0_1 mu^- mu^+)
     1.71068986E-08    3     1000022        15       -15   # BR(chi^0_4 -> chi^0_1 tau^- tau^+)
     2.82877369E-09    3     1000023         2        -2   # BR(chi^0_4 -> chi^0_2 u u_bar)
     2.82745955E-09    3     1000023         4        -4   # BR(chi^0_4 -> chi^0_2 c c_bar)
     1.87965879E-09    3     1000023         1        -1   # BR(chi^0_4 -> chi^0_2 d d_bar)
     1.94243314E-09    3     1000023         3        -3   # BR(chi^0_4 -> chi^0_2 s s_bar)
     1.45838466E-07    3     1000023         5        -5   # BR(chi^0_4 -> chi^0_2 b b_bar)
     1.62393496E-06    3     1000023        11       -11   # BR(chi^0_4 -> chi^0_2 e^- e^+)
     1.62843617E-06    3     1000023        13       -13   # BR(chi^0_4 -> chi^0_2 mu^- mu^+)
     2.67823573E-06    3     1000023        15       -15   # BR(chi^0_4 -> chi^0_2 tau^- tau^+)
     1.17981793E-06    3     1000023        12       -12   # BR(chi^0_4 -> chi^0_2 nu_e nu_bar_e)
     7.38008064E-12    3     1000025         2        -2   # BR(chi^0_4 -> chi^0_3 u u_bar)
     8.12540327E-12    3     1000025         4        -4   # BR(chi^0_4 -> chi^0_3 c c_bar)
     1.35327822E-11    3     1000025         1        -1   # BR(chi^0_4 -> chi^0_3 d d_bar)
     7.30913141E-11    3     1000025         3        -3   # BR(chi^0_4 -> chi^0_3 s s_bar)
     1.36295190E-07    3     1000025         5        -5   # BR(chi^0_4 -> chi^0_3 b b_bar)
     1.44106827E-09    3     1000025        11       -11   # BR(chi^0_4 -> chi^0_3 e^- e^+)
     4.80537437E-09    3     1000025        13       -13   # BR(chi^0_4 -> chi^0_3 mu^- mu^+)
     9.01917361E-07    3     1000025        15       -15   # BR(chi^0_4 -> chi^0_3 tau^- tau^+)
     2.52492875E-08    3     1000025        12       -12   # BR(chi^0_4 -> chi^0_3 nu_e nu_bar_e)
     1.72709203E-09    3     1000024         1        -2   # BR(chi^0_4 -> chi^+_1 d u_bar)
     1.72709203E-09    3    -1000024        -1         2   # BR(chi^0_4 -> chi^-_1 d_bar u)
     1.79993925E-09    3     1000024         3        -4   # BR(chi^0_4 -> chi^+_1 s c_bar)
     1.79993925E-09    3    -1000024        -3         4   # BR(chi^0_4 -> chi^-_1 s_bar c)
     1.51821884E-04    3     1000024         5        -6   # BR(chi^0_4 -> chi^+_1 b t_bar)
     1.51821884E-04    3    -1000024        -5         6   # BR(chi^0_4 -> chi^-_1 b_bar t)
     1.13860857E-06    3     1000024        11       -12   # BR(chi^0_4 -> chi^+_1 e^- nu_bar_e)
     1.13860857E-06    3    -1000024       -11        12   # BR(chi^0_4 -> chi^-_1 e^+ nu_e)
     1.14279878E-06    3     1000024        13       -14   # BR(chi^0_4 -> chi^+_1 mu^- nu_bar_mu)
     1.14279878E-06    3    -1000024       -13        14   # BR(chi^0_4 -> chi^-_1 mu^+ nu_mu)
     2.15584821E-06    3     1000024        15       -16   # BR(chi^0_4 -> chi^+_1 tau^- nu_bar_tau)
     2.15584821E-06    3    -1000024       -15        16   # BR(chi^0_4 -> chi^-_1 tau^+ nu_tau)
DECAY   1000021     1.89616791E+01   # ~g
#    BR                NDA      ID1      ID2
     4.68265915E-02    2     2000002        -2   # BR(~g -> ~u_R u_bar)
     4.68265915E-02    2    -2000002         2   # BR(~g -> ~u^*_R u)
     1.48148742E-02    2     1000002        -2   # BR(~g -> ~u_L u_bar)
     1.48148742E-02    2    -1000002         2   # BR(~g -> ~u^*_L u)
     4.68268523E-02    2     2000004        -4   # BR(~g -> ~c_R c_bar)
     4.68268523E-02    2    -2000004         4   # BR(~g -> ~c^*_R c)
     1.48156687E-02    2     1000004        -4   # BR(~g -> ~c_L c_bar)
     1.48156687E-02    2    -1000004         4   # BR(~g -> ~c^*_L c)
     3.16322054E-04    2     1000006        -4   # BR(~g -> ~t_1 c_bar)
     3.16322054E-04    2    -1000006         4   # BR(~g -> ~t^*_1 c)
     1.14666648E-01    2     1000006        -6   # BR(~g -> ~t_1 t_bar)
     1.14666648E-01    2    -1000006         6   # BR(~g -> ~t^*_1 t)
     3.34835217E-02    2     2000006        -6   # BR(~g -> ~t_2 t_bar)
     3.34835217E-02    2    -2000006         6   # BR(~g -> ~t^*_2 t)
     5.03453129E-02    2     2000001        -1   # BR(~g -> ~d_R d_bar)
     5.03453129E-02    2    -2000001         1   # BR(~g -> ~d^*_R d)
     1.45971584E-02    2     1000001        -1   # BR(~g -> ~d_L d_bar)
     1.45971584E-02    2    -1000001         1   # BR(~g -> ~d^*_L d)
     5.03481536E-02    2     2000003        -3   # BR(~g -> ~s_R s_bar)
     5.03481536E-02    2    -2000003         3   # BR(~g -> ~s^*_R s)
     1.45982353E-02    2     1000003        -3   # BR(~g -> ~s_L s_bar)
     1.45982353E-02    2    -1000003         3   # BR(~g -> ~s^*_L s)
     5.70387214E-02    2     1000005        -5   # BR(~g -> ~b_1 b_bar)
     5.70387214E-02    2    -1000005         5   # BR(~g -> ~b^*_1 b)
     4.12032344E-02    2     2000005        -5   # BR(~g -> ~b_2 b_bar)
     4.12032344E-02    2    -2000005         5   # BR(~g -> ~b^*_2 b)
     2.73894306E-06    2     1000022        21   # BR(~g -> chi^0_1 g)
     1.07067211E-04    2     1000023        21   # BR(~g -> chi^0_2 g)
     1.19060774E-04    2     1000025        21   # BR(~g -> chi^0_3 g)
     8.54520569E-06    2     1000035        21   # BR(~g -> chi^0_4 g)
DECAY        25     2.77344116E-03   # h^0
#    BR                NDA      ID1      ID2
     8.68153466E-09    2          11       -11   # BR(h^0 -> e^- e^+)
     3.71153223E-04    2          13       -13   # BR(h^0 -> mu^- mu^+)
     1.04434893E-01    2          15       -15   # BR(h^0 -> tau^- tau^+)
     6.56648746E-07    2           1        -1   # BR(h^0 -> d d_bar)
     2.89580794E-04    2           3        -3   # BR(h^0 -> s s_bar)
     6.24855219E-01    2           5        -5   # BR(h^0 -> b b_bar)
     2.40481492E-07    2           2        -2   # BR(h^0 -> u u_bar)
     4.30881693E-02    2           4        -4   # BR(h^0 -> c c_bar)
     6.45003129E-02    2          21        21   # BR(h^0 -> g g)
     3.20754027E-03    2          22        22   # BR(h^0 -> photon photon)
# writing decays into V V* as 3-body decays
#    BR                NDA      ID1      ID2       ID3
     7.27137712E-03    3          24        11        12   # BR(h^0 -> W^+ e^- nu_e)
     7.27137712E-03    3          24        13        14   # BR(h^0 -> W^+ mu^- nu_mu)
     7.27137712E-03    3          24        15        16   # BR(h^0 -> W^+ tau^- nu_tau)
     2.54498199E-02    3          24         1        -2   # BR(h^0 -> W^+ d u_bar)
     2.54498199E-02    3          24         3        -4   # BR(h^0 -> W^+ s c_bar)
     7.27137712E-03    3         -24       -11       -12   # BR(h^0 -> W^- e^+ nu_bar_e)
     7.27137712E-03    3         -24       -13       -14   # BR(h^0 -> W^- mu^+ nu_bar_mu)
     7.27137712E-03    3         -24       -15       -16   # BR(h^0 -> W^- tau^+ nu_bar_tau)
     2.54498199E-02    3         -24        -1         2   # BR(h^0 -> W^- d_bar u)
     2.54498199E-02    3         -24        -3         4   # BR(h^0 -> W^- s_bar c)
     4.83863902E-04    3          23        11       -11   # BR(h^0 -> Z e^- e^+)
     4.83863902E-04    3          23        13       -13   # BR(h^0 -> Z mu^- mu^+)
     4.14740488E-04    3          23        15       -15   # BR(h^0 -> Z tau^- tau^+)
     2.76493658E-03    3          23        12       -12   # BR(h^0 -> Z nu_e nu_bar_e)
     1.93545561E-03    3          23         1        -1   # BR(h^0 -> Z u u_bar)
     1.93545561E-03    3          23         3        -3   # BR(h^0 -> Z c c_bar)
     1.93545561E-03    3          23         5        -5   # BR(h^0 -> Z t t_bar)
     1.93545561E-03    3          23         2        -2   # BR(h^0 -> Z u u_bar)
     1.93545561E-03    3          23         4        -4   # BR(h^0 -> Z c c_bar)
DECAY        35     6.13643032E+00   # H^0
#    BR                NDA      ID1      ID2
     1.32059881E-08    2          11       -11   # BR(H^0 -> e^- e^+)
     5.64595280E-04    2          13       -13   # BR(H^0 -> mu^- mu^+)
     1.59857990E-01    2          15       -15   # BR(H^0 -> tau^- tau^+)
     8.21881073E-07    2           1        -1   # BR(H^0 -> d d_bar)
     3.62449361E-04    2           3        -3   # BR(H^0 -> s s_bar)
     8.13671366E-01    2           5        -5   # BR(H^0 -> b b_bar)
     2.57395341E-12    2           2        -2   # BR(H^0 -> u u_bar)
     4.61281685E-07    2           4        -4   # BR(H^0 -> c c_bar)
     2.40798101E-02    2           6        -6   # BR(H^0 -> t t_bar)
     5.58636400E-06    2     2000011  -2000011   # BR(H^0 -> ~e^-_R ~e^+_R)
     5.59070827E-06    2     2000013  -2000013   # BR(H^0 -> ~mu^-_R ~mu^+_R)
     6.79008464E-06    2     1000015  -1000015   # BR(H^0 -> ~tau^-_1 ~tau^+_1)
     4.36927001E-04    2          23        23   # BR(H^0 -> Z Z)
     8.30098576E-04    2          24       -24   # BR(H^0 -> W^+ W^-)
     1.52514973E-04    2          25        25   # BR(H^0 -> h^0 h^0)
     2.48963711E-05    2          21        21   # BR(H^0 -> g g)
     8.89265809E-08    2          22        22   # BR(H^0 -> photon photon)
DECAY        36     6.12570705E+00   # A^0
#    BR                NDA      ID1      ID2
     1.32323070E-08    2          11       -11   # BR(A^0 -> e^- e^+)
     5.65720510E-04    2          13       -13   # BR(A^0 -> mu^- mu^+)
     1.60177978E-01    2          15       -15   # BR(A^0 -> tau^- tau^+)
     8.23518420E-07    2           1        -1   # BR(A^0 -> d d_bar)
     3.63171430E-04    2           3        -3   # BR(A^0 -> s s_bar)
     8.15296316E-01    2           5        -5   # BR(A^0 -> b b_bar)
     2.28905342E-12    2           2        -2   # BR(A^0 -> u u_bar)
     4.10224082E-07    2           4        -4   # BR(A^0 -> c c_bar)
     2.27515230E-02    2           6        -6   # BR(A^0 -> t t_bar)
     8.21145781E-04    2          25        23   # BR(A^0 -> h^0 Z)
     2.27927735E-05    2          21        21   # BR(A^0 -> g g)
     1.05290085E-07    2          22        22   # BR(A^0 -> photon photon)
DECAY        37     5.34372816E+00   # H^+
#    BR                NDA      ID1      ID2
     1.52092241E-08    2         -11        12   # BR(H^+ -> e^+ nu_e)
     6.50239600E-04    2         -13        12   # BR(H^+ -> mu^+ nu_e)
     1.84108698E-01    2         -15        12   # BR(H^+ -> tau^+ nu_e)
     8.33516994E-07    2          -1         2   # BR(H^+ -> d_bar u)
     3.67994179E-04    2          -3         4   # BR(H^+ -> s_bar c)
     8.13947050E-01    2          -5         6   # BR(H^+ -> b_bar t)
     9.25169366E-04    2          25        24   # BR(H^+ -> h^0 W^+)
DECAY         6     2.43000000E+00   # top
#    BR                NDA      ID1      ID2
     1.00000000E+00    2           5        24   # BR(t -> b W)
Block HiggsBoundsInputHiggsCouplingsFermions
# ScalarNormEffCoupSq PseudoSNormEffCoupSq NP IP1 IP2 IP2
    1.12634653E+00    0.00000000E+00        3  25   5   5  # h0-b-b eff. coupling^2, normalised to SM
    3.99873653E+02    0.00000000E+00        3  35   5   5  # H0-b-b eff. coupling^2, normalised to SM
    0.00000000E+00    4.00000000E+02        3  36   5   5  # A0-b-b eff. coupling^2, normalised to SM
#
    9.99684134E-01    0.00000000E+00        3  25   6   6  # h0-t-t eff. coupling^2, normalised to SM
    2.81586633E-03    0.00000000E+00        3  35   6   6  # H0-t-t eff. coupling^2, normalised to SM
    0.00000000E+00    2.50000000E-03        3  36   6   6  # A0-t-t eff. coupling^2, normalised to SM
#
    1.12634653E+00    0.00000000E+00        3  25  15  15  # h0-tau-tau eff. coupling^2, normalised to SM
    3.99873653E+02    0.00000000E+00        3  35  15  15  # H0-tau-tau eff. coupling^2, normalised to SM
    0.00000000E+00    4.00000000E+02        3  36  15  15  # A0-tau-tau eff. coupling^2, normalised to SM
#
Block HiggsBoundsInputHiggsCouplingsBosons
    9.99990606E-01        3  25  24  24  # h0-W-W eff. coupling^2, normalised to SM
    9.39405345E-06        3  35  24  24  # H0-W-W eff. coupling^2, normalised to SM
    0.00000000E+00        3  36  24  24  # A0-W-W eff. coupling^2, normalised to SM
#
    9.99990606E-01        3  25  23  23  # h0-Z-Z eff. coupling^2, normalised to SM
    9.39405345E-06        3  35  23  23  # H0-Z-Z eff. coupling^2, normalised to SM
    0.00000000E+00        3  36  23  23  # A0-Z-Z eff. coupling^2, normalised to SM
#
    1.15754308E+00        3  25  21  21  # h0-g-g eff. coupling^2, normalised to SM
    3.84070102E-03        3  35  21  21  # H0-g-g eff. coupling^2, normalised to SM
    1.06571651E-01        3  36  21  21  # A0-g-g eff. coupling^2, normalised to SM
#
    0.00000000E+00        3  25  25  23  # h0-h0-Z eff. coupling^2, normalised to SM
    0.00000000E+00        3  35  25  23  # H0-h0-Z eff. coupling^2, normalised to SM
    9.39405345E-06        3  36  25  23  # A0-h0-Z eff. coupling^2, normalised to SM
    0.00000000E+00        3  35  35  23  # H0-H0-Z eff. coupling^2, normalised to SM
    9.99990606E-01        3  36  35  23  # A0-H0-Z eff. coupling^2, normalised to SM
    0.00000000E+00        3  36  36  23  # A0-A0-Z eff. coupling^2, normalised to SM
#
    0.00000000E+00        4  25  21  21  23  # h0-g-g-Z eff. coupling^2, normalised to SM
    0.00000000E+00        4  35  21  21  23  # H0-g-g-Z eff. coupling^2, normalised to SM
    0.00000000E+00        4  36  21  21  23  # A0-g-g-Z eff. coupling^2, normalised to SM
Block SPhenoLowEnergy  # low energy observables
    1    3.12536995E-04   # BR(b -> s gamma)
    2    1.59129091E-06   # BR(b -> s mu+ mu-)
    3    3.53993209E-05   # BR(b -> s nu nu)
    4    5.17958901E-11   # BR(Bd -> mu+ mu-)
    5    3.38396821E-09   # BR(Bs -> mu+ mu-)
    6    1.09471378E-04   # BR(B_u -> tau nu)
    7    9.89855206E-01   # BR(B_u -> tau nu)/BR(B_u -> tau nu)_SM
    8    2.73829913E-01   # |Delta(M_Bd)| [ps^-1] 
    9    2.03206749E+01   # |Delta(M_Bs)| [ps^-1] 
   20    1.03687302E-14   # Delta(g-2)_electron/2
   21    2.23809302E-10   # Delta(g-2)_muon/2
   22    1.50875754E-08   # Delta(g-2)_tau/2
   23    0.00000000E+00   # electric dipole moment of the electron
   24    0.00000000E+00   # electric dipole moment of the muon
   25    0.00000000E+00   # electric dipole moment of the tau
   26    0.00000000E+00   # Br(mu -> e gamma)
   27    0.00000000E+00   # Br(tau -> e gamma)
   28    0.00000000E+00   # Br(tau -> mu gamma)
   29    0.00000000E+00   # Br(mu -> 3 e)
   30    0.00000000E+00   # Br(tau -> 3 e)
   31    0.00000000E+00   # Br(tau -> 3 mu)
   39    6.36284188E-04   # Delta(rho_parameter)
   40    0.00000000E+00   # BR(Z -> e mu)
   41    0.00000000E+00   # BR(Z -> e tau)
   42    0.00000000E+00   # BR(Z -> mu tau)
Block FWCOEF Q=  9.11876000E+01  # Wilson coefficients at scale Q
#    id        order  M        value         comment
Block FWCOEF Q=  1.60000000E+02  # Wilson coefficients at scale Q
#    id        order  M        value         comment
     0305 4422   00   0    -1.87757558E-01   # C7
     0305 4422   00   1    -1.38513228E-02   # C7
     0305 4322   00   1    -3.01481013E-04   # C7'
     0305 6421   00   0    -9.48894297E-02   # C8
     0305 6421   00   1    -1.97624061E-02   # C8
     0305 6321   00   1    -4.25899081E-04   # C8'
 03051111 4133   00   0    -1.32632610E+00   # C9 e+e-
 03051111 4133   00   1     6.82836695E-04   # C9 e+e-
 03051111 4233   00   1    -1.12498570E-05   # C9' e+e-
 03051111 4137   00   0    -3.94477240E+00   # C10 e+e-
 03051111 4137   00   1     2.07429190E-03   # C10 e+e-
 03051111 4237   00   1     2.93085902E-04   # C10' e+e-
 03051313 4133   00   0    -1.32632610E+00   # C9 mu+mu-
 03051313 4133   00   1     6.82802354E-04   # C9 mu+mu-
 03051313 4233   00   1    -1.12503152E-05   # C9' mu+mu-
 03051313 4137   00   0    -3.94477240E+00   # C10 mu+mu-
 03051313 4137   00   1     2.07425749E-03   # C10 mu+mu-
 03051313 4237   00   1     2.93086360E-04   # C10' mu+mu-
 03051212 4237   00   0     1.49014860E+00   # C11 nu_1 nu_1
 03051212 4237   00   1    -5.00411210E-04   # C11 nu_1 nu_1
 03051212 4137   00   1    -7.04906357E-05   # C11' nu_1 nu_1
 03051414 4237   00   0     1.49014860E+00   # C11 nu_2 nu_2
 03051414 4237   00   1    -5.00411191E-04   # C11 nu_2 nu_2
 03051414 4137   00   1    -7.04905273E-05   # C11' nu_2 nu_2
 03051616 4237   00   0     1.49014860E+00   # C11 nu_3 nu_3
 03051616 4237   00   1    -5.00405006E-04   # C11 nu_3 nu_3
 03051616 4137   00   1    -7.04599987E-05   # C11' nu_3 nu_3
