#
#                              ======================
#                              | THE SUSYHIT OUTPUT |
#                              ======================
#
#
#              ------------------------------------------------------
#              |     This is the output of the SUSY-HIT package     |
#              |  created by A.Djouadi, M.Muehlleitner and M.Spira. |
#              |  In case of problems with SUSY-HIT email to        |
#              |           margarete.muehlleitner@cern.ch           |
#              |           michael.spira@psi.ch                     |
#              |           abdelhak.djouadi@cern.ch                 |
#              ------------------------------------------------------
#
#              ------------------------------------------------------
#              |  SUSY Les Houches Accord - MSSM Spectrum + Decays  |
#              |              based on the decay programs           |
#              |                                                    |
#              |                     SDECAY 1.3b                    |
#              |                                                    |
#              |  Authors: M.Muhlleitner, A.Djouadi and Y.Mambrini  |
#              |  Ref.:    Comput.Phys.Commun.168(2005)46           |
#              |           [hep-ph/0311167]                         |
#              |                                                    |
#              |                     HDECAY 3.4                     |
#              |                                                    |
#              |  By: A.Djouadi,J.Kalinowski,M.Muhlleitner,M.Spira  |
#              |  Ref.:    Comput.Phys.Commun.108(1998)56           |
#              |           [hep-ph/9704448]                         |
#              |                                                    |
#              |                                                    |
#              |  If not stated otherwise all DRbar couplings and   |
#              |  soft SUSY breaking masses are given at the scale  |
#              |  Q=  0.91187600E+02
#              |                                                    |
#              ------------------------------------------------------
#
#
BLOCK DCINFO  # Decay Program information
     1   SDECAY/HDECAY # decay calculator
     2   1.3b  /3.4    # version number
#
BLOCK SPINFO  # Spectrum calculator information
     1   SuSpect     # RGE +Spectrum calculator            
     2   2.41         # version number                     
#
BLOCK MODSEL  # Model selection
     1     0   # #general MSSM low scale                           
#
BLOCK SMINPUTS  # Standard Model inputs
         1     1.27934000E+02   # alpha_em^-1(M_Z)^MSbar
         2     1.16639000E-05   # G_F [GeV^-2]
         3     1.17200000E-01   # alpha_S(M_Z)^MSbar
         4     9.11870000E+01   # M_Z pole mass
         5     4.25000000E+00   # mb(mb)^MSbar
         6     1.72500000E+02   # mt pole mass
         7     1.77700000E+00   # mtau pole mass
#
BLOCK MINPAR  # Input parameters - minimal models
#
BLOCK EXTPAR  # Input parameters - non-minimal models
         0     9.11876000E+01   # EWSB                
         1     1.00000000E+01   # M_1                 
         2     1.00000000E+05   # M_2                 
         3     1.00000000E+05   # M_3                 
        11     0.00000000E+00   # A_t                 
        12     0.00000000E+00   # A_b                 
        13     0.00000000E+00   # A_tau               
        14     0.00000000E+00   # A_u                 
        15     0.00000000E+00   # A_d                 
        16     0.00000000E+00   # A_e                 
        23     3.50000000E+03   # mu(EWSB)            
        25     1.50000000E+00   # tanbeta(in)         
        26     2.00000000E+03   # MA_pole             
        31     1.00000000E+05   # M_eL                
        32     1.00000000E+05   # M_muL               
        33     1.00000000E+05   # M_tauL              
        34     1.00000000E+05   # M_eR                
        35     1.00000000E+05   # M_muR               
        36     1.00000000E+05   # M_tauR              
        41     1.30000000E+03   # M_q1L               
        42     1.30000000E+03   # M_q2L               
        43     1.30000000E+03   # M_q3L               
        44     1.00000000E+05   # M_uR                
        45     1.00000000E+05   # M_cR                
        46     1.00000000E+05   # M_tR                
        47     1.30000000E+03   # M_dR                
        48     1.30000000E+03   # M_sR                
        49     1.30000000E+03   # M_bR                
#
BLOCK MASS  # Mass Spectrum
# PDG code           mass       particle
        24     8.05817447E+01   # W+
        25     1.25000000E+02   # h
        35     2.00398068E+03   # H
        36     2.00000000E+03   # A
        37     2.02370078E+03   # H+
         5     4.87877839E+00   # b-quark pole mass calculated from mb(mb)_Msbar
   1000001     1.30051142E+03   # ~d_L
   2000001     1.30009842E+03   # ~d_R
   1000002     1.29958684E+03   # ~u_L
   2000002     9.99999974E+04   # ~u_R
   1000003     1.30051142E+03   # ~s_L
   2000003     1.30009842E+03   # ~s_R
   1000004     1.29958684E+03   # ~c_L
   2000004     9.99999974E+04   # ~c_R
   1000005     1.29507888E+03   # ~b_1
   2000005     1.30551518E+03   # ~b_2
   1000006     1.30792505E+03   # ~t_1
   2000006     1.00000106E+05   # ~t_2
   1000011     1.00000004E+05   # ~e_L
   2000011     1.00000004E+05   # ~e_R
   1000012     9.99999921E+04   # ~nu_eL
   1000013     1.00000004E+05   # ~mu_L
   2000013     1.00000004E+05   # ~mu_R
   1000014     9.99999921E+04   # ~nu_muL
   1000015     9.99999574E+04   # ~tau_1
   2000015     1.00000051E+05   # ~tau_2
   1000016     9.99999921E+04   # ~nu_tauL
   1000021     1.00000000E+05   # ~g
   1000022     9.47202342E+00   # ~chi_10
   1000023    -3.50002420E+03   # ~chi_20
   1000025     3.50048757E+03   # ~chi_30
   1000035     1.00000065E+05   # ~chi_40
   1000024     3.49994004E+03   # ~chi_1+
   1000037     1.00000065E+05   # ~chi_2+
   1000039     1.00000000E-09   # ~gravitino
#
BLOCK NMIX  # Neutralino Mixing Matrix
  1  1     9.99918129E-01   # N_11
  1  2    -9.34315060E-06   # N_12
  1  3     1.06394887E-02   # N_13
  1  4    -7.10895922E-03   # N_14
  2  1     2.49643779E-03   # N_21
  2  2    -1.49817834E-04   # N_22
  2  3    -7.07092349E-01   # N_23
  2  4    -7.07116791E-01   # N_24
  3  1     1.25500539E-02   # N_31
  3  2     8.03303524E-04   # N_32
  3  3    -7.07041016E-01   # N_33
  3  4     7.07060714E-01   # N_34
  4  1     3.65107186E-07   # N_41
  4  2    -9.99999666E-01   # N_42
  4  3    -4.62133056E-04   # N_43
  4  4     6.73989713E-04   # N_44
#
BLOCK UMIX  # Chargino Mixing Matrix U
  1  1    -6.53554630E-04   # U_11
  1  2     9.99999786E-01   # U_12
  2  1     9.99999786E-01   # U_21
  2  2     6.53554630E-04   # U_22
#
BLOCK VMIX  # Chargino Mixing Matrix V
  1  1    -9.53165308E-04   # V_11
  1  2     9.99999546E-01   # V_12
  2  1     9.99999546E-01   # V_21
  2  2     9.53165308E-04   # V_22
#
BLOCK STOPMIX  # Stop Mixing Matrix
  1  1     9.99999999E-01   # cos(theta_t)
  1  2     4.47213589E-05   # sin(theta_t)
  2  1    -4.47213589E-05   # -sin(theta_t)
  2  2     9.99999999E-01   # cos(theta_t)
#
BLOCK SBOTMIX  # Sbottom Mixing Matrix
  1  1     6.92974124E-01   # cos(theta_b)
  1  2     7.20962456E-01   # sin(theta_b)
  2  1    -7.20962456E-01   # -sin(theta_b)
  2  2     6.92974124E-01   # cos(theta_b)
#
BLOCK STAUMIX  # Stau Mixing Matrix
  1  1     7.06148053E-01   # cos(theta_tau)
  1  2     7.08064211E-01   # sin(theta_tau)
  2  1    -7.08064211E-01   # -sin(theta_tau)
  2  2     7.06148053E-01   # cos(theta_tau)
#
BLOCK ALPHA  # Higgs mixing
          -5.90270394E-01   # Mixing angle in the neutral Higgs boson sector
#
BLOCK HMIX Q=  9.11876000E+01  # DRbar Higgs Parameters
         1     3.50000000E+03   # mu(Q)               
         2     1.49999982E+00   # tanbeta(Q)          
         3     2.54854221E+02   # vev(Q)              
         4    -6.82996113E+07   # MA^2(Q)             
#
BLOCK GAUGE Q=  9.11876000E+01  # The gauge couplings
     1     3.50606302E-01   # gprime(Q) DRbar
     2     6.20430050E-01   # g(Q) DRbar
     3     1.02657266E+00   # g3(Q) DRbar
#
BLOCK AU Q=  9.11876000E+01  # The trilinear couplings
  1  1     0.00000000E+00   # A_u(Q) DRbar
  2  2     0.00000000E+00   # A_c(Q) DRbar
  3  3     0.00000000E+00   # A_t(Q) DRbar
#
BLOCK AD Q=  9.11876000E+01  # The trilinear couplings
  1  1     0.00000000E+00   # A_d(Q) DRbar
  2  2     0.00000000E+00   # A_s(Q) DRbar
  3  3     0.00000000E+00   # A_b(Q) DRbar
#
BLOCK AE Q=  9.11876000E+01  # The trilinear couplings
  1  1     0.00000000E+00   # A_e(Q) DRbar
  2  2     0.00000000E+00   # A_mu(Q) DRbar
  3  3     0.00000000E+00   # A_tau(Q) DRbar
#
BLOCK Yu Q=  9.11876000E+01  # The Yukawa couplings
  1  1     0.00000000E+00   # y_u(Q) DRbar
  2  2     0.00000000E+00   # y_c(Q) DRbar
  3  3     9.83652271E-01   # y_t(Q) DRbar
#
BLOCK Yd Q=  9.11876000E+01  # The Yukawa couplings
  1  1     0.00000000E+00   # y_d(Q) DRbar
  2  2     0.00000000E+00   # y_s(Q) DRbar
  3  3     2.58377376E-02   # y_b(Q) DRbar
#
BLOCK Ye Q=  9.11876000E+01  # The Yukawa couplings
  1  1     0.00000000E+00   # y_e(Q) DRbar
  2  2     0.00000000E+00   # y_mu(Q) DRbar
  3  3     1.77404805E-02   # y_tau(Q) DRbar
#
BLOCK MSOFT Q=  9.11876000E+01  # The soft SUSY breaking masses at the scale Q
         1     1.00000000E+01   # M_1                 
         2     1.00000000E+05   # M_2                 
         3     1.00000000E+05   # M_3                 
        14     0.00000000E+00   # A_u                 
        15     0.00000000E+00   # A_d                 
        16     0.00000000E+00   # A_e                 
        21     6.33062765E+08   # M^2_Hd              
        22    -1.14749661E+09   # M^2_Hu              
        31     1.00000000E+05   # M_eL                
        32     1.00000000E+05   # M_muL               
        33     1.00000000E+05   # M_tauL              
        34     1.00000000E+05   # M_eR                
        35     1.00000000E+05   # M_muR               
        36     1.00000000E+05   # M_tauR              
        41     1.30000000E+03   # M_q1L               
        42     1.30000000E+03   # M_q2L               
        43     1.30000000E+03   # M_q3L               
        44     1.00000000E+05   # M_uR                
        45     1.00000000E+05   # M_cR                
        46     1.00000000E+05   # M_tR                
        47     1.30000000E+03   # M_dR                
        48     1.30000000E+03   # M_sR                
        49     1.30000000E+03   # M_bR                
#
#
#
#                             =================
#                             |The decay table|
#                             =================
#
# - The QCD corrections to the decays gluino -> squark  + quark
#                                     squark -> gaugino + quark_prime
#                                     squark -> squark_prime + Higgs
#                                     squark -> gluino  + quark
#   are included.
#
# - The multi-body decays for the inos, stops and sbottoms are included.
#
# - The loop induced decays for the gluino, neutralinos and stops
#   are included.
#
# - The SUSY decays of the top quark are included.
#
# - Possible decays of the NLSP in GMSB models are included.
#
#
#         PDG            Width
DECAY         6     1.32863663E+00   # top decays
#          BR         NDA      ID1       ID2
     1.00000000E+00    2           5        24   # BR(t ->  b    W+)
#
#         PDG            Width
DECAY   1000021     1.E-04   # gluino decays (OJ Mods)
#          BR         NDA      ID1       ID2
    -5.76306364E-03    2     1000001        -1   # BR(~g -> ~d_L  db)
    -5.76306364E-03    2    -1000001         1   # BR(~g -> ~d_L* d )
    -5.76306488E-03    2     2000001        -1   # BR(~g -> ~d_R  db)
    -5.76306488E-03    2    -2000001         1   # BR(~g -> ~d_R* d )
    -5.76306641E-03    2     1000002        -2   # BR(~g -> ~u_L  ub)
    -5.76306641E-03    2    -1000002         2   # BR(~g -> ~u_L* u )
    -1.55885964E-17    2     2000002        -2   # BR(~g -> ~u_R  ub)
    -1.55885964E-17    2    -2000002         2   # BR(~g -> ~u_R* u )
    -5.76306364E-03    2     1000003        -3   # BR(~g -> ~s_L  sb)
    -5.76306364E-03    2    -1000003         3   # BR(~g -> ~s_L* s )
    -5.76306488E-03    2     2000003        -3   # BR(~g -> ~s_R  sb)
    -5.76306488E-03    2    -2000003         3   # BR(~g -> ~s_R* s )
    -5.76306641E-03    2     1000004        -4   # BR(~g -> ~c_L  cb)
    -5.76306641E-03    2    -1000004         4   # BR(~g -> ~c_L* c )
    -1.55885964E-17    2     2000004        -4   # BR(~g -> ~c_R  cb)
    -1.55885964E-17    2    -2000004         4   # BR(~g -> ~c_R* c )
     3.18155162E-01    2     1000005        -5   # BR(~g -> ~b_1  bb)
     3.18155162E-01    2    -1000005         5   # BR(~g -> ~b_1* b )
     3.02728701E-01    2     2000005        -5   # BR(~g -> ~b_2  bb)
     3.02728701E-01    2    -2000005         5   # BR(~g -> ~b_2* b )
    -5.67140262E-03    2     1000006        -6   # BR(~g -> ~t_1  tb)
    -5.67140262E-03    2    -1000006         6   # BR(~g -> ~t_1* t )
    -1.61268141E-01    2     1000039        21   # BR(~g -> ~G g)
#
#         PDG            Width
DECAY   1000006     2.08236435E-01   # stop1 decays
#          BR         NDA      ID1       ID2
     1.00000000E+00    2     1000022         6   # BR(~t_1 -> ~chi_10 t )
#
#         PDG            Width
DECAY   2000006    -1.35726268E+04   # stop2 decays
#          BR         NDA      ID1       ID2
    -1.53539755E-02    2     1000022         6   # BR(~t_2 -> ~chi_10 t )
    -3.66930989E-02    2     1000023         6   # BR(~t_2 -> ~chi_20 t )
    -3.66890614E-02    2     1000025         6   # BR(~t_2 -> ~chi_30 t )
     1.08745314E+00    2     1000024         5   # BR(~t_2 -> ~chi_1+ b )
     1.00631792E-03    2     1000006        25   # BR(~t_2 -> ~t_1    h )
    -1.05344065E-03    2     1000006        35   # BR(~t_2 -> ~t_1    H )
    -1.05161952E-03    2     1000006        36   # BR(~t_2 -> ~t_1    A )
    -9.90493318E-04    2     1000005        37   # BR(~t_2 -> ~b_1    H+)
    -1.11276475E-03    2     2000005        37   # BR(~t_2 -> ~b_2    H+)
     7.20241786E-04    2     1000006        23   # BR(~t_2 -> ~t_1    Z )
     1.80792710E-03    2     1000005        24   # BR(~t_2 -> ~b_1    W+)
     1.95682782E-03    2     2000005        24   # BR(~t_2 -> ~b_2    W+)
#
#         PDG            Width
DECAY   1000005    -1.27710041E+01   # sbottom1 decays
#          BR         NDA      ID1       ID2
     1.00000000E+00    2     1000022         5   # BR(~b_1 -> ~chi_10 b )
#
#         PDG            Width
DECAY   2000005    -1.22426086E+01   # sbottom2 decays
#          BR         NDA      ID1       ID2
     1.00000000E+00    2     1000022         5   # BR(~b_2 -> ~chi_10 b )
#
#         PDG            Width
DECAY   1000002     2.12475319E-01   # sup_L decays
#          BR         NDA      ID1       ID2
     1.00000000E+00    2     1000022         2   # BR(~u_L -> ~chi_10 u)
#
#         PDG            Width
DECAY   2000002     2.08366529E+02   # sup_R decays
#          BR         NDA      ID1       ID2
     9.99836434E-01    2     1000022         2   # BR(~u_R -> ~chi_10 u)
     6.22573226E-06    2     1000023         2   # BR(~u_R -> ~chi_20 u)
     1.57340291E-04    2     1000025         2   # BR(~u_R -> ~chi_30 u)
#
#         PDG            Width
DECAY   1000001     2.12661997E-01   # sdown_L decays
#          BR         NDA      ID1       ID2
     1.00000000E+00    2     1000022         1   # BR(~d_L -> ~chi_10 d)
#
#         PDG            Width
DECAY   2000001     8.50305415E-01   # sdown_R decays
#          BR         NDA      ID1       ID2
     1.00000000E+00    2     1000022         1   # BR(~d_R -> ~chi_10 d)
#
#         PDG            Width
DECAY   1000004     2.12475319E-01   # scharm_L decays
#          BR         NDA      ID1       ID2
     1.00000000E+00    2     1000022         4   # BR(~c_L -> ~chi_10 c)
#
#         PDG            Width
DECAY   2000004     2.08366529E+02   # scharm_R decays
#          BR         NDA      ID1       ID2
     9.99836434E-01    2     1000022         4   # BR(~c_R -> ~chi_10 c)
     6.22573226E-06    2     1000023         4   # BR(~c_R -> ~chi_20 c)
     1.57340291E-04    2     1000025         4   # BR(~c_R -> ~chi_30 c)
#
#         PDG            Width
DECAY   1000003     2.12661997E-01   # sstrange_L decays
#          BR         NDA      ID1       ID2
     1.00000000E+00    2     1000022         3   # BR(~s_L -> ~chi_10 s)
#
#         PDG            Width
DECAY   2000003     8.50305415E-01   # sstrange_R decays
#          BR         NDA      ID1       ID2
     1.00000000E+00    2     1000022         3   # BR(~s_R -> ~chi_10 s)
#
#         PDG            Width
DECAY   1000011     1.22276222E+02   # selectron_L decays
#          BR         NDA      ID1       ID2
     9.99797639E-01    2     1000022        11   # BR(~e_L -> ~chi_10 e-)
     4.96657679E-06    2     1000023        11   # BR(~e_L -> ~chi_20 e-)
     1.94725688E-04    2     1000025        11   # BR(~e_L -> ~chi_30 e-)
     2.66853531E-06    2    -1000024        12   # BR(~e_L -> ~chi_1- nu_e)
#
#         PDG            Width
DECAY   2000011     4.89101970E+02   # selectron_R decays
#          BR         NDA      ID1       ID2
     9.99836665E-01    2     1000022        11   # BR(~e_R -> ~chi_10 e-)
     6.21694449E-06    2     1000023        11   # BR(~e_R -> ~chi_20 e-)
     1.57118163E-04    2     1000025        11   # BR(~e_R -> ~chi_30 e-)
#
#         PDG            Width
DECAY   1000013     1.22276222E+02   # smuon_L decays
#          BR         NDA      ID1       ID2
     9.99797639E-01    2     1000022        13   # BR(~mu_L -> ~chi_10 mu-)
     4.96657679E-06    2     1000023        13   # BR(~mu_L -> ~chi_20 mu-)
     1.94725688E-04    2     1000025        13   # BR(~mu_L -> ~chi_30 mu-)
     2.66853531E-06    2    -1000024        14   # BR(~mu_L -> ~chi_1- nu_mu)
#
#         PDG            Width
DECAY   2000013     4.89101970E+02   # smuon_R decays
#          BR         NDA      ID1       ID2
     9.99836665E-01    2     1000022        13   # BR(~mu_R -> ~chi_10 mu-)
     6.21694449E-06    2     1000023        13   # BR(~mu_R -> ~chi_20 mu-)
     1.57118163E-04    2     1000025        13   # BR(~mu_R -> ~chi_30 mu-)
#
#         PDG            Width
DECAY   1000015     1.18200652E+04   # stau_1 decays
#          BR         NDA      ID1       ID2
     2.59073650E-02    2     1000022        15   # BR(~tau_1 -> ~chi_10  tau-)
     2.51324296E-05    2     1000023        15   # BR(~tau_1 -> ~chi_20  tau-)
     2.48695604E-05    2     1000025        15   # BR(~tau_1 -> ~chi_30  tau-)
     2.77139345E-05    2    -1000024        16   # BR(~tau_1 -> ~chi_1-  nu_tau)
     9.74014919E-01    2     1000039        15   # BR(~tau_1 -> ~G       tau-)
#
#         PDG            Width
DECAY   2000015     3.06106616E+02   # stau_2 decays
#          BR         NDA      ID1       ID2
     9.96538274E-01    2     1000022        15   # BR(~tau_2 -> ~chi_10  tau-)
     1.08180370E-03    2     1000023        15   # BR(~tau_2 -> ~chi_20  tau-)
     1.40857029E-03    2     1000025        15   # BR(~tau_2 -> ~chi_30  tau-)
     9.71352120E-04    2    -1000024        16   # BR(~tau_2 -> ~chi_1-  nu_tau)
#
#         PDG            Width
DECAY   1000012     1.22276279E+02   # snu_eL decays
#          BR         NDA      ID1       ID2
     9.99863176E-01    2     1000022        12   # BR(~nu_eL -> ~chi_10 nu_e)
     7.60746199E-06    2     1000023        12   # BR(~nu_eL -> ~chi_20 nu_e)
     1.23540206E-04    2     1000025        12   # BR(~nu_eL -> ~chi_30 nu_e)
     5.67603886E-06    2     1000024        11   # BR(~nu_eL -> ~chi_1+ e-)
#
#         PDG            Width
DECAY   1000014     1.22276279E+02   # snu_muL decays
#          BR         NDA      ID1       ID2
     9.99863176E-01    2     1000022        14   # BR(~nu_muL -> ~chi_10 nu_mu)
     7.60746199E-06    2     1000023        14   # BR(~nu_muL -> ~chi_20 nu_mu)
     1.23540206E-04    2     1000025        14   # BR(~nu_muL -> ~chi_30 nu_mu)
     5.67603886E-06    2     1000024        13   # BR(~nu_muL -> ~chi_1+ mu-)
#
#         PDG            Width
DECAY   1000016     1.22900871E+02   # snu_tauL decays
#          BR         NDA      ID1       ID2
     9.94781797E-01    2     1000022        16   # BR(~nu_tauL -> ~chi_10 nu_tau)
     7.56880030E-06    2     1000023        16   # BR(~nu_tauL -> ~chi_20 nu_tau)
     1.22912365E-04    2     1000025        16   # BR(~nu_tauL -> ~chi_30 nu_tau)
     5.08772193E-03    2     1000024        15   # BR(~nu_tauL -> ~chi_1+ tau-)
#
#         PDG            Width
DECAY   1000024     6.32922761E+01   # chargino1+ decays
#          BR         NDA      ID1       ID2
     5.04557543E-07    2     1000002        -1   # BR(~chi_1+ -> ~u_L     db)
     2.37110699E-07    2    -1000001         2   # BR(~chi_1+ -> ~d_L*    u )
     5.04557543E-07    2     1000004        -3   # BR(~chi_1+ -> ~c_L     sb)
     2.37110699E-07    2    -1000003         4   # BR(~chi_1+ -> ~s_L*    c )
    -2.77441573E-02    2     1000006        -5   # BR(~chi_1+ -> ~t_1     bb)
     8.24020338E-02    2    -1000005         6   # BR(~chi_1+ -> ~b_1*    t )
     8.97769408E-01    2    -2000005         6   # BR(~chi_1+ -> ~b_2*    t )
     3.26996177E-02    2     1000022        24   # BR(~chi_1+ -> ~chi_10  W+)
     1.48659098E-02    2     1000022        37   # BR(~chi_1+ -> ~chi_10  H+)
     4.76672238E-06    2     1000039        24   # BR(~chi_1+ -> ~G       W+)
     9.37885632E-07    2     1000039        37   # BR(~chi_1+ -> ~G       H+)
#
#         PDG            Width
DECAY   1000037    -9.28802843E+02   # chargino2+ decays
#          BR         NDA      ID1       ID2
     1.04038567E-01    2     1000002        -1   # BR(~chi_2+ -> ~u_L     db)
     1.04038603E-01    2    -1000001         2   # BR(~chi_2+ -> ~d_L*    u )
     1.04038567E-01    2     1000004        -3   # BR(~chi_2+ -> ~c_L     sb)
     1.04038603E-01    2    -1000003         4   # BR(~chi_2+ -> ~s_L*    c )
    -7.68579814E-01    2     1000006        -5   # BR(~chi_2+ -> ~t_1     bb)
     2.25165073E-02    2    -1000005         6   # BR(~chi_2+ -> ~b_1*    t )
     9.91049798E-02    2    -2000005         6   # BR(~chi_2+ -> ~b_2*    t )
     7.69031023E-14    2     1000012       -11   # BR(~chi_2+ -> ~nu_eL   e+  )
     7.69031023E-14    2     1000014       -13   # BR(~chi_2+ -> ~nu_muL  mu+ )
     5.38454156E-14    2    -1000011        12   # BR(~chi_2+ -> ~e_L+    nu_e)
     5.38454156E-14    2    -1000013        14   # BR(~chi_2+ -> ~mu_L+   nu_mu)
     8.35388821E-14    2    -1000015        16   # BR(~chi_2+ -> ~tau_1+  nu_tau)
     1.42202363E-15    2    -2000015        16   # BR(~chi_2+ -> ~tau_2+  nu_tau)
     1.90967510E-02    2     1000024        23   # BR(~chi_2+ -> ~chi_1+  Z )
     2.24583751E-06    2     1000022        24   # BR(~chi_2+ -> ~chi_10  W+)
     1.85352218E-02    2     1000023        24   # BR(~chi_2+ -> ~chi_20  W+)
     1.85327813E-02    2     1000025        24   # BR(~chi_2+ -> ~chi_30  W+)
     1.92577940E-02    2     1000024        25   # BR(~chi_2+ -> ~chi_1+  h )
     1.69047647E-02    2     1000024        35   # BR(~chi_2+ -> ~chi_1+  H )
     1.69069752E-02    2     1000024        36   # BR(~chi_2+ -> ~chi_1+  A )
     3.19848163E-06    2     1000022        37   # BR(~chi_2+ -> ~chi_10  H+)
     1.69063070E-02    2     1000023        37   # BR(~chi_2+ -> ~chi_20  H+)
     1.69038218E-02    2     1000025        37   # BR(~chi_2+ -> ~chi_30  H+)
     1.08775381E+00    2     1000039        24   # BR(~chi_2+ -> ~G       W+)
     3.12355931E-07    2     1000039        37   # BR(~chi_2+ -> ~G       H+)
#
#         PDG            Width
DECAY   1000022     1.E-08   # neutralino1 decays (OJ Mods)
#          BR         NDA      ID1       ID2
     1.00000000E+00    2     1000039        22   # BR(~chi_10 -> ~G        gam)
#
#         PDG            Width
DECAY   1000023     1.E-08   # neutralino2 decays (OJ Mods)
#          BR         NDA      ID1       ID2
     3.26243202E-02    2     1000022        23   # BR(~chi_20 -> ~chi_10   Z )
     1.26971269E-03    2     1000022        25   # BR(~chi_20 -> ~chi_10   h )
     1.46764843E-02    2     1000022        35   # BR(~chi_20 -> ~chi_10   H )
     5.98054374E-04    2     1000022        36   # BR(~chi_20 -> ~chi_10   A )
     3.30021885E-08    2     1000002        -2   # BR(~chi_20 -> ~u_L      ub)
     3.30021885E-08    2    -1000002         2   # BR(~chi_20 -> ~u_L*     u )
     1.23530304E-07    2     1000001        -1   # BR(~chi_20 -> ~d_L      db)
     1.23530304E-07    2    -1000001         1   # BR(~chi_20 -> ~d_L*     d )
     2.84244094E-07    2     2000001        -1   # BR(~chi_20 -> ~d_R      db)
     2.84244094E-07    2    -2000001         1   # BR(~chi_20 -> ~d_R*     d )
     3.30021885E-08    2     1000004        -4   # BR(~chi_20 -> ~c_L      cb)
     3.30021885E-08    2    -1000004         4   # BR(~chi_20 -> ~c_L*     c )
     1.23530304E-07    2     1000003        -3   # BR(~chi_20 -> ~s_L      sb)
     1.23530304E-07    2    -1000003         3   # BR(~chi_20 -> ~s_L*     s )
     2.84244094E-07    2     2000003        -3   # BR(~chi_20 -> ~s_R      sb)
     2.84244094E-07    2    -2000003         3   # BR(~chi_20 -> ~s_R*     s )
     4.92462182E-01    2     1000006        -6   # BR(~chi_20 -> ~t_1      tb)
     4.92462182E-01    2    -1000006         6   # BR(~chi_20 -> ~t_1*     t )
    -7.94362597E-03    2     1000005        -5   # BR(~chi_20 -> ~b_1      bb)
    -7.94362597E-03    2    -1000005         5   # BR(~chi_20 -> ~b_1*     b )
    -9.10649678E-03    2     2000005        -5   # BR(~chi_20 -> ~b_2      bb)
    -9.10649678E-03    2    -2000005         5   # BR(~chi_20 -> ~b_2*     b )
     4.24003980E-11    2     1000039        22   # BR(~chi_20 -> ~G        gam)
     1.84494715E-07    2     1000039        23   # BR(~chi_20 -> ~G        Z)
     4.60430858E-06    2     1000039        25   # BR(~chi_20 -> ~G        h)
     3.68966891E-08    2     1000039        35   # BR(~chi_20 -> ~G        H)
     9.51189588E-07    2     1000039        36   # BR(~chi_20 -> ~G        A)
#
#         PDG            Width
DECAY   1000025     6.28889703E+01   # neutralino3 decays
#          BR         NDA      ID1       ID2
     1.29083351E-03    2     1000022        23   # BR(~chi_30 -> ~chi_10   Z )
     3.28260384E-02    2     1000022        25   # BR(~chi_30 -> ~chi_10   h )
     5.82239641E-04    2     1000022        35   # BR(~chi_30 -> ~chi_10   H )
     1.47169820E-02    2     1000022        36   # BR(~chi_30 -> ~chi_10   A )
     3.22448625E-06    2     1000002        -2   # BR(~chi_30 -> ~u_L      ub)
     3.22448625E-06    2    -1000002         2   # BR(~chi_30 -> ~u_L*     u )
     7.82609363E-07    2     1000001        -1   # BR(~chi_30 -> ~d_L      db)
     7.82609363E-07    2    -1000001         1   # BR(~chi_30 -> ~d_L*     d )
     7.18354960E-06    2     2000001        -1   # BR(~chi_30 -> ~d_R      db)
     7.18354960E-06    2    -2000001         1   # BR(~chi_30 -> ~d_R*     d )
     3.22448625E-06    2     1000004        -4   # BR(~chi_30 -> ~c_L      cb)
     3.22448625E-06    2    -1000004         4   # BR(~chi_30 -> ~c_L*     c )
     7.82609363E-07    2     1000003        -3   # BR(~chi_30 -> ~s_L      sb)
     7.82609363E-07    2    -1000003         3   # BR(~chi_30 -> ~s_L*     s )
     7.18354960E-06    2     2000003        -3   # BR(~chi_30 -> ~s_R      sb)
     7.18354960E-06    2    -2000003         3   # BR(~chi_30 -> ~s_R*     s )
     4.92474808E-01    2     1000006        -6   # BR(~chi_30 -> ~t_1      tb)
     4.92474808E-01    2    -1000006         6   # BR(~chi_30 -> ~t_1*     t )
    -6.74732044E-03    2     1000005        -5   # BR(~chi_30 -> ~b_1      bb)
    -6.74732044E-03    2    -1000005         5   # BR(~chi_30 -> ~b_1*     b )
    -1.04578872E-02    2     2000005        -5   # BR(~chi_30 -> ~b_2      bb)
    -1.04578872E-02    2    -2000005         5   # BR(~chi_30 -> ~b_2*     b )
     1.23324496E-09    2     1000039        22   # BR(~chi_30 -> ~G        gam)
     4.61286096E-06    2     1000039        23   # BR(~chi_30 -> ~G        Z)
     1.79935688E-07    2     1000039        25   # BR(~chi_30 -> ~G        h)
     9.45490957E-07    2     1000039        35   # BR(~chi_30 -> ~G        H)
     3.80737261E-08    2     1000039        36   # BR(~chi_30 -> ~G        A)
#
#         PDG            Width
DECAY   1000035    -9.28844130E+02   # neutralino4 decays
#          BR         NDA      ID1       ID2
     4.52001167E-10    2     1000022        23   # BR(~chi_40 -> ~chi_10   Z )
     1.84551192E-02    2     1000023        23   # BR(~chi_40 -> ~chi_20   Z )
     6.41721215E-04    2     1000025        23   # BR(~chi_40 -> ~chi_30   Z )
     1.85351806E-02    2     1000024       -24   # BR(~chi_40 -> ~chi_1+   W-)
     1.85351806E-02    2    -1000024        24   # BR(~chi_40 -> ~chi_1-   W+)
     2.33724859E-06    2     1000022        25   # BR(~chi_40 -> ~chi_10   h )
     4.30054263E-07    2     1000022        35   # BR(~chi_40 -> ~chi_10   H )
     2.76393889E-06    2     1000022        36   # BR(~chi_40 -> ~chi_10   A )
     6.32570789E-04    2     1000023        25   # BR(~chi_40 -> ~chi_20   h )
     1.61775956E-02    2     1000023        35   # BR(~chi_40 -> ~chi_20   H )
     7.43648162E-04    2     1000023        36   # BR(~chi_40 -> ~chi_20   A )
     1.86229812E-02    2     1000025        25   # BR(~chi_40 -> ~chi_30   h )
     7.26784457E-04    2     1000025        35   # BR(~chi_40 -> ~chi_30   H )
     1.61606291E-02    2     1000025        36   # BR(~chi_40 -> ~chi_30   A )
     1.69067406E-02    2     1000024       -37   # BR(~chi_40 -> ~chi_1+   H-)
     1.69067406E-02    2    -1000024        37   # BR(~chi_40 -> ~chi_1-   H+)
     4.97919525E-02    2     1000002        -2   # BR(~chi_40 -> ~u_L      ub)
     4.97919525E-02    2    -1000002         2   # BR(~chi_40 -> ~u_L*     u )
     7.90494292E-22    2     2000002        -2   # BR(~chi_40 -> ~u_R      ub)
     7.90494292E-22    2    -2000002         2   # BR(~chi_40 -> ~u_R*     u )
     4.97919788E-02    2     1000001        -1   # BR(~chi_40 -> ~d_L      db)
     4.97919788E-02    2    -1000001         1   # BR(~chi_40 -> ~d_L*     d )
     9.42044890E-16    2     2000001        -1   # BR(~chi_40 -> ~d_R      db)
     9.42044890E-16    2    -2000001         1   # BR(~chi_40 -> ~d_R*     d )
     4.97919525E-02    2     1000004        -4   # BR(~chi_40 -> ~c_L      cb)
     4.97919525E-02    2    -1000004         4   # BR(~chi_40 -> ~c_L*     c )
     7.90494292E-22    2     2000004        -4   # BR(~chi_40 -> ~c_R      cb)
     7.90494292E-22    2    -2000004         4   # BR(~chi_40 -> ~c_R*     c )
     4.97919788E-02    2     1000003        -3   # BR(~chi_40 -> ~s_L      sb)
     4.97919788E-02    2    -1000003         3   # BR(~chi_40 -> ~s_L*     s )
     9.42044890E-16    2     2000003        -3   # BR(~chi_40 -> ~s_R      sb)
     9.42044890E-16    2    -2000003         3   # BR(~chi_40 -> ~s_R*     s )
     6.08112755E-02    2     1000006        -6   # BR(~chi_40 -> ~t_1      tb)
     6.08112755E-02    2    -1000006         6   # BR(~chi_40 -> ~t_1*     t )
    -2.02475440E-01    2     1000005        -5   # BR(~chi_40 -> ~b_1      bb)
    -2.02475440E-01    2    -1000005         5   # BR(~chi_40 -> ~b_1*     b )
    -1.81818218E-01    2     2000005        -5   # BR(~chi_40 -> ~b_2      bb)
    -1.81818218E-01    2    -2000005         5   # BR(~chi_40 -> ~b_2*     b )
     2.69227958E-14    2     1000011       -11   # BR(~chi_40 -> ~e_L-     e+)
     2.69227958E-14    2    -1000011        11   # BR(~chi_40 -> ~e_L+     e-)
     4.58432256E-27    2     2000011       -11   # BR(~chi_40 -> ~e_R-     e+)
     4.58432256E-27    2    -2000011        11   # BR(~chi_40 -> ~e_R+     e-)
     2.69227958E-14    2     1000013       -13   # BR(~chi_40 -> ~mu_L-    mu+)
     2.69227958E-14    2    -1000013        13   # BR(~chi_40 -> ~mu_L+    mu-)
     4.58432256E-27    2     2000013       -13   # BR(~chi_40 -> ~mu_R-    mu+)
     4.58432256E-27    2    -2000013        13   # BR(~chi_40 -> ~mu_R+    mu-)
     3.84517271E-14    2     1000012       -12   # BR(~chi_40 -> ~nu_eL    nu_eb)
     3.84517271E-14    2    -1000012        12   # BR(~chi_40 -> ~nu_eL*   nu_e )
     3.84517271E-14    2     1000014       -14   # BR(~chi_40 -> ~nu_muL   nu_mub)
     3.84517271E-14    2    -1000014        14   # BR(~chi_40 -> ~nu_muL*  nu_mu )
     3.84517271E-14    2     1000016       -16   # BR(~chi_40 -> ~nu_tau1  nu_taub)
     3.84517271E-14    2    -1000016        16   # BR(~chi_40 -> ~nu_tau1* nu_tau )
     2.63287125E-01    2     1000039        22   # BR(~chi_40 -> ~G        gam)
     8.24470883E-01    2     1000039        23   # BR(~chi_40 -> ~G        Z)
     4.98430167E-08    2     1000039        25   # BR(~chi_40 -> ~G        h)
     3.12872836E-07    2     1000039        35   # BR(~chi_40 -> ~G        H)
     6.16552937E-11    2     1000039        36   # BR(~chi_40 -> ~G        A)
#
#
#
#
