#
#                              ======================
#                              | THE SUSYHIT OUTPUT |
#                              ======================
#
#
#              ------------------------------------------------------
#              |     This is the output of the SUSY-HIT package     |
#              |  created by A.Djouadi, M.Muehlleitner and M.Spira. |
#              |  In case of problems with SUSY-HIT email to        |
#              |           margarete.muehlleitner@cern.ch           |
#              |           michael.spira@psi.ch                     |
#              |           abdelhak.djouadi@cern.ch                 |
#              ------------------------------------------------------
#
#              ------------------------------------------------------
#              |  SUSY Les Houches Accord - MSSM Spectrum + Decays  |
#              |              based on the decay programs           |
#              |                                                    |
#              |                     SDECAY 1.3b                    |
#              |                                                    |
#              |  Authors: M.Muhlleitner, A.Djouadi and Y.Mambrini  |
#              |  Ref.:    Comput.Phys.Commun.168(2005)46           |
#              |           [hep-ph/0311167]                         |
#              |                                                    |
#              |                     HDECAY 3.4                     |
#              |                                                    |
#              |  By: A.Djouadi,J.Kalinowski,M.Muhlleitner,M.Spira  |
#              |  Ref.:    Comput.Phys.Commun.108(1998)56           |
#              |           [hep-ph/9704448]                         |
#              |                                                    |
#              |                                                    |
#              |  If not stated otherwise all DRbar couplings and   |
#              |  soft SUSY breaking masses are given at the scale  |
#              |  Q=  0.91187600E+02
#              |                                                    |
#              ------------------------------------------------------
#
#
BLOCK DCINFO  # Decay Program information
     1   SDECAY/HDECAY # decay calculator
     2   1.3b  /3.4    # version number
#
BLOCK SPINFO  # Spectrum calculator information
     1   SuSpect     # RGE +Spectrum calculator            
     2   2.41         # version number                     
#
BLOCK MODSEL  # Model selection
     1     0   # #general MSSM low scale                           
#
BLOCK SMINPUTS  # Standard Model inputs
         1     1.27934000E+02   # alpha_em^-1(M_Z)^MSbar
         2     1.16639000E-05   # G_F [GeV^-2]
         3     1.17200000E-01   # alpha_S(M_Z)^MSbar
         4     9.11870000E+01   # M_Z pole mass
         5     4.25000000E+00   # mb(mb)^MSbar
         6     1.72500000E+02   # mt pole mass
         7     1.77700000E+00   # mtau pole mass
#
BLOCK MINPAR  # Input parameters - minimal models
#
BLOCK EXTPAR  # Input parameters - non-minimal models
         0     9.11876000E+01   # EWSB                
         1     1.25000000E+03   # M_1                 
         2     1.30000000E+03   # M_2                 
         3     1.00000000E+05   # M_3                 
        11     0.00000000E+00   # A_t                 
        12     0.00000000E+00   # A_b                 
        13     0.00000000E+00   # A_tau               
        14     0.00000000E+00   # A_u                 
        15     0.00000000E+00   # A_d                 
        16     0.00000000E+00   # A_e                 
        23     1.00000000E+05   # mu(EWSB)            
        25     1.50000000E+00   # tanbeta(in)         
        26     2.00000000E+03   # MA_pole             
        31     1.00000000E+05   # M_eL                
        32     1.00000000E+05   # M_muL               
        33     1.00000000E+05   # M_tauL              
        34     1.00000000E+05   # M_eR                
        35     1.00000000E+05   # M_muR               
        36     1.00000000E+05   # M_tauR              
        41     1.00000000E+05   # M_q1L               
        42     1.00000000E+05   # M_q2L               
        43     1.00000000E+05   # M_q3L               
        44     1.00000000E+05   # M_uR                
        45     1.00000000E+05   # M_cR                
        46     1.00000000E+05   # M_tR                
        47     1.00000000E+05   # M_dR                
        48     1.00000000E+05   # M_sR                
        49     1.00000000E+05   # M_bR                
#
BLOCK MASS  # Mass Spectrum
# PDG code           mass       particle
        24     8.06088895E+01   # W+
        25     1.25000000E+02   # h
        35     2.00317821E+03   # H
        36     2.00000000E+03   # A
        37     2.02356394E+03   # H+
         5     4.87877839E+00   # b-quark pole mass calculated from mb(mb)_Msbar
   1000001     1.00000007E+05   # ~d_L
   2000001     1.00000001E+05   # ~d_R
   1000002     9.99999947E+04   # ~u_L
   2000002     9.99999975E+04   # ~u_R
   1000003     1.00000007E+05   # ~s_L
   2000003     1.00000001E+05   # ~s_R
   1000004     9.99999947E+04   # ~c_L
   2000004     9.99999975E+04   # ~c_R
   1000005     9.99980752E+04   # ~b_1
   2000005     1.00001933E+05   # ~b_2
   1000006     9.99521152E+04   # ~t_1
   2000006     1.00048061E+05   # ~t_2
   1000011     1.00000004E+05   # ~e_L
   2000011     1.00000004E+05   # ~e_R
   1000012     9.99999922E+04   # ~nu_eL
   1000013     1.00000004E+05   # ~mu_L
   2000013     1.00000004E+05   # ~mu_R
   1000014     9.99999922E+04   # ~nu_muL
   1000015     9.99986721E+04   # ~tau_1
   2000015     1.00001336E+05   # ~tau_2
   1000016     9.99999922E+04   # ~nu_tauL
   1000021     1.00000000E+05   # ~g
   1000022     1.24998143E+03   # ~chi_10
   1000023     1.29994236E+03   # ~chi_20
   1000025    -1.00000003E+05   # ~chi_30
   1000035     1.00000079E+05   # ~chi_40
   1000024     1.29994234E+03   # ~chi_1+
   1000037     1.00000062E+05   # ~chi_2+
   1000039     7.81250000E-05   # ~gravitino
#
BLOCK NMIX  # Neutralino Mixing Matrix
  1  1     9.99999684E-01   # N_11
  1  2    -6.54367325E-04   # N_12
  1  3     3.74002117E-04   # N_13
  1  4    -2.51910516E-04   # N_14
  2  1     6.54725263E-04   # N_21
  2  2     9.99999470E-01   # N_22
  2  3    -6.58509268E-04   # N_23
  2  4     4.43721053E-04   # N_24
  3  1     8.62323790E-05   # N_31
  3  2    -1.51934675E-04   # N_32
  3  3    -7.07106716E-01   # N_33
  3  4    -7.07106825E-01   # N_34
  4  1     4.42076832E-04   # N_41
  4  2    -7.79684055E-04   # N_42
  4  3    -7.07106441E-01   # N_43
  4  4     7.07106553E-01   # N_44
#
BLOCK UMIX  # Chargino Mixing Matrix U
  1  1    -9.99999566E-01   # U_11
  1  2     9.31618834E-04   # U_12
  2  1     9.31618834E-04   # U_21
  2  2     9.99999566E-01   # U_22
#
BLOCK VMIX  # Chargino Mixing Matrix V
  1  1    -9.99999803E-01   # V_11
  1  2     6.27749691E-04   # V_12
  2  1     6.27749691E-04   # V_21
  2  2     9.99999803E-01   # V_22
#
BLOCK STOPMIX  # Stop Mixing Matrix
  1  1     7.07116899E-01   # cos(theta_t)
  1  2     7.07096663E-01   # sin(theta_t)
  2  1    -7.07096663E-01   # -sin(theta_t)
  2  2     7.07116899E-01   # cos(theta_t)
#
BLOCK SBOTMIX  # Sbottom Mixing Matrix
  1  1     7.06622065E-01   # cos(theta_b)
  1  2     7.07591165E-01   # sin(theta_b)
  2  1    -7.07591165E-01   # -sin(theta_b)
  2  2     7.06622065E-01   # cos(theta_b)
#
BLOCK STAUMIX  # Stau Mixing Matrix
  1  1     7.07079604E-01   # cos(theta_tau)
  1  2     7.07133957E-01   # sin(theta_tau)
  2  1    -7.07133957E-01   # -sin(theta_tau)
  2  2     7.07079604E-01   # cos(theta_tau)
#
BLOCK ALPHA  # Higgs mixing
          -5.62008386E-01   # Mixing angle in the neutral Higgs boson sector
#
BLOCK HMIX Q=  9.11876000E+01  # DRbar Higgs Parameters
         1     1.00000000E+05   # mu(Q)               
         2     1.49999983E+00   # tanbeta(Q)          
         3     2.54844633E+02   # vev(Q)              
         4    -2.53388427E+07   # MA^2(Q)             
#
BLOCK GAUGE Q=  9.11876000E+01  # The gauge couplings
     1     3.49420718E-01   # gprime(Q) DRbar
     2     6.15955869E-01   # g(Q) DRbar
     3     9.84784101E-01   # g3(Q) DRbar
#
BLOCK AU Q=  9.11876000E+01  # The trilinear couplings
  1  1     0.00000000E+00   # A_u(Q) DRbar
  2  2     0.00000000E+00   # A_c(Q) DRbar
  3  3     0.00000000E+00   # A_t(Q) DRbar
#
BLOCK AD Q=  9.11876000E+01  # The trilinear couplings
  1  1     0.00000000E+00   # A_d(Q) DRbar
  2  2     0.00000000E+00   # A_s(Q) DRbar
  3  3     0.00000000E+00   # A_b(Q) DRbar
#
BLOCK AE Q=  9.11876000E+01  # The trilinear couplings
  1  1     0.00000000E+00   # A_e(Q) DRbar
  2  2     0.00000000E+00   # A_mu(Q) DRbar
  3  3     0.00000000E+00   # A_tau(Q) DRbar
#
BLOCK Yu Q=  9.11876000E+01  # The Yukawa couplings
  1  1     0.00000000E+00   # y_u(Q) DRbar
  2  2     0.00000000E+00   # y_c(Q) DRbar
  3  3     9.59953787E-01   # y_t(Q) DRbar
#
BLOCK Yd Q=  9.11876000E+01  # The Yukawa couplings
  1  1     0.00000000E+00   # y_d(Q) DRbar
  2  2     0.00000000E+00   # y_s(Q) DRbar
  3  3     2.57300568E-02   # y_b(Q) DRbar
#
BLOCK Ye Q=  9.11876000E+01  # The Yukawa couplings
  1  1     0.00000000E+00   # y_e(Q) DRbar
  2  2     0.00000000E+00   # y_mu(Q) DRbar
  3  3     1.77662786E-02   # y_tau(Q) DRbar
#
BLOCK MSOFT Q=  9.11876000E+01  # The soft SUSY breaking masses at the scale Q
         1     1.25000000E+03   # M_1                 
         2     1.30000000E+03   # M_2                 
         3     1.00000000E+05   # M_3                 
        14     0.00000000E+00   # A_u                 
        15     0.00000000E+00   # A_d                 
        16     0.00000000E+00   # A_e                 
        21    -1.14118120E+10   # M^2_Hd              
        22    -1.35169253E+10   # M^2_Hu              
        31     1.00000000E+05   # M_eL                
        32     1.00000000E+05   # M_muL               
        33     1.00000000E+05   # M_tauL              
        34     1.00000000E+05   # M_eR                
        35     1.00000000E+05   # M_muR               
        36     1.00000000E+05   # M_tauR              
        41     1.00000000E+05   # M_q1L               
        42     1.00000000E+05   # M_q2L               
        43     1.00000000E+05   # M_q3L               
        44     1.00000000E+05   # M_uR                
        45     1.00000000E+05   # M_cR                
        46     1.00000000E+05   # M_tR                
        47     1.00000000E+05   # M_dR                
        48     1.00000000E+05   # M_sR                
        49     1.00000000E+05   # M_bR                
#
#
#
#                             =================
#                             |The decay table|
#                             =================
#
# - The QCD corrections to the decays gluino -> squark  + quark
#                                     squark -> gaugino + quark_prime
#                                     squark -> squark_prime + Higgs
#                                     squark -> gluino  + quark
#   are included.
#
# - The multi-body decays for the inos, stops and sbottoms are included.
#
# - The loop induced decays for the gluino, neutralinos and stops
#   are included.
#
# - The SUSY decays of the top quark are included.
#
# - Possible decays of the NLSP in GMSB models are included.
#
#
#         PDG            Width
DECAY         6     1.30843678E+00   # top decays
#          BR         NDA      ID1       ID2
     1.00000000E+00    2           5        24   # BR(t ->  b    W+)
#
#         PDG            Width
DECAY   1000021     1.E-04   # gluino decays (OJ Mods)
#          BR         NDA      ID1       ID2
     7.07332150E-06    2     1000002        -2   # BR(~g -> ~u_L  ub)
     7.07332150E-06    2    -1000002         2   # BR(~g -> ~u_L* u )
     1.57380778E-06    2     2000002        -2   # BR(~g -> ~u_R  ub)
     1.57380778E-06    2    -2000002         2   # BR(~g -> ~u_R* u )
     7.07332150E-06    2     1000004        -4   # BR(~g -> ~c_L  cb)
     7.07332150E-06    2    -1000004         4   # BR(~g -> ~c_L* c )
     1.57380778E-06    2     2000004        -4   # BR(~g -> ~c_R  cb)
     1.57380778E-06    2    -2000004         4   # BR(~g -> ~c_R* c )
     9.99965411E-01    2     1000039        21   # BR(~g -> ~G g)
#
#         PDG            Width
DECAY   1000006     6.55399215E+02   # stop1 decays
#          BR         NDA      ID1       ID2
     1.68304353E-01    2     1000022         6   # BR(~t_1 -> ~chi_10 t )
     2.77276953E-01    2     1000023         6   # BR(~t_1 -> ~chi_20 t )
     5.54418693E-01    2     1000024         5   # BR(~t_1 -> ~chi_1+ b )
#
#         PDG            Width
DECAY   2000006     6.53823106E+02   # stop2 decays
#          BR         NDA      ID1       ID2
     1.68654952E-01    2     1000022         6   # BR(~t_2 -> ~chi_10 t )
     2.77412682E-01    2     1000023         6   # BR(~t_2 -> ~chi_20 t )
     0.00000000E+00    2     1000025         6   # BR(~t_2 -> ~chi_30 t )
     5.54688461E-01    2     1000024         5   # BR(~t_2 -> ~chi_1+ b )
     1.03376601E-06    2     1000037         5   # BR(~t_2 -> ~chi_2+ b )
    -7.57127657E-04    2     1000006        23   # BR(~t_2 -> ~t_1    Z )
#
#         PDG            Width
DECAY   1000005     5.75676057E+02   # sbottom1 decays
#          BR         NDA      ID1       ID2
     5.65285902E-02    2     1000022         5   # BR(~b_1 -> ~chi_10 b )
     3.14438925E-01    2     1000023         5   # BR(~b_1 -> ~chi_20 b )
     6.29032484E-01    2    -1000024         6   # BR(~b_1 -> ~chi_1- t )
#
#         PDG            Width
DECAY   2000005     5.78154319E+02   # sbottom2 decays
#          BR         NDA      ID1       ID2
     5.61150252E-02    2     1000022         5   # BR(~b_2 -> ~chi_10 b )
     3.14576764E-01    2     1000023         5   # BR(~b_2 -> ~chi_20 b )
     6.29308211E-01    2    -1000024         6   # BR(~b_2 -> ~chi_1- t )
#
#         PDG            Width
DECAY   1000002     1.10202260E+03   # sup_L decays
#          BR         NDA      ID1       ID2
     1.16971769E-02    2     1000022         2   # BR(~u_L -> ~chi_10 u)
     3.29488508E-01    2     1000023         2   # BR(~u_L -> ~chi_20 u)
     6.58814315E-01    2     1000024         1   # BR(~u_L -> ~chi_1+ d)
#
#         PDG            Width
DECAY   2000002     2.07683852E+02   # sup_R decays
#          BR         NDA      ID1       ID2
     9.99999571E-01    2     1000022         2   # BR(~u_R -> ~chi_10 u)
     4.28661770E-07    2     1000023         2   # BR(~u_R -> ~chi_20 u)
#
#         PDG            Width
DECAY   1000001     1.10202215E+03   # sdown_L decays
#          BR         NDA      ID1       ID2
     1.18602224E-02    2     1000022         1   # BR(~d_L -> ~chi_10 d)
     3.29325511E-01    2     1000023         1   # BR(~d_L -> ~chi_20 d)
     5.07986570E-17    2     1000025         1   # BR(~d_L -> ~chi_30 d)
     6.58814267E-01    2    -1000024         2   # BR(~d_L -> ~chi_1- u)
     1.49617040E-13    2     1000021         1   # BR(~d_L -> ~g      d)
#
#         PDG            Width
DECAY   2000001     5.19209628E+01   # sdown_R decays
#          BR         NDA      ID1       ID2
     9.99999571E-01    2     1000022         1   # BR(~d_R -> ~chi_10 d)
     4.28661770E-07    2     1000023         1   # BR(~d_R -> ~chi_20 d)
     6.48085974E-14    2     1000021         1   # BR(~d_R -> ~g      d)
#
#         PDG            Width
DECAY   1000004     1.10202260E+03   # scharm_L decays
#          BR         NDA      ID1       ID2
     1.16971769E-02    2     1000022         4   # BR(~c_L -> ~chi_10 c)
     3.29488508E-01    2     1000023         4   # BR(~c_L -> ~chi_20 c)
     6.58814315E-01    2     1000024         3   # BR(~c_L -> ~chi_1+ s)
#
#         PDG            Width
DECAY   2000004     2.07683852E+02   # scharm_R decays
#          BR         NDA      ID1       ID2
     9.99999571E-01    2     1000022         4   # BR(~c_R -> ~chi_10 c)
     4.28661770E-07    2     1000023         4   # BR(~c_R -> ~chi_20 c)
#
#         PDG            Width
DECAY   1000003     1.10202215E+03   # sstrange_L decays
#          BR         NDA      ID1       ID2
     1.18602224E-02    2     1000022         3   # BR(~s_L -> ~chi_10 s)
     3.29325511E-01    2     1000023         3   # BR(~s_L -> ~chi_20 s)
     5.07986570E-17    2     1000025         3   # BR(~s_L -> ~chi_30 s)
     6.58814267E-01    2    -1000024         4   # BR(~s_L -> ~chi_1- c)
     1.49617040E-13    2     1000021         3   # BR(~s_L -> ~g      s)
#
#         PDG            Width
DECAY   2000003     5.19209628E+01   # sstrange_R decays
#          BR         NDA      ID1       ID2
     9.99999571E-01    2     1000022         3   # BR(~s_R -> ~chi_10 s)
     4.28661770E-07    2     1000023         3   # BR(~s_R -> ~chi_20 s)
     6.48085974E-14    2     1000021         3   # BR(~s_R -> ~g      s)
#
#         PDG            Width
DECAY   1000011     1.25322204E+03   # selectron_L decays
#          BR         NDA      ID1       ID2
     9.66564720E-02    2     1000022        11   # BR(~e_L -> ~chi_10 e-)
     3.01263579E-01    2     1000023        11   # BR(~e_L -> ~chi_20 e-)
     1.27833787E-24    2     1000025        11   # BR(~e_L -> ~chi_30 e-)
     6.02079949E-01    2    -1000024        12   # BR(~e_L -> ~chi_1- nu_e)
#
#         PDG            Width
DECAY   2000011     4.85648050E+02   # selectron_R decays
#          BR         NDA      ID1       ID2
     9.99999571E-01    2     1000022        11   # BR(~e_R -> ~chi_10 e-)
     4.28654333E-07    2     1000023        11   # BR(~e_R -> ~chi_20 e-)
     2.97533932E-24    2     1000025        11   # BR(~e_R -> ~chi_30 e-)
#
#         PDG            Width
DECAY   1000013     1.25322204E+03   # smuon_L decays
#          BR         NDA      ID1       ID2
     9.66564720E-02    2     1000022        13   # BR(~mu_L -> ~chi_10 mu-)
     3.01263579E-01    2     1000023        13   # BR(~mu_L -> ~chi_20 mu-)
     1.27833787E-24    2     1000025        13   # BR(~mu_L -> ~chi_30 mu-)
     6.02079949E-01    2    -1000024        14   # BR(~mu_L -> ~chi_1- nu_mu)
#
#         PDG            Width
DECAY   2000013     4.85648050E+02   # smuon_R decays
#          BR         NDA      ID1       ID2
     9.99999571E-01    2     1000022        13   # BR(~mu_R -> ~chi_10 mu-)
     4.28654333E-07    2     1000023        13   # BR(~mu_R -> ~chi_20 mu-)
     2.97533932E-24    2     1000025        13   # BR(~mu_R -> ~chi_30 mu-)
#
#         PDG            Width
DECAY   1000015     8.69427743E+02   # stau_1 decays
#          BR         NDA      ID1       ID2
     3.48968936E-01    2     1000022        15   # BR(~tau_1 -> ~chi_10  tau-)
     2.17117856E-01    2     1000023        15   # BR(~tau_1 -> ~chi_20  tau-)
     4.33913206E-01    2    -1000024        16   # BR(~tau_1 -> ~chi_1-  nu_tau)
     2.16942188E-09    2     1000039        15   # BR(~tau_1 -> ~G       tau-)
#
#         PDG            Width
DECAY   2000015     8.69442354E+02   # stau_2 decays
#          BR         NDA      ID1       ID2
     3.48932379E-01    2     1000022        15   # BR(~tau_2 -> ~chi_10  tau-)
     2.17130071E-01    2     1000023        15   # BR(~tau_2 -> ~chi_20  tau-)
     4.33937550E-01    2    -1000024        16   # BR(~tau_2 -> ~chi_1-  nu_tau)
     2.49815455E-13    2    -1000037        16   # BR(~tau_2 -> ~chi_2-  nu_tau)
#
#         PDG            Width
DECAY   1000012     1.25322196E+03   # snu_eL decays
#          BR         NDA      ID1       ID2
     9.71034758E-02    2     1000022        12   # BR(~nu_eL -> ~chi_10 nu_e)
     3.00816321E-01    2     1000023        12   # BR(~nu_eL -> ~chi_20 nu_e)
     6.02080203E-01    2     1000024        11   # BR(~nu_eL -> ~chi_1+ e-)
#
#         PDG            Width
DECAY   1000014     1.25322196E+03   # snu_muL decays
#          BR         NDA      ID1       ID2
     9.71034758E-02    2     1000022        14   # BR(~nu_muL -> ~chi_10 nu_mu)
     3.00816321E-01    2     1000023        14   # BR(~nu_muL -> ~chi_20 nu_mu)
     6.02080203E-01    2     1000024        13   # BR(~nu_muL -> ~chi_1+ mu-)
#
#         PDG            Width
DECAY   1000016     1.25322196E+03   # snu_tauL decays
#          BR         NDA      ID1       ID2
     9.71034757E-02    2     1000022        16   # BR(~nu_tauL -> ~chi_10 nu_tau)
     3.00816321E-01    2     1000023        16   # BR(~nu_tauL -> ~chi_20 nu_tau)
     6.02080203E-01    2     1000024        15   # BR(~nu_tauL -> ~chi_1+ tau-)
#
#         PDG            Width
DECAY   1000024     6.73155140E-10   # chargino1+ decays
#          BR         NDA      ID1       ID2
     1.02510237E-06    2     1000039        24   # BR(~chi_1+ -> ~G       W+)
#           BR         NDA      ID1       ID2       ID3
     3.33562866E-01    3     1000022         2        -1   # BR(~chi_1+ -> ~chi_10 u    db)
     3.33562866E-01    3     1000022         4        -3   # BR(~chi_1+ -> ~chi_10 c    sb)
     1.11187615E-01    3     1000022       -11        12   # BR(~chi_1+ -> ~chi_10 e+   nu_e)
     1.11187615E-01    3     1000022       -13        14   # BR(~chi_1+ -> ~chi_10 mu+  nu_mu)
     1.10498013E-01    3     1000022       -15        16   # BR(~chi_1+ -> ~chi_10 tau+ nu_tau)
#
#         PDG            Width
DECAY   1000037     1.23578040E+03   # chargino2+ decays
#          BR         NDA      ID1       ID2
     3.18347967E-14    2     1000002        -1   # BR(~chi_2+ -> ~u_L     db)
     5.72994941E-14    2    -1000001         2   # BR(~chi_2+ -> ~d_L*    u )
     3.18347967E-14    2     1000004        -3   # BR(~chi_2+ -> ~c_L     sb)
     5.72994941E-14    2    -1000003         4   # BR(~chi_2+ -> ~s_L*    c )
     1.14901810E-06    2     1000006        -5   # BR(~chi_2+ -> ~t_1     bb)
     2.34531576E-19    2     1000012       -11   # BR(~chi_2+ -> ~nu_eL   e+  )
     2.34531576E-19    2     1000014       -13   # BR(~chi_2+ -> ~nu_muL  mu+ )
     3.56656397E-19    2    -1000011        12   # BR(~chi_2+ -> ~e_L+    nu_e)
     3.56656397E-19    2    -1000013        14   # BR(~chi_2+ -> ~mu_L+   nu_mu)
     9.19305860E-14    2    -1000015        16   # BR(~chi_2+ -> ~tau_1+  nu_tau)
     1.53085755E-01    2     1000024        23   # BR(~chi_2+ -> ~chi_1+  Z )
     4.75411392E-02    2     1000022        24   # BR(~chi_2+ -> ~chi_10  W+)
     1.48316159E-01    2     1000023        24   # BR(~chi_2+ -> ~chi_20  W+)
     1.56275023E-01    2     1000024        25   # BR(~chi_2+ -> ~chi_1+  h )
     1.48995446E-01    2     1000024        35   # BR(~chi_2+ -> ~chi_1+  H )
     1.48911265E-01    2     1000024        36   # BR(~chi_2+ -> ~chi_1+  A )
     4.78547240E-02    2     1000022        37   # BR(~chi_2+ -> ~chi_10  H+)
     1.49019337E-01    2     1000023        37   # BR(~chi_2+ -> ~chi_20  H+)
     7.63195212E-10    2     1000039        24   # BR(~chi_2+ -> ~G       W+)
     7.61946702E-10    2     1000039        37   # BR(~chi_2+ -> ~G       H+)
#
#         PDG            Width
DECAY   1000022     1.E-08   # neutralino1 decays (OJ Mods)
#          BR         NDA      ID1       ID2
     7.59892949E-01    2     1000039        22   # BR(~chi_10 -> ~G        gam)
     2.40107051E-01    2     1000039        23   # BR(~chi_10 -> ~G        Z)
     9.27767143E-11    2     1000039        25   # BR(~chi_10 -> ~G        h)
#
#         PDG            Width
DECAY   1000023     1.E-08   # neutralino2 decays (OJ Mods)
#          BR         NDA      ID1       ID2
     6.58743611E-05    2     1000022        22   # BR(~chi_20 -> ~chi_10 gam)
#          BR         NDA      ID1       ID2
     1.09607930E-02    2     1000039        22   # BR(~chi_20 -> ~G        gam)
     3.32928067E-02    2     1000039        23   # BR(~chi_20 -> ~G        Z)
     1.30526420E-11    2     1000039        25   # BR(~chi_20 -> ~G        h)
#           BR         NDA      ID1       ID2       ID3
     5.55490329E-04    3     1000022        -2         2   # BR(~chi_20 -> ~chi_10 ub      u)
     6.66059870E-04    3     1000022        -1         1   # BR(~chi_20 -> ~chi_10 db      d)
     5.55490329E-04    3     1000022        -4         4   # BR(~chi_20 -> ~chi_10 cb      c)
     6.66059870E-04    3     1000022        -3         3   # BR(~chi_20 -> ~chi_10 sb      s)
     8.07898626E-01    3     1000022        -5         5   # BR(~chi_20 -> ~chi_10 bb      b)
     2.82482450E-04    3     1000022       -11        11   # BR(~chi_20 -> ~chi_10 e+      e-)
     2.82482450E-04    3     1000022       -13        13   # BR(~chi_20 -> ~chi_10 mu+     mu-)
     1.44361849E-01    3     1000022       -15        15   # BR(~chi_20 -> ~chi_10 tau+    tau-)
     1.37328299E-04    3     1000022       -12        12   # BR(~chi_20 -> ~chi_10 nu_eb   nu_e)
     1.37328299E-04    3     1000022       -14        14   # BR(~chi_20 -> ~chi_10 nu_mub  nu_mu)
     1.37328299E-04    3     1000022       -16        16   # BR(~chi_20 -> ~chi_10 nu_taub nu_tau)
     6.05385158E-22    3     1000024        -2         1   # BR(~chi_20 -> ~chi_1+ ub      d)
     6.05385158E-22    3    -1000024        -1         2   # BR(~chi_20 -> ~chi_1- db      u)
     6.05385158E-22    3     1000024        -4         3   # BR(~chi_20 -> ~chi_1+ cb      s)
     6.05385158E-22    3    -1000024        -3         4   # BR(~chi_20 -> ~chi_1- sb      c)
     2.01795053E-22    3     1000024       -12        11   # BR(~chi_20 -> ~chi_1+ nu_eb   e-)
     2.01795053E-22    3    -1000024        12       -11   # BR(~chi_20 -> ~chi_1- nu_e    e+)
     2.01795053E-22    3     1000024       -14        13   # BR(~chi_20 -> ~chi_1+ nu_mub  mu-)
     2.01795053E-22    3    -1000024        14       -13   # BR(~chi_20 -> ~chi_1- nu_mu   mu+)
#
#         PDG            Width
DECAY   1000025     1.22783653E+03   # neutralino3 decays
#          BR         NDA      ID1       ID2
     4.78327629E-02    2     1000022        23   # BR(~chi_30 -> ~chi_10   Z )
     1.48329024E-01    2     1000023        23   # BR(~chi_30 -> ~chi_20   Z )
     1.49164826E-01    2     1000024       -24   # BR(~chi_30 -> ~chi_1+   W-)
     1.49164826E-01    2    -1000024        24   # BR(~chi_30 -> ~chi_1-   W+)
     2.37205264E-03    2     1000022        25   # BR(~chi_30 -> ~chi_10   h )
     4.59225507E-02    2     1000022        35   # BR(~chi_30 -> ~chi_10   H )
     1.95268454E-03    2     1000022        36   # BR(~chi_30 -> ~chi_10   A )
     7.34102863E-03    2     1000023        25   # BR(~chi_30 -> ~chi_20   h )
     1.42121051E-01    2     1000023        35   # BR(~chi_30 -> ~chi_20   H )
     6.05526137E-03    2     1000023        36   # BR(~chi_30 -> ~chi_20   A )
     1.49871966E-01    2     1000024       -37   # BR(~chi_30 -> ~chi_1+   H-)
     1.49871966E-01    2    -1000024        37   # BR(~chi_30 -> ~chi_1-   H+)
     1.84451870E-16    2     1000002        -2   # BR(~chi_30 -> ~u_L      ub)
     1.84451870E-16    2    -1000002         2   # BR(~chi_30 -> ~u_L*     u )
     2.82670645E-17    2     2000002        -2   # BR(~chi_30 -> ~u_R      ub)
     2.82670645E-17    2    -2000002         2   # BR(~chi_30 -> ~u_R*     u )
     2.56972901E-18    2     2000001        -1   # BR(~chi_30 -> ~d_R      db)
     2.56972901E-18    2    -2000001         1   # BR(~chi_30 -> ~d_R*     d )
     1.84451870E-16    2     1000004        -4   # BR(~chi_30 -> ~c_L      cb)
     1.84451870E-16    2    -1000004         4   # BR(~chi_30 -> ~c_L*     c )
     2.82670645E-17    2     2000004        -4   # BR(~chi_30 -> ~c_R      cb)
     2.82670645E-17    2    -2000004         4   # BR(~chi_30 -> ~c_R*     c )
     2.56972901E-18    2     2000003        -3   # BR(~chi_30 -> ~s_R      sb)
     2.56972901E-18    2    -2000003         3   # BR(~chi_30 -> ~s_R*     s )
     2.89262301E-22    2     1000012       -12   # BR(~chi_30 -> ~nu_eL    nu_eb)
     2.89262301E-22    2    -1000012        12   # BR(~chi_30 -> ~nu_eL*   nu_e )
     2.89262301E-22    2     1000014       -14   # BR(~chi_30 -> ~nu_muL   nu_mub)
     2.89262301E-22    2    -1000014        14   # BR(~chi_30 -> ~nu_muL*  nu_mu )
     2.89262301E-22    2     1000016       -16   # BR(~chi_30 -> ~nu_tau1  nu_taub)
     2.89262301E-22    2    -1000016        16   # BR(~chi_30 -> ~nu_tau1* nu_tau )
     2.10549655E-24    2     1000039        22   # BR(~chi_30 -> ~G        gam)
     2.95434940E-11    2     1000039        23   # BR(~chi_30 -> ~G        Z)
     7.30428765E-10    2     1000039        25   # BR(~chi_30 -> ~G        h)
     3.76381850E-11    2     1000039        35   # BR(~chi_30 -> ~G        H)
     7.37407411E-10    2     1000039        36   # BR(~chi_30 -> ~G        A)
#
#         PDG            Width
DECAY   1000035     1.23278789E+03   # neutralino4 decays
#          BR         NDA      ID1       ID2
     1.81268429E-03    2     1000022        23   # BR(~chi_40 -> ~chi_10   Z )
     5.60989705E-03    2     1000023        23   # BR(~chi_40 -> ~chi_20   Z )
     1.48565834E-01    2     1000024       -24   # BR(~chi_40 -> ~chi_1+   W-)
     1.48565834E-01    2    -1000024        24   # BR(~chi_40 -> ~chi_1-   W+)
     4.81221395E-02    2     1000022        25   # BR(~chi_40 -> ~chi_10   h )
     2.48168427E-03    2     1000022        35   # BR(~chi_40 -> ~chi_10   H )
     4.62488147E-02    2     1000022        36   # BR(~chi_40 -> ~chi_10   A )
     1.49226370E-01    2     1000023        25   # BR(~chi_40 -> ~chi_20   h )
     7.69568593E-03    2     1000023        35   # BR(~chi_40 -> ~chi_20   H )
     1.43130772E-01    2     1000023        36   # BR(~chi_40 -> ~chi_20   A )
     1.49270141E-01    2     1000024       -37   # BR(~chi_40 -> ~chi_1+   H-)
     1.49270141E-01    2    -1000024        37   # BR(~chi_40 -> ~chi_1-   H+)
     4.91499419E-14    2     1000002        -2   # BR(~chi_40 -> ~u_L      ub)
     4.91499419E-14    2    -1000002         2   # BR(~chi_40 -> ~u_L*     u )
     1.09646058E-14    2     2000002        -2   # BR(~chi_40 -> ~u_R      ub)
     1.09646058E-14    2    -2000002         2   # BR(~chi_40 -> ~u_R*     u )
     6.45649889E-14    2     1000001        -1   # BR(~chi_40 -> ~d_L      db)
     6.45649889E-14    2    -1000001         1   # BR(~chi_40 -> ~d_L*     d )
     2.62343057E-15    2     2000001        -1   # BR(~chi_40 -> ~d_R      db)
     2.62343057E-15    2    -2000001         1   # BR(~chi_40 -> ~d_R*     d )
     4.91499419E-14    2     1000004        -4   # BR(~chi_40 -> ~c_L      cb)
     4.91499419E-14    2    -1000004         4   # BR(~chi_40 -> ~c_L*     c )
     1.09646058E-14    2     2000004        -4   # BR(~chi_40 -> ~c_R      cb)
     1.09646058E-14    2    -2000004         4   # BR(~chi_40 -> ~c_R*     c )
     6.45649889E-14    2     1000003        -3   # BR(~chi_40 -> ~s_L      sb)
     6.45649889E-14    2    -1000003         3   # BR(~chi_40 -> ~s_L*     s )
     2.62343057E-15    2     2000003        -3   # BR(~chi_40 -> ~s_R      sb)
     2.62343057E-15    2    -2000003         3   # BR(~chi_40 -> ~s_R*     s )
     9.63413935E-20    2     1000011       -11   # BR(~chi_40 -> ~e_L-     e+)
     9.63413935E-20    2    -1000011        11   # BR(~chi_40 -> ~e_L+     e-)
     8.66396022E-20    2     2000011       -11   # BR(~chi_40 -> ~e_R-     e+)
     8.66396022E-20    2    -2000011        11   # BR(~chi_40 -> ~e_R+     e-)
     9.63413935E-20    2     1000013       -13   # BR(~chi_40 -> ~mu_L-    mu+)
     9.63413935E-20    2    -1000013        13   # BR(~chi_40 -> ~mu_L+    mu-)
     8.66396022E-20    2     2000013       -13   # BR(~chi_40 -> ~mu_R-    mu+)
     8.66396022E-20    2    -2000013        13   # BR(~chi_40 -> ~mu_R+    mu-)
     4.89832176E-19    2     1000012       -12   # BR(~chi_40 -> ~nu_eL    nu_eb)
     4.89832176E-19    2    -1000012        12   # BR(~chi_40 -> ~nu_eL*   nu_e )
     4.89832176E-19    2     1000014       -14   # BR(~chi_40 -> ~nu_muL   nu_mub)
     4.89832176E-19    2    -1000014        14   # BR(~chi_40 -> ~nu_muL*  nu_mu )
     4.89832176E-19    2     1000016       -16   # BR(~chi_40 -> ~nu_tau1  nu_taub)
     4.89832176E-19    2    -1000016        16   # BR(~chi_40 -> ~nu_tau1* nu_tau )
     5.80566182E-23    2     1000039        22   # BR(~chi_40 -> ~G        gam)
     7.35623040E-10    2     1000039        23   # BR(~chi_40 -> ~G        Z)
     3.75471765E-11    2     1000039        25   # BR(~chi_40 -> ~G        h)
     7.26334775E-10    2     1000039        35   # BR(~chi_40 -> ~G        H)
     2.93778785E-11    2     1000039        36   # BR(~chi_40 -> ~G        A)
#
#
#
#
