#
#                              ======================
#                              | THE SUSYHIT OUTPUT |
#                              ======================
#
#
#              ------------------------------------------------------
#              |     This is the output of the SUSY-HIT package     |
#              |  created by A.Djouadi, M.Muehlleitner and M.Spira. |
#              |  In case of problems with SUSY-HIT email to        |
#              |           margarete.muehlleitner@cern.ch           |
#              |           michael.spira@psi.ch                     |
#              |           abdelhak.djouadi@cern.ch                 |
#              ------------------------------------------------------
#
#              ------------------------------------------------------
#              |  SUSY Les Houches Accord - MSSM Spectrum + Decays  |
#              |              based on the decay programs           |
#              |                                                    |
#              |                     SDECAY 1.3b                    |
#              |                                                    |
#              |  Authors: M.Muhlleitner, A.Djouadi and Y.Mambrini  |
#              |  Ref.:    Comput.Phys.Commun.168(2005)46           |
#              |           [hep-ph/0311167]                         |
#              |                                                    |
#              |                     HDECAY 3.4                     |
#              |                                                    |
#              |  By: A.Djouadi,J.Kalinowski,M.Muhlleitner,M.Spira  |
#              |  Ref.:    Comput.Phys.Commun.108(1998)56           |
#              |           [hep-ph/9704448]                         |
#              |                                                    |
#              |                                                    |
#              |  If not stated otherwise all DRbar couplings and   |
#              |  soft SUSY breaking masses are given at the scale  |
#              |  Q=  0.91187600E+02
#              |                                                    |
#              ------------------------------------------------------
#
#
BLOCK DCINFO  # Decay Program information
     1   SDECAY/HDECAY # decay calculator
     2   1.3b  /3.4    # version number
#
BLOCK SPINFO  # Spectrum calculator information
     1   SuSpect     # RGE +Spectrum calculator            
     2   2.41         # version number                     
#
BLOCK MODSEL  # Model selection
     1     0   # #general MSSM low scale                           
#
BLOCK SMINPUTS  # Standard Model inputs
         1     1.27934000E+02   # alpha_em^-1(M_Z)^MSbar
         2     1.16639000E-05   # G_F [GeV^-2]
         3     1.17200000E-01   # alpha_S(M_Z)^MSbar
         4     9.11870000E+01   # M_Z pole mass
         5     4.25000000E+00   # mb(mb)^MSbar
         6     1.72500000E+02   # mt pole mass
         7     1.77700000E+00   # mtau pole mass
#
BLOCK MINPAR  # Input parameters - minimal models
#
BLOCK EXTPAR  # Input parameters - non-minimal models
         0     9.11876000E+01   # EWSB                
         1     5.00000000E+01   # M_1                 
         2     1.00000000E+05   # M_2                 
         3     2.40000000E+03   # M_3                 
        11     0.00000000E+00   # A_t                 
        12     0.00000000E+00   # A_b                 
        13     0.00000000E+00   # A_tau               
        14     0.00000000E+00   # A_u                 
        15     0.00000000E+00   # A_d                 
        16     0.00000000E+00   # A_e                 
        23     1.00000000E+05   # mu(EWSB)            
        25     1.50000000E+00   # tanbeta(in)         
        26     2.00000000E+03   # MA_pole             
        31     1.00000000E+05   # M_eL                
        32     1.00000000E+05   # M_muL               
        33     1.00000000E+05   # M_tauL              
        34     1.00000000E+05   # M_eR                
        35     1.00000000E+05   # M_muR               
        36     1.00000000E+05   # M_tauR              
        41     3.00000000E+03   # M_q1L               
        42     3.00000000E+03   # M_q2L               
        43     3.00000000E+03   # M_q3L               
        44     1.00000000E+05   # M_uR                
        45     1.00000000E+05   # M_cR                
        46     1.00000000E+05   # M_tR                
        47     3.00000000E+03   # M_dR                
        48     3.00000000E+03   # M_sR                
        49     3.00000000E+03   # M_bR                
#
BLOCK MASS  # Mass Spectrum
# PDG code           mass       particle
        24     8.06221093E+01   # W+
        25     1.25000000E+02   # h
        35     2.01006111E+03   # H
        36     2.00000000E+03   # A
        37     2.02280169E+03   # H+
         5     4.87877839E+00   # b-quark pole mass calculated from mb(mb)_Msbar
   1000001     3.00021879E+03   # ~d_L
   2000001     3.00004255E+03   # ~d_R
   1000002     2.99982375E+03   # ~u_L
   2000002     9.99999974E+04   # ~u_R
   1000003     3.00021879E+03   # ~s_L
   2000003     3.00004255E+03   # ~s_R
   1000004     2.99982375E+03   # ~c_L
   2000004     9.99999974E+04   # ~c_R
   1000005     2.95173586E+03   # ~b_1
   2000005     3.04775834E+03   # ~b_2
   1000006     3.00183331E+03   # ~t_1
   2000006     1.00000154E+05   # ~t_2
   1000011     1.00000004E+05   # ~e_L
   2000011     1.00000004E+05   # ~e_R
   1000012     9.99999922E+04   # ~nu_eL
   1000013     1.00000004E+05   # ~mu_L
   2000013     1.00000004E+05   # ~mu_R
   1000014     9.99999922E+04   # ~nu_muL
   1000015     9.99986724E+04   # ~tau_1
   2000015     1.00001335E+05   # ~tau_2
   1000016     9.99999922E+04   # ~nu_tauL
   1000021     2.40000000E+03   # ~g
   1000022     4.99816084E+01   # ~chi_10
   1000023     9.99230325E+04   # ~chi_20
   1000025    -1.00000002E+05   # ~chi_30
   1000035     1.00076988E+05   # ~chi_40
   1000024     9.99230235E+04   # ~chi_1+
   1000037     1.00076979E+05   # ~chi_2+
   1000039     1.00000000E-09   # ~gravitino
#
BLOCK NMIX  # Neutralino Mixing Matrix
  1  1     9.99999900E-01   # N_11
  1  2    -3.23701979E-07   # N_12
  1  3     3.71422550E-04   # N_13
  1  4    -2.47718114E-04   # N_14
  2  1     3.09785893E-04   # N_21
  2  2     7.07148053E-01   # N_22
  2  3    -5.00009262E-01   # N_23
  2  4     4.99932269E-01   # N_24
  3  1     8.74721547E-05   # N_31
  3  2    -7.69776344E-05   # N_32
  3  3    -7.07106742E-01   # N_33
  3  4    -7.07106811E-01   # N_34
  4  1     3.09354725E-04   # N_41
  4  2    -7.07065508E-01   # N_42
  4  3    -4.99990652E-01   # N_43
  4  4     5.00067615E-01   # N_44
#
BLOCK UMIX  # Chargino Mixing Matrix U
  1  1    -7.07052348E-01   # U_11
  1  2     7.07161210E-01   # U_12
  2  1     7.07161210E-01   # U_21
  2  2     7.07052348E-01   # U_22
#
BLOCK VMIX  # Chargino Mixing Matrix V
  1  1    -7.07161210E-01   # V_11
  1  2     7.07052348E-01   # V_12
  2  1     7.07052348E-01   # V_21
  2  2     7.07161210E-01   # V_22
#
BLOCK STOPMIX  # Stop Mixing Matrix
  1  1     9.99999516E-01   # cos(theta_t)
  1  2     9.83869791E-04   # sin(theta_t)
  2  1    -9.83869791E-04   # -sin(theta_t)
  2  2     9.99999516E-01   # cos(theta_t)
#
BLOCK SBOTMIX  # Sbottom Mixing Matrix
  1  1     7.06457503E-01   # cos(theta_b)
  1  2     7.07755464E-01   # sin(theta_b)
  2  1    -7.07755464E-01   # -sin(theta_b)
  2  2     7.06457503E-01   # cos(theta_b)
#
BLOCK STAUMIX  # Stau Mixing Matrix
  1  1     7.07082713E-01   # cos(theta_tau)
  1  2     7.07130849E-01   # sin(theta_tau)
  2  1    -7.07130849E-01   # -sin(theta_tau)
  2  2     7.07082713E-01   # cos(theta_tau)
#
BLOCK ALPHA  # Higgs mixing
          -6.42545919E-01   # Mixing angle in the neutral Higgs boson sector
#
BLOCK HMIX Q=  9.11876000E+01  # DRbar Higgs Parameters
         1     1.00000000E+05   # mu(Q)               
         2     1.49999982E+00   # tanbeta(Q)          
         3     2.55086791E+02   # vev(Q)              
         4    -2.17812625E+09   # MA^2(Q)             
#
BLOCK GAUGE Q=  9.11876000E+01  # The gauge couplings
     1     3.49846289E-01   # gprime(Q) DRbar
     2     6.15438846E-01   # g(Q) DRbar
     3     1.07194696E+00   # g3(Q) DRbar
#
BLOCK AU Q=  9.11876000E+01  # The trilinear couplings
  1  1     0.00000000E+00   # A_u(Q) DRbar
  2  2     0.00000000E+00   # A_c(Q) DRbar
  3  3     0.00000000E+00   # A_t(Q) DRbar
#
BLOCK AD Q=  9.11876000E+01  # The trilinear couplings
  1  1     0.00000000E+00   # A_d(Q) DRbar
  2  2     0.00000000E+00   # A_s(Q) DRbar
  3  3     0.00000000E+00   # A_b(Q) DRbar
#
BLOCK AE Q=  9.11876000E+01  # The trilinear couplings
  1  1     0.00000000E+00   # A_e(Q) DRbar
  2  2     0.00000000E+00   # A_mu(Q) DRbar
  3  3     0.00000000E+00   # A_tau(Q) DRbar
#
BLOCK Yu Q=  9.11876000E+01  # The Yukawa couplings
  1  1     0.00000000E+00   # y_u(Q) DRbar
  2  2     0.00000000E+00   # y_c(Q) DRbar
  3  3     9.82014645E-01   # y_t(Q) DRbar
#
BLOCK Yd Q=  9.11876000E+01  # The Yukawa couplings
  1  1     0.00000000E+00   # y_d(Q) DRbar
  2  2     0.00000000E+00   # y_s(Q) DRbar
  3  3     1.91909259E-02   # y_b(Q) DRbar
#
BLOCK Ye Q=  9.11876000E+01  # The Yukawa couplings
  1  1     0.00000000E+00   # y_e(Q) DRbar
  2  2     0.00000000E+00   # y_mu(Q) DRbar
  3  3     1.77427213E-02   # y_tau(Q) DRbar
#
BLOCK MSOFT Q=  9.11876000E+01  # The soft SUSY breaking masses at the scale Q
         1     5.00000000E+01   # M_1                 
         2     1.00000000E+05   # M_2                 
         3     2.40000000E+03   # M_3                 
        14     0.00000000E+00   # A_u                 
        15     0.00000000E+00   # A_d                 
        16     0.00000000E+00   # A_e                 
        21    -1.06408077E+10   # M^2_Hd              
        22    -1.00410971E+10   # M^2_Hu              
        31     1.00000000E+05   # M_eL                
        32     1.00000000E+05   # M_muL               
        33     1.00000000E+05   # M_tauL              
        34     1.00000000E+05   # M_eR                
        35     1.00000000E+05   # M_muR               
        36     1.00000000E+05   # M_tauR              
        41     3.00000000E+03   # M_q1L               
        42     3.00000000E+03   # M_q2L               
        43     3.00000000E+03   # M_q3L               
        44     1.00000000E+05   # M_uR                
        45     1.00000000E+05   # M_cR                
        46     1.00000000E+05   # M_tR                
        47     3.00000000E+03   # M_dR                
        48     3.00000000E+03   # M_sR                
        49     3.00000000E+03   # M_bR                
#
#
#
#                             =================
#                             |The decay table|
#                             =================
#
# - The QCD corrections to the decays gluino -> squark  + quark
#                                     squark -> gaugino + quark_prime
#                                     squark -> squark_prime + Higgs
#                                     squark -> gluino  + quark
#   are included.
#
# - The multi-body decays for the inos, stops and sbottoms are included.
#
# - The loop induced decays for the gluino, neutralinos and stops
#   are included.
#
# - The SUSY decays of the top quark are included.
#
# - Possible decays of the NLSP in GMSB models are included.
#
#
#         PDG            Width
DECAY         6     1.30570366E+00   # top decays
#          BR         NDA      ID1       ID2
     1.00000000E+00    2           5        24   # BR(t ->  b    W+)
#
#         PDG            Width
DECAY   1000021     1.E-04   # gluino decays (OJ Mods)
#          BR         NDA      ID1       ID2
     4.06405721E-02    2     1000022        21   # BR(~g -> ~chi_10 g)
#          BR         NDA      ID1       ID2
     2.86694409E-02    2     1000039        21   # BR(~g -> ~G      g)
#           BR         NDA      ID1       ID2       ID3
     2.59603132E-01    3     1000022         1        -1   # BR(~g -> ~chi_10 d  db)
     5.19470390E-02    3     1000022         2        -2   # BR(~g -> ~chi_10 u  ub)
     2.59603132E-01    3     1000022         3        -3   # BR(~g -> ~chi_10 s  sb)
     5.19470390E-02    3     1000022         4        -4   # BR(~g -> ~chi_10 c  cb)
     2.61265389E-01    3     1000022         5        -5   # BR(~g -> ~chi_10 b  bb)
     4.63242564E-02    3     1000022         6        -6   # BR(~g -> ~chi_10 t  tb)
#
#         PDG            Width
DECAY   1000006     2.63518452E+01   # stop1 decays
#          BR         NDA      ID1       ID2
     1.44910329E-02    2     1000022         6   # BR(~t_1 -> ~chi_10 t )
     9.85508967E-01    2     1000021         6   # BR(~t_1 -> ~g      t )
#
#         PDG            Width
DECAY   2000006     4.76297754E+03   # stop2 decays
#          BR         NDA      ID1       ID2
     4.40475317E-02    2     1000022         6   # BR(~t_2 -> ~chi_10 t )
     3.26683301E-07    2     1000024         5   # BR(~t_2 -> ~chi_1+ b )
     5.54328950E-01    2     1000021         6   # BR(~t_2 -> ~g      t )
     2.44902709E-02    2     1000006        25   # BR(~t_2 -> ~t_1    h )
     4.77762065E-02    2     1000006        35   # BR(~t_2 -> ~t_1    H )
     5.14332608E-02    2     1000006        36   # BR(~t_2 -> ~t_1    A )
     5.11793863E-02    2     1000005        37   # BR(~t_2 -> ~b_1    H+)
     5.17540862E-02    2     2000005        37   # BR(~t_2 -> ~b_2    H+)
     5.77227176E-02    2     1000006        23   # BR(~t_2 -> ~t_1    Z )
     5.84420790E-02    2     1000005        24   # BR(~t_2 -> ~b_1    W+)
     5.88251842E-02    2     2000005        24   # BR(~t_2 -> ~b_2    W+)
#
#         PDG            Width
DECAY   1000005     2.44678685E+01   # sbottom1 decays
#          BR         NDA      ID1       ID2
     3.86381252E-02    2     1000022         5   # BR(~b_1 -> ~chi_10 b )
     9.61361875E-01    2     1000021         5   # BR(~b_1 -> ~g      b )
#
#         PDG            Width
DECAY   2000005     3.07472840E+01   # sbottom2 decays
#          BR         NDA      ID1       ID2
     3.16212899E-02    2     1000022         5   # BR(~b_2 -> ~chi_10 b )
     9.67563786E-01    2     1000021         5   # BR(~b_2 -> ~g      b )
     8.14923797E-04    2     1000005        23   # BR(~b_2 -> ~b_1    Z )
#
#         PDG            Width
DECAY   1000002     1.49028326E+01   # sup_L decays
#          BR         NDA      ID1       ID2
     2.57414883E-02    2     1000022         2   # BR(~u_L -> ~chi_10 u)
     9.74258512E-01    2     1000021         2   # BR(~u_L -> ~g      u)
#
#         PDG            Width
DECAY   2000002     3.94164156E+03   # sup_R decays
#          BR         NDA      ID1       ID2
     5.32263254E-02    2     1000022         2   # BR(~u_R -> ~chi_10 u)
     6.44501894E-13    2     1000023         2   # BR(~u_R -> ~chi_20 u)
     9.46773675E-01    2     1000021         2   # BR(~u_R -> ~g      u)
#
#         PDG            Width
DECAY   1000001     1.49184024E+01   # sdown_L decays
#          BR         NDA      ID1       ID2
     2.57182799E-02    2     1000022         1   # BR(~d_L -> ~chi_10 d)
     9.74281720E-01    2     1000021         1   # BR(~d_L -> ~g      d)
#
#         PDG            Width
DECAY   2000001     1.60624090E+01   # sdown_R decays
#          BR         NDA      ID1       ID2
     9.55401316E-02    2     1000022         1   # BR(~d_R -> ~chi_10 d)
     9.04459868E-01    2     1000021         1   # BR(~d_R -> ~g      d)
#
#         PDG            Width
DECAY   1000004     1.49028326E+01   # scharm_L decays
#          BR         NDA      ID1       ID2
     2.57414883E-02    2     1000022         4   # BR(~c_L -> ~chi_10 c)
     9.74258512E-01    2     1000021         4   # BR(~c_L -> ~g      c)
#
#         PDG            Width
DECAY   2000004     3.94164156E+03   # scharm_R decays
#          BR         NDA      ID1       ID2
     5.32263254E-02    2     1000022         4   # BR(~c_R -> ~chi_10 c)
     6.44501894E-13    2     1000023         4   # BR(~c_R -> ~chi_20 c)
     9.46773675E-01    2     1000021         4   # BR(~c_R -> ~g      c)
#
#         PDG            Width
DECAY   1000003     1.49184024E+01   # sstrange_L decays
#          BR         NDA      ID1       ID2
     2.57182799E-02    2     1000022         3   # BR(~s_L -> ~chi_10 s)
     9.74281720E-01    2     1000021         3   # BR(~s_L -> ~g      s)
#
#         PDG            Width
DECAY   2000003     1.60624090E+01   # sstrange_R decays
#          BR         NDA      ID1       ID2
     9.55401316E-02    2     1000022         3   # BR(~s_R -> ~chi_10 s)
     9.04459868E-01    2     1000021         3   # BR(~s_R -> ~g      s)
#
#         PDG            Width
DECAY   1000011     1.21747117E+02   # selectron_L decays
#          BR         NDA      ID1       ID2
     9.99989005E-01    2     1000022        11   # BR(~e_L -> ~chi_10 e-)
     3.66634875E-06    2     1000023        11   # BR(~e_L -> ~chi_20 e-)
     3.67785154E-24    2     1000025        11   # BR(~e_L -> ~chi_30 e-)
     7.32877602E-06    2    -1000024        12   # BR(~e_L -> ~chi_1- nu_e)
#
#         PDG            Width
DECAY   2000011     4.86983668E+02   # selectron_R decays
#          BR         NDA      ID1       ID2
     1.00000000E+00    2     1000022        11   # BR(~e_R -> ~chi_10 e-)
     2.27252719E-13    2     1000023        11   # BR(~e_R -> ~chi_20 e-)
     1.22422120E-23    2     1000025        11   # BR(~e_R -> ~chi_30 e-)
#
#         PDG            Width
DECAY   1000013     1.21747117E+02   # smuon_L decays
#          BR         NDA      ID1       ID2
     9.99989005E-01    2     1000022        13   # BR(~mu_L -> ~chi_10 mu-)
     3.66634875E-06    2     1000023        13   # BR(~mu_L -> ~chi_20 mu-)
     3.67785154E-24    2     1000025        13   # BR(~mu_L -> ~chi_30 mu-)
     7.32877602E-06    2    -1000024        14   # BR(~mu_L -> ~chi_1- nu_mu)
#
#         PDG            Width
DECAY   2000013     4.86983668E+02   # smuon_R decays
#          BR         NDA      ID1       ID2
     1.00000000E+00    2     1000022        13   # BR(~mu_R -> ~chi_10 mu-)
     2.27252719E-13    2     1000023        13   # BR(~mu_R -> ~chi_20 mu-)
     1.22422120E-23    2     1000025        13   # BR(~mu_R -> ~chi_30 mu-)
#
#         PDG            Width
DECAY   1000015     1.18165572E+04   # stau_1 decays
#          BR         NDA      ID1       ID2
     2.57584628E-02    2     1000022        15   # BR(~tau_1 -> ~chi_10  tau-)
     1.92896523E-08    2     1000023        15   # BR(~tau_1 -> ~chi_20  tau-)
     3.85910929E-08    2    -1000024        16   # BR(~tau_1 -> ~chi_1-  nu_tau)
     9.74241479E-01    2     1000039        15   # BR(~tau_1 -> ~G       tau-)
#
#         PDG            Width
DECAY   2000015     3.04353748E+02   # stau_2 decays
#          BR         NDA      ID1       ID2
     9.99997854E-01    2     1000022        15   # BR(~tau_2 -> ~chi_10  tau-)
     7.15290411E-07    2     1000023        15   # BR(~tau_2 -> ~chi_20  tau-)
     1.43079685E-06    2    -1000024        16   # BR(~tau_2 -> ~chi_1-  nu_tau)
#
#         PDG            Width
DECAY   1000012     1.21747379E+02   # snu_eL decays
#          BR         NDA      ID1       ID2
     9.99989010E-01    2     1000022        12   # BR(~nu_eL -> ~chi_10 nu_e)
     3.66156856E-06    2     1000023        12   # BR(~nu_eL -> ~chi_20 nu_e)
     7.32877158E-06    2     1000024        11   # BR(~nu_eL -> ~chi_1+ e-)
#
#         PDG            Width
DECAY   1000014     1.21747379E+02   # snu_muL decays
#          BR         NDA      ID1       ID2
     9.99989010E-01    2     1000022        14   # BR(~nu_muL -> ~chi_10 nu_mu)
     3.66156856E-06    2     1000023        14   # BR(~nu_muL -> ~chi_20 nu_mu)
     7.32877158E-06    2     1000024        13   # BR(~nu_muL -> ~chi_1+ mu-)
#
#         PDG            Width
DECAY   1000016     1.21747379E+02   # snu_tauL decays
#          BR         NDA      ID1       ID2
     9.99989015E-01    2     1000022        16   # BR(~nu_tauL -> ~chi_10 nu_tau)
     3.66156858E-06    2     1000023        16   # BR(~nu_tauL -> ~chi_20 nu_tau)
     7.32315662E-06    2     1000024        15   # BR(~nu_tauL -> ~chi_1+ tau-)
#
#         PDG            Width
DECAY   1000024     3.90538038E+03   # chargino1+ decays
#          BR         NDA      ID1       ID2
     3.55748132E-02    2     1000002        -1   # BR(~chi_1+ -> ~u_L     db)
     3.55638481E-02    2    -1000001         2   # BR(~chi_1+ -> ~d_L*    u )
     3.55748132E-02    2     1000004        -3   # BR(~chi_1+ -> ~c_L     sb)
     3.55638481E-02    2    -1000003         4   # BR(~chi_1+ -> ~s_L*    c )
     3.16476499E-02    2     1000006        -5   # BR(~chi_1+ -> ~t_1     bb)
     3.87314712E-02    2    -1000005         6   # BR(~chi_1+ -> ~b_1*    t )
     3.75860392E-02    2    -2000005         6   # BR(~chi_1+ -> ~b_2*    t )
     1.88040205E-03    2     1000022        24   # BR(~chi_1+ -> ~chi_10  W+)
     1.97875583E-03    2     1000022        37   # BR(~chi_1+ -> ~chi_10  H+)
     5.59641598E-01    2     1000039        24   # BR(~chi_1+ -> ~G       W+)
     1.86256761E-01    2     1000039        37   # BR(~chi_1+ -> ~G       H+)
#
#         PDG            Width
DECAY   1000037     3.90974297E+03   # chargino2+ decays
#          BR         NDA      ID1       ID2
     3.54046545E-02    2     1000002        -1   # BR(~chi_2+ -> ~u_L     db)
     3.54155447E-02    2    -1000001         2   # BR(~chi_2+ -> ~d_L*    u )
     3.54046545E-02    2     1000004        -3   # BR(~chi_2+ -> ~c_L     sb)
     3.54155447E-02    2    -1000003         4   # BR(~chi_2+ -> ~s_L*    c )
     3.14114461E-02    2     1000006        -5   # BR(~chi_2+ -> ~t_1     bb)
     2.34140935E-07    2     2000006        -5   # BR(~chi_2+ -> ~t_2     bb)
     3.70266629E-02    2    -1000005         6   # BR(~chi_2+ -> ~b_1*    t )
     3.87888642E-02    2    -2000005         6   # BR(~chi_2+ -> ~b_2*    t )
     2.88351613E-08    2     1000012       -11   # BR(~chi_2+ -> ~nu_eL   e+  )
     2.88351613E-08    2     1000014       -13   # BR(~chi_2+ -> ~nu_muL  mu+ )
     2.88130639E-08    2     1000016       -15   # BR(~chi_2+ -> ~nu_tau1 tau+)
     2.88352033E-08    2    -1000011        12   # BR(~chi_2+ -> ~e_L+    nu_e)
     2.88352033E-08    2    -1000013        14   # BR(~chi_2+ -> ~mu_L+   nu_mu)
     1.40717561E-08    2    -1000015        16   # BR(~chi_2+ -> ~tau_1+  nu_tau)
     1.47387025E-08    2    -2000015        16   # BR(~chi_2+ -> ~tau_2+  nu_tau)
     7.38365957E-05    2     1000024        23   # BR(~chi_2+ -> ~chi_1+  Z )
     1.86687779E-03    2     1000022        24   # BR(~chi_2+ -> ~chi_10  W+)
     8.43944902E-05    2     1000023        24   # BR(~chi_2+ -> ~chi_20  W+)
     3.57692101E-13    2     1000024        25   # BR(~chi_2+ -> ~chi_1+  h )
     1.96313976E-03    2     1000022        37   # BR(~chi_2+ -> ~chi_10  H+)
     5.60597570E-01    2     1000039        24   # BR(~chi_2+ -> ~G       W+)
     1.86546403E-01    2     1000039        37   # BR(~chi_2+ -> ~G       H+)
#
#         PDG            Width
DECAY   1000022     1.E-08   # neutralino1 decays (OJ Mods)
#          BR         NDA      ID1       ID2
     1.00000000E+00    2     1000039        22   # BR(~chi_10 -> ~G        gam)
#
#         PDG            Width
DECAY   1000023     1.E-08   # neutralino2 decays (OJ Mods)
#          BR         NDA      ID1       ID2
     7.44867686E-05    2     1000022        23   # BR(~chi_20 -> ~chi_10   Z )
     1.94311954E-03    2     1000022        25   # BR(~chi_20 -> ~chi_10   h )
     4.02977729E-05    2     1000022        35   # BR(~chi_20 -> ~chi_10   H )
     1.90200712E-03    2     1000022        36   # BR(~chi_20 -> ~chi_10   A )
     1.72346045E-02    2     1000002        -2   # BR(~chi_20 -> ~u_L      ub)
     1.72346045E-02    2    -1000002         2   # BR(~chi_20 -> ~u_L*     u )
     1.72288787E-02    2     1000001        -1   # BR(~chi_20 -> ~d_L      db)
     1.72288787E-02    2    -1000001         1   # BR(~chi_20 -> ~d_L*     d )
     4.74934757E-10    2     2000001        -1   # BR(~chi_20 -> ~d_R      db)
     4.74934757E-10    2    -2000001         1   # BR(~chi_20 -> ~d_R*     d )
     1.72346045E-02    2     1000004        -4   # BR(~chi_20 -> ~c_L      cb)
     1.72346045E-02    2    -1000004         4   # BR(~chi_20 -> ~c_L*     c )
     1.72288787E-02    2     1000003        -3   # BR(~chi_20 -> ~s_L      sb)
     1.72288787E-02    2    -1000003         3   # BR(~chi_20 -> ~s_L*     s )
     4.74934757E-10    2     2000003        -3   # BR(~chi_20 -> ~s_R      sb)
     4.74934757E-10    2    -2000003         3   # BR(~chi_20 -> ~s_R*     s )
     3.81491021E-02    2     1000006        -6   # BR(~chi_20 -> ~t_1      tb)
     3.81491021E-02    2    -1000006         6   # BR(~chi_20 -> ~t_1*     t )
     8.24352350E-03    2     1000005        -5   # BR(~chi_20 -> ~b_1      bb)
     8.24352350E-03    2    -1000005         5   # BR(~chi_20 -> ~b_1*     b )
     7.56707761E-03    2     2000005        -5   # BR(~chi_20 -> ~b_2      bb)
     7.56707761E-03    2    -2000005         5   # BR(~chi_20 -> ~b_2*     b )
     9.12629320E-02    2     1000039        22   # BR(~chi_20 -> ~G        gam)
     4.61188168E-01    2     1000039        23   # BR(~chi_20 -> ~G        Z)
     3.77627434E-03    2     1000039        25   # BR(~chi_20 -> ~G        h)
     1.82442949E-01    2     1000039        35   # BR(~chi_20 -> ~G        H)
     7.16767131E-03    2     1000039        36   # BR(~chi_20 -> ~G        A)
#
#         PDG            Width
DECAY   1000025     1.49294978E+03   # neutralino3 decays
#          BR         NDA      ID1       ID2
     4.42068616E-03    2     1000022        23   # BR(~chi_30 -> ~chi_10   Z )
     9.48355353E-05    2     1000022        25   # BR(~chi_30 -> ~chi_10   h )
     4.58046505E-03    2     1000022        35   # BR(~chi_30 -> ~chi_10   H )
     1.80177412E-04    2     1000022        36   # BR(~chi_30 -> ~chi_10   A )
     1.48804263E-10    2     1000002        -2   # BR(~chi_30 -> ~u_L      ub)
     1.48804263E-10    2    -1000002         2   # BR(~chi_30 -> ~u_L*     u )
     2.72914103E-18    2     2000002        -2   # BR(~chi_30 -> ~u_R      ub)
     2.72914103E-18    2    -2000002         2   # BR(~chi_30 -> ~u_R*     u )
     3.56947355E-10    2     1000001        -1   # BR(~chi_30 -> ~d_L      db)
     3.56947355E-10    2    -1000001         1   # BR(~chi_30 -> ~d_L*     d )
     4.48165583E-11    2     2000001        -1   # BR(~chi_30 -> ~d_R      db)
     4.48165583E-11    2    -2000001         1   # BR(~chi_30 -> ~d_R*     d )
     1.48804263E-10    2     1000004        -4   # BR(~chi_30 -> ~c_L      cb)
     1.48804263E-10    2    -1000004         4   # BR(~chi_30 -> ~c_L*     c )
     2.72914103E-18    2     2000004        -4   # BR(~chi_30 -> ~c_R      cb)
     2.72914103E-18    2    -2000004         4   # BR(~chi_30 -> ~c_R*     c )
     3.56947355E-10    2     1000003        -3   # BR(~chi_30 -> ~s_L      sb)
     3.56947355E-10    2    -1000003         3   # BR(~chi_30 -> ~s_L*     s )
     4.48165583E-11    2     2000003        -3   # BR(~chi_30 -> ~s_R      sb)
     4.48165583E-11    2    -2000003         3   # BR(~chi_30 -> ~s_R*     s )
     5.27621741E-02    2     1000006        -6   # BR(~chi_30 -> ~t_1      tb)
     5.27621741E-02    2    -1000006         6   # BR(~chi_30 -> ~t_1*     t )
     1.73127425E-05    2     1000005        -5   # BR(~chi_30 -> ~b_1      bb)
     1.73127425E-05    2    -1000005         5   # BR(~chi_30 -> ~b_1*     b )
     1.76245652E-05    2     2000005        -5   # BR(~chi_30 -> ~b_2      bb)
     1.76245652E-05    2    -2000005         5   # BR(~chi_30 -> ~b_2*     b )
     8.93874086E-24    2     1000012       -12   # BR(~chi_30 -> ~nu_eL    nu_eb)
     8.93874086E-24    2    -1000012        12   # BR(~chi_30 -> ~nu_eL*   nu_e )
     8.93874086E-24    2     1000014       -14   # BR(~chi_30 -> ~nu_muL   nu_mub)
     8.93874086E-24    2    -1000014        14   # BR(~chi_30 -> ~nu_muL*  nu_mu )
     8.93874086E-24    2     1000016       -16   # BR(~chi_30 -> ~nu_tau1  nu_taub)
     8.93874086E-24    2    -1000016        16   # BR(~chi_30 -> ~nu_tau1* nu_tau )
     1.27935259E-09    2     1000039        22   # BR(~chi_30 -> ~G        gam)
     1.70351042E-02    2     1000039        23   # BR(~chi_30 -> ~G        Z)
     4.33934101E-01    2     1000039        25   # BR(~chi_30 -> ~G        h)
     8.96261967E-03    2     1000039        35   # BR(~chi_30 -> ~G        H)
     4.25197785E-01    2     1000039        36   # BR(~chi_30 -> ~G        A)
#
#         PDG            Width
DECAY   1000035     3.91052703E+03   # neutralino4 decays
#          BR         NDA      ID1       ID2
     7.42866946E-05    2     1000022        23   # BR(~chi_40 -> ~chi_10   Z )
     2.94146490E-19    2     1000023        23   # BR(~chi_40 -> ~chi_20   Z )
     8.43719858E-05    2     1000024       -24   # BR(~chi_40 -> ~chi_1+   W-)
     8.43719858E-05    2    -1000024        24   # BR(~chi_40 -> ~chi_1-   W+)
     1.92922367E-03    2     1000022        25   # BR(~chi_40 -> ~chi_10   h )
     3.97483630E-05    2     1000022        35   # BR(~chi_40 -> ~chi_10   H )
     1.88781622E-03    2     1000022        36   # BR(~chi_40 -> ~chi_10   A )
     1.25476460E-12    2     1000023        25   # BR(~chi_40 -> ~chi_20   h )
     1.71482438E-02    2     1000002        -2   # BR(~chi_40 -> ~u_L      ub)
     1.71482438E-02    2    -1000002         2   # BR(~chi_40 -> ~u_L*     u )
     4.86894749E-13    2     2000002        -2   # BR(~chi_40 -> ~u_R      ub)
     4.86894749E-13    2    -2000002         2   # BR(~chi_40 -> ~u_R*     u )
     1.71539271E-02    2     1000001        -1   # BR(~chi_40 -> ~d_L      db)
     1.71539271E-02    2    -1000001         1   # BR(~chi_40 -> ~d_L*     d )
     4.71506865E-10    2     2000001        -1   # BR(~chi_40 -> ~d_R      db)
     4.71506865E-10    2    -2000001         1   # BR(~chi_40 -> ~d_R*     d )
     1.71482438E-02    2     1000004        -4   # BR(~chi_40 -> ~c_L      cb)
     1.71482438E-02    2    -1000004         4   # BR(~chi_40 -> ~c_L*     c )
     4.86894749E-13    2     2000004        -4   # BR(~chi_40 -> ~c_R      cb)
     4.86894749E-13    2    -2000004         4   # BR(~chi_40 -> ~c_R*     c )
     1.71539271E-02    2     1000003        -3   # BR(~chi_40 -> ~s_L      sb)
     1.71539271E-02    2    -1000003         3   # BR(~chi_40 -> ~s_L*     s )
     4.71506865E-10    2     2000003        -3   # BR(~chi_40 -> ~s_R      sb)
     4.71506865E-10    2    -2000003         3   # BR(~chi_40 -> ~s_R*     s )
     3.78459255E-02    2     1000006        -6   # BR(~chi_40 -> ~t_1      tb)
     3.78459255E-02    2    -1000006         6   # BR(~chi_40 -> ~t_1*     t )
     7.48209385E-03    2     1000005        -5   # BR(~chi_40 -> ~b_1      bb)
     7.48209385E-03    2    -1000005         5   # BR(~chi_40 -> ~b_1*     b )
     8.26067021E-03    2     2000005        -5   # BR(~chi_40 -> ~b_2      bb)
     8.26067021E-03    2    -2000005         5   # BR(~chi_40 -> ~b_2*     b )
     1.44091871E-08    2     1000011       -11   # BR(~chi_40 -> ~e_L-     e+)
     1.44091871E-08    2    -1000011        11   # BR(~chi_40 -> ~e_L+     e-)
     3.56692895E-15    2     2000011       -11   # BR(~chi_40 -> ~e_R-     e+)
     3.56692895E-15    2    -2000011        11   # BR(~chi_40 -> ~e_R+     e-)
     1.44091871E-08    2     1000013       -13   # BR(~chi_40 -> ~mu_L-    mu+)
     1.44091871E-08    2    -1000013        13   # BR(~chi_40 -> ~mu_L+    mu-)
     3.56692895E-15    2     2000013       -13   # BR(~chi_40 -> ~mu_R-    mu+)
     3.56692895E-15    2    -2000013        13   # BR(~chi_40 -> ~mu_R+    mu-)
     7.02642348E-09    2     1000015       -15   # BR(~chi_40 -> ~tau_1-   tau+)
     7.02642348E-09    2    -1000015        15   # BR(~chi_40 -> ~tau_1+   tau-)
     7.35935229E-09    2     2000015       -15   # BR(~chi_40 -> ~tau_2-   tau+)
     7.35935229E-09    2    -2000015        15   # BR(~chi_40 -> ~tau_2+   tau-)
     1.44279492E-08    2     1000012       -12   # BR(~chi_40 -> ~nu_eL    nu_eb)
     1.44279492E-08    2    -1000012        12   # BR(~chi_40 -> ~nu_eL*   nu_e )
     1.44279492E-08    2     1000014       -14   # BR(~chi_40 -> ~nu_muL   nu_mub)
     1.44279492E-08    2    -1000014        14   # BR(~chi_40 -> ~nu_muL*  nu_mu )
     1.44279492E-08    2     1000016       -16   # BR(~chi_40 -> ~nu_tau1  nu_taub)
     1.44279492E-08    2    -1000016        16   # BR(~chi_40 -> ~nu_tau1* nu_tau )
     9.11154763E-02    2     1000039        22   # BR(~chi_40 -> ~G        gam)
     4.62239743E-01    2     1000039        23   # BR(~chi_40 -> ~G        Z)
     3.79168024E-03    2     1000039        25   # BR(~chi_40 -> ~G        h)
     1.82788320E-01    2     1000039        35   # BR(~chi_40 -> ~G        H)
     7.17050975E-03    2     1000039        36   # BR(~chi_40 -> ~G        A)
#
#
#
#
