#
#                              ======================
#                              | THE SUSYHIT OUTPUT |
#                              ======================
#
#
#              ------------------------------------------------------
#              |     This is the output of the SUSY-HIT package     |
#              |  created by A.Djouadi, M.Muehlleitner and M.Spira. |
#              |  In case of problems with SUSY-HIT email to        |
#              |           margarete.muehlleitner@cern.ch           |
#              |           michael.spira@psi.ch                     |
#              |           abdelhak.djouadi@cern.ch                 |
#              ------------------------------------------------------
#
#              ------------------------------------------------------
#              |  SUSY Les Houches Accord - MSSM Spectrum + Decays  |
#              |              based on the decay programs           |
#              |                                                    |
#              |                     SDECAY 1.3b                    |
#              |                                                    |
#              |  Authors: M.Muhlleitner, A.Djouadi and Y.Mambrini  |
#              |  Ref.:    Comput.Phys.Commun.168(2005)46           |
#              |           [hep-ph/0311167]                         |
#              |                                                    |
#              |                     HDECAY 3.4                     |
#              |                                                    |
#              |  By: A.Djouadi,J.Kalinowski,M.Muhlleitner,M.Spira  |
#              |  Ref.:    Comput.Phys.Commun.108(1998)56           |
#              |           [hep-ph/9704448]                         |
#              |                                                    |
#              |                                                    |
#              |  If not stated otherwise all DRbar couplings and   |
#              |  soft SUSY breaking masses are given at the scale  |
#              |  Q=  0.91187600E+02
#              |                                                    |
#              ------------------------------------------------------
#
#
BLOCK DCINFO  # Decay Program information
     1   SDECAY/HDECAY # decay calculator
     2   1.3b  /3.4    # version number
#
BLOCK SPINFO  # Spectrum calculator information
     1   SuSpect     # RGE +Spectrum calculator            
     2   2.41         # version number                     
#
BLOCK MODSEL  # Model selection
     1     0   # #general MSSM low scale                           
#
BLOCK SMINPUTS  # Standard Model inputs
         1     1.27934000E+02   # alpha_em^-1(M_Z)^MSbar
         2     1.16639000E-05   # G_F [GeV^-2]
         3     1.17200000E-01   # alpha_S(M_Z)^MSbar
         4     9.11870000E+01   # M_Z pole mass
         5     4.25000000E+00   # mb(mb)^MSbar
         6     1.72500000E+02   # mt pole mass
         7     1.77700000E+00   # mtau pole mass
#
BLOCK MINPAR  # Input parameters - minimal models
#
BLOCK EXTPAR  # Input parameters - non-minimal models
         0     9.11876000E+01   # EWSB                
         1     1.99000000E+03   # M_1                 
         2     1.00000000E+05   # M_2                 
         3     1.00000000E+05   # M_3                 
        11     0.00000000E+00   # A_t                 
        12     0.00000000E+00   # A_b                 
        13     0.00000000E+00   # A_tau               
        14     0.00000000E+00   # A_u                 
        15     0.00000000E+00   # A_d                 
        16     0.00000000E+00   # A_e                 
        23     3.50000000E+03   # mu(EWSB)            
        25     1.50000000E+00   # tanbeta(in)         
        26     2.00000000E+03   # MA_pole             
        31     1.00000000E+05   # M_eL                
        32     1.00000000E+05   # M_muL               
        33     1.00000000E+05   # M_tauL              
        34     1.00000000E+05   # M_eR                
        35     1.00000000E+05   # M_muR               
        36     1.00000000E+05   # M_tauR              
        41     2.00000000E+03   # M_q1L               
        42     2.00000000E+03   # M_q2L               
        43     2.00000000E+03   # M_q3L               
        44     1.00000000E+05   # M_uR                
        45     1.00000000E+05   # M_cR                
        46     1.00000000E+05   # M_tR                
        47     2.00000000E+03   # M_dR                
        48     2.00000000E+03   # M_sR                
        49     2.00000000E+03   # M_bR                
#
BLOCK MASS  # Mass Spectrum
# PDG code           mass       particle
        24     8.05845588E+01   # W+
        25     1.25000000E+02   # h
        35     2.00405206E+03   # H
        36     2.00000000E+03   # A
        37     2.02368677E+03   # H+
         5     4.87877839E+00   # b-quark pole mass calculated from mb(mb)_Msbar
   1000001     2.00033155E+03   # ~d_L
   2000001     2.00006398E+03   # ~d_R
   1000002     1.99973238E+03   # ~u_L
   2000002     9.99999974E+04   # ~u_R
   1000003     2.00033155E+03   # ~s_L
   2000003     2.00006398E+03   # ~s_R
   1000004     1.99973238E+03   # ~c_L
   2000004     9.99999974E+04   # ~c_R
   1000005     1.99679887E+03   # ~b_1
   2000005     2.00359424E+03   # ~b_2
   1000006     2.00516113E+03   # ~t_1
   2000006     1.00000106E+05   # ~t_2
   1000011     1.00000004E+05   # ~e_L
   2000011     1.00000004E+05   # ~e_R
   1000012     9.99999921E+04   # ~nu_eL
   1000013     1.00000004E+05   # ~mu_L
   2000013     1.00000004E+05   # ~mu_R
   1000014     9.99999921E+04   # ~nu_muL
   1000015     9.99999574E+04   # ~tau_1
   2000015     1.00000051E+05   # ~tau_2
   1000016     9.99999921E+04   # ~nu_tauL
   1000021     1.00000000E+05   # ~g
   1000022     1.98874392E+03   # ~chi_10
   1000023    -3.50001630E+03   # ~chi_20
   1000025     3.50120797E+03   # ~chi_30
   1000035     1.00000064E+05   # ~chi_40
   1000024     3.49994023E+03   # ~chi_1+
   1000037     1.00000064E+05   # ~chi_2+
   1000039     1.00000000E-09   # ~gravitino
#
BLOCK NMIX  # Neutralino Mixing Matrix
  1  1     9.99578773E-01   # N_11
  1  2    -2.26339272E-05   # N_12
  1  3     2.16189568E-02   # N_13
  1  4    -1.93622275E-02   # N_14
  2  1     1.59607806E-03   # N_21
  2  2    -1.49585731E-04   # N_22
  2  3    -7.07097640E-01   # N_23
  2  4    -7.07114106E-01   # N_24
  3  1     2.89780641E-02   # N_31
  3  2     8.01815693E-04   # N_32
  3  3    -7.06785212E-01   # N_33
  3  4     7.06833992E-01   # N_34
  4  1     3.71922948E-07   # N_41
  4  2    -9.99999667E-01   # N_42
  4  3    -4.61429233E-04   # N_43
  4  4     6.72963235E-04   # N_44
#
BLOCK UMIX  # Chargino Mixing Matrix U
  1  1    -6.52559271E-04   # U_11
  1  2     9.99999787E-01   # U_12
  2  1     9.99999787E-01   # U_21
  2  2     6.52559271E-04   # U_22
#
BLOCK VMIX  # Chargino Mixing Matrix V
  1  1    -9.51713643E-04   # V_11
  1  2     9.99999547E-01   # V_12
  2  1     9.99999547E-01   # V_21
  2  2     9.51713643E-04   # V_22
#
BLOCK STOPMIX  # Stop Mixing Matrix
  1  1     9.99999999E-01   # cos(theta_t)
  1  2     4.47213589E-05   # sin(theta_t)
  2  1    -4.47213589E-05   # -sin(theta_t)
  2  2     9.99999999E-01   # cos(theta_t)
#
BLOCK SBOTMIX  # Sbottom Mixing Matrix
  1  1     6.93045622E-01   # cos(theta_b)
  1  2     7.20893727E-01   # sin(theta_b)
  2  1    -7.20893727E-01   # -sin(theta_b)
  2  2     6.93045622E-01   # cos(theta_b)
#
BLOCK STAUMIX  # Stau Mixing Matrix
  1  1     7.06218495E-01   # cos(theta_tau)
  1  2     7.07993953E-01   # sin(theta_tau)
  2  1    -7.07993953E-01   # -sin(theta_tau)
  2  2     7.06218495E-01   # cos(theta_tau)
#
BLOCK ALPHA  # Higgs mixing
          -5.90341777E-01   # Mixing angle in the neutral Higgs boson sector
#
BLOCK HMIX Q=  9.11876000E+01  # DRbar Higgs Parameters
         1     3.50000000E+03   # mu(Q)               
         2     1.49999982E+00   # tanbeta(Q)          
         3     2.54892723E+02   # vev(Q)              
         4    -6.81381649E+07   # MA^2(Q)             
#
BLOCK GAUGE Q=  9.11876000E+01  # The gauge couplings
     1     3.50560096E-01   # gprime(Q) DRbar
     2     6.19391589E-01   # g(Q) DRbar
     3     1.02218813E+00   # g3(Q) DRbar
#
BLOCK AU Q=  9.11876000E+01  # The trilinear couplings
  1  1     0.00000000E+00   # A_u(Q) DRbar
  2  2     0.00000000E+00   # A_c(Q) DRbar
  3  3     0.00000000E+00   # A_t(Q) DRbar
#
BLOCK AD Q=  9.11876000E+01  # The trilinear couplings
  1  1     0.00000000E+00   # A_d(Q) DRbar
  2  2     0.00000000E+00   # A_s(Q) DRbar
  3  3     0.00000000E+00   # A_b(Q) DRbar
#
BLOCK AE Q=  9.11876000E+01  # The trilinear couplings
  1  1     0.00000000E+00   # A_e(Q) DRbar
  2  2     0.00000000E+00   # A_mu(Q) DRbar
  3  3     0.00000000E+00   # A_tau(Q) DRbar
#
BLOCK Yu Q=  9.11876000E+01  # The Yukawa couplings
  1  1     0.00000000E+00   # y_u(Q) DRbar
  2  2     0.00000000E+00   # y_c(Q) DRbar
  3  3     9.83493353E-01   # y_t(Q) DRbar
#
BLOCK Yd Q=  9.11876000E+01  # The Yukawa couplings
  1  1     0.00000000E+00   # y_d(Q) DRbar
  2  2     0.00000000E+00   # y_s(Q) DRbar
  3  3     2.58755132E-02   # y_b(Q) DRbar
#
BLOCK Ye Q=  9.11876000E+01  # The Yukawa couplings
  1  1     0.00000000E+00   # y_e(Q) DRbar
  2  2     0.00000000E+00   # y_mu(Q) DRbar
  3  3     1.77387053E-02   # y_tau(Q) DRbar
#
BLOCK MSOFT Q=  9.11876000E+01  # The soft SUSY breaking masses at the scale Q
         1     1.99000000E+03   # M_1                 
         2     1.00000000E+05   # M_2                 
         3     1.00000000E+05   # M_3                 
        14     0.00000000E+00   # A_u                 
        15     0.00000000E+00   # A_d                 
        16     0.00000000E+00   # A_e                 
        21     6.30070397E+08   # M^2_Hd              
        22    -1.15018826E+09   # M^2_Hu              
        31     1.00000000E+05   # M_eL                
        32     1.00000000E+05   # M_muL               
        33     1.00000000E+05   # M_tauL              
        34     1.00000000E+05   # M_eR                
        35     1.00000000E+05   # M_muR               
        36     1.00000000E+05   # M_tauR              
        41     2.00000000E+03   # M_q1L               
        42     2.00000000E+03   # M_q2L               
        43     2.00000000E+03   # M_q3L               
        44     1.00000000E+05   # M_uR                
        45     1.00000000E+05   # M_cR                
        46     1.00000000E+05   # M_tR                
        47     2.00000000E+03   # M_dR                
        48     2.00000000E+03   # M_sR                
        49     2.00000000E+03   # M_bR                
#
#
#
#                             =================
#                             |The decay table|
#                             =================
#
# - The QCD corrections to the decays gluino -> squark  + quark
#                                     squark -> gaugino + quark_prime
#                                     squark -> squark_prime + Higgs
#                                     squark -> gluino  + quark
#   are included.
#
# - The multi-body decays for the inos, stops and sbottoms are included.
#
# - The loop induced decays for the gluino, neutralinos and stops
#   are included.
#
# - The SUSY decays of the top quark are included.
#
# - Possible decays of the NLSP in GMSB models are included.
#
#
#         PDG            Width
DECAY         6     1.32407666E+00   # top decays
#          BR         NDA      ID1       ID2
     1.00000000E+00    2           5        24   # BR(t ->  b    W+)
#
#         PDG            Width
DECAY   1000021     1.E-04   # gluino decays (OJ Mods)
#          BR         NDA      ID1       ID2
     1.09809985E-03    2     1000001        -1   # BR(~g -> ~d_L  db)
     1.09809985E-03    2    -1000001         1   # BR(~g -> ~d_L* d )
     1.09810009E-03    2     2000001        -1   # BR(~g -> ~d_R  db)
     1.09810009E-03    2    -2000001         1   # BR(~g -> ~d_R* d )
     1.09810038E-03    2     1000002        -2   # BR(~g -> ~u_L  ub)
     1.09810038E-03    2    -1000002         2   # BR(~g -> ~u_L* u )
     2.97163956E-18    2     2000002        -2   # BR(~g -> ~u_R  ub)
     2.97163956E-18    2    -2000002         2   # BR(~g -> ~u_R* u )
     1.09809985E-03    2     1000003        -3   # BR(~g -> ~s_L  sb)
     1.09809985E-03    2    -1000003         3   # BR(~g -> ~s_L* s )
     1.09810009E-03    2     2000003        -3   # BR(~g -> ~s_R  sb)
     1.09810009E-03    2    -2000003         3   # BR(~g -> ~s_R* s )
     1.09810038E-03    2     1000004        -4   # BR(~g -> ~c_L  cb)
     1.09810038E-03    2    -1000004         4   # BR(~g -> ~c_L* c )
     2.97163956E-18    2     2000004        -4   # BR(~g -> ~c_R  cb)
     2.97163956E-18    2    -2000004         4   # BR(~g -> ~c_R* c )
     2.39304145E-01    2     1000005        -5   # BR(~g -> ~b_1  bb)
     2.39304145E-01    2    -1000005         5   # BR(~g -> ~b_1* b )
     2.37601315E-01    2     2000005        -5   # BR(~g -> ~b_2  bb)
     2.37601315E-01    2    -2000005         5   # BR(~g -> ~b_2* b )
     1.08077195E-03    2     1000006        -6   # BR(~g -> ~t_1  tb)
     1.08077195E-03    2    -1000006         6   # BR(~g -> ~t_1* t )
     3.08503346E-02    2     1000039        21   # BR(~g -> ~G g)
#
#         PDG            Width
DECAY   1000006     8.36580806E-06   # stop1 decays
#          BR         NDA      ID1       ID2
     9.87538296E-01    2     1000022         4   # BR(~t_1 -> ~chi_10 c )
     7.61362065E-03    2     1000022         2   # BR(~t_1 -> ~chi_10 u )
#           BR         NDA      ID1       ID2       ID3
     1.65151044E-03    3     1000005        -1         2   # BR(~t_1 -> ~b_1     db u)
     4.12378562E-07    3     2000005        -1         2   # BR(~t_1 -> ~b_2     db u)
     1.65151044E-03    3     1000005        -3         4   # BR(~t_1 -> ~b_1     sb c)
     4.12378562E-07    3     2000005        -3         4   # BR(~t_1 -> ~b_2     sb c)
     4.42955678E-04    3     1000005       -15        16   # BR(~t_1 -> ~b_1     tau+ nu_tau)
     5.50503479E-04    3     1000005       -11        12   # BR(~t_1 -> ~b_1     e+   nu_e)
     1.37459521E-07    3     2000005       -11        12   # BR(~t_1 -> ~b_2     e+   nu_e)
     5.50503479E-04    3     1000005       -13        14   # BR(~t_1 -> ~b_1     mu+  nu_mu)
     1.37459521E-07    3     2000005       -13        14   # BR(~t_1 -> ~b_2     mu+  nu_mu)
#
#         PDG            Width
DECAY   2000006     1.50626967E+05   # stop2 decays
#          BR         NDA      ID1       ID2
     1.38431888E-03    2     1000022         6   # BR(~t_2 -> ~chi_10 t )
     3.33044052E-03    2     1000023         6   # BR(~t_2 -> ~chi_20 t )
     3.32886246E-03    2     1000025         6   # BR(~t_2 -> ~chi_30 t )
     9.92069062E-01    2     1000024         5   # BR(~t_2 -> ~chi_1+ b )
    -8.98380200E-05    2     1000006        25   # BR(~t_2 -> ~t_1    h )
     9.41124902E-05    2     1000006        35   # BR(~t_2 -> ~t_1    H )
     9.39449673E-05    2     1000006        36   # BR(~t_2 -> ~t_1    A )
     8.85079841E-05    2     1000005        37   # BR(~t_2 -> ~b_1    H+)
     9.93777148E-05    2     2000005        37   # BR(~t_2 -> ~b_2    H+)
    -6.38565682E-05    2     1000006        23   # BR(~t_2 -> ~t_1    Z )
    -1.60875281E-04    2     1000005        24   # BR(~t_2 -> ~b_1    W+)
    -1.74056758E-04    2     2000005        24   # BR(~t_2 -> ~b_2    W+)
#
#         PDG            Width
DECAY   1000005     1.83737460E-03   # sbottom1 decays
#          BR         NDA      ID1       ID2
     1.00000000E+00    2     1000022         5   # BR(~b_1 -> ~chi_10 b )
#
#         PDG            Width
DECAY   2000005     1.54497897E-02   # sbottom2 decays
#          BR         NDA      ID1       ID2
     1.00000000E+00    2     1000022         5   # BR(~b_2 -> ~chi_10 b )
#
#         PDG            Width
DECAY   1000002     2.52331353E-04   # sup_L decays
#          BR         NDA      ID1       ID2
     1.00000000E+00    2     1000022         2   # BR(~u_L -> ~chi_10 u)
#
#         PDG            Width
DECAY   2000002     2.08366566E+02   # sup_R decays
#          BR         NDA      ID1       ID2
     9.99158522E-01    2     1000022         2   # BR(~u_R -> ~chi_10 u)
     2.54505562E-06    2     1000023         2   # BR(~u_R -> ~chi_20 u)
     8.38933043E-04    2     1000025         2   # BR(~u_R -> ~chi_30 u)
#
#         PDG            Width
DECAY   1000001     2.68501383E-04   # sdown_L decays
#          BR         NDA      ID1       ID2
     1.00000000E+00    2     1000022         1   # BR(~d_L -> ~chi_10 d)
#
#         PDG            Width
DECAY   2000001     1.04497406E-03   # sdown_R decays
#          BR         NDA      ID1       ID2
     1.00000000E+00    2     1000022         1   # BR(~d_R -> ~chi_10 d)
#
#         PDG            Width
DECAY   1000004     2.52331353E-04   # scharm_L decays
#          BR         NDA      ID1       ID2
     1.00000000E+00    2     1000022         4   # BR(~c_L -> ~chi_10 c)
#
#         PDG            Width
DECAY   2000004     2.08366566E+02   # scharm_R decays
#          BR         NDA      ID1       ID2
     9.99158522E-01    2     1000022         4   # BR(~c_R -> ~chi_10 c)
     2.54505562E-06    2     1000023         4   # BR(~c_R -> ~chi_20 c)
     8.38933043E-04    2     1000025         4   # BR(~c_R -> ~chi_30 c)
#
#         PDG            Width
DECAY   1000003     2.68501383E-04   # sstrange_L decays
#          BR         NDA      ID1       ID2
     1.00000000E+00    2     1000022         3   # BR(~s_L -> ~chi_10 s)
#
#         PDG            Width
DECAY   2000003     1.04497406E-03   # sstrange_R decays
#          BR         NDA      ID1       ID2
     1.00000000E+00    2     1000022         3   # BR(~s_R -> ~chi_10 s)
#
#         PDG            Width
DECAY   1000011     1.22147190E+02   # selectron_L decays
#          BR         NDA      ID1       ID2
     9.99073272E-01    2     1000022        11   # BR(~e_L -> ~chi_10 e-)
     1.77068916E-06    2     1000023        11   # BR(~e_L -> ~chi_20 e-)
     9.22303257E-04    2     1000025        11   # BR(~e_L -> ~chi_30 e-)
     2.65431573E-06    2    -1000024        12   # BR(~e_L -> ~chi_1- nu_e)
#
#         PDG            Width
DECAY   2000011     4.88585872E+02   # selectron_R decays
#          BR         NDA      ID1       ID2
     9.99159122E-01    2     1000022        11   # BR(~e_R -> ~chi_10 e-)
     2.54324256E-06    2     1000023        11   # BR(~e_R -> ~chi_20 e-)
     8.38334888E-04    2     1000025        11   # BR(~e_R -> ~chi_30 e-)
#
#         PDG            Width
DECAY   1000013     1.22147190E+02   # smuon_L decays
#          BR         NDA      ID1       ID2
     9.99073272E-01    2     1000022        13   # BR(~mu_L -> ~chi_10 mu-)
     1.77068916E-06    2     1000023        13   # BR(~mu_L -> ~chi_20 mu-)
     9.22303257E-04    2     1000025        13   # BR(~mu_L -> ~chi_30 mu-)
     2.65431573E-06    2    -1000024        14   # BR(~mu_L -> ~chi_1- nu_mu)
#
#         PDG            Width
DECAY   2000013     4.88585872E+02   # smuon_R decays
#          BR         NDA      ID1       ID2
     9.99159122E-01    2     1000022        13   # BR(~mu_R -> ~chi_10 mu-)
     2.54324256E-06    2     1000023        13   # BR(~mu_R -> ~chi_20 mu-)
     8.38334888E-04    2     1000025        13   # BR(~mu_R -> ~chi_30 mu-)
#
#         PDG            Width
DECAY   1000015     1.18197056E+04   # stau_1 decays
#          BR         NDA      ID1       ID2
     2.58681060E-02    2     1000022        15   # BR(~tau_1 -> ~chi_10  tau-)
     2.55063044E-05    2     1000023        15   # BR(~tau_1 -> ~chi_20  tau-)
     3.41345414E-05    2     1000025        15   # BR(~tau_1 -> ~chi_30  tau-)
     2.77001567E-05    2    -1000024        16   # BR(~tau_1 -> ~chi_1-  nu_tau)
     9.74044553E-01    2     1000039        15   # BR(~tau_1 -> ~G       tau-)
#
#         PDG            Width
DECAY   2000015     3.05820720E+02   # stau_2 decays
#          BR         NDA      ID1       ID2
     9.95538206E-01    2     1000022        15   # BR(~tau_2 -> ~chi_10  tau-)
     1.06085831E-03    2     1000023        15   # BR(~tau_2 -> ~chi_20  tau-)
     2.42852592E-03    2     1000025        15   # BR(~tau_2 -> ~chi_30  tau-)
     9.72409761E-04    2    -1000024        16   # BR(~tau_2 -> ~chi_1-  nu_tau)
#
#         PDG            Width
DECAY   1000012     1.22147252E+02   # snu_eL decays
#          BR         NDA      ID1       ID2
     9.99232535E-01    2     1000022        12   # BR(~nu_eL -> ~chi_10 nu_e)
     3.45523762E-06    2     1000023        12   # BR(~nu_eL -> ~chi_20 nu_e)
     7.58363516E-04    2     1000025        12   # BR(~nu_eL -> ~chi_30 nu_e)
     5.64579322E-06    2     1000024        11   # BR(~nu_eL -> ~chi_1+ e-)
#
#         PDG            Width
DECAY   1000014     1.22147252E+02   # snu_muL decays
#          BR         NDA      ID1       ID2
     9.99232535E-01    2     1000022        14   # BR(~nu_muL -> ~chi_10 nu_mu)
     3.45523762E-06    2     1000023        14   # BR(~nu_muL -> ~chi_20 nu_mu)
     7.58363516E-04    2     1000025        14   # BR(~nu_muL -> ~chi_30 nu_mu)
     5.64579322E-06    2     1000024        13   # BR(~nu_muL -> ~chi_1+ mu-)
#
#         PDG            Width
DECAY   1000016     1.22771719E+02   # snu_tauL decays
#          BR         NDA      ID1       ID2
     9.94150036E-01    2     1000022        16   # BR(~nu_tauL -> ~chi_10 nu_tau)
     3.43766289E-06    2     1000023        16   # BR(~nu_tauL -> ~chi_20 nu_tau)
     7.54506174E-04    2     1000025        16   # BR(~nu_tauL -> ~chi_30 nu_tau)
     5.09201992E-03    2     1000024        15   # BR(~nu_tauL -> ~chi_1+ tau-)
#
#         PDG            Width
DECAY   1000024     4.58742095E+01   # chargino1+ decays
#          BR         NDA      ID1       ID2
     4.32922354E-07    2     1000002        -1   # BR(~chi_1+ -> ~u_L     db)
     2.03422497E-07    2    -1000001         2   # BR(~chi_1+ -> ~d_L*    u )
     4.32922354E-07    2     1000004        -3   # BR(~chi_1+ -> ~c_L     sb)
     2.03422497E-07    2    -1000003         4   # BR(~chi_1+ -> ~s_L*    c )
     6.48190974E-02    2     1000006        -5   # BR(~chi_1+ -> ~t_1     bb)
     9.46218818E-02    2    -1000005         6   # BR(~chi_1+ -> ~b_1*    t )
     7.69024351E-01    2    -2000005         6   # BR(~chi_1+ -> ~b_2*    t )
     7.15255260E-02    2     1000022        24   # BR(~chi_1+ -> ~chi_10  W+)
     6.57663674E-06    2     1000039        24   # BR(~chi_1+ -> ~G       W+)
     1.29402705E-06    2     1000039        37   # BR(~chi_1+ -> ~G       H+)
#
#         PDG            Width
DECAY   1000037     9.69139855E+04   # chargino2+ decays
#          BR         NDA      ID1       ID2
     1.01236810E-02    2     1000002        -1   # BR(~chi_2+ -> ~u_L     db)
     1.01236836E-02    2    -1000001         2   # BR(~chi_2+ -> ~d_L*    u )
     1.01236810E-02    2     1000004        -3   # BR(~chi_2+ -> ~c_L     sb)
     1.01236836E-02    2    -1000003         4   # BR(~chi_2+ -> ~s_L*    c )
     8.27603642E-01    2     1000006        -5   # BR(~chi_2+ -> ~t_1     bb)
     2.23598645E-03    2    -1000005         6   # BR(~chi_2+ -> ~b_1*    t )
     9.58229881E-03    2    -2000005         6   # BR(~chi_2+ -> ~b_2*    t )
     7.27797151E-15    2     1000012       -11   # BR(~chi_2+ -> ~nu_eL   e+  )
     7.27797151E-15    2     1000014       -13   # BR(~chi_2+ -> ~nu_muL  mu+ )
     5.06821851E-15    2    -1000011        12   # BR(~chi_2+ -> ~e_L+    nu_e)
     5.06821851E-15    2    -1000013        14   # BR(~chi_2+ -> ~mu_L+   nu_mu)
     7.97864124E-15    2    -1000015        16   # BR(~chi_2+ -> ~tau_1+  nu_tau)
     1.19265553E-16    2    -2000015        16   # BR(~chi_2+ -> ~tau_2+  nu_tau)
     1.85363502E-03    2     1000024        23   # BR(~chi_2+ -> ~chi_1+  Z )
     1.36671945E-06    2     1000022        24   # BR(~chi_2+ -> ~chi_10  W+)
     1.79765895E-03    2     1000023        24   # BR(~chi_2+ -> ~chi_20  W+)
     1.79627364E-03    2     1000025        24   # BR(~chi_2+ -> ~chi_30  W+)
     1.87357829E-03    2     1000024        25   # BR(~chi_2+ -> ~chi_1+  h )
     1.64464093E-03    2     1000024        35   # BR(~chi_2+ -> ~chi_1+  H )
     1.64486277E-03    2     1000024        36   # BR(~chi_2+ -> ~chi_1+  A )
     1.44811360E-06    2     1000022        37   # BR(~chi_2+ -> ~chi_10  H+)
     1.64481142E-03    2     1000023        37   # BR(~chi_2+ -> ~chi_20  H+)
     1.64340541E-03    2     1000025        37   # BR(~chi_2+ -> ~chi_30  H+)
     1.06181632E-01    2     1000039        24   # BR(~chi_2+ -> ~G       W+)
     3.03979769E-08    2     1000039        37   # BR(~chi_2+ -> ~G       H+)
#
#         PDG            Width
DECAY   1000022     1.E-08   # neutralino1 decays (OJ Mods)
#          BR         NDA      ID1       ID2
     7.58607944E-01    2     1000039        22   # BR(~chi_10 -> ~G        gam)
     2.41383960E-01    2     1000039        23   # BR(~chi_10 -> ~G        Z)
     8.09682466E-06    2     1000039        25   # BR(~chi_10 -> ~G        h)
#
#         PDG            Width
DECAY   1000023     1.E-08   # neutralino2 decays (OJ Mods)
#          BR         NDA      ID1       ID2
     6.96648810E-02    2     1000022        23   # BR(~chi_20 -> ~chi_10   Z )
     2.07528153E-04    2     1000022        25   # BR(~chi_20 -> ~chi_10   h )
     6.09403232E-09    2     1000002        -2   # BR(~chi_20 -> ~u_L      ub)
     6.09403232E-09    2    -1000002         2   # BR(~chi_20 -> ~u_L*     u )
     5.38847592E-08    2     1000001        -1   # BR(~chi_20 -> ~d_L      db)
     5.38847592E-08    2    -1000001         1   # BR(~chi_20 -> ~d_L*     d )
     9.62309283E-08    2     2000001        -1   # BR(~chi_20 -> ~d_R      db)
     9.62309283E-08    2    -2000001         1   # BR(~chi_20 -> ~d_R*     d )
     6.09403232E-09    2     1000004        -4   # BR(~chi_20 -> ~c_L      cb)
     6.09403232E-09    2    -1000004         4   # BR(~chi_20 -> ~c_L*     c )
     5.38847592E-08    2     1000003        -3   # BR(~chi_20 -> ~s_L      sb)
     5.38847592E-08    2    -1000003         3   # BR(~chi_20 -> ~s_L*     s )
     9.62309283E-08    2     2000003        -3   # BR(~chi_20 -> ~s_R      sb)
     9.62309283E-08    2    -2000003         3   # BR(~chi_20 -> ~s_R*     s )
     4.08546826E-01    2     1000006        -6   # BR(~chi_20 -> ~t_1      tb)
     4.08546826E-01    2    -1000006         6   # BR(~chi_20 -> ~t_1*     t )
     2.74076085E-02    2     1000005        -5   # BR(~chi_20 -> ~b_1      bb)
     2.74076085E-02    2    -1000005         5   # BR(~chi_20 -> ~b_1*     b )
     2.91053389E-02    2     2000005        -5   # BR(~chi_20 -> ~b_2      bb)
     2.91053389E-02    2    -2000005         5   # BR(~chi_20 -> ~b_2*     b )
     2.16291106E-11    2     1000039        22   # BR(~chi_20 -> ~G        gam)
     2.39793516E-07    2     1000039        23   # BR(~chi_20 -> ~G        Z)
     5.98516895E-06    2     1000039        25   # BR(~chi_20 -> ~G        h)
     4.79219997E-08    2     1000039        35   # BR(~chi_20 -> ~G        H)
     1.23641705E-06    2     1000039        36   # BR(~chi_20 -> ~G        A)
#
#         PDG            Width
DECAY   1000025     4.86792655E+01   # neutralino3 decays
#          BR         NDA      ID1       ID2
     2.12017207E-04    2     1000022        23   # BR(~chi_30 -> ~chi_10   Z )
     6.99442215E-02    2     1000022        25   # BR(~chi_30 -> ~chi_10   h )
     1.03733548E-05    2     1000002        -2   # BR(~chi_30 -> ~u_L      ub)
     1.03733548E-05    2    -1000002         2   # BR(~chi_30 -> ~u_L*     u )
     5.74189633E-06    2     1000001        -1   # BR(~chi_30 -> ~d_L      db)
     5.74189633E-06    2    -1000001         1   # BR(~chi_30 -> ~d_L*     d )
     3.15485286E-05    2     2000001        -1   # BR(~chi_30 -> ~d_R      db)
     3.15485286E-05    2    -2000001         1   # BR(~chi_30 -> ~d_R*     d )
     1.03733548E-05    2     1000004        -4   # BR(~chi_30 -> ~c_L      cb)
     1.03733548E-05    2    -1000004         4   # BR(~chi_30 -> ~c_L*     c )
     5.74189633E-06    2     1000003        -3   # BR(~chi_30 -> ~s_L      sb)
     5.74189633E-06    2    -1000003         3   # BR(~chi_30 -> ~s_L*     s )
     3.15485286E-05    2     2000003        -3   # BR(~chi_30 -> ~s_R      sb)
     3.15485286E-05    2    -2000003         3   # BR(~chi_30 -> ~s_R*     s )
     4.06410088E-01    2     1000006        -6   # BR(~chi_30 -> ~t_1      tb)
     4.06410088E-01    2    -1000006         6   # BR(~chi_30 -> ~t_1*     t )
     1.84718146E-02    2     1000005        -5   # BR(~chi_30 -> ~b_1      bb)
     1.84718146E-02    2    -1000005         5   # BR(~chi_30 -> ~b_1*     b )
     3.99548275E-02    2     2000005        -5   # BR(~chi_30 -> ~b_2      bb)
     3.99548275E-02    2    -2000005         5   # BR(~chi_30 -> ~b_2*     b )
     8.16361938E-09    2     1000039        22   # BR(~chi_30 -> ~G        gam)
     5.96340174E-06    2     1000039        23   # BR(~chi_30 -> ~G        Z)
     2.32420841E-07    2     1000039        25   # BR(~chi_30 -> ~G        h)
     1.22274075E-06    2     1000039        35   # BR(~chi_30 -> ~G        H)
     4.92337068E-08    2     1000039        36   # BR(~chi_30 -> ~G        A)
#
#         PDG            Width
DECAY   1000035     9.69143736E+04   # neutralino4 decays
#          BR         NDA      ID1       ID2
     2.60392800E-08    2     1000022        23   # BR(~chi_40 -> ~chi_10   Z )
     1.79134417E-03    2     1000023        23   # BR(~chi_40 -> ~chi_20   Z )
     6.22596432E-05    2     1000025        23   # BR(~chi_40 -> ~chi_30   Z )
     1.79764159E-03    2     1000024       -24   # BR(~chi_40 -> ~chi_1+   W-)
     1.79764159E-03    2    -1000024        24   # BR(~chi_40 -> ~chi_1-   W+)
     1.39966505E-06    2     1000022        25   # BR(~chi_40 -> ~chi_10   h )
     9.41790645E-08    2     1000022        35   # BR(~chi_40 -> ~chi_10   H )
     1.35224933E-06    2     1000022        36   # BR(~chi_40 -> ~chi_10   A )
     6.14942679E-05    2     1000023        25   # BR(~chi_40 -> ~chi_20   h )
     1.57394423E-03    2     1000023        35   # BR(~chi_40 -> ~chi_20   H )
     7.23522984E-05    2     1000023        36   # BR(~chi_40 -> ~chi_20   A )
     1.81067958E-03    2     1000025        25   # BR(~chi_40 -> ~chi_30   h )
     7.05946183E-05    2     1000025        35   # BR(~chi_40 -> ~chi_30   H )
     1.57115232E-03    2     1000025        36   # BR(~chi_40 -> ~chi_30   A )
     1.64482760E-03    2     1000024       -37   # BR(~chi_40 -> ~chi_1+   H-)
     1.64482760E-03    2    -1000024        37   # BR(~chi_40 -> ~chi_1-   H+)
     4.84848400E-03    2     1000002        -2   # BR(~chi_40 -> ~u_L      ub)
     4.84848400E-03    2    -1000002         2   # BR(~chi_40 -> ~u_L*     u )
     7.81942313E-23    2     2000002        -2   # BR(~chi_40 -> ~u_R      ub)
     7.81942313E-23    2    -2000002         2   # BR(~chi_40 -> ~u_R*     u )
     4.84848563E-03    2     1000001        -1   # BR(~chi_40 -> ~d_L      db)
     4.84848563E-03    2    -1000001         1   # BR(~chi_40 -> ~d_L*     d )
     9.54825731E-17    2     2000001        -1   # BR(~chi_40 -> ~d_R      db)
     9.54825731E-17    2    -2000001         1   # BR(~chi_40 -> ~d_R*     d )
     4.84848400E-03    2     1000004        -4   # BR(~chi_40 -> ~c_L      cb)
     4.84848400E-03    2    -1000004         4   # BR(~chi_40 -> ~c_L*     c )
     7.81942313E-23    2     2000004        -4   # BR(~chi_40 -> ~c_R      cb)
     7.81942313E-23    2    -2000004         4   # BR(~chi_40 -> ~c_R*     c )
     4.84848563E-03    2     1000003        -3   # BR(~chi_40 -> ~s_L      sb)
     4.84848563E-03    2    -1000003         3   # BR(~chi_40 -> ~s_L*     s )
     9.54825731E-17    2     2000003        -3   # BR(~chi_40 -> ~s_R      sb)
     9.54825731E-17    2    -2000003         3   # BR(~chi_40 -> ~s_R*     s )
     5.90911881E-03    2     1000006        -6   # BR(~chi_40 -> ~t_1      tb)
     5.90911881E-03    2    -1000006         6   # BR(~chi_40 -> ~t_1*     t )
     1.97023422E-01    2     1000005        -5   # BR(~chi_40 -> ~b_1      bb)
     1.97023422E-01    2    -1000005         5   # BR(~chi_40 -> ~b_1*     b )
     2.16778711E-01    2     2000005        -5   # BR(~chi_40 -> ~b_2      bb)
     2.16778711E-01    2    -2000005         5   # BR(~chi_40 -> ~b_2*     b )
     2.53409852E-15    2     1000011       -11   # BR(~chi_40 -> ~e_L-     e+)
     2.53409852E-15    2    -1000011        11   # BR(~chi_40 -> ~e_L+     e-)
     4.49142612E-28    2     2000011       -11   # BR(~chi_40 -> ~e_R-     e+)
     4.49142612E-28    2    -2000011        11   # BR(~chi_40 -> ~e_R+     e-)
     2.53409852E-15    2     1000013       -13   # BR(~chi_40 -> ~mu_L-    mu+)
     2.53409852E-15    2    -1000013        13   # BR(~chi_40 -> ~mu_L+    mu-)
     4.49142612E-28    2     2000013       -13   # BR(~chi_40 -> ~mu_R-    mu+)
     4.49142612E-28    2    -2000013        13   # BR(~chi_40 -> ~mu_R+    mu-)
     3.63897514E-15    2     1000012       -12   # BR(~chi_40 -> ~nu_eL    nu_eb)
     3.63897514E-15    2    -1000012        12   # BR(~chi_40 -> ~nu_eL*   nu_e )
     3.63897514E-15    2     1000014       -14   # BR(~chi_40 -> ~nu_muL   nu_mub)
     3.63897514E-15    2    -1000014        14   # BR(~chi_40 -> ~nu_muL*  nu_mu )
     3.63897514E-15    2     1000016       -16   # BR(~chi_40 -> ~nu_tau1  nu_taub)
     3.63897514E-15    2    -1000016        16   # BR(~chi_40 -> ~nu_tau1* nu_tau )
     2.57608887E-02    2     1000039        22   # BR(~chi_40 -> ~G        gam)
     8.04203557E-02    2     1000039        23   # BR(~chi_40 -> ~G        Z)
     4.84886953E-09    2     1000039        25   # BR(~chi_40 -> ~G        h)
     3.04497826E-08    2     1000039        35   # BR(~chi_40 -> ~G        H)
     6.00014890E-12    2     1000039        36   # BR(~chi_40 -> ~G        A)
#
#
#
#
