#
#                              ======================
#                              | THE SUSYHIT OUTPUT |
#                              ======================
#
#
#              ------------------------------------------------------
#              |     This is the output of the SUSY-HIT package     |
#              |  created by A.Djouadi, M.Muehlleitner and M.Spira. |
#              |  In case of problems with SUSY-HIT email to        |
#              |           margarete.muehlleitner@cern.ch           |
#              |           michael.spira@psi.ch                     |
#              |           abdelhak.djouadi@cern.ch                 |
#              ------------------------------------------------------
#
#              ------------------------------------------------------
#              |  SUSY Les Houches Accord - MSSM Spectrum + Decays  |
#              |              based on the decay programs           |
#              |                                                    |
#              |                     SDECAY 1.3b                    |
#              |                                                    |
#              |  Authors: M.Muhlleitner, A.Djouadi and Y.Mambrini  |
#              |  Ref.:    Comput.Phys.Commun.168(2005)46           |
#              |           [hep-ph/0311167]                         |
#              |                                                    |
#              |                     HDECAY 3.4                     |
#              |                                                    |
#              |  By: A.Djouadi,J.Kalinowski,M.Muhlleitner,M.Spira  |
#              |  Ref.:    Comput.Phys.Commun.108(1998)56           |
#              |           [hep-ph/9704448]                         |
#              |                                                    |
#              |                                                    |
#              |  If not stated otherwise all DRbar couplings and   |
#              |  soft SUSY breaking masses are given at the scale  |
#              |  Q=  0.91187600E+02
#              |                                                    |
#              ------------------------------------------------------
#
#
BLOCK DCINFO  # Decay Program information
     1   SDECAY/HDECAY # decay calculator
     2   1.3b  /3.4    # version number
#
BLOCK SPINFO  # Spectrum calculator information
     1   SuSpect     # RGE +Spectrum calculator            
     2   2.41         # version number                     
#
BLOCK MODSEL  # Model selection
     1     0   # #general MSSM low scale                           
#
BLOCK SMINPUTS  # Standard Model inputs
         1     1.27934000E+02   # alpha_em^-1(M_Z)^MSbar
         2     1.16639000E-05   # G_F [GeV^-2]
         3     1.17200000E-01   # alpha_S(M_Z)^MSbar
         4     9.11870000E+01   # M_Z pole mass
         5     4.25000000E+00   # mb(mb)^MSbar
         6     1.72500000E+02   # mt pole mass
         7     1.77700000E+00   # mtau pole mass
#
BLOCK MINPAR  # Input parameters - minimal models
#
BLOCK EXTPAR  # Input parameters - non-minimal models
         0     9.11876000E+01   # EWSB                
         1     5.00000000E+02   # M_1                 
         2     1.00000000E+05   # M_2                 
         3     1.00000000E+05   # M_3                 
        11     0.00000000E+00   # A_t                 
        12     0.00000000E+00   # A_b                 
        13     0.00000000E+00   # A_tau               
        14     0.00000000E+00   # A_u                 
        15     0.00000000E+00   # A_d                 
        16     0.00000000E+00   # A_e                 
        23     3.50000000E+03   # mu(EWSB)            
        25     1.50000000E+00   # tanbeta(in)         
        26     2.00000000E+03   # MA_pole             
        31     1.00000000E+05   # M_eL                
        32     1.00000000E+05   # M_muL               
        33     1.00000000E+05   # M_tauL              
        34     1.00000000E+05   # M_eR                
        35     1.00000000E+05   # M_muR               
        36     1.00000000E+05   # M_tauR              
        41     1.20000000E+03   # M_q1L               
        42     1.20000000E+03   # M_q2L               
        43     1.20000000E+03   # M_q3L               
        44     1.00000000E+05   # M_uR                
        45     1.00000000E+05   # M_cR                
        46     1.00000000E+05   # M_tR                
        47     1.20000000E+03   # M_dR                
        48     1.20000000E+03   # M_sR                
        49     1.20000000E+03   # M_bR                
#
BLOCK MASS  # Mass Spectrum
# PDG code           mass       particle
        24     8.05814049E+01   # W+
        25     1.25000000E+02   # h
        35     2.00395840E+03   # H
        36     2.00000000E+03   # A
        37     2.02369859E+03   # H+
         5     4.87877839E+00   # b-quark pole mass calculated from mb(mb)_Msbar
   1000001     1.20055436E+03   # ~d_L
   2000001     1.20010663E+03   # ~d_R
   1000002     1.19955206E+03   # ~u_L
   2000002     9.99999974E+04   # ~u_R
   1000003     1.20055436E+03   # ~s_L
   2000003     1.20010663E+03   # ~s_R
   1000004     1.19955206E+03   # ~c_L
   2000004     9.99999974E+04   # ~c_R
   1000005     1.19466895E+03   # ~b_1
   2000005     1.20597104E+03   # ~b_2
   1000006     1.20857877E+03   # ~t_1
   2000006     1.00000106E+05   # ~t_2
   1000011     1.00000004E+05   # ~e_L
   2000011     1.00000004E+05   # ~e_R
   1000012     9.99999921E+04   # ~nu_eL
   1000013     1.00000004E+05   # ~mu_L
   2000013     1.00000004E+05   # ~mu_R
   1000014     9.99999921E+04   # ~nu_muL
   1000015     9.99999574E+04   # ~tau_1
   2000015     1.00000051E+05   # ~tau_2
   1000016     9.99999921E+04   # ~nu_tauL
   1000021     1.00000000E+05   # ~g
   1000022     4.99379509E+02   # ~chi_10
   1000023    -3.50002152E+03   # ~chi_20
   1000025     3.50057736E+03   # ~chi_30
   1000035     1.00000065E+05   # ~chi_40
   1000024     3.49994000E+03   # ~chi_1+
   1000037     1.00000065E+05   # ~chi_2+
   1000039     1.00000000E-09   # ~gravitino
#
BLOCK NMIX  # Neutralino Mixing Matrix
  1  1     9.99891023E-01   # N_11
  1  2    -1.10372814E-05   # N_12
  1  3     1.18724158E-02   # N_13
  1  4    -8.77428892E-03   # N_14
  2  1     2.19071310E-03   # N_21
  2  2    -1.49867355E-04   # N_22
  2  3    -7.07094207E-01   # N_23
  2  4    -7.07115946E-01   # N_24
  3  1     1.45994269E-02   # N_31
  3  2     8.03554931E-04   # N_32
  3  3    -7.07019529E-01   # N_33
  3  4     7.07042854E-01   # N_34
  4  1     3.67047302E-07   # N_41
  4  2    -9.99999666E-01   # N_42
  4  3    -4.62289884E-04   # N_43
  4  4     6.74218437E-04   # N_44
#
BLOCK UMIX  # Chargino Mixing Matrix U
  1  1    -6.53776418E-04   # U_11
  1  2     9.99999786E-01   # U_12
  2  1     9.99999786E-01   # U_21
  2  2     6.53776418E-04   # U_22
#
BLOCK VMIX  # Chargino Mixing Matrix V
  1  1    -9.53488770E-04   # V_11
  1  2     9.99999545E-01   # V_12
  2  1     9.99999545E-01   # V_21
  2  2     9.53488770E-04   # V_22
#
BLOCK STOPMIX  # Stop Mixing Matrix
  1  1     9.99999999E-01   # cos(theta_t)
  1  2     4.47213589E-05   # sin(theta_t)
  2  1    -4.47213589E-05   # -sin(theta_t)
  2  2     9.99999999E-01   # cos(theta_t)
#
BLOCK SBOTMIX  # Sbottom Mixing Matrix
  1  1     6.92959053E-01   # cos(theta_b)
  1  2     7.20976942E-01   # sin(theta_b)
  2  1    -7.20976942E-01   # -sin(theta_b)
  2  2     6.92959053E-01   # cos(theta_b)
#
BLOCK STAUMIX  # Stau Mixing Matrix
  1  1     7.06134624E-01   # cos(theta_tau)
  1  2     7.08077604E-01   # sin(theta_tau)
  2  1    -7.08077604E-01   # -sin(theta_tau)
  2  2     7.06134624E-01   # cos(theta_tau)
#
BLOCK ALPHA  # Higgs mixing
          -5.90255740E-01   # Mixing angle in the neutral Higgs boson sector
#
BLOCK HMIX Q=  9.11876000E+01  # DRbar Higgs Parameters
         1     3.50000000E+03   # mu(Q)               
         2     1.49999982E+00   # tanbeta(Q)          
         3     2.54860461E+02   # vev(Q)              
         4    -6.83634991E+07   # MA^2(Q)             
#
BLOCK GAUGE Q=  9.11876000E+01  # The gauge couplings
     1     3.50614469E-01   # gprime(Q) DRbar
     2     6.20625311E-01   # g(Q) DRbar
     3     1.02739245E+00   # g3(Q) DRbar
#
BLOCK AU Q=  9.11876000E+01  # The trilinear couplings
  1  1     0.00000000E+00   # A_u(Q) DRbar
  2  2     0.00000000E+00   # A_c(Q) DRbar
  3  3     0.00000000E+00   # A_t(Q) DRbar
#
BLOCK AD Q=  9.11876000E+01  # The trilinear couplings
  1  1     0.00000000E+00   # A_d(Q) DRbar
  2  2     0.00000000E+00   # A_s(Q) DRbar
  3  3     0.00000000E+00   # A_b(Q) DRbar
#
BLOCK AE Q=  9.11876000E+01  # The trilinear couplings
  1  1     0.00000000E+00   # A_e(Q) DRbar
  2  2     0.00000000E+00   # A_mu(Q) DRbar
  3  3     0.00000000E+00   # A_tau(Q) DRbar
#
BLOCK Yu Q=  9.11876000E+01  # The Yukawa couplings
  1  1     0.00000000E+00   # y_u(Q) DRbar
  2  2     0.00000000E+00   # y_c(Q) DRbar
  3  3     9.83526411E-01   # y_t(Q) DRbar
#
BLOCK Yd Q=  9.11876000E+01  # The Yukawa couplings
  1  1     0.00000000E+00   # y_d(Q) DRbar
  2  2     0.00000000E+00   # y_s(Q) DRbar
  3  3     2.58291270E-02   # y_b(Q) DRbar
#
BLOCK Ye Q=  9.11876000E+01  # The Yukawa couplings
  1  1     0.00000000E+00   # y_e(Q) DRbar
  2  2     0.00000000E+00   # y_mu(Q) DRbar
  3  3     1.77398089E-02   # y_tau(Q) DRbar
#
BLOCK MSOFT Q=  9.11876000E+01  # The soft SUSY breaking masses at the scale Q
         1     5.00000000E+02   # M_1                 
         2     1.00000000E+05   # M_2                 
         3     1.00000000E+05   # M_3                 
        14     0.00000000E+00   # A_u                 
        15     0.00000000E+00   # A_d                 
        16     0.00000000E+00   # A_e                 
        21     6.33634369E+08   # M^2_Hd              
        22    -1.14625547E+09   # M^2_Hu              
        31     1.00000000E+05   # M_eL                
        32     1.00000000E+05   # M_muL               
        33     1.00000000E+05   # M_tauL              
        34     1.00000000E+05   # M_eR                
        35     1.00000000E+05   # M_muR               
        36     1.00000000E+05   # M_tauR              
        41     1.20000000E+03   # M_q1L               
        42     1.20000000E+03   # M_q2L               
        43     1.20000000E+03   # M_q3L               
        44     1.00000000E+05   # M_uR                
        45     1.00000000E+05   # M_cR                
        46     1.00000000E+05   # M_tR                
        47     1.20000000E+03   # M_dR                
        48     1.20000000E+03   # M_sR                
        49     1.20000000E+03   # M_bR                
#
#
#
#                             =================
#                             |The decay table|
#                             =================
#
# - The QCD corrections to the decays gluino -> squark  + quark
#                                     squark -> gaugino + quark_prime
#                                     squark -> squark_prime + Higgs
#                                     squark -> gluino  + quark
#   are included.
#
# - The multi-body decays for the inos, stops and sbottoms are included.
#
# - The loop induced decays for the gluino, neutralinos and stops
#   are included.
#
# - The SUSY decays of the top quark are included.
#
# - Possible decays of the NLSP in GMSB models are included.
#
#
#         PDG            Width
DECAY         6     1.32948712E+00   # top decays
#          BR         NDA      ID1       ID2
     1.00000000E+00    2           5        24   # BR(t ->  b    W+)
#
#         PDG            Width
DECAY   1000021     1.E-04   # gluino decays (OJ Mods)
#          BR         NDA      ID1       ID2
    -2.60271136E-04    2     1000001        -1   # BR(~g -> ~d_L  db)
    -2.60271136E-04    2    -1000001         1   # BR(~g -> ~d_L* d )
    -2.60271192E-04    2     2000001        -1   # BR(~g -> ~d_R  db)
    -2.60271192E-04    2    -2000001         1   # BR(~g -> ~d_R* d )
    -2.60271261E-04    2     1000002        -2   # BR(~g -> ~u_L  ub)
    -2.60271261E-04    2    -1000002         2   # BR(~g -> ~u_L* u )
    -7.03976054E-19    2     2000002        -2   # BR(~g -> ~u_R  ub)
    -7.03976054E-19    2    -2000002         2   # BR(~g -> ~u_R* u )
    -2.60271136E-04    2     1000003        -3   # BR(~g -> ~s_L  sb)
    -2.60271136E-04    2    -1000003         3   # BR(~g -> ~s_L* s )
    -2.60271192E-04    2     2000003        -3   # BR(~g -> ~s_R  sb)
    -2.60271192E-04    2    -2000003         3   # BR(~g -> ~s_R* s )
    -2.60271261E-04    2     1000004        -4   # BR(~g -> ~c_L  cb)
    -2.60271261E-04    2    -1000004         4   # BR(~g -> ~c_L* c )
    -7.03976054E-19    2     2000004        -4   # BR(~g -> ~c_R  cb)
    -7.03976054E-19    2    -2000004         4   # BR(~g -> ~c_R* c )
     2.52558936E-01    2     1000005        -5   # BR(~g -> ~b_1  bb)
     2.52558936E-01    2    -1000005         5   # BR(~g -> ~b_1* b )
     2.52898013E-01    2     2000005        -5   # BR(~g -> ~b_2  bb)
     2.52898013E-01    2    -2000005         5   # BR(~g -> ~b_2* b )
    -2.56125679E-04    2     1000006        -6   # BR(~g -> ~t_1  tb)
    -2.56125679E-04    2    -1000006         6   # BR(~g -> ~t_1* t )
    -7.27839308E-03    2     1000039        21   # BR(~g -> ~G g)
#
#         PDG            Width
DECAY   1000006     1.32680956E-01   # stop1 decays
#          BR         NDA      ID1       ID2
     1.00000000E+00    2     1000022         6   # BR(~t_1 -> ~chi_10 t )
#
#         PDG            Width
DECAY   2000006    -7.40320769E+05   # stop2 decays
#          BR         NDA      ID1       ID2
    -2.81429528E-04    2     1000022         6   # BR(~t_2 -> ~chi_10 t )
    -6.71557962E-04    2     1000023         6   # BR(~t_2 -> ~chi_20 t )
    -6.71466698E-04    2     1000025         6   # BR(~t_2 -> ~chi_30 t )
     1.00160080E+00    2     1000024         5   # BR(~t_2 -> ~chi_1+ b )
     1.84750657E-05    2     1000006        25   # BR(~t_2 -> ~t_1    h )
    -1.93376197E-05    2     1000006        35   # BR(~t_2 -> ~t_1    H )
    -1.93043946E-05    2     1000006        36   # BR(~t_2 -> ~t_1    A )
    -1.81807533E-05    2     1000005        37   # BR(~t_2 -> ~b_1    H+)
    -2.04272773E-05    2     2000005        37   # BR(~t_2 -> ~b_2    H+)
     1.32440152E-05    2     1000006        23   # BR(~t_2 -> ~t_1    Z )
     3.32216458E-05    2     1000005        24   # BR(~t_2 -> ~b_1    W+)
     3.59608178E-05    2     2000005        24   # BR(~t_2 -> ~b_2    W+)
#
#         PDG            Width
DECAY   1000005    -1.06529334E+02   # sbottom1 decays
#          BR         NDA      ID1       ID2
     1.00000000E+00    2     1000022         5   # BR(~b_1 -> ~chi_10 b )
#
#         PDG            Width
DECAY   2000005    -1.03409472E+02   # sbottom2 decays
#          BR         NDA      ID1       ID2
     1.00000000E+00    2     1000022         5   # BR(~b_2 -> ~chi_10 b )
#
#         PDG            Width
DECAY   1000002     1.37862096E-01   # sup_L decays
#          BR         NDA      ID1       ID2
     1.00000000E+00    2     1000022         2   # BR(~u_L -> ~chi_10 u)
#
#         PDG            Width
DECAY   2000002     2.08379867E+02   # sup_R decays
#          BR         NDA      ID1       ID2
     9.99782302E-01    2     1000022         2   # BR(~u_R -> ~chi_10 u)
     4.79383849E-06    2     1000023         2   # BR(~u_R -> ~chi_20 u)
     2.12903985E-04    2     1000025         2   # BR(~u_R -> ~chi_30 u)
#
#         PDG            Width
DECAY   1000001     1.38096478E-01   # sdown_L decays
#          BR         NDA      ID1       ID2
     1.00000000E+00    2     1000022         1   # BR(~d_L -> ~chi_10 d)
#
#         PDG            Width
DECAY   2000001     5.51960200E-01   # sdown_R decays
#          BR         NDA      ID1       ID2
     1.00000000E+00    2     1000022         1   # BR(~d_R -> ~chi_10 d)
#
#         PDG            Width
DECAY   1000004     1.37862096E-01   # scharm_L decays
#          BR         NDA      ID1       ID2
     1.00000000E+00    2     1000022         4   # BR(~c_L -> ~chi_10 c)
#
#         PDG            Width
DECAY   2000004     2.08379867E+02   # scharm_R decays
#          BR         NDA      ID1       ID2
     9.99782302E-01    2     1000022         4   # BR(~c_R -> ~chi_10 c)
     4.79383849E-06    2     1000023         4   # BR(~c_R -> ~chi_20 c)
     2.12903985E-04    2     1000025         4   # BR(~c_R -> ~chi_30 c)
#
#         PDG            Width
DECAY   1000003     1.38096478E-01   # sstrange_L decays
#          BR         NDA      ID1       ID2
     1.00000000E+00    2     1000022         3   # BR(~s_L -> ~chi_10 s)
#
#         PDG            Width
DECAY   2000003     5.51960200E-01   # sstrange_R decays
#          BR         NDA      ID1       ID2
     1.00000000E+00    2     1000022         3   # BR(~s_R -> ~chi_10 s)
#
#         PDG            Width
DECAY   1000011     1.22275807E+02   # selectron_L decays
#          BR         NDA      ID1       ID2
     9.99737549E-01    2     1000022        11   # BR(~e_L -> ~chi_10 e-)
     3.69837442E-06    2     1000023        11   # BR(~e_L -> ~chi_20 e-)
     2.56080899E-04    2     1000025        11   # BR(~e_L -> ~chi_30 e-)
     2.67203694E-06    2    -1000024        12   # BR(~e_L -> ~chi_1- nu_e)
#
#         PDG            Width
DECAY   2000011     4.89100310E+02   # selectron_R decays
#          BR         NDA      ID1       ID2
     9.99782580E-01    2     1000022        11   # BR(~e_R -> ~chi_10 e-)
     4.78771414E-06    2     1000023        11   # BR(~e_R -> ~chi_20 e-)
     2.12631929E-04    2     1000025        11   # BR(~e_R -> ~chi_30 e-)
#
#         PDG            Width
DECAY   1000013     1.22275807E+02   # smuon_L decays
#          BR         NDA      ID1       ID2
     9.99737549E-01    2     1000022        13   # BR(~mu_L -> ~chi_10 mu-)
     3.69837442E-06    2     1000023        13   # BR(~mu_L -> ~chi_20 mu-)
     2.56080899E-04    2     1000025        13   # BR(~mu_L -> ~chi_30 mu-)
     2.67203694E-06    2    -1000024        14   # BR(~mu_L -> ~chi_1- nu_mu)
#
#         PDG            Width
DECAY   2000013     4.89100310E+02   # smuon_R decays
#          BR         NDA      ID1       ID2
     9.99782580E-01    2     1000022        13   # BR(~mu_R -> ~chi_10 mu-)
     4.78771414E-06    2     1000023        13   # BR(~mu_R -> ~chi_20 mu-)
     2.12631929E-04    2     1000025        13   # BR(~mu_R -> ~chi_30 mu-)
#
#         PDG            Width
DECAY   1000015     1.18200711E+04   # stau_1 decays
#          BR         NDA      ID1       ID2
     2.59073375E-02    2     1000022        15   # BR(~tau_1 -> ~chi_10  tau-)
     2.52539279E-05    2     1000023        15   # BR(~tau_1 -> ~chi_20  tau-)
     2.52649659E-05    2     1000025        15   # BR(~tau_1 -> ~chi_30  tau-)
     2.77136786E-05    2    -1000024        16   # BR(~tau_1 -> ~chi_1-  nu_tau)
     9.74014430E-01    2     1000039        15   # BR(~tau_1 -> ~G       tau-)
#
#         PDG            Width
DECAY   2000015     3.06098463E+02   # stau_2 decays
#          BR         NDA      ID1       ID2
     9.96448288E-01    2     1000022        15   # BR(~tau_2 -> ~chi_10  tau-)
     1.07420624E-03    2     1000023        15   # BR(~tau_2 -> ~chi_20  tau-)
     1.50627108E-03    2     1000025        15   # BR(~tau_2 -> ~chi_30  tau-)
     9.71234240E-04    2    -1000024        16   # BR(~tau_2 -> ~chi_1-  nu_tau)
#
#         PDG            Width
DECAY   1000012     1.22275866E+02   # snu_eL decays
#          BR         NDA      ID1       ID2
     9.99815082E-01    2     1000022        12   # BR(~nu_eL -> ~chi_10 nu_e)
     6.01740308E-06    2     1000023        12   # BR(~nu_eL -> ~chi_20 nu_e)
     1.73216908E-04    2     1000025        12   # BR(~nu_eL -> ~chi_30 nu_e)
     5.68348680E-06    2     1000024        11   # BR(~nu_eL -> ~chi_1+ e-)
#
#         PDG            Width
DECAY   1000014     1.22275866E+02   # snu_muL decays
#          BR         NDA      ID1       ID2
     9.99815082E-01    2     1000022        14   # BR(~nu_muL -> ~chi_10 nu_mu)
     6.01740308E-06    2     1000023        14   # BR(~nu_muL -> ~chi_20 nu_mu)
     1.73216908E-04    2     1000025        14   # BR(~nu_muL -> ~chi_30 nu_mu)
     5.68348680E-06    2     1000024        13   # BR(~nu_muL -> ~chi_1+ mu-)
#
#         PDG            Width
DECAY   1000016     1.22900410E+02   # snu_tauL decays
#          BR         NDA      ID1       ID2
     9.94734313E-01    2     1000022        16   # BR(~nu_tauL -> ~chi_10 nu_tau)
     5.98682439E-06    2     1000023        16   # BR(~nu_tauL -> ~chi_20 nu_tau)
     1.72336670E-04    2     1000025        16   # BR(~nu_tauL -> ~chi_30 nu_tau)
     5.08736360E-03    2     1000024        15   # BR(~nu_tauL -> ~chi_1+ tau-)
#
#         PDG            Width
DECAY   1000024     4.74790600E+01   # chargino1+ decays
#          BR         NDA      ID1       ID2
     7.04077628E-07    2     1000002        -1   # BR(~chi_1+ -> ~u_L     db)
     3.30876187E-07    2    -1000001         2   # BR(~chi_1+ -> ~d_L*    u )
     7.04077628E-07    2     1000004        -3   # BR(~chi_1+ -> ~c_L     sb)
     3.30876187E-07    2    -1000003         4   # BR(~chi_1+ -> ~s_L*    c )
    -4.27085941E-01    2     1000006        -5   # BR(~chi_1+ -> ~t_1     bb)
     1.09311461E-01    2    -1000005         6   # BR(~chi_1+ -> ~b_1*    t )
     1.25132331E+00    2    -2000005         6   # BR(~chi_1+ -> ~b_2*    t )
     5.45611522E-02    2     1000022        24   # BR(~chi_1+ -> ~chi_10  W+)
     1.18803456E-02    2     1000022        37   # BR(~chi_1+ -> ~chi_10  H+)
     6.35428967E-06    2     1000039        24   # BR(~chi_1+ -> ~G       W+)
     1.25025760E-06    2     1000039        37   # BR(~chi_1+ -> ~G       H+)
#
#         PDG            Width
DECAY   1000037    -4.35939888E+05   # chargino2+ decays
#          BR         NDA      ID1       ID2
    -2.59595014E-03    2     1000002        -1   # BR(~chi_2+ -> ~u_L     db)
    -2.59595112E-03    2    -1000001         2   # BR(~chi_2+ -> ~d_L*    u )
    -2.59595014E-03    2     1000004        -3   # BR(~chi_2+ -> ~c_L     sb)
    -2.59595112E-03    2    -1000003         4   # BR(~chi_2+ -> ~s_L*    c )
     1.04411559E+00    2     1000006        -5   # BR(~chi_2+ -> ~t_1     bb)
    -5.59549862E-04    2    -1000005         6   # BR(~chi_2+ -> ~b_1*    t )
    -2.47591758E-03    2    -2000005         6   # BR(~chi_2+ -> ~b_2*    t )
    -1.91897905E-15    2     1000012       -11   # BR(~chi_2+ -> ~nu_eL   e+  )
    -1.91897905E-15    2     1000014       -13   # BR(~chi_2+ -> ~nu_muL  mu+ )
    -1.34361581E-15    2    -1000011        12   # BR(~chi_2+ -> ~e_L+    nu_e)
    -1.34361581E-15    2    -1000013        14   # BR(~chi_2+ -> ~mu_L+   nu_mu)
    -2.08448375E-15    2    -1000015        16   # BR(~chi_2+ -> ~tau_1+  nu_tau)
    -3.54853927E-17    2    -2000015        16   # BR(~chi_2+ -> ~tau_2+  nu_tau)
    -4.76781423E-04    2     1000024        23   # BR(~chi_2+ -> ~chi_1+  Z )
    -7.92632317E-08    2     1000022        24   # BR(~chi_2+ -> ~chi_10  W+)
    -4.62831174E-04    2     1000023        24   # BR(~chi_2+ -> ~chi_20  W+)
    -4.62746903E-04    2     1000025        24   # BR(~chi_2+ -> ~chi_30  W+)
    -4.80543373E-04    2     1000024        25   # BR(~chi_2+ -> ~chi_1+  h )
    -4.21828458E-04    2     1000024        35   # BR(~chi_2+ -> ~chi_1+  H )
    -4.21883256E-04    2     1000024        36   # BR(~chi_2+ -> ~chi_1+  A )
    -1.02931469E-07    2     1000022        37   # BR(~chi_2+ -> ~chi_10  H+)
    -4.21867846E-04    2     1000023        37   # BR(~chi_2+ -> ~chi_20  H+)
    -4.21780188E-04    2     1000025        37   # BR(~chi_2+ -> ~chi_30  H+)
    -2.71258696E-02    2     1000039        24   # BR(~chi_2+ -> ~G       W+)
    -7.79466625E-09    2     1000039        37   # BR(~chi_2+ -> ~G       H+)
#
#         PDG            Width
DECAY   1000022     1.E-08   # neutralino1 decays (OJ Mods)
#          BR         NDA      ID1       ID2
     7.81985703E-01    2     1000039        22   # BR(~chi_10 -> ~G        gam)
     2.18014111E-01    2     1000039        23   # BR(~chi_10 -> ~G        Z)
     1.85125568E-07    2     1000039        25   # BR(~chi_10 -> ~G        h)
#
#         PDG            Width
DECAY   1000023     1.E-08   # neutralino2 decays (OJ Mods)
#          BR         NDA      ID1       ID2
     9.86502937E-02    2     1000022        23   # BR(~chi_20 -> ~chi_10   Z )
     2.18401757E-03    2     1000022        25   # BR(~chi_20 -> ~chi_10   h )
     1.99989608E-02    2     1000022        35   # BR(~chi_20 -> ~chi_10   H )
     1.92540195E-03    2     1000022        36   # BR(~chi_20 -> ~chi_10   A )
     5.50447246E-08    2     1000002        -2   # BR(~chi_20 -> ~u_L      ub)
     5.50447246E-08    2    -1000002         2   # BR(~chi_20 -> ~u_L*     u )
     2.52241300E-07    2     1000001        -1   # BR(~chi_20 -> ~d_L      db)
     2.52241300E-07    2    -1000001         1   # BR(~chi_20 -> ~d_L*     d )
     5.42979474E-07    2     2000001        -1   # BR(~chi_20 -> ~d_R      db)
     5.42979474E-07    2    -2000001         1   # BR(~chi_20 -> ~d_R*     d )
     5.50447246E-08    2     1000004        -4   # BR(~chi_20 -> ~c_L      cb)
     5.50447246E-08    2    -1000004         4   # BR(~chi_20 -> ~c_L*     c )
     2.52241300E-07    2     1000003        -3   # BR(~chi_20 -> ~s_L      sb)
     2.52241300E-07    2    -1000003         3   # BR(~chi_20 -> ~s_L*     s )
     5.42979474E-07    2     2000003        -3   # BR(~chi_20 -> ~s_R      sb)
     5.42979474E-07    2    -2000003         3   # BR(~chi_20 -> ~s_R*     s )
     1.21898070E+00    2     1000006        -6   # BR(~chi_20 -> ~t_1      tb)
     1.21898070E+00    2    -1000006         6   # BR(~chi_20 -> ~t_1*     t )
    -3.77206107E-01    2     1000005        -5   # BR(~chi_20 -> ~b_1      bb)
    -3.77206107E-01    2    -1000005         5   # BR(~chi_20 -> ~b_1*     b )
    -4.03162278E-01    2     2000005        -5   # BR(~chi_20 -> ~b_2      bb)
    -4.03162278E-01    2    -2000005         5   # BR(~chi_20 -> ~b_2*     b )
     7.68601129E-11    2     1000039        22   # BR(~chi_20 -> ~G        gam)
     4.38505257E-07    2     1000039        23   # BR(~chi_20 -> ~G        Z)
     1.09438335E-05    2     1000039        25   # BR(~chi_20 -> ~G        h)
     8.77173784E-08    2     1000039        35   # BR(~chi_20 -> ~G        H)
     2.26086188E-06    2     1000039        36   # BR(~chi_20 -> ~G        A)
#
#         PDG            Width
DECAY   1000025     2.61452790E+01   # neutralino3 decays
#          BR         NDA      ID1       ID2
     2.25025783E-03    2     1000022        23   # BR(~chi_30 -> ~chi_10   Z )
     1.00457965E-01    2     1000022        25   # BR(~chi_30 -> ~chi_10   h )
     1.89739905E-03    2     1000022        35   # BR(~chi_30 -> ~chi_10   H )
     2.03286181E-02    2     1000022        36   # BR(~chi_30 -> ~chi_10   A )
     1.01908735E-05    2     1000002        -2   # BR(~chi_30 -> ~u_L      ub)
     1.01908735E-05    2    -1000002         2   # BR(~chi_30 -> ~u_L*     u )
     3.05523709E-06    2     1000001        -1   # BR(~chi_30 -> ~d_L      db)
     3.05523709E-06    2    -1000001         1   # BR(~chi_30 -> ~d_L*     d )
     2.44040045E-05    2     2000001        -1   # BR(~chi_30 -> ~d_R      db)
     2.44040045E-05    2    -2000001         1   # BR(~chi_30 -> ~d_R*     d )
     1.01908735E-05    2     1000004        -4   # BR(~chi_30 -> ~c_L      cb)
     1.01908735E-05    2    -1000004         4   # BR(~chi_30 -> ~c_L*     c )
     3.05523709E-06    2     1000003        -3   # BR(~chi_30 -> ~s_L      sb)
     3.05523709E-06    2    -1000003         3   # BR(~chi_30 -> ~s_L*     s )
     2.44040045E-05    2     2000003        -3   # BR(~chi_30 -> ~s_R      sb)
     2.44040045E-05    2    -2000003         3   # BR(~chi_30 -> ~s_R*     s )
     1.23365893E+00    2     1000006        -6   # BR(~chi_30 -> ~t_1      tb)
     1.23365893E+00    2    -1000006         6   # BR(~chi_30 -> ~t_1*     t )
    -3.30670067E-01    2     1000005        -5   # BR(~chi_30 -> ~b_1      bb)
    -3.30670067E-01    2    -1000005         5   # BR(~chi_30 -> ~b_1*     b )
    -4.65528531E-01    2     2000005        -5   # BR(~chi_30 -> ~b_2      bb)
    -4.65528531E-01    2    -2000005         5   # BR(~chi_30 -> ~b_2*     b )
     3.97610860E-09    2     1000039        22   # BR(~chi_30 -> ~G        gam)
     1.10966260E-05    2     1000039        23   # BR(~chi_30 -> ~G        Z)
     4.32914662E-07    2     1000039        25   # BR(~chi_30 -> ~G        h)
     2.27470931E-06    2     1000039        35   # BR(~chi_30 -> ~G        H)
     9.15939179E-08    2     1000039        36   # BR(~chi_30 -> ~G        A)
#
#         PDG            Width
DECAY   1000035    -4.35941836E+05   # neutralino4 decays
#          BR         NDA      ID1       ID2
    -1.30727519E-10    2     1000022        23   # BR(~chi_40 -> ~chi_10   Z )
    -4.60758455E-04    2     1000023        23   # BR(~chi_40 -> ~chi_20   Z )
    -1.60210229E-05    2     1000025        23   # BR(~chi_40 -> ~chi_30   Z )
    -4.62826130E-04    2     1000024       -24   # BR(~chi_40 -> ~chi_1+   W-)
    -4.62826130E-04    2    -1000024        24   # BR(~chi_40 -> ~chi_1-   W+)
    -8.22933069E-08    2     1000022        25   # BR(~chi_40 -> ~chi_10   h )
    -1.12743318E-08    2     1000022        35   # BR(~chi_40 -> ~chi_10   H )
    -9.15208494E-08    2     1000022        36   # BR(~chi_40 -> ~chi_10   A )
    -1.57866174E-05    2     1000023        25   # BR(~chi_40 -> ~chi_20   h )
    -4.03678034E-04    2     1000023        35   # BR(~chi_40 -> ~chi_20   H )
    -1.85566044E-05    2     1000023        36   # BR(~chi_40 -> ~chi_20   A )
    -4.64672748E-04    2     1000025        25   # BR(~chi_40 -> ~chi_30   h )
    -1.81366908E-05    2     1000025        35   # BR(~chi_40 -> ~chi_30   H )
    -4.03233187E-04    2     1000025        36   # BR(~chi_40 -> ~chi_30   A )
    -4.21873810E-04    2     1000024       -37   # BR(~chi_40 -> ~chi_1+   H-)
    -4.21873810E-04    2    -1000024        37   # BR(~chi_40 -> ~chi_1-   H+)
    -1.24224487E-03    2     1000002        -2   # BR(~chi_40 -> ~u_L      ub)
    -1.24224487E-03    2    -1000002         2   # BR(~chi_40 -> ~u_L*     u )
    -1.99556090E-23    2     2000002        -2   # BR(~chi_40 -> ~u_R      ub)
    -1.99556090E-23    2    -2000002         2   # BR(~chi_40 -> ~u_R*     u )
    -1.24224559E-03    2     1000001        -1   # BR(~chi_40 -> ~d_L      db)
    -1.24224559E-03    2    -1000001         1   # BR(~chi_40 -> ~d_L*     d )
    -2.37394083E-17    2     2000001        -1   # BR(~chi_40 -> ~d_R      db)
    -2.37394083E-17    2    -2000001         1   # BR(~chi_40 -> ~d_R*     d )
    -1.24224487E-03    2     1000004        -4   # BR(~chi_40 -> ~c_L      cb)
    -1.24224487E-03    2    -1000004         4   # BR(~chi_40 -> ~c_L*     c )
    -1.99556090E-23    2     2000004        -4   # BR(~chi_40 -> ~c_R      cb)
    -1.99556090E-23    2    -2000004         4   # BR(~chi_40 -> ~c_R*     c )
    -1.24224559E-03    2     1000003        -3   # BR(~chi_40 -> ~s_L      sb)
    -1.24224559E-03    2    -1000003         3   # BR(~chi_40 -> ~s_L*     s )
    -2.37394083E-17    2     2000003        -3   # BR(~chi_40 -> ~s_R      sb)
    -2.37394083E-17    2    -2000003         3   # BR(~chi_40 -> ~s_R*     s )
    -1.51772905E-03    2     1000006        -6   # BR(~chi_40 -> ~t_1      tb)
    -1.51772905E-03    2    -1000006         6   # BR(~chi_40 -> ~t_1*     t )
     2.51123565E-01    2     1000005        -5   # BR(~chi_40 -> ~b_1      bb)
     2.51123565E-01    2    -1000005         5   # BR(~chi_40 -> ~b_1*     b )
     2.70934132E-01    2     2000005        -5   # BR(~chi_40 -> ~b_2      bb)
     2.70934132E-01    2    -2000005         5   # BR(~chi_40 -> ~b_2*     b )
    -6.71804383E-16    2     1000011       -11   # BR(~chi_40 -> ~e_L-     e+)
    -6.71804383E-16    2    -1000011        11   # BR(~chi_40 -> ~e_L+     e-)
    -1.15544178E-28    2     2000011       -11   # BR(~chi_40 -> ~e_R-     e+)
    -1.15544178E-28    2    -2000011        11   # BR(~chi_40 -> ~e_R+     e-)
    -6.71804383E-16    2     1000013       -13   # BR(~chi_40 -> ~mu_L-    mu+)
    -6.71804383E-16    2    -1000013        13   # BR(~chi_40 -> ~mu_L+    mu-)
    -1.15544178E-28    2     2000013       -13   # BR(~chi_40 -> ~mu_R-    mu+)
    -1.15544178E-28    2    -2000013        13   # BR(~chi_40 -> ~mu_R+    mu-)
    -9.59485748E-16    2     1000012       -12   # BR(~chi_40 -> ~nu_eL    nu_eb)
    -9.59485748E-16    2    -1000012        12   # BR(~chi_40 -> ~nu_eL*   nu_e )
    -9.59485748E-16    2     1000014       -14   # BR(~chi_40 -> ~nu_muL   nu_mub)
    -9.59485748E-16    2    -1000014        14   # BR(~chi_40 -> ~nu_muL*  nu_mu )
    -9.59485748E-16    2     1000016       -16   # BR(~chi_40 -> ~nu_tau1  nu_taub)
    -9.59485748E-16    2    -1000016        16   # BR(~chi_40 -> ~nu_tau1* nu_tau )
    -6.56276928E-03    2     1000039        22   # BR(~chi_40 -> ~G        gam)
    -2.05629740E-02    2     1000039        23   # BR(~chi_40 -> ~G        Z)
    -1.24388522E-09    2     1000039        25   # BR(~chi_40 -> ~G        h)
    -7.80740787E-09    2     1000039        35   # BR(~chi_40 -> ~G        H)
    -1.53855985E-12    2     1000039        36   # BR(~chi_40 -> ~G        A)
#
#
#
#
