# SUSY Les Houches Accord 2 - MSSM spectrum + Decays
# SPheno v3.1.12 
# W. Porod, Comput. Phys. Commun. 153 (2003) 275-315, hep-ph/0301101
# in case of problems send email to porod@physik.uni-wuerzburg.de
# Created: 12.11.2012,  11:42
Block SPINFO         # Program information
     1   SPheno      # spectrum calculator
     2   v3.1.12     # version number
#
Block SPhenoINFO     # SPheno specific information
    1      2         # using 2-loop RGEs
    2      1         # using running masses for boundary conditions at mZ
Block MODSEL  # Model selection
    1    2    # mGMSB model
Block MINPAR  # Input parameters
    1    7.00000000E+04  # Lambda, scale of SUSY breaking
    2    2.50000000E+05  # M_M, messenger mass scale
    3    4.00000000E+01  # tanb at m_Z   
    4    1.00000000E+00  # Sign(mu)
    5    3.00000000E+00  # N_5 number of effective five-plets
    6    1.00000000E+00  # c_grav, Gravitino mass factor
Block gauge Q=  2.50000000E+05  # (GMSB scale)
   1    4.94367678E-01  # g'(Q)^DRbar
   2    6.51862990E-01  # g(Q)^DRbar
   3    9.47880046E-01  # g3(Q)^DRbar
Block SMINPUTS  # SM parameters
         1     1.27932512E+02  # alpha_em^-1(MZ)^MSbar
         2     1.16639000E-05  # G_mu [GeV^-2]
         3     1.17200000E-01  # alpha_s(MZ)^MSbar
         4     9.11876000E+01  # m_Z(pole)
         5     4.20000000E+00  # m_b(m_b), MSbar
         6     1.72500000E+02  # m_t(pole)
         7     1.77700000E+00  # m_tau(pole)
         8     0.00000000E+00  # m_nu_3
        11     5.10998910E-04  # m_e(pole)
        12     0.00000000E+00  # m_nu_1
        13     1.05658000E-01  # m_muon(pole)
        14     0.00000000E+00  # m_nu_2
        21     5.00000000E-03  # m_d(2 GeV), MSbar
        22     3.00000000E-03  # m_u(2 GeV), MSbar
        23     1.05000000E-01  # m_s(2 GeV), MSbar
        24     1.27000000E+00  # m_c(m_c), MSbar
Block gauge Q=  1.37369717E+03  # (SUSY scale)
   1    3.63791035E-01  # g'(Q)^DRbar
   2    6.41325746E-01  # g(Q)^DRbar
   3    1.04181019E+00  # g3(Q)^DRbar
Block Yu Q=  1.37369717E+03  # (SUSY scale)
  1  1     8.51276857E-06   # Y_u(Q)^DRbar
  2  2     3.60374025E-03   # Y_c(Q)^DRbar
  3  3     8.53611004E-01   # Y_t(Q)^DRbar
Block Yd Q=  1.37369717E+03  # (SUSY scale)
  1  1     4.83844681E-04   # Y_d(Q)^DRbar
  2  2     1.01607331E-02   # Y_s(Q)^DRbar
  3  3     4.89566128E-01   # Y_b(Q)^DRbar
Block Ye Q=  1.37369717E+03  # (SUSY scale)
  1  1     1.23106530E-04   # Y_e(Q)^DRbar
  2  2     2.54546433E-02   # Y_mu(Q)^DRbar
  3  3     4.28874932E-01   # Y_tau(Q)^DRbar
Block Au Q=  1.37369717E+03  # (SUSY scale)
  1  1    -4.73365599E+02   # A_u(Q)^DRbar
  2  2    -4.73363670E+02   # A_c(Q)^DRbar
  3  3    -4.40999044E+02   # A_t(Q)^DRbar
Block Ad Q=  1.37369717E+03  # (SUSY scale)
  1  1    -4.95509951E+02   # A_d(Q)^DRbar
  2  2    -4.95505500E+02   # A_s(Q)^DRbar
  3  3    -4.76134178E+02   # A_b(Q)^DRbar
Block Ae Q=  1.37369717E+03  # (SUSY scale)
  1  1    -4.18947090E+01   # A_e(Q)^DRbar
  2  2    -4.18915138E+01   # A_mu(Q)^DRbar
  3  3    -4.09902021E+01   # A_tau(Q)^DRbar
Block MSOFT Q=  1.37369717E+03  # soft SUSY breaking masses at Q
   1    2.95079067E+02  # M_1
   2    5.48123877E+02  # M_2
   3    1.45386971E+03  # M_3
  21    4.57326161E+04  # M^2_(H,d)
  22   -2.40915769E+05  # M^2_(H,u)
  31    4.42033764E+02  # M_(L,11)
  32    4.42018282E+02  # M_(L,22)
  33    4.37639014E+02  # M_(L,33)
  34    2.12315339E+02  # M_(E,11)
  35    2.12249597E+02  # M_(E,22)
  36    1.92801742E+02  # M_(E,33)
  41    1.43414482E+03  # M_(Q,11)
  42    1.43413717E+03  # M_(Q,22)
  43    1.37079404E+03  # M_(Q,33)
  44    1.37799548E+03  # M_(U,11)
  45    1.37799371E+03  # M_(U,22)
  46    1.27662665E+03  # M_(U,33)
  47    1.37266151E+03  # M_(D,11)
  48    1.37264715E+03  # M_(D,22)
  49    1.33922912E+03  # M_(D,33)
Block MASS  # Mass spectrum
#   PDG code      mass          particle
         6     1.72500000E+02  # m_t(pole)
        23     9.11876000E+01  # m_Z(pole)
        24     8.03112016E+01  # W+
        15     1.77700000E+00  # m_tau(pole)
        25     1.16129063E+02  # h0
        35     5.53340946E+02  # H0
        36     5.53268887E+02  # A0
        37     5.59840078E+02  # H+
   1000001     1.49462655E+03  # ~d_L
   2000001     1.43039813E+03  # ~d_R
   1000002     1.49259541E+03  # ~u_L
   2000002     1.43482156E+03  # ~u_R
   1000003     1.49461901E+03  # ~s_L
   2000003     1.43037921E+03  # ~s_R
   1000004     1.49258662E+03  # ~c_L
   2000004     1.43481936E+03  # ~c_R
   1000005     1.38265205E+03  # ~b_1
   2000005     1.42628249E+03  # ~b_2
   1000006     1.31685345E+03  # ~t_1
   2000006     1.43299487E+03  # ~t_2
   1000011     4.52913636E+02  # ~e_L-
   2000011     2.23893857E+02  # ~e_R-
   1000012     4.45484135E+02  # ~nu_eL
   1000013     4.52931804E+02  # ~mu_L-
   2000013     2.23734804E+02  # ~mu_R-
   1000014     4.45462023E+02  # ~nu_muL
   1000015     1.75885089E+02  # ~tau_1-
   2000015     4.57153239E+02  # ~tau_2-
   1000016     4.39322146E+02  # ~nu_tauL
   1000021     1.53746209E+03  # ~g
   1000022     2.85443814E+02  # ~chi_10
   1000023     4.90540588E+02  # ~chi_20
   1000025    -5.34572964E+02  # ~chi_30
   1000035     6.06550483E+02  # ~chi_40
   1000024     4.89470603E+02  # ~chi_1+
   1000037     6.06502306E+02  # ~chi_2+
   1000039     4.20000000E-09  # ~G
# Higgs mixing
Block alpha # Effective Higgs mixing angle
          -2.74436022E-02   # alpha
Block Hmix Q=  1.37369717E+03  # Higgs mixing parameters
   1    5.27038551E+02  # mu
   2    3.90547446E+01  # tan[beta](Q)
   3    2.43813486E+02  # v(Q)
   4    2.78945286E+05  # m^2_A(Q)
Block stopmix # stop mixing matrix
   1  1     2.59114256E-01   # Re[R_st(1,1)]
   1  2     9.65846676E-01   # Re[R_st(1,2)]
   2  1    -9.65846676E-01   # Re[R_st(2,1)]
   2  2     2.59114256E-01   # Re[R_st(2,2)]
Block sbotmix # sbottom mixing matrix
   1  1     4.20846572E-01   # Re[R_sb(1,1)]
   1  2     9.07131833E-01   # Re[R_sb(1,2)]
   2  1    -9.07131833E-01   # Re[R_sb(2,1)]
   2  2     4.20846572E-01   # Re[R_sb(2,2)]
Block staumix # stau mixing matrix
   1  1     2.28315474E-01   # Re[R_sta(1,1)]
   1  2     9.73587204E-01   # Re[R_sta(1,2)]
   2  1    -9.73587204E-01   # Re[R_sta(2,1)]
   2  2     2.28315474E-01   # Re[R_sta(2,2)]
Block Nmix # neutralino mixing matrix
   1  1    -9.89852112E-01   # Re[N(1,1)]
   1  2     2.04347310E-02   # Re[N(1,2)]
   1  3    -1.22737450E-01   # Re[N(1,3)]
   1  4     6.86347991E-02   # Re[N(1,4)]
   2  1     1.20241543E-01   # Re[N(2,1)]
   2  2     6.15592285E-01   # Re[N(2,2)]
   2  3    -5.71106952E-01   # Re[N(2,3)]
   2  4     5.29551659E-01   # Re[N(2,4)]
   3  1     3.70197193E-02   # Re[N(3,1)]
   3  2    -5.00610242E-02   # Re[N(3,2)]
   3  3    -7.03039602E-01   # Re[N(3,3)]
   3  4    -7.08419898E-01   # Re[N(3,4)]
   4  1    -6.60629037E-02   # Re[N(4,1)]
   4  2     7.86207641E-01   # Re[N(4,2)]
   4  3     4.05595470E-01   # Re[N(4,3)]
   4  4    -4.61525246E-01   # Re[N(4,4)]
Block Umix # chargino mixing matrix
   1  1    -5.72528115E-01   # Re[U(1,1)]
   1  2     8.19885088E-01   # Re[U(1,2)]
   2  1     8.19885088E-01   # Re[U(2,1)]
   2  2     5.72528115E-01   # Re[U(2,2)]
Block Vmix # chargino mixing matrix
   1  1    -6.51419760E-01   # Re[V(1,1)]
   1  2     7.58717534E-01   # Re[V(1,2)]
   2  1     7.58717534E-01   # Re[V(2,1)]
   2  2     6.51419760E-01   # Re[V(2,2)]
DECAY   2000011     2.06529614E-06   # ~e^-_R
#    BR                NDA      ID1      ID2
     1.76963053E-05    2     1000039        11   # BR(~e^-_R -> ~G e^-)
#    BR                NDA      ID1      ID2       ID3
     2.06434543E-14    3     2000013        11       -13   # BR(~e^-_R -> ~mu^-_R e^- mu^+)
     5.52868682E-14    3    -2000013        11        13   # BR(~e^-_R -> ~mu^+_R e^- mu^-)
     2.36302571E-01    3     1000015        11       -15   # BR(~e^-_R -> ~tau^-_1 e^- tau^+)
     7.63679732E-01    3    -1000015        11        15   # BR(~e^-_R -> ~tau^+_1 e^- tau^-)
DECAY   1000011     1.97108159E-01   # ~e^-_L
#    BR                NDA      ID1      ID2
     9.99999424E-01    2     1000022        11   # BR(~e^-_L -> chi^0_1 e^-)
     2.68919554E-07    2     2000011        23   # BR(~e^-_L -> ~e^-_R Z)
     3.01174981E-07    2     2000011        25   # BR(~e^-_L -> ~e^-_R h^0)
     6.28096577E-09    2     1000039        11   # BR(~e^-_L -> ~G e^-)
DECAY   2000013     2.03420626E-06   # ~mu^-_R
#    BR                NDA      ID1      ID2
     1.79030246E-05    2     1000039        13   # BR(~mu^-_R -> ~G mu^-)
#    BR                NDA      ID1      ID2       ID3
     2.35768348E-01    3     1000015        13       -15   # BR(~mu^-_R -> ~tau^-_1 mu^- tau^+)
     7.64213749E-01    3    -1000015        13        15   # BR(~mu^-_R -> ~tau^+_1 mu^- tau^-)
DECAY   1000013     2.02039368E-01   # ~mu^-_L
#    BR                NDA      ID1      ID2
     9.76214675E-01    2     1000022        13   # BR(~mu^-_L -> chi^0_1 mu^-)
     1.12260577E-02    2     2000013        23   # BR(~mu^-_L -> ~mu^-_R Z)
     1.25592616E-02    2     2000013        25   # BR(~mu^-_L -> ~mu^-_R h^0)
     6.12889294E-09    2     1000039        13   # BR(~mu^-_L -> ~G mu^-)
DECAY   1000015     1.09300419E-11   # ~tau^-_1
#    BR                NDA      ID1      ID2
     1.00000000E+00    2     1000039        15   # BR(~tau^-_1 -> ~G tau^-)
DECAY   2000015     1.68617942E+00   # ~tau^-_2
#    BR                NDA      ID1      ID2
     1.34353515E-01    2     1000022        15   # BR(~tau^-_2 -> chi^0_1 tau^-)
     4.61840961E-01    2     1000015        23   # BR(~tau^-_2 -> ~tau^-_1 Z)
     4.03805523E-01    2     1000015        25   # BR(~tau^-_2 -> ~tau^-_1 h^0)
     7.69188921E-10    2     1000039        15   # BR(~tau^-_2 -> ~G tau^-)
DECAY   1000012     2.14439939E-01   # ~nu_e
#    BR                NDA      ID1      ID2
     9.99999526E-01    2     1000022        12   # BR(~nu_e -> chi^0_1 nu_e)
     4.68395726E-07    2     2000011        24   # BR(~nu_e -> ~e^-_R W^+)
     5.31507730E-09    2     1000039        12   # BR(~nu_e -> ~G nu_e)
DECAY   1000014     2.18696089E-01   # ~nu_mu
#    BR                NDA      ID1      ID2
     9.80353786E-01    2     1000022        14   # BR(~nu_mu -> chi^0_1 nu_mu)
     1.96462084E-02    2     2000013        24   # BR(~nu_mu -> ~mu^-_R W^+)
     5.21034473E-09    2     1000039        14   # BR(~nu_mu -> ~G nu_mu)
DECAY   1000016     1.60082090E+00   # ~nu_tau
#    BR                NDA      ID1      ID2
     1.26955848E-01    2     1000022        16   # BR(~nu_tau -> chi^0_1 nu_tau)
     8.73044151E-01    2     1000015        24   # BR(~nu_tau -> ~tau^-_1 W^+)
     6.64089760E-10    2     1000039        16   # BR(~nu_tau -> ~G nu_tau)
DECAY   2000001     7.68739658E-01   # ~d_R
#    BR                NDA      ID1      ID2
     9.83429398E-01    2     1000022         1   # BR(~d_R -> chi^0_1 d)
     1.22588375E-02    2     1000023         1   # BR(~d_R -> chi^0_2 d)
     1.10734532E-03    2     1000025         1   # BR(~d_R -> chi^0_3 d)
     3.19650136E-03    2     1000035         1   # BR(~d_R -> chi^0_4 d)
     6.88381762E-06    2    -1000024         2   # BR(~d_R -> chi^-_1 u)
     5.28361932E-07    2    -1000037         2   # BR(~d_R -> chi^-_2 u)
     5.06010382E-07    2     1000039         1   # BR(~d_R -> ~G d)
DECAY   1000001     1.36243071E+01   # ~d_L
#    BR                NDA      ID1      ID2
     1.79577763E-02    2     1000022         1   # BR(~d_L -> chi^0_1 d)
     1.25597384E-01    2     1000023         1   # BR(~d_L -> chi^0_2 d)
     1.11157803E-03    2     1000025         1   # BR(~d_L -> chi^0_3 d)
     1.99773153E-01    2     1000035         1   # BR(~d_L -> chi^0_4 d)
     2.34509871E-01    2    -1000024         2   # BR(~d_L -> chi^-_1 u)
     4.21050202E-01    2    -1000037         2   # BR(~d_L -> chi^-_2 u)
     3.55633846E-08    2     1000039         1   # BR(~d_L -> ~G d)
DECAY   2000003     7.73580139E-01   # ~s_R
#    BR                NDA      ID1      ID2
     9.77411016E-01    2     1000022         3   # BR(~s_R -> chi^0_1 s)
     1.36329544E-02    2     1000023         3   # BR(~s_R -> chi^0_2 s)
     2.42131251E-03    2     1000025         3   # BR(~s_R -> chi^0_3 s)
     3.28616226E-03    2     1000035         3   # BR(~s_R -> chi^0_4 s)
     3.01645407E-03    2    -1000024         4   # BR(~s_R -> chi^-_1 c)
     2.31598137E-04    2    -1000037         4   # BR(~s_R -> chi^-_2 c)
     5.02810883E-07    2     1000039         3   # BR(~s_R -> ~G s)
DECAY   1000003     1.36263105E+01   # ~s_L
#    BR                NDA      ID1      ID2
     1.79523027E-02    2     1000022         3   # BR(~s_L -> chi^0_1 s)
     1.25606441E-01    2     1000023         3   # BR(~s_L -> chi^0_2 s)
     1.19983183E-03    2     1000025         3   # BR(~s_L -> chi^0_3 s)
     1.99787145E-01    2     1000035         3   # BR(~s_L -> chi^0_4 s)
     2.34421927E-01    2    -1000024         4   # BR(~s_L -> chi^-_1 c)
     4.21032316E-01    2    -1000037         4   # BR(~s_L -> chi^-_2 c)
     3.55572582E-08    2     1000039         3   # BR(~s_L -> ~G s)
DECAY   1000005     1.36313719E+01   # ~b_1
#    BR                NDA      ID1      ID2
     7.57488994E-02    2     1000022         5   # BR(~b_1 -> chi^0_1 b)
     2.22240244E-01    2     1000023         5   # BR(~b_1 -> chi^0_2 b)
     1.61116777E-01    2     1000025         5   # BR(~b_1 -> chi^0_3 b)
     8.05990376E-03    2     1000035         5   # BR(~b_1 -> chi^0_4 b)
     4.65488906E-01    2    -1000024         6   # BR(~b_1 -> chi^-_1 t)
     6.73452453E-02    2    -1000037         6   # BR(~b_1 -> chi^-_2 t)
     2.40803590E-08    2     1000039         5   # BR(~b_1 -> ~G b)
DECAY   2000005     2.86298903E+01   # ~b_2
#    BR                NDA      ID1      ID2
     3.56422974E-03    2     1000022         5   # BR(~b_2 -> chi^0_1 b)
     6.51700688E-02    2     1000023         5   # BR(~b_2 -> chi^0_2 b)
     9.31467442E-02    2     1000025         5   # BR(~b_2 -> chi^0_3 b)
     1.35995505E-01    2     1000035         5   # BR(~b_2 -> chi^0_4 b)
     2.62624667E-01    2    -1000024         6   # BR(~b_2 -> chi^-_1 t)
     4.35927247E-01    2    -1000037         6   # BR(~b_2 -> chi^-_2 t)
     3.57152437E-03    2     1000006       -24   # BR(~b_2 -> ~t_1 W^-)
     1.33920498E-08    2     1000039         5   # BR(~b_2 -> ~G b)
DECAY   2000002     3.08606708E+00   # ~u_R
#    BR                NDA      ID1      ID2
     9.83421411E-01    2     1000022         2   # BR(~u_R -> chi^0_1 u)
     1.22692777E-02    2     1000023         2   # BR(~u_R -> chi^0_2 u)
     1.10595962E-03    2     1000025         2   # BR(~u_R -> chi^0_3 u)
     3.20322324E-03    2     1000035         2   # BR(~u_R -> chi^0_4 u)
     5.44556554E-10    2     1000024         1   # BR(~u_R -> chi^+_1 d)
     5.44577745E-11    2     1000037         1   # BR(~u_R -> chi^+_2 d)
     1.28008310E-07    2     1000039         2   # BR(~u_R -> ~G u)
DECAY   1000002     1.37223204E+01   # ~u_L
#    BR                NDA      ID1      ID2
     1.14824289E-02    2     1000022         2   # BR(~u_L -> chi^0_1 u)
     1.44271068E-01    2     1000023         2   # BR(~u_L -> chi^0_2 u)
     6.27057811E-04    2     1000025         2   # BR(~u_L -> chi^0_3 u)
     1.85679452E-01    2     1000035         2   # BR(~u_L -> chi^0_4 u)
     3.00816775E-01    2     1000024         1   # BR(~u_L -> chi^+_1 d)
     3.57123183E-01    2     1000037         1   # BR(~u_L -> chi^+_2 d)
     3.50701002E-08    2     1000039         2   # BR(~u_L -> ~G u)
DECAY   2000004     3.08668184E+00   # ~c_R
#    BR                NDA      ID1      ID2
     9.83220236E-01    2     1000022         4   # BR(~c_R -> chi^0_1 c)
     1.23125050E-02    2     1000023         4   # BR(~c_R -> chi^0_2 c)
     1.15333381E-03    2     1000025         4   # BR(~c_R -> chi^0_3 c)
     3.20646207E-03    2     1000035         4   # BR(~c_R -> chi^0_4 c)
     9.75785050E-05    2     1000024         3   # BR(~c_R -> chi^+_1 s)
     9.75659288E-06    2     1000037         3   # BR(~c_R -> chi^+_2 s)
     1.27981431E-07    2     1000039         4   # BR(~c_R -> ~G c)
DECAY   1000004     1.37247328E+01   # ~c_L
#    BR                NDA      ID1      ID2
     1.14809117E-02    2     1000022         4   # BR(~c_L -> chi^0_1 c)
     1.44244809E-01    2     1000023         4   # BR(~c_L -> chi^0_2 c)
     6.37157600E-04    2     1000025         4   # BR(~c_L -> chi^0_3 c)
     1.85653428E-01    2     1000035         4   # BR(~c_L -> chi^0_4 c)
     3.00869567E-01    2     1000024         3   # BR(~c_L -> chi^+_1 s)
     3.57114092E-01    2     1000037         3   # BR(~c_L -> chi^+_2 s)
     3.50628012E-08    2     1000039         4   # BR(~c_L -> ~G c)
DECAY   1000006     2.93946135E+01   # ~t_1
#    BR                NDA      ID1      ID2
     3.80298854E-04    2     1000022         4   # BR(~t_1 -> chi^0_1 c)
     9.15796229E-02    2     1000022         6   # BR(~t_1 -> chi^0_1 t)
     4.55213872E-03    2     1000023         4   # BR(~t_1 -> chi^0_2 c)
     1.63083414E-01    2     1000023         6   # BR(~t_1 -> chi^0_2 t)
     2.37427290E-01    2     1000025         6   # BR(~t_1 -> chi^0_3 t)
     4.34066809E-02    2     1000035         6   # BR(~t_1 -> chi^0_4 t)
     3.63313671E-01    2     1000024         5   # BR(~t_1 -> chi^+_1 b)
     9.62400873E-02    2     1000037         5   # BR(~t_1 -> chi^+_2 b)
     8.16593266E-09    2     1000039         6   # BR(~t_1 -> ~G t)
#    BR                NDA      ID1      ID2       ID3
     1.67875735E-05    3     1000022        24         5   # BR(~t_1 -> chi^0_1 W^+ b)
DECAY   2000006     3.20636316E+01   # ~t_2
#    BR                NDA      ID1      ID2
     6.74023904E-03    2     1000022         6   # BR(~t_2 -> chi^0_1 t)
     1.41920559E-01    2     1000023         6   # BR(~t_2 -> chi^0_2 t)
     2.14875999E-01    2     1000025         6   # BR(~t_2 -> chi^0_3 t)
     2.21821672E-01    2     1000035         6   # BR(~t_2 -> chi^0_4 t)
     1.42515250E-01    2     1000024         5   # BR(~t_2 -> chi^+_1 b)
     2.70401792E-01    2     1000037         5   # BR(~t_2 -> chi^+_2 b)
     1.66751443E-03    2     1000006        23   # BR(~t_2 -> ~t_1 Z)
     5.69633754E-05    2     1000006        25   # BR(~t_2 -> ~t_1 h^0)
     1.15480179E-08    2     1000039         6   # BR(~t_2 -> ~G t)
DECAY   1000024     9.75843758E-01   # chi^+_1
#    BR                NDA      ID1      ID2
     5.10795305E-08    2    -2000011        12   # BR(chi^+_1 -> ~e^+_R nu_e)
     1.39087254E-02    2    -1000011        12   # BR(chi^+_1 -> ~e^+_L nu_e)
     2.18464324E-03    2    -2000013        14   # BR(chi^+_1 -> ~mu^+_R nu_mu)
     1.38682159E-02    2    -1000013        14   # BR(chi^+_1 -> ~mu^+_L nu_mu)
     6.87276295E-01    2    -1000015        16   # BR(chi^+_1 -> ~tau^+_1 nu_tau)
     6.25090460E-03    2    -2000015        16   # BR(chi^+_1 -> ~tau^+_2 nu_tau)
     2.56589340E-02    2     1000012       -11   # BR(chi^+_1 -> ~nu_e e^+)
     2.57539983E-02    2     1000014       -13   # BR(chi^+_1 -> ~nu_mu mu^+)
     5.82660137E-02    2     1000016       -15   # BR(chi^+_1 -> ~nu_tau tau^+)
     1.66788336E-01    2     1000022        24   # BR(chi^+_1 -> chi^0_1 W^+)
#    BR                NDA      ID1      ID2       ID3
     2.62170201E-08    3     1000022        -1         2   # BR(chi^+_1 -> chi^0_1 d_bar u)
     2.88474961E-08    3     1000022        -3         4   # BR(chi^+_1 -> chi^0_1 s_bar c)
     6.21820249E-06    3     1000022        -5         6   # BR(chi^+_1 -> chi^0_1 b_bar t)
     5.42490298E-12    3     1000022       -11        12   # BR(chi^+_1 -> chi^0_1 e^+ nu_e)
     2.31371172E-07    3     1000022       -13        14   # BR(chi^+_1 -> chi^0_1 mu^+ nu_mu)
     3.73785290E-05    3     1000022       -15        16   # BR(chi^+_1 -> chi^0_1 tau^+ nu_tau)
DECAY   1000037     2.64796836E+00   # chi^+_2
#    BR                NDA      ID1      ID2
     1.71747871E-09    2    -2000011        12   # BR(chi^+_2 -> ~e^+_R nu_e)
     1.23255040E-01    2    -1000011        12   # BR(chi^+_2 -> ~e^+_L nu_e)
     7.35066806E-05    2    -2000013        14   # BR(chi^+_2 -> ~mu^+_R nu_mu)
     1.23305504E-01    2    -1000013        14   # BR(chi^+_2 -> ~mu^+_L nu_mu)
     2.70679399E-02    2    -1000015        16   # BR(chi^+_2 -> ~tau^+_1 nu_tau)
     1.37079659E-01    2    -2000015        16   # BR(chi^+_2 -> ~tau^+_2 nu_tau)
     1.14387258E-01    2     1000012       -11   # BR(chi^+_2 -> ~nu_e e^+)
     1.14511296E-01    2     1000014       -13   # BR(chi^+_2 -> ~nu_mu mu^+)
     1.51380619E-01    2     1000016       -15   # BR(chi^+_2 -> ~nu_tau tau^+)
     3.16985460E-02    2     1000022        24   # BR(chi^+_2 -> chi^0_1 W^+)
     1.07084941E-01    2     1000023        24   # BR(chi^+_2 -> chi^0_2 W^+)
     6.73375474E-02    2     1000024        23   # BR(chi^+_2 -> chi^+_1 Z)
     2.13341376E-03    2     1000024        25   # BR(chi^+_2 -> chi^+_1 h^0)
#    BR                NDA      ID1      ID2       ID3
     1.22535494E-08    3     1000024         2        -2   # BR(chi^+_2 -> chi^+_1 u u_bar)
     1.22255058E-08    3     1000024         4        -4   # BR(chi^+_2 -> chi^+_1 c c_bar)
     1.36710876E-08    3     1000024         1        -1   # BR(chi^+_2 -> chi^+_1 d d_bar)
     1.40161462E-08    3     1000024         3        -3   # BR(chi^+_2 -> chi^+_1 s s_bar)
     8.44809730E-07    3     1000024         5        -5   # BR(chi^+_2 -> chi^+_1 b b_bar)
     1.91242903E-06    3     1000024        11       -11   # BR(chi^+_2 -> chi^+_1 e^- e^+)
     1.91671549E-06    3     1000024        13       -13   # BR(chi^+_2 -> chi^+_1 mu^- mu^+)
     3.07582858E-06    3     1000024        15       -15   # BR(chi^+_2 -> chi^+_1 tau^- tau^+)
     5.29662685E-06    3     1000024        12       -12   # BR(chi^+_2 -> chi^+_1 nu_e nu_bar_e)
     1.29103794E-07    3     1000022        -1         2   # BR(chi^+_2 -> chi^0_1 d_bar u)
     1.29906457E-07    3     1000022        -3         4   # BR(chi^+_2 -> chi^0_1 s_bar c)
     5.68717310E-05    3     1000022        -5         6   # BR(chi^+_2 -> chi^0_1 b_bar t)
     4.30500155E-13    3     1000022       -11        12   # BR(chi^+_2 -> chi^0_1 e^+ nu_e)
     1.83871893E-08    3     1000022       -13        14   # BR(chi^+_2 -> chi^0_1 mu^+ nu_mu)
     4.15334492E-06    3     1000022       -15        16   # BR(chi^+_2 -> chi^0_1 tau^+ nu_tau)
     6.36974375E-09    3     1000023        -1         2   # BR(chi^+_2 -> chi^0_2 d_bar u)
     6.70410835E-09    3     1000023        -3         4   # BR(chi^+_2 -> chi^0_2 s_bar c)
     1.16152602E-06    3     1000023       -11        12   # BR(chi^+_2 -> chi^0_2 e^+ nu_e)
     1.16240569E-06    3     1000023       -13        14   # BR(chi^+_2 -> chi^0_2 mu^+ nu_mu)
     1.43753576E-06    3     1000023       -15        16   # BR(chi^+_2 -> chi^0_2 tau^+ nu_tau)
     2.02595527E-04    3     1000025        -1         2   # BR(chi^+_2 -> chi^0_3 d_bar u)
     2.02437644E-04    3     1000025        -3         4   # BR(chi^+_2 -> chi^0_3 s_bar c)
     6.75580426E-05    3     1000025       -11        12   # BR(chi^+_2 -> chi^0_3 e^+ nu_e)
     6.75542366E-05    3     1000025       -13        14   # BR(chi^+_2 -> chi^0_3 mu^+ nu_mu)
     6.64057543E-05    3     1000025       -15        16   # BR(chi^+_2 -> chi^0_3 tau^+ nu_tau)
DECAY   1000022     1.00035093E+00   # chi^0_1
#    BR                NDA      ID1      ID2
     1.08975175E-01    2     2000011       -11   # BR(chi^0_1 -> ~e^-_R e^+)
     1.08975175E-01    2    -2000011        11   # BR(chi^0_1 -> ~e^+_R e^-)
     1.09465349E-01    2     2000013       -13   # BR(chi^0_1 -> ~mu^-_R mu^+)
     1.09465349E-01    2    -2000013        13   # BR(chi^0_1 -> ~mu^+_R mu^-)
     2.81559476E-01    2     1000015       -15   # BR(chi^0_1 -> ~tau^-_1 tau^+)
     2.81559476E-01    2    -1000015        15   # BR(chi^0_1 -> ~tau^+_1 tau^-)
     8.90959090E-11    2     1000039        22   # BR(chi^0_1 -> ~G photon)
     2.69370083E-11    2     1000039        23   # BR(chi^0_1 -> ~G Z)
     6.20050716E-13    2     1000039        25   # BR(chi^0_1 -> ~G h^0)
DECAY   1000023     1.06494688E+00   # chi^0_2
#    BR                NDA      ID1      ID2
     1.09897707E-02    2     2000011       -11   # BR(chi^0_2 -> ~e^-_R e^+)
     1.09897707E-02    2    -2000011        11   # BR(chi^0_2 -> ~e^+_R e^-)
     9.58896086E-03    2     1000011       -11   # BR(chi^0_2 -> ~e^-_L e^+)
     9.58896086E-03    2    -1000011        11   # BR(chi^0_2 -> ~e^+_L e^-)
     1.19783991E-02    2     2000013       -13   # BR(chi^0_2 -> ~mu^-_R mu^+)
     1.19783991E-02    2    -2000013        13   # BR(chi^0_2 -> ~mu^+_R mu^-)
     9.59082096E-03    2     1000013       -13   # BR(chi^0_2 -> ~mu^-_L mu^+)
     9.59082096E-03    2    -1000013        13   # BR(chi^0_2 -> ~mu^+_L mu^-)
     3.32781762E-01    2     1000015       -15   # BR(chi^0_2 -> ~tau^-_1 tau^+)
     3.32781762E-01    2    -1000015        15   # BR(chi^0_2 -> ~tau^+_1 tau^-)
     1.03765537E-02    2     2000015       -15   # BR(chi^0_2 -> ~tau^-_2 tau^+)
     1.03765537E-02    2    -2000015        15   # BR(chi^0_2 -> ~tau^+_2 tau^-)
     8.67261092E-03    2     1000012       -12   # BR(chi^0_2 -> ~nu_e nu_bar_e)
     8.67261092E-03    2    -1000012        12   # BR(chi^0_2 -> ~nu^*_e nu_e)
     8.68071519E-03    2     1000014       -14   # BR(chi^0_2 -> ~nu_mu nu_bar_mu)
     8.68071519E-03    2    -1000014        14   # BR(chi^0_2 -> ~nu^*_mu nu_mu)
     1.10599112E-02    2     1000016       -16   # BR(chi^0_2 -> ~nu_tau nu_bar_tau)
     1.10599112E-02    2    -1000016        16   # BR(chi^0_2 -> ~nu^*_tau nu_tau)
     1.45397302E-02    2     1000022        23   # BR(chi^0_2 -> chi^0_1 Z)
     1.57968942E-01    2     1000022        25   # BR(chi^0_2 -> chi^0_1 h^0)
     2.88865847E-10    2     1000039        22   # BR(chi^0_2 -> ~G photon)
     7.22223258E-11    2     1000039        23   # BR(chi^0_2 -> ~G Z)
     5.13056359E-10    2     1000039        25   # BR(chi^0_2 -> ~G h^0)
     5.78272580E-07    2     1000022        22   # BR(chi^0_2 -> chi^0_1 photon)
#    BR                NDA      ID1      ID2       ID3
     1.60311031E-08    3     1000022         2        -2   # BR(chi^0_2 -> chi^0_1 u u_bar)
     1.60354432E-08    3     1000022         4        -4   # BR(chi^0_2 -> chi^0_1 c c_bar)
     1.46899561E-08    3     1000022         1        -1   # BR(chi^0_2 -> chi^0_1 d d_bar)
     1.77937582E-08    3     1000022         3        -3   # BR(chi^0_2 -> chi^0_1 s s_bar)
     7.32909665E-06    3     1000022         5        -5   # BR(chi^0_2 -> chi^0_1 b b_bar)
     3.82802613E-06    3     1000022        11       -11   # BR(chi^0_2 -> chi^0_1 e^- e^+)
     4.01928377E-06    3     1000022        13       -13   # BR(chi^0_2 -> chi^0_1 mu^- mu^+)
     3.64989836E-05    3     1000022        15       -15   # BR(chi^0_2 -> chi^0_1 tau^- tau^+)
     1.00946939E-12    3     1000024         1        -2   # BR(chi^0_2 -> chi^+_1 d u_bar)
     1.00946939E-12    3    -1000024        -1         2   # BR(chi^0_2 -> chi^-_1 d_bar u)
     3.05445617E-13    3     1000024        11       -12   # BR(chi^0_2 -> chi^+_1 e^- nu_bar_e)
     3.05445617E-13    3    -1000024       -11        12   # BR(chi^0_2 -> chi^-_1 e^+ nu_e)
     2.91136596E-13    3     1000024        13       -14   # BR(chi^0_2 -> chi^+_1 mu^- nu_bar_mu)
     2.91136596E-13    3    -1000024       -13        14   # BR(chi^0_2 -> chi^-_1 mu^+ nu_mu)
DECAY   1000025     1.10964917E+00   # chi^0_3
#    BR                NDA      ID1      ID2
     1.18195098E-03    2     2000011       -11   # BR(chi^0_3 -> ~e^-_R e^+)
     1.18195098E-03    2    -2000011        11   # BR(chi^0_3 -> ~e^+_R e^-)
     6.62758146E-05    2     1000011       -11   # BR(chi^0_3 -> ~e^-_L e^+)
     6.62758146E-05    2    -1000011        11   # BR(chi^0_3 -> ~e^+_L e^-)
     2.17046551E-03    2     2000013       -13   # BR(chi^0_3 -> ~mu^-_R mu^+)
     2.17046551E-03    2    -2000013        13   # BR(chi^0_3 -> ~mu^+_R mu^-)
     1.95360651E-04    2     1000013       -13   # BR(chi^0_3 -> ~mu^-_L mu^+)
     1.95360651E-04    2    -1000013        13   # BR(chi^0_3 -> ~mu^+_L mu^-)
     3.30490121E-01    2     1000015       -15   # BR(chi^0_3 -> ~tau^-_1 tau^+)
     3.30490121E-01    2    -1000015        15   # BR(chi^0_3 -> ~tau^+_1 tau^-)
     3.34153479E-02    2     2000015       -15   # BR(chi^0_3 -> ~tau^-_2 tau^+)
     3.34153479E-02    2    -2000015        15   # BR(chi^0_3 -> ~tau^+_2 tau^-)
     4.64542469E-04    2     1000012       -12   # BR(chi^0_3 -> ~nu_e nu_bar_e)
     4.64542469E-04    2    -1000012        12   # BR(chi^0_3 -> ~nu^*_e nu_e)
     4.64752125E-04    2     1000014       -14   # BR(chi^0_3 -> ~nu_mu nu_bar_mu)
     4.64752125E-04    2    -1000014        14   # BR(chi^0_3 -> ~nu^*_mu nu_mu)
     5.24370154E-04    2     1000016       -16   # BR(chi^0_3 -> ~nu_tau nu_bar_tau)
     5.24370154E-04    2    -1000016        16   # BR(chi^0_3 -> ~nu^*_tau nu_tau)
     2.44314766E-01    2     1000022        23   # BR(chi^0_3 -> chi^0_1 Z)
     1.72876194E-02    2     1000022        25   # BR(chi^0_3 -> chi^0_1 h^0)
     1.43757919E-13    2     1000039        22   # BR(chi^0_3 -> ~G photon)
     2.05238110E-10    2     1000039        23   # BR(chi^0_3 -> ~G Z)
     1.21003798E-09    2     1000039        25   # BR(chi^0_3 -> ~G h^0)
     1.97297727E-07    2     1000022        22   # BR(chi^0_3 -> chi^0_1 photon)
     6.14218967E-09    2     1000023        22   # BR(chi^0_3 -> chi^0_2 photon)
#    BR                NDA      ID1      ID2       ID3
     4.74612039E-10    3     1000022         2        -2   # BR(chi^0_3 -> chi^0_1 u u_bar)
     5.09585322E-10    3     1000022         4        -4   # BR(chi^0_3 -> chi^0_1 c c_bar)
     1.60198355E-10    3     1000022         1        -1   # BR(chi^0_3 -> chi^0_1 d d_bar)
     7.84665052E-09    3     1000022         3        -3   # BR(chi^0_3 -> chi^0_1 s s_bar)
     1.80176262E-05    3     1000022         5        -5   # BR(chi^0_3 -> chi^0_1 b b_bar)
     2.52032693E-07    3     1000022        11       -11   # BR(chi^0_3 -> chi^0_1 e^- e^+)
     5.66252884E-07    3     1000022        13       -13   # BR(chi^0_3 -> chi^0_1 mu^- mu^+)
     5.73936853E-05    3     1000022        15       -15   # BR(chi^0_3 -> chi^0_1 tau^- tau^+)
     1.11236475E-05    3     1000023         2        -2   # BR(chi^0_3 -> chi^0_2 u u_bar)
     1.10711414E-05    3     1000023         4        -4   # BR(chi^0_3 -> chi^0_2 c c_bar)
     1.44151693E-05    3     1000023         1        -1   # BR(chi^0_3 -> chi^0_2 d d_bar)
     1.44145312E-05    3     1000023         3        -3   # BR(chi^0_3 -> chi^0_2 s s_bar)
     1.33887646E-05    3     1000023         5        -5   # BR(chi^0_3 -> chi^0_2 b b_bar)
     3.31956623E-06    3     1000023        11       -11   # BR(chi^0_3 -> chi^0_2 e^- e^+)
     3.31859308E-06    3     1000023        13       -13   # BR(chi^0_3 -> chi^0_2 mu^- mu^+)
     3.02180530E-06    3     1000023        15       -15   # BR(chi^0_3 -> chi^0_2 tau^- tau^+)
     1.96277008E-05    3     1000023        12       -12   # BR(chi^0_3 -> chi^0_2 nu_e nu_bar_e)
     4.70102286E-05    3     1000024         1        -2   # BR(chi^0_3 -> chi^+_1 d u_bar)
     4.70102286E-05    3    -1000024        -1         2   # BR(chi^0_3 -> chi^-_1 d_bar u)
     4.68519697E-05    3     1000024         3        -4   # BR(chi^0_3 -> chi^+_1 s c_bar)
     4.68519697E-05    3    -1000024        -3         4   # BR(chi^0_3 -> chi^-_1 s_bar c)
     1.56043518E-05    3     1000024        11       -12   # BR(chi^0_3 -> chi^+_1 e^- nu_bar_e)
     1.56043518E-05    3    -1000024       -11        12   # BR(chi^0_3 -> chi^-_1 e^+ nu_e)
     1.56043704E-05    3     1000024        13       -14   # BR(chi^0_3 -> chi^+_1 mu^- nu_bar_mu)
     1.56043704E-05    3    -1000024       -13        14   # BR(chi^0_3 -> chi^-_1 mu^+ nu_mu)
     1.54775548E-05    3     1000024        15       -16   # BR(chi^0_3 -> chi^+_1 tau^- nu_bar_tau)
     1.54775548E-05    3    -1000024       -15        16   # BR(chi^0_3 -> chi^-_1 tau^+ nu_tau)
DECAY   1000035     2.78146482E+00   # chi^0_4
#    BR                NDA      ID1      ID2
     1.86945360E-03    2     2000011       -11   # BR(chi^0_4 -> ~e^-_R e^+)
     1.86945360E-03    2    -2000011        11   # BR(chi^0_4 -> ~e^+_R e^-)
     4.89520594E-02    2     1000011       -11   # BR(chi^0_4 -> ~e^-_L e^+)
     4.89520594E-02    2    -1000011        11   # BR(chi^0_4 -> ~e^+_L e^-)
     1.89548368E-03    2     2000013       -13   # BR(chi^0_4 -> ~mu^-_R mu^+)
     1.89548368E-03    2    -2000013        13   # BR(chi^0_4 -> ~mu^+_R mu^-)
     4.90235243E-02    2     1000013       -13   # BR(chi^0_4 -> ~mu^-_L mu^+)
     4.90235243E-02    2    -1000013        13   # BR(chi^0_4 -> ~mu^+_L mu^-)
     1.54401918E-02    2     1000015       -15   # BR(chi^0_4 -> ~tau^-_1 tau^+)
     1.54401918E-02    2    -1000015        15   # BR(chi^0_4 -> ~tau^+_1 tau^-)
     6.74642104E-02    2     2000015       -15   # BR(chi^0_4 -> ~tau^-_2 tau^+)
     6.74642104E-02    2    -2000015        15   # BR(chi^0_4 -> ~tau^+_2 tau^-)
     6.42009734E-02    2     1000012       -12   # BR(chi^0_4 -> ~nu_e nu_bar_e)
     6.42009734E-02    2    -1000012        12   # BR(chi^0_4 -> ~nu^*_e nu_e)
     6.42159027E-02    2     1000014       -14   # BR(chi^0_4 -> ~nu_mu nu_bar_mu)
     6.42159027E-02    2    -1000014        14   # BR(chi^0_4 -> ~nu^*_mu nu_mu)
     6.83989233E-02    2     1000016       -16   # BR(chi^0_4 -> ~nu_tau nu_bar_tau)
     6.83989233E-02    2    -1000016        16   # BR(chi^0_4 -> ~nu^*_tau nu_tau)
     1.00135443E-01    2     1000024       -24   # BR(chi^0_4 -> chi^+_1 W^-)
     1.00135443E-01    2    -1000024        24   # BR(chi^0_4 -> chi^-_1 W^+)
     4.42292796E-03    2     1000022        23   # BR(chi^0_4 -> chi^0_1 Z)
     2.40644328E-04    2     1000023        23   # BR(chi^0_4 -> chi^0_2 Z)
     3.17443724E-02    2     1000022        25   # BR(chi^0_4 -> chi^0_1 h^0)
     2.09375315E-10    2     1000039        22   # BR(chi^0_4 -> ~G photon)
     1.73760470E-09    2     1000039        23   # BR(chi^0_4 -> ~G Z)
     4.27464552E-10    2     1000039        25   # BR(chi^0_4 -> ~G h^0)
     4.48291474E-07    2     1000022        22   # BR(chi^0_4 -> chi^0_1 photon)
     2.76230482E-06    2     1000023        22   # BR(chi^0_4 -> chi^0_2 photon)
     8.56567088E-07    2     1000025        22   # BR(chi^0_4 -> chi^0_3 photon)
#    BR                NDA      ID1      ID2       ID3
     5.09059003E-08    3     1000022         2        -2   # BR(chi^0_4 -> chi^0_1 u u_bar)
     5.08882247E-08    3     1000022         4        -4   # BR(chi^0_4 -> chi^0_1 c c_bar)
     7.62817260E-08    3     1000022         1        -1   # BR(chi^0_4 -> chi^0_1 d d_bar)
     7.75052001E-08    3     1000022         3        -3   # BR(chi^0_4 -> chi^0_1 s s_bar)
     2.97151985E-06    3     1000022         5        -5   # BR(chi^0_4 -> chi^0_1 b b_bar)
     1.60059987E-06    3     1000022        11       -11   # BR(chi^0_4 -> chi^0_1 e^- e^+)
     1.60442875E-06    3     1000022        13       -13   # BR(chi^0_4 -> chi^0_1 mu^- mu^+)
     4.73550855E-06    3     1000022        15       -15   # BR(chi^0_4 -> chi^0_1 tau^- tau^+)
     9.32597343E-09    3     1000023         2        -2   # BR(chi^0_4 -> chi^0_2 u u_bar)
     1.69970952E-07    3     1000023         4        -4   # BR(chi^0_4 -> chi^0_2 c c_bar)
     8.51984779E-09    3     1000023         1        -1   # BR(chi^0_4 -> chi^0_2 d d_bar)
     9.71782293E-09    3     1000023         3        -3   # BR(chi^0_4 -> chi^0_2 s s_bar)
     2.66396468E-06    3     1000023         5        -5   # BR(chi^0_4 -> chi^0_2 b b_bar)
     1.57052566E-06    3     1000023        11       -11   # BR(chi^0_4 -> chi^0_2 e^- e^+)
     1.57539685E-06    3     1000023        13       -13   # BR(chi^0_4 -> chi^0_2 mu^- mu^+)
     3.06068221E-06    3     1000023        15       -15   # BR(chi^0_4 -> chi^0_2 tau^- tau^+)
     3.00279732E-06    3     1000023        12       -12   # BR(chi^0_4 -> chi^0_2 nu_e nu_bar_e)
     4.29616674E-05    3     1000025         2        -2   # BR(chi^0_4 -> chi^0_3 u u_bar)
     4.29030461E-05    3     1000025         4        -4   # BR(chi^0_4 -> chi^0_3 c c_bar)
     5.57471384E-05    3     1000025         1        -1   # BR(chi^0_4 -> chi^0_3 d d_bar)
     5.57466431E-05    3     1000025         3        -3   # BR(chi^0_4 -> chi^0_3 s s_bar)
     5.42467975E-05    3     1000025         5        -5   # BR(chi^0_4 -> chi^0_3 b b_bar)
     1.27245996E-05    3     1000025        11       -11   # BR(chi^0_4 -> chi^0_3 e^- e^+)
     1.27219569E-05    3     1000025        13       -13   # BR(chi^0_4 -> chi^0_3 mu^- mu^+)
     1.19814469E-05    3     1000025        15       -15   # BR(chi^0_4 -> chi^0_3 tau^- tau^+)
     7.70838797E-05    3     1000025        12       -12   # BR(chi^0_4 -> chi^0_3 nu_e nu_bar_e)
     6.26914725E-09    3     1000024         1        -2   # BR(chi^0_4 -> chi^+_1 d u_bar)
     6.26914725E-09    3    -1000024        -1         2   # BR(chi^0_4 -> chi^-_1 d_bar u)
     6.52423200E-09    3     1000024         3        -4   # BR(chi^0_4 -> chi^+_1 s c_bar)
     6.52423200E-09    3    -1000024        -3         4   # BR(chi^0_4 -> chi^-_1 s_bar c)
     1.04646413E-06    3     1000024        11       -12   # BR(chi^0_4 -> chi^+_1 e^- nu_bar_e)
     1.04646413E-06    3    -1000024       -11        12   # BR(chi^0_4 -> chi^-_1 e^+ nu_e)
     1.04660251E-06    3     1000024        13       -14   # BR(chi^0_4 -> chi^+_1 mu^- nu_bar_mu)
     1.04660251E-06    3    -1000024       -13        14   # BR(chi^0_4 -> chi^-_1 mu^+ nu_mu)
     1.04382430E-06    3     1000024        15       -16   # BR(chi^0_4 -> chi^+_1 tau^- nu_bar_tau)
     1.04382430E-06    3    -1000024       -15        16   # BR(chi^0_4 -> chi^-_1 tau^+ nu_tau)
DECAY   1000021     5.83234888E+00   # ~g
#    BR                NDA      ID1      ID2
     4.74066081E-02    2     2000002        -2   # BR(~g -> ~u_R u_bar)
     4.74066081E-02    2    -2000002         2   # BR(~g -> ~u^*_R u)
     9.41391392E-03    2     1000002        -2   # BR(~g -> ~u_L u_bar)
     9.41391392E-03    2    -1000002         2   # BR(~g -> ~u^*_L u)
     4.74024539E-02    2     2000004        -4   # BR(~g -> ~c_R c_bar)
     4.74024539E-02    2    -2000004         4   # BR(~g -> ~c^*_R c)
     9.41510876E-03    2     1000004        -4   # BR(~g -> ~c_L c_bar)
     9.41510876E-03    2    -1000004         4   # BR(~g -> ~c^*_L c)
     1.65971379E-02    2     1000006        -4   # BR(~g -> ~t_1 c_bar)
     1.65971379E-02    2    -1000006         4   # BR(~g -> ~t^*_1 c)
     7.86207085E-02    2     1000006        -6   # BR(~g -> ~t_1 t_bar)
     7.86207085E-02    2    -1000006         6   # BR(~g -> ~t^*_1 t)
     5.14273483E-02    2     2000001        -1   # BR(~g -> ~d_R d_bar)
     5.14273483E-02    2    -2000001         1   # BR(~g -> ~d^*_R d)
     8.59237062E-03    2     1000001        -1   # BR(~g -> ~d_L d_bar)
     8.59237062E-03    2    -1000001         1   # BR(~g -> ~d^*_L d)
     5.14443014E-02    2     2000003        -3   # BR(~g -> ~s_R s_bar)
     5.14443014E-02    2    -2000003         3   # BR(~g -> ~s^*_R s)
     8.59555234E-03    2     1000003        -3   # BR(~g -> ~s_L s_bar)
     8.59555234E-03    2    -1000003         3   # BR(~g -> ~s^*_L s)
     1.01788231E-01    2     1000005        -5   # BR(~g -> ~b_1 b_bar)
     1.01788231E-01    2    -1000005         5   # BR(~g -> ~b^*_1 b)
     5.69207002E-02    2     2000005        -5   # BR(~g -> ~b_2 b_bar)
     5.69207002E-02    2    -2000005         5   # BR(~g -> ~b^*_2 b)
     1.07305583E-06    2     1000022        21   # BR(~g -> chi^0_1 g)
     1.64404593E-04    2     1000023        21   # BR(~g -> chi^0_2 g)
     2.67345326E-04    2     1000025        21   # BR(~g -> chi^0_3 g)
     7.66101535E-05    2     1000035        21   # BR(~g -> chi^0_4 g)
#    BR                NDA      ID1      ID2       ID3
     1.80900490E-04    3     1000022         6        -6   # BR(~g -> chi^0_1 t t_bar)
     3.08639708E-03    3     1000023         6        -6   # BR(~g -> chi^0_2 t t_bar)
     4.84136573E-03    3     1000025         6        -6   # BR(~g -> chi^0_3 t t_bar)
     6.50397492E-03    3     1000035         6        -6   # BR(~g -> chi^0_4 t t_bar)
     1.78010130E-03    3     1000024         5        -6   # BR(~g -> chi^+_1 b t_bar)
     1.78010130E-03    3    -1000024        -5         6   # BR(~g -> chi^-_1 b_bar t)
     3.03442822E-03    3     1000037         5        -6   # BR(~g -> chi^+_2 b t_bar)
     3.03442822E-03    3    -1000037        -5         6   # BR(~g -> chi^-_2 b_bar t)
DECAY        25     2.50770389E-03   # h^0
#    BR                NDA      ID1      ID2
     1.07177057E-08    2          11       -11   # BR(h^0 -> e^- e^+)
     4.58189216E-04    2          13       -13   # BR(h^0 -> mu^- mu^+)
     1.27673246E-01    2          15       -15   # BR(h^0 -> tau^- tau^+)
     6.65755770E-07    2           1        -1   # BR(h^0 -> d d_bar)
     2.93594827E-04    2           3        -3   # BR(h^0 -> s s_bar)
     6.47755917E-01    2           5        -5   # BR(h^0 -> b b_bar)
     2.62880373E-07    2           2        -2   # BR(h^0 -> u u_bar)
     4.71013373E-02    2           4        -4   # BR(h^0 -> c c_bar)
     7.07361686E-02    2          21        21   # BR(h^0 -> g g)
     3.14744477E-03    2          22        22   # BR(h^0 -> photon photon)
# writing decays into V V* as 3-body decays
#    BR                NDA      ID1      ID2       ID3
     4.77085224E-03    3          24        11        12   # BR(h^0 -> W^+ e^- nu_e)
     4.77085224E-03    3          24        13        14   # BR(h^0 -> W^+ mu^- nu_mu)
     4.77085224E-03    3          24        15        16   # BR(h^0 -> W^+ tau^- nu_tau)
     1.66979829E-02    3          24         1        -2   # BR(h^0 -> W^+ d u_bar)
     1.66979829E-02    3          24         3        -4   # BR(h^0 -> W^+ s c_bar)
     4.77085224E-03    3         -24       -11       -12   # BR(h^0 -> W^- e^+ nu_bar_e)
     4.77085224E-03    3         -24       -13       -14   # BR(h^0 -> W^- mu^+ nu_bar_mu)
     4.77085224E-03    3         -24       -15       -16   # BR(h^0 -> W^- tau^+ nu_bar_tau)
     1.66979829E-02    3         -24        -1         2   # BR(h^0 -> W^- d_bar u)
     1.66979829E-02    3         -24        -3         4   # BR(h^0 -> W^- s_bar c)
     2.59564131E-04    3          23        11       -11   # BR(h^0 -> Z e^- e^+)
     2.59564131E-04    3          23        13       -13   # BR(h^0 -> Z mu^- mu^+)
     2.22483541E-04    3          23        15       -15   # BR(h^0 -> Z tau^- tau^+)
     1.48322361E-03    3          23        12       -12   # BR(h^0 -> Z nu_e nu_bar_e)
     1.03825653E-03    3          23         1        -1   # BR(h^0 -> Z u u_bar)
     1.03825653E-03    3          23         3        -3   # BR(h^0 -> Z c c_bar)
     1.03825653E-03    3          23         5        -5   # BR(h^0 -> Z t t_bar)
     1.03825653E-03    3          23         2        -2   # BR(h^0 -> Z u u_bar)
     1.03825653E-03    3          23         4        -4   # BR(h^0 -> Z c c_bar)
DECAY        35     1.10112817E+01   # H^0
#    BR                NDA      ID1      ID2
     1.51397998E-08    2          11       -11   # BR(H^0 -> e^- e^+)
     6.47279550E-04    2          13       -13   # BR(H^0 -> mu^- mu^+)
     1.83735214E-01    2          15       -15   # BR(H^0 -> tau^- tau^+)
     7.95087607E-07    2           1        -1   # BR(H^0 -> d d_bar)
     3.50633303E-04    2           3        -3   # BR(H^0 -> s s_bar)
     8.13962164E-01    2           5        -5   # BR(H^0 -> b b_bar)
     1.85457760E-13    2           2        -2   # BR(H^0 -> u u_bar)
     3.32361664E-08    2           4        -4   # BR(H^0 -> c c_bar)
     1.07812946E-03    2           6        -6   # BR(H^0 -> t t_bar)
     1.47195668E-06    2     2000011  -2000011   # BR(H^0 -> ~e^-_R ~e^+_R)
     1.51094730E-06    2     2000013  -2000013   # BR(H^0 -> ~mu^-_R ~mu^+_R)
     2.73197476E-05    2     1000015  -1000015   # BR(H^0 -> ~tau^-_1 ~tau^+_1)
     1.32938440E-05    2          23        23   # BR(H^0 -> Z Z)
     2.62303501E-05    2          24       -24   # BR(H^0 -> W^+ W^-)
     4.57684439E-05    2          25        25   # BR(H^0 -> h^0 h^0)
     1.10008380E-04    2          21        21   # BR(H^0 -> g g)
     1.32504379E-07    2          22        22   # BR(H^0 -> photon photon)
DECAY        36     1.10130456E+01   # A^0
#    BR                NDA      ID1      ID2
     1.51373478E-08    2          11       -11   # BR(A^0 -> e^- e^+)
     6.47174811E-04    2          13       -13   # BR(A^0 -> mu^- mu^+)
     1.83713034E-01    2          15       -15   # BR(A^0 -> tau^- tau^+)
     7.94957818E-07    2           1        -1   # BR(A^0 -> d d_bar)
     3.50576052E-04    2           3        -3   # BR(A^0 -> s s_bar)
     8.13873376E-01    2           5        -5   # BR(A^0 -> b b_bar)
     1.53799105E-13    2           2        -2   # BR(A^0 -> u u_bar)
     2.75625981E-08    2           4        -4   # BR(A^0 -> c c_bar)
     1.36059392E-03    2           6        -6   # BR(A^0 -> t t_bar)
     2.38250884E-05    2          25        23   # BR(A^0 -> h^0 Z)
     3.05211841E-05    2          21        21   # BR(A^0 -> g g)
     6.07881300E-08    2          22        22   # BR(A^0 -> photon photon)
DECAY        37     8.62257940E+00   # H^+
#    BR                NDA      ID1      ID2
     1.95635544E-08    2         -11        12   # BR(H^+ -> e^+ nu_e)
     8.36410698E-04    2         -13        12   # BR(H^+ -> mu^+ nu_e)
     2.37431399E-01    2         -15        12   # BR(H^+ -> tau^+ nu_e)
     9.06606565E-07    2          -1         2   # BR(H^+ -> d_bar u)
     3.99840296E-04    2          -3         4   # BR(H^+ -> s_bar c)
     7.61299839E-01    2          -5         6   # BR(H^+ -> b_bar t)
     3.15846533E-05    2          25        24   # BR(H^+ -> h^0 W^+)
DECAY         6     2.43000000E+00   # top
#    BR                NDA      ID1      ID2
     1.00000000E+00    2           5        24   # BR(t -> b W)
Block HiggsBoundsInputHiggsCouplingsFermions
# ScalarNormEffCoupSq PseudoSNormEffCoupSq NP IP1 IP2 IP2
    1.20549255E+00    0.00000000E+00        3  25   5   5  # h0-b-b eff. coupling^2, normalised to SM
    1.59979451E+03    0.00000000E+00        3  35   5   5  # H0-b-b eff. coupling^2, normalised to SM
    0.00000000E+00    1.60000000E+03        3  36   5   5  # A0-b-b eff. coupling^2, normalised to SM
#
    9.99871567E-01    0.00000000E+00        3  25   6   6  # h0-t-t eff. coupling^2, normalised to SM
    7.53432841E-04    0.00000000E+00        3  35   6   6  # H0-t-t eff. coupling^2, normalised to SM
    0.00000000E+00    6.25000000E-04        3  36   6   6  # A0-t-t eff. coupling^2, normalised to SM
#
    1.20549255E+00    0.00000000E+00        3  25  15  15  # h0-tau-tau eff. coupling^2, normalised to SM
    1.59979451E+03    0.00000000E+00        3  35  15  15  # H0-tau-tau eff. coupling^2, normalised to SM
    0.00000000E+00    1.60000000E+03        3  36  15  15  # A0-tau-tau eff. coupling^2, normalised to SM
#
Block HiggsBoundsInputHiggsCouplingsBosons
    9.99994003E-01        3  25  24  24  # h0-W-W eff. coupling^2, normalised to SM
    5.99665131E-06        3  35  24  24  # H0-W-W eff. coupling^2, normalised to SM
    0.00000000E+00        3  36  24  24  # A0-W-W eff. coupling^2, normalised to SM
#
    9.99994003E-01        3  25  23  23  # h0-Z-Z eff. coupling^2, normalised to SM
    5.99665131E-06        3  35  23  23  # H0-Z-Z eff. coupling^2, normalised to SM
    0.00000000E+00        3  36  23  23  # A0-Z-Z eff. coupling^2, normalised to SM
#
    1.16981441E+00        3  25  21  21  # h0-g-g eff. coupling^2, normalised to SM
    5.14083364E-02        3  35  21  21  # H0-g-g eff. coupling^2, normalised to SM
    1.82082380E-01        3  36  21  21  # A0-g-g eff. coupling^2, normalised to SM
#
    0.00000000E+00        3  25  25  23  # h0-h0-Z eff. coupling^2, normalised to SM
    0.00000000E+00        3  35  25  23  # H0-h0-Z eff. coupling^2, normalised to SM
    5.99665131E-06        3  36  25  23  # A0-h0-Z eff. coupling^2, normalised to SM
    0.00000000E+00        3  35  35  23  # H0-H0-Z eff. coupling^2, normalised to SM
    9.99994003E-01        3  36  35  23  # A0-H0-Z eff. coupling^2, normalised to SM
    0.00000000E+00        3  36  36  23  # A0-A0-Z eff. coupling^2, normalised to SM
#
    0.00000000E+00        4  25  21  21  23  # h0-g-g-Z eff. coupling^2, normalised to SM
    0.00000000E+00        4  35  21  21  23  # H0-g-g-Z eff. coupling^2, normalised to SM
    0.00000000E+00        4  36  21  21  23  # A0-g-g-Z eff. coupling^2, normalised to SM
Block SPhenoLowEnergy  # low energy observables
    1    3.21436677E-04   # BR(b -> s gamma)
    2    1.58524088E-06   # BR(b -> s mu+ mu-)
    3    3.53179863E-05   # BR(b -> s nu nu)
    4    6.19396921E-11   # BR(Bd -> mu+ mu-)
    5    4.07265675E-09   # BR(Bs -> mu+ mu-)
    6    9.11763006E-05   # BR(B_u -> tau nu)
    7    8.24428608E-01   # BR(B_u -> tau nu)/BR(B_u -> tau nu)_SM
    8    2.72789565E-01   # |Delta(M_Bd)| [ps^-1] 
    9    2.01892314E+01   # |Delta(M_Bs)| [ps^-1] 
   20    8.81313218E-14   # Delta(g-2)_electron/2
   21    1.88163708E-09   # Delta(g-2)_muon/2
   22    2.06064839E-07   # Delta(g-2)_tau/2
   23    0.00000000E+00   # electric dipole moment of the electron
   24    0.00000000E+00   # electric dipole moment of the muon
   25    0.00000000E+00   # electric dipole moment of the tau
   26    0.00000000E+00   # Br(mu -> e gamma)
   27    0.00000000E+00   # Br(tau -> e gamma)
   28    0.00000000E+00   # Br(tau -> mu gamma)
   29    0.00000000E+00   # Br(mu -> 3 e)
   30    0.00000000E+00   # Br(tau -> 3 e)
   31    0.00000000E+00   # Br(tau -> 3 mu)
   39    1.18077279E-03   # Delta(rho_parameter)
   40    0.00000000E+00   # BR(Z -> e mu)
   41    0.00000000E+00   # BR(Z -> e tau)
   42    0.00000000E+00   # BR(Z -> mu tau)
Block FWCOEF Q=  9.11876000E+01  # Wilson coefficients at scale Q
#    id        order  M        value         comment
Block FWCOEF Q=  1.60000000E+02  # Wilson coefficients at scale Q
#    id        order  M        value         comment
     0305 4422   00   0    -1.87760956E-01   # C7
     0305 4422   00   1    -1.92679578E-02   # C7
     0305 4322   00   1    -4.12511836E-04   # C7'
     0305 6421   00   0    -9.48905155E-02   # C8
     0305 6421   00   1    -4.08685398E-02   # C8
     0305 6321   00   1    -8.59021402E-04   # C8'
 03051111 4133   00   0    -7.14350991E-01   # C9 e+e-
 03051111 4133   00   1     2.57689094E-03   # C9 e+e-
 03051111 4233   00   1    -1.48889293E-04   # C9' e+e-
 03051111 4137   00   0    -3.97584570E+00   # C10 e+e-
 03051111 4137   00   1     9.56824977E-03   # C10 e+e-
 03051111 4237   00   1     3.23946906E-03   # C10' e+e-
 03051313 4133   00   0    -7.14350991E-01   # C9 mu+mu-
 03051313 4133   00   1     2.57630720E-03   # C9 mu+mu-
 03051313 4233   00   1    -1.48982066E-04   # C9' mu+mu-
 03051313 4137   00   0    -3.97584570E+00   # C10 mu+mu-
 03051313 4137   00   1     9.56766509E-03   # C10 mu+mu-
 03051313 4237   00   1     3.23956191E-03   # C10' mu+mu-
 03051212 4237   00   0     1.49019694E+00   # C11 nu_1 nu_1
 03051212 4237   00   1    -2.28955904E-03   # C11 nu_1 nu_1
 03051212 4137   00   1    -7.73076663E-04   # C11' nu_1 nu_1
 03051414 4237   00   0     1.49019694E+00   # C11 nu_2 nu_2
 03051414 4237   00   1    -2.28955807E-03   # C11 nu_2 nu_2
 03051414 4137   00   1    -7.73054618E-04   # C11' nu_2 nu_2
 03051616 4237   00   0     1.49019694E+00   # C11 nu_3 nu_3
 03051616 4237   00   1    -2.28874172E-03   # C11 nu_3 nu_3
 03051616 4137   00   1    -7.66840758E-04   # C11' nu_3 nu_3
