#
#                              ======================
#                              | THE SUSYHIT OUTPUT |
#                              ======================
#
#
#              ------------------------------------------------------
#              |     This is the output of the SUSY-HIT package     |
#              |  created by A.Djouadi, M.Muehlleitner and M.Spira. |
#              |  In case of problems with SUSY-HIT email to        |
#              |           margarete.muehlleitner@cern.ch           |
#              |           michael.spira@psi.ch                     |
#              |           abdelhak.djouadi@cern.ch                 |
#              ------------------------------------------------------
#
#              ------------------------------------------------------
#              |  SUSY Les Houches Accord - MSSM Spectrum + Decays  |
#              |              based on the decay programs           |
#              |                                                    |
#              |                     SDECAY 1.3b                    |
#              |                                                    |
#              |  Authors: M.Muhlleitner, A.Djouadi and Y.Mambrini  |
#              |  Ref.:    Comput.Phys.Commun.168(2005)46           |
#              |           [hep-ph/0311167]                         |
#              |                                                    |
#              |                     HDECAY 3.4                     |
#              |                                                    |
#              |  By: A.Djouadi,J.Kalinowski,M.Muhlleitner,M.Spira  |
#              |  Ref.:    Comput.Phys.Commun.108(1998)56           |
#              |           [hep-ph/9704448]                         |
#              |                                                    |
#              |                                                    |
#              |  If not stated otherwise all DRbar couplings and   |
#              |  soft SUSY breaking masses are given at the scale  |
#              |  Q=  0.91187600E+02
#              |                                                    |
#              ------------------------------------------------------
#
#
BLOCK DCINFO  # Decay Program information
     1   SDECAY/HDECAY # decay calculator
     2   1.3b  /3.4    # version number
#
BLOCK SPINFO  # Spectrum calculator information
     1   SuSpect     # RGE +Spectrum calculator            
     2   2.41         # version number                     
#
BLOCK MODSEL  # Model selection
     1     0   # #general MSSM low scale                           
#
BLOCK SMINPUTS  # Standard Model inputs
         1     1.27934000E+02   # alpha_em^-1(M_Z)^MSbar
         2     1.16639000E-05   # G_F [GeV^-2]
         3     1.17200000E-01   # alpha_S(M_Z)^MSbar
         4     9.11870000E+01   # M_Z pole mass
         5     4.25000000E+00   # mb(mb)^MSbar
         6     1.72500000E+02   # mt pole mass
         7     1.77700000E+00   # mtau pole mass
#
BLOCK MINPAR  # Input parameters - minimal models
#
BLOCK EXTPAR  # Input parameters - non-minimal models
         0     9.11876000E+01   # EWSB                
         1     1.50000000E+03   # M_1                 
         2     1.00000000E+05   # M_2                 
         3     1.00000000E+05   # M_3                 
        11     0.00000000E+00   # A_t                 
        12     0.00000000E+00   # A_b                 
        13     0.00000000E+00   # A_tau               
        14     0.00000000E+00   # A_u                 
        15     0.00000000E+00   # A_d                 
        16     0.00000000E+00   # A_e                 
        23     3.50000000E+03   # mu(EWSB)            
        25     1.50000000E+00   # tanbeta(in)         
        26     2.00000000E+03   # MA_pole             
        31     1.00000000E+05   # M_eL                
        32     1.00000000E+05   # M_muL               
        33     1.00000000E+05   # M_tauL              
        34     1.00000000E+05   # M_eR                
        35     1.00000000E+05   # M_muR               
        36     1.00000000E+05   # M_tauR              
        41     1.90000000E+03   # M_q1L               
        42     1.90000000E+03   # M_q2L               
        43     1.90000000E+03   # M_q3L               
        44     1.00000000E+05   # M_uR                
        45     1.00000000E+05   # M_cR                
        46     1.00000000E+05   # M_tR                
        47     1.90000000E+03   # M_dR                
        48     1.90000000E+03   # M_sR                
        49     1.90000000E+03   # M_bR                
#
BLOCK MASS  # Mass Spectrum
# PDG code           mass       particle
        24     8.05841682E+01   # W+
        25     1.25000000E+02   # h
        35     2.00404501E+03   # H
        36     2.00000000E+03   # A
        37     2.02368858E+03   # H+
         5     4.87877839E+00   # b-quark pole mass calculated from mb(mb)_Msbar
   1000001     1.90034910E+03   # ~d_L
   2000001     1.90006734E+03   # ~d_R
   1000002     1.89971819E+03   # ~u_L
   2000002     9.99999974E+04   # ~u_R
   1000003     1.90034910E+03   # ~s_L
   2000003     1.90006734E+03   # ~s_R
   1000004     1.89971819E+03   # ~c_L
   2000004     9.99999974E+04   # ~c_R
   1000005     1.89663081E+03   # ~b_1
   2000005     1.90378242E+03   # ~b_2
   1000006     1.90543233E+03   # ~t_1
   2000006     1.00000106E+05   # ~t_2
   1000011     1.00000004E+05   # ~e_L
   2000011     1.00000004E+05   # ~e_R
   1000012     9.99999921E+04   # ~nu_eL
   1000013     1.00000004E+05   # ~mu_L
   2000013     1.00000004E+05   # ~mu_R
   1000014     9.99999921E+04   # ~nu_muL
   1000015     9.99999574E+04   # ~tau_1
   2000015     1.00000051E+05   # ~tau_2
   1000016     9.99999921E+04   # ~nu_tauL
   1000021     1.00000000E+05   # ~g
   1000022     1.49905616E+03   # ~chi_10
   1000023    -3.50001767E+03   # ~chi_20
   1000025     3.50089708E+03   # ~chi_30
   1000035     1.00000064E+05   # ~chi_40
   1000024     3.49994021E+03   # ~chi_1+
   1000037     1.00000064E+05   # ~chi_2+
   1000039     1.00000000E-09   # ~gravitino
#
BLOCK NMIX  # Neutralino Mixing Matrix
  1  1     9.99758858E-01   # N_11
  1  2    -1.69291657E-05   # N_12
  1  3     1.67173859E-02   # N_13
  1  4    -1.42392214E-02   # N_14
  2  1     1.75246789E-03   # N_21
  2  2    -1.49610934E-04   # N_22
  2  3    -7.07096762E-01   # N_23
  2  4    -7.07114613E-01   # N_24
  3  1     2.18896221E-02   # N_31
  3  2     8.02087761E-04   # N_32
  3  3    -7.06919009E-01   # N_33
  3  4     7.06955243E-01   # N_34
  4  1     3.70126453E-07   # N_41
  4  2    -9.99999667E-01   # N_42
  4  3    -4.61504843E-04   # N_43
  4  4     6.73073508E-04   # N_44
#
BLOCK UMIX  # Chargino Mixing Matrix U
  1  1    -6.52666201E-04   # U_11
  1  2     9.99999787E-01   # U_12
  2  1     9.99999787E-01   # U_21
  2  2     6.52666201E-04   # U_22
#
BLOCK VMIX  # Chargino Mixing Matrix V
  1  1    -9.51869593E-04   # V_11
  1  2     9.99999547E-01   # V_12
  2  1     9.99999547E-01   # V_21
  2  2     9.51869593E-04   # V_22
#
BLOCK STOPMIX  # Stop Mixing Matrix
  1  1     9.99999999E-01   # cos(theta_t)
  1  2     4.47213589E-05   # sin(theta_t)
  2  1    -4.47213589E-05   # -sin(theta_t)
  2  2     9.99999999E-01   # cos(theta_t)
#
BLOCK SBOTMIX  # Sbottom Mixing Matrix
  1  1     6.93037686E-01   # cos(theta_b)
  1  2     7.20901356E-01   # sin(theta_b)
  2  1    -7.20901356E-01   # -sin(theta_b)
  2  2     6.93037686E-01   # cos(theta_b)
#
BLOCK STAUMIX  # Stau Mixing Matrix
  1  1     7.06210201E-01   # cos(theta_tau)
  1  2     7.08002226E-01   # sin(theta_tau)
  2  1    -7.08002226E-01   # -sin(theta_tau)
  2  2     7.06210201E-01   # cos(theta_tau)
#
BLOCK ALPHA  # Higgs mixing
          -5.90333456E-01   # Mixing angle in the neutral Higgs boson sector
#
BLOCK HMIX Q=  9.11876000E+01  # DRbar Higgs Parameters
         1     3.50000000E+03   # mu(Q)               
         2     1.49999982E+00   # tanbeta(Q)          
         3     2.54883863E+02   # vev(Q)              
         4    -6.81454021E+07   # MA^2(Q)             
#
BLOCK GAUGE Q=  9.11876000E+01  # The gauge couplings
     1     3.50565696E-01   # gprime(Q) DRbar
     2     6.19514630E-01   # g(Q) DRbar
     3     1.02270764E+00   # g3(Q) DRbar
#
BLOCK AU Q=  9.11876000E+01  # The trilinear couplings
  1  1     0.00000000E+00   # A_u(Q) DRbar
  2  2     0.00000000E+00   # A_c(Q) DRbar
  3  3     0.00000000E+00   # A_t(Q) DRbar
#
BLOCK AD Q=  9.11876000E+01  # The trilinear couplings
  1  1     0.00000000E+00   # A_d(Q) DRbar
  2  2     0.00000000E+00   # A_s(Q) DRbar
  3  3     0.00000000E+00   # A_b(Q) DRbar
#
BLOCK AE Q=  9.11876000E+01  # The trilinear couplings
  1  1     0.00000000E+00   # A_e(Q) DRbar
  2  2     0.00000000E+00   # A_mu(Q) DRbar
  3  3     0.00000000E+00   # A_tau(Q) DRbar
#
BLOCK Yu Q=  9.11876000E+01  # The Yukawa couplings
  1  1     0.00000000E+00   # y_u(Q) DRbar
  2  2     0.00000000E+00   # y_c(Q) DRbar
  3  3     9.83564440E-01   # y_t(Q) DRbar
#
BLOCK Yd Q=  9.11876000E+01  # The Yukawa couplings
  1  1     0.00000000E+00   # y_d(Q) DRbar
  2  2     0.00000000E+00   # y_s(Q) DRbar
  3  3     2.58715485E-02   # y_b(Q) DRbar
#
BLOCK Ye Q=  9.11876000E+01  # The Yukawa couplings
  1  1     0.00000000E+00   # y_e(Q) DRbar
  2  2     0.00000000E+00   # y_mu(Q) DRbar
  3  3     1.77392327E-02   # y_tau(Q) DRbar
#
BLOCK MSOFT Q=  9.11876000E+01  # The soft SUSY breaking masses at the scale Q
         1     1.50000000E+03   # M_1                 
         2     1.00000000E+05   # M_2                 
         3     1.00000000E+05   # M_3                 
        14     0.00000000E+00   # A_u                 
        15     0.00000000E+00   # A_d                 
        16     0.00000000E+00   # A_e                 
        21     6.30416013E+08   # M^2_Hd              
        22    -1.15011312E+09   # M^2_Hu              
        31     1.00000000E+05   # M_eL                
        32     1.00000000E+05   # M_muL               
        33     1.00000000E+05   # M_tauL              
        34     1.00000000E+05   # M_eR                
        35     1.00000000E+05   # M_muR               
        36     1.00000000E+05   # M_tauR              
        41     1.90000000E+03   # M_q1L               
        42     1.90000000E+03   # M_q2L               
        43     1.90000000E+03   # M_q3L               
        44     1.00000000E+05   # M_uR                
        45     1.00000000E+05   # M_cR                
        46     1.00000000E+05   # M_tR                
        47     1.90000000E+03   # M_dR                
        48     1.90000000E+03   # M_sR                
        49     1.90000000E+03   # M_bR                
#
#
#
#                             =================
#                             |The decay table|
#                             =================
#
# - The QCD corrections to the decays gluino -> squark  + quark
#                                     squark -> gaugino + quark_prime
#                                     squark -> squark_prime + Higgs
#                                     squark -> gluino  + quark
#   are included.
#
# - The multi-body decays for the inos, stops and sbottoms are included.
#
# - The loop induced decays for the gluino, neutralinos and stops
#   are included.
#
# - The SUSY decays of the top quark are included.
#
# - Possible decays of the NLSP in GMSB models are included.
#
#
#         PDG            Width
DECAY         6     1.32461887E+00   # top decays
#          BR         NDA      ID1       ID2
     1.00000000E+00    2           5        24   # BR(t ->  b    W+)
#
#         PDG            Width
DECAY   1000021     1.E-04   # gluino decays (OJ Mods)
#          BR         NDA      ID1       ID2
    -1.90132162E-03    2     1000001        -1   # BR(~g -> ~d_L  db)
    -1.90132162E-03    2    -1000001         1   # BR(~g -> ~d_L* d )
    -1.90132203E-03    2     2000001        -1   # BR(~g -> ~d_R  db)
    -1.90132203E-03    2    -2000001         1   # BR(~g -> ~d_R* d )
    -1.90132254E-03    2     1000002        -2   # BR(~g -> ~u_L  ub)
    -1.90132254E-03    2    -1000002         2   # BR(~g -> ~u_L* u )
    -5.14488886E-18    2     2000002        -2   # BR(~g -> ~u_R  ub)
    -5.14488886E-18    2    -2000002         2   # BR(~g -> ~u_R* u )
    -1.90132162E-03    2     1000003        -3   # BR(~g -> ~s_L  sb)
    -1.90132162E-03    2    -1000003         3   # BR(~g -> ~s_L* s )
    -1.90132203E-03    2     2000003        -3   # BR(~g -> ~s_R  sb)
    -1.90132203E-03    2    -2000003         3   # BR(~g -> ~s_R* s )
    -1.90132254E-03    2     1000004        -4   # BR(~g -> ~c_L  cb)
    -1.90132254E-03    2    -1000004         4   # BR(~g -> ~c_L* c )
    -5.14488886E-18    2     2000004        -4   # BR(~g -> ~c_R  cb)
    -5.14488886E-18    2    -2000004         4   # BR(~g -> ~c_R* c )
     2.69781802E-01    2     1000005        -5   # BR(~g -> ~b_1  bb)
     2.69781802E-01    2    -1000005         5   # BR(~g -> ~b_1* b )
     2.70191712E-01    2     2000005        -5   # BR(~g -> ~b_2  bb)
     2.70191712E-01    2    -2000005         5   # BR(~g -> ~b_2* b )
    -1.87128858E-03    2     1000006        -6   # BR(~g -> ~t_1  tb)
    -1.87128858E-03    2    -1000006         6   # BR(~g -> ~t_1* t )
    -5.33885853E-02    2     1000039        21   # BR(~g -> ~G g)
#
#         PDG            Width
DECAY   1000006     4.45199801E-02   # stop1 decays
#          BR         NDA      ID1       ID2
     1.00000000E+00    2     1000022         6   # BR(~t_1 -> ~chi_10 t )
#
#         PDG            Width
DECAY   2000006    -1.07872525E+05   # stop2 decays
#          BR         NDA      ID1       ID2
    -1.93261535E-03    2     1000022         6   # BR(~t_2 -> ~chi_10 t )
    -4.64703021E-03    2     1000023         6   # BR(~t_2 -> ~chi_20 t )
    -4.64574985E-03    2     1000025         6   # BR(~t_2 -> ~chi_30 t )
     1.01106760E+00    2     1000024         5   # BR(~t_2 -> ~chi_1+ b )
     1.25597957E-04    2     1000006        25   # BR(~t_2 -> ~t_1    h )
    -1.31562592E-04    2     1000006        35   # BR(~t_2 -> ~t_1    H )
    -1.31329192E-04    2     1000006        36   # BR(~t_2 -> ~t_1    A )
    -1.23725622E-04    2     1000005        37   # BR(~t_2 -> ~b_1    H+)
    -1.38930420E-04    2     2000005        37   # BR(~t_2 -> ~b_2    H+)
     8.93396092E-05    2     1000006        23   # BR(~t_2 -> ~t_1    Z )
     2.24978689E-04    2     1000005        24   # BR(~t_2 -> ~b_1    W+)
     2.43422923E-04    2     2000005        24   # BR(~t_2 -> ~b_2    W+)
#
#         PDG            Width
DECAY   1000005    -5.02023584E+00   # sbottom1 decays
#          BR         NDA      ID1       ID2
     1.00000000E+00    2     1000022         5   # BR(~b_1 -> ~chi_10 b )
#
#         PDG            Width
DECAY   2000005    -5.02657738E+00   # sbottom2 decays
#          BR         NDA      ID1       ID2
     1.00000000E+00    2     1000022         5   # BR(~b_2 -> ~chi_10 b )
#
#         PDG            Width
DECAY   1000002     4.90725713E-02   # sup_L decays
#          BR         NDA      ID1       ID2
     1.00000000E+00    2     1000022         2   # BR(~u_L -> ~chi_10 u)
#
#         PDG            Width
DECAY   2000002     2.08393685E+02   # sup_R decays
#          BR         NDA      ID1       ID2
     9.99518297E-01    2     1000022         2   # BR(~u_R -> ~chi_10 u)
     3.06780840E-06    2     1000023         2   # BR(~u_R -> ~chi_20 u)
     4.78634811E-04    2     1000025         2   # BR(~u_R -> ~chi_30 u)
#
#         PDG            Width
DECAY   1000001     4.92047445E-02   # sdown_L decays
#          BR         NDA      ID1       ID2
     1.00000000E+00    2     1000022         1   # BR(~d_L -> ~chi_10 d)
#
#         PDG            Width
DECAY   2000001     1.96579025E-01   # sdown_R decays
#          BR         NDA      ID1       ID2
     1.00000000E+00    2     1000022         1   # BR(~d_R -> ~chi_10 d)
#
#         PDG            Width
DECAY   1000004     4.90725713E-02   # scharm_L decays
#          BR         NDA      ID1       ID2
     1.00000000E+00    2     1000022         4   # BR(~c_L -> ~chi_10 c)
#
#         PDG            Width
DECAY   2000004     2.08393685E+02   # scharm_R decays
#          BR         NDA      ID1       ID2
     9.99518297E-01    2     1000022         4   # BR(~c_R -> ~chi_10 c)
     3.06780840E-06    2     1000023         4   # BR(~c_R -> ~chi_20 c)
     4.78634811E-04    2     1000025         4   # BR(~c_R -> ~chi_30 c)
#
#         PDG            Width
DECAY   1000003     4.92047445E-02   # sstrange_L decays
#          BR         NDA      ID1       ID2
     1.00000000E+00    2     1000022         3   # BR(~s_L -> ~chi_10 s)
#
#         PDG            Width
DECAY   2000003     1.96579025E-01   # sstrange_R decays
#          BR         NDA      ID1       ID2
     1.00000000E+00    2     1000022         3   # BR(~s_R -> ~chi_10 s)
#
#         PDG            Width
DECAY   1000011     1.22192892E+02   # selectron_L decays
#          BR         NDA      ID1       ID2
     9.99453006E-01    2     1000022        11   # BR(~e_L -> ~chi_10 e-)
     2.20993519E-06    2     1000023        11   # BR(~e_L -> ~chi_20 e-)
     5.42129233E-04    2     1000025        11   # BR(~e_L -> ~chi_30 e-)
     2.65524722E-06    2    -1000024        12   # BR(~e_L -> ~chi_1- nu_e)
#
#         PDG            Width
DECAY   2000011     4.88768674E+02   # selectron_R decays
#          BR         NDA      ID1       ID2
     9.99518738E-01    2     1000022        11   # BR(~e_R -> ~chi_10 e-)
     3.06500425E-06    2     1000023        11   # BR(~e_R -> ~chi_20 e-)
     4.78197097E-04    2     1000025        11   # BR(~e_R -> ~chi_30 e-)
#
#         PDG            Width
DECAY   1000013     1.22192892E+02   # smuon_L decays
#          BR         NDA      ID1       ID2
     9.99453006E-01    2     1000022        13   # BR(~mu_L -> ~chi_10 mu-)
     2.20993519E-06    2     1000023        13   # BR(~mu_L -> ~chi_20 mu-)
     5.42129233E-04    2     1000025        13   # BR(~mu_L -> ~chi_30 mu-)
     2.65524722E-06    2    -1000024        14   # BR(~mu_L -> ~chi_1- nu_mu)
#
#         PDG            Width
DECAY   2000013     4.88768674E+02   # smuon_R decays
#          BR         NDA      ID1       ID2
     9.99518738E-01    2     1000022        13   # BR(~mu_R -> ~chi_10 mu-)
     3.06500425E-06    2     1000023        13   # BR(~mu_R -> ~chi_20 mu-)
     4.78197097E-04    2     1000025        13   # BR(~mu_R -> ~chi_30 mu-)
#
#         PDG            Width
DECAY   1000015     1.18198243E+04   # stau_1 decays
#          BR         NDA      ID1       ID2
     2.58836636E-02    2     1000022        15   # BR(~tau_1 -> ~chi_10  tau-)
     2.54389207E-05    2     1000023        15   # BR(~tau_1 -> ~chi_20  tau-)
     2.84258576E-05    2     1000025        15   # BR(~tau_1 -> ~chi_30  tau-)
     2.77025539E-05    2    -1000024        16   # BR(~tau_1 -> ~chi_1-  nu_tau)
     9.74034769E-01    2     1000039        15   # BR(~tau_1 -> ~G       tau-)
#
#         PDG            Width
DECAY   2000015     3.05930609E+02   # stau_2 decays
#          BR         NDA      ID1       ID2
     9.96041211E-01    2     1000022        15   # BR(~tau_2 -> ~chi_10  tau-)
     1.06419788E-03    2     1000023        15   # BR(~tau_2 -> ~chi_20  tau-)
     1.92251233E-03    2     1000025        15   # BR(~tau_2 -> ~chi_30  tau-)
     9.72079252E-04    2    -1000024        16   # BR(~tau_2 -> ~chi_1-  nu_tau)
#
#         PDG            Width
DECAY   1000012     1.22192953E+02   # snu_eL decays
#          BR         NDA      ID1       ID2
     9.99572023E-01    2     1000022        12   # BR(~nu_eL -> ~chi_10 nu_e)
     4.05955865E-06    2     1000023        12   # BR(~nu_eL -> ~chi_20 nu_e)
     4.18269242E-04    2     1000025        12   # BR(~nu_eL -> ~chi_30 nu_e)
     5.64777457E-06    2     1000024        11   # BR(~nu_eL -> ~chi_1+ e-)
#
#         PDG            Width
DECAY   1000014     1.22192953E+02   # snu_muL decays
#          BR         NDA      ID1       ID2
     9.99572023E-01    2     1000022        14   # BR(~nu_muL -> ~chi_10 nu_mu)
     4.05955865E-06    2     1000023        14   # BR(~nu_muL -> ~chi_20 nu_mu)
     4.18269242E-04    2     1000025        14   # BR(~nu_muL -> ~chi_30 nu_mu)
     5.64777457E-06    2     1000024        13   # BR(~nu_muL -> ~chi_1+ mu-)
#
#         PDG            Width
DECAY   1000016     1.22817456E+02   # snu_tauL decays
#          BR         NDA      ID1       ID2
     9.94489389E-01    2     1000022        16   # BR(~nu_tauL -> ~chi_10 nu_tau)
     4.03891657E-06    2     1000023        16   # BR(~nu_tauL -> ~chi_20 nu_tau)
     4.16142422E-04    2     1000025        16   # BR(~nu_tauL -> ~chi_30 nu_tau)
     5.09043005E-03    2     1000024        15   # BR(~nu_tauL -> ~chi_1+ tau-)
#
#         PDG            Width
DECAY   1000024     4.45620621E+01   # chargino1+ decays
#          BR         NDA      ID1       ID2
     4.86767808E-07    2     1000002        -1   # BR(~chi_1+ -> ~u_L     db)
     2.28728988E-07    2    -1000001         2   # BR(~chi_1+ -> ~d_L*    u )
     4.86767808E-07    2     1000004        -3   # BR(~chi_1+ -> ~c_L     sb)
     2.28728988E-07    2    -1000003         4   # BR(~chi_1+ -> ~s_L*    c )
    -4.24107377E-02    2     1000006        -5   # BR(~chi_1+ -> ~t_1     bb)
     1.02395353E-01    2    -1000005         6   # BR(~chi_1+ -> ~b_1*    t )
     8.65906878E-01    2    -2000005         6   # BR(~chi_1+ -> ~b_2*    t )
     7.40989732E-02    2     1000022        24   # BR(~chi_1+ -> ~chi_10  W+)
     6.77028211E-06    2     1000039        24   # BR(~chi_1+ -> ~G       W+)
     1.33212502E-06    2     1000039        37   # BR(~chi_1+ -> ~G       H+)
#
#         PDG            Width
DECAY   1000037    -5.71501346E+04   # chargino2+ decays
#          BR         NDA      ID1       ID2
    -2.40616935E-02    2     1000002        -1   # BR(~chi_2+ -> ~u_L     db)
    -2.40616999E-02    2    -1000001         2   # BR(~chi_2+ -> ~d_L*    u )
    -2.40616935E-02    2     1000004        -3   # BR(~chi_2+ -> ~c_L     sb)
    -2.40616999E-02    2    -1000003         4   # BR(~chi_2+ -> ~s_L*    c )
     1.40965739E+00    2     1000006        -5   # BR(~chi_2+ -> ~t_1     bb)
    -5.30211834E-03    2    -1000005         6   # BR(~chi_2+ -> ~b_1*    t )
    -2.27918383E-02    2    -2000005         6   # BR(~chi_2+ -> ~b_2*    t )
    -1.72982134E-14    2     1000012       -11   # BR(~chi_2+ -> ~nu_eL   e+  )
    -1.72982134E-14    2     1000014       -13   # BR(~chi_2+ -> ~nu_muL  mu+ )
    -1.20460935E-14    2    -1000011        12   # BR(~chi_2+ -> ~e_L+    nu_e)
    -1.20460935E-14    2    -1000013        14   # BR(~chi_2+ -> ~mu_L+   nu_mu)
    -1.89631131E-14    2    -1000015        16   # BR(~chi_2+ -> ~tau_1+  nu_tau)
    -2.83475856E-16    2    -2000015        16   # BR(~chi_2+ -> ~tau_2+  nu_tau)
    -4.40675551E-03    2     1000024        23   # BR(~chi_2+ -> ~chi_1+  Z )
    -1.78745395E-06    2     1000022        24   # BR(~chi_2+ -> ~chi_10  W+)
    -4.27410104E-03    2     1000023        24   # BR(~chi_2+ -> ~chi_20  W+)
    -4.27226828E-03    2     1000025        24   # BR(~chi_2+ -> ~chi_30  W+)
    -4.45310119E-03    2     1000024        25   # BR(~chi_2+ -> ~chi_1+  h )
    -3.90896878E-03    2     1000024        35   # BR(~chi_2+ -> ~chi_1+  H )
    -3.90949418E-03    2     1000024        36   # BR(~chi_2+ -> ~chi_1+  A )
    -2.00826046E-06    2     1000022        37   # BR(~chi_2+ -> ~chi_10  H+)
    -3.90936694E-03    2     1000023        37   # BR(~chi_2+ -> ~chi_20  H+)
    -3.90746910E-03    2     1000025        37   # BR(~chi_2+ -> ~chi_30  H+)
    -2.52271255E-01    2     1000039        24   # BR(~chi_2+ -> ~G       W+)
    -7.22445964E-08    2     1000039        37   # BR(~chi_2+ -> ~G       H+)
#
#         PDG            Width
DECAY   1000022     1.E-08   # neutralino1 decays (OJ Mods)
#          BR         NDA      ID1       ID2
     7.59984269E-01    2     1000039        22   # BR(~chi_10 -> ~G        gam)
     2.40012622E-01    2     1000039        23   # BR(~chi_10 -> ~G        Z)
     3.10895830E-06    2     1000039        25   # BR(~chi_10 -> ~G        h)
#
#         PDG            Width
DECAY   1000023     1.E-08   # neutralino2 decays (OJ Mods)
#          BR         NDA      ID1       ID2
     7.93759318E-02    2     1000022        23   # BR(~chi_20 -> ~chi_10   Z )
     5.00555163E-04    2     1000022        25   # BR(~chi_20 -> ~chi_10   h )
     7.67040064E-05    2     1000022        36   # BR(~chi_20 -> ~chi_10   A )
     1.07371110E-08    2     1000002        -2   # BR(~chi_20 -> ~u_L      ub)
     1.07371110E-08    2    -1000002         2   # BR(~chi_20 -> ~u_L*     u )
     7.55711660E-08    2     1000001        -1   # BR(~chi_20 -> ~d_L      db)
     7.55711660E-08    2    -1000001         1   # BR(~chi_20 -> ~d_L*     d )
     1.43291481E-07    2     2000001        -1   # BR(~chi_20 -> ~d_R      db)
     1.43291481E-07    2    -2000001         1   # BR(~chi_20 -> ~d_R*     d )
     1.07371110E-08    2     1000004        -4   # BR(~chi_20 -> ~c_L      cb)
     1.07371110E-08    2    -1000004         4   # BR(~chi_20 -> ~c_L*     c )
     7.55711660E-08    2     1000003        -3   # BR(~chi_20 -> ~s_L      sb)
     7.55711660E-08    2    -1000003         3   # BR(~chi_20 -> ~s_L*     s )
     1.43291481E-07    2     2000003        -3   # BR(~chi_20 -> ~s_R      sb)
     1.43291481E-07    2    -2000003         3   # BR(~chi_20 -> ~s_R*     s )
     5.05335524E-01    2     1000006        -6   # BR(~chi_20 -> ~t_1      tb)
     5.05335524E-01    2    -1000006         6   # BR(~chi_20 -> ~t_1*     t )
    -2.20401921E-02    2     1000005        -5   # BR(~chi_20 -> ~b_1      bb)
    -2.20401921E-02    2    -1000005         5   # BR(~chi_20 -> ~b_1*     b )
    -2.32765850E-02    2     2000005        -5   # BR(~chi_20 -> ~b_2      bb)
    -2.32765850E-02    2    -2000005         5   # BR(~chi_20 -> ~b_2*     b )
     2.99097878E-11    2     1000039        22   # BR(~chi_20 -> ~G        gam)
     2.72306125E-07    2     1000039        23   # BR(~chi_20 -> ~G        Z)
     6.79653504E-06    2     1000039        25   # BR(~chi_20 -> ~G        h)
     5.44234713E-08    2     1000039        35   # BR(~chi_20 -> ~G        H)
     1.40403482E-06    2     1000039        36   # BR(~chi_20 -> ~G        A)
#
#         PDG            Width
DECAY   1000025     4.25885593E+01   # neutralino3 decays
#          BR         NDA      ID1       ID2
     5.11419174E-04    2     1000022        23   # BR(~chi_30 -> ~chi_10   Z )
     8.01759922E-02    2     1000022        25   # BR(~chi_30 -> ~chi_10   h )
     9.30241651E-07    2     1000022        36   # BR(~chi_30 -> ~chi_10   A )
     7.97993346E-06    2     1000002        -2   # BR(~chi_30 -> ~u_L      ub)
     7.97993346E-06    2    -1000002         2   # BR(~chi_30 -> ~u_L*     u )
     3.63052905E-06    2     1000001        -1   # BR(~chi_30 -> ~d_L      db)
     3.63052905E-06    2    -1000001         1   # BR(~chi_30 -> ~d_L*     d )
     2.23737822E-05    2     2000001        -1   # BR(~chi_30 -> ~d_R      db)
     2.23737822E-05    2    -2000001         1   # BR(~chi_30 -> ~d_R*     d )
     7.97993346E-06    2     1000004        -4   # BR(~chi_30 -> ~c_L      cb)
     7.97993346E-06    2    -1000004         4   # BR(~chi_30 -> ~c_L*     c )
     3.63052905E-06    2     1000003        -3   # BR(~chi_30 -> ~s_L      sb)
     3.63052905E-06    2    -1000003         3   # BR(~chi_30 -> ~s_L*     s )
     2.23737822E-05    2     2000003        -3   # BR(~chi_30 -> ~s_R      sb)
     2.23737822E-05    2    -2000003         3   # BR(~chi_30 -> ~s_R*     s )
     5.05837061E-01    2     1000006        -6   # BR(~chi_30 -> ~t_1      tb)
     5.05837061E-01    2    -1000006         6   # BR(~chi_30 -> ~t_1*     t )
    -1.70965091E-02    2     1000005        -5   # BR(~chi_30 -> ~b_1      bb)
    -1.70965091E-02    2    -1000005         5   # BR(~chi_30 -> ~b_1*     b )
    -2.91472400E-02    2     2000005        -5   # BR(~chi_30 -> ~b_2      bb)
    -2.91472400E-02    2    -2000005         5   # BR(~chi_30 -> ~b_2*     b )
     5.37583202E-09    2     1000039        22   # BR(~chi_30 -> ~G        gam)
     6.81446977E-06    2     1000039        23   # BR(~chi_30 -> ~G        Z)
     2.65635857E-07    2     1000039        25   # BR(~chi_30 -> ~G        h)
     1.39702625E-06    2     1000039        35   # BR(~chi_30 -> ~G        H)
     5.62556482E-08    2     1000039        36   # BR(~chi_30 -> ~G        A)
#
#         PDG            Width
DECAY   1000035    -5.71504224E+04   # neutralino4 decays
#          BR         NDA      ID1       ID2
    -2.31794835E-08    2     1000022        23   # BR(~chi_40 -> ~chi_10   Z )
    -4.25865547E-03    2     1000023        23   # BR(~chi_40 -> ~chi_20   Z )
    -1.48052519E-04    2     1000025        23   # BR(~chi_40 -> ~chi_30   Z )
    -4.27404753E-03    2     1000024       -24   # BR(~chi_40 -> ~chi_1+   W-)
    -4.27404753E-03    2    -1000024        24   # BR(~chi_40 -> ~chi_1-   W+)
    -1.84115592E-06    2     1000022        25   # BR(~chi_40 -> ~chi_10   h )
    -1.52753801E-07    2     1000022        35   # BR(~chi_40 -> ~chi_10   H )
    -1.85304807E-06    2     1000022        36   # BR(~chi_40 -> ~chi_10   A )
    -1.46172161E-04    2     1000023        25   # BR(~chi_40 -> ~chi_20   h )
    -3.74090963E-03    2     1000023        35   # BR(~chi_40 -> ~chi_20   H )
    -1.71964131E-04    2     1000023        36   # BR(~chi_40 -> ~chi_20   A )
    -4.30506432E-03    2     1000025        25   # BR(~chi_40 -> ~chi_30   h )
    -1.67876909E-04    2     1000025        35   # BR(~chi_40 -> ~chi_30   H )
    -3.73565226E-03    2     1000025        36   # BR(~chi_40 -> ~chi_30   A )
    -3.90939989E-03    2     1000024       -37   # BR(~chi_40 -> ~chi_1+   H-)
    -3.90939989E-03    2    -1000024        37   # BR(~chi_40 -> ~chi_1-   H+)
    -1.15226456E-02    2     1000002        -2   # BR(~chi_40 -> ~u_L      ub)
    -1.15226456E-02    2    -1000002         2   # BR(~chi_40 -> ~u_L*     u )
    -1.84179548E-22    2     2000002        -2   # BR(~chi_40 -> ~u_R      ub)
    -1.84179548E-22    2    -2000002         2   # BR(~chi_40 -> ~u_R*     u )
    -1.15226497E-02    2     1000001        -1   # BR(~chi_40 -> ~d_L      db)
    -1.15226497E-02    2    -1000001         1   # BR(~chi_40 -> ~d_L*     d )
    -2.24649783E-16    2     2000001        -1   # BR(~chi_40 -> ~d_R      db)
    -2.24649783E-16    2    -2000001         1   # BR(~chi_40 -> ~d_R*     d )
    -1.15226456E-02    2     1000004        -4   # BR(~chi_40 -> ~c_L      cb)
    -1.15226456E-02    2    -1000004         4   # BR(~chi_40 -> ~c_L*     c )
    -1.84179548E-22    2     2000004        -4   # BR(~chi_40 -> ~c_R      cb)
    -1.84179548E-22    2    -2000004         4   # BR(~chi_40 -> ~c_R*     c )
    -1.15226497E-02    2     1000003        -3   # BR(~chi_40 -> ~s_L      sb)
    -1.15226497E-02    2    -1000003         3   # BR(~chi_40 -> ~s_L*     s )
    -2.24649783E-16    2     2000003        -3   # BR(~chi_40 -> ~s_R      sb)
    -2.24649783E-16    2    -2000003         3   # BR(~chi_40 -> ~s_R*     s )
    -1.40469140E-02    2     1000006        -6   # BR(~chi_40 -> ~t_1      tb)
    -1.40469140E-02    2    -1000006         6   # BR(~chi_40 -> ~t_1*     t )
     3.42606608E-01    2     1000005        -5   # BR(~chi_40 -> ~b_1      bb)
     3.42606608E-01    2    -1000005         5   # BR(~chi_40 -> ~b_1*     b )
     3.62220816E-01    2     2000005        -5   # BR(~chi_40 -> ~b_2      bb)
     3.62220816E-01    2    -2000005         5   # BR(~chi_40 -> ~b_2*     b )
    -6.02300477E-15    2     1000011       -11   # BR(~chi_40 -> ~e_L-     e+)
    -6.02300477E-15    2    -1000011        11   # BR(~chi_40 -> ~e_L+     e-)
    -1.05684092E-27    2     2000011       -11   # BR(~chi_40 -> ~e_R-     e+)
    -1.05684092E-27    2    -2000011        11   # BR(~chi_40 -> ~e_R+     e-)
    -6.02300477E-15    2     1000013       -13   # BR(~chi_40 -> ~mu_L-    mu+)
    -6.02300477E-15    2    -1000013        13   # BR(~chi_40 -> ~mu_L+    mu-)
    -1.05684092E-27    2     2000013       -13   # BR(~chi_40 -> ~mu_R-    mu+)
    -1.05684092E-27    2    -2000013        13   # BR(~chi_40 -> ~mu_R+    mu-)
    -8.64905780E-15    2     1000012       -12   # BR(~chi_40 -> ~nu_eL    nu_eb)
    -8.64905780E-15    2    -1000012        12   # BR(~chi_40 -> ~nu_eL*   nu_e )
    -8.64905780E-15    2     1000014       -14   # BR(~chi_40 -> ~nu_muL   nu_mub)
    -8.64905780E-15    2    -1000014        14   # BR(~chi_40 -> ~nu_muL*  nu_mu )
    -8.64905780E-15    2     1000016       -16   # BR(~chi_40 -> ~nu_tau1  nu_taub)
    -8.64905780E-15    2    -1000016        16   # BR(~chi_40 -> ~nu_tau1* nu_tau )
    -6.11868172E-02    2     1000039        22   # BR(~chi_40 -> ~G        gam)
    -1.91082828E-01    2     1000039        23   # BR(~chi_40 -> ~G        Z)
    -1.15243948E-08    2     1000039        25   # BR(~chi_40 -> ~G        h)
    -7.23670418E-08    2     1000039        35   # BR(~chi_40 -> ~G        H)
    -1.42600644E-11    2     1000039        36   # BR(~chi_40 -> ~G        A)
#
#
#
#
