# SUSY Les Houches Accord 2 - MSSM spectrum + Decays
# SPheno v3.1.12 
# W. Porod, Comput. Phys. Commun. 153 (2003) 275-315, hep-ph/0301101
# in case of problems send email to porod@physik.uni-wuerzburg.de
# Created: 12.11.2012,  11:44
Block SPINFO         # Program information
     1   SPheno      # spectrum calculator
     2   v3.1.12     # version number
#
Block SPhenoINFO     # SPheno specific information
    1      2         # using 2-loop RGEs
    2      1         # using running masses for boundary conditions at mZ
Block MODSEL  # Model selection
    1    2    # mGMSB model
Block MINPAR  # Input parameters
    1    9.00000000E+04  # Lambda, scale of SUSY breaking
    2    2.50000000E+05  # M_M, messenger mass scale
    3    3.00000000E+01  # tanb at m_Z   
    4    1.00000000E+00  # Sign(mu)
    5    3.00000000E+00  # N_5 number of effective five-plets
    6    1.00000000E+00  # c_grav, Gravitino mass factor
Block gauge Q=  2.50000000E+05  # (GMSB scale)
   1    4.93878594E-01  # g'(Q)^DRbar
   2    6.50048088E-01  # g(Q)^DRbar
   3    9.42709315E-01  # g3(Q)^DRbar
Block SMINPUTS  # SM parameters
         1     1.27932507E+02  # alpha_em^-1(MZ)^MSbar
         2     1.16639000E-05  # G_mu [GeV^-2]
         3     1.17200000E-01  # alpha_s(MZ)^MSbar
         4     9.11876000E+01  # m_Z(pole)
         5     4.20000000E+00  # m_b(m_b), MSbar
         6     1.72500000E+02  # m_t(pole)
         7     1.77700000E+00  # m_tau(pole)
         8     0.00000000E+00  # m_nu_3
        11     5.10998910E-04  # m_e(pole)
        12     0.00000000E+00  # m_nu_1
        13     1.05658000E-01  # m_muon(pole)
        14     0.00000000E+00  # m_nu_2
        21     5.00000000E-03  # m_d(2 GeV), MSbar
        22     3.00000000E-03  # m_u(2 GeV), MSbar
        23     1.05000000E-01  # m_s(2 GeV), MSbar
        24     1.27000000E+00  # m_c(m_c), MSbar
Block gauge Q=  1.73833839E+03  # (SUSY scale)
   1    3.64263718E-01  # g'(Q)^DRbar
   2    6.40041758E-01  # g(Q)^DRbar
   3    1.03015071E+00  # g3(Q)^DRbar
Block Yu Q=  1.73833839E+03  # (SUSY scale)
  1  1     8.43356536E-06   # Y_u(Q)^DRbar
  2  2     3.57021022E-03   # Y_c(Q)^DRbar
  3  3     8.46369220E-01   # Y_t(Q)^DRbar
Block Yd Q=  1.73833839E+03  # (SUSY scale)
  1  1     3.69279069E-04   # Y_d(Q)^DRbar
  2  2     7.75485845E-03   # Y_s(Q)^DRbar
  3  3     3.70886053E-01   # Y_b(Q)^DRbar
Block Ye Q=  1.73833839E+03  # (SUSY scale)
  1  1     8.98054471E-05   # Y_e(Q)^DRbar
  2  2     1.85689326E-02   # Y_mu(Q)^DRbar
  3  3     3.12657114E-01   # Y_tau(Q)^DRbar
Block Au Q=  1.73833839E+03  # (SUSY scale)
  1  1    -5.70498351E+02   # A_u(Q)^DRbar
  2  2    -5.70496800E+02   # A_c(Q)^DRbar
  3  3    -5.35023222E+02   # A_t(Q)^DRbar
Block Ad Q=  1.73833839E+03  # (SUSY scale)
  1  1    -6.01594521E+02   # A_d(Q)^DRbar
  2  2    -6.01591420E+02   # A_s(Q)^DRbar
  3  3    -5.84125179E+02   # A_b(Q)^DRbar
Block Ae Q=  1.73833839E+03  # (SUSY scale)
  1  1    -5.83112577E+01   # A_e(Q)^DRbar
  2  2    -5.83090856E+01   # A_mu(Q)^DRbar
  3  3    -5.76963474E+01   # A_tau(Q)^DRbar
Block MSOFT Q=  1.73833839E+03  # soft SUSY breaking masses at Q
   1    3.84070049E+02  # M_1
   2    7.08906791E+02  # M_2
   3    1.84522186E+03  # M_3
  21    1.85646516E+05  # M^2_(H,d)
  22   -3.46203217E+05  # M^2_(H,u)
  31    5.64592689E+02  # M_(L,11)
  32    5.64581573E+02  # M_(L,22)
  33    5.61440518E+02  # M_(L,33)
  34    2.72396506E+02  # M_(E,11)
  35    2.72349583E+02  # M_(E,22)
  36    2.58769677E+02  # M_(E,33)
  41    1.81063194E+03  # M_(Q,11)
  42    1.81062605E+03  # M_(Q,22)
  43    1.74239431E+03  # M_(Q,33)
  44    1.73797994E+03  # M_(U,11)
  45    1.73797781E+03  # M_(U,22)
  46    1.61548994E+03  # M_(U,33)
  47    1.73098866E+03  # M_(D,11)
  48    1.73097835E+03  # M_(D,22)
  49    1.70745655E+03  # M_(D,33)
Block MASS  # Mass spectrum
#   PDG code      mass          particle
         6     1.72500000E+02  # m_t(pole)
        23     9.11876000E+01  # m_Z(pole)
        24     8.03115895E+01  # W+
        15     1.77700000E+00  # m_tau(pole)
        25     1.17789691E+02  # h0
        35     7.66139440E+02  # H0
        36     7.66059522E+02  # A0
        37     7.70793755E+02  # H+
   1000001     1.88624494E+03  # ~d_L
   2000001     1.80264451E+03  # ~d_R
   1000002     1.88449883E+03  # ~u_L
   2000002     1.80878734E+03  # ~u_R
   1000003     1.88623844E+03  # ~s_L
   2000003     1.80263133E+03  # ~s_R
   1000004     1.88449194E+03  # ~c_L
   2000004     1.80878475E+03  # ~c_R
   1000005     1.76980603E+03  # ~b_1
   2000005     1.80802526E+03  # ~b_2
   1000006     1.66548801E+03  # ~t_1
   2000006     1.81437601E+03  # ~t_2
   1000011     5.77626016E+02  # ~e_L-
   2000011     2.85275637E+02  # ~e_R-
   1000012     5.71735144E+02  # ~nu_eL
   1000013     5.77625591E+02  # ~mu_L-
   2000013     2.85187641E+02  # ~mu_R-
   1000014     5.71719403E+02  # ~nu_muL
   1000015     2.59607138E+02  # ~tau_1-
   2000015     5.77374481E+02  # ~tau_2-
   1000016     5.67304405E+02  # ~nu_tauL
   1000021     1.94745418E+03  # ~g
   1000022     3.72617984E+02  # ~chi_10
   1000023     6.18621943E+02  # ~chi_20
   1000025    -6.48164253E+02  # ~chi_30
   1000035     7.56030947E+02  # ~chi_40
   1000024     6.17205150E+02  # ~chi_1+
   1000037     7.56075360E+02  # ~chi_2+
   1000039     5.40000000E-09  # ~G
# Higgs mixing
Block alpha # Effective Higgs mixing angle
          -3.57638014E-02   # alpha
Block Hmix Q=  1.73833839E+03  # Higgs mixing parameters
   1    6.38807863E+02  # mu
   2    2.90149325E+01  # tan[beta](Q)
   3    2.43690085E+02  # v(Q)
   4    5.25063019E+05  # m^2_A(Q)
Block stopmix # stop mixing matrix
   1  1     1.92723671E-01   # Re[R_st(1,1)]
   1  2     9.81253070E-01   # Re[R_st(1,2)]
   2  1    -9.81253070E-01   # Re[R_st(2,1)]
   2  2     1.92723671E-01   # Re[R_st(2,2)]
Block sbotmix # sbottom mixing matrix
   1  1     3.40689005E-01   # Re[R_sb(1,1)]
   1  2     9.40176048E-01   # Re[R_sb(1,2)]
   2  1    -9.40176048E-01   # Re[R_sb(2,1)]
   2  2     3.40689005E-01   # Re[R_sb(2,2)]
Block staumix # stau mixing matrix
   1  1     1.33307645E-01   # Re[R_sta(1,1)]
   1  2     9.91074705E-01   # Re[R_sta(1,2)]
   2  1    -9.91074705E-01   # Re[R_sta(2,1)]
   2  2     1.33307645E-01   # Re[R_sta(2,2)]
Block Nmix # neutralino mixing matrix
   1  1    -9.91940349E-01   # Re[N(1,1)]
   1  2     1.52225692E-02   # Re[N(1,2)]
   1  3    -1.07697687E-01   # Re[N(1,3)]
   1  4     6.49909664E-02   # Re[N(1,4)]
   2  1     1.15610012E-01   # Re[N(2,1)]
   2  2     4.66576184E-01   # Re[N(2,2)]
   2  3    -6.32103693E-01   # Re[N(2,3)]
   2  4     6.07771265E-01   # Re[N(2,4)]
   3  1     2.94946745E-02   # Re[N(3,1)]
   3  2    -3.94661804E-02   # Re[N(3,2)]
   3  3    -7.04487108E-01   # Re[N(3,3)]
   3  4    -7.08004520E-01   # Re[N(3,4)]
   4  1    -4.26466107E-02   # Re[N(4,1)]
   4  2     8.83468934E-01   # Re[N(4,2)]
   4  3     3.04210526E-01   # Re[N(4,3)]
   4  4    -3.53722863E-01   # Re[N(4,4)]
Block Umix # chargino mixing matrix
   1  1    -4.28821432E-01   # Re[U(1,1)]
   1  2     9.03389274E-01   # Re[U(1,2)]
   2  1     9.03389274E-01   # Re[U(2,1)]
   2  2     4.28821432E-01   # Re[U(2,2)]
Block Vmix # chargino mixing matrix
   1  1    -4.98586524E-01   # Re[V(1,1)]
   1  2     8.66839938E-01   # Re[V(1,2)]
   2  1     8.66839938E-01   # Re[V(2,1)]
   2  2     4.98586524E-01   # Re[V(2,2)]
DECAY   2000011     4.42509204E-08   # ~e^-_R
#    BR                NDA      ID1      ID2
     1.67790057E-03    2     1000039        11   # BR(~e^-_R -> ~G e^-)
#    BR                NDA      ID1      ID2       ID3
     2.38180118E-01    3     1000015        11       -15   # BR(~e^-_R -> ~tau^-_1 e^- tau^+)
     7.60141981E-01    3    -1000015        11        15   # BR(~e^-_R -> ~tau^+_1 e^- tau^-)
DECAY   1000011     2.42120888E-01   # ~e^-_L
#    BR                NDA      ID1      ID2
     9.99999677E-01    2     1000022        11   # BR(~e^-_L -> chi^0_1 e^-)
     1.51322053E-07    2     2000011        23   # BR(~e^-_L -> ~e^-_R Z)
     1.61079138E-07    2     2000011        25   # BR(~e^-_L -> ~e^-_R h^0)
     1.04367811E-08    2     1000039        11   # BR(~e^-_L -> ~G e^-)
DECAY   2000013     4.35015416E-08   # ~mu^-_R
#    BR                NDA      ID1      ID2
     1.70417318E-03    2     1000039        13   # BR(~mu^-_R -> ~G mu^-)
#    BR                NDA      ID1      ID2       ID3
     2.37977708E-01    3     1000015        13       -15   # BR(~mu^-_R -> ~tau^-_1 mu^- tau^+)
     7.60318118E-01    3    -1000015        13        15   # BR(~mu^-_R -> ~tau^+_1 mu^- tau^-)
DECAY   1000013     2.45387759E-01   # ~mu^-_L
#    BR                NDA      ID1      ID2
     9.86820021E-01    2     1000022        13   # BR(~mu^-_L -> chi^0_1 mu^-)
     6.38513796E-03    2     2000013        23   # BR(~mu^-_L -> ~mu^-_R Z)
     6.79483052E-03    2     2000013        25   # BR(~mu^-_L -> ~mu^-_R h^0)
     1.02977960E-08    2     1000039        13   # BR(~mu^-_L -> ~G mu^-)
DECAY   1000015     4.63304866E-11   # ~tau^-_1
#    BR                NDA      ID1      ID2
     1.00000000E+00    2     1000039        15   # BR(~tau^-_1 -> ~G tau^-)
DECAY   2000015     1.19903849E+00   # ~tau^-_2
#    BR                NDA      ID1      ID2
     2.08827908E-01    2     1000022        15   # BR(~tau^-_2 -> chi^0_1 tau^-)
     3.98567927E-01    2     1000015        23   # BR(~tau^-_2 -> ~tau^-_1 Z)
     3.92604163E-01    2     1000015        25   # BR(~tau^-_2 -> ~tau^-_1 h^0)
     2.10282656E-09    2     1000039        15   # BR(~tau^-_2 -> ~G tau^-)
DECAY   1000012     2.59128847E-01   # ~nu_e
#    BR                NDA      ID1      ID2
     9.99999720E-01    2     1000022        12   # BR(~nu_e -> chi^0_1 nu_e)
     2.70853783E-07    2     2000011        24   # BR(~nu_e -> ~e^-_R W^+)
     9.26453848E-09    2     1000039        12   # BR(~nu_e -> ~G nu_e)
DECAY   1000014     2.62101837E-01   # ~nu_mu
#    BR                NDA      ID1      ID2
     9.88549231E-01    2     1000022        14   # BR(~nu_mu -> chi^0_1 nu_mu)
     1.14507603E-02    2     2000013        24   # BR(~nu_mu -> ~mu^-_R W^+)
     9.15819113E-09    2     1000039        14   # BR(~nu_mu -> ~G nu_mu)
DECAY   1000016     1.14952309E+00   # ~nu_tau
#    BR                NDA      ID1      ID2
     2.18526056E-01    2     1000022        16   # BR(~nu_tau -> chi^0_1 nu_tau)
     7.81473942E-01    2     1000015        24   # BR(~nu_tau -> ~tau^-_1 W^+)
     2.00876063E-09    2     1000039        16   # BR(~nu_tau -> ~G nu_tau)
DECAY   2000001     9.66471376E-01   # ~d_R
#    BR                NDA      ID1      ID2
     9.86535912E-01    2     1000022         1   # BR(~d_R -> chi^0_1 d)
     1.13841496E-02    2     1000023         1   # BR(~d_R -> chi^0_2 d)
     7.23471699E-04    2     1000025         1   # BR(~d_R -> chi^0_3 d)
     1.35152604E-03    2     1000035         1   # BR(~d_R -> chi^0_4 d)
     4.02350099E-06    2    -1000024         2   # BR(~d_R -> chi^-_1 u)
     1.42963620E-07    2    -1000037         2   # BR(~d_R -> chi^-_2 u)
     7.73974334E-07    2     1000039         1   # BR(~d_R -> ~G d)
DECAY   1000001     1.69124280E+01   # ~d_L
#    BR                NDA      ID1      ID2
     1.73637668E-02    2     1000022         1   # BR(~d_L -> chi^0_1 d)
     7.15634698E-02    2     1000023         1   # BR(~d_L -> chi^0_2 d)
     7.17882022E-04    2     1000025         1   # BR(~d_L -> chi^0_3 d)
     2.54504114E-01    2     1000035         1   # BR(~d_L -> chi^0_4 d)
     1.33268558E-01    2    -1000024         2   # BR(~d_L -> chi^-_1 u)
     5.22582154E-01    2    -1000037         2   # BR(~d_L -> chi^-_2 u)
     5.54816784E-08    2     1000039         1   # BR(~d_L -> ~G d)
DECAY   2000003     9.69939548E-01   # ~s_R
#    BR                NDA      ID1      ID2
     9.83061545E-01    2     1000022         3   # BR(~s_R -> chi^0_1 s)
     1.21979468E-02    2     1000023         3   # BR(~s_R -> chi^0_2 s)
     1.53218005E-03    2     1000025         3   # BR(~s_R -> chi^0_3 s)
     1.37677225E-03    2     1000035         3   # BR(~s_R -> chi^0_4 s)
     1.76795543E-03    2    -1000024         4   # BR(~s_R -> chi^-_1 c)
     6.28297390E-05    2    -1000037         4   # BR(~s_R -> chi^-_2 c)
     7.71178677E-07    2     1000039         3   # BR(~s_R -> ~G s)
DECAY   1000003     1.69142403E+01   # ~s_L
#    BR                NDA      ID1      ID2
     1.73609398E-02    2     1000022         3   # BR(~s_L -> chi^0_1 s)
     7.15875566E-02    2     1000023         3   # BR(~s_L -> chi^0_2 s)
     7.70608117E-04    2     1000025         3   # BR(~s_L -> chi^0_3 s)
     2.54490938E-01    2     1000035         3   # BR(~s_L -> chi^0_4 s)
     1.33247232E-01    2    -1000024         4   # BR(~s_L -> chi^-_1 c)
     5.22542670E-01    2    -1000037         4   # BR(~s_L -> chi^-_2 c)
     5.54747762E-08    2     1000039         3   # BR(~s_L -> ~G s)
DECAY   1000005     1.14451445E+01   # ~b_1
#    BR                NDA      ID1      ID2
     9.80934643E-02    2     1000022         5   # BR(~b_1 -> chi^0_1 b)
     2.06670195E-01    2     1000023         5   # BR(~b_1 -> chi^0_2 b)
     1.47978803E-01    2     1000025         5   # BR(~b_1 -> chi^0_3 b)
     4.08302364E-03    2     1000035         5   # BR(~b_1 -> chi^0_4 b)
     4.94061663E-01    2    -1000024         6   # BR(~b_1 -> chi^-_1 t)
     4.85996610E-02    2    -1000037         6   # BR(~b_1 -> chi^-_2 t)
     5.13130102E-04    2     1000006       -24   # BR(~b_1 -> ~t_1 W^-)
     5.96159404E-08    2     1000039         5   # BR(~b_1 -> ~G b)
DECAY   2000005     3.53527929E+01   # ~b_2
#    BR                NDA      ID1      ID2
     5.35680436E-03    2     1000022         5   # BR(~b_2 -> chi^0_1 b)
     5.03433309E-02    2     1000023         5   # BR(~b_2 -> chi^0_2 b)
     5.62534282E-02    2     1000025         5   # BR(~b_2 -> chi^0_3 b)
     1.29235870E-01    2     1000035         5   # BR(~b_2 -> chi^0_4 b)
     3.73654716E-01    2    -1000024         6   # BR(~b_2 -> chi^-_1 t)
     3.78367857E-01    2    -1000037         6   # BR(~b_2 -> chi^-_2 t)
     6.78797182E-03    2     1000006       -24   # BR(~b_2 -> ~t_1 W^-)
     2.14760534E-08    2     1000039         5   # BR(~b_2 -> ~G b)
DECAY   2000002     3.88144280E+00   # ~u_R
#    BR                NDA      ID1      ID2
     9.86526820E-01    2     1000022         2   # BR(~u_R -> chi^0_1 u)
     1.13958125E-02    2     1000023         2   # BR(~u_R -> chi^0_2 u)
     7.22631215E-04    2     1000025         2   # BR(~u_R -> chi^0_3 u)
     1.35453977E-03    2     1000035         2   # BR(~u_R -> chi^0_4 u)
     5.30236841E-10    2     1000024         1   # BR(~u_R -> chi^+_1 d)
     2.61212463E-11    2     1000037         1   # BR(~u_R -> chi^+_2 d)
     1.96024101E-07    2     1000039         2   # BR(~u_R -> ~G u)
DECAY   1000002     1.69874205E+01   # ~u_L
#    BR                NDA      ID1      ID2
     1.24859037E-02    2     1000022         2   # BR(~u_L -> chi^0_1 u)
     8.58800466E-02    2     1000023         2   # BR(~u_L -> chi^0_2 u)
     4.03161863E-04    2     1000025         2   # BR(~u_L -> chi^0_3 u)
     2.43867557E-01    2     1000035         2   # BR(~u_L -> chi^0_4 u)
     1.79118165E-01    2     1000024         1   # BR(~u_L -> chi^+_1 d)
     4.78245110E-01    2     1000037         1   # BR(~u_L -> chi^+_2 d)
     2.27155438E-11    2     2000001        24   # BR(~u_L -> ~d_R W^+)
     5.49815564E-08    2     1000039         2   # BR(~u_L -> ~G u)
DECAY   2000004     3.88218136E+00   # ~c_R
#    BR                NDA      ID1      ID2
     9.86335842E-01    2     1000022         4   # BR(~c_R -> chi^0_1 c)
     1.14387889E-02    2     1000023         4   # BR(~c_R -> chi^0_2 c)
     7.69196081E-04    2     1000025         4   # BR(~c_R -> chi^0_3 c)
     1.35628861E-03    2     1000035         4   # BR(~c_R -> chi^0_4 c)
     9.50082894E-05    2     1000024         3   # BR(~c_R -> chi^+_1 s)
     4.67994704E-06    2     1000037         3   # BR(~c_R -> chi^+_2 s)
     1.95985015E-07    2     1000039         4   # BR(~c_R -> ~G c)
DECAY   1000004     1.69893833E+01   # ~c_L
#    BR                NDA      ID1      ID2
     1.24846797E-02    2     1000022         4   # BR(~c_L -> chi^0_1 c)
     8.58744525E-02    2     1000023         4   # BR(~c_L -> chi^0_2 c)
     4.13776488E-04    2     1000025         4   # BR(~c_L -> chi^0_3 c)
     2.43842994E-01    2     1000035         4   # BR(~c_L -> chi^0_4 c)
     1.79176053E-01    2     1000024         3   # BR(~c_L -> chi^+_1 s)
     4.78207980E-01    2     1000037         3   # BR(~c_L -> chi^+_2 s)
     1.00767082E-08    2     2000003        24   # BR(~c_L -> ~s_R W^+)
     5.49740995E-08    2     1000039         4   # BR(~c_L -> ~G c)
DECAY   1000006     3.74935635E+01   # ~t_1
#    BR                NDA      ID1      ID2
     1.37342456E-04    2     1000022         4   # BR(~t_1 -> chi^0_1 c)
     9.27550590E-02    2     1000022         6   # BR(~t_1 -> chi^0_1 t)
     9.02211249E-04    2     1000023         4   # BR(~t_1 -> chi^0_2 c)
     1.89611944E-01    2     1000023         6   # BR(~t_1 -> chi^0_2 t)
     2.34145784E-01    2     1000025         6   # BR(~t_1 -> chi^0_3 t)
     2.52319117E-02    2     1000035         6   # BR(~t_1 -> chi^0_4 t)
     4.04163298E-01    2     1000024         5   # BR(~t_1 -> chi^+_1 b)
     5.30414302E-02    2     1000037         5   # BR(~t_1 -> chi^+_2 b)
     1.28641125E-08    2     1000039         6   # BR(~t_1 -> ~G t)
#    BR                NDA      ID1      ID2       ID3
     1.10062878E-05    3     1000022        24         5   # BR(~t_1 -> chi^0_1 W^+ b)
DECAY   2000006     3.87370055E+01   # ~t_2
#    BR                NDA      ID1      ID2
     6.44742394E-03    2     1000022         6   # BR(~t_2 -> chi^0_1 t)
     1.90183729E-01    2     1000023         6   # BR(~t_2 -> chi^0_2 t)
     2.38373027E-01    2     1000025         6   # BR(~t_2 -> chi^0_3 t)
     1.93890602E-01    2     1000035         6   # BR(~t_2 -> chi^0_4 t)
     1.00102566E-01    2     1000024         5   # BR(~t_2 -> chi^+_1 b)
     2.64925129E-01    2     1000037         5   # BR(~t_2 -> chi^+_2 b)
     3.44132243E-03    2     1000006        23   # BR(~t_2 -> ~t_1 Z)
     2.63618205E-03    2     1000006        25   # BR(~t_2 -> ~t_1 h^0)
     1.92354201E-08    2     1000039         6   # BR(~t_2 -> ~G t)
DECAY   1000024     7.52063679E-01   # chi^+_1
#    BR                NDA      ID1      ID2
     4.28514904E-08    2    -2000011        12   # BR(chi^+_1 -> ~e^+_R nu_e)
     9.47702753E-03    2    -1000011        12   # BR(chi^+_1 -> ~e^+_L nu_e)
     1.83246640E-03    2    -2000013        14   # BR(chi^+_1 -> ~mu^+_R nu_mu)
     9.46697320E-03    2    -1000013        14   # BR(chi^+_1 -> ~mu^+_L nu_mu)
     5.54061274E-01    2    -1000015        16   # BR(chi^+_1 -> ~tau^+_1 nu_tau)
     6.99508890E-03    2    -2000015        16   # BR(chi^+_1 -> ~tau^+_2 nu_tau)
     1.67426711E-02    2     1000012       -11   # BR(chi^+_1 -> ~nu_e e^+)
     1.68043218E-02    2     1000014       -13   # BR(chi^+_1 -> ~nu_mu mu^+)
     3.69873611E-02    2     1000016       -15   # BR(chi^+_1 -> ~nu_tau tau^+)
     3.47467262E-01    2     1000022        24   # BR(chi^+_1 -> chi^0_1 W^+)
#    BR                NDA      ID1      ID2       ID3
     2.00632994E-08    3     1000022        -1         2   # BR(chi^+_1 -> chi^0_1 d_bar u)
     2.14893956E-08    3     1000022        -3         4   # BR(chi^+_1 -> chi^0_1 s_bar c)
     1.32202778E-04    3     1000022        -5         6   # BR(chi^+_1 -> chi^0_1 b_bar t)
     3.48251264E-12    3     1000022       -11        12   # BR(chi^+_1 -> chi^0_1 e^+ nu_e)
     1.48750577E-07    3     1000022       -13        14   # BR(chi^+_1 -> chi^0_1 mu^+ nu_mu)
     3.31174816E-05    3     1000022       -15        16   # BR(chi^+_1 -> chi^0_1 tau^+ nu_tau)
DECAY   1000037     3.89506510E+00   # chi^+_2
#    BR                NDA      ID1      ID2
     3.33623464E-10    2    -2000011        12   # BR(chi^+_2 -> ~e^+_R nu_e)
     1.11893218E-01    2    -1000011        12   # BR(chi^+_2 -> ~e^+_L nu_e)
     1.42712879E-05    2    -2000013        14   # BR(chi^+_2 -> ~mu^+_R nu_mu)
     1.11911538E-01    2    -1000013        14   # BR(chi^+_2 -> ~mu^+_L nu_mu)
     4.67763890E-03    2    -1000015        16   # BR(chi^+_2 -> ~tau^+_1 nu_tau)
     1.17152957E-01    2    -2000015        16   # BR(chi^+_2 -> ~tau^+_2 nu_tau)
     1.08967504E-01    2     1000012       -11   # BR(chi^+_2 -> ~nu_e e^+)
     1.09003924E-01    2     1000014       -13   # BR(chi^+_2 -> ~nu_mu mu^+)
     1.19541927E-01    2     1000016       -15   # BR(chi^+_2 -> ~nu_tau tau^+)
     1.30946483E-02    2     1000022        24   # BR(chi^+_2 -> chi^0_1 W^+)
     1.22676768E-01    2     1000023        24   # BR(chi^+_2 -> chi^0_2 W^+)
     4.32589200E-02    2     1000025        24   # BR(chi^+_2 -> chi^0_3 W^+)
     9.78569539E-02    2     1000024        23   # BR(chi^+_2 -> chi^+_1 Z)
     3.98934341E-02    2     1000024        25   # BR(chi^+_2 -> chi^+_1 h^0)
#    BR                NDA      ID1      ID2       ID3
     5.27872456E-09    3     1000024         2        -2   # BR(chi^+_2 -> chi^+_1 u u_bar)
     5.26994578E-09    3     1000024         4        -4   # BR(chi^+_2 -> chi^+_1 c c_bar)
     6.59870934E-09    3     1000024         1        -1   # BR(chi^+_2 -> chi^+_1 d d_bar)
     6.71009670E-09    3     1000024         3        -3   # BR(chi^+_2 -> chi^+_1 s s_bar)
     2.71618342E-07    3     1000024         5        -5   # BR(chi^+_2 -> chi^+_1 b b_bar)
     1.19534840E-06    3     1000024        11       -11   # BR(chi^+_2 -> chi^+_1 e^- e^+)
     1.19794870E-06    3     1000024        13       -13   # BR(chi^+_2 -> chi^+_1 mu^- mu^+)
     1.86399479E-06    3     1000024        15       -15   # BR(chi^+_2 -> chi^+_1 tau^- tau^+)
     2.92193077E-06    3     1000024        12       -12   # BR(chi^+_2 -> chi^+_1 nu_e nu_bar_e)
     1.10959804E-07    3     1000022        -1         2   # BR(chi^+_2 -> chi^0_1 d_bar u)
     1.11011282E-07    3     1000022        -3         4   # BR(chi^+_2 -> chi^0_1 s_bar c)
     4.54648177E-05    3     1000022        -5         6   # BR(chi^+_2 -> chi^0_1 b_bar t)
     6.93802631E-14    3     1000022       -11        12   # BR(chi^+_2 -> chi^0_1 e^+ nu_e)
     2.96533129E-09    3     1000022       -13        14   # BR(chi^+_2 -> chi^0_1 mu^+ nu_mu)
     7.76641680E-07    3     1000022       -15        16   # BR(chi^+_2 -> chi^0_1 tau^+ nu_tau)
     2.89799946E-09    3     1000023        -1         2   # BR(chi^+_2 -> chi^0_2 d_bar u)
     2.98295060E-09    3     1000023        -3         4   # BR(chi^+_2 -> chi^0_2 s_bar c)
     6.66488705E-07    3     1000023       -11        12   # BR(chi^+_2 -> chi^0_2 e^+ nu_e)
     6.67356694E-07    3     1000023       -13        14   # BR(chi^+_2 -> chi^0_2 mu^+ nu_mu)
     8.80351508E-07    3     1000023       -15        16   # BR(chi^+_2 -> chi^0_2 tau^+ nu_tau)
     2.01289682E-11    3     1000025        -1         2   # BR(chi^+_2 -> chi^0_3 d_bar u)
     3.84169715E-11    3     1000025        -3         4   # BR(chi^+_2 -> chi^0_3 s_bar c)
     2.54326927E-09    3     1000025       -11        12   # BR(chi^+_2 -> chi^0_3 e^+ nu_e)
     2.98803621E-09    3     1000025       -13        14   # BR(chi^+_2 -> chi^0_3 mu^+ nu_mu)
     1.30944426E-07    3     1000025       -15        16   # BR(chi^+_2 -> chi^0_3 tau^+ nu_tau)
DECAY   1000022     1.17604720E+00   # chi^0_1
#    BR                NDA      ID1      ID2
     1.40954183E-01    2     2000011       -11   # BR(chi^0_1 -> ~e^-_R e^+)
     1.40954183E-01    2    -2000011        11   # BR(chi^0_1 -> ~e^+_R e^-)
     1.41199902E-01    2     2000013       -13   # BR(chi^0_1 -> ~mu^-_R mu^+)
     1.41199902E-01    2    -2000013        13   # BR(chi^0_1 -> ~mu^+_R mu^-)
     2.17845915E-01    2     1000015       -15   # BR(chi^0_1 -> ~tau^-_1 tau^+)
     2.17845915E-01    2    -1000015        15   # BR(chi^0_1 -> ~tau^+_1 tau^-)
     1.75289048E-10    2     1000039        22   # BR(chi^0_1 -> ~G photon)
     5.27420386E-11    2     1000039        23   # BR(chi^0_1 -> ~G Z)
     1.12481515E-12    2     1000039        25   # BR(chi^0_1 -> ~G h^0)
DECAY   1000023     8.59644356E-01   # chi^0_2
#    BR                NDA      ID1      ID2
     1.57394060E-02    2     2000011       -11   # BR(chi^0_2 -> ~e^-_R e^+)
     1.57394060E-02    2    -2000011        11   # BR(chi^0_2 -> ~e^+_R e^-)
     6.82413257E-03    2     1000011       -11   # BR(chi^0_2 -> ~e^-_L e^+)
     6.82413257E-03    2    -1000011        11   # BR(chi^0_2 -> ~e^+_L e^-)
     1.65263272E-02    2     2000013       -13   # BR(chi^0_2 -> ~mu^-_R mu^+)
     1.65263272E-02    2    -2000013        13   # BR(chi^0_2 -> ~mu^+_R mu^-)
     6.83769972E-03    2     1000013       -13   # BR(chi^0_2 -> ~mu^-_L mu^+)
     6.83769972E-03    2    -1000013        13   # BR(chi^0_2 -> ~mu^+_L mu^-)
     2.57243616E-01    2     1000015       -15   # BR(chi^0_2 -> ~tau^-_1 tau^+)
     2.57243616E-01    2    -1000015        15   # BR(chi^0_2 -> ~tau^+_1 tau^-)
     1.07589553E-02    2     2000015       -15   # BR(chi^0_2 -> ~tau^-_2 tau^+)
     1.07589553E-02    2    -2000015        15   # BR(chi^0_2 -> ~tau^+_2 tau^-)
     5.00909193E-03    2     1000012       -12   # BR(chi^0_2 -> ~nu_e nu_bar_e)
     5.00909193E-03    2    -1000012        12   # BR(chi^0_2 -> ~nu^*_e nu_e)
     5.01232318E-03    2     1000014       -14   # BR(chi^0_2 -> ~nu_mu nu_bar_mu)
     5.01232318E-03    2    -1000014        14   # BR(chi^0_2 -> ~nu^*_mu nu_mu)
     5.95594077E-03    2     1000016       -16   # BR(chi^0_2 -> ~nu_tau nu_bar_tau)
     5.95594077E-03    2    -1000016        16   # BR(chi^0_2 -> ~nu^*_tau nu_tau)
     2.20631068E-02    2     1000022        23   # BR(chi^0_2 -> chi^0_1 Z)
     3.18077579E-01    2     1000022        25   # BR(chi^0_2 -> chi^0_1 h^0)
     4.54473806E-10    2     1000039        22   # BR(chi^0_2 -> ~G photon)
     4.80609311E-12    2     1000039        23   # BR(chi^0_2 -> ~G Z)
     1.64157619E-09    2     1000039        25   # BR(chi^0_2 -> ~G h^0)
     7.00202625E-07    2     1000022        22   # BR(chi^0_2 -> chi^0_1 photon)
#    BR                NDA      ID1      ID2       ID3
     1.48142071E-08    3     1000022         2        -2   # BR(chi^0_2 -> chi^0_1 u u_bar)
     1.48250362E-08    3     1000022         4        -4   # BR(chi^0_2 -> chi^0_1 c c_bar)
     1.01773364E-08    3     1000022         1        -1   # BR(chi^0_2 -> chi^0_1 d d_bar)
     1.17841662E-08    3     1000022         3        -3   # BR(chi^0_2 -> chi^0_1 s s_bar)
     3.73262024E-06    3     1000022         5        -5   # BR(chi^0_2 -> chi^0_1 b b_bar)
     4.18111646E-06    3     1000022        11       -11   # BR(chi^0_2 -> chi^0_1 e^- e^+)
     4.30144866E-06    3     1000022        13       -13   # BR(chi^0_2 -> chi^0_1 mu^- mu^+)
     3.13600474E-05    3     1000022        15       -15   # BR(chi^0_2 -> chi^0_1 tau^- tau^+)
     3.93613182E-12    3     1000024         1        -2   # BR(chi^0_2 -> chi^+_1 d u_bar)
     3.93613182E-12    3    -1000024        -1         2   # BR(chi^0_2 -> chi^-_1 d_bar u)
     1.25331560E-12    3     1000024        11       -12   # BR(chi^0_2 -> chi^+_1 e^- nu_bar_e)
     1.25331560E-12    3    -1000024       -11        12   # BR(chi^0_2 -> chi^-_1 e^+ nu_e)
     1.21931899E-12    3     1000024        13       -14   # BR(chi^0_2 -> chi^+_1 mu^- nu_bar_mu)
     1.21931899E-12    3    -1000024       -13        14   # BR(chi^0_2 -> chi^-_1 mu^+ nu_mu)
DECAY   1000025     8.17472139E-01   # chi^0_3
#    BR                NDA      ID1      ID2
     1.18371649E-03    2     2000011       -11   # BR(chi^0_3 -> ~e^-_R e^+)
     1.18371649E-03    2    -2000011        11   # BR(chi^0_3 -> ~e^+_R e^-)
     3.52001322E-05    2     1000011       -11   # BR(chi^0_3 -> ~e^-_L e^+)
     3.52001322E-05    2    -1000011        11   # BR(chi^0_3 -> ~e^+_L e^-)
     2.03418751E-03    2     2000013       -13   # BR(chi^0_3 -> ~mu^-_R mu^+)
     2.03418751E-03    2    -2000013        13   # BR(chi^0_3 -> ~mu^+_R mu^-)
     9.43627739E-05    2     1000013       -13   # BR(chi^0_3 -> ~mu^-_L mu^+)
     9.43627739E-05    2    -1000013        13   # BR(chi^0_3 -> ~mu^+_L mu^-)
     2.62529870E-01    2     1000015       -15   # BR(chi^0_3 -> ~tau^-_1 tau^+)
     2.62529870E-01    2    -1000015        15   # BR(chi^0_3 -> ~tau^+_1 tau^-)
     1.70027056E-02    2     2000015       -15   # BR(chi^0_3 -> ~tau^-_2 tau^+)
     1.70027056E-02    2    -2000015        15   # BR(chi^0_3 -> ~tau^+_2 tau^-)
     2.51770776E-04    2     1000012       -12   # BR(chi^0_3 -> ~nu_e nu_bar_e)
     2.51770776E-04    2    -1000012        12   # BR(chi^0_3 -> ~nu^*_e nu_e)
     2.51867991E-04    2     1000014       -14   # BR(chi^0_3 -> ~nu_mu nu_bar_mu)
     2.51867991E-04    2    -1000014        14   # BR(chi^0_3 -> ~nu^*_mu nu_mu)
     2.79764794E-04    2     1000016       -16   # BR(chi^0_3 -> ~nu_tau nu_bar_tau)
     2.79764794E-04    2    -1000016        16   # BR(chi^0_3 -> ~nu^*_tau nu_tau)
     4.09643041E-01    2     1000022        23   # BR(chi^0_3 -> chi^0_1 Z)
     2.28923624E-02    2     1000022        25   # BR(chi^0_3 -> chi^0_1 h^0)
     2.05495703E-13    2     1000039        22   # BR(chi^0_3 -> ~G photon)
     4.72520884E-10    2     1000039        23   # BR(chi^0_3 -> ~G Z)
     2.55783948E-09    2     1000039        25   # BR(chi^0_3 -> ~G h^0)
     4.42128861E-07    2     1000022        22   # BR(chi^0_3 -> chi^0_1 photon)
     5.67213904E-09    2     1000023        22   # BR(chi^0_3 -> chi^0_2 photon)
#    BR                NDA      ID1      ID2       ID3
     2.88806428E-10    3     1000022         2        -2   # BR(chi^0_3 -> chi^0_1 u u_bar)
     3.23067506E-10    3     1000022         4        -4   # BR(chi^0_3 -> chi^0_1 c c_bar)
     8.76308238E-11    3     1000022         1        -1   # BR(chi^0_3 -> chi^0_1 d d_bar)
     2.87397511E-09    3     1000022         3        -3   # BR(chi^0_3 -> chi^0_1 s s_bar)
     6.42673911E-06    3     1000022         5        -5   # BR(chi^0_3 -> chi^0_1 b b_bar)
     1.59481652E-07    3     1000022        11       -11   # BR(chi^0_3 -> chi^0_1 e^- e^+)
     3.39934267E-07    3     1000022        13       -13   # BR(chi^0_3 -> chi^0_1 mu^- mu^+)
     4.16091896E-05    3     1000022        15       -15   # BR(chi^0_3 -> chi^0_1 tau^- tau^+)
     2.51947209E-06    3     1000023         2        -2   # BR(chi^0_3 -> chi^0_2 u u_bar)
     2.49192950E-06    3     1000023         4        -4   # BR(chi^0_3 -> chi^0_2 c c_bar)
     3.26783096E-06    3     1000023         1        -1   # BR(chi^0_3 -> chi^0_2 d d_bar)
     3.26750876E-06    3     1000023         3        -3   # BR(chi^0_3 -> chi^0_2 s s_bar)
     2.76762837E-06    3     1000023         5        -5   # BR(chi^0_3 -> chi^0_2 b b_bar)
     7.51358950E-07    3     1000023        11       -11   # BR(chi^0_3 -> chi^0_2 e^- e^+)
     7.51213592E-07    3     1000023        13       -13   # BR(chi^0_3 -> chi^0_2 mu^- mu^+)
     7.08263255E-07    3     1000023        15       -15   # BR(chi^0_3 -> chi^0_2 tau^- tau^+)
     4.47678533E-06    3     1000023        12       -12   # BR(chi^0_3 -> chi^0_2 nu_e nu_bar_e)
     1.13425874E-05    3     1000024         1        -2   # BR(chi^0_3 -> chi^+_1 d u_bar)
     1.13425874E-05    3    -1000024        -1         2   # BR(chi^0_3 -> chi^-_1 d_bar u)
     1.12539266E-05    3     1000024         3        -4   # BR(chi^0_3 -> chi^+_1 s c_bar)
     1.12539266E-05    3    -1000024        -3         4   # BR(chi^0_3 -> chi^-_1 s_bar c)
     3.77367168E-06    3     1000024        11       -12   # BR(chi^0_3 -> chi^+_1 e^- nu_bar_e)
     3.77367168E-06    3    -1000024       -11        12   # BR(chi^0_3 -> chi^-_1 e^+ nu_e)
     3.77365732E-06    3     1000024        13       -14   # BR(chi^0_3 -> chi^+_1 mu^- nu_bar_mu)
     3.77365732E-06    3    -1000024       -13        14   # BR(chi^0_3 -> chi^-_1 mu^+ nu_mu)
     3.71192599E-06    3     1000024        15       -16   # BR(chi^0_3 -> chi^+_1 tau^- nu_bar_tau)
     3.71192599E-06    3    -1000024       -15        16   # BR(chi^0_3 -> chi^-_1 tau^+ nu_tau)
DECAY   1000035     3.91992813E+00   # chi^0_4
#    BR                NDA      ID1      ID2
     6.81054642E-04    2     2000011       -11   # BR(chi^0_4 -> ~e^-_R e^+)
     6.81054642E-04    2    -2000011        11   # BR(chi^0_4 -> ~e^+_R e^-)
     5.02664402E-02    2     1000011       -11   # BR(chi^0_4 -> ~e^-_L e^+)
     5.02664402E-02    2    -1000011        11   # BR(chi^0_4 -> ~e^+_L e^-)
     6.86500188E-04    2     2000013       -13   # BR(chi^0_4 -> ~mu^-_R mu^+)
     6.86500188E-04    2    -2000013        13   # BR(chi^0_4 -> ~mu^+_R mu^-)
     5.02855827E-02    2     1000013       -13   # BR(chi^0_4 -> ~mu^-_L mu^+)
     5.02855827E-02    2    -1000013        13   # BR(chi^0_4 -> ~mu^+_L mu^-)
     2.80438483E-03    2     1000015       -15   # BR(chi^0_4 -> ~tau^-_1 tau^+)
     2.80438483E-03    2    -1000015        15   # BR(chi^0_4 -> ~tau^+_1 tau^-)
     5.56592599E-02    2     2000015       -15   # BR(chi^0_4 -> ~tau^-_2 tau^+)
     5.56592599E-02    2    -2000015        15   # BR(chi^0_4 -> ~tau^+_2 tau^-)
     5.93454063E-02    2     1000012       -12   # BR(chi^0_4 -> ~nu_e nu_bar_e)
     5.93454063E-02    2    -1000012        12   # BR(chi^0_4 -> ~nu^*_e nu_e)
     5.93541367E-02    2     1000014       -14   # BR(chi^0_4 -> ~nu_mu nu_bar_mu)
     5.93541367E-02    2    -1000014        14   # BR(chi^0_4 -> ~nu^*_mu nu_mu)
     6.18185572E-02    2     1000016       -16   # BR(chi^0_4 -> ~nu_tau nu_bar_tau)
     6.18185572E-02    2    -1000016        16   # BR(chi^0_4 -> ~nu^*_tau nu_tau)
     1.20114852E-01    2     1000024       -24   # BR(chi^0_4 -> chi^+_1 W^-)
     1.20114852E-01    2    -1000024        24   # BR(chi^0_4 -> chi^-_1 W^+)
     1.58719149E-03    2     1000022        23   # BR(chi^0_4 -> chi^0_1 Z)
     9.28701728E-04    2     1000023        23   # BR(chi^0_4 -> chi^0_2 Z)
     2.20465869E-02    2     1000025        23   # BR(chi^0_4 -> chi^0_3 Z)
     1.37423220E-02    2     1000022        25   # BR(chi^0_4 -> chi^0_1 h^0)
     3.96477501E-02    2     1000023        25   # BR(chi^0_4 -> chi^0_2 h^0)
     3.96042511E-10    2     1000039        22   # BR(chi^0_4 -> ~G photon)
     2.33296962E-09    2     1000039        23   # BR(chi^0_4 -> ~G Z)
     3.28566931E-10    2     1000039        25   # BR(chi^0_4 -> ~G h^0)
     3.72651038E-07    2     1000022        22   # BR(chi^0_4 -> chi^0_1 photon)
     1.56215304E-06    2     1000023        22   # BR(chi^0_4 -> chi^0_2 photon)
     9.22430063E-07    2     1000025        22   # BR(chi^0_4 -> chi^0_3 photon)
#    BR                NDA      ID1      ID2       ID3
     4.67077094E-08    3     1000022         2        -2   # BR(chi^0_4 -> chi^0_1 u u_bar)
     4.66973546E-08    3     1000022         4        -4   # BR(chi^0_4 -> chi^0_1 c c_bar)
     3.94236810E-07    3     1000022         6        -6   # BR(chi^0_4 -> chi^0_1 t t_bar)
     6.48153852E-08    3     1000022         1        -1   # BR(chi^0_4 -> chi^0_1 d d_bar)
     6.49153487E-08    3     1000022         3        -3   # BR(chi^0_4 -> chi^0_1 s s_bar)
     3.04452058E-07    3     1000022         5        -5   # BR(chi^0_4 -> chi^0_1 b b_bar)
     4.66681530E-07    3     1000022        11       -11   # BR(chi^0_4 -> chi^0_1 e^- e^+)
     4.67808977E-07    3     1000022        13       -13   # BR(chi^0_4 -> chi^0_1 mu^- mu^+)
     9.46740585E-07    3     1000022        15       -15   # BR(chi^0_4 -> chi^0_1 tau^- tau^+)
     4.56780365E-09    3     1000023         2        -2   # BR(chi^0_4 -> chi^0_2 u u_bar)
     4.56136243E-09    3     1000023         4        -4   # BR(chi^0_4 -> chi^0_2 c c_bar)
     3.90865306E-09    3     1000023         1        -1   # BR(chi^0_4 -> chi^0_2 d d_bar)
     3.94137989E-09    3     1000023         3        -3   # BR(chi^0_4 -> chi^0_2 s s_bar)
     8.04085479E-08    3     1000023         5        -5   # BR(chi^0_4 -> chi^0_2 b b_bar)
     1.00716396E-06    3     1000023        11       -11   # BR(chi^0_4 -> chi^0_2 e^- e^+)
     1.00845288E-06    3     1000023        13       -13   # BR(chi^0_4 -> chi^0_2 mu^- mu^+)
     1.33491061E-06    3     1000023        15       -15   # BR(chi^0_4 -> chi^0_2 tau^- tau^+)
     1.66243344E-06    3     1000023        12       -12   # BR(chi^0_4 -> chi^0_2 nu_e nu_bar_e)
     2.38492772E-12    3     1000025         2        -2   # BR(chi^0_4 -> chi^0_3 u u_bar)
     6.44900442E-11    3     1000025         4        -4   # BR(chi^0_4 -> chi^0_3 c c_bar)
     4.40589881E-12    3     1000025         1        -1   # BR(chi^0_4 -> chi^0_3 d d_bar)
     2.62682061E-11    3     1000025         3        -3   # BR(chi^0_4 -> chi^0_3 s s_bar)
     4.98222800E-08    3     1000025         5        -5   # BR(chi^0_4 -> chi^0_3 b b_bar)
     1.44148791E-10    3     1000025        11       -11   # BR(chi^0_4 -> chi^0_3 e^- e^+)
     4.97710829E-10    3     1000025        13       -13   # BR(chi^0_4 -> chi^0_3 mu^- mu^+)
     1.03176490E-07    3     1000025        15       -15   # BR(chi^0_4 -> chi^0_3 tau^- tau^+)
     2.63556092E-09    3     1000025        12       -12   # BR(chi^0_4 -> chi^0_3 nu_e nu_bar_e)
     3.00245885E-09    3     1000024         1        -2   # BR(chi^0_4 -> chi^+_1 d u_bar)
     3.00245885E-09    3    -1000024        -1         2   # BR(chi^0_4 -> chi^-_1 d_bar u)
     3.07527034E-09    3     1000024         3        -4   # BR(chi^0_4 -> chi^+_1 s c_bar)
     3.07527034E-09    3    -1000024        -3         4   # BR(chi^0_4 -> chi^-_1 s_bar c)
     6.37815150E-07    3     1000024        11       -12   # BR(chi^0_4 -> chi^+_1 e^- nu_bar_e)
     6.37815150E-07    3    -1000024       -11        12   # BR(chi^0_4 -> chi^-_1 e^+ nu_e)
     6.38526304E-07    3     1000024        13       -14   # BR(chi^0_4 -> chi^+_1 mu^- nu_bar_mu)
     6.38526304E-07    3    -1000024       -13        14   # BR(chi^0_4 -> chi^-_1 mu^+ nu_mu)
     8.02187851E-07    3     1000024        15       -16   # BR(chi^0_4 -> chi^+_1 tau^- nu_bar_tau)
     8.02187851E-07    3    -1000024       -15        16   # BR(chi^0_4 -> chi^-_1 tau^+ nu_tau)
DECAY   1000021     8.06860775E+00   # ~g
#    BR                NDA      ID1      ID2
     4.80566600E-02    2     2000002        -2   # BR(~g -> ~u_R u_bar)
     4.80566600E-02    2    -2000002         2   # BR(~g -> ~u^*_R u)
     1.03087745E-02    2     1000002        -2   # BR(~g -> ~u_L u_bar)
     1.03087745E-02    2    -1000002         2   # BR(~g -> ~u^*_L u)
     4.80550119E-02    2     2000004        -4   # BR(~g -> ~c_R c_bar)
     4.80550119E-02    2    -2000004         4   # BR(~g -> ~c^*_R c)
     1.03096645E-02    2     1000004        -4   # BR(~g -> ~c_L c_bar)
     1.03096645E-02    2    -1000004         4   # BR(~g -> ~c^*_L c)
     5.16702892E-03    2     1000006        -4   # BR(~g -> ~t_1 c_bar)
     5.16702892E-03    2    -1000006         4   # BR(~g -> ~t^*_1 c)
     1.13260634E-01    2     1000006        -6   # BR(~g -> ~t_1 t_bar)
     1.13260634E-01    2    -1000006         6   # BR(~g -> ~t^*_1 t)
     5.22374399E-02    2     2000001        -1   # BR(~g -> ~d_R d_bar)
     5.22374399E-02    2    -2000001         1   # BR(~g -> ~d^*_R d)
     9.75374391E-03    2     1000001        -1   # BR(~g -> ~d_L d_bar)
     9.75374391E-03    2    -1000001         1   # BR(~g -> ~d^*_L d)
     5.22463279E-02    2     2000003        -3   # BR(~g -> ~s_R s_bar)
     5.22463279E-02    2    -2000003         3   # BR(~g -> ~s^*_R s)
     9.75587300E-03    2     1000003        -3   # BR(~g -> ~s_L s_bar)
     9.75587300E-03    2    -1000003         3   # BR(~g -> ~s^*_L s)
     7.59996315E-02    2     1000005        -5   # BR(~g -> ~b_1 b_bar)
     7.59996315E-02    2    -1000005         5   # BR(~g -> ~b^*_1 b)
     4.95177330E-02    2     2000005        -5   # BR(~g -> ~b_2 b_bar)
     4.95177330E-02    2    -2000005         5   # BR(~g -> ~b^*_2 b)
     2.88911195E-06    2     1000022        21   # BR(~g -> chi^0_1 g)
     1.60811382E-04    2     1000023        21   # BR(~g -> chi^0_2 g)
     2.11749188E-04    2     1000025        21   # BR(~g -> chi^0_3 g)
     4.17506955E-05    2     1000035        21   # BR(~g -> chi^0_4 g)
#    BR                NDA      ID1      ID2       ID3
     2.24758825E-04    3     1000022         6        -6   # BR(~g -> chi^0_1 t t_bar)
     5.52742135E-03    3     1000023         6        -6   # BR(~g -> chi^0_2 t t_bar)
     7.03316369E-03    3     1000025         6        -6   # BR(~g -> chi^0_3 t t_bar)
     6.81349647E-03    3     1000035         6        -6   # BR(~g -> chi^0_4 t t_bar)
     1.53588760E-03    3     1000024         5        -6   # BR(~g -> chi^+_1 b t_bar)
     1.53588760E-03    3    -1000024        -5         6   # BR(~g -> chi^-_1 b_bar t)
     3.78756883E-03    3     1000037         5        -6   # BR(~g -> chi^+_2 b t_bar)
     3.78756883E-03    3    -1000037        -5         6   # BR(~g -> chi^-_2 b_bar t)
DECAY        25     2.58732329E-03   # h^0
#    BR                NDA      ID1      ID2
     9.67178777E-09    2          11       -11   # BR(h^0 -> e^- e^+)
     4.13482912E-04    2          13       -13   # BR(h^0 -> mu^- mu^+)
     1.15889188E-01    2          15       -15   # BR(h^0 -> tau^- tau^+)
     6.64825148E-07    2           1        -1   # BR(h^0 -> d d_bar)
     2.93185658E-04    2           3        -3   # BR(h^0 -> s s_bar)
     6.41819935E-01    2           5        -5   # BR(h^0 -> b b_bar)
     2.56032642E-07    2           2        -2   # BR(h^0 -> u u_bar)
     4.58744830E-02    2           4        -4   # BR(h^0 -> c c_bar)
     6.89927500E-02    2          21        21   # BR(h^0 -> g g)
     3.16900545E-03    2          22        22   # BR(h^0 -> photon photon)
# writing decays into V V* as 3-body decays
#    BR                NDA      ID1      ID2       ID3
     5.69520668E-03    3          24        11        12   # BR(h^0 -> W^+ e^- nu_e)
     5.69520668E-03    3          24        13        14   # BR(h^0 -> W^+ mu^- nu_mu)
     5.69520668E-03    3          24        15        16   # BR(h^0 -> W^+ tau^- nu_tau)
     1.99332234E-02    3          24         1        -2   # BR(h^0 -> W^+ d u_bar)
     1.99332234E-02    3          24         3        -4   # BR(h^0 -> W^+ s c_bar)
     5.69520668E-03    3         -24       -11       -12   # BR(h^0 -> W^- e^+ nu_bar_e)
     5.69520668E-03    3         -24       -13       -14   # BR(h^0 -> W^- mu^+ nu_bar_mu)
     5.69520668E-03    3         -24       -15       -16   # BR(h^0 -> W^- tau^+ nu_bar_tau)
     1.99332234E-02    3         -24        -1         2   # BR(h^0 -> W^- d_bar u)
     1.99332234E-02    3         -24        -3         4   # BR(h^0 -> W^- s_bar c)
     3.37501713E-04    3          23        11       -11   # BR(h^0 -> Z e^- e^+)
     3.37501713E-04    3          23        13       -13   # BR(h^0 -> Z mu^- mu^+)
     2.89287182E-04    3          23        15       -15   # BR(h^0 -> Z tau^- tau^+)
     1.92858122E-03    3          23        12       -12   # BR(h^0 -> Z nu_e nu_bar_e)
     1.35000685E-03    3          23         1        -1   # BR(h^0 -> Z u u_bar)
     1.35000685E-03    3          23         3        -3   # BR(h^0 -> Z c c_bar)
     1.35000685E-03    3          23         5        -5   # BR(h^0 -> Z t t_bar)
     1.35000685E-03    3          23         2        -2   # BR(h^0 -> Z u u_bar)
     1.35000685E-03    3          23         4        -4   # BR(h^0 -> Z c c_bar)
DECAY        35     8.66430190E+00   # H^0
#    BR                NDA      ID1      ID2
     1.41694876E-08    2          11       -11   # BR(H^0 -> e^- e^+)
     6.05790721E-04    2          13       -13   # BR(H^0 -> mu^- mu^+)
     1.71739976E-01    2          15       -15   # BR(H^0 -> tau^- tau^+)
     8.15514676E-07    2           1        -1   # BR(H^0 -> d d_bar)
     3.59641799E-04    2           3        -3   # BR(H^0 -> s s_bar)
     8.22615339E-01    2           5        -5   # BR(H^0 -> b b_bar)
     5.44505975E-13    2           2        -2   # BR(H^0 -> u u_bar)
     9.75817274E-08    2           4        -4   # BR(H^0 -> c c_bar)
     4.34769719E-03    2           6        -6   # BR(H^0 -> t t_bar)
     2.69066008E-06    2     2000011  -2000011   # BR(H^0 -> ~e^-_R ~e^+_R)
     2.71405674E-06    2     2000013  -2000013   # BR(H^0 -> ~mu^-_R ~mu^+_R)
     1.23837278E-05    2     1000015  -1000015   # BR(H^0 -> ~tau^-_1 ~tau^+_1)
     3.35412249E-05    2     1000022   1000022   # BR(H^0 -> chi^0_1 chi^0_1)
     4.82579734E-05    2          23        23   # BR(H^0 -> Z Z)
     9.32795639E-05    2          24       -24   # BR(H^0 -> W^+ W^-)
     7.51670977E-05    2          25        25   # BR(H^0 -> h^0 h^0)
     6.25230780E-05    2          21        21   # BR(H^0 -> g g)
     7.04445354E-08    2          22        22   # BR(H^0 -> photon photon)
DECAY        36     8.67044097E+00   # A^0
#    BR                NDA      ID1      ID2
     1.41603684E-08    2          11       -11   # BR(A^0 -> e^- e^+)
     6.05400892E-04    2          13       -13   # BR(A^0 -> mu^- mu^+)
     1.71633140E-01    2          15       -15   # BR(A^0 -> tau^- tau^+)
     8.14988974E-07    2           1        -1   # BR(A^0 -> d d_bar)
     3.59409958E-04    2           3        -3   # BR(A^0 -> s s_bar)
     8.22102507E-01    2           5        -5   # BR(A^0 -> b b_bar)
     4.72304666E-13    2           2        -2   # BR(A^0 -> u u_bar)
     8.46424265E-08    2           4        -4   # BR(A^0 -> c c_bar)
     4.50982548E-03    2           6        -6   # BR(A^0 -> t t_bar)
     6.75746731E-04    2     1000022   1000022   # BR(A^0 -> chi^0_1 chi^0_1)
     8.92137097E-05    2          25        23   # BR(A^0 -> h^0 Z)
     2.37758904E-05    2          21        21   # BR(A^0 -> g g)
     6.59357859E-08    2          22        22   # BR(A^0 -> photon photon)
DECAY        37     7.24028089E+00   # H^+
#    BR                NDA      ID1      ID2
     1.70622379E-08    2         -11        12   # BR(H^+ -> e^+ nu_e)
     7.29465068E-04    2         -13        12   # BR(H^+ -> mu^+ nu_e)
     2.06805769E-01    2         -15        12   # BR(H^+ -> tau^+ nu_e)
     8.65488944E-07    2          -1         2   # BR(H^+ -> d_bar u)
     3.81768002E-04    2          -3         4   # BR(H^+ -> s_bar c)
     7.91974888E-01    2          -5         6   # BR(H^+ -> b_bar t)
     1.07227752E-04    2          25        24   # BR(H^+ -> h^0 W^+)
DECAY         6     2.43000000E+00   # top
#    BR                NDA      ID1      ID2
     1.00000000E+00    2           5        24   # BR(t -> b W)
Block HiggsBoundsInputHiggsCouplingsFermions
# ScalarNormEffCoupSq PseudoSNormEffCoupSq NP IP1 IP2 IP2
    1.15193234E+00    0.00000000E+00        3  25   5   5  # h0-b-b eff. coupling^2, normalised to SM
    8.99848068E+02    0.00000000E+00        3  35   5   5  # H0-b-b eff. coupling^2, normalised to SM
    0.00000000E+00    9.00000000E+02        3  36   5   5  # A0-b-b eff. coupling^2, normalised to SM
#
    9.99831186E-01    0.00000000E+00        3  25   6   6  # h0-t-t eff. coupling^2, normalised to SM
    1.27992482E-03    0.00000000E+00        3  35   6   6  # H0-t-t eff. coupling^2, normalised to SM
    0.00000000E+00    1.11111111E-03        3  36   6   6  # A0-t-t eff. coupling^2, normalised to SM
#
    1.15193234E+00    0.00000000E+00        3  25  15  15  # h0-tau-tau eff. coupling^2, normalised to SM
    8.99848068E+02    0.00000000E+00        3  35  15  15  # H0-tau-tau eff. coupling^2, normalised to SM
    0.00000000E+00    9.00000000E+02        3  36  15  15  # A0-tau-tau eff. coupling^2, normalised to SM
#
Block HiggsBoundsInputHiggsCouplingsBosons
    9.99994033E-01        3  25  24  24  # h0-W-W eff. coupling^2, normalised to SM
    5.96728691E-06        3  35  24  24  # H0-W-W eff. coupling^2, normalised to SM
    0.00000000E+00        3  36  24  24  # A0-W-W eff. coupling^2, normalised to SM
#
    9.99994033E-01        3  25  23  23  # h0-Z-Z eff. coupling^2, normalised to SM
    5.96728691E-06        3  35  23  23  # H0-Z-Z eff. coupling^2, normalised to SM
    0.00000000E+00        3  36  23  23  # A0-Z-Z eff. coupling^2, normalised to SM
#
    1.16533212E+00        3  25  21  21  # h0-g-g eff. coupling^2, normalised to SM
    1.67861797E-02        3  35  21  21  # H0-g-g eff. coupling^2, normalised to SM
    1.35131470E-01        3  36  21  21  # A0-g-g eff. coupling^2, normalised to SM
#
    0.00000000E+00        3  25  25  23  # h0-h0-Z eff. coupling^2, normalised to SM
    0.00000000E+00        3  35  25  23  # H0-h0-Z eff. coupling^2, normalised to SM
    5.96728691E-06        3  36  25  23  # A0-h0-Z eff. coupling^2, normalised to SM
    0.00000000E+00        3  35  35  23  # H0-H0-Z eff. coupling^2, normalised to SM
    9.99994033E-01        3  36  35  23  # A0-H0-Z eff. coupling^2, normalised to SM
    0.00000000E+00        3  36  36  23  # A0-A0-Z eff. coupling^2, normalised to SM
#
    0.00000000E+00        4  25  21  21  23  # h0-g-g-Z eff. coupling^2, normalised to SM
    0.00000000E+00        4  35  21  21  23  # H0-g-g-Z eff. coupling^2, normalised to SM
    0.00000000E+00        4  36  21  21  23  # A0-g-g-Z eff. coupling^2, normalised to SM
Block SPhenoLowEnergy  # low energy observables
    1    3.19103039E-04   # BR(b -> s gamma)
    2    1.58805478E-06   # BR(b -> s mu+ mu-)
    3    3.53610610E-05   # BR(b -> s nu nu)
    4    5.22541339E-11   # BR(Bd -> mu+ mu-)
    5    3.41627941E-09   # BR(Bs -> mu+ mu-)
    6    1.04541721E-04   # BR(B_u -> tau nu)
    7    9.45280573E-01   # BR(B_u -> tau nu)/BR(B_u -> tau nu)_SM
    8    2.73445260E-01   # |Delta(M_Bd)| [ps^-1] 
    9    2.02785131E+01   # |Delta(M_Bs)| [ps^-1] 
   20    3.91060449E-14   # Delta(g-2)_electron/2
   21    8.39344838E-10   # Delta(g-2)_muon/2
   22    7.10770549E-08   # Delta(g-2)_tau/2
   23    0.00000000E+00   # electric dipole moment of the electron
   24    0.00000000E+00   # electric dipole moment of the muon
   25    0.00000000E+00   # electric dipole moment of the tau
   26    0.00000000E+00   # Br(mu -> e gamma)
   27    0.00000000E+00   # Br(tau -> e gamma)
   28    0.00000000E+00   # Br(tau -> mu gamma)
   29    0.00000000E+00   # Br(mu -> 3 e)
   30    0.00000000E+00   # Br(tau -> 3 e)
   31    0.00000000E+00   # Br(tau -> 3 mu)
   39    7.64911997E-04   # Delta(rho_parameter)
   40    0.00000000E+00   # BR(Z -> e mu)
   41    0.00000000E+00   # BR(Z -> e tau)
   42    0.00000000E+00   # BR(Z -> mu tau)
Block FWCOEF Q=  9.11876000E+01  # Wilson coefficients at scale Q
#    id        order  M        value         comment
Block FWCOEF Q=  1.60000000E+02  # Wilson coefficients at scale Q
#    id        order  M        value         comment
     0305 4422   00   0    -1.87760386E-01   # C7
     0305 4422   00   1    -1.90052235E-02   # C7
     0305 4322   00   1    -4.12605642E-04   # C7'
     0305 6421   00   0    -9.48903334E-02   # C8
     0305 6421   00   1    -3.16905756E-02   # C8
     0305 6321   00   1    -6.76539154E-04   # C8'
 03051111 4133   00   0    -9.34677534E-01   # C9 e+e-
 03051111 4133   00   1     1.60538755E-03   # C9 e+e-
 03051111 4233   00   1    -5.28094179E-05   # C9' e+e-
 03051111 4137   00   0    -3.96475659E+00   # C10 e+e-
 03051111 4137   00   1     5.64547664E-03   # C10 e+e-
 03051111 4237   00   1     1.21996560E-03   # C10' e+e-
 03051313 4133   00   0    -9.34677534E-01   # C9 mu+mu-
 03051313 4133   00   1     1.60519461E-03   # C9 mu+mu-
 03051313 4233   00   1    -5.28198300E-05   # C9' mu+mu-
 03051313 4137   00   0    -3.96475659E+00   # C10 mu+mu-
 03051313 4137   00   1     5.64528334E-03   # C10 mu+mu-
 03051313 4237   00   1     1.21997602E-03   # C10' mu+mu-
 03051212 4237   00   0     1.49018883E+00   # C11 nu_1 nu_1
 03051212 4237   00   1    -1.35478376E-03   # C11 nu_1 nu_1
 03051212 4137   00   1    -2.91948236E-04   # C11' nu_1 nu_1
 03051414 4237   00   0     1.49018883E+00   # C11 nu_2 nu_2
 03051414 4237   00   1    -1.35478355E-03   # C11 nu_2 nu_2
 03051414 4137   00   1    -2.91945766E-04   # C11' nu_2 nu_2
 03051616 4237   00   0     1.49018883E+00   # C11 nu_3 nu_3
 03051616 4237   00   1    -1.35468851E-03   # C11 nu_3 nu_3
 03051616 4137   00   1    -2.91249439E-04   # C11' nu_3 nu_3
