#
#                              ======================
#                              | THE SUSYHIT OUTPUT |
#                              ======================
#
#
#              ------------------------------------------------------
#              |     This is the output of the SUSY-HIT package     |
#              |  created by A.Djouadi, M.Muehlleitner and M.Spira. |
#              |  In case of problems with SUSY-HIT email to        |
#              |           margarete.muehlleitner@cern.ch           |
#              |           michael.spira@psi.ch                     |
#              |           abdelhak.djouadi@cern.ch                 |
#              ------------------------------------------------------
#
#              ------------------------------------------------------
#              |  SUSY Les Houches Accord - MSSM Spectrum + Decays  |
#              |              based on the decay programs           |
#              |                                                    |
#              |                     SDECAY 1.3b                    |
#              |                                                    |
#              |  Authors: M.Muhlleitner, A.Djouadi and Y.Mambrini  |
#              |  Ref.:    Comput.Phys.Commun.168(2005)46           |
#              |           [hep-ph/0311167]                         |
#              |                                                    |
#              |                     HDECAY 3.4                     |
#              |                                                    |
#              |  By: A.Djouadi,J.Kalinowski,M.Muhlleitner,M.Spira  |
#              |  Ref.:    Comput.Phys.Commun.108(1998)56           |
#              |           [hep-ph/9704448]                         |
#              |                                                    |
#              |                                                    |
#              |  If not stated otherwise all DRbar couplings and   |
#              |  soft SUSY breaking masses are given at the scale  |
#              |  Q=  0.91187600E+02
#              |                                                    |
#              ------------------------------------------------------
#
#
BLOCK DCINFO  # Decay Program information
     1   SDECAY/HDECAY # decay calculator
     2   1.3b  /3.4    # version number
#
BLOCK SPINFO  # Spectrum calculator information
     1   SuSpect     # RGE +Spectrum calculator            
     2   2.41         # version number                     
#
BLOCK MODSEL  # Model selection
     1     0   # #general MSSM low scale                           
#
BLOCK SMINPUTS  # Standard Model inputs
         1     1.27934000E+02   # alpha_em^-1(M_Z)^MSbar
         2     1.16639000E-05   # G_F [GeV^-2]
         3     1.17200000E-01   # alpha_S(M_Z)^MSbar
         4     9.11870000E+01   # M_Z pole mass
         5     4.25000000E+00   # mb(mb)^MSbar
         6     1.72500000E+02   # mt pole mass
         7     1.77700000E+00   # mtau pole mass
#
BLOCK MINPAR  # Input parameters - minimal models
#
BLOCK EXTPAR  # Input parameters - non-minimal models
         0     9.11876000E+01   # EWSB                
         1     1.59000000E+03   # M_1                 
         2     1.00000000E+05   # M_2                 
         3     1.00000000E+05   # M_3                 
        11     0.00000000E+00   # A_t                 
        12     0.00000000E+00   # A_b                 
        13     0.00000000E+00   # A_tau               
        14     0.00000000E+00   # A_u                 
        15     0.00000000E+00   # A_d                 
        16     0.00000000E+00   # A_e                 
        23     3.50000000E+03   # mu(EWSB)            
        25     1.50000000E+00   # tanbeta(in)         
        26     2.00000000E+03   # MA_pole             
        31     1.00000000E+05   # M_eL                
        32     1.00000000E+05   # M_muL               
        33     1.00000000E+05   # M_tauL              
        34     1.00000000E+05   # M_eR                
        35     1.00000000E+05   # M_muR               
        36     1.00000000E+05   # M_tauR              
        41     1.60000000E+03   # M_q1L               
        42     1.60000000E+03   # M_q2L               
        43     1.60000000E+03   # M_q3L               
        44     1.00000000E+05   # M_uR                
        45     1.00000000E+05   # M_cR                
        46     1.00000000E+05   # M_tR                
        47     1.60000000E+03   # M_dR                
        48     1.60000000E+03   # M_sR                
        49     1.60000000E+03   # M_bR                
#
BLOCK MASS  # Mass Spectrum
# PDG code           mass       particle
        24     8.05829724E+01   # W+
        25     1.25000000E+02   # h
        35     2.00401722E+03   # H
        36     2.00000000E+03   # A
        37     2.02369353E+03   # H+
         5     4.87877839E+00   # b-quark pole mass calculated from mb(mb)_Msbar
   1000001     1.60041504E+03   # ~d_L
   2000001     1.60007998E+03   # ~d_R
   1000002     1.59966485E+03   # ~u_L
   2000002     9.99999974E+04   # ~u_R
   1000003     1.60041504E+03   # ~s_L
   2000003     1.60007998E+03   # ~s_R
   1000004     1.59966485E+03   # ~c_L
   2000004     9.99999974E+04   # ~c_R
   1000005     1.59600061E+03   # ~b_1
   2000005     1.60448735E+03   # ~b_2
   1000006     1.60644652E+03   # ~t_1
   2000006     1.00000106E+05   # ~t_2
   1000011     1.00000004E+05   # ~e_L
   2000011     1.00000004E+05   # ~e_R
   1000012     9.99999921E+04   # ~nu_eL
   1000013     1.00000004E+05   # ~mu_L
   2000013     1.00000004E+05   # ~mu_R
   1000014     9.99999921E+04   # ~nu_muL
   1000015     9.99999574E+04   # ~tau_1
   2000015     1.00000051E+05   # ~tau_2
   1000016     9.99999921E+04   # ~nu_tauL
   1000021     1.00000000E+05   # ~g
   1000022     1.58901063E+03   # ~chi_10
   1000023    -3.50001740E+03   # ~chi_20
   1000025     3.50094226E+03   # ~chi_30
   1000035     1.00000065E+05   # ~chi_40
   1000024     3.49994013E+03   # ~chi_1+
   1000037     1.00000065E+05   # ~chi_2+
   1000039     1.00000000E-09   # ~gravitino
#
BLOCK NMIX  # Neutralino Mixing Matrix
  1  1     9.99735802E-01   # N_11
  1  2    -1.77725859E-05   # N_12
  1  3     1.74246533E-02   # N_13
  1  4    -1.49902136E-02   # N_14
  2  1     1.72157349E-03   # N_21
  2  2    -1.49710955E-04   # N_22
  2  3    -7.07096935E-01   # N_23
  2  4    -7.07114516E-01   # N_24
  3  1     2.29207666E-02   # N_31
  3  2     8.02606741E-04   # N_32
  3  3    -7.06901756E-01   # N_33
  3  4     7.06939814E-01   # N_34
  4  1     3.70733112E-07   # N_41
  4  2    -9.99999667E-01   # N_42
  4  3    -4.61813792E-04   # N_43
  4  4     6.73524089E-04   # N_44
#
BLOCK UMIX  # Chargino Mixing Matrix U
  1  1    -6.53103121E-04   # U_11
  1  2     9.99999787E-01   # U_12
  2  1     9.99999787E-01   # U_21
  2  2     6.53103121E-04   # U_22
#
BLOCK VMIX  # Chargino Mixing Matrix V
  1  1    -9.52506812E-04   # V_11
  1  2     9.99999546E-01   # V_12
  2  1     9.99999546E-01   # V_21
  2  2     9.52506812E-04   # V_22
#
BLOCK STOPMIX  # Stop Mixing Matrix
  1  1     9.99999999E-01   # cos(theta_t)
  1  2     4.47213589E-05   # sin(theta_t)
  2  1    -4.47213589E-05   # -sin(theta_t)
  2  2     9.99999999E-01   # cos(theta_t)
#
BLOCK SBOTMIX  # Sbottom Mixing Matrix
  1  1     6.93007455E-01   # cos(theta_b)
  1  2     7.20930418E-01   # sin(theta_b)
  2  1    -7.20930418E-01   # -sin(theta_b)
  2  2     6.93007455E-01   # cos(theta_b)
#
BLOCK STAUMIX  # Stau Mixing Matrix
  1  1     7.06182038E-01   # cos(theta_tau)
  1  2     7.08030317E-01   # sin(theta_tau)
  2  1    -7.08030317E-01   # -sin(theta_tau)
  2  2     7.06182038E-01   # cos(theta_tau)
#
BLOCK ALPHA  # Higgs mixing
          -5.90304130E-01   # Mixing angle in the neutral Higgs boson sector
#
BLOCK HMIX Q=  9.11876000E+01  # DRbar Higgs Parameters
         1     3.50000000E+03   # mu(Q)               
         2     1.49999982E+00   # tanbeta(Q)          
         3     2.54884244E+02   # vev(Q)              
         4    -6.82455290E+07   # MA^2(Q)             
#
BLOCK GAUGE Q=  9.11876000E+01  # The gauge couplings
     1     3.50584207E-01   # gprime(Q) DRbar
     2     6.19928380E-01   # g(Q) DRbar
     3     1.02445361E+00   # g3(Q) DRbar
#
BLOCK AU Q=  9.11876000E+01  # The trilinear couplings
  1  1     0.00000000E+00   # A_u(Q) DRbar
  2  2     0.00000000E+00   # A_c(Q) DRbar
  3  3     0.00000000E+00   # A_t(Q) DRbar
#
BLOCK AD Q=  9.11876000E+01  # The trilinear couplings
  1  1     0.00000000E+00   # A_d(Q) DRbar
  2  2     0.00000000E+00   # A_s(Q) DRbar
  3  3     0.00000000E+00   # A_b(Q) DRbar
#
BLOCK AE Q=  9.11876000E+01  # The trilinear couplings
  1  1     0.00000000E+00   # A_e(Q) DRbar
  2  2     0.00000000E+00   # A_mu(Q) DRbar
  3  3     0.00000000E+00   # A_tau(Q) DRbar
#
BLOCK Yu Q=  9.11876000E+01  # The Yukawa couplings
  1  1     0.00000000E+00   # y_u(Q) DRbar
  2  2     0.00000000E+00   # y_c(Q) DRbar
  3  3     9.83554690E-01   # y_t(Q) DRbar
#
BLOCK Yd Q=  9.11876000E+01  # The Yukawa couplings
  1  1     0.00000000E+00   # y_d(Q) DRbar
  2  2     0.00000000E+00   # y_s(Q) DRbar
  3  3     2.58548804E-02   # y_b(Q) DRbar
#
BLOCK Ye Q=  9.11876000E+01  # The Yukawa couplings
  1  1     0.00000000E+00   # y_e(Q) DRbar
  2  2     0.00000000E+00   # y_mu(Q) DRbar
  3  3     1.77387829E-02   # y_tau(Q) DRbar
#
BLOCK MSOFT Q=  9.11876000E+01  # The soft SUSY breaking masses at the scale Q
         1     1.59000000E+03   # M_1                 
         2     1.00000000E+05   # M_2                 
         3     1.00000000E+05   # M_3                 
        14     0.00000000E+00   # A_u                 
        15     0.00000000E+00   # A_d                 
        16     0.00000000E+00   # A_e                 
        21     6.31613036E+08   # M^2_Hd              
        22    -1.14866103E+09   # M^2_Hu              
        31     1.00000000E+05   # M_eL                
        32     1.00000000E+05   # M_muL               
        33     1.00000000E+05   # M_tauL              
        34     1.00000000E+05   # M_eR                
        35     1.00000000E+05   # M_muR               
        36     1.00000000E+05   # M_tauR              
        41     1.60000000E+03   # M_q1L               
        42     1.60000000E+03   # M_q2L               
        43     1.60000000E+03   # M_q3L               
        44     1.00000000E+05   # M_uR                
        45     1.00000000E+05   # M_cR                
        46     1.00000000E+05   # M_tR                
        47     1.60000000E+03   # M_dR                
        48     1.60000000E+03   # M_sR                
        49     1.60000000E+03   # M_bR                
#
#
#
#                             =================
#                             |The decay table|
#                             =================
#
# - The QCD corrections to the decays gluino -> squark  + quark
#                                     squark -> gaugino + quark_prime
#                                     squark -> squark_prime + Higgs
#                                     squark -> gluino  + quark
#   are included.
#
# - The multi-body decays for the inos, stops and sbottoms are included.
#
# - The loop induced decays for the gluino, neutralinos and stops
#   are included.
#
# - The SUSY decays of the top quark are included.
#
# - Possible decays of the NLSP in GMSB models are included.
#
#
#         PDG            Width
DECAY         6     1.32643817E+00   # top decays
#          BR         NDA      ID1       ID2
     1.00000000E+00    2           5        24   # BR(t ->  b    W+)
#
#         PDG            Width
DECAY   1000021     1.E-04   # gluino decays (OJ Mods)
#          BR         NDA      ID1       ID2
    -4.88889176E-04    2     1000001        -1   # BR(~g -> ~d_L  db)
    -4.88889176E-04    2    -1000001         1   # BR(~g -> ~d_L* d )
    -4.88889281E-04    2     2000001        -1   # BR(~g -> ~d_R  db)
    -4.88889281E-04    2    -2000001         1   # BR(~g -> ~d_R* d )
    -4.88889411E-04    2     1000002        -2   # BR(~g -> ~u_L  ub)
    -4.88889411E-04    2    -1000002         2   # BR(~g -> ~u_L* u )
    -1.32263376E-18    2     2000002        -2   # BR(~g -> ~u_R  ub)
    -1.32263376E-18    2    -2000002         2   # BR(~g -> ~u_R* u )
    -4.88889176E-04    2     1000003        -3   # BR(~g -> ~s_L  sb)
    -4.88889176E-04    2    -1000003         3   # BR(~g -> ~s_L* s )
    -4.88889281E-04    2     2000003        -3   # BR(~g -> ~s_R  sb)
    -4.88889281E-04    2    -2000003         3   # BR(~g -> ~s_R* s )
    -4.88889411E-04    2     1000004        -4   # BR(~g -> ~c_L  cb)
    -4.88889411E-04    2    -1000004         4   # BR(~g -> ~c_L* c )
    -1.32263376E-18    2     2000004        -4   # BR(~g -> ~c_R  cb)
    -1.32263376E-18    2    -2000004         4   # BR(~g -> ~c_R* c )
     2.55572243E-01    2     1000005        -5   # BR(~g -> ~b_1  bb)
     2.55572243E-01    2    -1000005         5   # BR(~g -> ~b_1* b )
     2.54694940E-01    2     2000005        -5   # BR(~g -> ~b_2  bb)
     2.54694940E-01    2    -2000005         5   # BR(~g -> ~b_2* b )
    -4.81142069E-04    2     1000006        -6   # BR(~g -> ~t_1  tb)
    -4.81142069E-04    2    -1000006         6   # BR(~g -> ~t_1* t )
    -1.37054111E-02    2     1000039        21   # BR(~g -> ~G g)
#
#         PDG            Width
DECAY   1000006     1.17329530E-05   # stop1 decays
#          BR         NDA      ID1       ID2
     9.81803032E-01    2     1000022         4   # BR(~t_1 -> ~chi_10 c )
     7.56940351E-03    2     1000022         2   # BR(~t_1 -> ~chi_10 u )
#           BR         NDA      ID1       ID2       ID3
     3.59397820E-03    3     1000005        -1         2   # BR(~t_1 -> ~b_1     db u)
     9.01395233E-07    3     2000005        -1         2   # BR(~t_1 -> ~b_2     db u)
     3.59397820E-03    3     1000005        -3         4   # BR(~t_1 -> ~b_1     sb c)
     9.01395233E-07    3     2000005        -3         4   # BR(~t_1 -> ~b_2     sb c)
     1.04121848E-03    3     1000005       -15        16   # BR(~t_1 -> ~b_1     tau+ nu_tau)
     4.28945102E-10    3     2000005       -15        16   # BR(~t_1 -> ~b_2     tau+ nu_tau)
     1.19799273E-03    3     1000005       -11        12   # BR(~t_1 -> ~b_1     e+   nu_e)
     3.00465078E-07    3     2000005       -11        12   # BR(~t_1 -> ~b_2     e+   nu_e)
     1.19799273E-03    3     1000005       -13        14   # BR(~t_1 -> ~b_1     mu+  nu_mu)
     3.00465078E-07    3     2000005       -13        14   # BR(~t_1 -> ~b_2     mu+  nu_mu)
#
#         PDG            Width
DECAY   2000006    -3.74764336E+05   # stop2 decays
#          BR         NDA      ID1       ID2
    -5.56283482E-04    2     1000022         6   # BR(~t_2 -> ~chi_10 t )
    -1.33356903E-03    2     1000023         6   # BR(~t_2 -> ~chi_20 t )
    -1.33316873E-03    2     1000025         6   # BR(~t_2 -> ~chi_30 t )
     1.00317711E+00    2     1000024         5   # BR(~t_2 -> ~chi_1+ b )
     3.62814521E-05    2     1000006        25   # BR(~t_2 -> ~t_1    h )
    -3.79935480E-05    2     1000006        35   # BR(~t_2 -> ~t_1    H )
    -3.79269460E-05    2     1000006        36   # BR(~t_2 -> ~t_1    A )
    -3.57263301E-05    2     1000005        37   # BR(~t_2 -> ~b_1    H+)
    -4.01261747E-05    2     2000005        37   # BR(~t_2 -> ~b_2    H+)
     2.58829372E-05    2     1000006        23   # BR(~t_2 -> ~t_1    Z )
     6.50845918E-05    2     1000005        24   # BR(~t_2 -> ~b_1    W+)
     7.04322285E-05    2     2000005        24   # BR(~t_2 -> ~b_2    W+)
#
#         PDG            Width
DECAY   1000005    -3.00068578E-03   # sbottom1 decays
#          BR         NDA      ID1       ID2
     1.00000000E+00    2     1000022         5   # BR(~b_1 -> ~chi_10 b )
#
#         PDG            Width
DECAY   2000005    -4.85290125E-02   # sbottom2 decays
#          BR         NDA      ID1       ID2
     1.00000000E+00    2     1000022         5   # BR(~b_2 -> ~chi_10 b )
#
#         PDG            Width
DECAY   1000002     2.54351645E-04   # sup_L decays
#          BR         NDA      ID1       ID2
     1.00000000E+00    2     1000022         2   # BR(~u_L -> ~chi_10 u)
#
#         PDG            Width
DECAY   2000002     2.08381356E+02   # sup_R decays
#          BR         NDA      ID1       ID2
     9.99472237E-01    2     1000022         2   # BR(~u_R -> ~chi_10 u)
     2.96066494E-06    2     1000023         2   # BR(~u_R -> ~chi_20 u)
     5.24802687E-04    2     1000025         2   # BR(~u_R -> ~chi_30 u)
#
#         PDG            Width
DECAY   1000001     2.75875924E-04   # sdown_L decays
#          BR         NDA      ID1       ID2
     1.00000000E+00    2     1000022         1   # BR(~d_L -> ~chi_10 d)
#
#         PDG            Width
DECAY   2000001     1.06479983E-03   # sdown_R decays
#          BR         NDA      ID1       ID2
     1.00000000E+00    2     1000022         1   # BR(~d_R -> ~chi_10 d)
#
#         PDG            Width
DECAY   1000004     2.54351645E-04   # scharm_L decays
#          BR         NDA      ID1       ID2
     1.00000000E+00    2     1000022         4   # BR(~c_L -> ~chi_10 c)
#
#         PDG            Width
DECAY   2000004     2.08381356E+02   # scharm_R decays
#          BR         NDA      ID1       ID2
     9.99472237E-01    2     1000022         4   # BR(~c_R -> ~chi_10 c)
     2.96066494E-06    2     1000023         4   # BR(~c_R -> ~chi_20 c)
     5.24802687E-04    2     1000025         4   # BR(~c_R -> ~chi_30 c)
#
#         PDG            Width
DECAY   1000003     2.75875924E-04   # sstrange_L decays
#          BR         NDA      ID1       ID2
     1.00000000E+00    2     1000022         3   # BR(~s_L -> ~chi_10 s)
#
#         PDG            Width
DECAY   2000003     1.06479983E-03   # sstrange_R decays
#          BR         NDA      ID1       ID2
     1.00000000E+00    2     1000022         3   # BR(~s_R -> ~chi_10 s)
#
#         PDG            Width
DECAY   1000011     1.22198999E+02   # selectron_L decays
#          BR         NDA      ID1       ID2
     9.99403940E-01    2     1000022        11   # BR(~e_L -> ~chi_10 e-)
     2.11825614E-06    2     1000023        11   # BR(~e_L -> ~chi_20 e-)
     5.91279605E-04    2     1000025        11   # BR(~e_L -> ~chi_30 e-)
     2.66222300E-06    2    -1000024        12   # BR(~e_L -> ~chi_1- nu_e)
#
#         PDG            Width
DECAY   2000011     4.88793098E+02   # selectron_R decays
#          BR         NDA      ID1       ID2
     9.99472702E-01    2     1000022        11   # BR(~e_R -> ~chi_10 e-)
     2.95805495E-06    2     1000023        11   # BR(~e_R -> ~chi_20 e-)
     5.24339795E-04    2     1000025        11   # BR(~e_R -> ~chi_30 e-)
#
#         PDG            Width
DECAY   1000013     1.22198999E+02   # smuon_L decays
#          BR         NDA      ID1       ID2
     9.99403940E-01    2     1000022        13   # BR(~mu_L -> ~chi_10 mu-)
     2.11825614E-06    2     1000023        13   # BR(~mu_L -> ~chi_20 mu-)
     5.91279605E-04    2     1000025        13   # BR(~mu_L -> ~chi_30 mu-)
     2.66222300E-06    2    -1000024        14   # BR(~mu_L -> ~chi_1- nu_mu)
#
#         PDG            Width
DECAY   2000013     4.88793098E+02   # smuon_R decays
#          BR         NDA      ID1       ID2
     9.99472702E-01    2     1000022        13   # BR(~mu_R -> ~chi_10 mu-)
     2.95805495E-06    2     1000023        13   # BR(~mu_R -> ~chi_20 mu-)
     5.24339795E-04    2     1000025        13   # BR(~mu_R -> ~chi_30 mu-)
#
#         PDG            Width
DECAY   1000015     1.18198542E+04   # stau_1 decays
#          BR         NDA      ID1       ID2
     2.58854412E-02    2     1000022        15   # BR(~tau_1 -> ~chi_10  tau-)
     2.54507707E-05    2     1000023        15   # BR(~tau_1 -> ~chi_20  tau-)
     2.90970583E-05    2     1000025        15   # BR(~tau_1 -> ~chi_30  tau-)
     2.77048581E-05    2    -1000024        16   # BR(~tau_1 -> ~chi_1-  nu_tau)
     9.74032306E-01    2     1000039        15   # BR(~tau_1 -> ~G       tau-)
#
#         PDG            Width
DECAY   2000015     3.05931157E+02   # stau_2 decays
#          BR         NDA      ID1       ID2
     9.95974914E-01    2     1000022        15   # BR(~tau_2 -> ~chi_10  tau-)
     1.06342593E-03    2     1000023        15   # BR(~tau_2 -> ~chi_20  tau-)
     1.98977523E-03    2     1000025        15   # BR(~tau_2 -> ~chi_30  tau-)
     9.71885101E-04    2    -1000024        16   # BR(~tau_2 -> ~chi_1-  nu_tau)
#
#         PDG            Width
DECAY   1000012     1.22199061E+02   # snu_eL decays
#          BR         NDA      ID1       ID2
     9.99528986E-01    2     1000022        12   # BR(~nu_eL -> ~chi_10 nu_e)
     3.93770665E-06    2     1000023        12   # BR(~nu_eL -> ~chi_20 nu_e)
     4.61414030E-04    2     1000025        12   # BR(~nu_eL -> ~chi_30 nu_e)
     5.66261221E-06    2     1000024        11   # BR(~nu_eL -> ~chi_1+ e-)
#
#         PDG            Width
DECAY   1000014     1.22199061E+02   # snu_muL decays
#          BR         NDA      ID1       ID2
     9.99528986E-01    2     1000022        14   # BR(~nu_muL -> ~chi_10 nu_mu)
     3.93770665E-06    2     1000023        14   # BR(~nu_muL -> ~chi_20 nu_mu)
     4.61414030E-04    2     1000025        14   # BR(~nu_muL -> ~chi_30 nu_mu)
     5.66261221E-06    2     1000024        13   # BR(~nu_muL -> ~chi_1+ mu-)
#
#         PDG            Width
DECAY   1000016     1.22823533E+02   # snu_tauL decays
#          BR         NDA      ID1       ID2
     9.94447079E-01    2     1000022        16   # BR(~nu_tauL -> ~chi_10 nu_tau)
     3.91768616E-06    2     1000023        16   # BR(~nu_tauL -> ~chi_20 nu_tau)
     4.59068062E-04    2     1000025        16   # BR(~nu_tauL -> ~chi_30 nu_tau)
     5.08993539E-03    2     1000024        15   # BR(~nu_tauL -> ~chi_1+ tau-)
#
#         PDG            Width
DECAY   1000024     4.71820801E+01   # chargino1+ decays
#          BR         NDA      ID1       ID2
     5.73088985E-07    2     1000002        -1   # BR(~chi_1+ -> ~u_L     db)
     2.69305703E-07    2    -1000001         2   # BR(~chi_1+ -> ~d_L*    u )
     5.73088985E-07    2     1000004        -3   # BR(~chi_1+ -> ~c_L     sb)
     2.69305703E-07    2    -1000003         4   # BR(~chi_1+ -> ~s_L*    c )
    -1.97768054E-01    2     1000006        -5   # BR(~chi_1+ -> ~t_1     bb)
     1.06685687E-01    2    -1000005         6   # BR(~chi_1+ -> ~b_1*    t )
     1.02053228E+00    2    -2000005         6   # BR(~chi_1+ -> ~b_2*    t )
     7.05407526E-02    2     1000022        24   # BR(~chi_1+ -> ~chi_10  W+)
     6.39431347E-06    2     1000039        24   # BR(~chi_1+ -> ~G       W+)
     1.25814014E-06    2     1000039        37   # BR(~chi_1+ -> ~G       H+)
#
#         PDG            Width
DECAY   1000037    -2.16586362E+05   # chargino2+ decays
#          BR         NDA      ID1       ID2
    -5.36155024E-03    2     1000002        -1   # BR(~chi_2+ -> ~u_L     db)
    -5.36155187E-03    2    -1000001         2   # BR(~chi_2+ -> ~d_L*    u )
    -5.36155024E-03    2     1000004        -3   # BR(~chi_2+ -> ~c_L     sb)
    -5.36155187E-03    2    -1000003         4   # BR(~chi_2+ -> ~s_L*    c )
     1.09121775E+00    2     1000006        -5   # BR(~chi_2+ -> ~t_1     bb)
    -1.17173047E-03    2    -1000005         6   # BR(~chi_2+ -> ~b_1*    t )
    -5.09178618E-03    2    -2000005         6   # BR(~chi_2+ -> ~b_2*    t )
    -3.96266984E-15    2     1000012       -11   # BR(~chi_2+ -> ~nu_eL   e+  )
    -3.96266984E-15    2     1000014       -13   # BR(~chi_2+ -> ~nu_muL  mu+ )
    -2.77455133E-15    2    -1000011        12   # BR(~chi_2+ -> ~e_L+    nu_e)
    -2.77455133E-15    2    -1000013        14   # BR(~chi_2+ -> ~mu_L+   nu_mu)
    -4.30501325E-15    2    -1000015        16   # BR(~chi_2+ -> ~tau_1+  nu_tau)
    -7.32671445E-17    2    -2000015        16   # BR(~chi_2+ -> ~tau_2+  nu_tau)
    -9.83015001E-04    2     1000024        23   # BR(~chi_2+ -> ~chi_1+  Z )
    -4.40358558E-07    2     1000022        24   # BR(~chi_2+ -> ~chi_10  W+)
    -9.53736323E-04    2     1000023        24   # BR(~chi_2+ -> ~chi_20  W+)
    -9.53285893E-04    2     1000025        24   # BR(~chi_2+ -> ~chi_30  W+)
    -9.92318987E-04    2     1000024        25   # BR(~chi_2+ -> ~chi_1+  h )
    -8.71068509E-04    2     1000024        35   # BR(~chi_2+ -> ~chi_1+  H )
    -8.71184112E-04    2     1000024        36   # BR(~chi_2+ -> ~chi_1+  A )
    -4.88485329E-07    2     1000022        37   # BR(~chi_2+ -> ~chi_10  H+)
    -8.71155985E-04    2     1000023        37   # BR(~chi_2+ -> ~chi_20  H+)
    -8.70691649E-04    2     1000025        37   # BR(~chi_2+ -> ~chi_30  H+)
    -5.61406268E-02    2     1000039        24   # BR(~chi_2+ -> ~G       W+)
    -1.60988973E-08    2     1000039        37   # BR(~chi_2+ -> ~G       H+)
#
#         PDG            Width
DECAY   1000022     1.E-08   # neutralino1 decays (OJ Mods)
#          BR         NDA      ID1       ID2
     7.59892595E-01    2     1000039        22   # BR(~chi_10 -> ~G        gam)
     2.40103691E-01    2     1000039        23   # BR(~chi_10 -> ~G        Z)
     3.71381742E-06    2     1000039        25   # BR(~chi_10 -> ~G        h)
#
#         PDG            Width
DECAY   1000023     1.E-08   # neutralino2 decays (OJ Mods)
#          BR         NDA      ID1       ID2
     8.83193099E-02    2     1000022        23   # BR(~chi_20 -> ~chi_10   Z )
     4.89727269E-04    2     1000022        25   # BR(~chi_20 -> ~chi_10   h )
     1.36523453E-08    2     1000002        -2   # BR(~chi_20 -> ~u_L      ub)
     1.36523453E-08    2    -1000002         2   # BR(~chi_20 -> ~u_L*     u )
     1.00422641E-07    2     1000001        -1   # BR(~chi_20 -> ~d_L      db)
     1.00422641E-07    2    -1000001         1   # BR(~chi_20 -> ~d_L*     d )
     1.88144170E-07    2     2000001        -1   # BR(~chi_20 -> ~d_R      db)
     1.88144170E-07    2    -2000001         1   # BR(~chi_20 -> ~d_R*     d )
     1.36523453E-08    2     1000004        -4   # BR(~chi_20 -> ~c_L      cb)
     1.36523453E-08    2    -1000004         4   # BR(~chi_20 -> ~c_L*     c )
     1.00422641E-07    2     1000003        -3   # BR(~chi_20 -> ~s_L      sb)
     1.00422641E-07    2    -1000003         3   # BR(~chi_20 -> ~s_L*     s )
     1.88144170E-07    2     2000003        -3   # BR(~chi_20 -> ~s_R      sb)
     1.88144170E-07    2    -2000003         3   # BR(~chi_20 -> ~s_R*     s )
     6.87510522E-01    2     1000006        -6   # BR(~chi_20 -> ~t_1      tb)
     6.87510522E-01    2    -1000006         6   # BR(~chi_20 -> ~t_1*     t )
    -1.12526215E-01    2     1000005        -5   # BR(~chi_20 -> ~b_1      bb)
    -1.12526215E-01    2    -1000005         5   # BR(~chi_20 -> ~b_1*     b )
    -1.19394053E-01    2     2000005        -5   # BR(~chi_20 -> ~b_2      bb)
    -1.19394053E-01    2    -2000005         5   # BR(~chi_20 -> ~b_2*     b )
     3.18028420E-11    2     1000039        22   # BR(~chi_20 -> ~G        gam)
     3.00484496E-07    2     1000039        23   # BR(~chi_20 -> ~G        Z)
     7.49978257E-06    2     1000039        25   # BR(~chi_20 -> ~G        h)
     6.00766278E-08    2     1000039        35   # BR(~chi_20 -> ~G        H)
     1.54933010E-06    2     1000039        36   # BR(~chi_20 -> ~G        A)
#
#         PDG            Width
DECAY   1000025     3.82461751E+01   # neutralino3 decays
#          BR         NDA      ID1       ID2
     5.05717867E-04    2     1000022        23   # BR(~chi_30 -> ~chi_10   Z )
     8.99320131E-02    2     1000022        25   # BR(~chi_30 -> ~chi_10   h )
     1.18404375E-05    2     1000002        -2   # BR(~chi_30 -> ~u_L      ub)
     1.18404375E-05    2    -1000002         2   # BR(~chi_30 -> ~u_L*     u )
     5.58071485E-06    2     1000001        -1   # BR(~chi_30 -> ~d_L      db)
     5.58071485E-06    2    -1000001         1   # BR(~chi_30 -> ~d_L*     d )
     3.36766249E-05    2     2000001        -1   # BR(~chi_30 -> ~d_R      db)
     3.36766249E-05    2    -2000001         1   # BR(~chi_30 -> ~d_R*     d )
     1.18404375E-05    2     1000004        -4   # BR(~chi_30 -> ~c_L      cb)
     1.18404375E-05    2    -1000004         4   # BR(~chi_30 -> ~c_L*     c )
     5.58071485E-06    2     1000003        -3   # BR(~chi_30 -> ~s_L      sb)
     5.58071485E-06    2    -1000003         3   # BR(~chi_30 -> ~s_L*     s )
     3.36766249E-05    2     2000003        -3   # BR(~chi_30 -> ~s_R      sb)
     3.36766249E-05    2    -2000003         3   # BR(~chi_30 -> ~s_R*     s )
     6.94318533E-01    2     1000006        -6   # BR(~chi_30 -> ~t_1      tb)
     6.94318533E-01    2    -1000006         6   # BR(~chi_30 -> ~t_1*     t )
    -8.57116412E-02    2     1000005        -5   # BR(~chi_30 -> ~b_1      bb)
    -8.57116412E-02    2    -1000005         5   # BR(~chi_30 -> ~b_1*     b )
    -1.53918831E-01    2     2000005        -5   # BR(~chi_30 -> ~b_2      bb)
    -1.53918831E-01    2    -2000005         5   # BR(~chi_30 -> ~b_2*     b )
     6.55384036E-09    2     1000039        22   # BR(~chi_30 -> ~G        gam)
     7.58846905E-06    2     1000039        23   # BR(~chi_30 -> ~G        Z)
     2.95892385E-07    2     1000039        25   # BR(~chi_30 -> ~G        h)
     1.55581197E-06    2     1000039        35   # BR(~chi_30 -> ~G        H)
     6.26461972E-08    2     1000039        36   # BR(~chi_30 -> ~G        A)
#
#         PDG            Width
DECAY   1000035    -2.16587350E+05   # neutralino4 decays
#          BR         NDA      ID1       ID2
    -6.20844835E-09    2     1000022        23   # BR(~chi_40 -> ~chi_10   Z )
    -9.49979780E-04    2     1000023        23   # BR(~chi_40 -> ~chi_20   Z )
    -3.30250536E-05    2     1000025        23   # BR(~chi_40 -> ~chi_30   Z )
    -9.53725834E-04    2     1000024       -24   # BR(~chi_40 -> ~chi_1+   W-)
    -9.53725834E-04    2    -1000024        24   # BR(~chi_40 -> ~chi_1-   W+)
    -4.52444480E-07    2     1000022        25   # BR(~chi_40 -> ~chi_10   h )
    -3.60748457E-08    2     1000022        35   # BR(~chi_40 -> ~chi_10   H )
    -4.51826488E-07    2     1000022        36   # BR(~chi_40 -> ~chi_10   A )
    -3.25823850E-05    2     1000023        25   # BR(~chi_40 -> ~chi_20   h )
    -8.33608823E-04    2     1000023        35   # BR(~chi_40 -> ~chi_20   H )
    -3.83202833E-05    2     1000023        36   # BR(~chi_40 -> ~chi_20   A )
    -9.59280396E-04    2     1000025        25   # BR(~chi_40 -> ~chi_30   h )
    -3.74183445E-05    2     1000025        35   # BR(~chi_40 -> ~chi_30   H )
    -8.32407794E-04    2     1000025        36   # BR(~chi_40 -> ~chi_30   A )
    -8.71164406E-04    2     1000024       -37   # BR(~chi_40 -> ~chi_1+   H-)
    -8.71164406E-04    2    -1000024        37   # BR(~chi_40 -> ~chi_1-   H+)
    -2.56678993E-03    2     1000002        -2   # BR(~chi_40 -> ~u_L      ub)
    -2.56678993E-03    2    -1000002         2   # BR(~chi_40 -> ~u_L*     u )
    -4.18864987E-23    2     2000002        -2   # BR(~chi_40 -> ~u_R      ub)
    -4.18864987E-23    2    -2000002         2   # BR(~chi_40 -> ~u_R*     u )
    -2.56679103E-03    2     1000001        -1   # BR(~chi_40 -> ~d_L      db)
    -2.56679103E-03    2    -1000001         1   # BR(~chi_40 -> ~d_L*     d )
    -5.01455740E-17    2     2000001        -1   # BR(~chi_40 -> ~d_R      db)
    -5.01455740E-17    2    -2000001         1   # BR(~chi_40 -> ~d_R*     d )
    -2.56678993E-03    2     1000004        -4   # BR(~chi_40 -> ~c_L      cb)
    -2.56678993E-03    2    -1000004         4   # BR(~chi_40 -> ~c_L*     c )
    -4.18864987E-23    2     2000004        -4   # BR(~chi_40 -> ~c_R      cb)
    -4.18864987E-23    2    -2000004         4   # BR(~chi_40 -> ~c_R*     c )
    -2.56679103E-03    2     1000003        -3   # BR(~chi_40 -> ~s_L      sb)
    -2.56679103E-03    2    -1000003         3   # BR(~chi_40 -> ~s_L*     s )
    -5.01455740E-17    2     2000003        -3   # BR(~chi_40 -> ~s_R      sb)
    -5.01455740E-17    2    -2000003         3   # BR(~chi_40 -> ~s_R*     s )
    -3.13174278E-03    2     1000006        -6   # BR(~chi_40 -> ~t_1      tb)
    -3.13174278E-03    2    -1000006         6   # BR(~chi_40 -> ~t_1*     t )
     2.62937651E-01    2     1000005        -5   # BR(~chi_40 -> ~b_1      bb)
     2.62937651E-01    2    -1000005         5   # BR(~chi_40 -> ~b_1*     b )
     2.82671003E-01    2     2000005        -5   # BR(~chi_40 -> ~b_2      bb)
     2.82671003E-01    2    -2000005         5   # BR(~chi_40 -> ~b_2*     b )
    -1.38726807E-15    2     1000011       -11   # BR(~chi_40 -> ~e_L-     e+)
    -1.38726807E-15    2    -1000011        11   # BR(~chi_40 -> ~e_L+     e-)
    -2.43918795E-28    2     2000011       -11   # BR(~chi_40 -> ~e_R-     e+)
    -2.43918795E-28    2    -2000011        11   # BR(~chi_40 -> ~e_R+     e-)
    -1.38726807E-15    2     1000013       -13   # BR(~chi_40 -> ~mu_L-    mu+)
    -1.38726807E-15    2    -1000013        13   # BR(~chi_40 -> ~mu_L+    mu-)
    -2.43918795E-28    2     2000013       -13   # BR(~chi_40 -> ~mu_R-    mu+)
    -2.43918795E-28    2    -2000013        13   # BR(~chi_40 -> ~mu_R+    mu-)
    -1.98132669E-15    2     1000012       -12   # BR(~chi_40 -> ~nu_eL    nu_eb)
    -1.98132669E-15    2    -1000012        12   # BR(~chi_40 -> ~nu_eL*   nu_e )
    -1.98132669E-15    2     1000014       -14   # BR(~chi_40 -> ~nu_muL   nu_mub)
    -1.98132669E-15    2    -1000014        14   # BR(~chi_40 -> ~nu_muL*  nu_mu )
    -1.98132669E-15    2     1000016       -16   # BR(~chi_40 -> ~nu_tau1  nu_taub)
    -1.98132669E-15    2    -1000016        16   # BR(~chi_40 -> ~nu_tau1* nu_tau )
    -1.36039000E-02    2     1000039        22   # BR(~chi_40 -> ~G        gam)
    -4.25364526E-02    2     1000039        23   # BR(~chi_40 -> ~G        Z)
    -2.56846362E-09    2     1000039        25   # BR(~chi_40 -> ~G        h)
    -1.61258306E-08    2     1000039        35   # BR(~chi_40 -> ~G        H)
    -3.17770008E-12    2     1000039        36   # BR(~chi_40 -> ~G        A)
#
#
#
#
