#
#                              ======================
#                              | THE SUSYHIT OUTPUT |
#                              ======================
#
#
#              ------------------------------------------------------
#              |     This is the output of the SUSY-HIT package     |
#              |  created by A.Djouadi, M.Muehlleitner and M.Spira. |
#              |  In case of problems with SUSY-HIT email to        |
#              |           margarete.muehlleitner@cern.ch           |
#              |           michael.spira@psi.ch                     |
#              |           abdelhak.djouadi@cern.ch                 |
#              ------------------------------------------------------
#
#              ------------------------------------------------------
#              |  SUSY Les Houches Accord - MSSM Spectrum + Decays  |
#              |              based on the decay programs           |
#              |                                                    |
#              |                     SDECAY 1.3b                    |
#              |                                                    |
#              |  Authors: M.Muhlleitner, A.Djouadi and Y.Mambrini  |
#              |  Ref.:    Comput.Phys.Commun.168(2005)46           |
#              |           [hep-ph/0311167]                         |
#              |                                                    |
#              |                     HDECAY 3.4                     |
#              |                                                    |
#              |  By: A.Djouadi,J.Kalinowski,M.Muhlleitner,M.Spira  |
#              |  Ref.:    Comput.Phys.Commun.108(1998)56           |
#              |           [hep-ph/9704448]                         |
#              |                                                    |
#              |                                                    |
#              |  If not stated otherwise all DRbar couplings and   |
#              |  soft SUSY breaking masses are given at the scale  |
#              |  Q=  0.91187600E+02
#              |                                                    |
#              ------------------------------------------------------
#
#
BLOCK DCINFO  # Decay Program information
     1   SDECAY/HDECAY # decay calculator
     2   1.3b  /3.4    # version number
#
BLOCK SPINFO  # Spectrum calculator information
     1   SuSpect     # RGE +Spectrum calculator            
     2   2.41         # version number                     
#
BLOCK MODSEL  # Model selection
     1     0   # #general MSSM low scale                           
#
BLOCK SMINPUTS  # Standard Model inputs
         1     1.27934000E+02   # alpha_em^-1(M_Z)^MSbar
         2     1.16639000E-05   # G_F [GeV^-2]
         3     1.17200000E-01   # alpha_S(M_Z)^MSbar
         4     9.11870000E+01   # M_Z pole mass
         5     4.25000000E+00   # mb(mb)^MSbar
         6     1.72500000E+02   # mt pole mass
         7     1.77700000E+00   # mtau pole mass
#
BLOCK MINPAR  # Input parameters - minimal models
#
BLOCK EXTPAR  # Input parameters - non-minimal models
         0     9.11876000E+01   # EWSB                
         1     5.00000000E+01   # M_1                 
         2     1.00000000E+05   # M_2                 
         3     1.00000000E+05   # M_3                 
        11     0.00000000E+00   # A_t                 
        12     0.00000000E+00   # A_b                 
        13     0.00000000E+00   # A_tau               
        14     0.00000000E+00   # A_u                 
        15     0.00000000E+00   # A_d                 
        16     0.00000000E+00   # A_e                 
        23     3.50000000E+03   # mu(EWSB)            
        25     1.50000000E+00   # tanbeta(in)         
        26     2.00000000E+03   # MA_pole             
        31     1.00000000E+05   # M_eL                
        32     1.00000000E+05   # M_muL               
        33     1.00000000E+05   # M_tauL              
        34     1.00000000E+05   # M_eR                
        35     1.00000000E+05   # M_muR               
        36     1.00000000E+05   # M_tauR              
        41     8.00000000E+02   # M_q1L               
        42     8.00000000E+02   # M_q2L               
        43     8.00000000E+02   # M_q3L               
        44     1.00000000E+05   # M_uR                
        45     1.00000000E+05   # M_cR                
        46     1.00000000E+05   # M_tR                
        47     8.00000000E+02   # M_dR                
        48     8.00000000E+02   # M_sR                
        49     8.00000000E+02   # M_bR                
#
BLOCK MASS  # Mass Spectrum
# PDG code           mass       particle
        24     8.05803830E+01   # W+
        25     1.25000000E+02   # h
        35     2.00387185E+03   # H
        36     2.00000000E+03   # A
        37     2.02371006E+03   # H+
         5     4.87877839E+00   # b-quark pole mass calculated from mb(mb)_Msbar
   1000001     8.00833610E+02   # ~d_L
   2000001     8.00159954E+02   # ~d_R
   1000002     7.99325641E+02   # ~u_L
   2000002     9.99999974E+04   # ~u_R
   1000003     8.00833610E+02   # ~s_L
   2000003     8.00159954E+02   # ~s_R
   1000004     7.99325641E+02   # ~c_L
   2000004     9.99999974E+04   # ~c_R
   1000005     7.91995417E+02   # ~b_1
   2000005     8.08917161E+02   # ~b_2
   1000006     8.12794812E+02   # ~t_1
   2000006     1.00000106E+05   # ~t_2
   1000011     1.00000004E+05   # ~e_L
   2000011     1.00000004E+05   # ~e_R
   1000012     9.99999920E+04   # ~nu_eL
   1000013     1.00000004E+05   # ~mu_L
   2000013     1.00000004E+05   # ~mu_R
   1000014     9.99999920E+04   # ~nu_muL
   1000015     9.99999574E+04   # ~tau_1
   2000015     1.00000051E+05   # ~tau_2
   1000016     9.99999920E+04   # ~nu_tauL
   1000021     1.00000000E+05   # ~g
   1000022     4.94652939E+01   # ~chi_10
   1000023    -3.50002396E+03   # ~chi_20
   1000025     3.50049382E+03   # ~chi_30
   1000035     1.00000065E+05   # ~chi_40
   1000024     3.49993982E+03   # ~chi_1+
   1000037     1.00000065E+05   # ~chi_2+
   1000039     1.00000000E-09   # ~gravitino
#
BLOCK NMIX  # Neutralino Mixing Matrix
  1  1     9.99916345E-01   # N_11
  1  2    -9.48270159E-06   # N_12
  1  3     1.07235403E-02   # N_13
  1  4    -7.23243753E-03   # N_14
  2  1     2.46856097E-03   # N_21
  2  2    -1.50097375E-04   # N_22
  2  3    -7.07092516E-01   # N_23
  2  4    -7.07116722E-01   # N_24
  3  1     1.26967993E-02   # N_31
  3  2     8.04801590E-04   # N_32
  3  3    -7.07039579E-01   # N_33
  3  4     7.07059529E-01   # N_34
  4  1     3.65972690E-07   # N_41
  4  2    -9.99999665E-01   # N_42
  4  3    -4.62995690E-04   # N_43
  4  4     6.75247806E-04   # N_44
#
BLOCK UMIX  # Chargino Mixing Matrix U
  1  1    -6.54774577E-04   # U_11
  1  2     9.99999786E-01   # U_12
  2  1     9.99999786E-01   # U_21
  2  2     6.54774577E-04   # U_22
#
BLOCK VMIX  # Chargino Mixing Matrix V
  1  1    -9.54944519E-04   # V_11
  1  2     9.99999544E-01   # V_12
  2  1     9.99999544E-01   # V_21
  2  2     9.54944519E-04   # V_22
#
BLOCK STOPMIX  # Stop Mixing Matrix
  1  1     9.99999999E-01   # cos(theta_t)
  1  2     4.47213589E-05   # sin(theta_t)
  2  1    -4.47213589E-05   # -sin(theta_t)
  2  2     9.99999999E-01   # cos(theta_t)
#
BLOCK SBOTMIX  # Sbottom Mixing Matrix
  1  1     6.92888117E-01   # cos(theta_b)
  1  2     7.21045115E-01   # sin(theta_b)
  2  1    -7.21045115E-01   # -sin(theta_b)
  2  2     6.92888117E-01   # cos(theta_b)
#
BLOCK STAUMIX  # Stau Mixing Matrix
  1  1     7.06067091E-01   # cos(theta_tau)
  1  2     7.08144945E-01   # sin(theta_tau)
  2  1    -7.08144945E-01   # -sin(theta_tau)
  2  2     7.06067091E-01   # cos(theta_tau)
#
BLOCK ALPHA  # Higgs mixing
          -5.90187645E-01   # Mixing angle in the neutral Higgs boson sector
#
BLOCK HMIX Q=  9.11876000E+01  # DRbar Higgs Parameters
         1     3.50000000E+03   # mu(Q)               
         2     1.49999982E+00   # tanbeta(Q)          
         3     2.54844376E+02   # vev(Q)              
         4    -6.85763597E+07   # MA^2(Q)             
#
BLOCK GAUGE Q=  9.11876000E+01  # The gauge couplings
     1     3.50655867E-01   # gprime(Q) DRbar
     2     6.21612181E-01   # g(Q) DRbar
     3     1.03156171E+00   # g3(Q) DRbar
#
BLOCK AU Q=  9.11876000E+01  # The trilinear couplings
  1  1     0.00000000E+00   # A_u(Q) DRbar
  2  2     0.00000000E+00   # A_c(Q) DRbar
  3  3     0.00000000E+00   # A_t(Q) DRbar
#
BLOCK AD Q=  9.11876000E+01  # The trilinear couplings
  1  1     0.00000000E+00   # A_d(Q) DRbar
  2  2     0.00000000E+00   # A_s(Q) DRbar
  3  3     0.00000000E+00   # A_b(Q) DRbar
#
BLOCK AE Q=  9.11876000E+01  # The trilinear couplings
  1  1     0.00000000E+00   # A_e(Q) DRbar
  2  2     0.00000000E+00   # A_mu(Q) DRbar
  3  3     0.00000000E+00   # A_tau(Q) DRbar
#
BLOCK Yu Q=  9.11876000E+01  # The Yukawa couplings
  1  1     0.00000000E+00   # y_u(Q) DRbar
  2  2     0.00000000E+00   # y_c(Q) DRbar
  3  3     9.83055155E-01   # y_t(Q) DRbar
#
BLOCK Yd Q=  9.11876000E+01  # The Yukawa couplings
  1  1     0.00000000E+00   # y_d(Q) DRbar
  2  2     0.00000000E+00   # y_s(Q) DRbar
  3  3     2.57905542E-02   # y_b(Q) DRbar
#
BLOCK Ye Q=  9.11876000E+01  # The Yukawa couplings
  1  1     0.00000000E+00   # y_e(Q) DRbar
  2  2     0.00000000E+00   # y_mu(Q) DRbar
  3  3     1.77401819E-02   # y_tau(Q) DRbar
#
BLOCK MSOFT Q=  9.11876000E+01  # The soft SUSY breaking masses at the scale Q
         1     5.00000000E+01   # M_1                 
         2     1.00000000E+05   # M_2                 
         3     1.00000000E+05   # M_3                 
        14     0.00000000E+00   # A_u                 
        15     0.00000000E+00   # A_d                 
        16     0.00000000E+00   # A_e                 
        21     6.36534969E+08   # M^2_Hd              
        22    -1.14083524E+09   # M^2_Hu              
        31     1.00000000E+05   # M_eL                
        32     1.00000000E+05   # M_muL               
        33     1.00000000E+05   # M_tauL              
        34     1.00000000E+05   # M_eR                
        35     1.00000000E+05   # M_muR               
        36     1.00000000E+05   # M_tauR              
        41     8.00000000E+02   # M_q1L               
        42     8.00000000E+02   # M_q2L               
        43     8.00000000E+02   # M_q3L               
        44     1.00000000E+05   # M_uR                
        45     1.00000000E+05   # M_cR                
        46     1.00000000E+05   # M_tR                
        47     8.00000000E+02   # M_dR                
        48     8.00000000E+02   # M_sR                
        49     8.00000000E+02   # M_bR                
#
#
#
#                             =================
#                             |The decay table|
#                             =================
#
# - The QCD corrections to the decays gluino -> squark  + quark
#                                     squark -> gaugino + quark_prime
#                                     squark -> squark_prime + Higgs
#                                     squark -> gluino  + quark
#   are included.
#
# - The multi-body decays for the inos, stops and sbottoms are included.
#
# - The loop induced decays for the gluino, neutralinos and stops
#   are included.
#
# - The SUSY decays of the top quark are included.
#
# - Possible decays of the NLSP in GMSB models are included.
#
#
#         PDG            Width
DECAY         6     1.33376101E+00   # top decays
#          BR         NDA      ID1       ID2
     1.00000000E+00    2           5        24   # BR(t ->  b    W+)
#
#         PDG            Width
DECAY   1000021     1.E-04   # gluino decays (OJ Mods)
#          BR         NDA      ID1       ID2
     1.64980183E-04    2     1000001        -1   # BR(~g -> ~d_L  db)
     1.64980183E-04    2    -1000001         1   # BR(~g -> ~d_L* d )
     1.64980219E-04    2     2000001        -1   # BR(~g -> ~d_R  db)
     1.64980219E-04    2    -2000001         1   # BR(~g -> ~d_R* d )
     1.64980263E-04    2     1000002        -2   # BR(~g -> ~u_L  ub)
     1.64980263E-04    2    -1000002         2   # BR(~g -> ~u_L* u )
     4.46163632E-19    2     2000002        -2   # BR(~g -> ~u_R  ub)
     4.46163632E-19    2    -2000002         2   # BR(~g -> ~u_R* u )
     1.64980183E-04    2     1000003        -3   # BR(~g -> ~s_L  sb)
     1.64980183E-04    2    -1000003         3   # BR(~g -> ~s_L* s )
     1.64980219E-04    2     2000003        -3   # BR(~g -> ~s_R  sb)
     1.64980219E-04    2    -2000003         3   # BR(~g -> ~s_R* s )
     1.64980263E-04    2     1000004        -4   # BR(~g -> ~c_L  cb)
     1.64980263E-04    2    -1000004         4   # BR(~g -> ~c_L* c )
     4.46163632E-19    2     2000004        -4   # BR(~g -> ~c_R  cb)
     4.46163632E-19    2    -2000004         4   # BR(~g -> ~c_R* c )
     2.47750425E-01    2     1000005        -5   # BR(~g -> ~b_1  bb)
     2.47750425E-01    2    -1000005         5   # BR(~g -> ~b_1* b )
     2.48797630E-01    2     2000005        -5   # BR(~g -> ~b_2  bb)
     2.48797630E-01    2    -2000005         5   # BR(~g -> ~b_2* b )
     1.62332397E-04    2     1000006        -6   # BR(~g -> ~t_1  tb)
     1.62332397E-04    2    -1000006         6   # BR(~g -> ~t_1* t )
     4.59946249E-03    2     1000039        21   # BR(~g -> ~G g)
#
#         PDG            Width
DECAY   1000006     1.24986919E-01   # stop1 decays
#          BR         NDA      ID1       ID2
     1.00000000E+00    2     1000022         6   # BR(~t_1 -> ~chi_10 t )
#
#         PDG            Width
DECAY   2000006     1.18455471E+06   # stop2 decays
#          BR         NDA      ID1       ID2
     1.75806629E-04    2     1000022         6   # BR(~t_2 -> ~chi_10 t )
     4.16170283E-04    2     1000023         6   # BR(~t_2 -> ~chi_20 t )
     4.16123918E-04    2     1000025         6   # BR(~t_2 -> ~chi_30 t )
     9.99007074E-01    2     1000024         5   # BR(~t_2 -> ~chi_1+ b )
    -1.16320933E-05    2     1000006        25   # BR(~t_2 -> ~t_1    h )
     1.21669833E-05    2     1000006        35   # BR(~t_2 -> ~t_1    H )
     1.21466765E-05    2     1000006        36   # BR(~t_2 -> ~t_1    A )
     1.14364002E-05    2     1000005        37   # BR(~t_2 -> ~b_1    H+)
     1.28569727E-05    2     2000005        37   # BR(~t_2 -> ~b_2    H+)
    -8.40232250E-06    2     1000006        23   # BR(~t_2 -> ~t_1    Z )
    -2.10033357E-05    2     1000005        24   # BR(~t_2 -> ~b_1    W+)
    -2.27438441E-05    2     2000005        24   # BR(~t_2 -> ~b_2    W+)
#
#         PDG            Width
DECAY   1000005     1.56267336E+02   # sbottom1 decays
#          BR         NDA      ID1       ID2
     1.00000000E+00    2     1000022         5   # BR(~b_1 -> ~chi_10 b )
#
#         PDG            Width
DECAY   2000005     1.51351254E+02   # sbottom2 decays
#          BR         NDA      ID1       ID2
     1.00000000E+00    2     1000022         5   # BR(~b_2 -> ~chi_10 b )
#
#         PDG            Width
DECAY   1000002     1.32931680E-01   # sup_L decays
#          BR         NDA      ID1       ID2
     1.00000000E+00    2     1000022         2   # BR(~u_L -> ~chi_10 u)
#
#         PDG            Width
DECAY   2000002     2.08339583E+02   # sup_R decays
#          BR         NDA      ID1       ID2
     9.99832870E-01    2     1000022         2   # BR(~u_R -> ~chi_10 u)
     6.08749737E-06    2     1000023         2   # BR(~u_R -> ~chi_20 u)
     1.61042091E-04    2     1000025         2   # BR(~u_R -> ~chi_30 u)
#
#         PDG            Width
DECAY   1000001     1.33201734E-01   # sdown_L decays
#          BR         NDA      ID1       ID2
     1.00000000E+00    2     1000022         1   # BR(~d_L -> ~chi_10 d)
#
#         PDG            Width
DECAY   2000001     5.32318614E-01   # sdown_R decays
#          BR         NDA      ID1       ID2
     1.00000000E+00    2     1000022         1   # BR(~d_R -> ~chi_10 d)
#
#         PDG            Width
DECAY   1000004     1.32931680E-01   # scharm_L decays
#          BR         NDA      ID1       ID2
     1.00000000E+00    2     1000022         4   # BR(~c_L -> ~chi_10 c)
#
#         PDG            Width
DECAY   2000004     2.08339583E+02   # scharm_R decays
#          BR         NDA      ID1       ID2
     9.99832870E-01    2     1000022         4   # BR(~c_R -> ~chi_10 c)
     6.08749737E-06    2     1000023         4   # BR(~c_R -> ~chi_20 c)
     1.61042091E-04    2     1000025         4   # BR(~c_R -> ~chi_30 c)
#
#         PDG            Width
DECAY   1000003     1.33201734E-01   # sstrange_L decays
#          BR         NDA      ID1       ID2
     1.00000000E+00    2     1000022         3   # BR(~s_L -> ~chi_10 s)
#
#         PDG            Width
DECAY   2000003     5.32318614E-01   # sstrange_R decays
#          BR         NDA      ID1       ID2
     1.00000000E+00    2     1000022         3   # BR(~s_R -> ~chi_10 s)
#
#         PDG            Width
DECAY   1000011     1.22310742E+02   # selectron_L decays
#          BR         NDA      ID1       ID2
     9.99793490E-01    2     1000022        11   # BR(~e_L -> ~chi_10 e-)
     4.83902205E-06    2     1000023        11   # BR(~e_L -> ~chi_20 e-)
     1.98983167E-04    2     1000025        11   # BR(~e_L -> ~chi_30 e-)
     2.68796478E-06    2    -1000024        12   # BR(~e_L -> ~chi_1- nu_e)
#
#         PDG            Width
DECAY   2000011     4.89240033E+02   # selectron_R decays
#          BR         NDA      ID1       ID2
     9.99833107E-01    2     1000022        11   # BR(~e_R -> ~chi_10 e-)
     6.07887788E-06    2     1000023        11   # BR(~e_R -> ~chi_20 e-)
     1.60814026E-04    2     1000025        11   # BR(~e_R -> ~chi_30 e-)
#
#         PDG            Width
DECAY   1000013     1.22310742E+02   # smuon_L decays
#          BR         NDA      ID1       ID2
     9.99793490E-01    2     1000022        13   # BR(~mu_L -> ~chi_10 mu-)
     4.83902205E-06    2     1000023        13   # BR(~mu_L -> ~chi_20 mu-)
     1.98983167E-04    2     1000025        13   # BR(~mu_L -> ~chi_30 mu-)
     2.68796478E-06    2    -1000024        14   # BR(~mu_L -> ~chi_1- nu_mu)
#
#         PDG            Width
DECAY   2000013     4.89240033E+02   # smuon_R decays
#          BR         NDA      ID1       ID2
     9.99833107E-01    2     1000022        13   # BR(~mu_R -> ~chi_10 mu-)
     6.07887788E-06    2     1000023        13   # BR(~mu_R -> ~chi_20 mu-)
     1.60814026E-04    2     1000025        13   # BR(~mu_R -> ~chi_30 mu-)
#
#         PDG            Width
DECAY   1000015     1.18201937E+04   # stau_1 decays
#          BR         NDA      ID1       ID2
     2.59179114E-02    2     1000022        15   # BR(~tau_1 -> ~chi_10  tau-)
     2.51416984E-05    2     1000023        15   # BR(~tau_1 -> ~chi_20  tau-)
     2.48940465E-05    2     1000025        15   # BR(~tau_1 -> ~chi_30  tau-)
     2.77234225E-05    2    -1000024        16   # BR(~tau_1 -> ~chi_1-  nu_tau)
     9.74004329E-01    2     1000039        15   # BR(~tau_1 -> ~G       tau-)
#
#         PDG            Width
DECAY   2000015     3.06150625E+02   # stau_2 decays
#          BR         NDA      ID1       ID2
     9.96533247E-01    2     1000022        15   # BR(~tau_2 -> ~chi_10  tau-)
     1.08094383E-03    2     1000023        15   # BR(~tau_2 -> ~chi_20  tau-)
     1.41503487E-03    2     1000025        15   # BR(~tau_2 -> ~chi_30  tau-)
     9.70773917E-04    2    -1000024        16   # BR(~tau_2 -> ~chi_1-  nu_tau)
#
#         PDG            Width
DECAY   1000012     1.22310802E+02   # snu_eL decays
#          BR         NDA      ID1       ID2
     9.99860119E-01    2     1000022        12   # BR(~nu_eL -> ~chi_10 nu_e)
     7.45990545E-06    2     1000023        12   # BR(~nu_eL -> ~chi_20 nu_e)
     1.26703732E-04    2     1000025        12   # BR(~nu_eL -> ~chi_30 nu_e)
     5.71736572E-06    2     1000024        11   # BR(~nu_eL -> ~chi_1+ e-)
#
#         PDG            Width
DECAY   1000014     1.22310802E+02   # snu_muL decays
#          BR         NDA      ID1       ID2
     9.99860119E-01    2     1000022        14   # BR(~nu_muL -> ~chi_10 nu_mu)
     7.45990545E-06    2     1000023        14   # BR(~nu_muL -> ~chi_20 nu_mu)
     1.26703732E-04    2     1000025        14   # BR(~nu_muL -> ~chi_30 nu_mu)
     5.71736572E-06    2     1000024        13   # BR(~nu_muL -> ~chi_1+ mu-)
#
#         PDG            Width
DECAY   1000016     1.22935372E+02   # snu_tauL decays
#          BR         NDA      ID1       ID2
     9.94780352E-01    2     1000022        16   # BR(~nu_tauL -> ~chi_10 nu_tau)
     7.42200557E-06    2     1000023        16   # BR(~nu_tauL -> ~chi_20 nu_tau)
     1.26060016E-04    2     1000025        16   # BR(~nu_tauL -> ~chi_30 nu_tau)
     5.08616577E-03    2     1000024        15   # BR(~nu_tauL -> ~chi_1+ tau-)
#
#         PDG            Width
DECAY   1000024     1.10676087E+02   # chargino1+ decays
#          BR         NDA      ID1       ID2
     3.47907285E-07    2     1000002        -1   # BR(~chi_1+ -> ~u_L     db)
     1.63501972E-07    2    -1000001         2   # BR(~chi_1+ -> ~d_L*    u )
     3.47907285E-07    2     1000004        -3   # BR(~chi_1+ -> ~c_L     sb)
     1.63501972E-07    2    -1000003         4   # BR(~chi_1+ -> ~s_L*    c )
     3.13708636E-01    2     1000006        -5   # BR(~chi_1+ -> ~t_1     bb)
     4.32410133E-02    2    -1000005         6   # BR(~chi_1+ -> ~b_1*    t )
     6.15647128E-01    2    -2000005         6   # BR(~chi_1+ -> ~b_2*    t )
     1.91690849E-02    2     1000022        24   # BR(~chi_1+ -> ~chi_10  W+)
     8.22985319E-03    2     1000022        37   # BR(~chi_1+ -> ~chi_10  H+)
     2.72592804E-06    2     1000039        24   # BR(~chi_1+ -> ~G       W+)
     5.36339289E-07    2     1000039        37   # BR(~chi_1+ -> ~G       H+)
#
#         PDG            Width
DECAY   1000037     7.19322210E+05   # chargino2+ decays
#          BR         NDA      ID1       ID2
     1.51187301E-03    2     1000002        -1   # BR(~chi_2+ -> ~u_L     db)
     1.51187379E-03    2    -1000001         2   # BR(~chi_2+ -> ~d_L*    u )
     1.51187301E-03    2     1000004        -3   # BR(~chi_2+ -> ~c_L     sb)
     1.51187379E-03    2    -1000003         4   # BR(~chi_2+ -> ~s_L*    c )
     9.74346794E-01    2     1000006        -5   # BR(~chi_2+ -> ~t_1     bb)
     3.19326425E-04    2    -1000005         6   # BR(~chi_2+ -> ~b_1*    t )
     1.45081993E-03    2    -2000005         6   # BR(~chi_2+ -> ~b_2*    t )
     1.12104866E-15    2     1000012       -11   # BR(~chi_2+ -> ~nu_eL   e+  )
     1.12104866E-15    2     1000014       -13   # BR(~chi_2+ -> ~nu_muL  mu+ )
     7.82778115E-16    2    -1000011        12   # BR(~chi_2+ -> ~e_L+    nu_e)
     7.82778115E-16    2    -1000013        14   # BR(~chi_2+ -> ~mu_L+   nu_mu)
     1.21416863E-15    2    -1000015        16   # BR(~chi_2+ -> ~tau_1+  nu_tau)
     2.06773930E-17    2    -2000015        16   # BR(~chi_2+ -> ~tau_2+  nu_tau)
     2.78419259E-04    2     1000024        23   # BR(~chi_2+ -> ~chi_1+  Z )
     3.36625500E-08    2     1000022        24   # BR(~chi_2+ -> ~chi_10  W+)
     2.70471958E-04    2     1000023        24   # BR(~chi_2+ -> ~chi_20  W+)
     2.70435441E-04    2     1000025        24   # BR(~chi_2+ -> ~chi_30  W+)
     2.79959158E-04    2     1000024        25   # BR(~chi_2+ -> ~chi_1+  h )
     2.45754319E-04    2     1000024        35   # BR(~chi_2+ -> ~chi_1+  H )
     2.45785273E-04    2     1000024        36   # BR(~chi_2+ -> ~chi_1+  A )
     4.73780594E-08    2     1000022        37   # BR(~chi_2+ -> ~chi_10  H+)
     2.45775624E-04    2     1000023        37   # BR(~chi_2+ -> ~chi_20  H+)
     2.45738483E-04    2     1000025        37   # BR(~chi_2+ -> ~chi_30  H+)
     1.57531413E-02    2     1000039        24   # BR(~chi_2+ -> ~G       W+)
     4.54052566E-09    2     1000039        37   # BR(~chi_2+ -> ~G       H+)
#
#         PDG            Width
DECAY   1000022     1.E-08   # neutralino1 decays (OJ Mods)
#          BR         NDA      ID1       ID2
     1.00000000E+00    2     1000039        22   # BR(~chi_10 -> ~G        gam)
#
#         PDG            Width
DECAY   1000023     1.E-08   # neutralino2 decays (OJ Mods)
#          BR         NDA      ID1       ID2
     1.40968560E-02    2     1000022        23   # BR(~chi_20 -> ~chi_10   Z )
     5.23063881E-04    2     1000022        25   # BR(~chi_20 -> ~chi_10   h )
     5.97014767E-03    2     1000022        35   # BR(~chi_20 -> ~chi_10   H )
     2.60367519E-04    2     1000022        36   # BR(~chi_20 -> ~chi_10   A )
     1.59226797E-08    2     1000002        -2   # BR(~chi_20 -> ~u_L      ub)
     1.59226797E-08    2    -1000002         2   # BR(~chi_20 -> ~u_L*     u )
     6.08838727E-08    2     1000001        -1   # BR(~chi_20 -> ~d_L      db)
     6.08838727E-08    2    -1000001         1   # BR(~chi_20 -> ~d_L*     d )
     1.39083545E-07    2     2000001        -1   # BR(~chi_20 -> ~d_R      db)
     1.39083545E-07    2    -2000001         1   # BR(~chi_20 -> ~d_R*     d )
     1.59226797E-08    2     1000004        -4   # BR(~chi_20 -> ~c_L      cb)
     1.59226797E-08    2    -1000004         4   # BR(~chi_20 -> ~c_L*     c )
     6.08838727E-08    2     1000003        -3   # BR(~chi_20 -> ~s_L      sb)
     6.08838727E-08    2    -1000003         3   # BR(~chi_20 -> ~s_L*     s )
     1.39083545E-07    2     2000003        -3   # BR(~chi_20 -> ~s_R      sb)
     1.39083545E-07    2    -2000003         3   # BR(~chi_20 -> ~s_R*     s )
     2.43887263E-01    2     1000006        -6   # BR(~chi_20 -> ~t_1      tb)
     2.43887263E-01    2    -1000006         6   # BR(~chi_20 -> ~t_1*     t )
     1.18499823E-01    2     1000005        -5   # BR(~chi_20 -> ~b_1      bb)
     1.18499823E-01    2    -1000005         5   # BR(~chi_20 -> ~b_1*     b )
     1.27186101E-01    2     2000005        -5   # BR(~chi_20 -> ~b_2      bb)
     1.27186101E-01    2    -2000005         5   # BR(~chi_20 -> ~b_2*     b )
     1.74626172E-11    2     1000039        22   # BR(~chi_20 -> ~G        gam)
     7.77057377E-08    2     1000039        23   # BR(~chi_20 -> ~G        Z)
     1.93919278E-06    2     1000039        25   # BR(~chi_20 -> ~G        h)
     1.55565914E-08    2     1000039        35   # BR(~chi_20 -> ~G        H)
     4.00624773E-07    2     1000039        36   # BR(~chi_20 -> ~G        A)
#
#         PDG            Width
DECAY   1000025     1.49742845E+02   # neutralino3 decays
#          BR         NDA      ID1       ID2
     5.31370127E-04    2     1000022        23   # BR(~chi_30 -> ~chi_10   Z )
     1.41033157E-02    2     1000022        25   # BR(~chi_30 -> ~chi_10   h )
     2.53008068E-04    2     1000022        35   # BR(~chi_30 -> ~chi_10   H )
     5.96953659E-03    2     1000022        36   # BR(~chi_30 -> ~chi_10   A )
     1.64008016E-06    2     1000002        -2   # BR(~chi_30 -> ~u_L      ub)
     1.64008016E-06    2    -1000002         2   # BR(~chi_30 -> ~u_L*     u )
     4.02978557E-07    2     1000001        -1   # BR(~chi_30 -> ~d_L      db)
     4.02978557E-07    2    -1000001         1   # BR(~chi_30 -> ~d_L*     d )
     3.66869868E-06    2     2000001        -1   # BR(~chi_30 -> ~d_R      db)
     3.66869868E-06    2    -2000001         1   # BR(~chi_30 -> ~d_R*     d )
     1.64008016E-06    2     1000004        -4   # BR(~chi_30 -> ~c_L      cb)
     1.64008016E-06    2    -1000004         4   # BR(~chi_30 -> ~c_L*     c )
     4.02978557E-07    2     1000003        -3   # BR(~chi_30 -> ~s_L      sb)
     4.02978557E-07    2    -1000003         3   # BR(~chi_30 -> ~s_L*     s )
     3.66869868E-06    2     2000003        -3   # BR(~chi_30 -> ~s_R      sb)
     3.66869868E-06    2    -2000003         3   # BR(~chi_30 -> ~s_R*     s )
     2.43179320E-01    2     1000006        -6   # BR(~chi_30 -> ~t_1      tb)
     2.43179320E-01    2    -1000006         6   # BR(~chi_30 -> ~t_1*     t )
     1.05835299E-01    2     1000005        -5   # BR(~chi_30 -> ~b_1      bb)
     1.05835299E-01    2    -1000005         5   # BR(~chi_30 -> ~b_1*     b )
     1.40545544E-01    2     2000005        -5   # BR(~chi_30 -> ~b_2      bb)
     1.40545544E-01    2    -2000005         5   # BR(~chi_30 -> ~b_2*     b )
     5.30155059E-10    2     1000039        22   # BR(~chi_30 -> ~G        gam)
     1.93732795E-06    2     1000039        23   # BR(~chi_30 -> ~G        Z)
     7.56334270E-08    2     1000039        25   # BR(~chi_30 -> ~G        h)
     3.97164359E-07    2     1000039        35   # BR(~chi_30 -> ~G        H)
     1.59904151E-08    2     1000039        36   # BR(~chi_30 -> ~G        A)
#
#         PDG            Width
DECAY   1000035     7.19325321E+05   # neutralino4 decays
#          BR         NDA      ID1       ID2
     2.75309015E-12    2     1000022        23   # BR(~chi_40 -> ~chi_10   Z )
     2.69062470E-04    2     1000023        23   # BR(~chi_40 -> ~chi_20   Z )
     9.35581976E-06    2     1000025        23   # BR(~chi_40 -> ~chi_30   Z )
     2.70469136E-04    2     1000024       -24   # BR(~chi_40 -> ~chi_1+   W-)
     2.70469136E-04    2    -1000024        24   # BR(~chi_40 -> ~chi_1-   W+)
     3.49015427E-08    2     1000022        25   # BR(~chi_40 -> ~chi_10   h )
     6.26214241E-09    2     1000022        35   # BR(~chi_40 -> ~chi_10   H )
     4.10518018E-08    2     1000022        36   # BR(~chi_40 -> ~chi_10   A )
     9.20361529E-06    2     1000023        25   # BR(~chi_40 -> ~chi_20   h )
     2.35172364E-04    2     1000023        35   # BR(~chi_40 -> ~chi_20   H )
     1.08107203E-05    2     1000023        36   # BR(~chi_40 -> ~chi_20   A )
     2.70719734E-04    2     1000025        25   # BR(~chi_40 -> ~chi_30   h )
     1.05743414E-05    2     1000025        35   # BR(~chi_40 -> ~chi_30   H )
     2.34932449E-04    2     1000025        36   # BR(~chi_40 -> ~chi_30   A )
     2.45779851E-04    2     1000024       -37   # BR(~chi_40 -> ~chi_1+   H-)
     2.45779851E-04    2    -1000024        37   # BR(~chi_40 -> ~chi_1-   H+)
     7.23090912E-04    2     1000002        -2   # BR(~chi_40 -> ~u_L      ub)
     7.23090912E-04    2    -1000002         2   # BR(~chi_40 -> ~u_L*     u )
     1.16177525E-23    2     2000002        -2   # BR(~chi_40 -> ~u_R      ub)
     1.16177525E-23    2    -2000002         2   # BR(~chi_40 -> ~u_R*     u )
     7.23091540E-04    2     1000001        -1   # BR(~chi_40 -> ~d_L      db)
     7.23091540E-04    2    -1000001         1   # BR(~chi_40 -> ~d_L*     d )
     1.36971882E-17    2     2000001        -1   # BR(~chi_40 -> ~d_R      db)
     1.36971882E-17    2    -2000001         1   # BR(~chi_40 -> ~d_R*     d )
     7.23090912E-04    2     1000004        -4   # BR(~chi_40 -> ~c_L      cb)
     7.23090912E-04    2    -1000004         4   # BR(~chi_40 -> ~c_L*     c )
     1.16177525E-23    2     2000004        -4   # BR(~chi_40 -> ~c_R      cb)
     1.16177525E-23    2    -2000004         4   # BR(~chi_40 -> ~c_R*     c )
     7.23091540E-04    2     1000003        -3   # BR(~chi_40 -> ~s_L      sb)
     7.23091540E-04    2    -1000003         3   # BR(~chi_40 -> ~s_L*     s )
     1.36971882E-17    2     2000003        -3   # BR(~chi_40 -> ~s_R      sb)
     1.36971882E-17    2    -2000003         3   # BR(~chi_40 -> ~s_R*     s )
     8.85070910E-04    2     1000006        -6   # BR(~chi_40 -> ~t_1      tb)
     8.85070910E-04    2    -1000006         6   # BR(~chi_40 -> ~t_1*     t )
     2.33611224E-01    2     1000005        -5   # BR(~chi_40 -> ~b_1      bb)
     2.33611224E-01    2    -1000005         5   # BR(~chi_40 -> ~b_1*     b )
     2.53562226E-01    2     2000005        -5   # BR(~chi_40 -> ~b_2      bb)
     2.53562226E-01    2    -2000005         5   # BR(~chi_40 -> ~b_2*     b )
     3.91387135E-16    2     1000011       -11   # BR(~chi_40 -> ~e_L-     e+)
     3.91387135E-16    2    -1000011        11   # BR(~chi_40 -> ~e_L+     e-)
     6.67248416E-29    2     2000011       -11   # BR(~chi_40 -> ~e_R-     e+)
     6.67248416E-29    2    -2000011        11   # BR(~chi_40 -> ~e_R+     e-)
     3.91387135E-16    2     1000013       -13   # BR(~chi_40 -> ~mu_L-    mu+)
     3.91387135E-16    2    -1000013        13   # BR(~chi_40 -> ~mu_L+    mu-)
     6.67248416E-29    2     2000013       -13   # BR(~chi_40 -> ~mu_R-    mu+)
     6.67248416E-29    2    -2000013        13   # BR(~chi_40 -> ~mu_R+    mu-)
     5.60522310E-16    2     1000012       -12   # BR(~chi_40 -> ~nu_eL    nu_eb)
     5.60522310E-16    2    -1000012        12   # BR(~chi_40 -> ~nu_eL*   nu_e )
     5.60522310E-16    2     1000014       -14   # BR(~chi_40 -> ~nu_muL   nu_mub)
     5.60522310E-16    2    -1000014        14   # BR(~chi_40 -> ~nu_muL*  nu_mu )
     5.60522310E-16    2     1000016       -16   # BR(~chi_40 -> ~nu_tau1  nu_taub)
     5.60522310E-16    2    -1000016        16   # BR(~chi_40 -> ~nu_tau1* nu_tau )
     3.80278704E-03    2     1000039        22   # BR(~chi_40 -> ~G        gam)
     1.19502863E-02    2     1000039        23   # BR(~chi_40 -> ~G        Z)
     7.24831990E-10    2     1000039        25   # BR(~chi_40 -> ~G        h)
     4.54770306E-09    2     1000039        35   # BR(~chi_40 -> ~G        H)
     8.96237708E-13    2     1000039        36   # BR(~chi_40 -> ~G        A)
#
#
#
#
