# SUSY Les Houches Accord 2 - MSSM spectrum + Decays
# SPheno v3.1.12 
# W. Porod, Comput. Phys. Commun. 153 (2003) 275-315, hep-ph/0301101
# in case of problems send email to porod@physik.uni-wuerzburg.de
# Created: 09.12.2016,  15:23
Block SPINFO         # Program information
     1   SPheno      # spectrum calculator
     2   v3.1.12     # version number
#
Block SPhenoINFO     # SPheno specific information
    1      2         # using 2-loop RGEs
    2      1         # using running masses for boundary conditions at mZ
Block MODSEL  # Model selection
    1    2    # mGMSB model
Block MINPAR  # Input parameters
    1    1.60000000E+05  # Lambda, scale of SUSY breaking
    2    2.50000000E+05  # M_M, messenger mass scale
    3    4.00000000E+01  # tanb at m_Z   
    4    1.00000000E+00  # Sign(mu)
    5    3.00000000E+00  # N_5 number of effective five-plets
    6    1.00000000E+00  # c_grav, Gravitino mass factor
Block gauge Q=  2.50000000E+05  # (GMSB scale)
   1    4.92788279E-01  # g'(Q)^DRbar
   2    6.45731540E-01  # g(Q)^DRbar
   3    9.30423160E-01  # g3(Q)^DRbar
Block SMINPUTS  # SM parameters
         1     1.27932507E+02  # alpha_em^-1(MZ)^MSbar
         2     1.16639000E-05  # G_mu [GeV^-2]
         3     1.17200000E-01  # alpha_s(MZ)^MSbar
         4     9.11876000E+01  # m_Z(pole)
         5     4.20000000E+00  # m_b(m_b), MSbar
         6     1.72500000E+02  # m_t(pole)
         7     1.77700000E+00  # m_tau(pole)
         8     0.00000000E+00  # m_nu_3
        11     5.10998910E-04  # m_e(pole)
        12     0.00000000E+00  # m_nu_1
        13     1.05658000E-01  # m_muon(pole)
        14     0.00000000E+00  # m_nu_2
        21     5.00000000E-03  # m_d(2 GeV), MSbar
        22     3.00000000E-03  # m_u(2 GeV), MSbar
        23     1.05000000E-01  # m_s(2 GeV), MSbar
        24     1.27000000E+00  # m_c(m_c), MSbar
Block gauge Q=  2.98906563E+03  # (SUSY scale)
   1    3.65408815E-01  # g'(Q)^DRbar
   2    6.37042168E-01  # g(Q)^DRbar
   3    1.00407921E+00  # g3(Q)^DRbar
Block Yu Q=  2.98906563E+03  # (SUSY scale)
  1  1     8.26364576E-06   # Y_u(Q)^DRbar
  2  2     3.49827812E-03   # Y_c(Q)^DRbar
  3  3     8.32105815E-01   # Y_t(Q)^DRbar
Block Yd Q=  2.98906563E+03  # (SUSY scale)
  1  1     4.72495784E-04   # Y_d(Q)^DRbar
  2  2     9.92240582E-03   # Y_s(Q)^DRbar
  3  3     4.76181211E-01   # Y_b(Q)^DRbar
Block Ye Q=  2.98906563E+03  # (SUSY scale)
  1  1     1.23077644E-04   # Y_e(Q)^DRbar
  2  2     2.54486742E-02   # Y_mu(Q)^DRbar
  3  3     4.28957391E-01   # Y_tau(Q)^DRbar
Block Au Q=  2.98906563E+03  # (SUSY scale)
  1  1    -8.97287865E+02   # A_u(Q)^DRbar
  2  2    -8.97284825E+02   # A_c(Q)^DRbar
  3  3    -8.46132324E+02   # A_t(Q)^DRbar
Block Ad Q=  2.98906563E+03  # (SUSY scale)
  1  1    -9.32198453E+02   # A_d(Q)^DRbar
  2  2    -9.32191407E+02   # A_s(Q)^DRbar
  3  3    -9.01685792E+02   # A_b(Q)^DRbar
Block Ae Q=  2.98906563E+03  # (SUSY scale)
  1  1    -8.99280649E+01   # A_e(Q)^DRbar
  2  2    -8.99222724E+01   # A_mu(Q)^DRbar
  3  3    -8.82868404E+01   # A_tau(Q)^DRbar
Block MSOFT Q=  2.98906563E+03  # soft SUSY breaking masses at Q
   1    7.28239435E+02  # M_1
   2    1.32403861E+03  # M_2
   3    3.30241194E+03  # M_3
  21    3.85161792E+05  # M^2_(H,d)
  22   -7.66612933E+05  # M^2_(H,u)
  31    9.91612668E+02  # M_(L,11)
  32    9.91581617E+02  # M_(L,22)
  33    9.82795291E+02  # M_(L,33)
  34    4.83307336E+02  # M_(E,11)
  35    4.83177299E+02  # M_(E,22)
  36    4.44926954E+02  # M_(E,33)
  41    3.11430307E+03  # M_(Q,11)
  42    3.11428893E+03  # M_(Q,22)
  43    2.99766272E+03  # M_(Q,33)
  44    2.98380837E+03  # M_(U,11)
  45    2.98380513E+03  # M_(U,22)
  46    2.79670005E+03  # M_(U,33)
  47    2.97102340E+03  # M_(D,11)
  48    2.97099673E+03  # M_(D,22)
  49    2.90951877E+03  # M_(D,33)
Block MASS  # Mass spectrum
#   PDG code      mass          particle
         6     1.72500000E+02  # m_t(pole)
        23     9.11876000E+01  # m_Z(pole)
        24     8.03115899E+01  # W+
        15     1.77700000E+00  # m_tau(pole)
        25     1.21539903E+02  # h0
        35     1.13333591E+03  # H0
        36     1.13330104E+03  # A0
        37     1.13666057E+03  # H+
   1000001     3.24206830E+03  # ~d_L
   2000001     3.09084024E+03  # ~d_R
   1000002     3.24107623E+03  # ~u_L
   2000002     3.10297949E+03  # ~u_R
   1000003     3.24205129E+03  # ~s_L
   2000003     3.09080695E+03  # ~s_R
   1000004     3.24105887E+03  # ~c_L
   2000004     3.10297555E+03  # ~c_R
   1000005     3.01276701E+03  # ~b_1
   2000005     3.10105950E+03  # ~b_2
   1000006     2.87814039E+03  # ~t_1
   2000006     3.10426481E+03  # ~t_2
   1000011     1.01453256E+03  # ~e_L-
   2000011     5.01876323E+02  # ~e_R-
   1000012     1.01099231E+03  # ~nu_eL
   1000013     1.01450003E+03  # ~mu_L-
   2000013     5.01687628E+02  # ~mu_R-
   1000014     1.01094731E+03  # ~nu_muL
   1000015     4.45990515E+02  # ~tau_1-
   2000015     1.00528299E+03  # ~tau_2-
   1000016     9.98343607E+02  # ~nu_tauL
   1000021     3.44878498E+03  # ~g
   1000022     7.08747004E+02  # ~chi_10
   1000023     9.82616307E+02  # ~chi_20
   1000025    -9.89030342E+02  # ~chi_30
   1000035     1.36083830E+03  # ~chi_40
   1000024     9.79964798E+02  # ~chi_1+
   1000037     1.36102959E+03  # ~chi_2+
   1000039     9.60000000E-09  # ~G
# Higgs mixing
Block alpha # Effective Higgs mixing angle
          -2.62033492E-02   # alpha
Block Hmix Q=  2.98906563E+03  # Higgs mixing parameters
   1    9.77101949E+02  # mu
   2    3.88503858E+01  # tan[beta](Q)
   3    2.43404627E+02  # v(Q)
   4    1.14531342E+06  # m^2_A(Q)
Block stopmix # stop mixing matrix
   1  1     1.13322157E-01   # Re[R_st(1,1)]
   1  2     9.93558297E-01   # Re[R_st(1,2)]
   2  1    -9.93558297E-01   # Re[R_st(2,1)]
   2  2     1.13322157E-01   # Re[R_st(2,2)]
Block sbotmix # sbottom mixing matrix
   1  1     1.63357606E-01   # Re[R_sb(1,1)]
   1  2     9.86566922E-01   # Re[R_sb(1,2)]
   2  1    -9.86566922E-01   # Re[R_sb(2,1)]
   2  2     1.63357606E-01   # Re[R_sb(2,2)]
Block staumix # stau mixing matrix
   1  1     9.08867349E-02   # Re[R_sta(1,1)]
   1  2     9.95861236E-01   # Re[R_sta(1,2)]
   2  1    -9.95861236E-01   # Re[R_sta(2,1)]
   2  2     9.08867349E-02   # Re[R_sta(2,2)]
Block Nmix # neutralino mixing matrix
   1  1    -9.92791336E-01   # Re[N(1,1)]
   1  2     8.87008659E-03   # Re[N(1,2)]
   1  3    -9.63500458E-02   # Re[N(1,3)]
   1  4     7.07343799E-02   # Re[N(1,4)]
   2  1    -1.18192000E-01   # Re[N(2,1)]
   2  2    -1.50457817E-01   # Re[N(2,2)]
   2  3     6.95675890E-01   # Re[N(2,3)]
   2  4    -6.92407505E-01   # Re[N(2,4)]
   3  1    -1.79160947E-02   # Re[N(3,1)]
   3  2     2.32339640E-02   # Re[N(3,2)]
   3  3     7.06130693E-01   # Re[N(3,3)]
   3  4     7.07473421E-01   # Re[N(3,4)]
   4  1    -8.66181550E-03   # Re[N(4,1)]
   4  2     9.88303572E-01   # Re[N(4,2)]
   4  3     9.01729957E-02   # Re[N(4,3)]
   4  4    -1.22677846E-01   # Re[N(4,4)]
Block Umix # chargino mixing matrix
   1  1    -1.27579126E-01   # Re[U(1,1)]
   1  2     9.91828396E-01   # Re[U(1,2)]
   2  1     9.91828396E-01   # Re[U(2,1)]
   2  2     1.27579126E-01   # Re[U(2,2)]
Block Vmix # chargino mixing matrix
   1  1    -1.73499466E-01   # Re[V(1,1)]
   1  2     9.84833963E-01   # Re[V(1,2)]
   2  1     9.84833963E-01   # Re[V(2,1)]
   2  2     1.73499466E-01   # Re[V(2,2)]
DECAY   2000011     1.53769386E-07   # ~e^-_R
#    BR                NDA      ID1      ID2
     2.57468331E-03    2     1000039        11   # BR(~e^-_R -> ~G e^-)
#    BR                NDA      ID1      ID2       ID3
     2.27540649E-14    3     2000013        11       -13   # BR(~e^-_R -> ~mu^-_R e^- mu^+)
     9.13674600E-14    3    -2000013        11        13   # BR(~e^-_R -> ~mu^+_R e^- mu^-)
     1.82428677E-01    3     1000015        11       -15   # BR(~e^-_R -> ~tau^-_1 e^- tau^+)
     8.14996640E-01    3    -1000015        11        15   # BR(~e^-_R -> ~tau^+_1 e^- tau^-)
DECAY   1000011     3.38702284E-01   # ~e^-_L
#    BR                NDA      ID1      ID2
     9.96019283E-01    2     1000022        11   # BR(~e^-_L -> chi^0_1 e^-)
     2.20894967E-03    2     1000023        11   # BR(~e^-_L -> chi^0_2 e^-)
     5.00385759E-06    2     1000025        11   # BR(~e^-_L -> chi^0_3 e^-)
     1.76611517E-03    2    -1000024        12   # BR(~e^-_L -> chi^-_1 nu_e)
     3.01259904E-07    2     2000011        23   # BR(~e^-_L -> ~e^-_R Z)
     3.07401151E-07    2     2000011        25   # BR(~e^-_L -> ~e^-_R h^0)
     3.94568108E-08    2     1000039        11   # BR(~e^-_L -> ~G e^-)
DECAY   2000013     1.51429879E-07   # ~mu^-_R
#    BR                NDA      ID1      ID2
     2.60954906E-03    2     1000039        13   # BR(~mu^-_R -> ~G mu^-)
#    BR                NDA      ID1      ID2       ID3
     1.82151984E-01    3     1000015        13       -15   # BR(~mu^-_R -> ~tau^-_1 mu^- tau^+)
     8.15238467E-01    3    -1000015        13        15   # BR(~mu^-_R -> ~tau^+_1 mu^- tau^-)
DECAY   1000013     3.47526627E-01   # ~mu^-_L
#    BR                NDA      ID1      ID2
     9.70655936E-01    2     1000022        13   # BR(~mu^-_L -> chi^0_1 mu^-)
     2.21400965E-03    2     1000023        13   # BR(~mu^-_L -> chi^0_2 mu^-)
     5.12769299E-05    2     1000025        13   # BR(~mu^-_L -> chi^0_3 mu^-)
     1.71208361E-03    2    -1000024        14   # BR(~mu^-_L -> chi^-_1 nu_mu)
     1.25560265E-02    2     2000013        23   # BR(~mu^-_L -> ~mu^-_R Z)
     1.28106291E-02    2     2000013        25   # BR(~mu^-_L -> ~mu^-_R h^0)
     3.84487633E-08    2     1000039        13   # BR(~mu^-_L -> ~G mu^-)
DECAY   1000015     2.19386902E-10   # ~tau^-_1
#    BR                NDA      ID1      ID2
     1.00000000E+00    2     1000039        15   # BR(~tau^-_1 -> ~G tau^-)
DECAY   2000015     2.98193832E+00   # ~tau^-_2
#    BR                NDA      ID1      ID2
     1.10544897E-01    2     1000022        15   # BR(~tau^-_2 -> chi^0_1 tau^-)
     1.24052644E-03    2     1000023        15   # BR(~tau^-_2 -> chi^0_2 tau^-)
     6.20048778E-04    2     1000025        15   # BR(~tau^-_2 -> chi^0_3 tau^-)
     2.96417826E-05    2    -1000024        16   # BR(~tau^-_2 -> chi^-_1 nu_tau)
     4.45387361E-01    2     1000015        23   # BR(~tau^-_2 -> ~tau^-_1 Z)
     4.42177520E-01    2     1000015        25   # BR(~tau^-_2 -> ~tau^-_1 h^0)
     4.28102480E-09    2     1000039        15   # BR(~tau^-_2 -> ~G tau^-)
DECAY   1000012     3.54012102E-01   # ~nu_e
#    BR                NDA      ID1      ID2
     9.97198946E-01    2     1000022        12   # BR(~nu_e -> chi^0_1 nu_e)
     2.41310113E-04    2     1000023        12   # BR(~nu_e -> chi^0_2 nu_e)
     2.39085746E-05    2     1000025        12   # BR(~nu_e -> chi^0_3 nu_e)
     2.53524217E-03    2     1000024        11   # BR(~nu_e -> chi^+_1 e^-)
     5.56013619E-07    2     2000011        24   # BR(~nu_e -> ~e^-_R W^+)
     3.70963620E-08    2     1000039        12   # BR(~nu_e -> ~G nu_e)
DECAY   1000014     3.62395177E-01   # ~nu_mu
#    BR                NDA      ID1      ID2
     9.73920340E-01    2     1000022        14   # BR(~nu_mu -> chi^0_1 nu_mu)
     2.35001665E-04    2     1000023        14   # BR(~nu_mu -> chi^0_2 nu_mu)
     2.32619494E-05    2     1000025        14   # BR(~nu_mu -> chi^0_3 nu_mu)
     2.59462574E-03    2     1000024        13   # BR(~nu_mu -> chi^+_1 mu^-)
     2.32267349E-02    2     2000013        24   # BR(~nu_mu -> ~mu^-_R W^+)
     3.62301686E-08    2     1000039        14   # BR(~nu_mu -> ~G nu_mu)
DECAY   1000016     2.87957247E+00   # ~nu_tau
#    BR                NDA      ID1      ID2
     1.15167791E-01    2     1000022        16   # BR(~nu_tau -> chi^0_1 nu_tau)
     9.34429193E-06    2     1000023        16   # BR(~nu_tau -> chi^0_2 nu_tau)
     5.41998167E-07    2     1000025        16   # BR(~nu_tau -> chi^0_3 nu_tau)
     1.68280916E-03    2     1000024        15   # BR(~nu_tau -> chi^+_1 tau^-)
     8.83139509E-01    2     1000015        24   # BR(~nu_tau -> ~tau^-_1 W^+)
     4.28235193E-09    2     1000039        16   # BR(~nu_tau -> ~G nu_tau)
DECAY   2000001     1.63536401E+00   # ~d_R
#    BR                NDA      ID1      ID2
     9.87047227E-01    2     1000022         1   # BR(~d_R -> chi^0_1 d)
     1.25974581E-02    2     1000023         1   # BR(~d_R -> chi^0_2 d)
     2.91879366E-04    2     1000025         1   # BR(~d_R -> chi^0_3 d)
     5.43987647E-05    2     1000035         1   # BR(~d_R -> chi^0_4 d)
     6.89176977E-06    2    -1000024         2   # BR(~d_R -> chi^-_1 u)
     2.58974461E-10    2    -1000037         2   # BR(~d_R -> chi^-_2 u)
     2.14475907E-06    2     1000039         1   # BR(~d_R -> ~G d)
DECAY   1000001     2.71820896E+01   # ~d_L
#    BR                NDA      ID1      ID2
     1.72347222E-02    2     1000022         1   # BR(~d_L -> chi^0_1 d)
     6.49174287E-03    2     1000023         1   # BR(~d_L -> chi^0_2 d)
     2.81691308E-04    2     1000025         1   # BR(~d_L -> chi^0_3 d)
     3.20236156E-01    2     1000035         1   # BR(~d_L -> chi^0_4 d)
     1.29402954E-02    2    -1000024         2   # BR(~d_L -> chi^-_1 u)
     6.42815226E-01    2    -1000037         2   # BR(~d_L -> chi^-_2 u)
     9.19554420E-13    2     2000002       -24   # BR(~d_L -> ~u_R W^-)
     1.26478941E-09    2     2000001        23   # BR(~d_L -> ~d_R Z)
     1.35234566E-09    2     2000001        25   # BR(~d_L -> ~d_R h^0)
     1.63846860E-07    2     1000039         1   # BR(~d_L -> ~G d)
DECAY   2000003     1.64521727E+00   # ~s_R
#    BR                NDA      ID1      ID2
     9.81182277E-01    2     1000022         3   # BR(~s_R -> chi^0_1 s)
     1.39874863E-02    2     1000023         3   # BR(~s_R -> chi^0_2 s)
     1.75298548E-03    2     1000025         3   # BR(~s_R -> chi^0_3 s)
     5.40089174E-05    2     1000035         3   # BR(~s_R -> chi^0_4 s)
     3.02099666E-03    2    -1000024         4   # BR(~s_R -> chi^-_1 c)
     1.13938595E-07    2    -1000037         4   # BR(~s_R -> chi^-_2 c)
     2.13179922E-06    2     1000039         3   # BR(~s_R -> ~G s)
DECAY   1000003     2.71875857E+01   # ~s_L
#    BR                NDA      ID1      ID2
     1.72312252E-02    2     1000022         3   # BR(~s_L -> chi^0_1 s)
     6.58144048E-03    2     1000023         3   # BR(~s_L -> chi^0_2 s)
     3.77981195E-04    2     1000025         3   # BR(~s_L -> chi^0_3 s)
     3.20170918E-01    2     1000035         3   # BR(~s_L -> chi^0_4 s)
     1.29545718E-02    2    -1000024         4   # BR(~s_L -> chi^-_1 c)
     6.42682380E-01    2    -1000037         4   # BR(~s_L -> chi^-_2 c)
     1.64723861E-07    2     2000004       -24   # BR(~s_L -> ~c_R W^-)
     5.57824650E-07    2     2000003        23   # BR(~s_L -> ~s_R Z)
     5.96441038E-07    2     2000003        25   # BR(~s_L -> ~s_R h^0)
     1.63809439E-07    2     1000039         3   # BR(~s_L -> ~G s)
DECAY   1000005     2.42836738E+01   # ~b_1
#    BR                NDA      ID1      ID2
     7.62570975E-02    2     1000022         5   # BR(~b_1 -> chi^0_1 b)
     2.25056557E-01    2     1000023         5   # BR(~b_1 -> chi^0_2 b)
     2.19031982E-01    2     1000025         5   # BR(~b_1 -> chi^0_3 b)
     1.50214166E-03    2     1000035         5   # BR(~b_1 -> chi^0_4 b)
     4.74103359E-01    2    -1000024         6   # BR(~b_1 -> chi^-_1 t)
     3.96547279E-03    2    -1000037         6   # BR(~b_1 -> chi^-_2 t)
     8.32632392E-05    2     1000006       -24   # BR(~b_1 -> ~t_1 W^-)
     1.27092561E-07    2     1000039         5   # BR(~b_1 -> ~G b)
DECAY   2000005     6.97835942E+01   # ~b_2
#    BR                NDA      ID1      ID2
     5.42217427E-03    2     1000022         5   # BR(~b_2 -> chi^0_1 b)
     7.79846365E-02    2     1000023         5   # BR(~b_2 -> chi^0_2 b)
     8.18907330E-02    2     1000025         5   # BR(~b_2 -> chi^0_3 b)
     1.16218502E-01    2     1000035         5   # BR(~b_2 -> chi^0_4 b)
     4.64509941E-01    2    -1000024         6   # BR(~b_2 -> chi^-_1 t)
     2.46750186E-01    2    -1000037         6   # BR(~b_2 -> chi^-_2 t)
     7.22377581E-03    2     1000006       -24   # BR(~b_2 -> ~t_1 W^-)
     5.10980279E-08    2     1000039         5   # BR(~b_2 -> ~G b)
DECAY   2000002     6.57281672E+00   # ~u_R
#    BR                NDA      ID1      ID2
     9.87050749E-01    2     1000022         2   # BR(~u_R -> chi^0_1 u)
     1.26053497E-02    2     1000023         2   # BR(~u_R -> chi^0_2 u)
     2.88799827E-04    2     1000025         2   # BR(~u_R -> chi^0_3 u)
     5.45562987E-05    2     1000035         2   # BR(~u_R -> chi^0_4 u)
     5.30616029E-10    2     1000024         1   # BR(~u_R -> chi^+_1 d)
     3.43917550E-13    2     1000037         1   # BR(~u_R -> chi^+_2 d)
     5.44193264E-07    2     1000039         2   # BR(~u_R -> ~G u)
DECAY   1000002     2.72253394E+01   # ~u_L
#    BR                NDA      ID1      ID2
     1.42665716E-02    2     1000022         2   # BR(~u_L -> chi^0_1 u)
     1.18680467E-02    2     1000023         2   # BR(~u_L -> chi^0_2 u)
     1.55078377E-04    2     1000025         2   # BR(~u_L -> chi^0_3 u)
     3.17411137E-01    2     1000035         2   # BR(~u_L -> chi^0_4 u)
     2.38843065E-02    2     1000024         1   # BR(~u_L -> chi^+_1 d)
     6.32414694E-01    2     1000037         1   # BR(~u_L -> chi^+_2 d)
     2.85721777E-09    2     2000001        24   # BR(~u_L -> ~d_R W^+)
     3.60592016E-13    2     2000002        23   # BR(~u_L -> ~u_R Z)
     2.61544985E-13    2     2000002        25   # BR(~u_L -> ~u_R h^0)
     1.63336441E-07    2     1000039         2   # BR(~u_L -> ~G u)
DECAY   2000004     6.57404562E+00   # ~c_R
#    BR                NDA      ID1      ID2
     9.86864923E-01    2     1000022         4   # BR(~c_R -> chi^0_1 c)
     1.26491361E-02    2     1000023         4   # BR(~c_R -> chi^0_2 c)
     3.35694876E-04    2     1000025         4   # BR(~c_R -> chi^0_3 c)
     5.45645721E-05    2     1000035         4   # BR(~c_R -> chi^0_4 c)
     9.50752902E-05    2     1000024         3   # BR(~c_R -> chi^+_1 s)
     6.15678758E-08    2     1000037         3   # BR(~c_R -> chi^+_2 s)
     5.44087721E-07    2     1000039         4   # BR(~c_R -> ~G c)
DECAY   1000004     2.72309466E+01   # ~c_L
#    BR                NDA      ID1      ID2
     1.42635980E-02    2     1000022         4   # BR(~c_L -> chi^0_1 c)
     1.18764796E-02    2     1000023         4   # BR(~c_L -> chi^0_2 c)
     1.66878612E-04    2     1000025         4   # BR(~c_L -> chi^0_3 c)
     3.17343313E-01    2     1000035         4   # BR(~c_L -> chi^0_4 c)
     2.40667859E-02    2     1000024         3   # BR(~c_L -> chi^+_1 s)
     6.32281411E-01    2     1000037         3   # BR(~c_L -> chi^+_2 s)
     1.26007255E-06    2     2000003        24   # BR(~c_L -> ~s_R W^+)
     6.45883236E-08    2     2000004        23   # BR(~c_L -> ~c_R Z)
     4.68421428E-08    2     2000004        25   # BR(~c_L -> ~c_R h^0)
     1.63298333E-07    2     1000039         4   # BR(~c_L -> ~G c)
DECAY   1000006     6.75660028E+01   # ~t_1
#    BR                NDA      ID1      ID2
     9.48873400E-05    2     1000022         4   # BR(~t_1 -> chi^0_1 c)
     9.00483817E-02    2     1000022         6   # BR(~t_1 -> chi^0_1 t)
     7.67576373E-05    2     1000023         4   # BR(~t_1 -> chi^0_2 c)
     2.20950464E-01    2     1000023         6   # BR(~t_1 -> chi^0_2 t)
     2.30265491E-01    2     1000025         6   # BR(~t_1 -> chi^0_3 t)
     1.32086964E-03    2     1000035         6   # BR(~t_1 -> chi^0_4 t)
     4.54535382E-01    2     1000024         5   # BR(~t_1 -> chi^+_1 b)
     2.69669125E-03    2     1000037         5   # BR(~t_1 -> chi^+_2 b)
     3.58253444E-08    2     1000039         6   # BR(~t_1 -> ~G t)
#    BR                NDA      ID1      ID2       ID3
     1.10394556E-05    3     1000022        24         5   # BR(~t_1 -> chi^0_1 W^+ b)
DECAY   2000006     7.08442750E+01   # ~t_2
#    BR                NDA      ID1      ID2
     6.35136269E-03    2     1000022         6   # BR(~t_2 -> chi^0_1 t)
     2.32956475E-01    2     1000023         6   # BR(~t_2 -> chi^0_2 t)
     2.38815786E-01    2     1000025         6   # BR(~t_2 -> chi^0_3 t)
     1.24692437E-01    2     1000035         6   # BR(~t_2 -> chi^0_4 t)
     1.55790115E-01    2     1000024         5   # BR(~t_2 -> chi^+_1 b)
     2.34898272E-01    2     1000037         5   # BR(~t_2 -> chi^+_2 b)
     1.49992463E-04    2     1000005        24   # BR(~t_2 -> ~b_1 W^+)
     3.65934384E-03    2     1000006        23   # BR(~t_2 -> ~t_1 Z)
     2.68616628E-03    2     1000006        25   # BR(~t_2 -> ~t_1 h^0)
     4.99719979E-08    2     1000039         6   # BR(~t_2 -> ~G t)
DECAY   1000024     1.55299832E+00   # chi^+_1
#    BR                NDA      ID1      ID2
     5.27664506E-08    2    -2000011        12   # BR(chi^+_1 -> ~e^+_R nu_e)
     2.25707512E-03    2    -2000013        14   # BR(chi^+_1 -> ~mu^+_R nu_mu)
     7.33266501E-01    2    -1000015        16   # BR(chi^+_1 -> ~tau^+_1 nu_tau)
     2.64245597E-01    2     1000022        24   # BR(chi^+_1 -> chi^0_1 W^+)
#    BR                NDA      ID1      ID2       ID3
     2.50387724E-10    3     1000022        -1         2   # BR(chi^+_1 -> chi^0_1 d_bar u)
     7.51051782E-10    3     1000022        -3         4   # BR(chi^+_1 -> chi^0_1 s_bar c)
     2.19333394E-04    3     1000022        -5         6   # BR(chi^+_1 -> chi^0_1 b_bar t)
     1.01716854E-06    3     1000022       -11        12   # BR(chi^+_1 -> chi^0_1 e^+ nu_e)
     1.04437433E-06    3     1000022       -13        14   # BR(chi^+_1 -> chi^0_1 mu^+ nu_mu)
     9.37791739E-06    3     1000022       -15        16   # BR(chi^+_1 -> chi^0_1 tau^+ nu_tau)
DECAY   1000037     1.39281836E+01   # chi^+_2
#    BR                NDA      ID1      ID2
     1.64618252E-12    2    -2000011        12   # BR(chi^+_2 -> ~e^+_R nu_e)
     7.66203686E-02    2    -1000011        12   # BR(chi^+_2 -> ~e^+_L nu_e)
     7.01644195E-08    2    -2000013        14   # BR(chi^+_2 -> ~mu^+_R nu_mu)
     7.66346616E-02    2    -1000013        14   # BR(chi^+_2 -> ~mu^+_L nu_mu)
     6.63087307E-06    2    -1000015        16   # BR(chi^+_2 -> ~tau^+_1 nu_tau)
     8.07374131E-02    2    -2000015        16   # BR(chi^+_2 -> ~tau^+_2 nu_tau)
     7.68654805E-02    2     1000012       -11   # BR(chi^+_2 -> ~nu_e e^+)
     7.68841103E-02    2     1000014       -13   # BR(chi^+_2 -> ~nu_mu mu^+)
     8.21832320E-02    2     1000016       -15   # BR(chi^+_2 -> ~nu_tau tau^+)
     6.24691591E-07    2     1000022        24   # BR(chi^+_2 -> chi^0_1 W^+)
     1.33799556E-01    2     1000023        24   # BR(chi^+_2 -> chi^0_2 W^+)
     1.29336491E-01    2     1000025        24   # BR(chi^+_2 -> chi^0_3 W^+)
     1.35764124E-01    2     1000024        23   # BR(chi^+_2 -> chi^+_1 Z)
     1.30193261E-01    2     1000024        25   # BR(chi^+_2 -> chi^+_1 h^0)
#    BR                NDA      ID1      ID2       ID3
     2.31822775E-09    3     1000024         2        -2   # BR(chi^+_2 -> chi^+_1 u u_bar)
     2.31960897E-09    3     1000024         4        -4   # BR(chi^+_2 -> chi^+_1 c c_bar)
     3.07465881E-05    3     1000024         6        -6   # BR(chi^+_2 -> chi^+_1 t t_bar)
     4.23791609E-09    3     1000024         1        -1   # BR(chi^+_2 -> chi^+_1 d d_bar)
     6.35208443E-09    3     1000024         3        -3   # BR(chi^+_2 -> chi^+_1 s s_bar)
     4.95664545E-06    3     1000024         5        -5   # BR(chi^+_2 -> chi^+_1 b b_bar)
     9.42294900E-14    3     1000024        11       -11   # BR(chi^+_2 -> chi^+_1 e^- e^+)
     4.02864328E-09    3     1000024        13       -13   # BR(chi^+_2 -> chi^+_1 mu^- mu^+)
     1.14437172E-06    3     1000024        15       -15   # BR(chi^+_2 -> chi^+_1 tau^- tau^+)
     2.93235059E-11    3     1000024        12       -12   # BR(chi^+_2 -> chi^+_1 nu_e nu_bar_e)
     6.88438551E-08    3     1000022        -1         2   # BR(chi^+_2 -> chi^0_1 d_bar u)
     6.89017362E-08    3     1000022        -3         4   # BR(chi^+_2 -> chi^0_1 s_bar c)
     1.73817407E-07    3     1000022        -5         6   # BR(chi^+_2 -> chi^0_1 b_bar t)
     9.45197943E-11    3     1000022       -13        14   # BR(chi^+_2 -> chi^0_1 mu^+ nu_mu)
     2.91836870E-08    3     1000022       -15        16   # BR(chi^+_2 -> chi^0_1 tau^+ nu_tau)
     1.69686970E-09    3     1000023        -1         2   # BR(chi^+_2 -> chi^0_2 d_bar u)
     2.72989605E-09    3     1000023        -3         4   # BR(chi^+_2 -> chi^0_2 s_bar c)
     4.90407936E-04    3     1000023        -5         6   # BR(chi^+_2 -> chi^0_2 b_bar t)
     4.76332352E-14    3     1000023       -11        12   # BR(chi^+_2 -> chi^0_2 e^+ nu_e)
     2.03647650E-09    3     1000023       -13        14   # BR(chi^+_2 -> chi^0_2 mu^+ nu_mu)
     5.77831717E-07    3     1000023       -15        16   # BR(chi^+_2 -> chi^0_2 tau^+ nu_tau)
     1.05222323E-10    3     1000025        -1         2   # BR(chi^+_2 -> chi^0_3 d_bar u)
     1.02263670E-09    3     1000025        -3         4   # BR(chi^+_2 -> chi^0_3 s_bar c)
     4.45257032E-04    3     1000025        -5         6   # BR(chi^+_2 -> chi^0_3 b_bar t)
     4.25490583E-14    3     1000025       -11        12   # BR(chi^+_2 -> chi^0_3 e^+ nu_e)
     1.81911643E-09    3     1000025       -13        14   # BR(chi^+_2 -> chi^0_3 mu^+ nu_mu)
     5.16471733E-07    3     1000025       -15        16   # BR(chi^+_2 -> chi^0_3 tau^+ nu_tau)
DECAY   1000022     3.21163274E+00   # chi^0_1
#    BR                NDA      ID1      ID2
     1.43621852E-01    2     2000011       -11   # BR(chi^0_1 -> ~e^-_R e^+)
     1.43621852E-01    2    -2000011        11   # BR(chi^0_1 -> ~e^+_R e^-)
     1.43843221E-01    2     2000013       -13   # BR(chi^0_1 -> ~mu^-_R mu^+)
     1.43843221E-01    2    -2000013        13   # BR(chi^0_1 -> ~mu^+_R mu^-)
     2.12534927E-01    2     1000015       -15   # BR(chi^0_1 -> ~tau^-_1 tau^+)
     2.12534927E-01    2    -1000015        15   # BR(chi^0_1 -> ~tau^+_1 tau^-)
     5.08232262E-10    2     1000039        22   # BR(chi^0_1 -> ~G photon)
     1.49736302E-10    2     1000039        23   # BR(chi^0_1 -> ~G Z)
     3.71019044E-12    2     1000039        25   # BR(chi^0_1 -> ~G h^0)
DECAY   1000023     1.69913217E+00   # chi^0_2
#    BR                NDA      ID1      ID2
     1.17236471E-02    2     2000011       -11   # BR(chi^0_2 -> ~e^-_R e^+)
     1.17236471E-02    2    -2000011        11   # BR(chi^0_2 -> ~e^+_R e^-)
     1.27372787E-02    2     2000013       -13   # BR(chi^0_2 -> ~mu^-_R mu^+)
     1.27372787E-02    2    -2000013        13   # BR(chi^0_2 -> ~mu^+_R mu^-)
     3.43606861E-01    2     1000015       -15   # BR(chi^0_2 -> ~tau^-_1 tau^+)
     3.43606861E-01    2    -1000015        15   # BR(chi^0_2 -> ~tau^+_1 tau^-)
     7.43380062E-03    2     1000022        23   # BR(chi^0_2 -> chi^0_1 Z)
     2.56419137E-01    2     1000022        25   # BR(chi^0_2 -> chi^0_1 h^0)
     2.10929153E-10    2     1000039        22   # BR(chi^0_2 -> ~G photon)
     5.37160189E-10    2     1000039        23   # BR(chi^0_2 -> ~G Z)
     3.38222985E-09    2     1000039        25   # BR(chi^0_2 -> ~G h^0)
     1.34926308E-07    2     1000022        22   # BR(chi^0_2 -> chi^0_1 photon)
#    BR                NDA      ID1      ID2       ID3
     9.83188660E-10    3     1000022         2        -2   # BR(chi^0_2 -> chi^0_1 u u_bar)
     9.84371242E-10    3     1000022         4        -4   # BR(chi^0_2 -> chi^0_1 c c_bar)
     1.49642555E-10    3     1000022         1        -1   # BR(chi^0_2 -> chi^0_1 d d_bar)
     6.95251071E-10    3     1000022         3        -3   # BR(chi^0_2 -> chi^0_1 s s_bar)
     1.27038433E-06    3     1000022         5        -5   # BR(chi^0_2 -> chi^0_1 b b_bar)
     1.52150427E-06    3     1000022        11       -11   # BR(chi^0_2 -> chi^0_1 e^- e^+)
     1.53868621E-06    3     1000022        13       -13   # BR(chi^0_2 -> chi^0_1 mu^- mu^+)
     6.49610826E-06    3     1000022        15       -15   # BR(chi^0_2 -> chi^0_1 tau^- tau^+)
     5.19209498E-07    3     1000022        12       -12   # BR(chi^0_2 -> chi^0_1 nu_e nu_bar_e)
     3.16206583E-11    3     1000024         1        -2   # BR(chi^0_2 -> chi^+_1 d u_bar)
     3.16206583E-11    3    -1000024        -1         2   # BR(chi^0_2 -> chi^-_1 d_bar u)
     1.01483996E-11    3     1000024         3        -4   # BR(chi^0_2 -> chi^+_1 s c_bar)
     1.01483996E-11    3    -1000024        -3         4   # BR(chi^0_2 -> chi^-_1 s_bar c)
     1.05844886E-11    3     1000024        11       -12   # BR(chi^0_2 -> chi^+_1 e^- nu_bar_e)
     1.05844886E-11    3    -1000024       -11        12   # BR(chi^0_2 -> chi^-_1 e^+ nu_e)
     1.05011660E-11    3     1000024        13       -14   # BR(chi^0_2 -> chi^+_1 mu^- nu_bar_mu)
     1.05011660E-11    3    -1000024       -13        14   # BR(chi^0_2 -> chi^-_1 mu^+ nu_mu)
     9.30151136E-13    3     1000024        15       -16   # BR(chi^0_2 -> chi^+_1 tau^- nu_bar_tau)
     9.30151136E-13    3    -1000024       -15        16   # BR(chi^0_2 -> chi^-_1 tau^+ nu_tau)
DECAY   1000025     1.57572209E+00   # chi^0_3
#    BR                NDA      ID1      ID2
     2.95078675E-04    2     2000011       -11   # BR(chi^0_3 -> ~e^-_R e^+)
     2.95078675E-04    2    -2000011        11   # BR(chi^0_3 -> ~e^+_R e^-)
     1.39712787E-03    2     2000013       -13   # BR(chi^0_3 -> ~mu^-_R mu^+)
     1.39712787E-03    2    -2000013        13   # BR(chi^0_3 -> ~mu^+_R mu^-)
     3.60415291E-01    2     1000015       -15   # BR(chi^0_3 -> ~tau^-_1 tau^+)
     3.60415291E-01    2    -1000015        15   # BR(chi^0_3 -> ~tau^+_1 tau^-)
     2.69974111E-01    2     1000022        23   # BR(chi^0_3 -> chi^0_1 Z)
     5.80169226E-03    2     1000022        25   # BR(chi^0_3 -> chi^0_1 h^0)
     1.18328977E-13    2     1000039        22   # BR(chi^0_3 -> ~G photon)
     7.44372713E-10    2     1000039        23   # BR(chi^0_3 -> ~G Z)
     3.54141777E-09    2     1000039        25   # BR(chi^0_3 -> ~G h^0)
     2.10530313E-07    2     1000022        22   # BR(chi^0_3 -> chi^0_1 photon)
     1.19049642E-10    2     1000023        22   # BR(chi^0_3 -> chi^0_2 photon)
#    BR                NDA      ID1      ID2       ID3
     8.77313351E-12    3     1000022         2        -2   # BR(chi^0_3 -> chi^0_1 u u_bar)
     1.16741103E-11    3     1000022         4        -4   # BR(chi^0_3 -> chi^0_1 c c_bar)
     3.67839228E-12    3     1000022         1        -1   # BR(chi^0_3 -> chi^0_1 d d_bar)
     6.44910999E-10    3     1000022         3        -3   # BR(chi^0_3 -> chi^0_1 s s_bar)
     1.48852210E-06    3     1000022         5        -5   # BR(chi^0_3 -> chi^0_1 b b_bar)
     7.51500166E-09    3     1000022        11       -11   # BR(chi^0_3 -> chi^0_1 e^- e^+)
     3.18772427E-08    3     1000022        13       -13   # BR(chi^0_3 -> chi^0_1 mu^- mu^+)
     7.30926851E-06    3     1000022        15       -15   # BR(chi^0_3 -> chi^0_1 tau^- tau^+)
     5.79578155E-08    3     1000022        12       -12   # BR(chi^0_3 -> chi^0_1 nu_e nu_bar_e)
     7.78751889E-10    3     1000023         2        -2   # BR(chi^0_3 -> chi^0_2 u u_bar)
     5.90406681E-10    3     1000023         4        -4   # BR(chi^0_3 -> chi^0_2 c c_bar)
     1.01143048E-09    3     1000023         1        -1   # BR(chi^0_3 -> chi^0_2 d d_bar)
     1.00924273E-09    3     1000023         3        -3   # BR(chi^0_3 -> chi^0_2 s s_bar)
     2.32572399E-10    3     1000023        11       -11   # BR(chi^0_3 -> chi^0_2 e^- e^+)
     2.32296638E-10    3     1000023        13       -13   # BR(chi^0_3 -> chi^0_2 mu^- mu^+)
     1.48282540E-10    3     1000023        15       -15   # BR(chi^0_3 -> chi^0_2 tau^- tau^+)
     1.39757932E-09    3     1000023        12       -12   # BR(chi^0_3 -> chi^0_2 nu_e nu_bar_e)
     1.50674000E-08    3     1000024         1        -2   # BR(chi^0_3 -> chi^+_1 d u_bar)
     1.50674000E-08    3    -1000024        -1         2   # BR(chi^0_3 -> chi^-_1 d_bar u)
     1.36906610E-08    3     1000024         3        -4   # BR(chi^0_3 -> chi^+_1 s c_bar)
     1.36906610E-08    3    -1000024        -3         4   # BR(chi^0_3 -> chi^-_1 s_bar c)
     5.02523368E-09    3     1000024        11       -12   # BR(chi^0_3 -> chi^+_1 e^- nu_bar_e)
     5.02523368E-09    3    -1000024       -11        12   # BR(chi^0_3 -> chi^-_1 e^+ nu_e)
     5.02162921E-09    3     1000024        13       -14   # BR(chi^0_3 -> chi^+_1 mu^- nu_bar_mu)
     5.02162921E-09    3    -1000024       -13        14   # BR(chi^0_3 -> chi^-_1 mu^+ nu_mu)
     4.13703594E-09    3     1000024        15       -16   # BR(chi^0_3 -> chi^+_1 tau^- nu_bar_tau)
     4.13703594E-09    3    -1000024       -15        16   # BR(chi^0_3 -> chi^-_1 tau^+ nu_tau)
DECAY   1000035     1.39343962E+01   # chi^0_4
#    BR                NDA      ID1      ID2
     1.45291031E-05    2     2000011       -11   # BR(chi^0_4 -> ~e^-_R e^+)
     1.45291031E-05    2    -2000011        11   # BR(chi^0_4 -> ~e^+_R e^-)
     3.76083378E-02    2     1000011       -11   # BR(chi^0_4 -> ~e^-_L e^+)
     3.76083378E-02    2    -1000011        11   # BR(chi^0_4 -> ~e^+_L e^-)
     1.44773492E-05    2     2000013       -13   # BR(chi^0_4 -> ~mu^-_R mu^+)
     1.44773492E-05    2    -2000013        13   # BR(chi^0_4 -> ~mu^+_R mu^-)
     3.76162678E-02    2     1000013       -13   # BR(chi^0_4 -> ~mu^-_L mu^+)
     3.76162678E-02    2    -1000013        13   # BR(chi^0_4 -> ~mu^+_L mu^-)
     3.03219865E-06    2     1000015       -15   # BR(chi^0_4 -> ~tau^-_1 tau^+)
     3.03219865E-06    2    -1000015        15   # BR(chi^0_4 -> ~tau^+_1 tau^-)
     3.98988998E-02    2     2000015       -15   # BR(chi^0_4 -> ~tau^-_2 tau^+)
     3.98988998E-02    2    -2000015        15   # BR(chi^0_4 -> ~tau^+_2 tau^-)
     3.90441809E-02    2     1000012       -12   # BR(chi^0_4 -> ~nu_e nu_bar_e)
     3.90441809E-02    2    -1000012        12   # BR(chi^0_4 -> ~nu^*_e nu_e)
     3.90527448E-02    2     1000014       -14   # BR(chi^0_4 -> ~nu_mu nu_bar_mu)
     3.90527448E-02    2    -1000014        14   # BR(chi^0_4 -> ~nu^*_mu nu_mu)
     4.14726081E-02    2     1000016       -16   # BR(chi^0_4 -> ~nu_tau nu_bar_tau)
     4.14726081E-02    2    -1000016        16   # BR(chi^0_4 -> ~nu^*_tau nu_tau)
     1.34594328E-01    2     1000024       -24   # BR(chi^0_4 -> chi^+_1 W^-)
     1.34594328E-01    2    -1000024        24   # BR(chi^0_4 -> chi^-_1 W^+)
     2.61806509E-09    2     1000022        23   # BR(chi^0_4 -> chi^0_1 Z)
     3.41123302E-03    2     1000023        23   # BR(chi^0_4 -> chi^0_2 Z)
     1.26673113E-01    2     1000025        23   # BR(chi^0_4 -> chi^0_3 Z)
     6.59310481E-08    2     1000022        25   # BR(chi^0_4 -> chi^0_1 h^0)
     1.27561109E-01    2     1000023        25   # BR(chi^0_4 -> chi^0_2 h^0)
     2.70519075E-03    2     1000025        25   # BR(chi^0_4 -> chi^0_3 h^0)
     9.76453743E-10    2     1000039        22   # BR(chi^0_4 -> ~G photon)
     3.55572096E-09    2     1000039        23   # BR(chi^0_4 -> ~G Z)
     6.50631643E-11    2     1000039        25   # BR(chi^0_4 -> ~G h^0)
     1.31969441E-07    2     1000022        22   # BR(chi^0_4 -> chi^0_1 photon)
     6.59266862E-07    2     1000023        22   # BR(chi^0_4 -> chi^0_2 photon)
     7.55229708E-07    2     1000025        22   # BR(chi^0_4 -> chi^0_3 photon)
#    BR                NDA      ID1      ID2       ID3
     3.11306862E-08    3     1000022         2        -2   # BR(chi^0_4 -> chi^0_1 u u_bar)
     3.11298178E-08    3     1000022         4        -4   # BR(chi^0_4 -> chi^0_1 c c_bar)
     1.42185414E-08    3     1000022         6        -6   # BR(chi^0_4 -> chi^0_1 t t_bar)
     3.77002199E-08    3     1000022         1        -1   # BR(chi^0_4 -> chi^0_1 d d_bar)
     3.77575190E-08    3     1000022         3        -3   # BR(chi^0_4 -> chi^0_1 s s_bar)
     1.78634743E-07    3     1000022         5        -5   # BR(chi^0_4 -> chi^0_1 b b_bar)
     6.62755984E-09    3     1000022        11       -11   # BR(chi^0_4 -> chi^0_1 e^- e^+)
     6.67442502E-09    3     1000022        13       -13   # BR(chi^0_4 -> chi^0_1 mu^- mu^+)
     2.83661343E-08    3     1000022        15       -15   # BR(chi^0_4 -> chi^0_1 tau^- tau^+)
     3.03762267E-09    3     1000023         2        -2   # BR(chi^0_4 -> chi^0_2 u u_bar)
     3.03738629E-09    3     1000023         4        -4   # BR(chi^0_4 -> chi^0_2 c c_bar)
     2.66381993E-06    3     1000023         6        -6   # BR(chi^0_4 -> chi^0_2 t t_bar)
     1.66919677E-09    3     1000023         1        -1   # BR(chi^0_4 -> chi^0_2 d d_bar)
     2.66635237E-09    3     1000023         3        -3   # BR(chi^0_4 -> chi^0_2 s s_bar)
     2.33771964E-06    3     1000023         5        -5   # BR(chi^0_4 -> chi^0_2 b b_bar)
     4.37681529E-12    3     1000023        11       -11   # BR(chi^0_4 -> chi^0_2 e^- e^+)
     1.88573459E-09    3     1000023        13       -13   # BR(chi^0_4 -> chi^0_2 mu^- mu^+)
     5.38616782E-07    3     1000023        15       -15   # BR(chi^0_4 -> chi^0_2 tau^- tau^+)
     1.27451520E-11    3     1000025         2        -2   # BR(chi^0_4 -> chi^0_3 u u_bar)
     1.43688426E-11    3     1000025         4        -4   # BR(chi^0_4 -> chi^0_3 c c_bar)
     1.49016398E-05    3     1000025         6        -6   # BR(chi^0_4 -> chi^0_3 t t_bar)
     2.54322468E-11    3     1000025         1        -1   # BR(chi^0_4 -> chi^0_3 d d_bar)
     1.00414215E-09    3     1000025         3        -3   # BR(chi^0_4 -> chi^0_3 s s_bar)
     2.29121049E-06    3     1000025         5        -5   # BR(chi^0_4 -> chi^0_3 b b_bar)
     7.46261273E-14    3     1000025        11       -11   # BR(chi^0_4 -> chi^0_3 e^- e^+)
     1.84478066E-09    3     1000025        13       -13   # BR(chi^0_4 -> chi^0_3 mu^- mu^+)
     5.28322530E-07    3     1000025        15       -15   # BR(chi^0_4 -> chi^0_3 tau^- tau^+)
     1.75408816E-09    3     1000024         1        -2   # BR(chi^0_4 -> chi^+_1 d u_bar)
     1.75408816E-09    3    -1000024        -1         2   # BR(chi^0_4 -> chi^-_1 d_bar u)
     2.82866910E-09    3     1000024         3        -4   # BR(chi^0_4 -> chi^+_1 s c_bar)
     2.82866910E-09    3    -1000024        -3         4   # BR(chi^0_4 -> chi^-_1 s_bar c)
     4.92047953E-04    3     1000024         5        -6   # BR(chi^0_4 -> chi^+_1 b t_bar)
     4.92047953E-04    3    -1000024        -5         6   # BR(chi^0_4 -> chi^-_1 b_bar t)
     4.83675278E-14    3     1000024        11       -12   # BR(chi^0_4 -> chi^+_1 e^- nu_bar_e)
     4.83675278E-14    3    -1000024       -11        12   # BR(chi^0_4 -> chi^-_1 e^+ nu_e)
     2.06780980E-09    3     1000024        13       -14   # BR(chi^0_4 -> chi^+_1 mu^- nu_bar_mu)
     2.06780980E-09    3    -1000024       -13        14   # BR(chi^0_4 -> chi^-_1 mu^+ nu_mu)
     5.82165780E-07    3     1000024        15       -16   # BR(chi^0_4 -> chi^+_1 tau^- nu_bar_tau)
     5.82165780E-07    3    -1000024       -15        16   # BR(chi^0_4 -> chi^-_1 tau^+ nu_tau)
DECAY   1000021     2.87918462E+01   # ~g
#    BR                NDA      ID1      ID2
     4.35861556E-02    2     2000002        -2   # BR(~g -> ~u_R u_bar)
     4.35861556E-02    2    -2000002         2   # BR(~g -> ~u^*_R u)
     1.63950232E-02    2     1000002        -2   # BR(~g -> ~u_L u_bar)
     1.63950232E-02    2    -1000002         2   # BR(~g -> ~u^*_L u)
     4.35865596E-02    2     2000004        -4   # BR(~g -> ~c_R c_bar)
     4.35865596E-02    2    -2000004         4   # BR(~g -> ~c^*_R c)
     1.63975583E-02    2     1000004        -4   # BR(~g -> ~c_L c_bar)
     1.63975583E-02    2    -1000004         4   # BR(~g -> ~c^*_L c)
     2.11386640E-03    2     1000006        -4   # BR(~g -> ~t_1 c_bar)
     2.11386640E-03    2    -1000006         4   # BR(~g -> ~t^*_1 c)
     9.85091081E-02    2     1000006        -6   # BR(~g -> ~t_1 t_bar)
     9.85091081E-02    2    -1000006         6   # BR(~g -> ~t^*_1 t)
     4.23891008E-02    2     2000006        -6   # BR(~g -> ~t_2 t_bar)
     4.23891008E-02    2    -2000006         6   # BR(~g -> ~t^*_2 t)
     4.65270939E-02    2     2000001        -1   # BR(~g -> ~d_R d_bar)
     4.65270939E-02    2    -2000001         1   # BR(~g -> ~d^*_R d)
     1.62436001E-02    2     1000001        -1   # BR(~g -> ~d_L d_bar)
     1.62436001E-02    2    -1000001         1   # BR(~g -> ~d^*_L d)
     4.65352188E-02    2     2000003        -3   # BR(~g -> ~s_R s_bar)
     4.65352188E-02    2    -2000003         3   # BR(~g -> ~s^*_R s)
     1.62462211E-02    2     1000003        -3   # BR(~g -> ~s_L s_bar)
     1.62462211E-02    2    -1000003         3   # BR(~g -> ~s^*_L s)
     6.71724806E-02    2     1000005        -5   # BR(~g -> ~b_1 b_bar)
     6.71724806E-02    2    -1000005         5   # BR(~g -> ~b^*_1 b)
     4.42233602E-02    2     2000005        -5   # BR(~g -> ~b_2 b_bar)
     4.42233602E-02    2    -2000005         5   # BR(~g -> ~b^*_2 b)
     1.48071818E-06    2     1000022        21   # BR(~g -> chi^0_1 g)
     6.76369604E-05    2     1000023        21   # BR(~g -> chi^0_2 g)
     7.72565909E-05    2     1000025        21   # BR(~g -> chi^0_3 g)
     2.93217828E-06    2     1000035        21   # BR(~g -> chi^0_4 g)
DECAY        25     2.63135368E-03   # h^0
#    BR                NDA      ID1      ID2
     9.80250585E-09    2          11       -11   # BR(h^0 -> e^- e^+)
     4.19056381E-04    2          13       -13   # BR(h^0 -> mu^- mu^+)
     1.16286028E-01    2          15       -15   # BR(h^0 -> tau^- tau^+)
     6.01071418E-07    2           1        -1   # BR(h^0 -> d d_bar)
     2.65068504E-04    2           3        -3   # BR(h^0 -> s s_bar)
     5.73581382E-01    2           5        -5   # BR(h^0 -> b b_bar)
     2.54982390E-07    2           2        -2   # BR(h^0 -> u u_bar)
     4.56862992E-02    2           4        -4   # BR(h^0 -> c c_bar)
     6.86545589E-02    2          21        21   # BR(h^0 -> g g)
     3.51089214E-03    2          22        22   # BR(h^0 -> photon photon)
# writing decays into V V* as 3-body decays
#    BR                NDA      ID1      ID2       ID3
     8.71630838E-03    3          24        11        12   # BR(h^0 -> W^+ e^- nu_e)
     8.71630838E-03    3          24        13        14   # BR(h^0 -> W^+ mu^- nu_mu)
     8.71630838E-03    3          24        15        16   # BR(h^0 -> W^+ tau^- nu_tau)
     3.05070793E-02    3          24         1        -2   # BR(h^0 -> W^+ d u_bar)
     3.05070793E-02    3          24         3        -4   # BR(h^0 -> W^+ s c_bar)
     8.71630838E-03    3         -24       -11       -12   # BR(h^0 -> W^- e^+ nu_bar_e)
     8.71630838E-03    3         -24       -13       -14   # BR(h^0 -> W^- mu^+ nu_bar_mu)
     8.71630838E-03    3         -24       -15       -16   # BR(h^0 -> W^- tau^+ nu_bar_tau)
     3.05070793E-02    3         -24        -1         2   # BR(h^0 -> W^- d_bar u)
     3.05070793E-02    3         -24        -3         4   # BR(h^0 -> W^- s_bar c)
     6.04438857E-04    3          23        11       -11   # BR(h^0 -> Z e^- e^+)
     6.04438857E-04    3          23        13       -13   # BR(h^0 -> Z mu^- mu^+)
     5.18090449E-04    3          23        15       -15   # BR(h^0 -> Z tau^- tau^+)
     3.45393633E-03    3          23        12       -12   # BR(h^0 -> Z nu_e nu_bar_e)
     2.41775543E-03    3          23         1        -1   # BR(h^0 -> Z u u_bar)
     2.41775543E-03    3          23         3        -3   # BR(h^0 -> Z c c_bar)
     2.41775543E-03    3          23         5        -5   # BR(h^0 -> Z t t_bar)
     2.41775543E-03    3          23         2        -2   # BR(h^0 -> Z u u_bar)
     2.41775543E-03    3          23         4        -4   # BR(h^0 -> Z c c_bar)
DECAY        35     2.15791266E+01   # H^0
#    BR                NDA      ID1      ID2
     1.58166700E-08    2          11       -11   # BR(H^0 -> e^- e^+)
     6.76218432E-04    2          13       -13   # BR(H^0 -> mu^- mu^+)
     1.92122668E-01    2          15       -15   # BR(H^0 -> tau^- tau^+)
     7.92797810E-07    2           1        -1   # BR(H^0 -> d d_bar)
     3.49623421E-04    2           3        -3   # BR(H^0 -> s s_bar)
     8.05211621E-01    2           5        -5   # BR(H^0 -> b b_bar)
     1.66579819E-13    2           2        -2   # BR(H^0 -> u u_bar)
     2.98530124E-08    2           4        -4   # BR(H^0 -> c c_bar)
     1.54317730E-03    2           6        -6   # BR(H^0 -> t t_bar)
     2.86289736E-07    2     2000011  -2000011   # BR(H^0 -> ~e^-_R ~e^+_R)
     2.92575793E-07    2     2000013  -2000013   # BR(H^0 -> ~mu^-_R ~mu^+_R)
     4.94652755E-06    2     1000015  -1000015   # BR(H^0 -> ~tau^-_1 ~tau^+_1)
     1.60966811E-05    2          23        23   # BR(H^0 -> Z Z)
     3.05574305E-05    2          24       -24   # BR(H^0 -> W^+ W^-)
     1.13741151E-05    2          25        25   # BR(H^0 -> h^0 h^0)
     3.22627282E-05    2          21        21   # BR(H^0 -> g g)
     3.66487559E-08    2          22        22   # BR(H^0 -> photon photon)
DECAY        36     2.15779978E+01   # A^0
#    BR                NDA      ID1      ID2
     1.58179897E-08    2          11       -11   # BR(A^0 -> e^- e^+)
     6.76274879E-04    2          13       -13   # BR(A^0 -> mu^- mu^+)
     1.92140588E-01    2          15       -15   # BR(A^0 -> tau^- tau^+)
     7.92863619E-07    2           1        -1   # BR(A^0 -> d d_bar)
     3.49652483E-04    2           3        -3   # BR(A^0 -> s s_bar)
     8.05283872E-01    2           5        -5   # BR(A^0 -> b b_bar)
     1.51574497E-13    2           2        -2   # BR(A^0 -> u u_bar)
     2.71638734E-08    2           4        -4   # BR(A^0 -> c c_bar)
     1.50591311E-03    2           6        -6   # BR(A^0 -> t t_bar)
     3.00877628E-05    2          25        23   # BR(A^0 -> h^0 Z)
     1.27435147E-05    2          21        21   # BR(A^0 -> g g)
     3.21747791E-08    2          22        22   # BR(A^0 -> photon photon)
DECAY        37     1.88793024E+01   # H^+
#    BR                NDA      ID1      ID2
     1.81326799E-08    2         -11        12   # BR(H^+ -> e^+ nu_e)
     7.75236054E-04    2         -13        12   # BR(H^+ -> mu^+ nu_e)
     2.20257058E-01    2         -15        12   # BR(H^+ -> tau^+ nu_e)
     8.01716569E-07    2          -1         2   # BR(H^+ -> d_bar u)
     3.53583115E-04    2          -3         4   # BR(H^+ -> s_bar c)
     7.78579484E-01    2          -5         6   # BR(H^+ -> b_bar t)
     3.38187349E-05    2          25        24   # BR(H^+ -> h^0 W^+)
DECAY         6     2.43000000E+00   # top
#    BR                NDA      ID1      ID2
     1.00000000E+00    2           5        24   # BR(t -> b W)
Block HiggsBoundsInputHiggsCouplingsFermions
# ScalarNormEffCoupSq PseudoSNormEffCoupSq NP IP1 IP2 IP2
    1.09901986E+00    0.00000000E+00        3  25   5   5  # h0-b-b eff. coupling^2, normalised to SM
    1.59990098E+03    0.00000000E+00        3  35   5   5  # H0-b-b eff. coupling^2, normalised to SM
    0.00000000E+00    1.60000000E+03        3  36   5   5  # A0-b-b eff. coupling^2, normalised to SM
#
    9.99938113E-01    0.00000000E+00        3  25   6   6  # h0-t-t eff. coupling^2, normalised to SM
    6.86887412E-04    0.00000000E+00        3  35   6   6  # H0-t-t eff. coupling^2, normalised to SM
    0.00000000E+00    6.25000000E-04        3  36   6   6  # A0-t-t eff. coupling^2, normalised to SM
#
    1.09901986E+00    0.00000000E+00        3  25  15  15  # h0-tau-tau eff. coupling^2, normalised to SM
    1.59990098E+03    0.00000000E+00        3  35  15  15  # H0-tau-tau eff. coupling^2, normalised to SM
    0.00000000E+00    1.60000000E+03        3  36  15  15  # A0-tau-tau eff. coupling^2, normalised to SM
#
Block HiggsBoundsInputHiggsCouplingsBosons
    9.99998539E-01        3  25  24  24  # h0-W-W eff. coupling^2, normalised to SM
    1.46060584E-06        3  35  24  24  # H0-W-W eff. coupling^2, normalised to SM
    0.00000000E+00        3  36  24  24  # A0-W-W eff. coupling^2, normalised to SM
#
    9.99998539E-01        3  25  23  23  # h0-Z-Z eff. coupling^2, normalised to SM
    1.46060584E-06        3  35  23  23  # H0-Z-Z eff. coupling^2, normalised to SM
    0.00000000E+00        3  36  23  23  # A0-Z-Z eff. coupling^2, normalised to SM
#
    1.15723909E+00        3  25  21  21  # h0-g-g eff. coupling^2, normalised to SM
    1.84599603E-02        3  35  21  21  # H0-g-g eff. coupling^2, normalised to SM
    1.52760892E-01        3  36  21  21  # A0-g-g eff. coupling^2, normalised to SM
#
    0.00000000E+00        3  25  25  23  # h0-h0-Z eff. coupling^2, normalised to SM
    0.00000000E+00        3  35  25  23  # H0-h0-Z eff. coupling^2, normalised to SM
    1.46060584E-06        3  36  25  23  # A0-h0-Z eff. coupling^2, normalised to SM
    0.00000000E+00        3  35  35  23  # H0-H0-Z eff. coupling^2, normalised to SM
    9.99998539E-01        3  36  35  23  # A0-H0-Z eff. coupling^2, normalised to SM
    0.00000000E+00        3  36  36  23  # A0-A0-Z eff. coupling^2, normalised to SM
#
    0.00000000E+00        4  25  21  21  23  # h0-g-g-Z eff. coupling^2, normalised to SM
    0.00000000E+00        4  35  21  21  23  # H0-g-g-Z eff. coupling^2, normalised to SM
    0.00000000E+00        4  36  21  21  23  # A0-g-g-Z eff. coupling^2, normalised to SM
Block SPhenoLowEnergy  # low energy observables
    1    3.11570282E-04   # BR(b -> s gamma)
    2    1.59142120E-06   # BR(b -> s mu+ mu-)
    3    3.54051982E-05   # BR(b -> s nu nu)
    4    5.23477052E-11   # BR(Bd -> mu+ mu-)
    5    3.42267476E-09   # BR(Bs -> mu+ mu-)
    6    1.05791016E-04   # BR(B_u -> tau nu)
    7    9.56576873E-01   # BR(B_u -> tau nu)/BR(B_u -> tau nu)_SM
    8    2.73807014E-01   # |Delta(M_Bd)| [ps^-1] 
    9    2.03067006E+01   # |Delta(M_Bs)| [ps^-1] 
   20    1.63469699E-14   # Delta(g-2)_electron/2
   21    3.54454210E-10   # Delta(g-2)_muon/2
   22    2.73068820E-08   # Delta(g-2)_tau/2
   23    0.00000000E+00   # electric dipole moment of the electron
   24    0.00000000E+00   # electric dipole moment of the muon
   25    0.00000000E+00   # electric dipole moment of the tau
   26    0.00000000E+00   # Br(mu -> e gamma)
   27    0.00000000E+00   # Br(tau -> e gamma)
   28    0.00000000E+00   # Br(tau -> mu gamma)
   29    0.00000000E+00   # Br(mu -> 3 e)
   30    0.00000000E+00   # Br(tau -> 3 e)
   31    0.00000000E+00   # Br(tau -> 3 mu)
   39    1.08301871E-03   # Delta(rho_parameter)
   40    0.00000000E+00   # BR(Z -> e mu)
   41    0.00000000E+00   # BR(Z -> e tau)
   42    0.00000000E+00   # BR(Z -> mu tau)
Block FWCOEF Q=  9.11876000E+01  # Wilson coefficients at scale Q
#    id        order  M        value         comment
Block FWCOEF Q=  1.60000000E+02  # Wilson coefficients at scale Q
#    id        order  M        value         comment
     0305 4422   00   0    -1.87760386E-01   # C7
     0305 4422   00   1    -1.25963777E-02   # C7
     0305 4322   00   1    -2.71780229E-04   # C7'
     0305 6421   00   0    -9.48903332E-02   # C8
     0305 6421   00   1    -1.95729857E-02   # C8
     0305 6321   00   1    -4.18995610E-04   # C8'
 03051111 4133   00   0    -1.44253020E+00   # C9 e+e-
 03051111 4133   00   1     5.37923552E-04   # C9 e+e-
 03051111 4233   00   1    -4.66826583E-05   # C9' e+e-
 03051111 4137   00   0    -3.93870935E+00   # C10 e+e-
 03051111 4137   00   1     1.76630889E-03   # C10 e+e-
 03051111 4237   00   1     1.27307794E-03   # C10' e+e-
 03051313 4133   00   0    -1.44253020E+00   # C9 mu+mu-
 03051313 4133   00   1     5.37810374E-04   # C9 mu+mu-
 03051313 4233   00   1    -4.66915401E-05   # C9' mu+mu-
 03051313 4137   00   0    -3.93870935E+00   # C10 mu+mu-
 03051313 4137   00   1     1.76619557E-03   # C10 mu+mu-
 03051313 4237   00   1     1.27308682E-03   # C10' mu+mu-
 03051212 4237   00   0     1.49018882E+00   # C11 nu_1 nu_1
 03051212 4237   00   1    -4.26456134E-04   # C11 nu_1 nu_1
 03051212 4137   00   1    -3.06673055E-04   # C11' nu_1 nu_1
 03051414 4237   00   0     1.49018882E+00   # C11 nu_2 nu_2
 03051414 4237   00   1    -4.26456084E-04   # C11 nu_2 nu_2
 03051414 4137   00   1    -3.06670934E-04   # C11' nu_2 nu_2
 03051616 4237   00   0     1.49018882E+00   # C11 nu_3 nu_3
 03051616 4237   00   1    -4.26432041E-04   # C11 nu_3 nu_3
 03051616 4137   00   1    -3.06073250E-04   # C11' nu_3 nu_3
