#
#                              ======================
#                              | THE SUSYHIT OUTPUT |
#                              ======================
#
#
#              ------------------------------------------------------
#              |     This is the output of the SUSY-HIT package     |
#              |  created by A.Djouadi, M.Muehlleitner and M.Spira. |
#              |  In case of problems with SUSY-HIT email to        |
#              |           margarete.muehlleitner@cern.ch           |
#              |           michael.spira@psi.ch                     |
#              |           abdelhak.djouadi@cern.ch                 |
#              ------------------------------------------------------
#
#              ------------------------------------------------------
#              |  SUSY Les Houches Accord - MSSM Spectrum + Decays  |
#              |              based on the decay programs           |
#              |                                                    |
#              |                     SDECAY 1.3b                    |
#              |                                                    |
#              |  Authors: M.Muhlleitner, A.Djouadi and Y.Mambrini  |
#              |  Ref.:    Comput.Phys.Commun.168(2005)46           |
#              |           [hep-ph/0311167]                         |
#              |                                                    |
#              |                     HDECAY 3.4                     |
#              |                                                    |
#              |  By: A.Djouadi,J.Kalinowski,M.Muhlleitner,M.Spira  |
#              |  Ref.:    Comput.Phys.Commun.108(1998)56           |
#              |           [hep-ph/9704448]                         |
#              |                                                    |
#              |                                                    |
#              |  If not stated otherwise all DRbar couplings and   |
#              |  soft SUSY breaking masses are given at the scale  |
#              |  Q=  0.91187600E+02
#              |                                                    |
#              ------------------------------------------------------
#
#
BLOCK DCINFO  # Decay Program information
     1   SDECAY/HDECAY # decay calculator
     2   1.3b  /3.4    # version number
#
BLOCK SPINFO  # Spectrum calculator information
     1   SuSpect     # RGE +Spectrum calculator            
     2   2.41         # version number                     
#
BLOCK MODSEL  # Model selection
     1     0   # #general MSSM low scale                           
#
BLOCK SMINPUTS  # Standard Model inputs
         1     1.27934000E+02   # alpha_em^-1(M_Z)^MSbar
         2     1.16639000E-05   # G_F [GeV^-2]
         3     1.17200000E-01   # alpha_S(M_Z)^MSbar
         4     9.11870000E+01   # M_Z pole mass
         5     4.25000000E+00   # mb(mb)^MSbar
         6     1.72500000E+02   # mt pole mass
         7     1.77700000E+00   # mtau pole mass
#
BLOCK MINPAR  # Input parameters - minimal models
#
BLOCK EXTPAR  # Input parameters - non-minimal models
         0     9.11876000E+01   # EWSB                
         1     9.00000000E+02   # M_1                 
         2     1.00000000E+05   # M_2                 
         3     1.00000000E+05   # M_3                 
        11     0.00000000E+00   # A_t                 
        12     0.00000000E+00   # A_b                 
        13     0.00000000E+00   # A_tau               
        14     0.00000000E+00   # A_u                 
        15     0.00000000E+00   # A_d                 
        16     0.00000000E+00   # A_e                 
        23     3.50000000E+03   # mu(EWSB)            
        25     1.50000000E+00   # tanbeta(in)         
        26     2.00000000E+03   # MA_pole             
        31     1.00000000E+05   # M_eL                
        32     1.00000000E+05   # M_muL               
        33     1.00000000E+05   # M_tauL              
        34     1.00000000E+05   # M_eR                
        35     1.00000000E+05   # M_muR               
        36     1.00000000E+05   # M_tauR              
        41     1.60000000E+03   # M_q1L               
        42     1.60000000E+03   # M_q2L               
        43     1.60000000E+03   # M_q3L               
        44     1.00000000E+05   # M_uR                
        45     1.00000000E+05   # M_cR                
        46     1.00000000E+05   # M_tR                
        47     1.60000000E+03   # M_dR                
        48     1.60000000E+03   # M_sR                
        49     1.60000000E+03   # M_bR                
#
BLOCK MASS  # Mass Spectrum
# PDG code           mass       particle
        24     8.05829949E+01   # W+
        25     1.25000000E+02   # h
        35     2.00401876E+03   # H
        36     2.00000000E+03   # A
        37     2.02369450E+03   # H+
         5     4.87877839E+00   # b-quark pole mass calculated from mb(mb)_Msbar
   1000001     1.60041500E+03   # ~d_L
   2000001     1.60007997E+03   # ~d_R
   1000002     1.59966488E+03   # ~u_L
   2000002     9.99999974E+04   # ~u_R
   1000003     1.60041500E+03   # ~s_L
   2000003     1.60007997E+03   # ~s_R
   1000004     1.59966488E+03   # ~c_L
   2000004     9.99999974E+04   # ~c_R
   1000005     1.59600058E+03   # ~b_1
   2000005     1.60448733E+03   # ~b_2
   1000006     1.60644703E+03   # ~t_1
   2000006     1.00000106E+05   # ~t_2
   1000011     1.00000004E+05   # ~e_L
   2000011     1.00000004E+05   # ~e_R
   1000012     9.99999921E+04   # ~nu_eL
   1000013     1.00000004E+05   # ~mu_L
   2000013     1.00000004E+05   # ~mu_R
   1000014     9.99999921E+04   # ~nu_muL
   1000015     9.99999574E+04   # ~tau_1
   2000015     1.00000051E+05   # ~tau_2
   1000016     9.99999921E+04   # ~nu_tauL
   1000021     1.00000000E+05   # ~g
   1000022     8.99279462E+02   # ~chi_10
   1000023    -3.50001977E+03   # ~chi_20
   1000025     3.50067580E+03   # ~chi_30
   1000035     1.00000065E+05   # ~chi_40
   1000024     3.49994013E+03   # ~chi_1+
   1000037     1.00000065E+05   # ~chi_2+
   1000039     1.00000000E-09   # ~gravitino
#
BLOCK NMIX  # Neutralino Mixing Matrix
  1  1     9.99856163E-01   # N_11
  1  2    -1.28548574E-05   # N_12
  1  3     1.33179761E-02   # N_13
  1  4    -1.05016843E-02   # N_14
  2  1     1.99146131E-03   # N_21
  2  2    -1.49704817E-04   # N_22
  2  3    -7.07095387E-01   # N_23
  2  4    -7.07115356E-01   # N_24
  3  1     1.68430426E-02   # N_31
  3  2     8.02661066E-04   # N_32
  3  3    -7.06992597E-01   # N_33
  3  4     7.07019897E-01   # N_34
  4  1     3.68115353E-07   # N_41
  4  2    -9.99999667E-01   # N_42
  4  3    -4.61791201E-04   # N_43
  4  4     6.73491141E-04   # N_44
#
BLOCK UMIX  # Chargino Mixing Matrix U
  1  1    -6.53071173E-04   # U_11
  1  2     9.99999787E-01   # U_12
  2  1     9.99999787E-01   # U_21
  2  2     6.53071173E-04   # U_22
#
BLOCK VMIX  # Chargino Mixing Matrix V
  1  1    -9.52460217E-04   # V_11
  1  2     9.99999546E-01   # V_12
  2  1     9.99999546E-01   # V_21
  2  2     9.52460217E-04   # V_22
#
BLOCK STOPMIX  # Stop Mixing Matrix
  1  1     9.99999999E-01   # cos(theta_t)
  1  2     4.47213589E-05   # sin(theta_t)
  2  1    -4.47213589E-05   # -sin(theta_t)
  2  2     9.99999999E-01   # cos(theta_t)
#
BLOCK SBOTMIX  # Sbottom Mixing Matrix
  1  1     6.93008862E-01   # cos(theta_b)
  1  2     7.20929065E-01   # sin(theta_b)
  2  1    -7.20929065E-01   # -sin(theta_b)
  2  2     6.93008862E-01   # cos(theta_b)
#
BLOCK STAUMIX  # Stau Mixing Matrix
  1  1     7.06182076E-01   # cos(theta_tau)
  1  2     7.08030279E-01   # sin(theta_tau)
  2  1    -7.08030279E-01   # -sin(theta_tau)
  2  2     7.06182076E-01   # cos(theta_tau)
#
BLOCK ALPHA  # Higgs mixing
          -5.90304272E-01   # Mixing angle in the neutral Higgs boson sector
#
BLOCK HMIX Q=  9.11876000E+01  # DRbar Higgs Parameters
         1     3.50000000E+03   # mu(Q)               
         2     1.49999982E+00   # tanbeta(Q)          
         3     2.54871524E+02   # vev(Q)              
         4    -6.82170720E+07   # MA^2(Q)             
#
BLOCK GAUGE Q=  9.11876000E+01  # The gauge couplings
     1     3.50584106E-01   # gprime(Q) DRbar
     2     6.19928965E-01   # g(Q) DRbar
     3     1.02445345E+00   # g3(Q) DRbar
#
BLOCK AU Q=  9.11876000E+01  # The trilinear couplings
  1  1     0.00000000E+00   # A_u(Q) DRbar
  2  2     0.00000000E+00   # A_c(Q) DRbar
  3  3     0.00000000E+00   # A_t(Q) DRbar
#
BLOCK AD Q=  9.11876000E+01  # The trilinear couplings
  1  1     0.00000000E+00   # A_d(Q) DRbar
  2  2     0.00000000E+00   # A_s(Q) DRbar
  3  3     0.00000000E+00   # A_b(Q) DRbar
#
BLOCK AE Q=  9.11876000E+01  # The trilinear couplings
  1  1     0.00000000E+00   # A_e(Q) DRbar
  2  2     0.00000000E+00   # A_mu(Q) DRbar
  3  3     0.00000000E+00   # A_tau(Q) DRbar
#
BLOCK Yu Q=  9.11876000E+01  # The Yukawa couplings
  1  1     0.00000000E+00   # y_u(Q) DRbar
  2  2     0.00000000E+00   # y_c(Q) DRbar
  3  3     9.83638351E-01   # y_t(Q) DRbar
#
BLOCK Yd Q=  9.11876000E+01  # The Yukawa couplings
  1  1     0.00000000E+00   # y_d(Q) DRbar
  2  2     0.00000000E+00   # y_s(Q) DRbar
  3  3     2.58562045E-02   # y_b(Q) DRbar
#
BLOCK Ye Q=  9.11876000E+01  # The Yukawa couplings
  1  1     0.00000000E+00   # y_e(Q) DRbar
  2  2     0.00000000E+00   # y_mu(Q) DRbar
  3  3     1.77396906E-02   # y_tau(Q) DRbar
#
BLOCK MSOFT Q=  9.11876000E+01  # The soft SUSY breaking masses at the scale Q
         1     9.00000000E+02   # M_1                 
         2     1.00000000E+05   # M_2                 
         3     1.00000000E+05   # M_3                 
        14     0.00000000E+00   # A_u                 
        15     0.00000000E+00   # A_d                 
        16     0.00000000E+00   # A_e                 
        21     6.31607588E+08   # M^2_Hd              
        22    -1.14907290E+09   # M^2_Hu              
        31     1.00000000E+05   # M_eL                
        32     1.00000000E+05   # M_muL               
        33     1.00000000E+05   # M_tauL              
        34     1.00000000E+05   # M_eR                
        35     1.00000000E+05   # M_muR               
        36     1.00000000E+05   # M_tauR              
        41     1.60000000E+03   # M_q1L               
        42     1.60000000E+03   # M_q2L               
        43     1.60000000E+03   # M_q3L               
        44     1.00000000E+05   # M_uR                
        45     1.00000000E+05   # M_cR                
        46     1.00000000E+05   # M_tR                
        47     1.60000000E+03   # M_dR                
        48     1.60000000E+03   # M_sR                
        49     1.60000000E+03   # M_bR                
#
#
#
#                             =================
#                             |The decay table|
#                             =================
#
# - The QCD corrections to the decays gluino -> squark  + quark
#                                     squark -> gaugino + quark_prime
#                                     squark -> squark_prime + Higgs
#                                     squark -> gluino  + quark
#   are included.
#
# - The multi-body decays for the inos, stops and sbottoms are included.
#
# - The loop induced decays for the gluino, neutralinos and stops
#   are included.
#
# - The SUSY decays of the top quark are included.
#
# - Possible decays of the NLSP in GMSB models are included.
#
#
#         PDG            Width
DECAY         6     1.32643974E+00   # top decays
#          BR         NDA      ID1       ID2
     1.00000000E+00    2           5        24   # BR(t ->  b    W+)
#
#         PDG            Width
DECAY   1000021     1.E-04   # gluino decays (OJ Mods)
#          BR         NDA      ID1       ID2
     1.12067720E-03    2     1000001        -1   # BR(~g -> ~d_L  db)
     1.12067720E-03    2    -1000001         1   # BR(~g -> ~d_L* d )
     1.12067744E-03    2     2000001        -1   # BR(~g -> ~d_R  db)
     1.12067744E-03    2    -2000001         1   # BR(~g -> ~d_R* d )
     1.12067774E-03    2     1000002        -2   # BR(~g -> ~u_L  ub)
     1.12067774E-03    2    -1000002         2   # BR(~g -> ~u_L* u )
     3.03186400E-18    2     2000002        -2   # BR(~g -> ~u_R  ub)
     3.03186400E-18    2    -2000002         2   # BR(~g -> ~u_R* u )
     1.12067720E-03    2     1000003        -3   # BR(~g -> ~s_L  sb)
     1.12067720E-03    2    -1000003         3   # BR(~g -> ~s_L* s )
     1.12067744E-03    2     2000003        -3   # BR(~g -> ~s_R  sb)
     1.12067744E-03    2    -2000003         3   # BR(~g -> ~s_R* s )
     1.12067774E-03    2     1000004        -4   # BR(~g -> ~c_L  cb)
     1.12067774E-03    2    -1000004         4   # BR(~g -> ~c_L* c )
     3.03186400E-18    2     2000004        -4   # BR(~g -> ~c_R  cb)
     3.03186400E-18    2    -2000004         4   # BR(~g -> ~c_R* c )
     2.38431076E-01    2     1000005        -5   # BR(~g -> ~b_1  bb)
     2.38431076E-01    2    -1000005         5   # BR(~g -> ~b_1* b )
     2.38033535E-01    2     2000005        -5   # BR(~g -> ~b_2  bb)
     2.38033535E-01    2    -2000005         5   # BR(~g -> ~b_2* b )
     1.10291839E-03    2     1000006        -6   # BR(~g -> ~t_1  tb)
     1.10291839E-03    2    -1000006         6   # BR(~g -> ~t_1* t )
     3.14168115E-02    2     1000039        21   # BR(~g -> ~G g)
#
#         PDG            Width
DECAY   1000006     1.21959695E-01   # stop1 decays
#          BR         NDA      ID1       ID2
     1.00000000E+00    2     1000022         6   # BR(~t_1 -> ~chi_10 t )
#
#         PDG            Width
DECAY   2000006     1.58324673E+05   # stop2 decays
#          BR         NDA      ID1       ID2
     1.31651509E-03    2     1000022         6   # BR(~t_2 -> ~chi_10 t )
     3.15718808E-03    2     1000023         6   # BR(~t_2 -> ~chi_20 t )
     3.15664634E-03    2     1000025         6   # BR(~t_2 -> ~chi_30 t )
     9.92478270E-01    2     1000024         5   # BR(~t_2 -> ~chi_1+ b )
    -8.58950441E-05    2     1000006        25   # BR(~t_2 -> ~t_1    h )
     8.99483719E-05    2     1000006        35   # BR(~t_2 -> ~t_1    H )
     8.97906846E-05    2     1000006        36   # BR(~t_2 -> ~t_1    A )
     8.45819240E-05    2     1000005        37   # BR(~t_2 -> ~b_1    H+)
     9.49986793E-05    2     2000005        37   # BR(~t_2 -> ~b_2    H+)
    -6.12667727E-05    2     1000006        23   # BR(~t_2 -> ~t_1    Z )
    -1.54059955E-04    2     1000005        24   # BR(~t_2 -> ~b_1    W+)
    -1.66717119E-04    2     2000005        24   # BR(~t_2 -> ~b_2    W+)
#
#         PDG            Width
DECAY   1000005     2.22647173E+01   # sbottom1 decays
#          BR         NDA      ID1       ID2
     1.00000000E+00    2     1000022         5   # BR(~b_1 -> ~chi_10 b )
#
#         PDG            Width
DECAY   2000005     2.12915193E+01   # sbottom2 decays
#          BR         NDA      ID1       ID2
     1.00000000E+00    2     1000022         5   # BR(~b_2 -> ~chi_10 b )
#
#         PDG            Width
DECAY   1000002     1.26568580E-01   # sup_L decays
#          BR         NDA      ID1       ID2
     1.00000000E+00    2     1000022         2   # BR(~u_L -> ~chi_10 u)
#
#         PDG            Width
DECAY   2000002     2.08399059E+02   # sup_R decays
#          BR         NDA      ID1       ID2
     9.99712676E-01    2     1000022         2   # BR(~u_R -> ~chi_10 u)
     3.96136386E-06    2     1000023         2   # BR(~u_R -> ~chi_20 u)
     2.83362144E-04    2     1000025         2   # BR(~u_R -> ~chi_30 u)
#
#         PDG            Width
DECAY   1000001     1.26763913E-01   # sdown_L decays
#          BR         NDA      ID1       ID2
     1.00000000E+00    2     1000022         1   # BR(~d_L -> ~chi_10 d)
#
#         PDG            Width
DECAY   2000001     5.06699266E-01   # sdown_R decays
#          BR         NDA      ID1       ID2
     1.00000000E+00    2     1000022         1   # BR(~d_R -> ~chi_10 d)
#
#         PDG            Width
DECAY   1000004     1.26568580E-01   # scharm_L decays
#          BR         NDA      ID1       ID2
     1.00000000E+00    2     1000022         4   # BR(~c_L -> ~chi_10 c)
#
#         PDG            Width
DECAY   2000004     2.08399059E+02   # scharm_R decays
#          BR         NDA      ID1       ID2
     9.99712676E-01    2     1000022         4   # BR(~c_R -> ~chi_10 c)
     3.96136386E-06    2     1000023         4   # BR(~c_R -> ~chi_20 c)
     2.83362144E-04    2     1000025         4   # BR(~c_R -> ~chi_30 c)
#
#         PDG            Width
DECAY   1000003     1.26763913E-01   # sstrange_L decays
#          BR         NDA      ID1       ID2
     1.00000000E+00    2     1000022         3   # BR(~s_L -> ~chi_10 s)
#
#         PDG            Width
DECAY   2000003     5.06699266E-01   # sstrange_R decays
#          BR         NDA      ID1       ID2
     1.00000000E+00    2     1000022         3   # BR(~s_R -> ~chi_10 s)
#
#         PDG            Width
DECAY   1000011     1.22240934E+02   # selectron_L decays
#          BR         NDA      ID1       ID2
     9.99661615E-01    2     1000022        11   # BR(~e_L -> ~chi_10 e-)
     2.97480304E-06    2     1000023        11   # BR(~e_L -> ~chi_20 e-)
     3.32749213E-04    2     1000025        11   # BR(~e_L -> ~chi_30 e-)
     2.66105439E-06    2    -1000024        12   # BR(~e_L -> ~chi_1- nu_e)
#
#         PDG            Width
DECAY   2000011     4.88960833E+02   # selectron_R decays
#          BR         NDA      ID1       ID2
     9.99713004E-01    2     1000022        11   # BR(~e_R -> ~chi_10 e-)
     3.95685005E-06    2     1000023        11   # BR(~e_R -> ~chi_20 e-)
     2.83039169E-04    2     1000025        11   # BR(~e_R -> ~chi_30 e-)
#
#         PDG            Width
DECAY   1000013     1.22240934E+02   # smuon_L decays
#          BR         NDA      ID1       ID2
     9.99661615E-01    2     1000022        13   # BR(~mu_L -> ~chi_10 mu-)
     2.97480304E-06    2     1000023        13   # BR(~mu_L -> ~chi_20 mu-)
     3.32749213E-04    2     1000025        13   # BR(~mu_L -> ~chi_30 mu-)
     2.66105439E-06    2    -1000024        14   # BR(~mu_L -> ~chi_1- nu_mu)
#
#         PDG            Width
DECAY   2000013     4.88960833E+02   # smuon_R decays
#          BR         NDA      ID1       ID2
     9.99713004E-01    2     1000022        13   # BR(~mu_R -> ~chi_10 mu-)
     3.95685005E-06    2     1000023        13   # BR(~mu_R -> ~chi_20 mu-)
     2.83039169E-04    2     1000025        13   # BR(~mu_R -> ~chi_30 mu-)
#
#         PDG            Width
DECAY   1000015     1.18199592E+04   # stau_1 decays
#          BR         NDA      ID1       ID2
     2.58973563E-02    2     1000022        15   # BR(~tau_1 -> ~chi_10  tau-)
     2.53373353E-05    2     1000023        15   # BR(~tau_1 -> ~chi_20  tau-)
     2.59443934E-05    2     1000025        15   # BR(~tau_1 -> ~chi_30  tau-)
     2.77073223E-05    2    -1000024        16   # BR(~tau_1 -> ~chi_1-  nu_tau)
     9.74023655E-01    2     1000039        15   # BR(~tau_1 -> ~G       tau-)
#
#         PDG            Width
DECAY   2000015     3.06036033E+02   # stau_2 decays
#          BR         NDA      ID1       ID2
     9.96335618E-01    2     1000022        15   # BR(~tau_2 -> ~chi_10  tau-)
     1.06957368E-03    2     1000023        15   # BR(~tau_2 -> ~chi_20  tau-)
     1.62315251E-03    2     1000025        15   # BR(~tau_2 -> ~chi_30  tau-)
     9.71656099E-04    2    -1000024        16   # BR(~tau_2 -> ~chi_1-  nu_tau)
#
#         PDG            Width
DECAY   1000012     1.22240994E+02   # snu_eL decays
#          BR         NDA      ID1       ID2
     9.99751916E-01    2     1000022        12   # BR(~nu_eL -> ~chi_10 nu_e)
     5.07867823E-06    2     1000023        12   # BR(~nu_eL -> ~chi_20 nu_e)
     2.37345348E-04    2     1000025        12   # BR(~nu_eL -> ~chi_30 nu_e)
     5.66012663E-06    2     1000024        11   # BR(~nu_eL -> ~chi_1+ e-)
#
#         PDG            Width
DECAY   1000014     1.22240994E+02   # snu_muL decays
#          BR         NDA      ID1       ID2
     9.99751916E-01    2     1000022        14   # BR(~nu_muL -> ~chi_10 nu_mu)
     5.07867823E-06    2     1000023        14   # BR(~nu_muL -> ~chi_20 nu_mu)
     2.37345348E-04    2     1000025        14   # BR(~nu_muL -> ~chi_30 nu_mu)
     5.66012663E-06    2     1000024        13   # BR(~nu_muL -> ~chi_1+ mu-)
#
#         PDG            Width
DECAY   1000016     1.22865530E+02   # snu_tauL decays
#          BR         NDA      ID1       ID2
     9.94670093E-01    2     1000022        16   # BR(~nu_tauL -> ~chi_10 nu_tau)
     5.05286289E-06    2     1000023        16   # BR(~nu_tauL -> ~chi_20 nu_tau)
     2.36138902E-04    2     1000025        16   # BR(~nu_tauL -> ~chi_30 nu_tau)
     5.08871524E-03    2     1000024        15   # BR(~nu_tauL -> ~chi_1+ tau-)
#
#         PDG            Width
DECAY   1000024     6.01819454E+01   # chargino1+ decays
#          BR         NDA      ID1       ID2
     4.49253987E-07    2     1000002        -1   # BR(~chi_1+ -> ~u_L     db)
     2.11113230E-07    2    -1000001         2   # BR(~chi_1+ -> ~d_L*    u )
     4.49253987E-07    2     1000004        -3   # BR(~chi_1+ -> ~c_L     sb)
     2.11113230E-07    2    -1000003         4   # BR(~chi_1+ -> ~s_L*    c )
     6.22944807E-02    2     1000006        -5   # BR(~chi_1+ -> ~t_1     bb)
     8.36697773E-02    2    -1000005         6   # BR(~chi_1+ -> ~b_1*    t )
     8.00165980E-01    2    -2000005         6   # BR(~chi_1+ -> ~b_2*    t )
     4.90986358E-02    2     1000022        24   # BR(~chi_1+ -> ~chi_10  W+)
     4.76380646E-03    2     1000022        37   # BR(~chi_1+ -> ~chi_10  H+)
     5.01309101E-06    2     1000039        24   # BR(~chi_1+ -> ~G       W+)
     9.86369790E-07    2     1000039        37   # BR(~chi_1+ -> ~G       H+)
#
#         PDG            Width
DECAY   1000037     1.01683468E+05   # chargino2+ decays
#          BR         NDA      ID1       ID2
     9.71332365E-03    2     1000002        -1   # BR(~chi_2+ -> ~u_L     db)
     9.71332660E-03    2    -1000001         2   # BR(~chi_2+ -> ~d_L*    u )
     9.71332365E-03    2     1000004        -3   # BR(~chi_2+ -> ~c_L     sb)
     9.71332660E-03    2    -1000003         4   # BR(~chi_2+ -> ~s_L*    c )
     8.34744871E-01    2     1000006        -5   # BR(~chi_2+ -> ~t_1     bb)
     2.12312685E-03    2    -1000005         6   # BR(~chi_2+ -> ~b_1*    t )
     9.22424845E-03    2    -2000005         6   # BR(~chi_2+ -> ~b_2*    t )
     7.17902330E-15    2     1000012       -11   # BR(~chi_2+ -> ~nu_eL   e+  )
     7.17902330E-15    2     1000014       -13   # BR(~chi_2+ -> ~nu_muL  mu+ )
     5.02655267E-15    2    -1000011        12   # BR(~chi_2+ -> ~e_L+    nu_e)
     5.02655267E-15    2    -1000013        14   # BR(~chi_2+ -> ~mu_L+   nu_mu)
     7.79923513E-15    2    -1000015        16   # BR(~chi_2+ -> ~tau_1+  nu_tau)
     1.32735379E-16    2    -2000015        16   # BR(~chi_2+ -> ~tau_2+  nu_tau)
     1.78071686E-03    2     1000024        23   # BR(~chi_2+ -> ~chi_1+  Z )
     4.07564745E-07    2     1000022        24   # BR(~chi_2+ -> ~chi_10  W+)
     1.72767926E-03    2     1000023        24   # BR(~chi_2+ -> ~chi_20  W+)
     1.72725301E-03    2     1000025        24   # BR(~chi_2+ -> ~chi_30  W+)
     1.79774785E-03    2     1000024        25   # BR(~chi_2+ -> ~chi_1+  h )
     1.57808279E-03    2     1000024        35   # BR(~chi_2+ -> ~chi_1+  H )
     1.57829224E-03    2     1000024        36   # BR(~chi_2+ -> ~chi_1+  A )
     4.97212454E-07    2     1000022        37   # BR(~chi_2+ -> ~chi_10  H+)
     1.57823752E-03    2     1000023        37   # BR(~chi_2+ -> ~chi_20  H+)
     1.57779158E-03    2     1000025        37   # BR(~chi_2+ -> ~chi_30  H+)
     1.01707718E-01    2     1000039        24   # BR(~chi_2+ -> ~G       W+)
     2.91628720E-08    2     1000039        37   # BR(~chi_2+ -> ~G       H+)
#
#         PDG            Width
DECAY   1000022     1.E-08   # neutralino1 decays (OJ Mods)
#          BR         NDA      ID1       ID2
     7.65082514E-01    2     1000039        22   # BR(~chi_10 -> ~G        gam)
     2.34916683E-01    2     1000039        23   # BR(~chi_10 -> ~G        Z)
     8.03500453E-07    2     1000039        25   # BR(~chi_10 -> ~G        h)
#
#         PDG            Width
DECAY   1000023     1.E-08   # neutralino2 decays (OJ Mods)
#          BR         NDA      ID1       ID2
     4.70808657E-02    2     1000022        23   # BR(~chi_20 -> ~chi_10   Z )
     6.47769779E-04    2     1000022        25   # BR(~chi_20 -> ~chi_10   h )
     3.83647706E-03    2     1000022        35   # BR(~chi_20 -> ~chi_10   H )
     8.59233637E-04    2     1000022        36   # BR(~chi_20 -> ~chi_10   A )
     1.37720853E-08    2     1000002        -2   # BR(~chi_20 -> ~u_L      ub)
     1.37720853E-08    2    -1000002         2   # BR(~chi_20 -> ~u_L*     u )
     7.45141882E-08    2     1000001        -1   # BR(~chi_20 -> ~d_L      db)
     7.45141882E-08    2    -1000001         1   # BR(~chi_20 -> ~d_L*     d )
     1.52365501E-07    2     2000001        -1   # BR(~chi_20 -> ~d_R      db)
     1.52365501E-07    2    -2000001         1   # BR(~chi_20 -> ~d_R*     d )
     1.37720853E-08    2     1000004        -4   # BR(~chi_20 -> ~c_L      cb)
     1.37720853E-08    2    -1000004         4   # BR(~chi_20 -> ~c_L*     c )
     7.45141882E-08    2     1000003        -3   # BR(~chi_20 -> ~s_L      sb)
     7.45141882E-08    2    -1000003         3   # BR(~chi_20 -> ~s_L*     s )
     1.52365501E-07    2     2000003        -3   # BR(~chi_20 -> ~s_R      sb)
     1.52365501E-07    2    -2000003         3   # BR(~chi_20 -> ~s_R*     s )
     4.16140110E-01    2     1000006        -6   # BR(~chi_20 -> ~t_1      tb)
     4.16140110E-01    2    -1000006         6   # BR(~chi_20 -> ~t_1*     t )
     2.78888432E-02    2     1000005        -5   # BR(~chi_20 -> ~b_1      bb)
     2.78888432E-02    2    -1000005         5   # BR(~chi_20 -> ~b_1*     b )
     2.97556102E-02    2     2000005        -5   # BR(~chi_20 -> ~b_2      bb)
     2.97556102E-02    2    -2000005         5   # BR(~chi_20 -> ~b_2*     b )
     2.61175296E-11    2     1000039        22   # BR(~chi_20 -> ~G        gam)
     1.81861052E-07    2     1000039        23   # BR(~chi_20 -> ~G        Z)
     4.53892514E-06    2     1000039        25   # BR(~chi_20 -> ~G        h)
     3.63581164E-08    2     1000039        35   # BR(~chi_20 -> ~G        H)
     9.37667442E-07    2     1000039        36   # BR(~chi_20 -> ~G        A)
#
#         PDG            Width
DECAY   1000025     6.39263711E+01   # neutralino3 decays
#          BR         NDA      ID1       ID2
     6.58274246E-04    2     1000022        23   # BR(~chi_30 -> ~chi_10   Z )
     4.73759613E-02    2     1000022        25   # BR(~chi_30 -> ~chi_10   h )
     8.33793440E-04    2     1000022        35   # BR(~chi_30 -> ~chi_10   H )
     3.86265234E-03    2     1000022        36   # BR(~chi_30 -> ~chi_10   A )
     4.26945345E-06    2     1000002        -2   # BR(~chi_30 -> ~u_L      ub)
     4.26945345E-06    2    -1000002         2   # BR(~chi_30 -> ~u_L*     u )
     1.51803253E-06    2     1000001        -1   # BR(~chi_30 -> ~d_L      db)
     1.51803253E-06    2    -1000001         1   # BR(~chi_30 -> ~d_L*     d )
     1.08782343E-05    2     2000001        -1   # BR(~chi_30 -> ~d_R      db)
     1.08782343E-05    2    -2000001         1   # BR(~chi_30 -> ~d_R*     d )
     4.26945345E-06    2     1000004        -4   # BR(~chi_30 -> ~c_L      cb)
     4.26945345E-06    2    -1000004         4   # BR(~chi_30 -> ~c_L*     c )
     1.51803253E-06    2     1000003        -3   # BR(~chi_30 -> ~s_L      sb)
     1.51803253E-06    2    -1000003         3   # BR(~chi_30 -> ~s_L*     s )
     1.08782343E-05    2     2000003        -3   # BR(~chi_30 -> ~s_R      sb)
     1.08782343E-05    2    -2000003         3   # BR(~chi_30 -> ~s_R*     s )
     4.15396620E-01    2     1000006        -6   # BR(~chi_30 -> ~t_1      tb)
     4.15396620E-01    2    -1000006         6   # BR(~chi_30 -> ~t_1*     t )
     2.31852019E-02    2     1000005        -5   # BR(~chi_30 -> ~b_1      bb)
     2.31852019E-02    2    -1000005         5   # BR(~chi_30 -> ~b_1*     b )
     3.50211890E-02    2     2000005        -5   # BR(~chi_30 -> ~b_2      bb)
     3.50211890E-02    2    -2000005         5   # BR(~chi_30 -> ~b_2*     b )
     2.14629651E-09    2     1000039        22   # BR(~chi_30 -> ~G        gam)
     4.53892336E-06    2     1000039        23   # BR(~chi_30 -> ~G        Z)
     1.76989994E-07    2     1000039        25   # BR(~chi_30 -> ~G        h)
     9.30416884E-07    2     1000039        35   # BR(~chi_30 -> ~G        H)
     3.74670055E-08    2     1000039        36   # BR(~chi_30 -> ~G        A)
#
#         PDG            Width
DECAY   1000035     1.01683877E+05   # neutralino4 decays
#          BR         NDA      ID1       ID2
     2.28114558E-09    2     1000022        23   # BR(~chi_40 -> ~chi_10   Z )
     1.72087547E-03    2     1000023        23   # BR(~chi_40 -> ~chi_20   Z )
     5.98340735E-05    2     1000025        23   # BR(~chi_40 -> ~chi_30   Z )
     1.72766212E-03    2     1000024       -24   # BR(~chi_40 -> ~chi_1+   W-)
     1.72766212E-03    2    -1000024        24   # BR(~chi_40 -> ~chi_1-   W+)
     4.22392130E-07    2     1000022        25   # BR(~chi_40 -> ~chi_10   h )
     4.66909278E-08    2     1000022        35   # BR(~chi_40 -> ~chi_10   H )
     4.49880021E-07    2     1000022        36   # BR(~chi_40 -> ~chi_10   A )
     5.90291664E-05    2     1000023        25   # BR(~chi_40 -> ~chi_20   h )
     1.51021777E-03    2     1000023        35   # BR(~chi_40 -> ~chi_20   H )
     6.94223754E-05    2     1000023        36   # BR(~chi_40 -> ~chi_20   A )
     1.73829164E-03    2     1000025        25   # BR(~chi_40 -> ~chi_30   h )
     6.78106816E-05    2     1000025        35   # BR(~chi_40 -> ~chi_30   H )
     1.50841426E-03    2     1000025        36   # BR(~chi_40 -> ~chi_30   A )
     1.57825844E-03    2     1000024       -37   # BR(~chi_40 -> ~chi_1+   H-)
     1.57825844E-03    2    -1000024        37   # BR(~chi_40 -> ~chi_1-   H+)
     4.65016472E-03    2     1000002        -2   # BR(~chi_40 -> ~u_L      ub)
     4.65016472E-03    2    -1000002         2   # BR(~chi_40 -> ~u_L*     u )
     7.48162541E-23    2     2000002        -2   # BR(~chi_40 -> ~u_R      ub)
     7.48162541E-23    2    -2000002         2   # BR(~chi_40 -> ~u_R*     u )
     4.65016670E-03    2     1000001        -1   # BR(~chi_40 -> ~d_L      db)
     4.65016670E-03    2    -1000001         1   # BR(~chi_40 -> ~d_L*     d )
     8.95683668E-17    2     2000001        -1   # BR(~chi_40 -> ~d_R      db)
     8.95683668E-17    2    -2000001         1   # BR(~chi_40 -> ~d_R*     d )
     4.65016472E-03    2     1000004        -4   # BR(~chi_40 -> ~c_L      cb)
     4.65016472E-03    2    -1000004         4   # BR(~chi_40 -> ~c_L*     c )
     7.48162541E-23    2     2000004        -4   # BR(~chi_40 -> ~c_R      cb)
     7.48162541E-23    2    -2000004         4   # BR(~chi_40 -> ~c_R*     c )
     4.65016670E-03    2     1000003        -3   # BR(~chi_40 -> ~s_L      sb)
     4.65016670E-03    2    -1000003         3   # BR(~chi_40 -> ~s_L*     s )
     8.95683668E-17    2     2000003        -3   # BR(~chi_40 -> ~s_R      sb)
     8.95683668E-17    2    -2000003         3   # BR(~chi_40 -> ~s_R*     s )
     5.67366963E-03    2     1000006        -6   # BR(~chi_40 -> ~t_1      tb)
     5.67366963E-03    2    -1000006         6   # BR(~chi_40 -> ~t_1*     t )
     1.98774020E-01    2     1000005        -5   # BR(~chi_40 -> ~b_1      bb)
     1.98774020E-01    2    -1000005         5   # BR(~chi_40 -> ~b_1*     b )
     2.18598712E-01    2     2000005        -5   # BR(~chi_40 -> ~b_2      bb)
     2.18598712E-01    2    -2000005         5   # BR(~chi_40 -> ~b_2*     b )
     2.51326561E-15    2     1000011       -11   # BR(~chi_40 -> ~e_L-     e+)
     2.51326561E-15    2    -1000011        11   # BR(~chi_40 -> ~e_L+     e-)
     4.35679677E-28    2     2000011       -11   # BR(~chi_40 -> ~e_R-     e+)
     4.35679677E-28    2    -2000011        11   # BR(~chi_40 -> ~e_R+     e-)
     2.51326561E-15    2     1000013       -13   # BR(~chi_40 -> ~mu_L-    mu+)
     2.51326561E-15    2    -1000013        13   # BR(~chi_40 -> ~mu_L+    mu-)
     4.35679677E-28    2     2000013       -13   # BR(~chi_40 -> ~mu_R-    mu+)
     4.35679677E-28    2    -2000013        13   # BR(~chi_40 -> ~mu_R+    mu-)
     3.58950105E-15    2     1000012       -12   # BR(~chi_40 -> ~nu_eL    nu_eb)
     3.58950105E-15    2    -1000012        12   # BR(~chi_40 -> ~nu_eL*   nu_e )
     3.58950105E-15    2     1000014       -14   # BR(~chi_40 -> ~nu_muL   nu_mub)
     3.58950105E-15    2    -1000014        14   # BR(~chi_40 -> ~nu_muL*  nu_mu )
     3.58950105E-15    2     1000016       -16   # BR(~chi_40 -> ~nu_tau1  nu_taub)
     3.58950105E-15    2    -1000016        16   # BR(~chi_40 -> ~nu_tau1* nu_tau )
     2.46456230E-02    2     1000039        22   # BR(~chi_40 -> ~G        gam)
     7.70617211E-02    2     1000039        23   # BR(~chi_40 -> ~G        Z)
     4.65272940E-09    2     1000039        25   # BR(~chi_40 -> ~G        h)
     2.92116998E-08    2     1000039        35   # BR(~chi_40 -> ~G        H)
     5.75635564E-12    2     1000039        36   # BR(~chi_40 -> ~G        A)
#
#
#
#
