#
#                              ======================
#                              | THE SUSYHIT OUTPUT |
#                              ======================
#
#
#              ------------------------------------------------------
#              |     This is the output of the SUSY-HIT package     |
#              |  created by A.Djouadi, M.Muehlleitner and M.Spira. |
#              |  In case of problems with SUSY-HIT email to        |
#              |           margarete.muehlleitner@cern.ch           |
#              |           michael.spira@psi.ch                     |
#              |           abdelhak.djouadi@cern.ch                 |
#              ------------------------------------------------------
#
#              ------------------------------------------------------
#              |  SUSY Les Houches Accord - MSSM Spectrum + Decays  |
#              |              based on the decay programs           |
#              |                                                    |
#              |                     SDECAY 1.3b                    |
#              |                                                    |
#              |  Authors: M.Muhlleitner, A.Djouadi and Y.Mambrini  |
#              |  Ref.:    Comput.Phys.Commun.168(2005)46           |
#              |           [hep-ph/0311167]                         |
#              |                                                    |
#              |                     HDECAY 3.4                     |
#              |                                                    |
#              |  By: A.Djouadi,J.Kalinowski,M.Muhlleitner,M.Spira  |
#              |  Ref.:    Comput.Phys.Commun.108(1998)56           |
#              |           [hep-ph/9704448]                         |
#              |                                                    |
#              |                                                    |
#              |  If not stated otherwise all DRbar couplings and   |
#              |  soft SUSY breaking masses are given at the scale  |
#              |  Q=  0.91187600E+02
#              |                                                    |
#              ------------------------------------------------------
#
#
BLOCK DCINFO  # Decay Program information
     1   SDECAY/HDECAY # decay calculator
     2   1.3b  /3.4    # version number
#
BLOCK SPINFO  # Spectrum calculator information
     1   SuSpect     # RGE +Spectrum calculator            
     2   2.41         # version number                     
#
BLOCK MODSEL  # Model selection
     1     0   # #general MSSM low scale                           
#
BLOCK SMINPUTS  # Standard Model inputs
         1     1.27934000E+02   # alpha_em^-1(M_Z)^MSbar
         2     1.16639000E-05   # G_F [GeV^-2]
         3     1.17200000E-01   # alpha_S(M_Z)^MSbar
         4     9.11870000E+01   # M_Z pole mass
         5     4.25000000E+00   # mb(mb)^MSbar
         6     1.72500000E+02   # mt pole mass
         7     1.77700000E+00   # mtau pole mass
#
BLOCK MINPAR  # Input parameters - minimal models
#
BLOCK EXTPAR  # Input parameters - non-minimal models
         0     9.11876000E+01   # EWSB                
         1     1.40000000E+03   # M_1                 
         2     1.00000000E+05   # M_2                 
         3     2.10000000E+03   # M_3                 
        11     0.00000000E+00   # A_t                 
        12     0.00000000E+00   # A_b                 
        13     0.00000000E+00   # A_tau               
        14     0.00000000E+00   # A_u                 
        15     0.00000000E+00   # A_d                 
        16     0.00000000E+00   # A_e                 
        23     1.00000000E+05   # mu(EWSB)            
        25     1.50000000E+00   # tanbeta(in)         
        26     2.00000000E+03   # MA_pole             
        31     1.00000000E+05   # M_eL                
        32     1.00000000E+05   # M_muL               
        33     1.00000000E+05   # M_tauL              
        34     1.00000000E+05   # M_eR                
        35     1.00000000E+05   # M_muR               
        36     1.00000000E+05   # M_tauR              
        41     3.00000000E+03   # M_q1L               
        42     3.00000000E+03   # M_q2L               
        43     3.00000000E+03   # M_q3L               
        44     1.00000000E+05   # M_uR                
        45     1.00000000E+05   # M_cR                
        46     1.00000000E+05   # M_tR                
        47     3.00000000E+03   # M_dR                
        48     3.00000000E+03   # M_sR                
        49     3.00000000E+03   # M_bR                
#
BLOCK MASS  # Mass Spectrum
# PDG code           mass       particle
        24     8.06048125E+01   # W+
        25     1.25000000E+02   # h
        35     2.00449480E+03   # H
        36     2.00000000E+03   # A
        37     2.02280359E+03   # H+
         5     4.87877839E+00   # b-quark pole mass calculated from mb(mb)_Msbar
   1000001     3.00021871E+03   # ~d_L
   2000001     3.00004261E+03   # ~d_R
   1000002     2.99982388E+03   # ~u_L
   2000002     9.99999974E+04   # ~u_R
   1000003     3.00021871E+03   # ~s_L
   2000003     3.00004261E+03   # ~s_R
   1000004     2.99982388E+03   # ~c_L
   2000004     9.99999974E+04   # ~c_R
   1000005     2.95087222E+03   # ~b_1
   2000005     3.04859455E+03   # ~b_2
   1000006     3.00183592E+03   # ~t_1
   2000006     1.00000155E+05   # ~t_2
   1000011     1.00000004E+05   # ~e_L
   2000011     1.00000004E+05   # ~e_R
   1000012     9.99999922E+04   # ~nu_eL
   1000013     1.00000004E+05   # ~mu_L
   2000013     1.00000004E+05   # ~mu_R
   1000014     9.99999922E+04   # ~nu_muL
   1000015     9.99986716E+04   # ~tau_1
   2000015     1.00001336E+05   # ~tau_2
   1000016     9.99999922E+04   # ~nu_tauL
   1000021     2.10000000E+03   # ~g
   1000022     1.39998131E+03   # ~chi_10
   1000023     9.99230530E+04   # ~chi_20
   1000025    -1.00000002E+05   # ~chi_30
   1000035     1.00076968E+05   # ~chi_40
   1000024     9.99230439E+04   # ~chi_1+
   1000037     1.00076958E+05   # ~chi_2+
   1000039     5.00000000E-09   # ~gravitino
#
BLOCK NMIX  # Neutralino Mixing Matrix
  1  1     9.99999898E-01   # N_11
  1  2    -3.33132543E-07   # N_12
  1  3     3.75090911E-04   # N_13
  1  4    -2.52950946E-04   # N_14
  2  1     3.14242537E-04   # N_21
  2  2     7.07148728E-01   # N_22
  2  3    -5.00008772E-01   # N_23
  2  4     4.99931800E-01   # N_24
  3  1     8.63659066E-05   # N_31
  3  2    -7.69572988E-05   # N_32
  3  3    -7.07106742E-01   # N_33
  3  4    -7.07106811E-01   # N_34
  4  1     3.13799274E-04   # N_41
  4  2    -7.07064833E-01   # N_42
  4  3    -4.99991138E-01   # N_43
  4  4     5.00068080E-01   # N_44
#
BLOCK UMIX  # Chargino Mixing Matrix U
  1  1    -7.07052362E-01   # U_11
  1  2     7.07161196E-01   # U_12
  2  1     7.07161196E-01   # U_21
  2  2     7.07052362E-01   # U_22
#
BLOCK VMIX  # Chargino Mixing Matrix V
  1  1    -7.07161196E-01   # V_11
  1  2     7.07052362E-01   # V_12
  2  1     7.07052362E-01   # V_21
  2  2     7.07161196E-01   # V_22
#
BLOCK STOPMIX  # Stop Mixing Matrix
  1  1     9.99999516E-01   # cos(theta_t)
  1  2     9.83869791E-04   # sin(theta_t)
  2  1    -9.83869791E-04   # -sin(theta_t)
  2  2     9.99999516E-01   # cos(theta_t)
#
BLOCK SBOTMIX  # Sbottom Mixing Matrix
  1  1     7.06469281E-01   # cos(theta_b)
  1  2     7.07743707E-01   # sin(theta_b)
  2  1    -7.07743707E-01   # -sin(theta_b)
  2  2     7.06469281E-01   # cos(theta_b)
#
BLOCK STAUMIX  # Stau Mixing Matrix
  1  1     7.07084174E-01   # cos(theta_tau)
  1  2     7.07129388E-01   # sin(theta_tau)
  2  1    -7.07129388E-01   # -sin(theta_tau)
  2  2     7.07084174E-01   # cos(theta_tau)
#
BLOCK ALPHA  # Higgs mixing
          -6.04148457E-01   # Mixing angle in the neutral Higgs boson sector
#
BLOCK HMIX Q=  9.11876000E+01  # DRbar Higgs Parameters
         1     1.00000000E+05   # mu(Q)               
         2     1.49999982E+00   # tanbeta(Q)          
         3     2.55217727E+02   # vev(Q)              
         4    -2.17860355E+09   # MA^2(Q)             
#
BLOCK GAUGE Q=  9.11876000E+01  # The gauge couplings
     1     3.49926642E-01   # gprime(Q) DRbar
     2     6.15001996E-01   # g(Q) DRbar
     3     1.07403626E+00   # g3(Q) DRbar
#
BLOCK AU Q=  9.11876000E+01  # The trilinear couplings
  1  1     0.00000000E+00   # A_u(Q) DRbar
  2  2     0.00000000E+00   # A_c(Q) DRbar
  3  3     0.00000000E+00   # A_t(Q) DRbar
#
BLOCK AD Q=  9.11876000E+01  # The trilinear couplings
  1  1     0.00000000E+00   # A_d(Q) DRbar
  2  2     0.00000000E+00   # A_s(Q) DRbar
  3  3     0.00000000E+00   # A_b(Q) DRbar
#
BLOCK AE Q=  9.11876000E+01  # The trilinear couplings
  1  1     0.00000000E+00   # A_e(Q) DRbar
  2  2     0.00000000E+00   # A_mu(Q) DRbar
  3  3     0.00000000E+00   # A_tau(Q) DRbar
#
BLOCK Yu Q=  9.11876000E+01  # The Yukawa couplings
  1  1     0.00000000E+00   # y_u(Q) DRbar
  2  2     0.00000000E+00   # y_c(Q) DRbar
  3  3     9.82181625E-01   # y_t(Q) DRbar
#
BLOCK Yd Q=  9.11876000E+01  # The Yukawa couplings
  1  1     0.00000000E+00   # y_d(Q) DRbar
  2  2     0.00000000E+00   # y_s(Q) DRbar
  3  3     1.95218600E-02   # y_b(Q) DRbar
#
BLOCK Ye Q=  9.11876000E+01  # The Yukawa couplings
  1  1     0.00000000E+00   # y_e(Q) DRbar
  2  2     0.00000000E+00   # y_mu(Q) DRbar
  3  3     1.77459910E-02   # y_tau(Q) DRbar
#
BLOCK MSOFT Q=  9.11876000E+01  # The soft SUSY breaking masses at the scale Q
         1     1.40000000E+03   # M_1                 
         2     1.00000000E+05   # M_2                 
         3     2.10000000E+03   # M_3                 
        14     0.00000000E+00   # A_u                 
        15     0.00000000E+00   # A_d                 
        16     0.00000000E+00   # A_e                 
        21    -1.06449403E+10   # M^2_Hd              
        22    -1.00448158E+10   # M^2_Hu              
        31     1.00000000E+05   # M_eL                
        32     1.00000000E+05   # M_muL               
        33     1.00000000E+05   # M_tauL              
        34     1.00000000E+05   # M_eR                
        35     1.00000000E+05   # M_muR               
        36     1.00000000E+05   # M_tauR              
        41     3.00000000E+03   # M_q1L               
        42     3.00000000E+03   # M_q2L               
        43     3.00000000E+03   # M_q3L               
        44     1.00000000E+05   # M_uR                
        45     1.00000000E+05   # M_cR                
        46     1.00000000E+05   # M_tR                
        47     3.00000000E+03   # M_dR                
        48     3.00000000E+03   # M_sR                
        49     3.00000000E+03   # M_bR                
#
#
#
#                             =================
#                             |The decay table|
#                             =================
#
# - The QCD corrections to the decays gluino -> squark  + quark
#                                     squark -> gaugino + quark_prime
#                                     squark -> squark_prime + Higgs
#                                     squark -> gluino  + quark
#   are included.
#
# - The multi-body decays for the inos, stops and sbottoms are included.
#
# - The loop induced decays for the gluino, neutralinos and stops
#   are included.
#
# - The SUSY decays of the top quark are included.
#
# - Possible decays of the NLSP in GMSB models are included.
#
#
#         PDG            Width
DECAY         6     1.30455298E+00   # top decays
#          BR         NDA      ID1       ID2
     1.00000000E+00    2           5        24   # BR(t ->  b    W+)
#
#         PDG            Width
DECAY   1000021     1.E-04   # gluino decays (OJ Mods)
#          BR         NDA      ID1       ID2
     2.04394829E-02    2     1000022        21   # BR(~g -> ~chi_10 g)
#          BR         NDA      ID1       ID2
     2.36356032E-02    2     1000039        21   # BR(~g -> ~G      g)
#           BR         NDA      ID1       ID2       ID3
     2.73274017E-01    3     1000022         1        -1   # BR(~g -> ~chi_10 d  db)
     5.46835169E-02    3     1000022         2        -2   # BR(~g -> ~chi_10 u  ub)
     2.73274017E-01    3     1000022         3        -3   # BR(~g -> ~chi_10 s  sb)
     5.46835169E-02    3     1000022         4        -4   # BR(~g -> ~chi_10 c  cb)
     2.74481916E-01    3     1000022         5        -5   # BR(~g -> ~chi_10 b  bb)
     2.55279300E-02    3     1000022         6        -6   # BR(~g -> ~chi_10 t  tb)
#
#         PDG            Width
DECAY   1000006     5.17411265E+01   # stop1 decays
#          BR         NDA      ID1       ID2
     4.57718886E-03    2     1000022         6   # BR(~t_1 -> ~chi_10 t )
     9.95422811E-01    2     1000021         6   # BR(~t_1 -> ~g      t )
#
#         PDG            Width
DECAY   2000006     4.80816692E+03   # stop2 decays
#          BR         NDA      ID1       ID2
     4.36313406E-02    2     1000022         6   # BR(~t_2 -> ~chi_10 t )
     3.22954182E-07    2     1000024         5   # BR(~t_2 -> ~chi_1+ b )
     5.57319139E-01    2     1000021         6   # BR(~t_2 -> ~g      t )
     2.20347205E-02    2     1000006        25   # BR(~t_2 -> ~t_1    h )
     5.00762456E-02    2     1000006        35   # BR(~t_2 -> ~t_1    H )
     5.11413448E-02    2     1000006        36   # BR(~t_2 -> ~t_1    A )
     5.08571389E-02    2     1000005        37   # BR(~t_2 -> ~b_1    H+)
     5.14628530E-02    2     2000005        37   # BR(~t_2 -> ~b_2    H+)
     5.72742573E-02    2     1000006        23   # BR(~t_2 -> ~t_1    Z )
     5.78747702E-02    2     1000005        24   # BR(~t_2 -> ~b_1    W+)
     5.83278668E-02    2     2000005        24   # BR(~t_2 -> ~b_2    W+)
#
#         PDG            Width
DECAY   1000005     4.90157923E+01   # sbottom1 decays
#          BR         NDA      ID1       ID2
     1.17468221E-02    2     1000022         5   # BR(~b_1 -> ~chi_10 b )
     9.88253178E-01    2     1000021         5   # BR(~b_1 -> ~g      b )
#
#         PDG            Width
DECAY   2000005     5.63369041E+01   # sbottom2 decays
#          BR         NDA      ID1       ID2
     1.09246429E-02    2     1000022         5   # BR(~b_2 -> ~chi_10 b )
     9.88466001E-01    2     1000021         5   # BR(~b_2 -> ~g      b )
     6.09356122E-04    2     1000005        23   # BR(~b_2 -> ~b_1    Z )
#
#         PDG            Width
DECAY   1000002     2.96796312E+01   # sup_L decays
#          BR         NDA      ID1       ID2
     8.38284987E-03    2     1000022         2   # BR(~u_L -> ~chi_10 u)
     9.91617150E-01    2     1000021         2   # BR(~u_L -> ~g      u)
#
#         PDG            Width
DECAY   2000002     3.97929528E+03   # sup_R decays
#          BR         NDA      ID1       ID2
     5.27271119E-02    2     1000022         2   # BR(~u_R -> ~chi_10 u)
     6.59540129E-13    2     1000023         2   # BR(~u_R -> ~chi_20 u)
     9.47272888E-01    2     1000021         2   # BR(~u_R -> ~g      u)
#
#         PDG            Width
DECAY   1000001     2.96984649E+01   # sdown_L decays
#          BR         NDA      ID1       ID2
     8.37985301E-03    2     1000022         1   # BR(~d_L -> ~chi_10 d)
     9.91620147E-01    2     1000021         1   # BR(~d_L -> ~g      d)
#
#         PDG            Width
DECAY   2000001     3.04365783E+01   # sdown_R decays
#          BR         NDA      ID1       ID2
     3.27024875E-02    2     1000022         1   # BR(~d_R -> ~chi_10 d)
     9.67297513E-01    2     1000021         1   # BR(~d_R -> ~g      d)
#
#         PDG            Width
DECAY   1000004     2.96796312E+01   # scharm_L decays
#          BR         NDA      ID1       ID2
     8.38284987E-03    2     1000022         4   # BR(~c_L -> ~chi_10 c)
     9.91617150E-01    2     1000021         4   # BR(~c_L -> ~g      c)
#
#         PDG            Width
DECAY   2000004     3.97929528E+03   # scharm_R decays
#          BR         NDA      ID1       ID2
     5.27271119E-02    2     1000022         4   # BR(~c_R -> ~chi_10 c)
     6.59540129E-13    2     1000023         4   # BR(~c_R -> ~chi_20 c)
     9.47272888E-01    2     1000021         4   # BR(~c_R -> ~g      c)
#
#         PDG            Width
DECAY   1000003     2.96984649E+01   # sstrange_L decays
#          BR         NDA      ID1       ID2
     8.37985301E-03    2     1000022         3   # BR(~s_L -> ~chi_10 s)
     9.91620147E-01    2     1000021         3   # BR(~s_L -> ~g      s)
#
#         PDG            Width
DECAY   2000003     3.04365783E+01   # sstrange_R decays
#          BR         NDA      ID1       ID2
     3.27024875E-02    2     1000022         3   # BR(~s_R -> ~chi_10 s)
     9.67297513E-01    2     1000021         3   # BR(~s_R -> ~g      s)
#
#         PDG            Width
DECAY   1000011     1.21755362E+02   # selectron_L decays
#          BR         NDA      ID1       ID2
     9.99989027E-01    2     1000022        11   # BR(~e_L -> ~chi_10 e-)
     3.65898369E-06    2     1000023        11   # BR(~e_L -> ~chi_20 e-)
     3.82549714E-24    2     1000025        11   # BR(~e_L -> ~chi_30 e-)
     7.31400370E-06    2    -1000024        12   # BR(~e_L -> ~chi_1- nu_e)
#
#         PDG            Width
DECAY   2000011     4.87016676E+02   # selectron_R decays
#          BR         NDA      ID1       ID2
     1.00000000E+00    2     1000022        11   # BR(~e_R -> ~chi_10 e-)
     2.33805392E-13    2     1000023        11   # BR(~e_R -> ~chi_20 e-)
     1.19391926E-23    2     1000025        11   # BR(~e_R -> ~chi_30 e-)
#
#         PDG            Width
DECAY   1000013     1.21755362E+02   # smuon_L decays
#          BR         NDA      ID1       ID2
     9.99989027E-01    2     1000022        13   # BR(~mu_L -> ~chi_10 mu-)
     3.65898369E-06    2     1000023        13   # BR(~mu_L -> ~chi_20 mu-)
     3.82549714E-24    2     1000025        13   # BR(~mu_L -> ~chi_30 mu-)
     7.31400370E-06    2    -1000024        14   # BR(~mu_L -> ~chi_1- nu_mu)
#
#         PDG            Width
DECAY   2000013     4.87016676E+02   # smuon_R decays
#          BR         NDA      ID1       ID2
     1.00000000E+00    2     1000022        13   # BR(~mu_R -> ~chi_10 mu-)
     2.33805392E-13    2     1000023        13   # BR(~mu_R -> ~chi_20 mu-)
     1.19391926E-23    2     1000025        13   # BR(~mu_R -> ~chi_30 mu-)
#
#         PDG            Width
DECAY   1000015     7.64884237E+02   # stau_1 decays
#          BR         NDA      ID1       ID2
     3.97963968E-01    2     1000022        15   # BR(~tau_1 -> ~chi_10  tau-)
     2.97430612E-07    2     1000023        15   # BR(~tau_1 -> ~chi_20  tau-)
     5.95039378E-07    2    -1000024        16   # BR(~tau_1 -> ~chi_1-  nu_tau)
     6.02035139E-01    2     1000039        15   # BR(~tau_1 -> ~G       tau-)
#
#         PDG            Width
DECAY   2000015     3.04374986E+02   # stau_2 decays
#          BR         NDA      ID1       ID2
     9.99997858E-01    2     1000022        15   # BR(~tau_2 -> ~chi_10  tau-)
     7.13835991E-07    2     1000023        15   # BR(~tau_2 -> ~chi_20  tau-)
     1.42787712E-06    2    -1000024        16   # BR(~tau_2 -> ~chi_1-  nu_tau)
#
#         PDG            Width
DECAY   1000012     1.21755633E+02   # snu_eL decays
#          BR         NDA      ID1       ID2
     9.99989032E-01    2     1000022        12   # BR(~nu_eL -> ~chi_10 nu_e)
     3.65415674E-06    2     1000023        12   # BR(~nu_eL -> ~chi_20 nu_e)
     7.31399762E-06    2     1000024        11   # BR(~nu_eL -> ~chi_1+ e-)
#
#         PDG            Width
DECAY   1000014     1.21755633E+02   # snu_muL decays
#          BR         NDA      ID1       ID2
     9.99989032E-01    2     1000022        14   # BR(~nu_muL -> ~chi_10 nu_mu)
     3.65415674E-06    2     1000023        14   # BR(~nu_muL -> ~chi_20 nu_mu)
     7.31399762E-06    2     1000024        13   # BR(~nu_muL -> ~chi_1+ mu-)
#
#         PDG            Width
DECAY   1000016     1.21755632E+02   # snu_tauL decays
#          BR         NDA      ID1       ID2
     9.99989037E-01    2     1000022        16   # BR(~nu_tauL -> ~chi_10 nu_tau)
     3.65415676E-06    2     1000023        16   # BR(~nu_tauL -> ~chi_20 nu_tau)
     7.30839254E-06    2     1000024        15   # BR(~nu_tauL -> ~chi_1+ tau-)
#
#         PDG            Width
DECAY   1000024     3.91037646E+03   # chargino1+ decays
#          BR         NDA      ID1       ID2
     1.24955134E-01    2     1000002        -1   # BR(~chi_1+ -> ~u_L     db)
     1.24916630E-01    2    -1000001         2   # BR(~chi_1+ -> ~d_L*    u )
     1.24955134E-01    2     1000004        -3   # BR(~chi_1+ -> ~c_L     sb)
     1.24916630E-01    2    -1000003         4   # BR(~chi_1+ -> ~s_L*    c )
     1.11778717E-01    2     1000006        -5   # BR(~chi_1+ -> ~t_1     bb)
     1.37016862E-01    2    -1000005         6   # BR(~chi_1+ -> ~b_1*    t )
     1.32928841E-01    2    -2000005         6   # BR(~chi_1+ -> ~b_2*    t )
     6.78244537E-03    2     1000022        24   # BR(~chi_1+ -> ~chi_10  W+)
     6.79046981E-03    2     1000022        37   # BR(~chi_1+ -> ~chi_10  H+)
     7.87500049E-02    2     1000039        24   # BR(~chi_1+ -> ~G       W+)
     2.62091319E-02    2     1000039        37   # BR(~chi_1+ -> ~G       H+)
#
#         PDG            Width
DECAY   1000037     3.91468733E+03   # chargino2+ decays
#          BR         NDA      ID1       ID2
     1.24885117E-01    2     1000002        -1   # BR(~chi_2+ -> ~u_L     db)
     1.24923521E-01    2    -1000001         2   # BR(~chi_2+ -> ~d_L*    u )
     1.24885117E-01    2     1000004        -3   # BR(~chi_2+ -> ~c_L     sb)
     1.24923521E-01    2    -1000003         4   # BR(~chi_2+ -> ~s_L*    c )
     1.11412876E-01    2     1000006        -5   # BR(~chi_2+ -> ~t_1     bb)
     8.26757831E-07    2     2000006        -5   # BR(~chi_2+ -> ~t_2     bb)
     1.31457234E-01    2    -1000005         6   # BR(~chi_2+ -> ~b_1*    t )
     1.37845945E-01    2    -2000005         6   # BR(~chi_2+ -> ~b_2*    t )
     1.01668877E-07    2     1000012       -11   # BR(~chi_2+ -> ~nu_eL   e+  )
     1.01668877E-07    2     1000014       -13   # BR(~chi_2+ -> ~nu_muL  mu+ )
     1.01590943E-07    2     1000016       -15   # BR(~chi_2+ -> ~nu_tau1 tau+)
     1.01669008E-07    2    -1000011        12   # BR(~chi_2+ -> ~e_L+    nu_e)
     1.01669008E-07    2    -1000013        14   # BR(~chi_2+ -> ~mu_L+   nu_mu)
     4.96141556E-08    2    -1000015        16   # BR(~chi_2+ -> ~tau_1+  nu_tau)
     5.19671919E-08    2    -2000015        16   # BR(~chi_2+ -> ~tau_2+  nu_tau)
     2.60275915E-04    2     1000024        23   # BR(~chi_2+ -> ~chi_1+  Z )
     6.76162370E-03    2     1000022        24   # BR(~chi_2+ -> ~chi_10  W+)
     2.97596109E-04    2     1000023        24   # BR(~chi_2+ -> ~chi_20  W+)
     2.01817572E-12    2     1000024        25   # BR(~chi_2+ -> ~chi_1+  h )
     6.76541301E-03    2     1000022        37   # BR(~chi_2+ -> ~chi_10  H+)
     7.92191003E-02    2     1000039        24   # BR(~chi_2+ -> ~G       W+)
     2.63612245E-02    2     1000039        37   # BR(~chi_2+ -> ~G       H+)
#
#         PDG            Width
DECAY   1000022     1.E-08   # neutralino1 decays (OJ Mods)
#          BR         NDA      ID1       ID2
     7.58561322E-01    2     1000039        22   # BR(~chi_10 -> ~G        gam)
     2.41438678E-01    2     1000039        23   # BR(~chi_10 -> ~G        Z)
     1.16728637E-11    2     1000039        25   # BR(~chi_10 -> ~G        h)
#
#         PDG            Width
DECAY   1000023     1.E-08   # neutralino2 decays (OJ Mods)
#          BR         NDA      ID1       ID2
     2.54992652E-04    2     1000022        23   # BR(~chi_20 -> ~chi_10   Z )
     6.93393387E-03    2     1000022        25   # BR(~chi_20 -> ~chi_10   h )
     2.33289312E-04    2     1000022        35   # BR(~chi_20 -> ~chi_10   H )
     6.51142733E-03    2     1000022        36   # BR(~chi_20 -> ~chi_10   A )
     6.05127565E-02    2     1000002        -2   # BR(~chi_20 -> ~u_L      ub)
     6.05127565E-02    2    -1000002         2   # BR(~chi_20 -> ~u_L*     u )
     6.04923445E-02    2     1000001        -1   # BR(~chi_20 -> ~d_L      db)
     6.04923445E-02    2    -1000001         1   # BR(~chi_20 -> ~d_L*     d )
     1.71909762E-09    2     2000001        -1   # BR(~chi_20 -> ~d_R      db)
     1.71909762E-09    2    -2000001         1   # BR(~chi_20 -> ~d_R*     d )
     6.05127565E-02    2     1000004        -4   # BR(~chi_20 -> ~c_L      cb)
     6.05127565E-02    2    -1000004         4   # BR(~chi_20 -> ~c_L*     c )
     6.04923445E-02    2     1000003        -3   # BR(~chi_20 -> ~s_L      sb)
     6.04923445E-02    2    -1000003         3   # BR(~chi_20 -> ~s_L*     s )
     1.71909762E-09    2     2000003        -3   # BR(~chi_20 -> ~s_R      sb)
     1.71909762E-09    2    -2000003         3   # BR(~chi_20 -> ~s_R*     s )
     1.34934023E-01    2     1000006        -6   # BR(~chi_20 -> ~t_1      tb)
     1.34934023E-01    2    -1000006         6   # BR(~chi_20 -> ~t_1*     t )
     2.91236721E-02    2     1000005        -5   # BR(~chi_20 -> ~b_1      bb)
     2.91236721E-02    2    -1000005         5   # BR(~chi_20 -> ~b_1*     b )
     2.66964163E-02    2     2000005        -5   # BR(~chi_20 -> ~b_2      bb)
     2.66964163E-02    2    -2000005         5   # BR(~chi_20 -> ~b_2*     b )
     1.28572804E-02    2     1000039        22   # BR(~chi_20 -> ~G        gam)
     6.48608364E-02    2     1000039        23   # BR(~chi_20 -> ~G        Z)
     8.51857112E-04    2     1000039        25   # BR(~chi_20 -> ~G        h)
     2.53459016E-02    2     1000039        35   # BR(~chi_20 -> ~G        H)
     1.00833604E-03    2     1000039        36   # BR(~chi_20 -> ~G        A)
#
#         PDG            Width
DECAY   1000025     1.50249980E+03   # neutralino3 decays
#          BR         NDA      ID1       ID2
     3.00753060E-02    2     1000022        23   # BR(~chi_30 -> ~chi_10   Z )
     9.80039416E-04    2     1000022        25   # BR(~chi_30 -> ~chi_10   h )
     2.91575045E-02    2     1000022        35   # BR(~chi_30 -> ~chi_10   H )
     1.22590055E-03    2     1000022        36   # BR(~chi_30 -> ~chi_10   A )
     9.89424050E-10    2     1000002        -2   # BR(~chi_30 -> ~u_L      ub)
     9.89424050E-10    2    -1000002         2   # BR(~chi_30 -> ~u_L*     u )
     1.76961947E-17    2     2000002        -2   # BR(~chi_30 -> ~u_R      ub)
     1.76961947E-17    2    -2000002         2   # BR(~chi_30 -> ~u_R*     u )
     2.34898283E-09    2     1000001        -1   # BR(~chi_30 -> ~d_L      db)
     2.34898283E-09    2    -1000001         1   # BR(~chi_30 -> ~d_L*     d )
     2.89380901E-10    2     2000001        -1   # BR(~chi_30 -> ~d_R      db)
     2.89380901E-10    2    -2000001         1   # BR(~chi_30 -> ~d_R*     d )
     9.89424050E-10    2     1000004        -4   # BR(~chi_30 -> ~c_L      cb)
     9.89424050E-10    2    -1000004         4   # BR(~chi_30 -> ~c_L*     c )
     1.76961947E-17    2     2000004        -4   # BR(~chi_30 -> ~c_R      cb)
     1.76961947E-17    2    -2000004         4   # BR(~chi_30 -> ~c_R*     c )
     2.34898283E-09    2     1000003        -3   # BR(~chi_30 -> ~s_L      sb)
     2.34898283E-09    2    -1000003         3   # BR(~chi_30 -> ~s_L*     s )
     2.89380901E-10    2     2000003        -3   # BR(~chi_30 -> ~s_R      sb)
     2.89380901E-10    2    -2000003         3   # BR(~chi_30 -> ~s_R*     s )
     3.51813336E-01    2     1000006        -6   # BR(~chi_30 -> ~t_1      tb)
     3.51813336E-01    2    -1000006         6   # BR(~chi_30 -> ~t_1*     t )
     1.19153538E-04    2     1000005        -5   # BR(~chi_30 -> ~b_1      bb)
     1.19153538E-04    2    -1000005         5   # BR(~chi_30 -> ~b_1*     b )
     1.21338396E-04    2     2000005        -5   # BR(~chi_30 -> ~b_2      bb)
     1.21338396E-04    2    -2000005         5   # BR(~chi_30 -> ~b_2*     b )
     5.85477145E-23    2     1000012       -12   # BR(~chi_30 -> ~nu_eL    nu_eb)
     5.85477145E-23    2    -1000012        12   # BR(~chi_30 -> ~nu_eL*   nu_e )
     5.85477145E-23    2     1000014       -14   # BR(~chi_30 -> ~nu_muL   nu_mub)
     5.85477145E-23    2    -1000014        14   # BR(~chi_30 -> ~nu_muL*  nu_mu )
     5.85477145E-23    2     1000016       -16   # BR(~chi_30 -> ~nu_tau1  nu_taub)
     5.85477145E-23    2    -1000016        16   # BR(~chi_30 -> ~nu_tau1* nu_tau )
     3.21349948E-10    2     1000039        22   # BR(~chi_30 -> ~G        gam)
     4.51231072E-03    2     1000039        23   # BR(~chi_30 -> ~G        Z)
     1.13507570E-01    2     1000039        25   # BR(~chi_30 -> ~G        h)
     3.80600056E-03    2     1000039        35   # BR(~chi_30 -> ~G        H)
     1.12627696E-01    2     1000039        36   # BR(~chi_30 -> ~G        A)
#
#         PDG            Width
DECAY   1000035     3.91574721E+03   # neutralino4 decays
#          BR         NDA      ID1       ID2
     2.55394080E-04    2     1000022        23   # BR(~chi_40 -> ~chi_10   Z )
     1.04492651E-18    2     1000023        23   # BR(~chi_40 -> ~chi_20   Z )
     2.97464639E-04    2     1000024       -24   # BR(~chi_40 -> ~chi_1+   W-)
     2.97464639E-04    2    -1000024        24   # BR(~chi_40 -> ~chi_1-   W+)
     6.91371332E-03    2     1000022        25   # BR(~chi_40 -> ~chi_10   h )
     2.31412272E-04    2     1000022        35   # BR(~chi_40 -> ~chi_10   H )
     6.49073833E-03    2     1000022        36   # BR(~chi_40 -> ~chi_10   A )
     4.28625259E-12    2     1000023        25   # BR(~chi_40 -> ~chi_20   h )
     6.04684292E-02    2     1000002        -2   # BR(~chi_40 -> ~u_L      ub)
     6.04684292E-02    2    -1000002         2   # BR(~chi_40 -> ~u_L*     u )
     1.77672494E-12    2     2000002        -2   # BR(~chi_40 -> ~u_R      ub)
     1.77672494E-12    2    -2000002         2   # BR(~chi_40 -> ~u_R*     u )
     6.04887769E-02    2     1000001        -1   # BR(~chi_40 -> ~d_L      db)
     6.04887769E-02    2    -1000001         1   # BR(~chi_40 -> ~d_L*     d )
     1.71397935E-09    2     2000001        -1   # BR(~chi_40 -> ~d_R      db)
     1.71397935E-09    2    -2000001         1   # BR(~chi_40 -> ~d_R*     d )
     6.04684292E-02    2     1000004        -4   # BR(~chi_40 -> ~c_L      cb)
     6.04684292E-02    2    -1000004         4   # BR(~chi_40 -> ~c_L*     c )
     1.77672494E-12    2     2000004        -4   # BR(~chi_40 -> ~c_R      cb)
     1.77672494E-12    2    -2000004         4   # BR(~chi_40 -> ~c_R*     c )
     6.04887769E-02    2     1000003        -3   # BR(~chi_40 -> ~s_L      sb)
     6.04887769E-02    2    -1000003         3   # BR(~chi_40 -> ~s_L*     s )
     1.71397935E-09    2     2000003        -3   # BR(~chi_40 -> ~s_R      sb)
     1.71397935E-09    2    -2000003         3   # BR(~chi_40 -> ~s_R*     s )
     1.34439139E-01    2     1000006        -6   # BR(~chi_40 -> ~t_1      tb)
     1.34439139E-01    2    -1000006         6   # BR(~chi_40 -> ~t_1*     t )
     2.65043198E-02    2     1000005        -5   # BR(~chi_40 -> ~b_1      bb)
     2.65043198E-02    2    -1000005         5   # BR(~chi_40 -> ~b_1*     b )
     2.93170940E-02    2     2000005        -5   # BR(~chi_40 -> ~b_2      bb)
     2.93170940E-02    2    -2000005         5   # BR(~chi_40 -> ~b_2*     b )
     5.07958511E-08    2     1000011       -11   # BR(~chi_40 -> ~e_L-     e+)
     5.07958511E-08    2    -1000011        11   # BR(~chi_40 -> ~e_L+     e-)
     1.29626548E-14    2     2000011       -11   # BR(~chi_40 -> ~e_R-     e+)
     1.29626548E-14    2    -2000011        11   # BR(~chi_40 -> ~e_R+     e-)
     5.07958511E-08    2     1000013       -13   # BR(~chi_40 -> ~mu_L-    mu+)
     5.07958511E-08    2    -1000013        13   # BR(~chi_40 -> ~mu_L+    mu-)
     1.29626548E-14    2     2000013       -13   # BR(~chi_40 -> ~mu_R-    mu+)
     1.29626548E-14    2    -2000013        13   # BR(~chi_40 -> ~mu_R+    mu-)
     2.47693369E-08    2     1000015       -15   # BR(~chi_40 -> ~tau_1-   tau+)
     2.47693369E-08    2    -1000015        15   # BR(~chi_40 -> ~tau_1+   tau-)
     2.59437674E-08    2     2000015       -15   # BR(~chi_40 -> ~tau_2-   tau+)
     2.59437674E-08    2    -2000015        15   # BR(~chi_40 -> ~tau_2+   tau-)
     5.08627714E-08    2     1000012       -12   # BR(~chi_40 -> ~nu_eL    nu_eb)
     5.08627714E-08    2    -1000012        12   # BR(~chi_40 -> ~nu_eL*   nu_e )
     5.08627714E-08    2     1000014       -14   # BR(~chi_40 -> ~nu_muL   nu_mub)
     5.08627714E-08    2    -1000014        14   # BR(~chi_40 -> ~nu_muL*  nu_mu )
     5.08627714E-08    2     1000016       -16   # BR(~chi_40 -> ~nu_tau1  nu_taub)
     5.08627714E-08    2    -1000016        16   # BR(~chi_40 -> ~nu_tau1* nu_tau )
     1.28912143E-02    2     1000039        22   # BR(~chi_40 -> ~G        gam)
     6.52892865E-02    2     1000039        23   # BR(~chi_40 -> ~G        Z)
     8.58623842E-04    2     1000039        25   # BR(~chi_40 -> ~G        h)
     2.55030475E-02    2     1000039        35   # BR(~chi_40 -> ~G        H)
     1.01308451E-03    2     1000039        36   # BR(~chi_40 -> ~G        A)
#
#
#
#
