#
#                              ======================
#                              | THE SUSYHIT OUTPUT |
#                              ======================
#
#
#              ------------------------------------------------------
#              |     This is the output of the SUSY-HIT package     |
#              |  created by A.Djouadi, M.Muehlleitner and M.Spira. |
#              |  In case of problems with SUSY-HIT email to        |
#              |           margarete.muehlleitner@cern.ch           |
#              |           michael.spira@psi.ch                     |
#              |           abdelhak.djouadi@cern.ch                 |
#              ------------------------------------------------------
#
#              ------------------------------------------------------
#              |  SUSY Les Houches Accord - MSSM Spectrum + Decays  |
#              |              based on the decay programs           |
#              |                                                    |
#              |                     SDECAY 1.3b                    |
#              |                                                    |
#              |  Authors: M.Muhlleitner, A.Djouadi and Y.Mambrini  |
#              |  Ref.:    Comput.Phys.Commun.168(2005)46           |
#              |           [hep-ph/0311167]                         |
#              |                                                    |
#              |                     HDECAY 3.4                     |
#              |                                                    |
#              |  By: A.Djouadi,J.Kalinowski,M.Muhlleitner,M.Spira  |
#              |  Ref.:    Comput.Phys.Commun.108(1998)56           |
#              |           [hep-ph/9704448]                         |
#              |                                                    |
#              |                                                    |
#              |  If not stated otherwise all DRbar couplings and   |
#              |  soft SUSY breaking masses are given at the scale  |
#              |  Q=  0.91187600E+02
#              |                                                    |
#              ------------------------------------------------------
#
#
BLOCK DCINFO  # Decay Program information
     1   SDECAY/HDECAY # decay calculator
     2   1.3b  /3.4    # version number
#
BLOCK SPINFO  # Spectrum calculator information
     1   SuSpect     # RGE +Spectrum calculator            
     2   2.41         # version number                     
#
BLOCK MODSEL  # Model selection
     1     0   # #general MSSM low scale                           
#
BLOCK SMINPUTS  # Standard Model inputs
         1     1.27934000E+02   # alpha_em^-1(M_Z)^MSbar
         2     1.16639000E-05   # G_F [GeV^-2]
         3     1.17200000E-01   # alpha_S(M_Z)^MSbar
         4     9.11870000E+01   # M_Z pole mass
         5     4.25000000E+00   # mb(mb)^MSbar
         6     1.72500000E+02   # mt pole mass
         7     1.77700000E+00   # mtau pole mass
#
BLOCK MINPAR  # Input parameters - minimal models
#
BLOCK EXTPAR  # Input parameters - non-minimal models
         0     9.11876000E+01   # EWSB                
         1     2.00000000E+02   # M_1                 
         2     1.00000000E+05   # M_2                 
         3     1.00000000E+05   # M_3                 
        11     0.00000000E+00   # A_t                 
        12     0.00000000E+00   # A_b                 
        13     0.00000000E+00   # A_tau               
        14     0.00000000E+00   # A_u                 
        15     0.00000000E+00   # A_d                 
        16     0.00000000E+00   # A_e                 
        23     3.50000000E+03   # mu(EWSB)            
        25     1.50000000E+00   # tanbeta(in)         
        26     2.00000000E+03   # MA_pole             
        31     1.00000000E+05   # M_eL                
        32     1.00000000E+05   # M_muL               
        33     1.00000000E+05   # M_tauL              
        34     1.00000000E+05   # M_eR                
        35     1.00000000E+05   # M_muR               
        36     1.00000000E+05   # M_tauR              
        41     2.00000000E+03   # M_q1L               
        42     2.00000000E+03   # M_q2L               
        43     2.00000000E+03   # M_q3L               
        44     1.00000000E+05   # M_uR                
        45     1.00000000E+05   # M_cR                
        46     1.00000000E+05   # M_tR                
        47     2.00000000E+03   # M_dR                
        48     2.00000000E+03   # M_sR                
        49     2.00000000E+03   # M_bR                
#
BLOCK MASS  # Mass Spectrum
# PDG code           mass       particle
        24     8.05846175E+01   # W+
        25     1.25000000E+02   # h
        35     2.00405600E+03   # H
        36     2.00000000E+03   # A
        37     2.02368951E+03   # H+
         5     4.87877839E+00   # b-quark pole mass calculated from mb(mb)_Msbar
   1000001     2.00033146E+03   # ~d_L
   2000001     2.00006396E+03   # ~d_R
   1000002     1.99973245E+03   # ~u_L
   2000002     9.99999974E+04   # ~u_R
   1000003     2.00033146E+03   # ~s_L
   2000003     2.00006396E+03   # ~s_R
   1000004     1.99973245E+03   # ~c_L
   2000004     9.99999974E+04   # ~c_R
   1000005     1.99679881E+03   # ~b_1
   2000005     2.00359420E+03   # ~b_2
   1000006     2.00516206E+03   # ~t_1
   2000006     1.00000106E+05   # ~t_2
   1000011     1.00000004E+05   # ~e_L
   2000011     1.00000004E+05   # ~e_R
   1000012     9.99999921E+04   # ~nu_eL
   1000013     1.00000004E+05   # ~mu_L
   2000013     1.00000004E+05   # ~mu_R
   1000014     9.99999921E+04   # ~nu_muL
   1000015     9.99999574E+04   # ~tau_1
   2000015     1.00000051E+05   # ~tau_2
   1000016     9.99999921E+04   # ~nu_tauL
   1000021     1.00000000E+05   # ~g
   1000022     1.99439374E+02   # ~chi_10
   1000023    -3.50002306E+03   # ~chi_20
   1000025     3.50051930E+03   # ~chi_30
   1000035     1.00000064E+05   # ~chi_40
   1000024     3.49994024E+03   # ~chi_1+
   1000037     1.00000064E+05   # ~chi_2+
   1000039     1.00000000E-09   # ~gravitino
#
BLOCK NMIX  # Neutralino Mixing Matrix
  1  1     9.99909135E-01   # N_11
  1  2    -9.92442173E-06   # N_12
  1  3     1.10583200E-02   # N_13
  1  4    -7.70947455E-03   # N_14
  2  1     2.36797842E-03   # N_21
  2  2    -1.49570504E-04   # N_22
  2  3    -7.07093143E-01   # N_23
  2  4    -7.07116438E-01   # N_24
  3  1     1.32708391E-02   # N_31
  3  2     8.01973311E-04   # N_32
  3  3    -7.07033795E-01   # N_33
  3  4     7.07054775E-01   # N_34
  4  1     3.65160178E-07   # N_41
  4  2    -9.99999667E-01   # N_42
  4  3    -4.61371857E-04   # N_43
  4  4     6.72879556E-04   # N_44
#
BLOCK UMIX  # Chargino Mixing Matrix U
  1  1    -6.52478132E-04   # U_11
  1  2     9.99999787E-01   # U_12
  2  1     9.99999787E-01   # U_21
  2  2     6.52478132E-04   # U_22
#
BLOCK VMIX  # Chargino Mixing Matrix V
  1  1    -9.51595307E-04   # V_11
  1  2     9.99999547E-01   # V_12
  2  1     9.99999547E-01   # V_21
  2  2     9.51595307E-04   # V_22
#
BLOCK STOPMIX  # Stop Mixing Matrix
  1  1     9.99999999E-01   # cos(theta_t)
  1  2     4.47213589E-05   # sin(theta_t)
  2  1    -4.47213589E-05   # -sin(theta_t)
  2  2     9.99999999E-01   # cos(theta_t)
#
BLOCK SBOTMIX  # Sbottom Mixing Matrix
  1  1     6.93049181E-01   # cos(theta_b)
  1  2     7.20890306E-01   # sin(theta_b)
  2  1    -7.20890306E-01   # -sin(theta_b)
  2  2     6.93049181E-01   # cos(theta_b)
#
BLOCK STAUMIX  # Stau Mixing Matrix
  1  1     7.06218577E-01   # cos(theta_tau)
  1  2     7.07993871E-01   # sin(theta_tau)
  2  1    -7.07993871E-01   # -sin(theta_tau)
  2  2     7.06218577E-01   # cos(theta_tau)
#
BLOCK ALPHA  # Higgs mixing
          -5.90341474E-01   # Mixing angle in the neutral Higgs boson sector
#
BLOCK HMIX Q=  9.11876000E+01  # DRbar Higgs Parameters
         1     3.50000000E+03   # mu(Q)               
         2     1.49999982E+00   # tanbeta(Q)          
         3     2.54860350E+02   # vev(Q)              
         4    -6.80656265E+07   # MA^2(Q)             
#
BLOCK GAUGE Q=  9.11876000E+01  # The gauge couplings
     1     3.50559829E-01   # gprime(Q) DRbar
     2     6.19393127E-01   # g(Q) DRbar
     3     1.02218778E+00   # g3(Q) DRbar
#
BLOCK AU Q=  9.11876000E+01  # The trilinear couplings
  1  1     0.00000000E+00   # A_u(Q) DRbar
  2  2     0.00000000E+00   # A_c(Q) DRbar
  3  3     0.00000000E+00   # A_t(Q) DRbar
#
BLOCK AD Q=  9.11876000E+01  # The trilinear couplings
  1  1     0.00000000E+00   # A_d(Q) DRbar
  2  2     0.00000000E+00   # A_s(Q) DRbar
  3  3     0.00000000E+00   # A_b(Q) DRbar
#
BLOCK AE Q=  9.11876000E+01  # The trilinear couplings
  1  1     0.00000000E+00   # A_e(Q) DRbar
  2  2     0.00000000E+00   # A_mu(Q) DRbar
  3  3     0.00000000E+00   # A_tau(Q) DRbar
#
BLOCK Yu Q=  9.11876000E+01  # The Yukawa couplings
  1  1     0.00000000E+00   # y_u(Q) DRbar
  2  2     0.00000000E+00   # y_c(Q) DRbar
  3  3     9.83696657E-01   # y_t(Q) DRbar
#
BLOCK Yd Q=  9.11876000E+01  # The Yukawa couplings
  1  1     0.00000000E+00   # y_d(Q) DRbar
  2  2     0.00000000E+00   # y_s(Q) DRbar
  3  3     2.58788756E-02   # y_b(Q) DRbar
#
BLOCK Ye Q=  9.11876000E+01  # The Yukawa couplings
  1  1     0.00000000E+00   # y_e(Q) DRbar
  2  2     0.00000000E+00   # y_mu(Q) DRbar
  3  3     1.77410088E-02   # y_tau(Q) DRbar
#
BLOCK MSOFT Q=  9.11876000E+01  # The soft SUSY breaking masses at the scale Q
         1     2.00000000E+02   # M_1                 
         2     1.00000000E+05   # M_2                 
         3     1.00000000E+05   # M_3                 
        14     0.00000000E+00   # A_u                 
        15     0.00000000E+00   # A_d                 
        16     0.00000000E+00   # A_e                 
        21     6.30059032E+08   # M^2_Hd              
        22    -1.15118733E+09   # M^2_Hu              
        31     1.00000000E+05   # M_eL                
        32     1.00000000E+05   # M_muL               
        33     1.00000000E+05   # M_tauL              
        34     1.00000000E+05   # M_eR                
        35     1.00000000E+05   # M_muR               
        36     1.00000000E+05   # M_tauR              
        41     2.00000000E+03   # M_q1L               
        42     2.00000000E+03   # M_q2L               
        43     2.00000000E+03   # M_q3L               
        44     1.00000000E+05   # M_uR                
        45     1.00000000E+05   # M_cR                
        46     1.00000000E+05   # M_tR                
        47     2.00000000E+03   # M_dR                
        48     2.00000000E+03   # M_sR                
        49     2.00000000E+03   # M_bR                
#
#
#
#                             =================
#                             |The decay table|
#                             =================
#
# - The QCD corrections to the decays gluino -> squark  + quark
#                                     squark -> gaugino + quark_prime
#                                     squark -> squark_prime + Higgs
#                                     squark -> gluino  + quark
#   are included.
#
# - The multi-body decays for the inos, stops and sbottoms are included.
#
# - The loop induced decays for the gluino, neutralinos and stops
#   are included.
#
# - The SUSY decays of the top quark are included.
#
# - Possible decays of the NLSP in GMSB models are included.
#
#
#         PDG            Width
DECAY         6     1.32408081E+00   # top decays
#          BR         NDA      ID1       ID2
     1.00000000E+00    2           5        24   # BR(t ->  b    W+)
#
#         PDG            Width
DECAY   1000021     1.E-04   # gluino decays (OJ Mods)
#          BR         NDA      ID1       ID2
     1.09585030E-03    2     1000001        -1   # BR(~g -> ~d_L  db)
     1.09585030E-03    2    -1000001         1   # BR(~g -> ~d_L* d )
     1.09585053E-03    2     2000001        -1   # BR(~g -> ~d_R  db)
     1.09585053E-03    2    -2000001         1   # BR(~g -> ~d_R* d )
     1.09585082E-03    2     1000002        -2   # BR(~g -> ~u_L  ub)
     1.09585082E-03    2    -1000002         2   # BR(~g -> ~u_L* u )
     2.96555189E-18    2     2000002        -2   # BR(~g -> ~u_R  ub)
     2.96555189E-18    2    -2000002         2   # BR(~g -> ~u_R* u )
     1.09585030E-03    2     1000003        -3   # BR(~g -> ~s_L  sb)
     1.09585030E-03    2    -1000003         3   # BR(~g -> ~s_L* s )
     1.09585053E-03    2     2000003        -3   # BR(~g -> ~s_R  sb)
     1.09585053E-03    2    -2000003         3   # BR(~g -> ~s_R* s )
     1.09585082E-03    2     1000004        -4   # BR(~g -> ~c_L  cb)
     1.09585082E-03    2    -1000004         4   # BR(~g -> ~c_L* c )
     2.96555189E-18    2     2000004        -4   # BR(~g -> ~c_R  cb)
     2.96555189E-18    2    -2000004         4   # BR(~g -> ~c_R* c )
     2.39325411E-01    2     1000005        -5   # BR(~g -> ~b_1  bb)
     2.39325411E-01    2    -1000005         5   # BR(~g -> ~b_1* b )
     2.37627366E-01    2     2000005        -5   # BR(~g -> ~b_2  bb)
     2.37627366E-01    2    -2000005         5   # BR(~g -> ~b_2* b )
     1.07855793E-03    2     1000006        -6   # BR(~g -> ~t_1  tb)
     1.07855793E-03    2    -1000006         6   # BR(~g -> ~t_1* t )
     3.07871238E-02    2     1000039        21   # BR(~g -> ~G g)
#
#         PDG            Width
DECAY   1000006     3.12919845E-01   # stop1 decays
#          BR         NDA      ID1       ID2
     1.00000000E+00    2     1000022         6   # BR(~t_1 -> ~chi_10 t )
#
#         PDG            Width
DECAY   2000006     1.51050270E+05   # stop2 decays
#          BR         NDA      ID1       ID2
     1.37983026E-03    2     1000022         6   # BR(~t_2 -> ~chi_10 t )
     3.32251166E-03    2     1000023         6   # BR(~t_2 -> ~chi_20 t )
     3.32211774E-03    2     1000025         6   # BR(~t_2 -> ~chi_30 t )
     9.92087791E-01    2     1000024         5   # BR(~t_2 -> ~chi_1+ b )
    -8.96232166E-05    2     1000006        25   # BR(~t_2 -> ~t_1    h )
     9.38874728E-05    2     1000006        35   # BR(~t_2 -> ~t_1    H )
     9.37203719E-05    2     1000006        36   # BR(~t_2 -> ~t_1    A )
     8.82984707E-05    2     1000005        37   # BR(~t_2 -> ~b_1    H+)
     9.91392245E-05    2     2000005        37   # BR(~t_2 -> ~b_2    H+)
    -6.36783183E-05    2     1000006        23   # BR(~t_2 -> ~t_1    Z )
    -1.60426513E-04    2     1000005        24   # BR(~t_2 -> ~b_1    W+)
    -1.73567874E-04    2     2000005        24   # BR(~t_2 -> ~b_2    W+)
#
#         PDG            Width
DECAY   1000005     6.28140391E+01   # sbottom1 decays
#          BR         NDA      ID1       ID2
     1.00000000E+00    2     1000022         5   # BR(~b_1 -> ~chi_10 b )
#
#         PDG            Width
DECAY   2000005     5.89183216E+01   # sbottom2 decays
#          BR         NDA      ID1       ID2
     1.00000000E+00    2     1000022         5   # BR(~b_2 -> ~chi_10 b )
#
#         PDG            Width
DECAY   1000002     3.14759305E-01   # sup_L decays
#          BR         NDA      ID1       ID2
     1.00000000E+00    2     1000022         2   # BR(~u_L -> ~chi_10 u)
#
#         PDG            Width
DECAY   2000002     2.08396568E+02   # sup_R decays
#          BR         NDA      ID1       ID2
     9.99818476E-01    2     1000022         2   # BR(~u_R -> ~chi_10 u)
     5.60120315E-06    2     1000023         2   # BR(~u_R -> ~chi_20 u)
     1.75922918E-04    2     1000025         2   # BR(~u_R -> ~chi_30 u)
#
#         PDG            Width
DECAY   1000001     3.14919039E-01   # sdown_L decays
#          BR         NDA      ID1       ID2
     1.00000000E+00    2     1000022         1   # BR(~d_L -> ~chi_10 d)
#
#         PDG            Width
DECAY   2000001     1.25937664E+00   # sdown_R decays
#          BR         NDA      ID1       ID2
     1.00000000E+00    2     1000022         1   # BR(~d_R -> ~chi_10 d)
#
#         PDG            Width
DECAY   1000004     3.14759305E-01   # scharm_L decays
#          BR         NDA      ID1       ID2
     1.00000000E+00    2     1000022         4   # BR(~c_L -> ~chi_10 c)
#
#         PDG            Width
DECAY   2000004     2.08396568E+02   # scharm_R decays
#          BR         NDA      ID1       ID2
     9.99818476E-01    2     1000022         4   # BR(~c_R -> ~chi_10 c)
     5.60120315E-06    2     1000023         4   # BR(~c_R -> ~chi_20 c)
     1.75922918E-04    2     1000025         4   # BR(~c_R -> ~chi_30 c)
#
#         PDG            Width
DECAY   1000003     3.14919039E-01   # sstrange_L decays
#          BR         NDA      ID1       ID2
     1.00000000E+00    2     1000022         3   # BR(~s_L -> ~chi_10 s)
#
#         PDG            Width
DECAY   2000003     1.25937664E+00   # sstrange_R decays
#          BR         NDA      ID1       ID2
     1.00000000E+00    2     1000022         3   # BR(~s_R -> ~chi_10 s)
#
#         PDG            Width
DECAY   1000011     1.22242828E+02   # selectron_L decays
#          BR         NDA      ID1       ID2
     9.99777729E-01    2     1000022        11   # BR(~e_L -> ~chi_10 e-)
     4.41475790E-06    2     1000023        11   # BR(~e_L -> ~chi_20 e-)
     2.15204227E-04    2     1000025        11   # BR(~e_L -> ~chi_30 e-)
     2.65159274E-06    2    -1000024        12   # BR(~e_L -> ~chi_1- nu_e)
#
#         PDG            Width
DECAY   2000011     4.88968416E+02   # selectron_R decays
#          BR         NDA      ID1       ID2
     9.99818721E-01    2     1000022        11   # BR(~e_R -> ~chi_10 e-)
     5.59363907E-06    2     1000023        11   # BR(~e_R -> ~chi_20 e-)
     1.75685300E-04    2     1000025        11   # BR(~e_R -> ~chi_30 e-)
#
#         PDG            Width
DECAY   1000013     1.22242828E+02   # smuon_L decays
#          BR         NDA      ID1       ID2
     9.99777729E-01    2     1000022        13   # BR(~mu_L -> ~chi_10 mu-)
     4.41475790E-06    2     1000023        13   # BR(~mu_L -> ~chi_20 mu-)
     2.15204227E-04    2     1000025        13   # BR(~mu_L -> ~chi_30 mu-)
     2.65159274E-06    2    -1000024        14   # BR(~mu_L -> ~chi_1- nu_mu)
#
#         PDG            Width
DECAY   2000013     4.88968416E+02   # smuon_R decays
#          BR         NDA      ID1       ID2
     9.99818721E-01    2     1000022        13   # BR(~mu_R -> ~chi_10 mu-)
     5.59363907E-06    2     1000023        13   # BR(~mu_R -> ~chi_20 mu-)
     1.75685300E-04    2     1000025        13   # BR(~mu_R -> ~chi_30 mu-)
#
#         PDG            Width
DECAY   1000015     1.18199450E+04   # stau_1 decays
#          BR         NDA      ID1       ID2
     2.58973023E-02    2     1000022        15   # BR(~tau_1 -> ~chi_10  tau-)
     2.51861394E-05    2     1000023        15   # BR(~tau_1 -> ~chi_20  tau-)
     2.49818697E-05    2     1000025        15   # BR(~tau_1 -> ~chi_30  tau-)
     2.77064740E-05    2    -1000024        16   # BR(~tau_1 -> ~chi_1-  nu_tau)
     9.74024823E-01    2     1000039        15   # BR(~tau_1 -> ~G       tau-)
#
#         PDG            Width
DECAY   2000015     3.06059969E+02   # stau_2 decays
#          BR         NDA      ID1       ID2
     9.96506986E-01    2     1000022        15   # BR(~tau_2 -> ~chi_10  tau-)
     1.07881085E-03    2     1000023        15   # BR(~tau_2 -> ~chi_20  tau-)
     1.44228996E-03    2     1000025        15   # BR(~tau_2 -> ~chi_30  tau-)
     9.71913662E-04    2    -1000024        16   # BR(~tau_2 -> ~chi_1-  nu_tau)
#
#         PDG            Width
DECAY   1000012     1.22242885E+02   # snu_eL decays
#          BR         NDA      ID1       ID2
     9.99847278E-01    2     1000022        12   # BR(~nu_eL -> ~chi_10 nu_e)
     6.91178700E-06    2     1000023        12   # BR(~nu_eL -> ~chi_20 nu_e)
     1.40170056E-04    2     1000025        12   # BR(~nu_eL -> ~chi_30 nu_e)
     5.64000161E-06    2     1000024        11   # BR(~nu_eL -> ~chi_1+ e-)
#
#         PDG            Width
DECAY   1000014     1.22242885E+02   # snu_muL decays
#          BR         NDA      ID1       ID2
     9.99847278E-01    2     1000022        14   # BR(~nu_muL -> ~chi_10 nu_mu)
     6.91178700E-06    2     1000023        14   # BR(~nu_muL -> ~chi_20 nu_mu)
     1.40170056E-04    2     1000025        14   # BR(~nu_muL -> ~chi_30 nu_mu)
     5.64000161E-06    2     1000024        13   # BR(~nu_muL -> ~chi_1+ mu-)
#
#         PDG            Width
DECAY   1000016     1.22867514E+02   # snu_tauL decays
#          BR         NDA      ID1       ID2
     9.94764297E-01    2     1000022        16   # BR(~nu_tauL -> ~chi_10 nu_tau)
     6.87664915E-06    2     1000023        16   # BR(~nu_tauL -> ~chi_20 nu_tau)
     1.39457466E-04    2     1000025        16   # BR(~nu_tauL -> ~chi_30 nu_tau)
     5.08936856E-03    2     1000024        15   # BR(~nu_tauL -> ~chi_1+ tau-)
#
#         PDG            Width
DECAY   1000024     4.56810831E+01   # chargino1+ decays
#          BR         NDA      ID1       ID2
     4.34646585E-07    2     1000002        -1   # BR(~chi_1+ -> ~u_L     db)
     2.04232713E-07    2    -1000001         2   # BR(~chi_1+ -> ~d_L*    u )
     4.34646585E-07    2     1000004        -3   # BR(~chi_1+ -> ~c_L     sb)
     2.04232713E-07    2    -1000003         4   # BR(~chi_1+ -> ~s_L*    c )
     6.52351727E-02    2     1000006        -5   # BR(~chi_1+ -> ~t_1     bb)
     9.51889041E-02    2    -1000005         6   # BR(~chi_1+ -> ~b_1*    t )
     7.72551572E-01    2    -2000005         6   # BR(~chi_1+ -> ~b_2*    t )
     4.96178291E-02    2     1000022        24   # BR(~chi_1+ -> ~chi_10  W+)
     1.73973403E-02    2     1000022        37   # BR(~chi_1+ -> ~chi_10  H+)
     6.60444408E-06    2     1000039        24   # BR(~chi_1+ -> ~G       W+)
     1.29949074E-06    2     1000039        37   # BR(~chi_1+ -> ~G       H+)
#
#         PDG            Width
DECAY   1000037     9.71293522E+04   # chargino2+ decays
#          BR         NDA      ID1       ID2
     1.01036628E-02    2     1000002        -1   # BR(~chi_2+ -> ~u_L     db)
     1.01036654E-02    2    -1000001         2   # BR(~chi_2+ -> ~d_L*    u )
     1.01036628E-02    2     1000004        -3   # BR(~chi_2+ -> ~c_L     sb)
     1.01036654E-02    2    -1000003         4   # BR(~chi_2+ -> ~s_L*    c )
     8.27946440E-01    2     1000006        -5   # BR(~chi_2+ -> ~t_1     bb)
     2.23248404E-03    2    -1000005         6   # BR(~chi_2+ -> ~b_1*    t )
     9.56241452E-03    2    -2000005         6   # BR(~chi_2+ -> ~b_2*    t )
     7.26358012E-15    2     1000012       -11   # BR(~chi_2+ -> ~nu_eL   e+  )
     7.26358012E-15    2     1000014       -13   # BR(~chi_2+ -> ~nu_muL  mu+ )
     5.05819667E-15    2    -1000011        12   # BR(~chi_2+ -> ~e_L+    nu_e)
     5.05819667E-15    2    -1000013        14   # BR(~chi_2+ -> ~mu_L+   nu_mu)
     7.96286621E-15    2    -1000015        16   # BR(~chi_2+ -> ~tau_1+  nu_tau)
     1.19029691E-16    2    -2000015        16   # BR(~chi_2+ -> ~tau_2+  nu_tau)
     1.84950672E-03    2     1000024        23   # BR(~chi_2+ -> ~chi_1+  Z )
     2.47161984E-07    2     1000022        24   # BR(~chi_2+ -> ~chi_10  W+)
     1.79365582E-03    2     1000023        24   # BR(~chi_2+ -> ~chi_20  W+)
     1.79338953E-03    2     1000025        24   # BR(~chi_2+ -> ~chi_30  W+)
     1.86987346E-03    2     1000024        25   # BR(~chi_2+ -> ~chi_1+  h )
     1.64138885E-03    2     1000024        35   # BR(~chi_2+ -> ~chi_1+  H )
     1.64161024E-03    2     1000024        36   # BR(~chi_2+ -> ~chi_1+  A )
     3.40250190E-07    2     1000022        37   # BR(~chi_2+ -> ~chi_10  H+)
     1.64154748E-03    2     1000023        37   # BR(~chi_2+ -> ~chi_20  H+)
     1.64127225E-03    2     1000025        37   # BR(~chi_2+ -> ~chi_30  H+)
     1.05971143E-01    2     1000039        24   # BR(~chi_2+ -> ~G       W+)
     3.03301735E-08    2     1000039        37   # BR(~chi_2+ -> ~G       H+)
#
#         PDG            Width
DECAY   1000022     1.E-08   # neutralino1 decays (OJ Mods)
#          BR         NDA      ID1       ID2
     8.88559806E-01    2     1000039        22   # BR(~chi_10 -> ~G        gam)
     1.11440189E-01    2     1000039        23   # BR(~chi_10 -> ~G        Z)
     4.94778307E-09    2     1000039        25   # BR(~chi_10 -> ~G        h)
#
#         PDG            Width
DECAY   1000023     1.E-08   # neutralino2 decays (OJ Mods)
#          BR         NDA      ID1       ID2
     4.70168001E-02    2     1000022        23   # BR(~chi_20 -> ~chi_10   Z )
     1.47516586E-03    2     1000022        25   # BR(~chi_20 -> ~chi_10   h )
     1.59700700E-02    2     1000022        35   # BR(~chi_20 -> ~chi_10   H )
     9.00186717E-04    2     1000022        36   # BR(~chi_20 -> ~chi_10   A )
     2.35331820E-08    2     1000002        -2   # BR(~chi_20 -> ~u_L      ub)
     2.35331820E-08    2    -1000002         2   # BR(~chi_20 -> ~u_L*     u )
     9.47093004E-08    2     1000001        -1   # BR(~chi_20 -> ~d_L      db)
     9.47093004E-08    2    -1000001         1   # BR(~chi_20 -> ~d_L*     d )
     2.12675808E-07    2     2000001        -1   # BR(~chi_20 -> ~d_R      db)
     2.12675808E-07    2    -2000001         1   # BR(~chi_20 -> ~d_R*     d )
     2.35331820E-08    2     1000004        -4   # BR(~chi_20 -> ~c_L      cb)
     2.35331820E-08    2    -1000004         4   # BR(~chi_20 -> ~c_L*     c )
     9.47093004E-08    2     1000003        -3   # BR(~chi_20 -> ~s_L      sb)
     9.47093004E-08    2    -1000003         3   # BR(~chi_20 -> ~s_L*     s )
     2.12675808E-07    2     2000003        -3   # BR(~chi_20 -> ~s_R      sb)
     2.12675808E-07    2    -2000003         3   # BR(~chi_20 -> ~s_R*     s )
     4.10426470E-01    2     1000006        -6   # BR(~chi_20 -> ~t_1      tb)
     4.10426470E-01    2    -1000006         6   # BR(~chi_20 -> ~t_1*     t )
     2.72833428E-02    2     1000005        -5   # BR(~chi_20 -> ~b_1      bb)
     2.72833428E-02    2    -1000005         5   # BR(~chi_20 -> ~b_1*     b )
     2.96047404E-02    2     2000005        -5   # BR(~chi_20 -> ~b_2      bb)
     2.96047404E-02    2    -2000005         5   # BR(~chi_20 -> ~b_2*     b )
     4.95639251E-11    2     1000039        22   # BR(~chi_20 -> ~G        gam)
     2.40788061E-07    2     1000039        23   # BR(~chi_20 -> ~G        Z)
     6.00945026E-06    2     1000039        25   # BR(~chi_20 -> ~G        h)
     4.81141170E-08    2     1000039        35   # BR(~chi_20 -> ~G        H)
     1.24143774E-06    2     1000039        36   # BR(~chi_20 -> ~G        A)
#
#         PDG            Width
DECAY   1000025     4.82612138E+01   # neutralino3 decays
#          BR         NDA      ID1       ID2
     1.49516736E-03    2     1000022        23   # BR(~chi_30 -> ~chi_10   Z )
     4.73682508E-02    2     1000022        25   # BR(~chi_30 -> ~chi_10   h )
     8.74442126E-04    2     1000022        35   # BR(~chi_30 -> ~chi_10   H )
     1.59968737E-02    2     1000022        36   # BR(~chi_30 -> ~chi_10   A )
     2.90789796E-06    2     1000002        -2   # BR(~chi_30 -> ~u_L      ub)
     2.90789796E-06    2    -1000002         2   # BR(~chi_30 -> ~u_L*     u )
     7.70188822E-07    2     1000001        -1   # BR(~chi_30 -> ~d_L      db)
     7.70188822E-07    2    -1000001         1   # BR(~chi_30 -> ~d_L*     d )
     6.67041696E-06    2     2000001        -1   # BR(~chi_30 -> ~d_R      db)
     6.67041696E-06    2    -2000001         1   # BR(~chi_30 -> ~d_R*     d )
     2.90789796E-06    2     1000004        -4   # BR(~chi_30 -> ~c_L      cb)
     2.90789796E-06    2    -1000004         4   # BR(~chi_30 -> ~c_L*     c )
     7.70188822E-07    2     1000003        -3   # BR(~chi_30 -> ~s_L      sb)
     7.70188822E-07    2    -1000003         3   # BR(~chi_30 -> ~s_L*     s )
     6.67041696E-06    2     2000003        -3   # BR(~chi_30 -> ~s_R      sb)
     6.67041696E-06    2    -2000003         3   # BR(~chi_30 -> ~s_R*     s )
     4.09908670E-01    2     1000006        -6   # BR(~chi_30 -> ~t_1      tb)
     4.09908670E-01    2    -1000006         6   # BR(~chi_30 -> ~t_1*     t )
     2.39449477E-02    2     1000005        -5   # BR(~chi_30 -> ~b_1      bb)
     2.39449477E-02    2    -1000005         5   # BR(~chi_30 -> ~b_1*     b )
     3.32575751E-02    2     2000005        -5   # BR(~chi_30 -> ~b_2      bb)
     3.32575751E-02    2    -2000005         5   # BR(~chi_30 -> ~b_2*     b )
     1.78885097E-09    2     1000039        22   # BR(~chi_30 -> ~G        gam)
     6.01120230E-06    2     1000039        23   # BR(~chi_30 -> ~G        Z)
     2.34312794E-07    2     1000039        25   # BR(~chi_30 -> ~G        h)
     1.23199288E-06    2     1000039        35   # BR(~chi_30 -> ~G        H)
     4.96162331E-08    2     1000039        36   # BR(~chi_30 -> ~G        A)
#
#         PDG            Width
DECAY   1000035     9.71297411E+04   # neutralino4 decays
#          BR         NDA      ID1       ID2
     2.04105661E-11    2     1000022        23   # BR(~chi_40 -> ~chi_10   Z )
     1.78735231E-03    2     1000023        23   # BR(~chi_40 -> ~chi_20   Z )
     6.21492196E-05    2     1000025        23   # BR(~chi_40 -> ~chi_30   Z )
     1.79363823E-03    2     1000024       -24   # BR(~chi_40 -> ~chi_1+   W-)
     1.79363823E-03    2    -1000024        24   # BR(~chi_40 -> ~chi_1-   W+)
     2.58103504E-07    2     1000022        25   # BR(~chi_40 -> ~chi_10   h )
     4.21365594E-08    2     1000022        35   # BR(~chi_40 -> ~chi_10   H )
     2.97629374E-07    2     1000022        36   # BR(~chi_40 -> ~chi_10   A )
     6.13754350E-05    2     1000023        25   # BR(~chi_40 -> ~chi_20   h )
     1.57082370E-03    2     1000023        35   # BR(~chi_40 -> ~chi_20   H )
     7.22057736E-05    2     1000023        36   # BR(~chi_40 -> ~chi_20   A )
     1.80823515E-03    2     1000025        25   # BR(~chi_40 -> ~chi_30   h )
     7.05151160E-05    2     1000025        35   # BR(~chi_40 -> ~chi_30   H )
     1.56910093E-03    2     1000025        36   # BR(~chi_40 -> ~chi_30   A )
     1.64157514E-03    2     1000024       -37   # BR(~chi_40 -> ~chi_1+   H-)
     1.64157514E-03    2    -1000024        37   # BR(~chi_40 -> ~chi_1-   H+)
     4.83889696E-03    2     1000002        -2   # BR(~chi_40 -> ~u_L      ub)
     4.83889696E-03    2    -1000002         2   # BR(~chi_40 -> ~u_L*     u )
     7.52268451E-23    2     2000002        -2   # BR(~chi_40 -> ~u_R      ub)
     7.52268451E-23    2    -2000002         2   # BR(~chi_40 -> ~u_R*     u )
     4.83889856E-03    2     1000001        -1   # BR(~chi_40 -> ~d_L      db)
     4.83889856E-03    2    -1000001         1   # BR(~chi_40 -> ~d_L*     d )
     9.18591815E-17    2     2000001        -1   # BR(~chi_40 -> ~d_R      db)
     9.18591815E-17    2    -2000001         1   # BR(~chi_40 -> ~d_R*     d )
     4.83889696E-03    2     1000004        -4   # BR(~chi_40 -> ~c_L      cb)
     4.83889696E-03    2    -1000004         4   # BR(~chi_40 -> ~c_L*     c )
     7.52268451E-23    2     2000004        -4   # BR(~chi_40 -> ~c_R      cb)
     7.52268451E-23    2    -2000004         4   # BR(~chi_40 -> ~c_R*     c )
     4.83889856E-03    2     1000003        -3   # BR(~chi_40 -> ~s_L      sb)
     4.83889856E-03    2    -1000003         3   # BR(~chi_40 -> ~s_L*     s )
     9.18591815E-17    2     2000003        -3   # BR(~chi_40 -> ~s_R      sb)
     9.18591815E-17    2    -2000003         3   # BR(~chi_40 -> ~s_R*     s )
     5.89743377E-03    2     1000006        -6   # BR(~chi_40 -> ~t_1      tb)
     5.89743377E-03    2    -1000006         6   # BR(~chi_40 -> ~t_1*     t )
     1.97111616E-01    2     1000005        -5   # BR(~chi_40 -> ~b_1      bb)
     1.97111616E-01    2    -1000005         5   # BR(~chi_40 -> ~b_1*     b )
     2.16861907E-01    2     2000005        -5   # BR(~chi_40 -> ~b_2      bb)
     2.16861907E-01    2    -2000005         5   # BR(~chi_40 -> ~b_2*     b )
     2.52908764E-15    2     1000011       -11   # BR(~chi_40 -> ~e_L-     e+)
     2.52908764E-15    2    -1000011        11   # BR(~chi_40 -> ~e_L+     e-)
     4.32098434E-28    2     2000011       -11   # BR(~chi_40 -> ~e_R-     e+)
     4.32098434E-28    2    -2000011        11   # BR(~chi_40 -> ~e_R+     e-)
     2.52908764E-15    2     1000013       -13   # BR(~chi_40 -> ~mu_L-    mu+)
     2.52908764E-15    2    -1000013        13   # BR(~chi_40 -> ~mu_L+    mu-)
     4.32098434E-28    2     2000013       -13   # BR(~chi_40 -> ~mu_R-    mu+)
     4.32098434E-28    2    -2000013        13   # BR(~chi_40 -> ~mu_R+    mu-)
     3.63177944E-15    2     1000012       -12   # BR(~chi_40 -> ~nu_eL    nu_eb)
     3.63177944E-15    2    -1000012        12   # BR(~chi_40 -> ~nu_eL*   nu_e )
     3.63177944E-15    2     1000014       -14   # BR(~chi_40 -> ~nu_muL   nu_mub)
     3.63177944E-15    2    -1000014        14   # BR(~chi_40 -> ~nu_muL*  nu_mu )
     3.63177944E-15    2     1000016       -16   # BR(~chi_40 -> ~nu_tau1  nu_taub)
     3.63177944E-15    2    -1000016        16   # BR(~chi_40 -> ~nu_tau1* nu_tau )
     2.57096959E-02    2     1000039        22   # BR(~chi_40 -> ~G        gam)
     8.02610604E-02    2     1000039        23   # BR(~chi_40 -> ~G        Z)
     4.83806135E-09    2     1000039        25   # BR(~chi_40 -> ~G        h)
     3.03818560E-08    2     1000039        35   # BR(~chi_40 -> ~G        H)
     5.98676541E-12    2     1000039        36   # BR(~chi_40 -> ~G        A)
#
#
#
#
