#
#                              ======================
#                              | THE SUSYHIT OUTPUT |
#                              ======================
#
#
#              ------------------------------------------------------
#              |     This is the output of the SUSY-HIT package     |
#              |  created by A.Djouadi, M.Muehlleitner and M.Spira. |
#              |  In case of problems with SUSY-HIT email to        |
#              |           margarete.muehlleitner@cern.ch           |
#              |           michael.spira@psi.ch                     |
#              |           abdelhak.djouadi@cern.ch                 |
#              ------------------------------------------------------
#
#              ------------------------------------------------------
#              |  SUSY Les Houches Accord - MSSM Spectrum + Decays  |
#              |              based on the decay programs           |
#              |                                                    |
#              |                     SDECAY 1.3b                    |
#              |                                                    |
#              |  Authors: M.Muhlleitner, A.Djouadi and Y.Mambrini  |
#              |  Ref.:    Comput.Phys.Commun.168(2005)46           |
#              |           [hep-ph/0311167]                         |
#              |                                                    |
#              |                     HDECAY 3.4                     |
#              |                                                    |
#              |  By: A.Djouadi,J.Kalinowski,M.Muhlleitner,M.Spira  |
#              |  Ref.:    Comput.Phys.Commun.108(1998)56           |
#              |           [hep-ph/9704448]                         |
#              |                                                    |
#              |                                                    |
#              |  If not stated otherwise all DRbar couplings and   |
#              |  soft SUSY breaking masses are given at the scale  |
#              |  Q=  0.91187600E+02
#              |                                                    |
#              ------------------------------------------------------
#
#
BLOCK DCINFO  # Decay Program information
     1   SDECAY/HDECAY # decay calculator
     2   1.3b  /3.4    # version number
#
BLOCK SPINFO  # Spectrum calculator information
     1   SuSpect     # RGE +Spectrum calculator            
     2   2.41         # version number                     
#
BLOCK MODSEL  # Model selection
     1     0   # #general MSSM low scale                           
#
BLOCK SMINPUTS  # Standard Model inputs
         1     1.27934000E+02   # alpha_em^-1(M_Z)^MSbar
         2     1.16639000E-05   # G_F [GeV^-2]
         3     1.17200000E-01   # alpha_S(M_Z)^MSbar
         4     9.11870000E+01   # M_Z pole mass
         5     4.25000000E+00   # mb(mb)^MSbar
         6     1.72500000E+02   # mt pole mass
         7     1.77700000E+00   # mtau pole mass
#
BLOCK MINPAR  # Input parameters - minimal models
#
BLOCK EXTPAR  # Input parameters - non-minimal models
         0     9.11876000E+01   # EWSB                
         1     1.20000000E+03   # M_1                 
         2     1.00000000E+05   # M_2                 
         3     1.00000000E+05   # M_3                 
        11     0.00000000E+00   # A_t                 
        12     0.00000000E+00   # A_b                 
        13     0.00000000E+00   # A_tau               
        14     0.00000000E+00   # A_u                 
        15     0.00000000E+00   # A_d                 
        16     0.00000000E+00   # A_e                 
        23     3.50000000E+03   # mu(EWSB)            
        25     1.50000000E+00   # tanbeta(in)         
        26     2.00000000E+03   # MA_pole             
        31     1.00000000E+05   # M_eL                
        32     1.00000000E+05   # M_muL               
        33     1.00000000E+05   # M_tauL              
        34     1.00000000E+05   # M_eR                
        35     1.00000000E+05   # M_muR               
        36     1.00000000E+05   # M_tauR              
        41     1.60000000E+03   # M_q1L               
        42     1.60000000E+03   # M_q2L               
        43     1.60000000E+03   # M_q3L               
        44     1.00000000E+05   # M_uR                
        45     1.00000000E+05   # M_cR                
        46     1.00000000E+05   # M_tR                
        47     1.60000000E+03   # M_dR                
        48     1.60000000E+03   # M_sR                
        49     1.60000000E+03   # M_bR                
#
BLOCK MASS  # Mass Spectrum
# PDG code           mass       particle
        24     8.05829731E+01   # W+
        25     1.25000000E+02   # h
        35     2.00401790E+03   # H
        36     2.00000000E+03   # A
        37     2.02369388E+03   # H+
         5     4.87877839E+00   # b-quark pole mass calculated from mb(mb)_Msbar
   1000001     1.60041502E+03   # ~d_L
   2000001     1.60007997E+03   # ~d_R
   1000002     1.59966486E+03   # ~u_L
   2000002     9.99999974E+04   # ~u_R
   1000003     1.60041502E+03   # ~s_L
   2000003     1.60007997E+03   # ~s_R
   1000004     1.59966486E+03   # ~c_L
   2000004     9.99999974E+04   # ~c_R
   1000005     1.59600059E+03   # ~b_1
   2000005     1.60448734E+03   # ~b_2
   1000006     1.60644681E+03   # ~t_1
   2000006     1.00000106E+05   # ~t_2
   1000011     1.00000004E+05   # ~e_L
   2000011     1.00000004E+05   # ~e_R
   1000012     9.99999921E+04   # ~nu_eL
   1000013     1.00000004E+05   # ~mu_L
   2000013     1.00000004E+05   # ~mu_R
   1000014     9.99999921E+04   # ~nu_muL
   1000015     9.99999574E+04   # ~tau_1
   2000015     1.00000051E+05   # ~tau_2
   1000016     9.99999921E+04   # ~nu_tauL
   1000021     1.00000000E+05   # ~g
   1000022     1.19918212E+03   # ~chi_10
   1000023    -3.50001866E+03   # ~chi_20
   1000025     3.50077203E+03   # ~chi_30
   1000035     1.00000065E+05   # ~chi_40
   1000024     3.49994013E+03   # ~chi_1+
   1000037     1.00000065E+05   # ~chi_2+
   1000039     1.00000000E-09   # ~gravitino
#
BLOCK NMIX  # Neutralino Mixing Matrix
  1  1     9.99817019E-01   # N_11
  1  2    -1.46352900E-05   # N_12
  1  3     1.47803065E-02   # N_13
  1  4    -1.21437871E-02   # N_14
  2  1     1.86438254E-03   # N_21
  2  2    -1.49707436E-04   # N_22
  2  3    -7.07096122E-01   # N_23
  2  4    -7.07114967E-01   # N_24
  3  1     1.90382064E-02   # N_31
  3  2     8.02647711E-04   # N_32
  3  3    -7.06962802E-01   # N_33
  3  4     7.06993988E-01   # N_34
  4  1     3.69249213E-07   # N_41
  4  2    -9.99999667E-01   # N_42
  4  3    -4.61800996E-04   # N_43
  4  4     6.73505427E-04   # N_44
#
BLOCK UMIX  # Chargino Mixing Matrix U
  1  1    -6.53085025E-04   # U_11
  1  2     9.99999787E-01   # U_12
  2  1     9.99999787E-01   # U_21
  2  2     6.53085025E-04   # U_22
#
BLOCK VMIX  # Chargino Mixing Matrix V
  1  1    -9.52480420E-04   # V_11
  1  2     9.99999546E-01   # V_12
  2  1     9.99999546E-01   # V_21
  2  2     9.52480420E-04   # V_22
#
BLOCK STOPMIX  # Stop Mixing Matrix
  1  1     9.99999999E-01   # cos(theta_t)
  1  2     4.47213589E-05   # sin(theta_t)
  2  1    -4.47213589E-05   # -sin(theta_t)
  2  2     9.99999999E-01   # cos(theta_t)
#
BLOCK SBOTMIX  # Sbottom Mixing Matrix
  1  1     6.93008261E-01   # cos(theta_b)
  1  2     7.20929643E-01   # sin(theta_b)
  2  1    -7.20929643E-01   # -sin(theta_b)
  2  2     6.93008261E-01   # cos(theta_b)
#
BLOCK STAUMIX  # Stau Mixing Matrix
  1  1     7.06182088E-01   # cos(theta_tau)
  1  2     7.08030267E-01   # sin(theta_tau)
  2  1    -7.08030267E-01   # -sin(theta_tau)
  2  2     7.06182088E-01   # cos(theta_tau)
#
BLOCK ALPHA  # Higgs mixing
          -5.90304315E-01   # Mixing angle in the neutral Higgs boson sector
#
BLOCK HMIX Q=  9.11876000E+01  # DRbar Higgs Parameters
         1     3.50000000E+03   # mu(Q)               
         2     1.49999982E+00   # tanbeta(Q)          
         3     2.54877174E+02   # vev(Q)              
         4    -6.82290901E+07   # MA^2(Q)             
#
BLOCK GAUGE Q=  9.11876000E+01  # The gauge couplings
     1     3.50584205E-01   # gprime(Q) DRbar
     2     6.19928405E-01   # g(Q) DRbar
     3     1.02445352E+00   # g3(Q) DRbar
#
BLOCK AU Q=  9.11876000E+01  # The trilinear couplings
  1  1     0.00000000E+00   # A_u(Q) DRbar
  2  2     0.00000000E+00   # A_c(Q) DRbar
  3  3     0.00000000E+00   # A_t(Q) DRbar
#
BLOCK AD Q=  9.11876000E+01  # The trilinear couplings
  1  1     0.00000000E+00   # A_d(Q) DRbar
  2  2     0.00000000E+00   # A_s(Q) DRbar
  3  3     0.00000000E+00   # A_b(Q) DRbar
#
BLOCK AE Q=  9.11876000E+01  # The trilinear couplings
  1  1     0.00000000E+00   # A_e(Q) DRbar
  2  2     0.00000000E+00   # A_mu(Q) DRbar
  3  3     0.00000000E+00   # A_tau(Q) DRbar
#
BLOCK Yu Q=  9.11876000E+01  # The Yukawa couplings
  1  1     0.00000000E+00   # y_u(Q) DRbar
  2  2     0.00000000E+00   # y_c(Q) DRbar
  3  3     9.83601591E-01   # y_t(Q) DRbar
#
BLOCK Yd Q=  9.11876000E+01  # The Yukawa couplings
  1  1     0.00000000E+00   # y_d(Q) DRbar
  2  2     0.00000000E+00   # y_s(Q) DRbar
  3  3     2.58556295E-02   # y_b(Q) DRbar
#
BLOCK Ye Q=  9.11876000E+01  # The Yukawa couplings
  1  1     0.00000000E+00   # y_e(Q) DRbar
  2  2     0.00000000E+00   # y_mu(Q) DRbar
  3  3     1.77392965E-02   # y_tau(Q) DRbar
#
BLOCK MSOFT Q=  9.11876000E+01  # The soft SUSY breaking masses at the scale Q
         1     1.20000000E+03   # M_1                 
         2     1.00000000E+05   # M_2                 
         3     1.00000000E+05   # M_3                 
        14     0.00000000E+00   # A_u                 
        15     0.00000000E+00   # A_d                 
        16     0.00000000E+00   # A_e                 
        21     6.31608258E+08   # M^2_Hd              
        22    -1.14889348E+09   # M^2_Hu              
        31     1.00000000E+05   # M_eL                
        32     1.00000000E+05   # M_muL               
        33     1.00000000E+05   # M_tauL              
        34     1.00000000E+05   # M_eR                
        35     1.00000000E+05   # M_muR               
        36     1.00000000E+05   # M_tauR              
        41     1.60000000E+03   # M_q1L               
        42     1.60000000E+03   # M_q2L               
        43     1.60000000E+03   # M_q3L               
        44     1.00000000E+05   # M_uR                
        45     1.00000000E+05   # M_cR                
        46     1.00000000E+05   # M_tR                
        47     1.60000000E+03   # M_dR                
        48     1.60000000E+03   # M_sR                
        49     1.60000000E+03   # M_bR                
#
#
#
#                             =================
#                             |The decay table|
#                             =================
#
# - The QCD corrections to the decays gluino -> squark  + quark
#                                     squark -> gaugino + quark_prime
#                                     squark -> squark_prime + Higgs
#                                     squark -> gluino  + quark
#   are included.
#
# - The multi-body decays for the inos, stops and sbottoms are included.
#
# - The loop induced decays for the gluino, neutralinos and stops
#   are included.
#
# - The SUSY decays of the top quark are included.
#
# - Possible decays of the NLSP in GMSB models are included.
#
#
#         PDG            Width
DECAY         6     1.32643825E+00   # top decays
#          BR         NDA      ID1       ID2
     1.00000000E+00    2           5        24   # BR(t ->  b    W+)
#
#         PDG            Width
DECAY   1000021     1.E-04   # gluino decays (OJ Mods)
#          BR         NDA      ID1       ID2
     1.12126934E-03    2     1000001        -1   # BR(~g -> ~d_L  db)
     1.12126934E-03    2    -1000001         1   # BR(~g -> ~d_L* d )
     1.12126958E-03    2     2000001        -1   # BR(~g -> ~d_R  db)
     1.12126958E-03    2    -2000001         1   # BR(~g -> ~d_R* d )
     1.12126987E-03    2     1000002        -2   # BR(~g -> ~u_L  ub)
     1.12126987E-03    2    -1000002         2   # BR(~g -> ~u_L* u )
     3.03346596E-18    2     2000002        -2   # BR(~g -> ~u_R  ub)
     3.03346596E-18    2    -2000002         2   # BR(~g -> ~u_R* u )
     1.12126934E-03    2     1000003        -3   # BR(~g -> ~s_L  sb)
     1.12126934E-03    2    -1000003         3   # BR(~g -> ~s_L* s )
     1.12126958E-03    2     2000003        -3   # BR(~g -> ~s_R  sb)
     1.12126958E-03    2    -2000003         3   # BR(~g -> ~s_R* s )
     1.12126987E-03    2     1000004        -4   # BR(~g -> ~c_L  cb)
     1.12126987E-03    2    -1000004         4   # BR(~g -> ~c_L* c )
     3.03346596E-18    2     2000004        -4   # BR(~g -> ~c_R  cb)
     3.03346596E-18    2    -2000004         4   # BR(~g -> ~c_R* c )
     2.38424995E-01    2     1000005        -5   # BR(~g -> ~b_1  bb)
     2.38424995E-01    2    -1000005         5   # BR(~g -> ~b_1* b )
     2.38027180E-01    2     2000005        -5   # BR(~g -> ~b_2  bb)
     2.38027180E-01    2    -2000005         5   # BR(~g -> ~b_2* b )
     1.10350117E-03    2     1000006        -6   # BR(~g -> ~t_1  tb)
     1.10350117E-03    2    -1000006         6   # BR(~g -> ~t_1* t )
     3.14334137E-02    2     1000039        21   # BR(~g -> ~G g)
#
#         PDG            Width
DECAY   1000006     4.97527233E-02   # stop1 decays
#          BR         NDA      ID1       ID2
     1.00000000E+00    2     1000022         6   # BR(~t_1 -> ~chi_10 t )
#
#         PDG            Width
DECAY   2000006     1.58223629E+05   # stop2 decays
#          BR         NDA      ID1       ID2
     1.31752620E-03    2     1000022         6   # BR(~t_2 -> ~chi_10 t )
     3.15896328E-03    2     1000023         6   # BR(~t_2 -> ~chi_20 t )
     3.15829131E-03    2     1000025         6   # BR(~t_2 -> ~chi_30 t )
     9.92473928E-01    2     1000024         5   # BR(~t_2 -> ~chi_1+ b )
    -8.59434890E-05    2     1000006        25   # BR(~t_2 -> ~t_1    h )
     8.99991018E-05    2     1000006        35   # BR(~t_2 -> ~t_1    H )
     8.98413225E-05    2     1000006        36   # BR(~t_2 -> ~t_1    A )
     8.46304045E-05    2     1000005        37   # BR(~t_2 -> ~b_1    H+)
     9.50515184E-05    2     2000005        37   # BR(~t_2 -> ~b_2    H+)
    -6.13056455E-05    2     1000006        23   # BR(~t_2 -> ~t_1    Z )
    -1.54157871E-04    2     1000005        24   # BR(~t_2 -> ~b_1    W+)
    -1.66823651E-04    2     2000005        24   # BR(~t_2 -> ~b_2    W+)
#
#         PDG            Width
DECAY   1000005     9.02392905E+00   # sbottom1 decays
#          BR         NDA      ID1       ID2
     1.00000000E+00    2     1000022         5   # BR(~b_1 -> ~chi_10 b )
#
#         PDG            Width
DECAY   2000005     8.84619907E+00   # sbottom2 decays
#          BR         NDA      ID1       ID2
     1.00000000E+00    2     1000022         5   # BR(~b_2 -> ~chi_10 b )
#
#         PDG            Width
DECAY   1000002     5.48459051E-02   # sup_L decays
#          BR         NDA      ID1       ID2
     1.00000000E+00    2     1000022         2   # BR(~u_L -> ~chi_10 u)
#
#         PDG            Width
DECAY   2000002     2.08395325E+02   # sup_R decays
#          BR         NDA      ID1       ID2
     9.99634484E-01    2     1000022         2   # BR(~u_R -> ~chi_10 u)
     3.47199481E-06    2     1000023         2   # BR(~u_R -> ~chi_20 u)
     3.62043525E-04    2     1000025         2   # BR(~u_R -> ~chi_30 u)
#
#         PDG            Width
DECAY   1000001     5.50101480E-02   # sdown_L decays
#          BR         NDA      ID1       ID2
     1.00000000E+00    2     1000022         1   # BR(~d_L -> ~chi_10 d)
#
#         PDG            Width
DECAY   2000001     2.19743439E-01   # sdown_R decays
#          BR         NDA      ID1       ID2
     1.00000000E+00    2     1000022         1   # BR(~d_R -> ~chi_10 d)
#
#         PDG            Width
DECAY   1000004     5.48459051E-02   # scharm_L decays
#          BR         NDA      ID1       ID2
     1.00000000E+00    2     1000022         4   # BR(~c_L -> ~chi_10 c)
#
#         PDG            Width
DECAY   2000004     2.08395325E+02   # scharm_R decays
#          BR         NDA      ID1       ID2
     9.99634484E-01    2     1000022         4   # BR(~c_R -> ~chi_10 c)
     3.47199481E-06    2     1000023         4   # BR(~c_R -> ~chi_20 c)
     3.62043525E-04    2     1000025         4   # BR(~c_R -> ~chi_30 c)
#
#         PDG            Width
DECAY   1000003     5.50101480E-02   # sstrange_L decays
#          BR         NDA      ID1       ID2
     1.00000000E+00    2     1000022         3   # BR(~s_L -> ~chi_10 s)
#
#         PDG            Width
DECAY   2000003     2.19743439E-01   # sstrange_R decays
#          BR         NDA      ID1       ID2
     1.00000000E+00    2     1000022         3   # BR(~s_R -> ~chi_10 s)
#
#         PDG            Width
DECAY   1000011     1.22225599E+02   # selectron_L decays
#          BR         NDA      ID1       ID2
     9.99577183E-01    2     1000022        11   # BR(~e_L -> ~chi_10 e-)
     2.55336455E-06    2     1000023        11   # BR(~e_L -> ~chi_20 e-)
     4.17602340E-04    2     1000025        11   # BR(~e_L -> ~chi_30 e-)
     2.66149633E-06    2    -1000024        12   # BR(~e_L -> ~chi_1- nu_e)
#
#         PDG            Width
DECAY   2000011     4.88899497E+02   # selectron_R decays
#          BR         NDA      ID1       ID2
     9.99634862E-01    2     1000022        11   # BR(~e_R -> ~chi_10 e-)
     3.46841158E-06    2     1000023        11   # BR(~e_R -> ~chi_20 e-)
     3.61669742E-04    2     1000025        11   # BR(~e_R -> ~chi_30 e-)
#
#         PDG            Width
DECAY   1000013     1.22225599E+02   # smuon_L decays
#          BR         NDA      ID1       ID2
     9.99577183E-01    2     1000022        13   # BR(~mu_L -> ~chi_10 mu-)
     2.55336455E-06    2     1000023        13   # BR(~mu_L -> ~chi_20 mu-)
     4.17602340E-04    2     1000025        13   # BR(~mu_L -> ~chi_30 mu-)
     2.66149633E-06    2    -1000024        14   # BR(~mu_L -> ~chi_1- nu_mu)
#
#         PDG            Width
DECAY   2000013     4.88899497E+02   # smuon_R decays
#          BR         NDA      ID1       ID2
     9.99634862E-01    2     1000022        13   # BR(~mu_R -> ~chi_10 mu-)
     3.46841158E-06    2     1000023        13   # BR(~mu_R -> ~chi_20 mu-)
     3.61669742E-04    2     1000025        13   # BR(~mu_R -> ~chi_30 mu-)
#
#         PDG            Width
DECAY   1000015     1.18199208E+04   # stau_1 decays
#          BR         NDA      ID1       ID2
     2.58932213E-02    2     1000022        15   # BR(~tau_1 -> ~chi_10  tau-)
     2.53903539E-05    2     1000023        15   # BR(~tau_1 -> ~chi_20  tau-)
     2.68627778E-05    2     1000025        15   # BR(~tau_1 -> ~chi_30  tau-)
     2.77062328E-05    2    -1000024        16   # BR(~tau_1 -> ~chi_1-  nu_tau)
     9.74026819E-01    2     1000039        15   # BR(~tau_1 -> ~G       tau-)
#
#         PDG            Width
DECAY   2000015     3.05997684E+02   # stau_2 decays
#          BR         NDA      ID1       ID2
     9.96214569E-01    2     1000022        15   # BR(~tau_2 -> ~chi_10  tau-)
     1.06662683E-03    2     1000023        15   # BR(~tau_2 -> ~chi_20  tau-)
     1.74707118E-03    2     1000025        15   # BR(~tau_2 -> ~chi_30  tau-)
     9.71732795E-04    2    -1000024        16   # BR(~tau_2 -> ~chi_1-  nu_tau)
#
#         PDG            Width
DECAY   1000012     1.22225660E+02   # snu_eL decays
#          BR         NDA      ID1       ID2
     9.99680063E-01    2     1000022        12   # BR(~nu_eL -> ~chi_10 nu_e)
     4.52326809E-06    2     1000023        12   # BR(~nu_eL -> ~chi_20 nu_e)
     3.09752752E-04    2     1000025        12   # BR(~nu_eL -> ~chi_30 nu_e)
     5.66106663E-06    2     1000024        11   # BR(~nu_eL -> ~chi_1+ e-)
#
#         PDG            Width
DECAY   1000014     1.22225660E+02   # snu_muL decays
#          BR         NDA      ID1       ID2
     9.99680063E-01    2     1000022        14   # BR(~nu_muL -> ~chi_10 nu_mu)
     4.52326809E-06    2     1000023        14   # BR(~nu_muL -> ~chi_20 nu_mu)
     3.09752752E-04    2     1000025        14   # BR(~nu_muL -> ~chi_30 nu_mu)
     5.66106663E-06    2     1000024        13   # BR(~nu_muL -> ~chi_1+ mu-)
#
#         PDG            Width
DECAY   1000016     1.22850168E+02   # snu_tauL decays
#          BR         NDA      ID1       ID2
     9.94598196E-01    2     1000022        16   # BR(~nu_tauL -> ~chi_10 nu_tau)
     4.50027409E-06    2     1000023        16   # BR(~nu_tauL -> ~chi_20 nu_tau)
     3.08178126E-04    2     1000025        16   # BR(~nu_tauL -> ~chi_30 nu_tau)
     5.08912589E-03    2     1000024        15   # BR(~nu_tauL -> ~chi_1+ tau-)
#
#         PDG            Width
DECAY   1000024     6.02317335E+01   # chargino1+ decays
#          BR         NDA      ID1       ID2
     4.48900879E-07    2     1000002        -1   # BR(~chi_1+ -> ~u_L     db)
     2.10947291E-07    2    -1000001         2   # BR(~chi_1+ -> ~d_L*    u )
     4.48900879E-07    2     1000004        -3   # BR(~chi_1+ -> ~c_L     sb)
     2.10947291E-07    2    -1000003         4   # BR(~chi_1+ -> ~s_L*    c )
     6.22067696E-02    2     1000006        -5   # BR(~chi_1+ -> ~t_1     bb)
     8.36180932E-02    2    -1000005         6   # BR(~chi_1+ -> ~b_1*    t )
     7.99501690E-01    2    -2000005         6   # BR(~chi_1+ -> ~b_2*    t )
     5.26406132E-02    2     1000022        24   # BR(~chi_1+ -> ~chi_10  W+)
     2.02552014E-03    2     1000022        37   # BR(~chi_1+ -> ~chi_10  H+)
     5.00894673E-06    2     1000039        24   # BR(~chi_1+ -> ~G       W+)
     9.85555665E-07    2     1000039        37   # BR(~chi_1+ -> ~G       H+)
#
#         PDG            Width
DECAY   1000037     1.01630038E+05   # chargino2+ decays
#          BR         NDA      ID1       ID2
     9.71789302E-03    2     1000002        -1   # BR(~chi_2+ -> ~u_L     db)
     9.71789597E-03    2    -1000001         2   # BR(~chi_2+ -> ~d_L*    u )
     9.71789302E-03    2     1000004        -3   # BR(~chi_2+ -> ~c_L     sb)
     9.71789597E-03    2    -1000003         4   # BR(~chi_2+ -> ~s_L*    c )
     8.34666752E-01    2     1000006        -5   # BR(~chi_2+ -> ~t_1     bb)
     2.12396050E-03    2    -1000005         6   # BR(~chi_2+ -> ~b_1*    t )
     9.22872242E-03    2    -2000005         6   # BR(~chi_2+ -> ~b_2*    t )
     7.18240052E-15    2     1000012       -11   # BR(~chi_2+ -> ~nu_eL   e+  )
     7.18240052E-15    2     1000014       -13   # BR(~chi_2+ -> ~nu_muL  mu+ )
     5.02891730E-15    2    -1000011        12   # BR(~chi_2+ -> ~e_L+    nu_e)
     5.02891730E-15    2    -1000013        14   # BR(~chi_2+ -> ~mu_L+   nu_mu)
     7.80290438E-15    2    -1000015        16   # BR(~chi_2+ -> ~tau_1+  nu_tau)
     1.32797817E-16    2    -2000015        16   # BR(~chi_2+ -> ~tau_2+  nu_tau)
     1.78163116E-03    2     1000024        23   # BR(~chi_2+ -> ~chi_1+  Z )
     5.34015969E-07    2     1000022        24   # BR(~chi_2+ -> ~chi_10  W+)
     1.72856620E-03    2     1000023        24   # BR(~chi_2+ -> ~chi_20  W+)
     1.72801363E-03    2     1000025        24   # BR(~chi_2+ -> ~chi_30  W+)
     1.79859357E-03    2     1000024        25   # BR(~chi_2+ -> ~chi_1+  h )
     1.57882516E-03    2     1000024        35   # BR(~chi_2+ -> ~chi_1+  H )
     1.57903471E-03    2     1000024        36   # BR(~chi_2+ -> ~chi_1+  A )
     6.23665218E-07    2     1000022        37   # BR(~chi_2+ -> ~chi_10  H+)
     1.57898177E-03    2     1000023        37   # BR(~chi_2+ -> ~chi_20  H+)
     1.57840580E-03    2     1000025        37   # BR(~chi_2+ -> ~chi_30  H+)
     1.01755748E-01    2     1000039        24   # BR(~chi_2+ -> ~G       W+)
     2.91778816E-08    2     1000039        37   # BR(~chi_2+ -> ~G       H+)
#
#         PDG            Width
DECAY   1000022     1.E-08   # neutralino1 decays (OJ Mods)
#          BR         NDA      ID1       ID2
     7.61775008E-01    2     1000039        22   # BR(~chi_10 -> ~G        gam)
     2.38223323E-01    2     1000039        23   # BR(~chi_10 -> ~G        Z)
     1.66862146E-06    2     1000039        25   # BR(~chi_10 -> ~G        h)
#
#         PDG            Width
DECAY   1000023     1.E-08   # neutralino2 decays (OJ Mods)
#          BR         NDA      ID1       ID2
     5.06922450E-02    2     1000022        23   # BR(~chi_20 -> ~chi_10   Z )
     4.78258567E-04    2     1000022        25   # BR(~chi_20 -> ~chi_10   h )
     1.31922541E-03    2     1000022        35   # BR(~chi_20 -> ~chi_10   H )
     7.50715424E-04    2     1000022        36   # BR(~chi_20 -> ~chi_10   A )
     1.09947587E-08    2     1000002        -2   # BR(~chi_20 -> ~u_L      ub)
     1.09947587E-08    2    -1000002         2   # BR(~chi_20 -> ~u_L*     u )
     6.78174217E-08    2     1000001        -1   # BR(~chi_20 -> ~d_L      db)
     6.78174217E-08    2    -1000001         1   # BR(~chi_20 -> ~d_L*     d )
     1.33434454E-07    2     2000001        -1   # BR(~chi_20 -> ~d_R      db)
     1.33434454E-07    2    -2000001         1   # BR(~chi_20 -> ~d_R*     d )
     1.09947587E-08    2     1000004        -4   # BR(~chi_20 -> ~c_L      cb)
     1.09947587E-08    2    -1000004         4   # BR(~chi_20 -> ~c_L*     c )
     6.78174217E-08    2     1000003        -3   # BR(~chi_20 -> ~s_L      sb)
     6.78174217E-08    2    -1000003         3   # BR(~chi_20 -> ~s_L*     s )
     1.33434454E-07    2     2000003        -3   # BR(~chi_20 -> ~s_R      sb)
     1.33434454E-07    2    -2000003         3   # BR(~chi_20 -> ~s_R*     s )
     4.15813763E-01    2     1000006        -6   # BR(~chi_20 -> ~t_1      tb)
     4.15813763E-01    2    -1000006         6   # BR(~chi_20 -> ~t_1*     t )
     2.78992999E-02    2     1000005        -5   # BR(~chi_20 -> ~b_1      bb)
     2.78992999E-02    2    -1000005         5   # BR(~chi_20 -> ~b_1*     b )
     2.96635026E-02    2     2000005        -5   # BR(~chi_20 -> ~b_2      bb)
     2.96635026E-02    2    -2000005         5   # BR(~chi_20 -> ~b_2*     b )
     2.27341691E-11    2     1000039        22   # BR(~chi_20 -> ~G        gam)
     1.81713734E-07    2     1000039        23   # BR(~chi_20 -> ~G        Z)
     4.53531488E-06    2     1000039        25   # BR(~chi_20 -> ~G        h)
     3.63295004E-08    2     1000039        35   # BR(~chi_20 -> ~G        H)
     9.36921048E-07    2     1000039        36   # BR(~chi_20 -> ~G        A)
#
#         PDG            Width
DECAY   1000025     6.40106946E+01   # neutralino3 decays
#          BR         NDA      ID1       ID2
     4.86488703E-04    2     1000022        23   # BR(~chi_30 -> ~chi_10   Z )
     5.09920661E-02    2     1000022        25   # BR(~chi_30 -> ~chi_10   h )
     7.26151641E-04    2     1000022        35   # BR(~chi_30 -> ~chi_10   H )
     1.34326783E-03    2     1000022        36   # BR(~chi_30 -> ~chi_10   A )
     5.19735528E-06    2     1000002        -2   # BR(~chi_30 -> ~u_L      ub)
     5.19735528E-06    2    -1000002         2   # BR(~chi_30 -> ~u_L*     u )
     2.09115962E-06    2     1000001        -1   # BR(~chi_30 -> ~d_L      db)
     2.09115962E-06    2    -1000001         1   # BR(~chi_30 -> ~d_L*     d )
     1.38809648E-05    2     2000001        -1   # BR(~chi_30 -> ~d_R      db)
     1.38809648E-05    2    -2000001         1   # BR(~chi_30 -> ~d_R*     d )
     5.19735528E-06    2     1000004        -4   # BR(~chi_30 -> ~c_L      cb)
     5.19735528E-06    2    -1000004         4   # BR(~chi_30 -> ~c_L*     c )
     2.09115962E-06    2     1000003        -3   # BR(~chi_30 -> ~s_L      sb)
     2.09115962E-06    2    -1000003         3   # BR(~chi_30 -> ~s_L*     s )
     1.38809648E-05    2     2000003        -3   # BR(~chi_30 -> ~s_R      sb)
     1.38809648E-05    2    -2000003         3   # BR(~chi_30 -> ~s_R*     s )
     4.14879100E-01    2     1000006        -6   # BR(~chi_30 -> ~t_1      tb)
     4.14879100E-01    2    -1000006         6   # BR(~chi_30 -> ~t_1*     t )
     2.23885387E-02    2     1000005        -5   # BR(~chi_30 -> ~b_1      bb)
     2.23885387E-02    2    -1000005         5   # BR(~chi_30 -> ~b_1*     b )
     3.59189442E-02    2     2000005        -5   # BR(~chi_30 -> ~b_2      bb)
     3.59189442E-02    2    -2000005         5   # BR(~chi_30 -> ~b_2*     b )
     2.72241977E-09    2     1000039        22   # BR(~chi_30 -> ~G        gam)
     4.53338146E-06    2     1000039        23   # BR(~chi_30 -> ~G        Z)
     1.76772098E-07    2     1000039        25   # BR(~chi_30 -> ~G        h)
     9.29345898E-07    2     1000039        35   # BR(~chi_30 -> ~G        H)
     3.74228025E-08    2     1000039        36   # BR(~chi_30 -> ~G        A)
#
#         PDG            Width
DECAY   1000035     1.01630447E+05   # neutralino4 decays
#          BR         NDA      ID1       ID2
     4.90911529E-09    2     1000022        23   # BR(~chi_40 -> ~chi_10   Z )
     1.72175939E-03    2     1000023        23   # BR(~chi_40 -> ~chi_20   Z )
     5.98618316E-05    2     1000025        23   # BR(~chi_40 -> ~chi_30   Z )
     1.72854913E-03    2     1000024       -24   # BR(~chi_40 -> ~chi_1+   W-)
     1.72854913E-03    2    -1000024        24   # BR(~chi_40 -> ~chi_1-   W+)
     5.51418419E-07    2     1000022        25   # BR(~chi_40 -> ~chi_10   h )
     5.25671093E-08    2     1000022        35   # BR(~chi_40 -> ~chi_10   H )
     5.70320456E-07    2     1000022        36   # BR(~chi_40 -> ~chi_10   A )
     5.90565009E-05    2     1000023        25   # BR(~chi_40 -> ~chi_20   h )
     1.51092950E-03    2     1000023        35   # BR(~chi_40 -> ~chi_20   H )
     6.94555799E-05    2     1000023        36   # BR(~chi_40 -> ~chi_20   A )
     1.73898100E-03    2     1000025        25   # BR(~chi_40 -> ~chi_30   h )
     6.78354488E-05    2     1000025        35   # BR(~chi_40 -> ~chi_30   H )
     1.50900309E-03    2     1000025        36   # BR(~chi_40 -> ~chi_30   A )
     1.57900090E-03    2     1000024       -37   # BR(~chi_40 -> ~chi_1+   H-)
     1.57900090E-03    2    -1000024        37   # BR(~chi_40 -> ~chi_1-   H+)
     4.65235223E-03    2     1000002        -2   # BR(~chi_40 -> ~u_L      ub)
     4.65235223E-03    2    -1000002         2   # BR(~chi_40 -> ~u_L*     u )
     7.53134601E-23    2     2000002        -2   # BR(~chi_40 -> ~u_R      ub)
     7.53134601E-23    2    -2000002         2   # BR(~chi_40 -> ~u_R*     u )
     4.65235422E-03    2     1000001        -1   # BR(~chi_40 -> ~d_L      db)
     4.65235422E-03    2    -1000001         1   # BR(~chi_40 -> ~d_L*     d )
     9.01635975E-17    2     2000001        -1   # BR(~chi_40 -> ~d_R      db)
     9.01635975E-17    2    -2000001         1   # BR(~chi_40 -> ~d_R*     d )
     4.65235223E-03    2     1000004        -4   # BR(~chi_40 -> ~c_L      cb)
     4.65235223E-03    2    -1000004         4   # BR(~chi_40 -> ~c_L*     c )
     7.53134601E-23    2     2000004        -4   # BR(~chi_40 -> ~c_R      cb)
     7.53134601E-23    2    -2000004         4   # BR(~chi_40 -> ~c_R*     c )
     4.65235422E-03    2     1000003        -3   # BR(~chi_40 -> ~s_L      sb)
     4.65235422E-03    2    -1000003         3   # BR(~chi_40 -> ~s_L*     s )
     9.01635975E-17    2     2000003        -3   # BR(~chi_40 -> ~s_R      sb)
     9.01635975E-17    2    -2000003         3   # BR(~chi_40 -> ~s_R*     s )
     5.67633883E-03    2     1000006        -6   # BR(~chi_40 -> ~t_1      tb)
     5.67633883E-03    2    -1000006         6   # BR(~chi_40 -> ~t_1*     t )
     1.98754055E-01    2     1000005        -5   # BR(~chi_40 -> ~b_1      bb)
     1.98754055E-01    2    -1000005         5   # BR(~chi_40 -> ~b_1*     b )
     2.18579603E-01    2     2000005        -5   # BR(~chi_40 -> ~b_2      bb)
     2.18579603E-01    2    -2000005         5   # BR(~chi_40 -> ~b_2*     b )
     2.51444792E-15    2     1000011       -11   # BR(~chi_40 -> ~e_L-     e+)
     2.51444792E-15    2    -1000011        11   # BR(~chi_40 -> ~e_L+     e-)
     4.38575011E-28    2     2000011       -11   # BR(~chi_40 -> ~e_R-     e+)
     4.38575011E-28    2    -2000011        11   # BR(~chi_40 -> ~e_R+     e-)
     2.51444792E-15    2     1000013       -13   # BR(~chi_40 -> ~mu_L-    mu+)
     2.51444792E-15    2    -1000013        13   # BR(~chi_40 -> ~mu_L+    mu-)
     4.38575011E-28    2     2000013       -13   # BR(~chi_40 -> ~mu_R-    mu+)
     4.38575011E-28    2    -2000013        13   # BR(~chi_40 -> ~mu_R+    mu-)
     3.59118967E-15    2     1000012       -12   # BR(~chi_40 -> ~nu_eL    nu_eb)
     3.59118967E-15    2    -1000012        12   # BR(~chi_40 -> ~nu_eL*   nu_e )
     3.59118967E-15    2     1000014       -14   # BR(~chi_40 -> ~nu_muL   nu_mub)
     3.59118967E-15    2    -1000014        14   # BR(~chi_40 -> ~nu_muL*  nu_mu )
     3.59118967E-15    2     1000016       -16   # BR(~chi_40 -> ~nu_tau1  nu_taub)
     3.59118967E-15    2    -1000016        16   # BR(~chi_40 -> ~nu_tau1* nu_tau )
     2.46573058E-02    2     1000039        22   # BR(~chi_40 -> ~G        gam)
     7.70980683E-02    2     1000039        23   # BR(~chi_40 -> ~G        Z)
     4.65512307E-09    2     1000039        25   # BR(~chi_40 -> ~G        h)
     2.92267355E-08    2     1000039        35   # BR(~chi_40 -> ~G        H)
     5.75931792E-12    2     1000039        36   # BR(~chi_40 -> ~G        A)
#
#
#
#
