#
#                              ======================
#                              | THE SUSYHIT OUTPUT |
#                              ======================
#
#
#              ------------------------------------------------------
#              |     This is the output of the SUSY-HIT package     |
#              |  created by A.Djouadi, M.Muehlleitner and M.Spira. |
#              |  In case of problems with SUSY-HIT email to        |
#              |           margarete.muehlleitner@cern.ch           |
#              |           michael.spira@psi.ch                     |
#              |           abdelhak.djouadi@cern.ch                 |
#              ------------------------------------------------------
#
#              ------------------------------------------------------
#              |  SUSY Les Houches Accord - MSSM Spectrum + Decays  |
#              |              based on the decay programs           |
#              |                                                    |
#              |                     SDECAY 1.3b                    |
#              |                                                    |
#              |  Authors: M.Muhlleitner, A.Djouadi and Y.Mambrini  |
#              |  Ref.:    Comput.Phys.Commun.168(2005)46           |
#              |           [hep-ph/0311167]                         |
#              |                                                    |
#              |                     HDECAY 3.4                     |
#              |                                                    |
#              |  By: A.Djouadi,J.Kalinowski,M.Muhlleitner,M.Spira  |
#              |  Ref.:    Comput.Phys.Commun.108(1998)56           |
#              |           [hep-ph/9704448]                         |
#              |                                                    |
#              |                                                    |
#              |  If not stated otherwise all DRbar couplings and   |
#              |  soft SUSY breaking masses are given at the scale  |
#              |  Q=  0.91187600E+02
#              |                                                    |
#              ------------------------------------------------------
#
#
BLOCK DCINFO  # Decay Program information
     1   SDECAY/HDECAY # decay calculator
     2   1.3b  /3.4    # version number
#
BLOCK SPINFO  # Spectrum calculator information
     1   SuSpect     # RGE +Spectrum calculator            
     2   2.41         # version number                     
#
BLOCK MODSEL  # Model selection
     1     0   # #general MSSM low scale                           
#
BLOCK SMINPUTS  # Standard Model inputs
         1     1.27934000E+02   # alpha_em^-1(M_Z)^MSbar
         2     1.16639000E-05   # G_F [GeV^-2]
         3     1.17200000E-01   # alpha_S(M_Z)^MSbar
         4     9.11870000E+01   # M_Z pole mass
         5     4.25000000E+00   # mb(mb)^MSbar
         6     1.72500000E+02   # mt pole mass
         7     1.77700000E+00   # mtau pole mass
#
BLOCK MINPAR  # Input parameters - minimal models
#
BLOCK EXTPAR  # Input parameters - non-minimal models
         0     9.11876000E+01   # EWSB                
         1     1.10000000E+03   # M_1                 
         2     1.00000000E+05   # M_2                 
         3     1.00000000E+05   # M_3                 
        11     0.00000000E+00   # A_t                 
        12     0.00000000E+00   # A_b                 
        13     0.00000000E+00   # A_tau               
        14     0.00000000E+00   # A_u                 
        15     0.00000000E+00   # A_d                 
        16     0.00000000E+00   # A_e                 
        23     3.50000000E+03   # mu(EWSB)            
        25     1.50000000E+00   # tanbeta(in)         
        26     2.00000000E+03   # MA_pole             
        31     1.00000000E+05   # M_eL                
        32     1.00000000E+05   # M_muL               
        33     1.00000000E+05   # M_tauL              
        34     1.00000000E+05   # M_eR                
        35     1.00000000E+05   # M_muR               
        36     1.00000000E+05   # M_tauR              
        41     1.20000000E+03   # M_q1L               
        42     1.20000000E+03   # M_q2L               
        43     1.20000000E+03   # M_q3L               
        44     1.00000000E+05   # M_uR                
        45     1.00000000E+05   # M_cR                
        46     1.00000000E+05   # M_tR                
        47     1.20000000E+03   # M_dR                
        48     1.20000000E+03   # M_sR                
        49     1.20000000E+03   # M_bR                
#
BLOCK MASS  # Mass Spectrum
# PDG code           mass       particle
        24     8.05814003E+01   # W+
        25     1.25000000E+02   # h
        35     2.00395687E+03   # H
        36     2.00000000E+03   # A
        37     2.02369752E+03   # H+
         5     4.87877839E+00   # b-quark pole mass calculated from mb(mb)_Msbar
   1000001     1.20055441E+03   # ~d_L
   2000001     1.20010664E+03   # ~d_R
   1000002     1.19955202E+03   # ~u_L
   2000002     9.99999974E+04   # ~u_R
   1000003     1.20055441E+03   # ~s_L
   2000003     1.20010664E+03   # ~s_R
   1000004     1.19955202E+03   # ~c_L
   2000004     9.99999974E+04   # ~c_R
   1000005     1.19466898E+03   # ~b_1
   2000005     1.20597106E+03   # ~b_2
   1000006     1.20857806E+03   # ~t_1
   2000006     1.00000106E+05   # ~t_2
   1000011     1.00000004E+05   # ~e_L
   2000011     1.00000004E+05   # ~e_R
   1000012     9.99999921E+04   # ~nu_eL
   1000013     1.00000004E+05   # ~mu_L
   2000013     1.00000004E+05   # ~mu_R
   1000014     9.99999921E+04   # ~nu_muL
   1000015     9.99999574E+04   # ~tau_1
   2000015     1.00000051E+05   # ~tau_2
   1000016     9.99999921E+04   # ~nu_tauL
   1000021     1.00000000E+05   # ~g
   1000022     1.09921711E+03   # ~chi_10
   1000023    -3.50001902E+03   # ~chi_20
   1000025     3.50073726E+03   # ~chi_30
   1000035     1.00000065E+05   # ~chi_40
   1000024     3.49994000E+03   # ~chi_1+
   1000037     1.00000065E+05   # ~chi_2+
   1000039     1.00000000E-09   # ~gravitino
#
BLOCK NMIX  # Neutralino Mixing Matrix
  1  1     9.99831697E-01   # N_11
  1  2    -1.40097002E-05   # N_12
  1  3     1.42495191E-02   # N_13
  1  4    -1.15554865E-02   # N_14
  2  1     1.90503567E-03   # N_21
  2  2    -1.49872446E-04   # N_22
  2  3    -7.07095885E-01   # N_23
  2  4    -7.07115095E-01   # N_24
  3  1     1.82468924E-02   # N_31
  3  2     8.03542836E-04   # N_32
  3  3    -7.06973937E-01   # N_33
  3  4     7.07003718E-01   # N_34
  4  1     3.69305459E-07   # N_41
  4  2    -9.99999666E-01   # N_42
  4  3    -4.62309439E-04   # N_43
  4  4     6.74246956E-04   # N_44
#
BLOCK UMIX  # Chargino Mixing Matrix U
  1  1    -6.53804071E-04   # U_11
  1  2     9.99999786E-01   # U_12
  2  1     9.99999786E-01   # U_21
  2  2     6.53804071E-04   # U_22
#
BLOCK VMIX  # Chargino Mixing Matrix V
  1  1    -9.53529101E-04   # V_11
  1  2     9.99999545E-01   # V_12
  2  1     9.99999545E-01   # V_21
  2  2     9.53529101E-04   # V_22
#
BLOCK STOPMIX  # Stop Mixing Matrix
  1  1     9.99999999E-01   # cos(theta_t)
  1  2     4.47213589E-05   # sin(theta_t)
  2  1    -4.47213589E-05   # -sin(theta_t)
  2  2     9.99999999E-01   # cos(theta_t)
#
BLOCK SBOTMIX  # Sbottom Mixing Matrix
  1  1     6.92957836E-01   # cos(theta_b)
  1  2     7.20978112E-01   # sin(theta_b)
  2  1    -7.20978112E-01   # -sin(theta_b)
  2  2     6.92957836E-01   # cos(theta_b)
#
BLOCK STAUMIX  # Stau Mixing Matrix
  1  1     7.06134558E-01   # cos(theta_tau)
  1  2     7.08077669E-01   # sin(theta_tau)
  2  1    -7.08077669E-01   # -sin(theta_tau)
  2  2     7.06134558E-01   # cos(theta_tau)
#
BLOCK ALPHA  # Higgs mixing
          -5.90255789E-01   # Mixing angle in the neutral Higgs boson sector
#
BLOCK HMIX Q=  9.11876000E+01  # DRbar Higgs Parameters
         1     3.50000000E+03   # mu(Q)               
         2     1.49999982E+00   # tanbeta(Q)          
         3     2.54871336E+02   # vev(Q)              
         4    -6.83871259E+07   # MA^2(Q)             
#
BLOCK GAUGE Q=  9.11876000E+01  # The gauge couplings
     1     3.50614498E-01   # gprime(Q) DRbar
     2     6.20625127E-01   # g(Q) DRbar
     3     1.02739261E+00   # g3(Q) DRbar
#
BLOCK AU Q=  9.11876000E+01  # The trilinear couplings
  1  1     0.00000000E+00   # A_u(Q) DRbar
  2  2     0.00000000E+00   # A_c(Q) DRbar
  3  3     0.00000000E+00   # A_t(Q) DRbar
#
BLOCK AD Q=  9.11876000E+01  # The trilinear couplings
  1  1     0.00000000E+00   # A_d(Q) DRbar
  2  2     0.00000000E+00   # A_s(Q) DRbar
  3  3     0.00000000E+00   # A_b(Q) DRbar
#
BLOCK AE Q=  9.11876000E+01  # The trilinear couplings
  1  1     0.00000000E+00   # A_e(Q) DRbar
  2  2     0.00000000E+00   # A_mu(Q) DRbar
  3  3     0.00000000E+00   # A_tau(Q) DRbar
#
BLOCK Yu Q=  9.11876000E+01  # The Yukawa couplings
  1  1     0.00000000E+00   # y_u(Q) DRbar
  2  2     0.00000000E+00   # y_c(Q) DRbar
  3  3     9.83447844E-01   # y_t(Q) DRbar
#
BLOCK Yd Q=  9.11876000E+01  # The Yukawa couplings
  1  1     0.00000000E+00   # y_d(Q) DRbar
  2  2     0.00000000E+00   # y_s(Q) DRbar
  3  3     2.58280059E-02   # y_b(Q) DRbar
#
BLOCK Ye Q=  9.11876000E+01  # The Yukawa couplings
  1  1     0.00000000E+00   # y_e(Q) DRbar
  2  2     0.00000000E+00   # y_mu(Q) DRbar
  3  3     1.77390396E-02   # y_tau(Q) DRbar
#
BLOCK MSOFT Q=  9.11876000E+01  # The soft SUSY breaking masses at the scale Q
         1     1.10000000E+03   # M_1                 
         2     1.00000000E+05   # M_2                 
         3     1.00000000E+05   # M_3                 
        14     0.00000000E+00   # A_u                 
        15     0.00000000E+00   # A_d                 
        16     0.00000000E+00   # A_e                 
        21     6.33637359E+08   # M^2_Hd              
        22    -1.14587116E+09   # M^2_Hu              
        31     1.00000000E+05   # M_eL                
        32     1.00000000E+05   # M_muL               
        33     1.00000000E+05   # M_tauL              
        34     1.00000000E+05   # M_eR                
        35     1.00000000E+05   # M_muR               
        36     1.00000000E+05   # M_tauR              
        41     1.20000000E+03   # M_q1L               
        42     1.20000000E+03   # M_q2L               
        43     1.20000000E+03   # M_q3L               
        44     1.00000000E+05   # M_uR                
        45     1.00000000E+05   # M_cR                
        46     1.00000000E+05   # M_tR                
        47     1.20000000E+03   # M_dR                
        48     1.20000000E+03   # M_sR                
        49     1.20000000E+03   # M_bR                
#
#
#
#                             =================
#                             |The decay table|
#                             =================
#
# - The QCD corrections to the decays gluino -> squark  + quark
#                                     squark -> gaugino + quark_prime
#                                     squark -> squark_prime + Higgs
#                                     squark -> gluino  + quark
#   are included.
#
# - The multi-body decays for the inos, stops and sbottoms are included.
#
# - The loop induced decays for the gluino, neutralinos and stops
#   are included.
#
# - The SUSY decays of the top quark are included.
#
# - Possible decays of the NLSP in GMSB models are included.
#
#
#         PDG            Width
DECAY         6     1.32948652E+00   # top decays
#          BR         NDA      ID1       ID2
     1.00000000E+00    2           5        24   # BR(t ->  b    W+)
#
#         PDG            Width
DECAY   1000021     1.E-04   # gluino decays (OJ Mods)
#          BR         NDA      ID1       ID2
     7.10501611E-04    2     1000001        -1   # BR(~g -> ~d_L  db)
     7.10501611E-04    2    -1000001         1   # BR(~g -> ~d_L* d )
     7.10501764E-04    2     2000001        -1   # BR(~g -> ~d_R  db)
     7.10501764E-04    2    -2000001         1   # BR(~g -> ~d_R* d )
     7.10501953E-04    2     1000002        -2   # BR(~g -> ~u_L  ub)
     7.10501953E-04    2    -1000002         2   # BR(~g -> ~u_L* u )
     1.92175025E-18    2     2000002        -2   # BR(~g -> ~u_R  ub)
     1.92175025E-18    2    -2000002         2   # BR(~g -> ~u_R* u )
     7.10501611E-04    2     1000003        -3   # BR(~g -> ~s_L  sb)
     7.10501611E-04    2    -1000003         3   # BR(~g -> ~s_L* s )
     7.10501764E-04    2     2000003        -3   # BR(~g -> ~s_R  sb)
     7.10501764E-04    2    -2000003         3   # BR(~g -> ~s_R* s )
     7.10501953E-04    2     1000004        -4   # BR(~g -> ~c_L  cb)
     7.10501953E-04    2    -1000004         4   # BR(~g -> ~c_L* c )
     1.92175025E-18    2     2000004        -4   # BR(~g -> ~c_R  cb)
     1.92175025E-18    2    -2000004         4   # BR(~g -> ~c_R* c )
     2.44390330E-01    2     1000005        -5   # BR(~g -> ~b_1  bb)
     2.44390330E-01    2    -1000005         5   # BR(~g -> ~b_1* b )
     2.40713005E-01    2     2000005        -5   # BR(~g -> ~b_2  bb)
     2.40713005E-01    2    -2000005         5   # BR(~g -> ~b_2* b )
     6.99185194E-04    2     1000006        -6   # BR(~g -> ~t_1  tb)
     6.99185194E-04    2    -1000006         6   # BR(~g -> ~t_1* t )
     1.98689373E-02    2     1000039        21   # BR(~g -> ~G g)
#
#         PDG            Width
DECAY   1000006     5.57873954E-04   # stop1 decays
#          BR         NDA      ID1       ID2
     9.91258959E-01    2     1000022         4   # BR(~t_1 -> ~chi_10 c )
     7.64230583E-03    2     1000022         2   # BR(~t_1 -> ~chi_10 u )
#           BR         NDA      ID1       ID2       ID3
     1.53293476E-04    3     1000022         5        24   # BR(~t_1 -> ~chi_10  b  W+)
     3.17784148E-04    3     1000005        -1         2   # BR(~t_1 -> ~b_1     db u)
     7.93734899E-08    3     2000005        -1         2   # BR(~t_1 -> ~b_2     db u)
     3.17784148E-04    3     1000005        -3         4   # BR(~t_1 -> ~b_1     sb c)
     7.93734899E-08    3     2000005        -3         4   # BR(~t_1 -> ~b_2     sb c)
     9.78039817E-05    3     1000005       -15        16   # BR(~t_1 -> ~b_1     tau+ nu_tau)
     2.10574620E-09    3     2000005       -15        16   # BR(~t_1 -> ~b_2     tau+ nu_tau)
     1.05928049E-04    3     1000005       -11        12   # BR(~t_1 -> ~b_1     e+   nu_e)
     2.64578300E-08    3     2000005       -11        12   # BR(~t_1 -> ~b_2     e+   nu_e)
     1.05928049E-04    3     1000005       -13        14   # BR(~t_1 -> ~b_1     mu+  nu_mu)
     2.64578300E-08    3     2000005       -13        14   # BR(~t_1 -> ~b_2     mu+  nu_mu)
#
#         PDG            Width
DECAY   2000006     2.08654133E+05   # stop2 decays
#          BR         NDA      ID1       ID2
     9.99569988E-04    2     1000022         6   # BR(~t_2 -> ~chi_10 t )
     2.38234999E-03    2     1000023         6   # BR(~t_2 -> ~chi_20 t )
     2.38188151E-03    2     1000025         6   # BR(~t_2 -> ~chi_30 t )
     9.94320149E-01    2     1000024         5   # BR(~t_2 -> ~chi_1+ b )
    -6.55404926E-05    2     1000006        25   # BR(~t_2 -> ~t_1    h )
     6.86004100E-05    2     1000006        35   # BR(~t_2 -> ~t_1    H )
     6.84825412E-05    2     1000006        36   # BR(~t_2 -> ~t_1    A )
     6.44962363E-05    2     1000005        37   # BR(~t_2 -> ~b_1    H+)
     7.24665831E-05    2     2000005        37   # BR(~t_2 -> ~b_2    H+)
    -4.69907262E-05    2     1000006        23   # BR(~t_2 -> ~t_1    Z )
    -1.17872183E-04    2     1000005        24   # BR(~t_2 -> ~b_1    W+)
    -1.27592505E-04    2     2000005        24   # BR(~t_2 -> ~b_2    W+)
#
#         PDG            Width
DECAY   1000005     1.43396627E+00   # sbottom1 decays
#          BR         NDA      ID1       ID2
     1.00000000E+00    2     1000022         5   # BR(~b_1 -> ~chi_10 b )
#
#         PDG            Width
DECAY   2000005     1.75170501E+00   # sbottom2 decays
#          BR         NDA      ID1       ID2
     1.00000000E+00    2     1000022         5   # BR(~b_2 -> ~chi_10 b )
#
#         PDG            Width
DECAY   1000002     6.90555702E-03   # sup_L decays
#          BR         NDA      ID1       ID2
     1.00000000E+00    2     1000022         2   # BR(~u_L -> ~chi_10 u)
#
#         PDG            Width
DECAY   2000002     2.08382125E+02   # sup_R decays
#          BR         NDA      ID1       ID2
     9.99663803E-01    2     1000022         2   # BR(~u_R -> ~chi_10 u)
     3.62504976E-06    2     1000023         2   # BR(~u_R -> ~chi_20 u)
     3.32571704E-04    2     1000025         2   # BR(~u_R -> ~chi_30 u)
#
#         PDG            Width
DECAY   1000001     7.01671192E-03   # sdown_L decays
#          BR         NDA      ID1       ID2
     1.00000000E+00    2     1000022         1   # BR(~d_L -> ~chi_10 d)
#
#         PDG            Width
DECAY   2000001     2.78674428E-02   # sdown_R decays
#          BR         NDA      ID1       ID2
     1.00000000E+00    2     1000022         1   # BR(~d_R -> ~chi_10 d)
#
#         PDG            Width
DECAY   1000004     6.90555702E-03   # scharm_L decays
#          BR         NDA      ID1       ID2
     1.00000000E+00    2     1000022         4   # BR(~c_L -> ~chi_10 c)
#
#         PDG            Width
DECAY   2000004     2.08382125E+02   # scharm_R decays
#          BR         NDA      ID1       ID2
     9.99663803E-01    2     1000022         4   # BR(~c_R -> ~chi_10 c)
     3.62504976E-06    2     1000023         4   # BR(~c_R -> ~chi_20 c)
     3.32571704E-04    2     1000025         4   # BR(~c_R -> ~chi_30 c)
#
#         PDG            Width
DECAY   1000003     7.01671192E-03   # sstrange_L decays
#          BR         NDA      ID1       ID2
     1.00000000E+00    2     1000022         3   # BR(~s_L -> ~chi_10 s)
#
#         PDG            Width
DECAY   2000003     2.78674428E-02   # sstrange_R decays
#          BR         NDA      ID1       ID2
     1.00000000E+00    2     1000022         3   # BR(~s_R -> ~chi_10 s)
#
#         PDG            Width
DECAY   1000011     1.22252350E+02   # selectron_L decays
#          BR         NDA      ID1       ID2
     9.99608621E-01    2     1000022        11   # BR(~e_L -> ~chi_10 e-)
     2.68281584E-06    2     1000023        11   # BR(~e_L -> ~chi_20 e-)
     3.86022953E-04    2     1000025        11   # BR(~e_L -> ~chi_30 e-)
     2.67277413E-06    2    -1000024        12   # BR(~e_L -> ~chi_1- nu_e)
#
#         PDG            Width
DECAY   2000011     4.89006486E+02   # selectron_R decays
#          BR         NDA      ID1       ID2
     9.99664165E-01    2     1000022        11   # BR(~e_R -> ~chi_10 e-)
     3.62115252E-06    2     1000023        11   # BR(~e_R -> ~chi_20 e-)
     3.32214037E-04    2     1000025        11   # BR(~e_R -> ~chi_30 e-)
#
#         PDG            Width
DECAY   1000013     1.22252350E+02   # smuon_L decays
#          BR         NDA      ID1       ID2
     9.99608621E-01    2     1000022        13   # BR(~mu_L -> ~chi_10 mu-)
     2.68281584E-06    2     1000023        13   # BR(~mu_L -> ~chi_20 mu-)
     3.86022953E-04    2     1000025        13   # BR(~mu_L -> ~chi_30 mu-)
     2.67277413E-06    2    -1000024        14   # BR(~mu_L -> ~chi_1- nu_mu)
#
#         PDG            Width
DECAY   2000013     4.89006486E+02   # smuon_R decays
#          BR         NDA      ID1       ID2
     9.99664165E-01    2     1000022        13   # BR(~mu_R -> ~chi_10 mu-)
     3.62115252E-06    2     1000023        13   # BR(~mu_R -> ~chi_20 mu-)
     3.32214037E-04    2     1000025        13   # BR(~mu_R -> ~chi_30 mu-)
#
#         PDG            Width
DECAY   1000015     1.18200124E+04   # stau_1 decays
#          BR         NDA      ID1       ID2
     2.59011438E-02    2     1000022        15   # BR(~tau_1 -> ~chi_10  tau-)
     2.53716356E-05    2     1000023        15   # BR(~tau_1 -> ~chi_20  tau-)
     2.65055014E-05    2     1000025        15   # BR(~tau_1 -> ~chi_30  tau-)
     2.77115231E-05    2    -1000024        16   # BR(~tau_1 -> ~chi_1-  nu_tau)
     9.74019268E-01    2     1000039        15   # BR(~tau_1 -> ~G       tau-)
#
#         PDG            Width
DECAY   2000015     3.06039726E+02   # stau_2 decays
#          BR         NDA      ID1       ID2
     9.96260126E-01    2     1000022        15   # BR(~tau_2 -> ~chi_10  tau-)
     1.06743238E-03    2     1000023        15   # BR(~tau_2 -> ~chi_20  tau-)
     1.70110942E-03    2     1000025        15   # BR(~tau_2 -> ~chi_30  tau-)
     9.71332312E-04    2    -1000024        16   # BR(~tau_2 -> ~chi_1-  nu_tau)
#
#         PDG            Width
DECAY   1000012     1.22252411E+02   # snu_eL decays
#          BR         NDA      ID1       ID2
     9.99707177E-01    2     1000022        12   # BR(~nu_eL -> ~chi_10 nu_e)
     4.69988951E-06    2     1000023        12   # BR(~nu_eL -> ~chi_20 nu_e)
     2.82438226E-04    2     1000025        12   # BR(~nu_eL -> ~chi_30 nu_e)
     5.68505476E-06    2     1000024        11   # BR(~nu_eL -> ~chi_1+ e-)
#
#         PDG            Width
DECAY   1000014     1.22252411E+02   # snu_muL decays
#          BR         NDA      ID1       ID2
     9.99707177E-01    2     1000022        14   # BR(~nu_muL -> ~chi_10 nu_mu)
     4.69988951E-06    2     1000023        14   # BR(~nu_muL -> ~chi_20 nu_mu)
     2.82438226E-04    2     1000025        14   # BR(~nu_muL -> ~chi_30 nu_mu)
     5.68505476E-06    2     1000024        13   # BR(~nu_muL -> ~chi_1+ mu-)
#
#         PDG            Width
DECAY   1000016     1.22876901E+02   # snu_tauL decays
#          BR         NDA      ID1       ID2
     9.94626425E-01    2     1000022        16   # BR(~nu_tauL -> ~chi_10 nu_tau)
     4.67600354E-06    2     1000023        16   # BR(~nu_tauL -> ~chi_20 nu_tau)
     2.81002807E-04    2     1000025        16   # BR(~nu_tauL -> ~chi_30 nu_tau)
     5.08789659E-03    2     1000024        15   # BR(~nu_tauL -> ~chi_1+ tau-)
#
#         PDG            Width
DECAY   1000024     7.66156815E+01   # chargino1+ decays
#          BR         NDA      ID1       ID2
     4.36357809E-07    2     1000002        -1   # BR(~chi_1+ -> ~u_L     db)
     2.05063187E-07    2    -1000001         2   # BR(~chi_1+ -> ~d_L*    u )
     4.36357809E-07    2     1000004        -3   # BR(~chi_1+ -> ~c_L     sb)
     2.05063187E-07    2    -1000003         4   # BR(~chi_1+ -> ~s_L*    c )
     1.13137216E-01    2     1000006        -5   # BR(~chi_1+ -> ~t_1     bb)
     6.81403304E-02    2    -1000005         6   # BR(~chi_1+ -> ~b_1*    t )
     7.75830682E-01    2    -2000005         6   # BR(~chi_1+ -> ~b_2*    t )
     4.06426668E-02    2     1000022        24   # BR(~chi_1+ -> ~chi_10  W+)
     2.24310965E-03    2     1000022        37   # BR(~chi_1+ -> ~chi_10  H+)
     3.93779073E-06    2     1000039        24   # BR(~chi_1+ -> ~G       W+)
     7.74793777E-07    2     1000039        37   # BR(~chi_1+ -> ~G       H+)
#
#         PDG            Width
DECAY   1000037     1.32108832E+05   # chargino2+ decays
#          BR         NDA      ID1       ID2
     7.67147194E-03    2     1000002        -1   # BR(~chi_2+ -> ~u_L     db)
     7.67147482E-03    2    -1000001         2   # BR(~chi_2+ -> ~d_L*    u )
     7.67147194E-03    2     1000004        -3   # BR(~chi_2+ -> ~c_L     sb)
     7.67147482E-03    2    -1000003         4   # BR(~chi_2+ -> ~s_L*    c )
     8.69630525E-01    2     1000006        -5   # BR(~chi_2+ -> ~t_1     bb)
     1.65331822E-03    2    -1000005         6   # BR(~chi_2+ -> ~b_1*    t )
     7.31703672E-03    2    -2000005         6   # BR(~chi_2+ -> ~b_2*    t )
     5.67090787E-15    2     1000012       -11   # BR(~chi_2+ -> ~nu_eL   e+  )
     5.67090787E-15    2     1000014       -13   # BR(~chi_2+ -> ~nu_muL  mu+ )
     3.97061214E-15    2    -1000011        12   # BR(~chi_2+ -> ~e_L+    nu_e)
     3.97061214E-15    2    -1000013        14   # BR(~chi_2+ -> ~mu_L+   nu_mu)
     6.16000114E-15    2    -1000015        16   # BR(~chi_2+ -> ~tau_1+  nu_tau)
     1.04865361E-16    2    -2000015        16   # BR(~chi_2+ -> ~tau_2+  nu_tau)
     1.40908926E-03    2     1000024        23   # BR(~chi_2+ -> ~chi_1+  Z )
     3.85042018E-07    2     1000022        24   # BR(~chi_2+ -> ~chi_10  W+)
     1.36786028E-03    2     1000023        24   # BR(~chi_2+ -> ~chi_20  W+)
     1.36746051E-03    2     1000025        24   # BR(~chi_2+ -> ~chi_30  W+)
     1.42008700E-03    2     1000024        25   # BR(~chi_2+ -> ~chi_1+  h )
     1.24657449E-03    2     1000024        35   # BR(~chi_2+ -> ~chi_1+  H )
     1.24673643E-03    2     1000024        36   # BR(~chi_2+ -> ~chi_1+  A )
     4.55049801E-07    2     1000022        37   # BR(~chi_2+ -> ~chi_10  H+)
     1.24669417E-03    2     1000023        37   # BR(~chi_2+ -> ~chi_20  H+)
     1.24627769E-03    2     1000025        37   # BR(~chi_2+ -> ~chi_30  H+)
     8.01615831E-02    2     1000039        24   # BR(~chi_2+ -> ~G       W+)
     2.30365204E-08    2     1000039        37   # BR(~chi_2+ -> ~G       H+)
#
#         PDG            Width
DECAY   1000022     1.E-08   # neutralino1 decays (OJ Mods)
#          BR         NDA      ID1       ID2
     7.62963611E-01    2     1000039        22   # BR(~chi_10 -> ~G        gam)
     2.37035057E-01    2     1000039        23   # BR(~chi_10 -> ~G        Z)
     1.33173742E-06    2     1000039        25   # BR(~chi_10 -> ~G        h)
#
#         PDG            Width
DECAY   1000023     1.E-08   # neutralino2 decays (OJ Mods)
#          BR         NDA      ID1       ID2
     3.84416896E-02    2     1000022        23   # BR(~chi_20 -> ~chi_10   Z )
     4.11784680E-04    2     1000022        25   # BR(~chi_20 -> ~chi_10   h )
     1.59058727E-03    2     1000022        35   # BR(~chi_20 -> ~chi_10   H )
     6.26559696E-04    2     1000022        36   # BR(~chi_20 -> ~chi_10   A )
     1.11572900E-08    2     1000002        -2   # BR(~chi_20 -> ~u_L      ub)
     1.11572900E-08    2    -1000002         2   # BR(~chi_20 -> ~u_L*     u )
     6.61319404E-08    2     1000001        -1   # BR(~chi_20 -> ~d_L      db)
     6.61319404E-08    2    -1000001         1   # BR(~chi_20 -> ~d_L*     d )
     1.31624362E-07    2     2000001        -1   # BR(~chi_20 -> ~d_R      db)
     1.31624362E-07    2    -2000001         1   # BR(~chi_20 -> ~d_R*     d )
     1.11572900E-08    2     1000004        -4   # BR(~chi_20 -> ~c_L      cb)
     1.11572900E-08    2    -1000004         4   # BR(~chi_20 -> ~c_L*     c )
     6.61319404E-08    2     1000003        -3   # BR(~chi_20 -> ~s_L      sb)
     6.61319404E-08    2    -1000003         3   # BR(~chi_20 -> ~s_L*     s )
     1.31624362E-07    2     2000003        -3   # BR(~chi_20 -> ~s_R      sb)
     1.31624362E-07    2    -2000003         3   # BR(~chi_20 -> ~s_R*     s )
     3.91119623E-01    2     1000006        -6   # BR(~chi_20 -> ~t_1      tb)
     3.91119623E-01    2    -1000006         6   # BR(~chi_20 -> ~t_1*     t )
     4.24606688E-02    2     1000005        -5   # BR(~chi_20 -> ~b_1      bb)
     4.24606688E-02    2    -1000005         5   # BR(~chi_20 -> ~b_1*     b )
     4.58818332E-02    2     2000005        -5   # BR(~chi_20 -> ~b_2      bb)
     4.58818332E-02    2    -2000005         5   # BR(~chi_20 -> ~b_2*     b )
     1.84076787E-11    2     1000039        22   # BR(~chi_20 -> ~G        gam)
     1.40564857E-07    2     1000039        23   # BR(~chi_20 -> ~G        Z)
     3.50821430E-06    2     1000039        25   # BR(~chi_20 -> ~G        h)
     2.81196758E-08    2     1000039        35   # BR(~chi_20 -> ~G        H)
     7.24753094E-07    2     1000039        36   # BR(~chi_20 -> ~G        A)
#
#         PDG            Width
DECAY   1000025     8.28091264E+01   # neutralino3 decays
#          BR         NDA      ID1       ID2
     4.18847564E-04    2     1000022        23   # BR(~chi_30 -> ~chi_10   Z )
     3.85723666E-02    2     1000022        25   # BR(~chi_30 -> ~chi_10   h )
     6.06795897E-04    2     1000022        35   # BR(~chi_30 -> ~chi_10   H )
     1.60846171E-03    2     1000022        36   # BR(~chi_30 -> ~chi_10   A )
     4.58222964E-06    2     1000002        -2   # BR(~chi_30 -> ~u_L      ub)
     4.58222964E-06    2    -1000002         2   # BR(~chi_30 -> ~u_L*     u )
     1.76604637E-06    2     1000001        -1   # BR(~chi_30 -> ~d_L      db)
     1.76604637E-06    2    -1000001         1   # BR(~chi_30 -> ~d_L*     d )
     1.20368941E-05    2     2000001        -1   # BR(~chi_30 -> ~d_R      db)
     1.20368941E-05    2    -2000001         1   # BR(~chi_30 -> ~d_R*     d )
     4.58222964E-06    2     1000004        -4   # BR(~chi_30 -> ~c_L      cb)
     4.58222964E-06    2    -1000004         4   # BR(~chi_30 -> ~c_L*     c )
     1.76604637E-06    2     1000003        -3   # BR(~chi_30 -> ~s_L      sb)
     1.76604637E-06    2    -1000003         3   # BR(~chi_30 -> ~s_L*     s )
     1.20368941E-05    2     2000003        -3   # BR(~chi_30 -> ~s_R      sb)
     1.20368941E-05    2    -2000003         3   # BR(~chi_30 -> ~s_R*     s )
     3.89891738E-01    2     1000006        -6   # BR(~chi_30 -> ~t_1      tb)
     3.89891738E-01    2    -1000006         6   # BR(~chi_30 -> ~t_1*     t )
     3.37535046E-02    2     1000005        -5   # BR(~chi_30 -> ~b_1      bb)
     3.37535046E-02    2    -1000005         5   # BR(~chi_30 -> ~b_1*     b )
     5.57172931E-02    2     2000005        -5   # BR(~chi_30 -> ~b_2      bb)
     5.57172931E-02    2    -2000005         5   # BR(~chi_30 -> ~b_2*     b )
     1.93789668E-09    2     1000039        22   # BR(~chi_30 -> ~G        gam)
     3.50414545E-06    2     1000039        23   # BR(~chi_30 -> ~G        Z)
     1.36706353E-07    2     1000039        25   # BR(~chi_30 -> ~G        h)
     7.18406289E-07    2     1000039        35   # BR(~chi_30 -> ~G        H)
     2.89261112E-08    2     1000039        36   # BR(~chi_30 -> ~G        A)
#
#         PDG            Width
DECAY   1000035     1.32109374E+05   # neutralino4 decays
#          BR         NDA      ID1       ID2
     3.06421223E-09    2     1000022        23   # BR(~chi_40 -> ~chi_10   Z )
     1.36173647E-03    2     1000023        23   # BR(~chi_40 -> ~chi_20   Z )
     4.73455158E-05    2     1000025        23   # BR(~chi_40 -> ~chi_30   Z )
     1.36784653E-03    2     1000024       -24   # BR(~chi_40 -> ~chi_1+   W-)
     1.36784653E-03    2    -1000024        24   # BR(~chi_40 -> ~chi_1-   W+)
     3.97179531E-07    2     1000022        25   # BR(~chi_40 -> ~chi_10   h )
     3.97481605E-08    2     1000022        35   # BR(~chi_40 -> ~chi_10   H )
     4.14739910E-07    2     1000022        36   # BR(~chi_40 -> ~chi_10   A )
     4.66514179E-05    2     1000023        25   # BR(~chi_40 -> ~chi_20   h )
     1.19294022E-03    2     1000023        35   # BR(~chi_40 -> ~chi_20   H )
     5.48389255E-05    2     1000023        36   # BR(~chi_40 -> ~chi_20   A )
     1.37303450E-03    2     1000025        25   # BR(~chi_40 -> ~chi_30   h )
     5.35882788E-05    2     1000025        35   # BR(~chi_40 -> ~chi_30   H )
     1.19147804E-03    2     1000025        36   # BR(~chi_40 -> ~chi_30   A )
     1.24670953E-03    2     1000024       -37   # BR(~chi_40 -> ~chi_1+   H-)
     1.24670953E-03    2    -1000024        37   # BR(~chi_40 -> ~chi_1-   H+)
     3.67104674E-03    2     1000002        -2   # BR(~chi_40 -> ~u_L      ub)
     3.67104674E-03    2    -1000002         2   # BR(~chi_40 -> ~u_L*     u )
     5.97001671E-23    2     2000002        -2   # BR(~chi_40 -> ~u_R      ub)
     5.97001671E-23    2    -2000002         2   # BR(~chi_40 -> ~u_R*     u )
     3.67104887E-03    2     1000001        -1   # BR(~chi_40 -> ~d_L      db)
     3.67104887E-03    2    -1000001         1   # BR(~chi_40 -> ~d_L*     d )
     7.10199406E-17    2     2000001        -1   # BR(~chi_40 -> ~d_R      db)
     7.10199406E-17    2    -2000001         1   # BR(~chi_40 -> ~d_R*     d )
     3.67104674E-03    2     1000004        -4   # BR(~chi_40 -> ~c_L      cb)
     3.67104674E-03    2    -1000004         4   # BR(~chi_40 -> ~c_L*     c )
     5.97001671E-23    2     2000004        -4   # BR(~chi_40 -> ~c_R      cb)
     5.97001671E-23    2    -2000004         4   # BR(~chi_40 -> ~c_R*     c )
     3.67104887E-03    2     1000003        -3   # BR(~chi_40 -> ~s_L      sb)
     3.67104887E-03    2    -1000003         3   # BR(~chi_40 -> ~s_L*     s )
     7.10199406E-17    2     2000003        -3   # BR(~chi_40 -> ~s_R      sb)
     7.10199406E-17    2    -2000003         3   # BR(~chi_40 -> ~s_R*     s )
     4.48515020E-03    2     1000006        -6   # BR(~chi_40 -> ~t_1      tb)
     4.48515020E-03    2    -1000006         6   # BR(~chi_40 -> ~t_1*     t )
     2.07456106E-01    2     1000005        -5   # BR(~chi_40 -> ~b_1      bb)
     2.07456106E-01    2    -1000005         5   # BR(~chi_40 -> ~b_1*     b )
     2.27359414E-01    2     2000005        -5   # BR(~chi_40 -> ~b_2      bb)
     2.27359414E-01    2    -2000005         5   # BR(~chi_40 -> ~b_2*     b )
     1.98529728E-15    2     1000011       -11   # BR(~chi_40 -> ~e_L-     e+)
     1.98529728E-15    2    -1000011        11   # BR(~chi_40 -> ~e_L+     e-)
     3.45667458E-28    2     2000011       -11   # BR(~chi_40 -> ~e_R-     e+)
     3.45667458E-28    2    -2000011        11   # BR(~chi_40 -> ~e_R+     e-)
     1.98529728E-15    2     1000013       -13   # BR(~chi_40 -> ~mu_L-    mu+)
     1.98529728E-15    2    -1000013        13   # BR(~chi_40 -> ~mu_L+    mu-)
     3.45667458E-28    2     2000013       -13   # BR(~chi_40 -> ~mu_R-    mu+)
     3.45667458E-28    2    -2000013        13   # BR(~chi_40 -> ~mu_R+    mu-)
     2.83544511E-15    2     1000012       -12   # BR(~chi_40 -> ~nu_eL    nu_eb)
     2.83544511E-15    2    -1000012        12   # BR(~chi_40 -> ~nu_eL*   nu_e )
     2.83544511E-15    2     1000014       -14   # BR(~chi_40 -> ~nu_muL   nu_mub)
     2.83544511E-15    2    -1000014        14   # BR(~chi_40 -> ~nu_muL*  nu_mu )
     2.83544511E-15    2     1000016       -16   # BR(~chi_40 -> ~nu_tau1  nu_taub)
     2.83544511E-15    2    -1000016        16   # BR(~chi_40 -> ~nu_tau1* nu_tau )
     1.93941324E-02    2     1000039        22   # BR(~chi_40 -> ~G        gam)
     6.07671432E-02    2     1000039        23   # BR(~chi_40 -> ~G        Z)
     3.67620661E-09    2     1000039        25   # BR(~chi_40 -> ~G        h)
     2.30741972E-08    2     1000039        35   # BR(~chi_40 -> ~G        H)
     4.54709615E-12    2     1000039        36   # BR(~chi_40 -> ~G        A)
#
#
#
#
