#
#                              ======================
#                              | THE SUSYHIT OUTPUT |
#                              ======================
#
#
#              ------------------------------------------------------
#              |     This is the output of the SUSY-HIT package     |
#              |  created by A.Djouadi, M.Muehlleitner and M.Spira. |
#              |  In case of problems with SUSY-HIT email to        |
#              |           margarete.muehlleitner@cern.ch           |
#              |           michael.spira@psi.ch                     |
#              |           abdelhak.djouadi@cern.ch                 |
#              ------------------------------------------------------
#
#              ------------------------------------------------------
#              |  SUSY Les Houches Accord - MSSM Spectrum + Decays  |
#              |              based on the decay programs           |
#              |                                                    |
#              |                     SDECAY 1.3b                    |
#              |                                                    |
#              |  Authors: M.Muhlleitner, A.Djouadi and Y.Mambrini  |
#              |  Ref.:    Comput.Phys.Commun.168(2005)46           |
#              |           [hep-ph/0311167]                         |
#              |                                                    |
#              |                     HDECAY 3.4                     |
#              |                                                    |
#              |  By: A.Djouadi,J.Kalinowski,M.Muhlleitner,M.Spira  |
#              |  Ref.:    Comput.Phys.Commun.108(1998)56           |
#              |           [hep-ph/9704448]                         |
#              |                                                    |
#              |                                                    |
#              |  If not stated otherwise all DRbar couplings and   |
#              |  soft SUSY breaking masses are given at the scale  |
#              |  Q=  0.91187600E+02
#              |                                                    |
#              ------------------------------------------------------
#
#
BLOCK DCINFO  # Decay Program information
     1   SDECAY/HDECAY # decay calculator
     2   1.3b  /3.4    # version number
#
BLOCK SPINFO  # Spectrum calculator information
     1   SuSpect     # RGE +Spectrum calculator            
     2   2.41         # version number                     
#
BLOCK MODSEL  # Model selection
     1     0   # #general MSSM low scale                           
#
BLOCK SMINPUTS  # Standard Model inputs
         1     1.27934000E+02   # alpha_em^-1(M_Z)^MSbar
         2     1.16639000E-05   # G_F [GeV^-2]
         3     1.17200000E-01   # alpha_S(M_Z)^MSbar
         4     9.11870000E+01   # M_Z pole mass
         5     4.25000000E+00   # mb(mb)^MSbar
         6     1.72500000E+02   # mt pole mass
         7     1.77700000E+00   # mtau pole mass
#
BLOCK MINPAR  # Input parameters - minimal models
#
BLOCK EXTPAR  # Input parameters - non-minimal models
         0     9.11876000E+01   # EWSB                
         1     1.20000000E+03   # M_1                 
         2     1.00000000E+05   # M_2                 
         3     1.00000000E+05   # M_3                 
        11     0.00000000E+00   # A_t                 
        12     0.00000000E+00   # A_b                 
        13     0.00000000E+00   # A_tau               
        14     0.00000000E+00   # A_u                 
        15     0.00000000E+00   # A_d                 
        16     0.00000000E+00   # A_e                 
        23     3.50000000E+03   # mu(EWSB)            
        25     1.50000000E+00   # tanbeta(in)         
        26     2.00000000E+03   # MA_pole             
        31     1.00000000E+05   # M_eL                
        32     1.00000000E+05   # M_muL               
        33     1.00000000E+05   # M_tauL              
        34     1.00000000E+05   # M_eR                
        35     1.00000000E+05   # M_muR               
        36     1.00000000E+05   # M_tauR              
        41     1.30000000E+03   # M_q1L               
        42     1.30000000E+03   # M_q2L               
        43     1.30000000E+03   # M_q3L               
        44     1.00000000E+05   # M_uR                
        45     1.00000000E+05   # M_cR                
        46     1.00000000E+05   # M_tR                
        47     1.30000000E+03   # M_dR                
        48     1.30000000E+03   # M_sR                
        49     1.30000000E+03   # M_bR                
#
BLOCK MASS  # Mass Spectrum
# PDG code           mass       particle
        24     8.05817537E+01   # W+
        25     1.25000000E+02   # h
        35     2.00397679E+03   # H
        36     2.00000000E+03   # A
        37     2.02369745E+03   # H+
         5     4.87877839E+00   # b-quark pole mass calculated from mb(mb)_Msbar
   1000001     1.30051150E+03   # ~d_L
   2000001     1.30009843E+03   # ~d_R
   1000002     1.29958677E+03   # ~u_L
   2000002     9.99999974E+04   # ~u_R
   1000003     1.30051150E+03   # ~s_L
   2000003     1.30009843E+03   # ~s_R
   1000004     1.29958677E+03   # ~c_L
   2000004     9.99999974E+04   # ~c_R
   1000005     1.29507895E+03   # ~b_1
   2000005     1.30551521E+03   # ~b_2
   1000006     1.30792375E+03   # ~t_1
   2000006     1.00000106E+05   # ~t_2
   1000011     1.00000004E+05   # ~e_L
   2000011     1.00000004E+05   # ~e_R
   1000012     9.99999921E+04   # ~nu_eL
   1000013     1.00000004E+05   # ~mu_L
   2000013     1.00000004E+05   # ~mu_R
   1000014     9.99999921E+04   # ~nu_muL
   1000015     9.99999574E+04   # ~tau_1
   2000015     1.00000051E+05   # ~tau_2
   1000016     9.99999921E+04   # ~nu_tauL
   1000021     1.00000000E+05   # ~g
   1000022     1.19918203E+03   # ~chi_10
   1000023    -3.50001866E+03   # ~chi_20
   1000025     3.50077202E+03   # ~chi_30
   1000035     1.00000065E+05   # ~chi_40
   1000024     3.49994003E+03   # ~chi_1+
   1000037     1.00000065E+05   # ~chi_2+
   1000039     1.00000000E-09   # ~gravitino
#
BLOCK NMIX  # Neutralino Mixing Matrix
  1  1     9.99816999E-01   # N_11
  1  2    -1.46477724E-05   # N_12
  1  3     1.47810906E-02   # N_13
  1  4    -1.21444312E-02   # N_14
  2  1     1.86448150E-03   # N_21
  2  2    -1.49827176E-04   # N_22
  2  3    -7.07096119E-01   # N_23
  2  4    -7.07114969E-01   # N_24
  3  1     1.90392163E-02   # N_31
  3  2     8.03289659E-04   # N_32
  3  3    -7.06962788E-01   # N_33
  3  4     7.06993974E-01   # N_34
  4  1     3.69564149E-07   # N_41
  4  2    -9.99999666E-01   # N_42
  4  3    -4.62170347E-04   # N_43
  4  4     6.74044100E-04   # N_44
#
BLOCK UMIX  # Chargino Mixing Matrix U
  1  1    -6.53607366E-04   # U_11
  1  2     9.99999786E-01   # U_12
  2  1     9.99999786E-01   # U_21
  2  2     6.53607366E-04   # U_22
#
BLOCK VMIX  # Chargino Mixing Matrix V
  1  1    -9.53242219E-04   # V_11
  1  2     9.99999546E-01   # V_12
  2  1     9.99999546E-01   # V_21
  2  2     9.53242219E-04   # V_22
#
BLOCK STOPMIX  # Stop Mixing Matrix
  1  1     9.99999999E-01   # cos(theta_t)
  1  2     4.47213589E-05   # sin(theta_t)
  2  1    -4.47213589E-05   # -sin(theta_t)
  2  2     9.99999999E-01   # cos(theta_t)
#
BLOCK SBOTMIX  # Sbottom Mixing Matrix
  1  1     6.92971754E-01   # cos(theta_b)
  1  2     7.20964734E-01   # sin(theta_b)
  2  1    -7.20964734E-01   # -sin(theta_b)
  2  2     6.92971754E-01   # cos(theta_b)
#
BLOCK STAUMIX  # Stau Mixing Matrix
  1  1     7.06147868E-01   # cos(theta_tau)
  1  2     7.08064396E-01   # sin(theta_tau)
  2  1    -7.08064396E-01   # -sin(theta_tau)
  2  2     7.06147868E-01   # cos(theta_tau)
#
BLOCK ALPHA  # Higgs mixing
          -5.90269149E-01   # Mixing angle in the neutral Higgs boson sector
#
BLOCK HMIX Q=  9.11876000E+01  # DRbar Higgs Parameters
         1     3.50000000E+03   # mu(Q)               
         2     1.49999982E+00   # tanbeta(Q)          
         3     2.54874651E+02   # vev(Q)              
         4    -6.83459348E+07   # MA^2(Q)             
#
BLOCK GAUGE Q=  9.11876000E+01  # The gauge couplings
     1     3.50606247E-01   # gprime(Q) DRbar
     2     6.20430314E-01   # g(Q) DRbar
     3     1.02657297E+00   # g3(Q) DRbar
#
BLOCK AU Q=  9.11876000E+01  # The trilinear couplings
  1  1     0.00000000E+00   # A_u(Q) DRbar
  2  2     0.00000000E+00   # A_c(Q) DRbar
  3  3     0.00000000E+00   # A_t(Q) DRbar
#
BLOCK AD Q=  9.11876000E+01  # The trilinear couplings
  1  1     0.00000000E+00   # A_d(Q) DRbar
  2  2     0.00000000E+00   # A_s(Q) DRbar
  3  3     0.00000000E+00   # A_b(Q) DRbar
#
BLOCK AE Q=  9.11876000E+01  # The trilinear couplings
  1  1     0.00000000E+00   # A_e(Q) DRbar
  2  2     0.00000000E+00   # A_mu(Q) DRbar
  3  3     0.00000000E+00   # A_tau(Q) DRbar
#
BLOCK Yu Q=  9.11876000E+01  # The Yukawa couplings
  1  1     0.00000000E+00   # y_u(Q) DRbar
  2  2     0.00000000E+00   # y_c(Q) DRbar
  3  3     9.83500416E-01   # y_t(Q) DRbar
#
BLOCK Yd Q=  9.11876000E+01  # The Yukawa couplings
  1  1     0.00000000E+00   # y_d(Q) DRbar
  2  2     0.00000000E+00   # y_s(Q) DRbar
  3  3     2.58355418E-02   # y_b(Q) DRbar
#
BLOCK Ye Q=  9.11876000E+01  # The Yukawa couplings
  1  1     0.00000000E+00   # y_e(Q) DRbar
  2  2     0.00000000E+00   # y_mu(Q) DRbar
  3  3     1.77389743E-02   # y_tau(Q) DRbar
#
BLOCK MSOFT Q=  9.11876000E+01  # The soft SUSY breaking masses at the scale Q
         1     1.20000000E+03   # M_1                 
         2     1.00000000E+05   # M_2                 
         3     1.00000000E+05   # M_3                 
        14     0.00000000E+00   # A_u                 
        15     0.00000000E+00   # A_d                 
        16     0.00000000E+00   # A_e                 
        21     6.33068718E+08   # M^2_Hd              
        22    -1.14675391E+09   # M^2_Hu              
        31     1.00000000E+05   # M_eL                
        32     1.00000000E+05   # M_muL               
        33     1.00000000E+05   # M_tauL              
        34     1.00000000E+05   # M_eR                
        35     1.00000000E+05   # M_muR               
        36     1.00000000E+05   # M_tauR              
        41     1.30000000E+03   # M_q1L               
        42     1.30000000E+03   # M_q2L               
        43     1.30000000E+03   # M_q3L               
        44     1.00000000E+05   # M_uR                
        45     1.00000000E+05   # M_cR                
        46     1.00000000E+05   # M_tR                
        47     1.30000000E+03   # M_dR                
        48     1.30000000E+03   # M_sR                
        49     1.30000000E+03   # M_bR                
#
#
#
#                             =================
#                             |The decay table|
#                             =================
#
# - The QCD corrections to the decays gluino -> squark  + quark
#                                     squark -> gaugino + quark_prime
#                                     squark -> squark_prime + Higgs
#                                     squark -> gluino  + quark
#   are included.
#
# - The multi-body decays for the inos, stops and sbottoms are included.
#
# - The loop induced decays for the gluino, neutralinos and stops
#   are included.
#
# - The SUSY decays of the top quark are included.
#
# - Possible decays of the NLSP in GMSB models are included.
#
#
#         PDG            Width
DECAY         6     1.32863739E+00   # top decays
#          BR         NDA      ID1       ID2
     1.00000000E+00    2           5        24   # BR(t ->  b    W+)
#
#         PDG            Width
DECAY   1000021     1.E-04   # gluino decays (OJ Mods)
#          BR         NDA      ID1       ID2
     2.32988556E-04    2     1000001        -1   # BR(~g -> ~d_L  db)
     2.32988556E-04    2    -1000001         1   # BR(~g -> ~d_L* d )
     2.32988606E-04    2     2000001        -1   # BR(~g -> ~d_R  db)
     2.32988606E-04    2    -2000001         1   # BR(~g -> ~d_R* d )
     2.32988668E-04    2     1000002        -2   # BR(~g -> ~u_L  ub)
     2.32988668E-04    2    -1000002         2   # BR(~g -> ~u_L* u )
     6.30214204E-19    2     2000002        -2   # BR(~g -> ~u_R  ub)
     6.30214204E-19    2    -2000002         2   # BR(~g -> ~u_R* u )
     2.32988556E-04    2     1000003        -3   # BR(~g -> ~s_L  sb)
     2.32988556E-04    2    -1000003         3   # BR(~g -> ~s_L* s )
     2.32988606E-04    2     2000003        -3   # BR(~g -> ~s_R  sb)
     2.32988606E-04    2    -2000003         3   # BR(~g -> ~s_R* s )
     2.32988668E-04    2     1000004        -4   # BR(~g -> ~c_L  cb)
     2.32988668E-04    2    -1000004         4   # BR(~g -> ~c_L* c )
     6.30214204E-19    2     2000004        -4   # BR(~g -> ~c_R  cb)
     6.30214204E-19    2    -2000004         4   # BR(~g -> ~c_R* c )
     2.47627723E-01    2     1000005        -5   # BR(~g -> ~b_1  bb)
     2.47627723E-01    2    -1000005         5   # BR(~g -> ~b_1* b )
     2.47485195E-01    2     2000005        -5   # BR(~g -> ~b_2  bb)
     2.47485195E-01    2    -2000005         5   # BR(~g -> ~b_2* b )
     2.29282882E-04    2     1000006        -6   # BR(~g -> ~t_1  tb)
     2.29282882E-04    2    -1000006         6   # BR(~g -> ~t_1* t )
     6.51973429E-03    2     1000039        21   # BR(~g -> ~G g)
#
#         PDG            Width
DECAY   1000006     5.13778858E-04   # stop1 decays
#          BR         NDA      ID1       ID2
     9.91525634E-01    2     1000022         4   # BR(~t_1 -> ~chi_10 c )
     7.64436182E-03    2     1000022         2   # BR(~t_1 -> ~chi_10 u )
#           BR         NDA      ID1       ID2       ID3
     1.42312065E-04    3     1000022         5        24   # BR(~t_1 -> ~chi_10  b  W+)
     2.31471059E-04    3     1000005        -1         2   # BR(~t_1 -> ~b_1     db u)
     5.79559663E-08    3     2000005        -1         2   # BR(~t_1 -> ~b_2     db u)
     2.31471059E-04    3     1000005        -3         4   # BR(~t_1 -> ~b_1     sb c)
     5.79559663E-08    3     2000005        -3         4   # BR(~t_1 -> ~b_2     sb c)
     7.02803726E-05    3     1000005       -15        16   # BR(~t_1 -> ~b_1     tau+ nu_tau)
     8.41648716E-10    3     2000005       -15        16   # BR(~t_1 -> ~b_2     tau+ nu_tau)
     7.71570197E-05    3     1000005       -11        12   # BR(~t_1 -> ~b_1     e+   nu_e)
     1.93186554E-08    3     2000005       -11        12   # BR(~t_1 -> ~b_2     e+   nu_e)
     7.71570197E-05    3     1000005       -13        14   # BR(~t_1 -> ~b_1     mu+  nu_mu)
     1.93186554E-08    3     2000005       -13        14   # BR(~t_1 -> ~b_2     mu+  nu_mu)
#
#         PDG            Width
DECAY   2000006     7.94479493E+05   # stop2 decays
#          BR         NDA      ID1       ID2
     2.62314231E-04    2     1000022         6   # BR(~t_2 -> ~chi_10 t )
     6.26654545E-04    2     1000023         6   # BR(~t_2 -> ~chi_20 t )
     6.26521434E-04    2     1000025         6   # BR(~t_2 -> ~chi_30 t )
     9.98506445E-01    2     1000024         5   # BR(~t_2 -> ~chi_1+ b )
    -1.71862905E-05    2     1000006        25   # BR(~t_2 -> ~t_1    h )
     1.79910709E-05    2     1000006        35   # BR(~t_2 -> ~t_1    H )
     1.79599857E-05    2     1000006        36   # BR(~t_2 -> ~t_1    A )
     1.69155432E-05    2     1000005        37   # BR(~t_2 -> ~b_1    H+)
     1.90043656E-05    2     2000005        37   # BR(~t_2 -> ~b_2    H+)
    -1.23044074E-05    2     1000006        23   # BR(~t_2 -> ~t_1    Z )
    -3.08857499E-05    2     1000005        24   # BR(~t_2 -> ~b_1    W+)
    -3.34301884E-05    2     2000005        24   # BR(~t_2 -> ~b_2    W+)
#
#         PDG            Width
DECAY   1000005     3.72222231E+00   # sbottom1 decays
#          BR         NDA      ID1       ID2
     1.00000000E+00    2     1000022         5   # BR(~b_1 -> ~chi_10 b )
#
#         PDG            Width
DECAY   2000005     4.56473552E+00   # sbottom2 decays
#          BR         NDA      ID1       ID2
     1.00000000E+00    2     1000022         5   # BR(~b_2 -> ~chi_10 b )
#
#         PDG            Width
DECAY   1000002     6.55333856E-03   # sup_L decays
#          BR         NDA      ID1       ID2
     1.00000000E+00    2     1000022         2   # BR(~u_L -> ~chi_10 u)
#
#         PDG            Width
DECAY   2000002     2.08384689E+02   # sup_R decays
#          BR         NDA      ID1       ID2
     9.99634444E-01    2     1000022         2   # BR(~u_R -> ~chi_10 u)
     3.47237889E-06    2     1000023         2   # BR(~u_R -> ~chi_20 u)
     3.62083552E-04    2     1000025         2   # BR(~u_R -> ~chi_30 u)
#
#         PDG            Width
DECAY   1000001     6.65059041E-03   # sdown_L decays
#          BR         NDA      ID1       ID2
     1.00000000E+00    2     1000022         1   # BR(~d_L -> ~chi_10 d)
#
#         PDG            Width
DECAY   2000001     2.64278681E-02   # sdown_R decays
#          BR         NDA      ID1       ID2
     1.00000000E+00    2     1000022         1   # BR(~d_R -> ~chi_10 d)
#
#         PDG            Width
DECAY   1000004     6.55333856E-03   # scharm_L decays
#          BR         NDA      ID1       ID2
     1.00000000E+00    2     1000022         4   # BR(~c_L -> ~chi_10 c)
#
#         PDG            Width
DECAY   2000004     2.08384689E+02   # scharm_R decays
#          BR         NDA      ID1       ID2
     9.99634444E-01    2     1000022         4   # BR(~c_R -> ~chi_10 c)
     3.47237889E-06    2     1000023         4   # BR(~c_R -> ~chi_20 c)
     3.62083552E-04    2     1000025         4   # BR(~c_R -> ~chi_30 c)
#
#         PDG            Width
DECAY   1000003     6.65059041E-03   # sstrange_L decays
#          BR         NDA      ID1       ID2
     1.00000000E+00    2     1000022         3   # BR(~s_L -> ~chi_10 s)
#
#         PDG            Width
DECAY   2000003     2.64278681E-02   # sstrange_R decays
#          BR         NDA      ID1       ID2
     1.00000000E+00    2     1000022         3   # BR(~s_R -> ~chi_10 s)
#
#         PDG            Width
DECAY   1000011     1.22240971E+02   # selectron_L decays
#          BR         NDA      ID1       ID2
     9.99577045E-01    2     1000022        11   # BR(~e_L -> ~chi_10 e-)
     2.55237305E-06    2     1000023        11   # BR(~e_L -> ~chi_20 e-)
     4.17733221E-04    2     1000025        11   # BR(~e_L -> ~chi_30 e-)
     2.66973791E-06    2    -1000024        12   # BR(~e_L -> ~chi_1- nu_e)
#
#         PDG            Width
DECAY   2000011     4.88960975E+02   # selectron_R decays
#          BR         NDA      ID1       ID2
     9.99634823E-01    2     1000022        11   # BR(~e_R -> ~chi_10 e-)
     3.46877980E-06    2     1000023        11   # BR(~e_R -> ~chi_20 e-)
     3.61708114E-04    2     1000025        11   # BR(~e_R -> ~chi_30 e-)
#
#         PDG            Width
DECAY   1000013     1.22240971E+02   # smuon_L decays
#          BR         NDA      ID1       ID2
     9.99577045E-01    2     1000022        13   # BR(~mu_L -> ~chi_10 mu-)
     2.55237305E-06    2     1000023        13   # BR(~mu_L -> ~chi_20 mu-)
     4.17733221E-04    2     1000025        13   # BR(~mu_L -> ~chi_30 mu-)
     2.66973791E-06    2    -1000024        14   # BR(~mu_L -> ~chi_1- nu_mu)
#
#         PDG            Width
DECAY   2000013     4.88960975E+02   # smuon_R decays
#          BR         NDA      ID1       ID2
     9.99634823E-01    2     1000022        13   # BR(~mu_R -> ~chi_10 mu-)
     3.46877980E-06    2     1000023        13   # BR(~mu_R -> ~chi_20 mu-)
     3.61708114E-04    2     1000025        13   # BR(~mu_R -> ~chi_30 mu-)
#
#         PDG            Width
DECAY   1000015     1.18199770E+04   # stau_1 decays
#          BR         NDA      ID1       ID2
     2.58978513E-02    2     1000022        15   # BR(~tau_1 -> ~chi_10  tau-)
     2.53889772E-05    2     1000023        15   # BR(~tau_1 -> ~chi_20  tau-)
     2.68650991E-05    2     1000025        15   # BR(~tau_1 -> ~chi_30  tau-)
     2.77096544E-05    2    -1000024        16   # BR(~tau_1 -> ~chi_1-  nu_tau)
     9.74022185E-01    2     1000039        15   # BR(~tau_1 -> ~G       tau-)
#
#         PDG            Width
DECAY   2000015     3.06018226E+02   # stau_2 decays
#          BR         NDA      ID1       ID2
     9.96215017E-01    2     1000022        15   # BR(~tau_2 -> ~chi_10  tau-)
     1.06653061E-03    2     1000023        15   # BR(~tau_2 -> ~chi_20  tau-)
     1.74699235E-03    2     1000025        15   # BR(~tau_2 -> ~chi_30  tau-)
     9.71459603E-04    2    -1000024        16   # BR(~tau_2 -> ~chi_1-  nu_tau)
#
#         PDG            Width
DECAY   1000012     1.22241033E+02   # snu_eL decays
#          BR         NDA      ID1       ID2
     9.99680085E-01    2     1000022        12   # BR(~nu_eL -> ~chi_10 nu_e)
     4.52542896E-06    2     1000023        12   # BR(~nu_eL -> ~chi_20 nu_e)
     3.09711049E-04    2     1000025        12   # BR(~nu_eL -> ~chi_30 nu_e)
     5.67859662E-06    2     1000024        11   # BR(~nu_eL -> ~chi_1+ e-)
#
#         PDG            Width
DECAY   1000014     1.22241033E+02   # snu_muL decays
#          BR         NDA      ID1       ID2
     9.99680085E-01    2     1000022        14   # BR(~nu_muL -> ~chi_10 nu_mu)
     4.52542896E-06    2     1000023        14   # BR(~nu_muL -> ~chi_20 nu_mu)
     3.09711049E-04    2     1000025        14   # BR(~nu_muL -> ~chi_30 nu_mu)
     5.67859662E-06    2     1000024        13   # BR(~nu_muL -> ~chi_1+ mu-)
#
#         PDG            Width
DECAY   1000016     1.22865518E+02   # snu_tauL decays
#          BR         NDA      ID1       ID2
     9.94599037E-01    2     1000022        16   # BR(~nu_tauL -> ~chi_10 nu_tau)
     4.50242768E-06    2     1000023        16   # BR(~nu_tauL -> ~chi_20 nu_tau)
     3.08136889E-04    2     1000025        16   # BR(~nu_tauL -> ~chi_30 nu_tau)
     5.08832360E-03    2     1000024        15   # BR(~nu_tauL -> ~chi_1+ tau-)
#
#         PDG            Width
DECAY   1000024     8.70748753E+01   # chargino1+ decays
#          BR         NDA      ID1       ID2
     3.66808792E-07    2     1000002        -1   # BR(~chi_1+ -> ~u_L     db)
     1.72377332E-07    2    -1000001         2   # BR(~chi_1+ -> ~d_L*    u )
     3.66808792E-07    2     1000004        -3   # BR(~chi_1+ -> ~c_L     sb)
     1.72377332E-07    2    -1000003         4   # BR(~chi_1+ -> ~s_L*    c )
     2.50063053E-01    2     1000006        -5   # BR(~chi_1+ -> ~t_1     bb)
     5.97370296E-02    2    -1000005         6   # BR(~chi_1+ -> ~b_1*    t )
     6.52316661E-01    2    -2000005         6   # BR(~chi_1+ -> ~b_2*    t )
     3.64767726E-02    2     1000022        24   # BR(~chi_1+ -> ~chi_10  W+)
     1.40125843E-03    2     1000022        37   # BR(~chi_1+ -> ~chi_10  H+)
     3.46480054E-06    2     1000039        24   # BR(~chi_1+ -> ~G       W+)
     6.81728220E-07    2     1000039        37   # BR(~chi_1+ -> ~G       H+)
#
#         PDG            Width
DECAY   1000037     4.82442893E+05   # chargino2+ decays
#          BR         NDA      ID1       ID2
     2.22926954E-03    2     1000002        -1   # BR(~chi_2+ -> ~u_L     db)
     2.22927032E-03    2    -1000001         2   # BR(~chi_2+ -> ~d_L*    u )
     2.22926954E-03    2     1000004        -3   # BR(~chi_2+ -> ~c_L     sb)
     2.22927032E-03    2    -1000003         4   # BR(~chi_2+ -> ~s_L*    c )
     9.62103860E-01    2     1000006        -5   # BR(~chi_2+ -> ~t_1     bb)
     4.82325592E-04    2    -1000005         6   # BR(~chi_2+ -> ~b_1*    t )
     2.12370639E-03    2    -2000005         6   # BR(~chi_2+ -> ~b_2*    t )
     1.64782881E-15    2     1000012       -11   # BR(~chi_2+ -> ~nu_eL   e+  )
     1.64782881E-15    2     1000014       -13   # BR(~chi_2+ -> ~nu_muL  mu+ )
     1.15376395E-15    2    -1000011        12   # BR(~chi_2+ -> ~e_L+    nu_e)
     1.15376395E-15    2    -1000013        14   # BR(~chi_2+ -> ~mu_L+   nu_mu)
     1.79001498E-15    2    -1000015        16   # BR(~chi_2+ -> ~tau_1+  nu_tau)
     3.04701977E-17    2    -2000015        16   # BR(~chi_2+ -> ~tau_2+  nu_tau)
     4.09258474E-04    2     1000024        23   # BR(~chi_2+ -> ~chi_1+  Z )
     1.22729896E-07    2     1000022        24   # BR(~chi_2+ -> ~chi_10  W+)
     3.97224528E-04    2     1000023        24   # BR(~chi_2+ -> ~chi_20  W+)
     3.97097534E-04    2     1000025        24   # BR(~chi_2+ -> ~chi_30  W+)
     4.12643248E-04    2     1000024        25   # BR(~chi_2+ -> ~chi_1+  h )
     3.62224145E-04    2     1000024        35   # BR(~chi_2+ -> ~chi_1+  H )
     3.62271483E-04    2     1000024        36   # BR(~chi_2+ -> ~chi_1+  A )
     1.43100144E-07    2     1000022        37   # BR(~chi_2+ -> ~chi_10  H+)
     3.62259334E-04    2     1000023        37   # BR(~chi_2+ -> ~chi_20  H+)
     3.62127180E-04    2     1000025        37   # BR(~chi_2+ -> ~chi_30  H+)
     2.33076494E-02    2     1000039        24   # BR(~chi_2+ -> ~G       W+)
     6.69403079E-09    2     1000039        37   # BR(~chi_2+ -> ~G       H+)
#
#         PDG            Width
DECAY   1000022     1.E-08   # neutralino1 decays (OJ Mods)
#          BR         NDA      ID1       ID2
     7.62045644E-01    2     1000039        22   # BR(~chi_10 -> ~G        gam)
     2.37952686E-01    2     1000039        23   # BR(~chi_10 -> ~G        Z)
     1.66998822E-06    2     1000039        25   # BR(~chi_10 -> ~G        h)
#
#         PDG            Width
DECAY   1000023     1.E-08   # neutralino2 decays (OJ Mods)
#          BR         NDA      ID1       ID2
     2.98455952E-02    2     1000022        23   # BR(~chi_20 -> ~chi_10   Z )
     2.81331719E-04    2     1000022        25   # BR(~chi_20 -> ~chi_10   h )
     7.75890549E-04    2     1000022        35   # BR(~chi_20 -> ~chi_10   H )
     4.41445025E-04    2     1000022        36   # BR(~chi_20 -> ~chi_10   A )
     7.54912862E-09    2     1000002        -2   # BR(~chi_20 -> ~u_L      ub)
     7.54912862E-09    2    -1000002         2   # BR(~chi_20 -> ~u_L*     u )
     4.67111007E-08    2     1000001        -1   # BR(~chi_20 -> ~d_L      db)
     4.67111007E-08    2    -1000001         1   # BR(~chi_20 -> ~d_L*     d )
     9.18230734E-08    2     2000001        -1   # BR(~chi_20 -> ~d_R      db)
     9.18230734E-08    2    -2000001         1   # BR(~chi_20 -> ~d_R*     d )
     7.54912862E-09    2     1000004        -4   # BR(~chi_20 -> ~c_L      cb)
     7.54912862E-09    2    -1000004         4   # BR(~chi_20 -> ~c_L*     c )
     4.67111007E-08    2     1000003        -3   # BR(~chi_20 -> ~s_L      sb)
     4.67111007E-08    2    -1000003         3   # BR(~chi_20 -> ~s_L*     s )
     9.18230734E-08    2     2000003        -3   # BR(~chi_20 -> ~s_R      sb)
     9.18230734E-08    2    -2000003         3   # BR(~chi_20 -> ~s_R*     s )
     2.85036992E-01    2     1000006        -6   # BR(~chi_20 -> ~t_1      tb)
     2.85036992E-01    2    -1000006         6   # BR(~chi_20 -> ~t_1*     t )
     9.66581692E-02    2     1000005        -5   # BR(~chi_20 -> ~b_1      bb)
     9.66581692E-02    2    -1000005         5   # BR(~chi_20 -> ~b_1*     b )
     1.02630781E-01    2     2000005        -5   # BR(~chi_20 -> ~b_2      bb)
     1.02630781E-01    2    -2000005         5   # BR(~chi_20 -> ~b_2*     b )
     1.33730015E-11    2     1000039        22   # BR(~chi_20 -> ~G        gam)
     1.06840138E-07    2     1000039        23   # BR(~chi_20 -> ~G        Z)
     2.66653997E-06    2     1000039        25   # BR(~chi_20 -> ~G        h)
     2.13695526E-08    2     1000039        35   # BR(~chi_20 -> ~G        H)
     5.50870713E-07    2     1000039        36   # BR(~chi_20 -> ~G        A)
#
#         PDG            Width
DECAY   1000025     1.09296786E+02   # neutralino3 decays
#          BR         NDA      ID1       ID2
     2.85306052E-04    2     1000022        23   # BR(~chi_30 -> ~chi_10   Z )
     2.98673952E-02    2     1000022        25   # BR(~chi_30 -> ~chi_10   h )
     4.25516697E-04    2     1000022        35   # BR(~chi_30 -> ~chi_10   H )
     7.86798594E-04    2     1000022        36   # BR(~chi_30 -> ~chi_10   A )
     3.56416495E-06    2     1000002        -2   # BR(~chi_30 -> ~u_L      ub)
     3.56416495E-06    2    -1000002         2   # BR(~chi_30 -> ~u_L*     u )
     1.43208300E-06    2     1000001        -1   # BR(~chi_30 -> ~d_L      db)
     1.43208300E-06    2    -1000001         1   # BR(~chi_30 -> ~d_L*     d )
     9.51408735E-06    2     2000001        -1   # BR(~chi_30 -> ~d_R      db)
     9.51408735E-06    2    -2000001         1   # BR(~chi_30 -> ~d_R*     d )
     3.56416495E-06    2     1000004        -4   # BR(~chi_30 -> ~c_L      cb)
     3.56416495E-06    2    -1000004         4   # BR(~chi_30 -> ~c_L*     c )
     1.43208300E-06    2     1000003        -3   # BR(~chi_30 -> ~s_L      sb)
     1.43208300E-06    2    -1000003         3   # BR(~chi_30 -> ~s_L*     s )
     9.51408735E-06    2     2000003        -3   # BR(~chi_30 -> ~s_R      sb)
     9.51408735E-06    2    -2000003         3   # BR(~chi_30 -> ~s_R*     s )
     2.83248246E-01    2     1000006        -6   # BR(~chi_30 -> ~t_1      tb)
     2.83248246E-01    2    -1000006         6   # BR(~chi_30 -> ~t_1*     t )
     7.73583506E-02    2     1000005        -5   # BR(~chi_30 -> ~b_1      bb)
     7.73583506E-02    2    -1000005         5   # BR(~chi_30 -> ~b_1*     b )
     1.23683993E-01    2     2000005        -5   # BR(~chi_30 -> ~b_2      bb)
     1.23683993E-01    2    -2000005         5   # BR(~chi_30 -> ~b_2*     b )
     1.59516033E-09    2     1000039        22   # BR(~chi_30 -> ~G        gam)
     2.65502322E-06    2     1000039        23   # BR(~chi_30 -> ~G        Z)
     1.03565332E-07    2     1000039        25   # BR(~chi_30 -> ~G        h)
     5.44317415E-07    2     1000039        35   # BR(~chi_30 -> ~G        H)
     2.19170676E-08    2     1000039        36   # BR(~chi_30 -> ~G        A)
#
#         PDG            Width
DECAY   1000035     4.82444971E+05   # neutralino4 decays
#          BR         NDA      ID1       ID2
     1.12779164E-09    2     1000022        23   # BR(~chi_40 -> ~chi_10   Z )
     3.95505095E-04    2     1000023        23   # BR(~chi_40 -> ~chi_20   Z )
     1.37508519E-05    2     1000025        23   # BR(~chi_40 -> ~chi_30   Z )
     3.97220366E-04    2     1000024       -24   # BR(~chi_40 -> ~chi_1+   W-)
     3.97220366E-04    2    -1000024        24   # BR(~chi_40 -> ~chi_1-   W+)
     1.26520272E-07    2     1000022        25   # BR(~chi_40 -> ~chi_10   h )
     1.20642768E-08    2     1000022        35   # BR(~chi_40 -> ~chi_10   H )
     1.30860097E-07    2     1000022        36   # BR(~chi_40 -> ~chi_10   A )
     1.35539065E-05    2     1000023        25   # BR(~chi_40 -> ~chi_20   h )
     3.46641369E-04    2     1000023        35   # BR(~chi_40 -> ~chi_20   H )
     1.59348999E-05    2     1000023        36   # BR(~chi_40 -> ~chi_20   A )
     3.98961508E-04    2     1000025        25   # BR(~chi_40 -> ~chi_30   h )
     1.55687409E-05    2     1000025        35   # BR(~chi_40 -> ~chi_30   H )
     3.46204194E-04    2     1000025        36   # BR(~chi_40 -> ~chi_30   A )
     3.62263510E-04    2     1000024       -37   # BR(~chi_40 -> ~chi_1+   H-)
     3.62263510E-04    2    -1000024        37   # BR(~chi_40 -> ~chi_1-   H+)
     1.06690029E-03    2     1000002        -2   # BR(~chi_40 -> ~u_L      ub)
     1.06690029E-03    2    -1000002         2   # BR(~chi_40 -> ~u_L*     u )
     1.73541003E-23    2     2000002        -2   # BR(~chi_40 -> ~u_R      ub)
     1.73541003E-23    2    -2000002         2   # BR(~chi_40 -> ~u_R*     u )
     1.06690086E-03    2     1000001        -1   # BR(~chi_40 -> ~d_L      db)
     1.06690086E-03    2    -1000001         1   # BR(~chi_40 -> ~d_L*     d )
     2.06811497E-17    2     2000001        -1   # BR(~chi_40 -> ~d_R      db)
     2.06811497E-17    2    -2000001         1   # BR(~chi_40 -> ~d_R*     d )
     1.06690029E-03    2     1000004        -4   # BR(~chi_40 -> ~c_L      cb)
     1.06690029E-03    2    -1000004         4   # BR(~chi_40 -> ~c_L*     c )
     1.73541003E-23    2     2000004        -4   # BR(~chi_40 -> ~c_R      cb)
     1.73541003E-23    2    -2000004         4   # BR(~chi_40 -> ~c_R*     c )
     1.06690086E-03    2     1000003        -3   # BR(~chi_40 -> ~s_L      sb)
     1.06690086E-03    2    -1000003         3   # BR(~chi_40 -> ~s_L*     s )
     2.06811497E-17    2     2000003        -3   # BR(~chi_40 -> ~s_R      sb)
     2.06811497E-17    2    -2000003         3   # BR(~chi_40 -> ~s_R*     s )
     1.30301327E-03    2     1000006        -6   # BR(~chi_40 -> ~t_1      tb)
     1.30301327E-03    2    -1000006         6   # BR(~chi_40 -> ~t_1*     t )
     2.30608956E-01    2     1000005        -5   # BR(~chi_40 -> ~b_1      bb)
     2.30608956E-01    2    -1000005         5   # BR(~chi_40 -> ~b_1*     b )
     2.50443051E-01    2     2000005        -5   # BR(~chi_40 -> ~b_2      bb)
     2.50443051E-01    2    -2000005         5   # BR(~chi_40 -> ~b_2*     b )
     5.76879170E-16    2     1000011       -11   # BR(~chi_40 -> ~e_L-     e+)
     5.76879170E-16    2    -1000011        11   # BR(~chi_40 -> ~e_L+     e-)
     1.00641771E-28    2     2000011       -11   # BR(~chi_40 -> ~e_R-     e+)
     1.00641771E-28    2    -2000011        11   # BR(~chi_40 -> ~e_R+     e-)
     5.76879170E-16    2     1000013       -13   # BR(~chi_40 -> ~mu_L-    mu+)
     5.76879170E-16    2    -1000013        13   # BR(~chi_40 -> ~mu_L+    mu-)
     1.00641771E-28    2     2000013       -13   # BR(~chi_40 -> ~mu_R-    mu+)
     1.00641771E-28    2    -2000013        13   # BR(~chi_40 -> ~mu_R+    mu-)
     8.23911483E-16    2     1000012       -12   # BR(~chi_40 -> ~nu_eL    nu_eb)
     8.23911483E-16    2    -1000012        12   # BR(~chi_40 -> ~nu_eL*   nu_e )
     8.23911483E-16    2     1000014       -14   # BR(~chi_40 -> ~nu_muL   nu_mub)
     8.23911483E-16    2    -1000014        14   # BR(~chi_40 -> ~nu_muL*  nu_mu )
     8.23911483E-16    2     1000016       -16   # BR(~chi_40 -> ~nu_tau1  nu_taub)
     8.23911483E-16    2    -1000016        16   # BR(~chi_40 -> ~nu_tau1* nu_tau )
     5.64148665E-03    2     1000039        22   # BR(~chi_40 -> ~G        gam)
     1.76660632E-02    2     1000039        23   # BR(~chi_40 -> ~G        Z)
     1.06817264E-09    2     1000039        25   # BR(~chi_40 -> ~G        h)
     6.70504736E-09    2     1000039        35   # BR(~chi_40 -> ~G        H)
     1.32131012E-12    2     1000039        36   # BR(~chi_40 -> ~G        A)
#
#
#
#
