# SUSY Les Houches Accord 2 - MSSM spectrum + Decays
# SPheno v3.1.12 
# W. Porod, Comput. Phys. Commun. 153 (2003) 275-315, hep-ph/0301101
# in case of problems send email to porod@physik.uni-wuerzburg.de
# Created: 09.12.2016,  15:23
Block SPINFO         # Program information
     1   SPheno      # spectrum calculator
     2   v3.1.12     # version number
#
Block SPhenoINFO     # SPheno specific information
    1      2         # using 2-loop RGEs
    2      1         # using running masses for boundary conditions at mZ
Block MODSEL  # Model selection
    1    2    # mGMSB model
Block MINPAR  # Input parameters
    1    1.50000000E+05  # Lambda, scale of SUSY breaking
    2    2.50000000E+05  # M_M, messenger mass scale
    3    1.00000000E+01  # tanb at m_Z   
    4    1.00000000E+00  # Sign(mu)
    5    3.00000000E+00  # N_5 number of effective five-plets
    6    1.00000000E+00  # c_grav, Gravitino mass factor
Block gauge Q=  2.50000000E+05  # (GMSB scale)
   1    4.92898857E-01  # g'(Q)^DRbar
   2    6.46288477E-01  # g(Q)^DRbar
   3    9.31982858E-01  # g3(Q)^DRbar
Block SMINPUTS  # SM parameters
         1     1.27932458E+02  # alpha_em^-1(MZ)^MSbar
         2     1.16639000E-05  # G_mu [GeV^-2]
         3     1.17200000E-01  # alpha_s(MZ)^MSbar
         4     9.11876000E+01  # m_Z(pole)
         5     4.20000000E+00  # m_b(m_b), MSbar
         6     1.72500000E+02  # m_t(pole)
         7     1.77700000E+00  # m_tau(pole)
         8     0.00000000E+00  # m_nu_3
        11     5.10998910E-04  # m_e(pole)
        12     0.00000000E+00  # m_nu_1
        13     1.05658000E-01  # m_muon(pole)
        14     0.00000000E+00  # m_nu_2
        21     5.00000000E-03  # m_d(2 GeV), MSbar
        22     3.00000000E-03  # m_u(2 GeV), MSbar
        23     1.05000000E-01  # m_s(2 GeV), MSbar
        24     1.27000000E+00  # m_c(m_c), MSbar
Block gauge Q=  2.82385078E+03  # (SUSY scale)
   1    3.65270079E-01  # g'(Q)^DRbar
   2    6.37394079E-01  # g(Q)^DRbar
   3    1.00696213E+00  # g3(Q)^DRbar
Block Yu Q=  2.82385078E+03  # (SUSY scale)
  1  1     8.31652806E-06   # Y_u(Q)^DRbar
  2  2     3.52066397E-03   # Y_c(Q)^DRbar
  3  3     8.36567156E-01   # Y_t(Q)^DRbar
Block Yd Q=  2.82385078E+03  # (SUSY scale)
  1  1     1.28377418E-04   # Y_d(Q)^DRbar
  2  2     2.69592499E-03   # Y_s(Q)^DRbar
  3  3     1.26734916E-01   # Y_b(Q)^DRbar
Block Ye Q=  2.82385078E+03  # (SUSY scale)
  1  1     2.85585999E-05   # Y_e(Q)^DRbar
  2  2     5.90499472E-03   # Y_mu(Q)^DRbar
  3  3     9.93250535E-02   # Y_tau(Q)^DRbar
Block Au Q=  2.82385078E+03  # (SUSY scale)
  1  1    -8.48554765E+02   # A_u(Q)^DRbar
  2  2    -8.48553809E+02   # A_c(Q)^DRbar
  3  3    -8.03617393E+02   # A_t(Q)^DRbar
Block Ad Q=  2.82385078E+03  # (SUSY scale)
  1  1    -8.99913090E+02   # A_d(Q)^DRbar
  2  2    -8.99912346E+02   # A_s(Q)^DRbar
  3  3    -8.84350439E+02   # A_b(Q)^DRbar
Block Ae Q=  2.82385078E+03  # (SUSY scale)
  1  1    -1.01685105E+02   # A_e(Q)^DRbar
  2  2    -1.01684769E+02   # A_mu(Q)^DRbar
  3  3    -1.01589954E+02   # A_tau(Q)^DRbar
Block MSOFT Q=  2.82385078E+03  # soft SUSY breaking masses at Q
   1    6.74558538E+02  # M_1
   2    1.22861876E+03  # M_2
   3    3.07895032E+03  # M_3
  21    8.28715965E+05  # M^2_(H,d)
  22   -7.16523197E+05  # M^2_(H,u)
  31    9.30867177E+02  # M_(L,11)
  32    9.30865329E+02  # M_(L,22)
  33    9.30344219E+02  # M_(L,33)
  34    4.52904212E+02  # M_(E,11)
  35    4.52896480E+02  # M_(E,22)
  36    4.50711558E+02  # M_(E,33)
  41    2.92814867E+03  # M_(Q,11)
  42    2.92814630E+03  # M_(Q,22)
  43    2.84280503E+03  # M_(Q,33)
  44    2.80587207E+03  # M_(U,11)
  45    2.80586895E+03  # M_(U,22)
  46    2.62565447E+03  # M_(U,33)
  47    2.79386641E+03  # M_(D,11)
  48    2.79386453E+03  # M_(D,22)
  49    2.78973202E+03  # M_(D,33)
Block MASS  # Mass spectrum
#   PDG code      mass          particle
         6     1.72500000E+02  # m_t(pole)
        23     9.11876000E+01  # m_Z(pole)
        24     8.03150649E+01  # W+
        15     1.77700000E+00  # m_tau(pole)
        25     1.19847052E+02  # h0
        35     1.34254367E+03  # H0
        36     1.34230014E+03  # A0
        37     1.34460137E+03  # H+
   1000001     3.04885877E+03  # ~d_L
   2000001     2.90726797E+03  # ~d_R
   1000002     3.04782630E+03  # ~u_L
   2000002     2.91849405E+03  # ~u_R
   1000003     3.04885592E+03  # ~s_L
   2000003     2.90726560E+03  # ~s_R
   1000004     3.04782357E+03  # ~c_L
   2000004     2.91849026E+03  # ~c_R
   1000005     2.90175843E+03  # ~b_1
   2000005     2.94509980E+03  # ~b_2
   1000006     2.70263129E+03  # ~t_1
   2000006     2.95050243E+03  # ~t_2
   1000011     9.52020855E+02  # ~e_L-
   2000011     4.71200882E+02  # ~e_R-
   1000012     9.48342402E+02  # ~nu_eL
   1000013     9.52018988E+02  # ~mu_L-
   2000013     4.71189526E+02  # ~mu_R-
   1000014     9.48339750E+02  # ~nu_muL
   1000015     4.67979909E+02  # ~tau_1-
   2000015     9.51492383E+02  # ~tau_2-
   1000016     9.47592524E+02  # ~nu_tauL
   1000021     3.22352496E+03  # ~g
   1000022     6.56017067E+02  # ~chi_10
   1000023     9.55038429E+02  # ~chi_20
   1000025    -9.64221271E+02  # ~chi_30
   1000035     1.26706313E+03  # ~chi_40
   1000024     9.51922454E+02  # ~chi_1+
   1000037     1.26723172E+03  # ~chi_2+
   1000039     9.00000000E-09  # ~G
# Higgs mixing
Block alpha # Effective Higgs mixing angle
          -1.05975169E-01   # alpha
Block Hmix Q=  2.82385078E+03  # Higgs mixing parameters
   1    9.50236640E+02  # mu
   2    9.52039786E+00  # tan[beta](Q)
   3    2.43495541E+02  # v(Q)
   4    1.57171688E+06  # m^2_A(Q)
Block stopmix # stop mixing matrix
   1  1     1.12343945E-01   # Re[R_st(1,1)]
   1  2     9.93669381E-01   # Re[R_st(1,2)]
   2  1    -9.93669381E-01   # Re[R_st(2,1)]
   2  2     1.12343945E-01   # Re[R_st(2,2)]
Block sbotmix # sbottom mixing matrix
   1  1     9.75444724E-02   # Re[R_sb(1,1)]
   1  2     9.95231167E-01   # Re[R_sb(1,2)]
   2  1    -9.95231167E-01   # Re[R_sb(2,1)]
   2  2     9.75444724E-02   # Re[R_sb(2,2)]
Block staumix # stau mixing matrix
   1  1     2.44237047E-02   # Re[R_sta(1,1)]
   1  2     9.99701697E-01   # Re[R_sta(1,2)]
   2  1    -9.99701697E-01   # Re[R_sta(2,1)]
   2  2     2.44237047E-02   # Re[R_sta(2,2)]
Block Nmix # neutralino mixing matrix
   1  1    -9.93168147E-01   # Re[N(1,1)]
   1  2     1.01860496E-02   # Re[N(1,2)]
   1  3    -9.35917975E-02   # Re[N(1,3)]
   1  4     6.89481779E-02   # Re[N(1,4)]
   2  1    -1.14763979E-01   # Re[N(2,1)]
   2  2    -1.96366733E-01   # Re[N(2,2)]
   2  3     6.90986782E-01   # Re[N(2,3)]
   2  4    -6.86153483E-01   # Re[N(2,4)]
   3  1    -1.71916455E-02   # Re[N(3,1)]
   3  2     2.24455010E-02   # Re[N(3,2)]
   3  3     7.06110880E-01   # Re[N(3,3)]
   3  4     7.07536622E-01   # Re[N(3,4)]
   4  1    -1.22763098E-02   # Re[N(4,1)]
   4  2     9.80220664E-01   # Re[N(4,2)]
   4  3     1.23228514E-01   # Re[N(4,3)]
   4  4    -1.54374466E-01   # Re[N(4,4)]
Block Umix # chargino mixing matrix
   1  1    -1.74396265E-01   # Re[U(1,1)]
   1  2     9.84675552E-01   # Re[U(1,2)]
   2  1     9.84675552E-01   # Re[U(2,1)]
   2  2     1.74396265E-01   # Re[U(2,2)]
Block Vmix # chargino mixing matrix
   1  1    -2.18382294E-01   # Re[V(1,1)]
   1  2     9.75863297E-01   # Re[V(1,2)]
   2  1     9.75863297E-01   # Re[V(2,1)]
   2  2     2.18382294E-01   # Re[V(2,2)]
DECAY   2000011     3.28658373E-10   # ~e^-_R
#    BR                NDA      ID1      ID2
     9.99892663E-01    2     1000039        11   # BR(~e^-_R -> ~G e^-)
#    BR                NDA      ID1      ID2       ID3
     2.23387017E-05    3     1000015        11       -15   # BR(~e^-_R -> ~tau^-_1 e^- tau^+)
     8.49982129E-05    3    -1000015        11        15   # BR(~e^-_R -> ~tau^+_1 e^- tau^-)
DECAY   1000011     3.31539954E-01   # ~e^-_L
#    BR                NDA      ID1      ID2
     9.99999902E-01    2     1000022        11   # BR(~e^-_L -> chi^0_1 e^-)
     3.01613582E-08    2    -1000024        12   # BR(~e^-_L -> chi^-_1 nu_e)
     1.68729770E-08    2     2000011        23   # BR(~e^-_L -> ~e^-_R Z)
     1.70989671E-08    2     2000011        25   # BR(~e^-_L -> ~e^-_R h^0)
     3.33706024E-08    2     1000039        11   # BR(~e^-_L -> ~G e^-)
DECAY   2000013     3.28619454E-10   # ~mu^-_R
#    BR                NDA      ID1      ID2
     9.99890388E-01    2     1000039        13   # BR(~mu^-_R -> ~G mu^-)
#    BR                NDA      ID1      ID2       ID3
     2.28081810E-05    3     1000015        13       -15   # BR(~mu^-_R -> ~tau^-_1 mu^- tau^+)
     8.68042243E-05    3    -1000015        13        15   # BR(~mu^-_R -> ~tau^+_1 mu^- tau^-)
DECAY   1000013     3.32019909E-01   # ~mu^-_L
#    BR                NDA      ID1      ID2
     9.98549621E-01    2     1000022        13   # BR(~mu^-_L -> chi^0_1 mu^-)
     2.89813023E-08    2    -1000024        14   # BR(~mu^-_L -> chi^-_1 nu_mu)
     7.20337277E-04    2     2000013        23   # BR(~mu^-_L -> ~mu^-_R Z)
     7.29979632E-04    2     2000013        25   # BR(~mu^-_L -> ~mu^-_R h^0)
     3.33220348E-08    2     1000039        13   # BR(~mu^-_L -> ~G mu^-)
DECAY   1000015     3.17525498E-10   # ~tau^-_1
#    BR                NDA      ID1      ID2
     1.00000000E+00    2     1000039        15   # BR(~tau^-_1 -> ~G tau^-)
DECAY   2000015     4.67826198E-01   # ~tau^-_2
#    BR                NDA      ID1      ID2
     7.07728178E-01    2     1000022        15   # BR(~tau^-_2 -> chi^0_1 tau^-)
     1.45320413E-01    2     1000015        23   # BR(~tau^-_2 -> ~tau^-_1 Z)
     1.46951386E-01    2     1000015        25   # BR(~tau^-_2 -> ~tau^-_1 h^0)
     2.35832466E-08    2     1000039        15   # BR(~tau^-_2 -> ~G tau^-)
DECAY   1000012     3.49801976E-01   # ~nu_e
#    BR                NDA      ID1      ID2
     9.99999938E-01    2     1000022        12   # BR(~nu_e -> chi^0_1 nu_e)
     3.08515680E-08    2     2000011        24   # BR(~nu_e -> ~e^-_R W^+)
     3.10221001E-08    2     1000039        12   # BR(~nu_e -> ~G nu_e)
DECAY   1000014     3.50258790E-01   # ~nu_mu
#    BR                NDA      ID1      ID2
     9.98682677E-01    2     1000022        14   # BR(~nu_mu -> chi^0_1 nu_mu)
     1.31729165E-03    2     2000013        24   # BR(~nu_mu -> ~mu^-_R W^+)
     3.09812074E-08    2     1000039        14   # BR(~nu_mu -> ~G nu_mu)
DECAY   1000016     4.79585237E-01   # ~nu_tau
#    BR                NDA      ID1      ID2
     7.26691366E-01    2     1000022        16   # BR(~nu_tau -> chi^0_1 nu_tau)
     2.73308611E-01    2     1000015        24   # BR(~nu_tau -> ~tau^-_1 W^+)
     2.25377175E-08    2     1000039        16   # BR(~nu_tau -> ~G nu_tau)
DECAY   2000001     1.54219974E+00   # ~d_R
#    BR                NDA      ID1      ID2
     9.87971709E-01    2     1000022         1   # BR(~d_R -> chi^0_1 d)
     1.16553553E-02    2     1000023         1   # BR(~d_R -> chi^0_2 d)
     2.60561763E-04    2     1000025         1   # BR(~d_R -> chi^0_3 d)
     1.09965446E-04    2     1000035         1   # BR(~d_R -> chi^0_4 d)
     5.02670972E-07    2    -1000024         2   # BR(~d_R -> chi^-_1 u)
     3.85165579E-10    2    -1000037         2   # BR(~d_R -> chi^-_2 u)
     1.90525146E-06    2     1000039         1   # BR(~d_R -> ~G d)
DECAY   1000001     2.58617956E+01   # ~d_L
#    BR                NDA      ID1      ID2
     1.73165855E-02    2     1000022         1   # BR(~d_L -> chi^0_1 d)
     1.17924474E-02    2     1000023         1   # BR(~d_L -> chi^0_2 d)
     2.55476890E-04    2     1000025         1   # BR(~d_L -> chi^0_3 d)
     3.14797850E-01    2     1000035         1   # BR(~d_L -> chi^0_4 d)
     2.36053271E-02    2    -1000024         2   # BR(~d_L -> chi^-_1 u)
     6.32232168E-01    2    -1000037         2   # BR(~d_L -> chi^-_2 u)
     9.58595890E-13    2     2000002       -24   # BR(~d_L -> ~u_R W^-)
     1.01968329E-10    2     2000001        23   # BR(~d_L -> ~d_R Z)
     1.07119155E-10    2     2000001        25   # BR(~d_L -> ~d_R h^0)
     1.44110450E-07    2     1000039         1   # BR(~d_L -> ~G d)
DECAY   2000003     1.54287653E+00   # ~s_R
#    BR                NDA      ID1      ID2
     9.87541905E-01    2     1000022         3   # BR(~s_R -> chi^0_1 s)
     1.17576719E-02    2     1000023         3   # BR(~s_R -> chi^0_2 s)
     3.66786705E-04    2     1000025         3   # BR(~s_R -> chi^0_3 s)
     1.09981688E-04    2     1000035         3   # BR(~s_R -> chi^0_4 s)
     2.21580146E-04    2    -1000024         4   # BR(~s_R -> chi^-_1 c)
     1.69780441E-07    2    -1000037         4   # BR(~s_R -> chi^-_2 c)
     1.90440794E-06    2     1000039         3   # BR(~s_R -> ~G s)
DECAY   1000003     2.58627061E+01   # ~s_L
#    BR                NDA      ID1      ID2
     1.73159352E-02    2     1000022         3   # BR(~s_L -> chi^0_1 s)
     1.17983461E-02    2     1000023         3   # BR(~s_L -> chi^0_2 s)
     2.62398300E-04    2     1000025         3   # BR(~s_L -> chi^0_3 s)
     3.14786591E-01    2     1000035         3   # BR(~s_L -> chi^0_4 s)
     2.36258801E-02    2    -1000024         4   # BR(~s_L -> chi^-_1 c)
     6.32210441E-01    2    -1000037         4   # BR(~s_L -> chi^-_2 c)
     1.71787840E-07    2     2000004       -24   # BR(~s_L -> ~c_R W^-)
     4.49660144E-08    2     2000003        23   # BR(~s_L -> ~s_R Z)
     4.72372948E-08    2     2000003        25   # BR(~s_L -> ~s_R h^0)
     1.44104700E-07    2     1000039         3   # BR(~s_L -> ~G s)
DECAY   1000005     3.50315209E+00   # ~b_1
#    BR                NDA      ID1      ID2
     4.41888299E-01    2     1000022         5   # BR(~b_1 -> chi^0_1 b)
     1.19460519E-01    2     1000023         5   # BR(~b_1 -> chi^0_2 b)
     1.01280087E-01    2     1000025         5   # BR(~b_1 -> chi^0_3 b)
     8.25807765E-03    2     1000035         5   # BR(~b_1 -> chi^0_4 b)
     3.07397386E-01    2    -1000024         6   # BR(~b_1 -> chi^-_1 t)
     2.07790412E-02    2    -1000037         6   # BR(~b_1 -> chi^-_2 t)
     9.35759313E-04    2     1000006       -24   # BR(~b_1 -> ~t_1 W^-)
     8.30828244E-07    2     1000039         5   # BR(~b_1 -> ~G b)
DECAY   2000005     5.75218314E+01   # ~b_2
#    BR                NDA      ID1      ID2
     7.22996075E-03    2     1000022         5   # BR(~b_2 -> chi^0_1 b)
     1.04250157E-02    2     1000023         5   # BR(~b_2 -> chi^0_2 b)
     6.81256459E-03    2     1000025         5   # BR(~b_2 -> chi^0_3 b)
     1.32482684E-01    2     1000035         5   # BR(~b_2 -> chi^0_4 b)
     5.36986063E-01    2    -1000024         6   # BR(~b_2 -> chi^-_1 t)
     2.94569334E-01    2    -1000037         6   # BR(~b_2 -> chi^-_2 t)
     1.14943229E-02    2     1000006       -24   # BR(~b_2 -> ~t_1 W^-)
     5.44918375E-08    2     1000039         5   # BR(~b_2 -> ~G b)
DECAY   2000002     6.19778522E+00   # ~u_R
#    BR                NDA      ID1      ID2
     9.87961610E-01    2     1000022         2   # BR(~u_R -> chi^0_1 u)
     1.16670390E-02    2     1000023         2   # BR(~u_R -> chi^0_2 u)
     2.60597145E-04    2     1000025         2   # BR(~u_R -> chi^0_3 u)
     1.10269633E-04    2     1000035         2   # BR(~u_R -> chi^0_4 u)
     5.30763214E-10    2     1000024         1   # BR(~u_R -> chi^+_1 d)
     1.20922471E-12    2     1000037         1   # BR(~u_R -> chi^+_2 d)
     4.83309299E-07    2     1000039         2   # BR(~u_R -> ~G u)
DECAY   1000002     2.59068583E+01   # ~u_L
#    BR                NDA      ID1      ID2
     1.39370427E-02    2     1000022         2   # BR(~u_L -> chi^0_1 u)
     1.84241627E-02    2     1000023         2   # BR(~u_L -> chi^0_2 u)
     1.41368715E-04    2     1000025         2   # BR(~u_L -> chi^0_3 u)
     3.11063973E-01    2     1000035         2   # BR(~u_L -> chi^0_4 u)
     3.69321121E-02    2     1000024         1   # BR(~u_L -> chi^+_1 d)
     6.19501197E-01    2     1000037         1   # BR(~u_L -> chi^+_2 d)
     2.38732703E-10    2     2000001        24   # BR(~u_L -> ~d_R W^+)
     3.51455766E-13    2     2000002        23   # BR(~u_L -> ~u_R Z)
     2.44778487E-13    2     2000002        25   # BR(~u_L -> ~u_R h^0)
     1.43616362E-07    2     1000039         2   # BR(~u_L -> ~G u)
DECAY   2000004     6.19894238E+00   # ~c_R
#    BR                NDA      ID1      ID2
     9.87775698E-01    2     1000022         4   # BR(~c_R -> chi^0_1 c)
     1.17109227E-02    2     1000023         4   # BR(~c_R -> chi^0_2 c)
     3.07246408E-04    2     1000025         4   # BR(~c_R -> chi^0_3 c)
     1.10332023E-04    2     1000035         4   # BR(~c_R -> chi^0_4 c)
     9.51006508E-05    2     1000024         3   # BR(~c_R -> chi^+_1 s)
     2.16677774E-07    2     1000037         3   # BR(~c_R -> chi^+_2 s)
     4.83215570E-07    2     1000039         4   # BR(~c_R -> ~G c)
DECAY   1000004     2.59077555E+01   # ~c_L
#    BR                NDA      ID1      ID2
     1.39366135E-02    2     1000022         4   # BR(~c_L -> chi^0_1 c)
     1.84338150E-02    2     1000023         4   # BR(~c_L -> chi^0_2 c)
     1.53019650E-04    2     1000025         4   # BR(~c_L -> chi^0_3 c)
     3.11053781E-01    2     1000035         4   # BR(~c_L -> chi^0_4 c)
     3.69424173E-02    2     1000024         3   # BR(~c_L -> chi^+_1 s)
     6.19479998E-01    2     1000037         3   # BR(~c_L -> chi^+_2 s)
     1.05277056E-07    2     2000003        24   # BR(~c_L -> ~s_R W^+)
     6.29845155E-08    2     2000004        23   # BR(~c_L -> ~c_R Z)
     4.38679075E-08    2     2000004        25   # BR(~c_L -> ~c_R h^0)
     1.43610645E-07    2     1000039         4   # BR(~c_L -> ~G c)
DECAY   1000006     6.27277422E+01   # ~t_1
#    BR                NDA      ID1      ID2
     9.36077545E-08    2     1000022         4   # BR(~t_1 -> chi^0_1 c)
     9.11409557E-02    2     1000022         6   # BR(~t_1 -> chi^0_1 t)
     1.19663321E-07    2     1000023         4   # BR(~t_1 -> chi^0_2 c)
     2.18991234E-01    2     1000023         6   # BR(~t_1 -> chi^0_2 t)
     2.30429540E-01    2     1000025         6   # BR(~t_1 -> chi^0_3 t)
     3.18782802E-03    2     1000035         6   # BR(~t_1 -> chi^0_4 t)
     4.49736718E-01    2     1000024         5   # BR(~t_1 -> chi^+_1 b)
     6.50646880E-03    2     1000037         5   # BR(~t_1 -> chi^+_2 b)
     3.19926713E-08    2     1000039         6   # BR(~t_1 -> ~G t)
#    BR                NDA      ID1      ID2       ID3
     7.01128925E-06    3     1000022        24         5   # BR(~t_1 -> chi^0_1 W^+ b)
DECAY   2000006     5.80540326E+01   # ~t_2
#    BR                NDA      ID1      ID2
     7.24970586E-03    2     1000022         6   # BR(~t_2 -> chi^0_1 t)
     2.65051293E-01    2     1000023         6   # BR(~t_2 -> chi^0_2 t)
     2.76379439E-01    2     1000025         6   # BR(~t_2 -> chi^0_3 t)
     1.52108380E-01    2     1000035         6   # BR(~t_2 -> chi^0_4 t)
     1.42317776E-02    2     1000024         5   # BR(~t_2 -> chi^+_1 b)
     2.74589598E-01    2     1000037         5   # BR(~t_2 -> chi^+_2 b)
     5.96560215E-03    2     1000006        23   # BR(~t_2 -> ~t_1 Z)
     4.42415073E-03    2     1000006        25   # BR(~t_2 -> ~t_1 h^0)
     5.37485878E-08    2     1000039         6   # BR(~t_2 -> ~G t)
DECAY   1000024     5.45608887E-01   # chi^+_1
#    BR                NDA      ID1      ID2
     8.26413102E-09    2    -2000011        12   # BR(chi^+_1 -> ~e^+_R nu_e)
     3.53325389E-04    2    -2000013        14   # BR(chi^+_1 -> ~mu^+_R nu_mu)
     1.00775042E-01    2    -1000015        16   # BR(chi^+_1 -> ~tau^+_1 nu_tau)
     1.67462718E-07    2    -2000015        16   # BR(chi^+_1 -> ~tau^+_2 nu_tau)
     1.89527356E-05    2     1000012       -11   # BR(chi^+_1 -> ~nu_e e^+)
     1.90524813E-05    2     1000014       -13   # BR(chi^+_1 -> ~nu_mu mu^+)
     5.23495943E-05    2     1000016       -15   # BR(chi^+_1 -> ~nu_tau tau^+)
     8.97559195E-01    2     1000022        24   # BR(chi^+_1 -> chi^0_1 W^+)
#    BR                NDA      ID1      ID2       ID3
     2.24482296E-09    3     1000022        -1         2   # BR(chi^+_1 -> chi^0_1 d_bar u)
     2.31001315E-09    3     1000022        -3         4   # BR(chi^+_1 -> chi^0_1 s_bar c)
     1.20986979E-03    3     1000022        -5         6   # BR(chi^+_1 -> chi^0_1 b_bar t)
     4.80387802E-06    3     1000022       -11        12   # BR(chi^+_1 -> chi^0_1 e^+ nu_e)
     4.81312684E-06    3     1000022       -13        14   # BR(chi^+_1 -> chi^0_1 mu^+ nu_mu)
     2.41587751E-06    3     1000022       -15        16   # BR(chi^+_1 -> chi^0_1 tau^+ nu_tau)
DECAY   1000037     1.25644722E+01   # chi^+_2
#    BR                NDA      ID1      ID2
     2.33826632E-13    2    -2000011        12   # BR(chi^+_2 -> ~e^+_R nu_e)
     7.49904529E-02    2    -1000011        12   # BR(chi^+_2 -> ~e^+_L nu_e)
     9.99834517E-09    2    -2000013        14   # BR(chi^+_2 -> ~mu^+_R nu_mu)
     7.49914145E-02    2    -1000013        14   # BR(chi^+_2 -> ~mu^+_L nu_mu)
     2.95665751E-06    2    -1000015        16   # BR(chi^+_2 -> ~tau^+_1 nu_tau)
     7.52628170E-02    2    -2000015        16   # BR(chi^+_2 -> ~tau^+_2 nu_tau)
     7.51336216E-02    2     1000012       -11   # BR(chi^+_2 -> ~nu_e e^+)
     7.51347999E-02    2     1000014       -13   # BR(chi^+_2 -> ~nu_mu mu^+)
     7.54672252E-02    2     1000016       -15   # BR(chi^+_2 -> ~nu_tau tau^+)
     1.08829529E-04    2     1000022        24   # BR(chi^+_2 -> chi^0_1 W^+)
     1.41212182E-01    2     1000023        24   # BR(chi^+_2 -> chi^0_2 W^+)
     1.33370221E-01    2     1000025        24   # BR(chi^+_2 -> chi^0_3 W^+)
     1.42893896E-01    2     1000024        23   # BR(chi^+_2 -> chi^+_1 Z)
     1.30956132E-01    2     1000024        25   # BR(chi^+_2 -> chi^+_1 h^0)
#    BR                NDA      ID1      ID2       ID3
     2.49901304E-09    3     1000024         2        -2   # BR(chi^+_2 -> chi^+_1 u u_bar)
     2.49963408E-09    3     1000024         4        -4   # BR(chi^+_2 -> chi^+_1 c c_bar)
     3.85485691E-09    3     1000024         1        -1   # BR(chi^+_2 -> chi^+_1 d d_bar)
     3.88533589E-09    3     1000024         3        -3   # BR(chi^+_2 -> chi^+_1 s s_bar)
     7.41742558E-08    3     1000024         5        -5   # BR(chi^+_2 -> chi^+_1 b b_bar)
     1.63018148E-06    3     1000024        11       -11   # BR(chi^+_2 -> chi^+_1 e^- e^+)
     1.63263023E-06    3     1000024        13       -13   # BR(chi^+_2 -> chi^+_1 mu^- mu^+)
     2.24192136E-06    3     1000024        15       -15   # BR(chi^+_2 -> chi^+_1 tau^- tau^+)
     1.18315884E-06    3     1000024        12       -12   # BR(chi^+_2 -> chi^+_1 nu_e nu_bar_e)
     6.85788629E-08    3     1000022        -1         2   # BR(chi^+_2 -> chi^0_1 d_bar u)
     6.85773375E-08    3     1000022        -3         4   # BR(chi^+_2 -> chi^0_1 s_bar c)
     1.01450240E-06    3     1000022        -5         6   # BR(chi^+_2 -> chi^0_1 b_bar t)
     3.33968714E-12    3     1000022       -13        14   # BR(chi^+_2 -> chi^0_1 mu^+ nu_mu)
     9.62926660E-10    3     1000022       -15        16   # BR(chi^+_2 -> chi^0_1 tau^+ nu_tau)
     1.58474632E-09    3     1000023        -1         2   # BR(chi^+_2 -> chi^0_2 d_bar u)
     1.59900988E-09    3     1000023        -3         4   # BR(chi^+_2 -> chi^0_2 s_bar c)
     2.56753700E-04    3     1000023        -5         6   # BR(chi^+_2 -> chi^0_2 b_bar t)
     1.10848178E-06    3     1000023       -11        12   # BR(chi^+_2 -> chi^0_2 e^+ nu_e)
     1.10961493E-06    3     1000023       -13        14   # BR(chi^+_2 -> chi^0_2 mu^+ nu_mu)
     1.36094225E-06    3     1000023       -15        16   # BR(chi^+_2 -> chi^0_2 tau^+ nu_tau)
     5.16724198E-11    3     1000025        -1         2   # BR(chi^+_2 -> chi^0_3 d_bar u)
     6.28615347E-11    3     1000025        -3         4   # BR(chi^+_2 -> chi^0_3 s_bar c)
     2.06872953E-04    3     1000025        -5         6   # BR(chi^+_2 -> chi^0_3 b_bar t)
     1.59526884E-08    3     1000025       -11        12   # BR(chi^+_2 -> chi^0_3 e^+ nu_e)
     1.68783092E-08    3     1000025       -13        14   # BR(chi^+_2 -> chi^0_3 mu^+ nu_mu)
     2.72106580E-07    3     1000025       -15        16   # BR(chi^+_2 -> chi^0_3 tau^+ nu_tau)
DECAY   1000022     2.43892320E+00   # chi^0_1
#    BR                NDA      ID1      ID2
     1.65027439E-01    2     2000011       -11   # BR(chi^0_1 -> ~e^-_R e^+)
     1.65027439E-01    2    -2000011        11   # BR(chi^0_1 -> ~e^+_R e^-)
     1.65044644E-01    2     2000013       -13   # BR(chi^0_1 -> ~mu^-_R mu^+)
     1.65044644E-01    2    -2000013        13   # BR(chi^0_1 -> ~mu^+_R mu^-)
     1.69927917E-01    2     1000015       -15   # BR(chi^0_1 -> ~tau^-_1 tau^+)
     1.69927917E-01    2    -1000015        15   # BR(chi^0_1 -> ~tau^+_1 tau^-)
     5.17177350E-10    2     1000039        22   # BR(chi^0_1 -> ~G photon)
     1.51475604E-10    2     1000039        23   # BR(chi^0_1 -> ~G Z)
     4.33382412E-12    2     1000039        25   # BR(chi^0_1 -> ~G h^0)
DECAY   1000023     7.11398800E-01   # chi^0_2
#    BR                NDA      ID1      ID2
     2.68644441E-02    2     2000011       -11   # BR(chi^0_2 -> ~e^-_R e^+)
     2.68644441E-02    2    -2000011        11   # BR(chi^0_2 -> ~e^+_R e^-)
     7.41997463E-06    2     1000011       -11   # BR(chi^0_2 -> ~e^-_L e^+)
     7.41997463E-06    2    -1000011        11   # BR(chi^0_2 -> ~e^+_L e^-)
     2.69969257E-02    2     2000013       -13   # BR(chi^0_2 -> ~mu^-_R mu^+)
     2.69969257E-02    2    -2000013        13   # BR(chi^0_2 -> ~mu^+_R mu^-)
     7.45143389E-06    2     1000013       -13   # BR(chi^0_2 -> ~mu^-_L mu^+)
     7.45143389E-06    2    -1000013        13   # BR(chi^0_2 -> ~mu^+_L mu^-)
     6.46801482E-02    2     1000015       -15   # BR(chi^0_2 -> ~tau^-_1 tau^+)
     6.46801482E-02    2    -1000015        15   # BR(chi^0_2 -> ~tau^+_1 tau^-)
     1.69294304E-05    2     2000015       -15   # BR(chi^0_2 -> ~tau^-_2 tau^+)
     1.69294304E-05    2    -2000015        15   # BR(chi^0_2 -> ~tau^+_2 tau^-)
     9.03393988E-06    2     1000012       -12   # BR(chi^0_2 -> ~nu_e nu_bar_e)
     9.03393988E-06    2    -1000012        12   # BR(chi^0_2 -> ~nu^*_e nu_e)
     9.04107122E-06    2     1000014       -14   # BR(chi^0_2 -> ~nu_mu nu_bar_mu)
     9.04107122E-06    2    -1000014        14   # BR(chi^0_2 -> ~nu^*_mu nu_mu)
     1.11618326E-05    2     1000016       -16   # BR(chi^0_2 -> ~nu_tau nu_bar_tau)
     1.11618326E-05    2    -1000016        16   # BR(chi^0_2 -> ~nu^*_tau nu_tau)
     1.97327278E-02    2     1000022        23   # BR(chi^0_2 -> chi^0_1 Z)
     7.43053237E-01    2     1000022        25   # BR(chi^0_2 -> chi^0_1 h^0)
     6.14481911E-10    2     1000039        22   # BR(chi^0_2 -> ~G photon)
     1.08813685E-09    2     1000039        23   # BR(chi^0_2 -> ~G Z)
     9.01360828E-09    2     1000039        25   # BR(chi^0_2 -> ~G h^0)
     4.26402953E-07    2     1000022        22   # BR(chi^0_2 -> chi^0_1 photon)
#    BR                NDA      ID1      ID2       ID3
     4.52782593E-09    3     1000022         2        -2   # BR(chi^0_2 -> chi^0_1 u u_bar)
     4.53369321E-09    3     1000022         4        -4   # BR(chi^0_2 -> chi^0_1 c c_bar)
     1.02321702E-09    3     1000022         1        -1   # BR(chi^0_2 -> chi^0_1 d d_bar)
     1.08869579E-09    3     1000022         3        -3   # BR(chi^0_2 -> chi^0_1 s s_bar)
     1.46638471E-07    3     1000022         5        -5   # BR(chi^0_2 -> chi^0_1 b b_bar)
     2.19649415E-06    3     1000022        11       -11   # BR(chi^0_2 -> chi^0_1 e^- e^+)
     2.20296970E-06    3     1000022        13       -13   # BR(chi^0_2 -> chi^0_1 mu^- mu^+)
     3.92866269E-06    3     1000022        15       -15   # BR(chi^0_2 -> chi^0_1 tau^- tau^+)
     1.75022737E-10    3     1000024         1        -2   # BR(chi^0_2 -> chi^+_1 d u_bar)
     1.75022737E-10    3    -1000024        -1         2   # BR(chi^0_2 -> chi^-_1 d_bar u)
     7.79980341E-11    3     1000024         3        -4   # BR(chi^0_2 -> chi^+_1 s c_bar)
     7.79980341E-11    3    -1000024        -3         4   # BR(chi^0_2 -> chi^-_1 s_bar c)
     5.72762742E-11    3     1000024        11       -12   # BR(chi^0_2 -> chi^+_1 e^- nu_bar_e)
     5.72762742E-11    3    -1000024       -11        12   # BR(chi^0_2 -> chi^-_1 e^+ nu_e)
     5.69546344E-11    3     1000024        13       -14   # BR(chi^0_2 -> chi^+_1 mu^- nu_bar_mu)
     5.69546344E-11    3    -1000024       -13        14   # BR(chi^0_2 -> chi^-_1 mu^+ nu_mu)
     9.59650809E-12    3     1000024        15       -16   # BR(chi^0_2 -> chi^+_1 tau^- nu_bar_tau)
     9.59650809E-12    3    -1000024       -15        16   # BR(chi^0_2 -> chi^-_1 tau^+ nu_tau)
DECAY   1000025     5.86917262E-01   # chi^0_3
#    BR                NDA      ID1      ID2
     7.46753895E-04    2     2000011       -11   # BR(chi^0_3 -> ~e^-_R e^+)
     7.46753895E-04    2    -2000011        11   # BR(chi^0_3 -> ~e^+_R e^-)
     3.32911864E-07    2     1000011       -11   # BR(chi^0_3 -> ~e^-_L e^+)
     3.32911864E-07    2    -1000011        11   # BR(chi^0_3 -> ~e^+_L e^-)
     9.09918339E-04    2     2000013       -13   # BR(chi^0_3 -> ~mu^-_R mu^+)
     9.09918339E-04    2    -2000013        13   # BR(chi^0_3 -> ~mu^+_R mu^-)
     5.18803955E-07    2     1000013       -13   # BR(chi^0_3 -> ~mu^-_L mu^+)
     5.18803955E-07    2    -1000013        13   # BR(chi^0_3 -> ~mu^+_L mu^-)
     4.72960730E-02    2     1000015       -15   # BR(chi^0_3 -> ~tau^-_1 tau^+)
     4.72960730E-02    2    -1000015        15   # BR(chi^0_3 -> ~tau^+_1 tau^-)
     5.73017338E-05    2     2000015       -15   # BR(chi^0_3 -> ~tau^-_2 tau^+)
     5.73017338E-05    2    -2000015        15   # BR(chi^0_3 -> ~tau^+_2 tau^-)
     3.69477032E-06    2     1000012       -12   # BR(chi^0_3 -> ~nu_e nu_bar_e)
     3.69477032E-06    2    -1000012        12   # BR(chi^0_3 -> ~nu^*_e nu_e)
     3.69599420E-06    2     1000014       -14   # BR(chi^0_3 -> ~nu_mu nu_bar_mu)
     3.69599420E-06    2    -1000014        14   # BR(chi^0_3 -> ~nu^*_mu nu_mu)
     4.04880383E-06    2     1000016       -16   # BR(chi^0_3 -> ~nu_tau nu_bar_tau)
     4.04880383E-06    2    -1000016        16   # BR(chi^0_3 -> ~nu^*_tau nu_tau)
     8.82829986E-01    2     1000022        23   # BR(chi^0_3 -> chi^0_1 Z)
     1.91205695E-02    2     1000022        25   # BR(chi^0_3 -> chi^0_1 h^0)
     2.83392381E-13    2     1000039        22   # BR(chi^0_3 -> ~G photon)
     1.67615609E-09    2     1000039        23   # BR(chi^0_3 -> ~G Z)
     7.94332005E-09    2     1000039        25   # BR(chi^0_3 -> ~G h^0)
     8.12033322E-07    2     1000022        22   # BR(chi^0_3 -> chi^0_1 photon)
     4.88690457E-10    2     1000023        22   # BR(chi^0_3 -> chi^0_2 photon)
#    BR                NDA      ID1      ID2       ID3
     4.22026650E-11    3     1000022         2        -2   # BR(chi^0_3 -> chi^0_1 u u_bar)
     5.67969324E-11    3     1000022         4        -4   # BR(chi^0_3 -> chi^0_1 c c_bar)
     1.11062723E-11    3     1000022         1        -1   # BR(chi^0_3 -> chi^0_1 d d_bar)
     1.00473337E-10    3     1000022         3        -3   # BR(chi^0_3 -> chi^0_1 s s_bar)
     1.98771031E-07    3     1000022         5        -5   # BR(chi^0_3 -> chi^0_1 b b_bar)
     2.41357347E-08    3     1000022        11       -11   # BR(chi^0_3 -> chi^0_1 e^- e^+)
     3.31416598E-08    3     1000022        13       -13   # BR(chi^0_3 -> chi^0_1 mu^- mu^+)
     2.53189680E-06    3     1000022        15       -15   # BR(chi^0_3 -> chi^0_1 tau^- tau^+)
     1.23822034E-08    3     1000023         2        -2   # BR(chi^0_3 -> chi^0_2 u u_bar)
     1.09221084E-08    3     1000023         4        -4   # BR(chi^0_3 -> chi^0_2 c c_bar)
     1.60795353E-08    3     1000023         1        -1   # BR(chi^0_3 -> chi^0_2 d d_bar)
     1.60625846E-08    3     1000023         3        -3   # BR(chi^0_3 -> chi^0_2 s s_bar)
     4.34674299E-10    3     1000023         5        -5   # BR(chi^0_3 -> chi^0_2 b b_bar)
     3.70981912E-09    3     1000023        11       -11   # BR(chi^0_3 -> chi^0_2 e^- e^+)
     3.70755880E-09    3     1000023        13       -13   # BR(chi^0_3 -> chi^0_2 mu^- mu^+)
     2.94006899E-09    3     1000023        15       -15   # BR(chi^0_3 -> chi^0_2 tau^- tau^+)
     2.21321711E-08    3     1000023        12       -12   # BR(chi^0_3 -> chi^0_2 nu_e nu_bar_e)
     1.83392670E-07    3     1000024         1        -2   # BR(chi^0_3 -> chi^+_1 d u_bar)
     1.83392670E-07    3    -1000024        -1         2   # BR(chi^0_3 -> chi^-_1 d_bar u)
     1.74062792E-07    3     1000024         3        -4   # BR(chi^0_3 -> chi^+_1 s c_bar)
     1.74062792E-07    3    -1000024        -3         4   # BR(chi^0_3 -> chi^-_1 s_bar c)
     6.09670331E-08    3     1000024        11       -12   # BR(chi^0_3 -> chi^+_1 e^- nu_bar_e)
     6.09670331E-08    3    -1000024       -11        12   # BR(chi^0_3 -> chi^-_1 e^+ nu_e)
     6.09448443E-08    3     1000024        13       -14   # BR(chi^0_3 -> chi^+_1 mu^- nu_bar_mu)
     6.09448443E-08    3    -1000024       -13        14   # BR(chi^0_3 -> chi^-_1 mu^+ nu_mu)
     5.54697377E-08    3     1000024        15       -16   # BR(chi^0_3 -> chi^+_1 tau^- nu_bar_tau)
     5.54697377E-08    3    -1000024       -15        16   # BR(chi^0_3 -> chi^-_1 tau^+ nu_tau)
DECAY   1000035     1.25947784E+01   # chi^0_4
#    BR                NDA      ID1      ID2
     2.98824371E-05    2     2000011       -11   # BR(chi^0_4 -> ~e^-_R e^+)
     2.98824371E-05    2    -2000011        11   # BR(chi^0_4 -> ~e^+_R e^-)
     3.65070982E-02    2     1000011       -11   # BR(chi^0_4 -> ~e^-_L e^+)
     3.65070982E-02    2    -1000011        11   # BR(chi^0_4 -> ~e^+_L e^-)
     2.98785655E-05    2     2000013       -13   # BR(chi^0_4 -> ~mu^-_R mu^+)
     2.98785655E-05    2    -2000013        13   # BR(chi^0_4 -> ~mu^+_R mu^-)
     3.65076230E-02    2     1000013       -13   # BR(chi^0_4 -> ~mu^-_L mu^+)
     3.65076230E-02    2    -1000013        13   # BR(chi^0_4 -> ~mu^+_L mu^-)
     2.89204127E-05    2     1000015       -15   # BR(chi^0_4 -> ~tau^-_1 tau^+)
     2.89204127E-05    2    -1000015        15   # BR(chi^0_4 -> ~tau^+_1 tau^-)
     3.66557835E-02    2     2000015       -15   # BR(chi^0_4 -> ~tau^-_2 tau^+)
     3.66557835E-02    2    -2000015        15   # BR(chi^0_4 -> ~tau^+_2 tau^-)
     3.83254621E-02    2     1000012       -12   # BR(chi^0_4 -> ~nu_e nu_bar_e)
     3.83254621E-02    2    -1000012        12   # BR(chi^0_4 -> ~nu^*_e nu_e)
     3.83260081E-02    2     1000014       -14   # BR(chi^0_4 -> ~nu_mu nu_bar_mu)
     3.83260081E-02    2    -1000014        14   # BR(chi^0_4 -> ~nu^*_mu nu_mu)
     3.84799537E-02    2     1000016       -16   # BR(chi^0_4 -> ~nu_tau nu_bar_tau)
     3.84799537E-02    2    -1000016        16   # BR(chi^0_4 -> ~nu^*_tau nu_tau)
     1.42917213E-01    2     1000024       -24   # BR(chi^0_4 -> chi^+_1 W^-)
     1.42917213E-01    2    -1000024        24   # BR(chi^0_4 -> chi^-_1 W^+)
     1.66447918E-05    2     1000022        23   # BR(chi^0_4 -> chi^0_1 Z)
     2.02449964E-03    2     1000023        23   # BR(chi^0_4 -> chi^0_2 Z)
     1.30140615E-01    2     1000025        23   # BR(chi^0_4 -> chi^0_3 Z)
     1.20920385E-04    2     1000022        25   # BR(chi^0_4 -> chi^0_1 h^0)
     1.30113260E-01    2     1000023        25   # BR(chi^0_4 -> chi^0_2 h^0)
     1.43202575E-03    2     1000025        25   # BR(chi^0_4 -> chi^0_3 h^0)
     8.33689164E-10    2     1000039        22   # BR(chi^0_4 -> ~G photon)
     3.23785400E-09    2     1000039        23   # BR(chi^0_4 -> ~G Z)
     1.01738908E-10    2     1000039        25   # BR(chi^0_4 -> ~G h^0)
     1.34423103E-07    2     1000022        22   # BR(chi^0_4 -> chi^0_1 photon)
     5.41149386E-07    2     1000023        22   # BR(chi^0_4 -> chi^0_2 photon)
     7.90317293E-07    2     1000025        22   # BR(chi^0_4 -> chi^0_3 photon)
#    BR                NDA      ID1      ID2       ID3
     3.04763789E-08    3     1000022         2        -2   # BR(chi^0_4 -> chi^0_1 u u_bar)
     3.04744320E-08    3     1000022         4        -4   # BR(chi^0_4 -> chi^0_1 c c_bar)
     3.07788020E-07    3     1000022         6        -6   # BR(chi^0_4 -> chi^0_1 t t_bar)
     3.80189774E-08    3     1000022         1        -1   # BR(chi^0_4 -> chi^0_1 d d_bar)
     3.80194657E-08    3     1000022         3        -3   # BR(chi^0_4 -> chi^0_1 s s_bar)
     4.50708311E-08    3     1000022         5        -5   # BR(chi^0_4 -> chi^0_1 b b_bar)
     1.44497240E-08    3     1000022        11       -11   # BR(chi^0_4 -> chi^0_1 e^- e^+)
     1.44478761E-08    3     1000022        13       -13   # BR(chi^0_4 -> chi^0_1 mu^- mu^+)
     1.39528327E-08    3     1000022        15       -15   # BR(chi^0_4 -> chi^0_1 tau^- tau^+)
     2.74146326E-09    3     1000023         2        -2   # BR(chi^0_4 -> chi^0_2 u u_bar)
     2.74042296E-09    3     1000023         4        -4   # BR(chi^0_4 -> chi^0_2 c c_bar)
     1.76485117E-09    3     1000023         1        -1   # BR(chi^0_4 -> chi^0_2 d d_bar)
     1.77876470E-09    3     1000023         3        -3   # BR(chi^0_4 -> chi^0_2 s s_bar)
     3.34133769E-08    3     1000023         5        -5   # BR(chi^0_4 -> chi^0_2 b b_bar)
     1.48873358E-06    3     1000023        11       -11   # BR(chi^0_4 -> chi^0_2 e^- e^+)
     1.48984684E-06    3     1000023        13       -13   # BR(chi^0_4 -> chi^0_2 mu^- mu^+)
     1.72869759E-06    3     1000023        15       -15   # BR(chi^0_4 -> chi^0_2 tau^- tau^+)
     1.00940339E-06    3     1000023        12       -12   # BR(chi^0_4 -> chi^0_2 nu_e nu_bar_e)
     6.32249558E-12    3     1000025         2        -2   # BR(chi^0_4 -> chi^0_3 u u_bar)
     7.09009233E-12    3     1000025         4        -4   # BR(chi^0_4 -> chi^0_3 c c_bar)
     1.15214920E-11    3     1000025         1        -1   # BR(chi^0_4 -> chi^0_3 d d_bar)
     2.51100851E-11    3     1000025         3        -3   # BR(chi^0_4 -> chi^0_3 s s_bar)
     3.06948774E-08    3     1000025         5        -5   # BR(chi^0_4 -> chi^0_3 b b_bar)
     1.20063400E-09    3     1000025        11       -11   # BR(chi^0_4 -> chi^0_3 e^- e^+)
     2.08683563E-09    3     1000025        13       -13   # BR(chi^0_4 -> chi^0_3 mu^- mu^+)
     2.46670546E-07    3     1000025        15       -15   # BR(chi^0_4 -> chi^0_3 tau^- tau^+)
     2.17550013E-08    3     1000025        12       -12   # BR(chi^0_4 -> chi^0_3 nu_e nu_bar_e)
     1.65273517E-09    3     1000024         1        -2   # BR(chi^0_4 -> chi^+_1 d u_bar)
     1.65273517E-09    3    -1000024        -1         2   # BR(chi^0_4 -> chi^-_1 d_bar u)
     1.66958328E-09    3     1000024         3        -4   # BR(chi^0_4 -> chi^+_1 s c_bar)
     1.66958328E-09    3    -1000024        -3         4   # BR(chi^0_4 -> chi^-_1 s_bar c)
     2.61181559E-04    3     1000024         5        -6   # BR(chi^0_4 -> chi^+_1 b t_bar)
     2.61181559E-04    3    -1000024        -5         6   # BR(chi^0_4 -> chi^-_1 b_bar t)
     8.31040570E-07    3     1000024        11       -12   # BR(chi^0_4 -> chi^+_1 e^- nu_bar_e)
     8.31040570E-07    3    -1000024       -11        12   # BR(chi^0_4 -> chi^-_1 e^+ nu_e)
     8.32290765E-07    3     1000024        13       -14   # BR(chi^0_4 -> chi^+_1 mu^- nu_bar_mu)
     8.32290765E-07    3    -1000024       -13        14   # BR(chi^0_4 -> chi^-_1 mu^+ nu_mu)
     1.31422667E-06    3     1000024        15       -16   # BR(chi^0_4 -> chi^+_1 tau^- nu_bar_tau)
     1.31422667E-06    3    -1000024       -15        16   # BR(chi^0_4 -> chi^-_1 tau^+ nu_tau)
DECAY   1000021     2.23568926E+01   # ~g
#    BR                NDA      ID1      ID2
     4.72750363E-02    2     2000002        -2   # BR(~g -> ~u_R u_bar)
     4.72750363E-02    2    -2000002         2   # BR(~g -> ~u^*_R u)
     1.63523820E-02    2     1000002        -2   # BR(~g -> ~u_L u_bar)
     1.63523820E-02    2    -1000002         2   # BR(~g -> ~u^*_L u)
     4.72753988E-02    2     2000004        -4   # BR(~g -> ~c_R c_bar)
     4.72753988E-02    2    -2000004         4   # BR(~g -> ~c^*_R c)
     1.63526993E-02    2     1000004        -4   # BR(~g -> ~c_L c_bar)
     1.63526993E-02    2    -1000004         4   # BR(~g -> ~c^*_L c)
     2.41710798E-06    2     1000006        -4   # BR(~g -> ~t_1 c_bar)
     2.41710798E-06    2    -1000006         4   # BR(~g -> ~t^*_1 c)
     1.12478387E-01    2     1000006        -6   # BR(~g -> ~t_1 t_bar)
     1.12478387E-01    2    -1000006         6   # BR(~g -> ~t^*_1 t)
     3.45432320E-02    2     2000006        -6   # BR(~g -> ~t_2 t_bar)
     3.45432320E-02    2    -2000006         6   # BR(~g -> ~t^*_2 t)
     5.06332053E-02    2     2000001        -1   # BR(~g -> ~d_R d_bar)
     5.06332053E-02    2    -2000001         1   # BR(~g -> ~d^*_R d)
     1.61660823E-02    2     1000001        -1   # BR(~g -> ~d_L d_bar)
     1.61660823E-02    2    -1000001         1   # BR(~g -> ~d^*_L d)
     5.06339013E-02    2     2000003        -3   # BR(~g -> ~s_R s_bar)
     5.06339013E-02    2    -2000003         3   # BR(~g -> ~s^*_R s)
     1.61666060E-02    2     1000003        -3   # BR(~g -> ~s_L s_bar)
     1.61666060E-02    2    -1000003         3   # BR(~g -> ~s^*_L s)
     5.21750353E-02    2     1000005        -5   # BR(~g -> ~b_1 b_bar)
     5.21750353E-02    2    -1000005         5   # BR(~g -> ~b^*_1 b)
     3.98472012E-02    2     2000005        -5   # BR(~g -> ~b_2 b_bar)
     3.98472012E-02    2    -2000005         5   # BR(~g -> ~b^*_2 b)
     2.62841062E-06    2     1000022        21   # BR(~g -> chi^0_1 g)
     9.09756729E-05    2     1000023        21   # BR(~g -> chi^0_2 g)
     9.71305759E-05    2     1000025        21   # BR(~g -> chi^0_3 g)
     6.09712108E-06    2     1000035        21   # BR(~g -> chi^0_4 g)
DECAY        25     2.81786028E-03   # h^0
#    BR                NDA      ID1      ID2
     8.20449642E-09    2          11       -11   # BR(h^0 -> e^- e^+)
     3.50762555E-04    2          13       -13   # BR(h^0 -> mu^- mu^+)
     9.89897181E-02    2          15       -15   # BR(h^0 -> tau^- tau^+)
     6.88747632E-07    2           1        -1   # BR(h^0 -> d d_bar)
     3.03737101E-04    2           3        -3   # BR(h^0 -> s s_bar)
     6.48462830E-01    2           5        -5   # BR(h^0 -> b b_bar)
     2.34713057E-07    2           2        -2   # BR(h^0 -> u u_bar)
     4.20544623E-02    2           4        -4   # BR(h^0 -> c c_bar)
     6.17521718E-02    2          21        21   # BR(h^0 -> g g)
     3.09010466E-03    2          22        22   # BR(h^0 -> photon photon)
# writing decays into V V* as 3-body decays
#    BR                NDA      ID1      ID2       ID3
     6.63334063E-03    3          24        11        12   # BR(h^0 -> W^+ e^- nu_e)
     6.63334063E-03    3          24        13        14   # BR(h^0 -> W^+ mu^- nu_mu)
     6.63334063E-03    3          24        15        16   # BR(h^0 -> W^+ tau^- nu_tau)
     2.32166922E-02    3          24         1        -2   # BR(h^0 -> W^+ d u_bar)
     2.32166922E-02    3          24         3        -4   # BR(h^0 -> W^+ s c_bar)
     6.63334063E-03    3         -24       -11       -12   # BR(h^0 -> W^- e^+ nu_bar_e)
     6.63334063E-03    3         -24       -13       -14   # BR(h^0 -> W^- mu^+ nu_bar_mu)
     6.63334063E-03    3         -24       -15       -16   # BR(h^0 -> W^- tau^+ nu_bar_tau)
     2.32166922E-02    3         -24        -1         2   # BR(h^0 -> W^- d_bar u)
     2.32166922E-02    3         -24        -3         4   # BR(h^0 -> W^- s_bar c)
     4.31496417E-04    3          23        11       -11   # BR(h^0 -> Z e^- e^+)
     4.31496417E-04    3          23        13       -13   # BR(h^0 -> Z mu^- mu^+)
     3.69854071E-04    3          23        15       -15   # BR(h^0 -> Z tau^- tau^+)
     2.46569381E-03    3          23        12       -12   # BR(h^0 -> Z nu_e nu_bar_e)
     1.72598567E-03    3          23         1        -1   # BR(h^0 -> Z u u_bar)
     1.72598567E-03    3          23         3        -3   # BR(h^0 -> Z c c_bar)
     1.72598567E-03    3          23         5        -5   # BR(h^0 -> Z t t_bar)
     1.72598567E-03    3          23         2        -2   # BR(h^0 -> Z u u_bar)
     1.72598567E-03    3          23         4        -4   # BR(h^0 -> Z c c_bar)
DECAY        35     2.42969607E+00   # H^0
#    BR                NDA      ID1      ID2
     8.86530810E-09    2          11       -11   # BR(H^0 -> e^- e^+)
     3.79017289E-04    2          13       -13   # BR(H^0 -> mu^- mu^+)
     1.07234137E-01    2          15       -15   # BR(H^0 -> tau^- tau^+)
     6.10624791E-07    2           1        -1   # BR(H^0 -> d d_bar)
     2.69285343E-04    2           3        -3   # BR(H^0 -> s s_bar)
     5.95100128E-01    2           5        -5   # BR(H^0 -> b b_bar)
     2.89967732E-11    2           2        -2   # BR(H^0 -> u u_bar)
     5.19655042E-06    2           4        -4   # BR(H^0 -> c c_bar)
     2.76346366E-01    2           6        -6   # BR(H^0 -> t t_bar)
     5.22787980E-05    2     2000011  -2000011   # BR(H^0 -> ~e^-_R ~e^+_R)
     5.22537690E-05    2     2000013  -2000013   # BR(H^0 -> ~mu^-_R ~mu^+_R)
     4.54022972E-05    2     1000015  -1000015   # BR(H^0 -> ~tau^-_1 ~tau^+_1)
     1.05040454E-04    2     1000022   1000022   # BR(H^0 -> chi^0_1 chi^0_1)
     6.54454696E-03    2          23        23   # BR(H^0 -> Z Z)
     1.24021755E-02    2          24       -24   # BR(H^0 -> W^+ W^-)
     1.32467891E-03    2          25        25   # BR(H^0 -> h^0 h^0)
     1.37431830E-04    2          21        21   # BR(H^0 -> g g)
     1.44165061E-06    2          22        22   # BR(H^0 -> photon photon)
DECAY        36     2.37022671E+00   # A^0
#    BR                NDA      ID1      ID2
     9.09792483E-09    2          11       -11   # BR(A^0 -> e^- e^+)
     3.88962329E-04    2          13       -13   # BR(A^0 -> mu^- mu^+)
     1.10048623E-01    2          15       -15   # BR(A^0 -> tau^- tau^+)
     6.26645680E-07    2           1        -1   # BR(A^0 -> d d_bar)
     2.76350606E-04    2           3        -3   # BR(A^0 -> s s_bar)
     6.10715700E-01    2           5        -5   # BR(A^0 -> b b_bar)
     2.62983867E-11    2           2        -2   # BR(A^0 -> u u_bar)
     4.71296556E-06    2           4        -4   # BR(A^0 -> c c_bar)
     2.62630333E-01    2           6        -6   # BR(A^0 -> t t_bar)
     3.24318731E-03    2     1000022   1000022   # BR(A^0 -> chi^0_1 chi^0_1)
     1.26088802E-02    2          25        23   # BR(A^0 -> h^0 Z)
     8.20121139E-05    2          21        21   # BR(A^0 -> g g)
     6.02532830E-07    2          22        22   # BR(A^0 -> photon photon)
DECAY        37     2.06312361E+00   # H^+
#    BR                NDA      ID1      ID2
     1.04701016E-08    2         -11        12   # BR(H^+ -> e^+ nu_e)
     4.47626813E-04    2         -13        12   # BR(H^+ -> mu^+ nu_e)
     1.26646494E-01    2         -15        12   # BR(H^+ -> tau^+ nu_e)
     6.34737015E-07    2          -1         2   # BR(H^+ -> d_bar u)
     2.84680206E-04    2          -3         4   # BR(H^+ -> s_bar c)
     8.58444381E-01    2          -5         6   # BR(H^+ -> b_bar t)
     1.41761728E-02    2          25        24   # BR(H^+ -> h^0 W^+)
DECAY         6     2.43000000E+00   # top
#    BR                NDA      ID1      ID2
     1.00000000E+00    2           5        24   # BR(t -> b W)
Block HiggsBoundsInputHiggsCouplingsFermions
# ScalarNormEffCoupSq PseudoSNormEffCoupSq NP IP1 IP2 IP2
    1.13006437E+00    0.00000000E+00        3  25   5   5  # h0-b-b eff. coupling^2, normalised to SM
    9.98699356E+01    0.00000000E+00        3  35   5   5  # H0-b-b eff. coupling^2, normalised to SM
    0.00000000E+00    1.00000000E+02        3  36   5   5  # A0-b-b eff. coupling^2, normalised to SM
#
    9.98699356E-01    0.00000000E+00        3  25   6   6  # h0-t-t eff. coupling^2, normalised to SM
    1.13006437E-02    0.00000000E+00        3  35   6   6  # H0-t-t eff. coupling^2, normalised to SM
    0.00000000E+00    1.00000000E-02        3  36   6   6  # A0-t-t eff. coupling^2, normalised to SM
#
    1.13006437E+00    0.00000000E+00        3  25  15  15  # h0-tau-tau eff. coupling^2, normalised to SM
    9.98699356E+01    0.00000000E+00        3  35  15  15  # H0-tau-tau eff. coupling^2, normalised to SM
    0.00000000E+00    1.00000000E+02        3  36  15  15  # A0-tau-tau eff. coupling^2, normalised to SM
#
Block HiggsBoundsInputHiggsCouplingsBosons
    9.99960228E-01        3  25  24  24  # h0-W-W eff. coupling^2, normalised to SM
    3.97716221E-05        3  35  24  24  # H0-W-W eff. coupling^2, normalised to SM
    0.00000000E+00        3  36  24  24  # A0-W-W eff. coupling^2, normalised to SM
#
    9.99960228E-01        3  25  23  23  # h0-Z-Z eff. coupling^2, normalised to SM
    3.97716221E-05        3  35  23  23  # H0-Z-Z eff. coupling^2, normalised to SM
    0.00000000E+00        3  36  23  23  # A0-Z-Z eff. coupling^2, normalised to SM
#
    1.15498187E+00        3  25  21  21  # h0-g-g eff. coupling^2, normalised to SM
    8.09039945E-03        3  35  21  21  # H0-g-g eff. coupling^2, normalised to SM
    1.24534955E-01        3  36  21  21  # A0-g-g eff. coupling^2, normalised to SM
#
    0.00000000E+00        3  25  25  23  # h0-h0-Z eff. coupling^2, normalised to SM
    0.00000000E+00        3  35  25  23  # H0-h0-Z eff. coupling^2, normalised to SM
    3.97716221E-05        3  36  25  23  # A0-h0-Z eff. coupling^2, normalised to SM
    0.00000000E+00        3  35  35  23  # H0-H0-Z eff. coupling^2, normalised to SM
    9.99960228E-01        3  36  35  23  # A0-H0-Z eff. coupling^2, normalised to SM
    0.00000000E+00        3  36  36  23  # A0-A0-Z eff. coupling^2, normalised to SM
#
    0.00000000E+00        4  25  21  21  23  # h0-g-g-Z eff. coupling^2, normalised to SM
    0.00000000E+00        4  35  21  21  23  # H0-g-g-Z eff. coupling^2, normalised to SM
    0.00000000E+00        4  36  21  21  23  # A0-g-g-Z eff. coupling^2, normalised to SM
Block SPhenoLowEnergy  # low energy observables
    1    3.12022267E-04   # BR(b -> s gamma)
    2    1.59214118E-06   # BR(b -> s mu+ mu-)
    3    3.54103713E-05   # BR(b -> s nu nu)
    4    5.18122824E-11   # BR(Bd -> mu+ mu-)
    5    3.38467655E-09   # BR(Bs -> mu+ mu-)
    6    1.10363644E-04   # BR(B_u -> tau nu)
    7    9.97923194E-01   # BR(B_u -> tau nu)/BR(B_u -> tau nu)_SM
    8    2.73825297E-01   # |Delta(M_Bd)| [ps^-1] 
    9    2.03227601E+01   # |Delta(M_Bs)| [ps^-1] 
   20    4.39774603E-15   # Delta(g-2)_electron/2
   21    9.42353480E-11   # Delta(g-2)_muon/2
   22    5.36701315E-09   # Delta(g-2)_tau/2
   23    0.00000000E+00   # electric dipole moment of the electron
   24    0.00000000E+00   # electric dipole moment of the muon
   25    0.00000000E+00   # electric dipole moment of the tau
   26    0.00000000E+00   # Br(mu -> e gamma)
   27    0.00000000E+00   # Br(tau -> e gamma)
   28    0.00000000E+00   # Br(tau -> mu gamma)
   29    0.00000000E+00   # Br(mu -> 3 e)
   30    0.00000000E+00   # Br(tau -> 3 e)
   31    0.00000000E+00   # Br(tau -> 3 mu)
   39    6.27614545E-04   # Delta(rho_parameter)
   40    0.00000000E+00   # BR(Z -> e mu)
   41    0.00000000E+00   # BR(Z -> e tau)
   42    0.00000000E+00   # BR(Z -> mu tau)
Block FWCOEF Q=  9.11876000E+01  # Wilson coefficients at scale Q
#    id        order  M        value         comment
Block FWCOEF Q=  1.60000000E+02  # Wilson coefficients at scale Q
#    id        order  M        value         comment
     0305 4422   00   0    -1.87755280E-01   # C7
     0305 4422   00   1    -1.36716417E-02   # C7
     0305 4322   00   1    -2.98760473E-04   # C7'
     0305 6421   00   0    -9.48887020E-02   # C8
     0305 6421   00   1    -1.80912871E-02   # C8
     0305 6321   00   1    -3.92098854E-04   # C8'
 03051111 4133   00   0    -1.38893078E+00   # C9 e+e-
 03051111 4133   00   1     5.54718303E-04   # C9 e+e-
 03051111 4233   00   1    -2.35769519E-06   # C9' e+e-
 03051111 4137   00   0    -3.94151361E+00   # C10 e+e-
 03051111 4137   00   1     9.63632901E-04   # C10 e+e-
 03051111 4237   00   1     6.25965728E-05   # C10' e+e-
 03051313 4133   00   0    -1.38893078E+00   # C9 mu+mu-
 03051313 4133   00   1     5.54711011E-04   # C9 mu+mu-
 03051313 4233   00   1    -2.35771499E-06   # C9' mu+mu-
 03051313 4137   00   0    -3.94151361E+00   # C10 mu+mu-
 03051313 4137   00   1     9.63625594E-04   # C10 mu+mu-
 03051313 4237   00   1     6.25965926E-05   # C10' mu+mu-
 03051212 4237   00   0     1.49011620E+00   # C11 nu_1 nu_1
 03051212 4237   00   1    -2.33309335E-04   # C11 nu_1 nu_1
 03051212 4137   00   1    -1.50672138E-05   # C11' nu_1 nu_1
 03051414 4237   00   0     1.49011620E+00   # C11 nu_2 nu_2
 03051414 4237   00   1    -2.33309332E-04   # C11 nu_2 nu_2
 03051414 4137   00   1    -1.50672092E-05   # C11' nu_2 nu_2
 03051616 4237   00   0     1.49011620E+00   # C11 nu_3 nu_3
 03051616 4237   00   1    -2.33308281E-04   # C11 nu_3 nu_3
 03051616 4137   00   1    -1.50658971E-05   # C11' nu_3 nu_3
