#
#                              ======================
#                              | THE SUSYHIT OUTPUT |
#                              ======================
#
#
#              ------------------------------------------------------
#              |     This is the output of the SUSY-HIT package     |
#              |  created by A.Djouadi, M.Muehlleitner and M.Spira. |
#              |  In case of problems with SUSY-HIT email to        |
#              |           margarete.muehlleitner@cern.ch           |
#              |           michael.spira@psi.ch                     |
#              |           abdelhak.djouadi@cern.ch                 |
#              ------------------------------------------------------
#
#              ------------------------------------------------------
#              |  SUSY Les Houches Accord - MSSM Spectrum + Decays  |
#              |              based on the decay programs           |
#              |                                                    |
#              |                     SDECAY 1.3b                    |
#              |                                                    |
#              |  Authors: M.Muhlleitner, A.Djouadi and Y.Mambrini  |
#              |  Ref.:    Comput.Phys.Commun.168(2005)46           |
#              |           [hep-ph/0311167]                         |
#              |                                                    |
#              |                     HDECAY 3.4                     |
#              |                                                    |
#              |  By: A.Djouadi,J.Kalinowski,M.Muhlleitner,M.Spira  |
#              |  Ref.:    Comput.Phys.Commun.108(1998)56           |
#              |           [hep-ph/9704448]                         |
#              |                                                    |
#              |                                                    |
#              |  If not stated otherwise all DRbar couplings and   |
#              |  soft SUSY breaking masses are given at the scale  |
#              |  Q=  0.91187600E+02
#              |                                                    |
#              ------------------------------------------------------
#
#
BLOCK DCINFO  # Decay Program information
     1   SDECAY/HDECAY # decay calculator
     2   1.3b  /3.4    # version number
#
BLOCK SPINFO  # Spectrum calculator information
     1   SuSpect     # RGE +Spectrum calculator            
     2   2.41         # version number                     
#
BLOCK MODSEL  # Model selection
     1     0   # #general MSSM low scale                           
#
BLOCK SMINPUTS  # Standard Model inputs
         1     1.27934000E+02   # alpha_em^-1(M_Z)^MSbar
         2     1.16639000E-05   # G_F [GeV^-2]
         3     1.17200000E-01   # alpha_S(M_Z)^MSbar
         4     9.11870000E+01   # M_Z pole mass
         5     4.25000000E+00   # mb(mb)^MSbar
         6     1.72500000E+02   # mt pole mass
         7     1.77700000E+00   # mtau pole mass
#
BLOCK MINPAR  # Input parameters - minimal models
#
BLOCK EXTPAR  # Input parameters - non-minimal models
         0     9.11876000E+01   # EWSB                
         1     1.00000000E+01   # M_1                 
         2     1.00000000E+05   # M_2                 
         3     1.00000000E+05   # M_3                 
        11     0.00000000E+00   # A_t                 
        12     0.00000000E+00   # A_b                 
        13     0.00000000E+00   # A_tau               
        14     0.00000000E+00   # A_u                 
        15     0.00000000E+00   # A_d                 
        16     0.00000000E+00   # A_e                 
        23     3.50000000E+03   # mu(EWSB)            
        25     1.50000000E+00   # tanbeta(in)         
        26     2.00000000E+03   # MA_pole             
        31     1.00000000E+05   # M_eL                
        32     1.00000000E+05   # M_muL               
        33     1.00000000E+05   # M_tauL              
        34     1.00000000E+05   # M_eR                
        35     1.00000000E+05   # M_muR               
        36     1.00000000E+05   # M_tauR              
        41     1.20000000E+03   # M_q1L               
        42     1.20000000E+03   # M_q2L               
        43     1.20000000E+03   # M_q3L               
        44     1.00000000E+05   # M_uR                
        45     1.00000000E+05   # M_cR                
        46     1.00000000E+05   # M_tR                
        47     1.20000000E+03   # M_dR                
        48     1.20000000E+03   # M_sR                
        49     1.20000000E+03   # M_bR                
#
BLOCK MASS  # Mass Spectrum
# PDG code           mass       particle
        24     8.05813584E+01   # W+
        25     1.25000000E+02   # h
        35     2.00396052E+03   # H
        36     2.00000000E+03   # A
        37     2.02370054E+03   # H+
         5     4.87877839E+00   # b-quark pole mass calculated from mb(mb)_Msbar
   1000001     1.20055433E+03   # ~d_L
   2000001     1.20010662E+03   # ~d_R
   1000002     1.19955209E+03   # ~u_L
   2000002     9.99999974E+04   # ~u_R
   1000003     1.20055433E+03   # ~s_L
   2000003     1.20010662E+03   # ~s_R
   1000004     1.19955209E+03   # ~c_L
   2000004     9.99999974E+04   # ~c_R
   1000005     1.19466892E+03   # ~b_1
   2000005     1.20597102E+03   # ~b_2
   1000006     1.20857937E+03   # ~t_1
   2000006     1.00000106E+05   # ~t_2
   1000011     1.00000004E+05   # ~e_L
   2000011     1.00000004E+05   # ~e_R
   1000012     9.99999921E+04   # ~nu_eL
   1000013     1.00000004E+05   # ~mu_L
   2000013     1.00000004E+05   # ~mu_R
   1000014     9.99999921E+04   # ~nu_muL
   1000015     9.99999574E+04   # ~tau_1
   2000015     1.00000051E+05   # ~tau_2
   1000016     9.99999921E+04   # ~nu_tauL
   1000021     1.00000000E+05   # ~g
   1000022     9.47200348E+00   # ~chi_10
   1000023    -3.50002420E+03   # ~chi_20
   1000025     3.50048755E+03   # ~chi_30
   1000035     1.00000065E+05   # ~chi_40
   1000024     3.49994001E+03   # ~chi_1+
   1000037     1.00000065E+05   # ~chi_2+
   1000039     1.00000000E-09   # ~gravitino
#
BLOCK NMIX  # Neutralino Mixing Matrix
  1  1     9.99918126E-01   # N_11
  1  2    -9.34620532E-06   # N_12
  1  3     1.06396896E-02   # N_13
  1  4    -7.10909339E-03   # N_14
  2  1     2.49648493E-03   # N_21
  2  2    -1.49863989E-04   # N_22
  2  3    -7.07092348E-01   # N_23
  2  4    -7.07116792E-01   # N_24
  3  1     1.25502907E-02   # N_31
  3  2     8.03550992E-04   # N_32
  3  3    -7.07041014E-01   # N_33
  3  4     7.07060711E-01   # N_34
  4  1     3.65226557E-07   # N_41
  4  2    -9.99999666E-01   # N_42
  4  3    -4.62275424E-04   # N_43
  4  4     6.74197346E-04   # N_44
#
BLOCK UMIX  # Chargino Mixing Matrix U
  1  1    -6.53755968E-04   # U_11
  1  2     9.99999786E-01   # U_12
  2  1     9.99999786E-01   # U_21
  2  2     6.53755968E-04   # U_22
#
BLOCK VMIX  # Chargino Mixing Matrix V
  1  1    -9.53458945E-04   # V_11
  1  2     9.99999545E-01   # V_12
  2  1     9.99999545E-01   # V_21
  2  2     9.53458945E-04   # V_22
#
BLOCK STOPMIX  # Stop Mixing Matrix
  1  1     9.99999999E-01   # cos(theta_t)
  1  2     4.47213589E-05   # sin(theta_t)
  2  1    -4.47213589E-05   # -sin(theta_t)
  2  2     9.99999999E-01   # cos(theta_t)
#
BLOCK SBOTMIX  # Sbottom Mixing Matrix
  1  1     6.92959971E-01   # cos(theta_b)
  1  2     7.20976060E-01   # sin(theta_b)
  2  1    -7.20976060E-01   # -sin(theta_b)
  2  2     6.92959971E-01   # cos(theta_b)
#
BLOCK STAUMIX  # Stau Mixing Matrix
  1  1     7.06134784E-01   # cos(theta_tau)
  1  2     7.08077444E-01   # sin(theta_tau)
  2  1    -7.08077444E-01   # -sin(theta_tau)
  2  2     7.06134784E-01   # cos(theta_tau)
#
BLOCK ALPHA  # Higgs mixing
          -5.90255499E-01   # Mixing angle in the neutral Higgs boson sector
#
BLOCK HMIX Q=  9.11876000E+01  # DRbar Higgs Parameters
         1     3.50000000E+03   # mu(Q)               
         2     1.49999982E+00   # tanbeta(Q)          
         3     2.54852910E+02   # vev(Q)              
         4    -6.83449826E+07   # MA^2(Q)             
#
BLOCK GAUGE Q=  9.11876000E+01  # The gauge couplings
     1     3.50614660E-01   # gprime(Q) DRbar
     2     6.20624264E-01   # g(Q) DRbar
     3     1.02739231E+00   # g3(Q) DRbar
#
BLOCK AU Q=  9.11876000E+01  # The trilinear couplings
  1  1     0.00000000E+00   # A_u(Q) DRbar
  2  2     0.00000000E+00   # A_c(Q) DRbar
  3  3     0.00000000E+00   # A_t(Q) DRbar
#
BLOCK AD Q=  9.11876000E+01  # The trilinear couplings
  1  1     0.00000000E+00   # A_d(Q) DRbar
  2  2     0.00000000E+00   # A_s(Q) DRbar
  3  3     0.00000000E+00   # A_b(Q) DRbar
#
BLOCK AE Q=  9.11876000E+01  # The trilinear couplings
  1  1     0.00000000E+00   # A_e(Q) DRbar
  2  2     0.00000000E+00   # A_mu(Q) DRbar
  3  3     0.00000000E+00   # A_tau(Q) DRbar
#
BLOCK Yu Q=  9.11876000E+01  # The Yukawa couplings
  1  1     0.00000000E+00   # y_u(Q) DRbar
  2  2     0.00000000E+00   # y_c(Q) DRbar
  3  3     9.83586881E-01   # y_t(Q) DRbar
#
BLOCK Yd Q=  9.11876000E+01  # The Yukawa couplings
  1  1     0.00000000E+00   # y_d(Q) DRbar
  2  2     0.00000000E+00   # y_s(Q) DRbar
  3  3     2.58299232E-02   # y_b(Q) DRbar
#
BLOCK Ye Q=  9.11876000E+01  # The Yukawa couplings
  1  1     0.00000000E+00   # y_e(Q) DRbar
  2  2     0.00000000E+00   # y_mu(Q) DRbar
  3  3     1.77403552E-02   # y_tau(Q) DRbar
#
BLOCK MSOFT Q=  9.11876000E+01  # The soft SUSY breaking masses at the scale Q
         1     1.00000000E+01   # M_1                 
         2     1.00000000E+05   # M_2                 
         3     1.00000000E+05   # M_3                 
        14     0.00000000E+00   # A_u                 
        15     0.00000000E+00   # A_d                 
        16     0.00000000E+00   # A_e                 
        21     6.33630424E+08   # M^2_Hd              
        22    -1.14655213E+09   # M^2_Hu              
        31     1.00000000E+05   # M_eL                
        32     1.00000000E+05   # M_muL               
        33     1.00000000E+05   # M_tauL              
        34     1.00000000E+05   # M_eR                
        35     1.00000000E+05   # M_muR               
        36     1.00000000E+05   # M_tauR              
        41     1.20000000E+03   # M_q1L               
        42     1.20000000E+03   # M_q2L               
        43     1.20000000E+03   # M_q3L               
        44     1.00000000E+05   # M_uR                
        45     1.00000000E+05   # M_cR                
        46     1.00000000E+05   # M_tR                
        47     1.20000000E+03   # M_dR                
        48     1.20000000E+03   # M_sR                
        49     1.20000000E+03   # M_bR                
#
#
#
#                             =================
#                             |The decay table|
#                             =================
#
# - The QCD corrections to the decays gluino -> squark  + quark
#                                     squark -> gaugino + quark_prime
#                                     squark -> squark_prime + Higgs
#                                     squark -> gluino  + quark
#   are included.
#
# - The multi-body decays for the inos, stops and sbottoms are included.
#
# - The loop induced decays for the gluino, neutralinos and stops
#   are included.
#
# - The SUSY decays of the top quark are included.
#
# - Possible decays of the NLSP in GMSB models are included.
#
#
#         PDG            Width
DECAY         6     1.32948456E+00   # top decays
#          BR         NDA      ID1       ID2
     1.00000000E+00    2           5        24   # BR(t ->  b    W+)
#
#         PDG            Width
DECAY   1000021     1.E-04   # gluino decays (OJ Mods)
#          BR         NDA      ID1       ID2
    -2.60379035E-04    2     1000001        -1   # BR(~g -> ~d_L  db)
    -2.60379035E-04    2    -1000001         1   # BR(~g -> ~d_L* d )
    -2.60379091E-04    2     2000001        -1   # BR(~g -> ~d_R  db)
    -2.60379091E-04    2    -2000001         1   # BR(~g -> ~d_R* d )
    -2.60379160E-04    2     1000002        -2   # BR(~g -> ~u_L  ub)
    -2.60379160E-04    2    -1000002         2   # BR(~g -> ~u_L* u )
    -7.04267897E-19    2     2000002        -2   # BR(~g -> ~u_R  ub)
    -7.04267897E-19    2    -2000002         2   # BR(~g -> ~u_R* u )
    -2.60379035E-04    2     1000003        -3   # BR(~g -> ~s_L  sb)
    -2.60379035E-04    2    -1000003         3   # BR(~g -> ~s_L* s )
    -2.60379091E-04    2     2000003        -3   # BR(~g -> ~s_R  sb)
    -2.60379091E-04    2    -2000003         3   # BR(~g -> ~s_R* s )
    -2.60379160E-04    2     1000004        -4   # BR(~g -> ~c_L  cb)
    -2.60379160E-04    2    -1000004         4   # BR(~g -> ~c_L* c )
    -7.04267897E-19    2     2000004        -4   # BR(~g -> ~c_R  cb)
    -7.04267897E-19    2    -2000004         4   # BR(~g -> ~c_R* c )
     2.52560058E-01    2     1000005        -5   # BR(~g -> ~b_1  bb)
     2.52560058E-01    2    -1000005         5   # BR(~g -> ~b_1* b )
     2.52899153E-01    2     2000005        -5   # BR(~g -> ~b_2  bb)
     2.52899153E-01    2    -2000005         5   # BR(~g -> ~b_2* b )
    -2.56231853E-04    2     1000006        -6   # BR(~g -> ~t_1  tb)
    -2.56231853E-04    2    -1000006         6   # BR(~g -> ~t_1* t )
    -7.28140936E-03    2     1000039        21   # BR(~g -> ~G g)
#
#         PDG            Width
DECAY   1000006     1.92095288E-01   # stop1 decays
#          BR         NDA      ID1       ID2
     1.00000000E+00    2     1000022         6   # BR(~t_1 -> ~chi_10 t )
#
#         PDG            Width
DECAY   2000006    -7.40109224E+05   # stop2 decays
#          BR         NDA      ID1       ID2
    -2.81560822E-04    2     1000022         6   # BR(~t_2 -> ~chi_10 t )
    -6.71834922E-04    2     1000023         6   # BR(~t_2 -> ~chi_20 t )
    -6.71761019E-04    2     1000025         6   # BR(~t_2 -> ~chi_30 t )
     1.00160151E+00    2     1000024         5   # BR(~t_2 -> ~chi_1+ b )
     1.84826104E-05    2     1000006        25   # BR(~t_2 -> ~t_1    h )
    -1.93455171E-05    2     1000006        35   # BR(~t_2 -> ~t_1    H )
    -1.93122820E-05    2     1000006        36   # BR(~t_2 -> ~t_1    A )
    -1.81882086E-05    2     1000005        37   # BR(~t_2 -> ~b_1    H+)
    -2.04362724E-05    2     2000005        37   # BR(~t_2 -> ~b_2    H+)
     1.32476909E-05    2     1000006        23   # BR(~t_2 -> ~t_1    Z )
     3.32311432E-05    2     1000005        24   # BR(~t_2 -> ~b_1    W+)
     3.59709190E-05    2     2000005        24   # BR(~t_2 -> ~b_2    W+)
#
#         PDG            Width
DECAY   1000005    -1.56773532E+02   # sbottom1 decays
#          BR         NDA      ID1       ID2
     1.00000000E+00    2     1000022         5   # BR(~b_1 -> ~chi_10 b )
#
#         PDG            Width
DECAY   2000005    -1.50148978E+02   # sbottom2 decays
#          BR         NDA      ID1       ID2
     1.00000000E+00    2     1000022         5   # BR(~b_2 -> ~chi_10 b )
#
#         PDG            Width
DECAY   1000002     1.96877222E-01   # sup_L decays
#          BR         NDA      ID1       ID2
     1.00000000E+00    2     1000022         2   # BR(~u_L -> ~chi_10 u)
#
#         PDG            Width
DECAY   2000002     2.08362066E+02   # sup_R decays
#          BR         NDA      ID1       ID2
     9.99836427E-01    2     1000022         2   # BR(~u_R -> ~chi_10 u)
     6.22598203E-06    2     1000023         2   # BR(~u_R -> ~chi_20 u)
     1.57346598E-04    2     1000025         2   # BR(~u_R -> ~chi_30 u)
#
#         PDG            Width
DECAY   1000001     1.97073592E-01   # sdown_L decays
#          BR         NDA      ID1       ID2
     1.00000000E+00    2     1000022         1   # BR(~d_L -> ~chi_10 d)
#
#         PDG            Width
DECAY   2000001     7.87935119E-01   # sdown_R decays
#          BR         NDA      ID1       ID2
     1.00000000E+00    2     1000022         1   # BR(~d_R -> ~chi_10 d)
#
#         PDG            Width
DECAY   1000004     1.96877222E-01   # scharm_L decays
#          BR         NDA      ID1       ID2
     1.00000000E+00    2     1000022         4   # BR(~c_L -> ~chi_10 c)
#
#         PDG            Width
DECAY   2000004     2.08362066E+02   # scharm_R decays
#          BR         NDA      ID1       ID2
     9.99836427E-01    2     1000022         4   # BR(~c_R -> ~chi_10 c)
     6.22598203E-06    2     1000023         4   # BR(~c_R -> ~chi_20 c)
     1.57346598E-04    2     1000025         4   # BR(~c_R -> ~chi_30 c)
#
#         PDG            Width
DECAY   1000003     1.97073592E-01   # sstrange_L decays
#          BR         NDA      ID1       ID2
     1.00000000E+00    2     1000022         3   # BR(~s_L -> ~chi_10 s)
#
#         PDG            Width
DECAY   2000003     7.87935119E-01   # sstrange_R decays
#          BR         NDA      ID1       ID2
     1.00000000E+00    2     1000022         3   # BR(~s_R -> ~chi_10 s)
#
#         PDG            Width
DECAY   1000011     1.22282052E+02   # selectron_L decays
#          BR         NDA      ID1       ID2
     9.99797606E-01    2     1000022        11   # BR(~e_L -> ~chi_10 e-)
     4.96608162E-06    2     1000023        11   # BR(~e_L -> ~chi_20 e-)
     1.94755957E-04    2     1000025        11   # BR(~e_L -> ~chi_30 e-)
     2.67172430E-06    2    -1000024        12   # BR(~e_L -> ~chi_1- nu_e)
#
#         PDG            Width
DECAY   2000011     4.89125290E+02   # selectron_R decays
#          BR         NDA      ID1       ID2
     9.99836659E-01    2     1000022        11   # BR(~e_R -> ~chi_10 e-)
     6.21717928E-06    2     1000023        11   # BR(~e_R -> ~chi_20 e-)
     1.57124092E-04    2     1000025        11   # BR(~e_R -> ~chi_30 e-)
#
#         PDG            Width
DECAY   1000013     1.22282052E+02   # smuon_L decays
#          BR         NDA      ID1       ID2
     9.99797606E-01    2     1000022        13   # BR(~mu_L -> ~chi_10 mu-)
     4.96608162E-06    2     1000023        13   # BR(~mu_L -> ~chi_20 mu-)
     1.94755957E-04    2     1000025        13   # BR(~mu_L -> ~chi_30 mu-)
     2.67172430E-06    2    -1000024        14   # BR(~mu_L -> ~chi_1- nu_mu)
#
#         PDG            Width
DECAY   2000013     4.89125290E+02   # smuon_R decays
#          BR         NDA      ID1       ID2
     9.99836659E-01    2     1000022        13   # BR(~mu_R -> ~chi_10 mu-)
     6.21717928E-06    2     1000023        13   # BR(~mu_R -> ~chi_20 mu-)
     1.57124092E-04    2     1000025        13   # BR(~mu_R -> ~chi_30 mu-)
#
#         PDG            Width
DECAY   1000015     1.18200867E+04   # stau_1 decays
#          BR         NDA      ID1       ID2
     2.59091343E-02    2     1000022        15   # BR(~tau_1 -> ~chi_10  tau-)
     2.51318928E-05    2     1000023        15   # BR(~tau_1 -> ~chi_20  tau-)
     2.48699313E-05    2     1000025        15   # BR(~tau_1 -> ~chi_30  tau-)
     2.77152583E-05    2    -1000024        16   # BR(~tau_1 -> ~chi_1-  nu_tau)
     9.74013149E-01    2     1000039        15   # BR(~tau_1 -> ~G       tau-)
#
#         PDG            Width
DECAY   2000015     3.06114255E+02   # stau_2 decays
#          BR         NDA      ID1       ID2
     9.96538458E-01    2     1000022        15   # BR(~tau_2 -> ~chi_10  tau-)
     1.08176758E-03    2     1000023        15   # BR(~tau_2 -> ~chi_20  tau-)
     1.40852749E-03    2     1000025        15   # BR(~tau_2 -> ~chi_30  tau-)
     9.71247322E-04    2    -1000024        16   # BR(~tau_2 -> ~chi_1-  nu_tau)
#
#         PDG            Width
DECAY   1000012     1.22282110E+02   # snu_eL decays
#          BR         NDA      ID1       ID2
     9.99863182E-01    2     1000022        12   # BR(~nu_eL -> ~chi_10 nu_e)
     7.60859422E-06    2     1000023        12   # BR(~nu_eL -> ~chi_20 nu_e)
     1.23526610E-04    2     1000025        12   # BR(~nu_eL -> ~chi_30 nu_e)
     5.68282189E-06    2     1000024        11   # BR(~nu_eL -> ~chi_1+ e-)
#
#         PDG            Width
DECAY   1000014     1.22282110E+02   # snu_muL decays
#          BR         NDA      ID1       ID2
     9.99863182E-01    2     1000022        14   # BR(~nu_muL -> ~chi_10 nu_mu)
     7.60859422E-06    2     1000023        14   # BR(~nu_muL -> ~chi_20 nu_mu)
     1.23526610E-04    2     1000025        14   # BR(~nu_muL -> ~chi_30 nu_mu)
     5.68282189E-06    2     1000024        13   # BR(~nu_muL -> ~chi_1+ mu-)
#
#         PDG            Width
DECAY   1000016     1.22906693E+02   # snu_tauL decays
#          BR         NDA      ID1       ID2
     9.94782115E-01    2     1000022        16   # BR(~nu_tauL -> ~chi_10 nu_tau)
     7.56992915E-06    2     1000023        16   # BR(~nu_tauL -> ~chi_20 nu_tau)
     1.22898877E-04    2     1000025        16   # BR(~nu_tauL -> ~chi_30 nu_tau)
     5.08741616E-03    2     1000024        15   # BR(~nu_tauL -> ~chi_1+ tau-)
#
#         PDG            Width
DECAY   1000024     4.73759092E+01   # chargino1+ decays
#          BR         NDA      ID1       ID2
     7.05564035E-07    2     1000002        -1   # BR(~chi_1+ -> ~u_L     db)
     3.31574722E-07    2    -1000001         2   # BR(~chi_1+ -> ~d_L*    u )
     7.05564035E-07    2     1000004        -3   # BR(~chi_1+ -> ~c_L     sb)
     3.31574722E-07    2    -1000003         4   # BR(~chi_1+ -> ~s_L*    c )
    -4.27865827E-01    2     1000006        -5   # BR(~chi_1+ -> ~t_1     bb)
     1.09849346E-01    2    -1000005         6   # BR(~chi_1+ -> ~b_1*    t )
     1.25443093E+00    2    -2000005         6   # BR(~chi_1+ -> ~b_2*    t )
     4.37146900E-02    2     1000022        24   # BR(~chi_1+ -> ~chi_10  W+)
     1.98611604E-02    2     1000022        37   # BR(~chi_1+ -> ~chi_10  H+)
     6.36812555E-06    2     1000039        24   # BR(~chi_1+ -> ~G       W+)
     1.25297492E-06    2     1000039        37   # BR(~chi_1+ -> ~G       H+)
#
#         PDG            Width
DECAY   1000037    -4.35757381E+05   # chargino2+ decays
#          BR         NDA      ID1       ID2
    -2.59705817E-03    2     1000002        -1   # BR(~chi_2+ -> ~u_L     db)
    -2.59705914E-03    2    -1000001         2   # BR(~chi_2+ -> ~d_L*    u )
    -2.59705817E-03    2     1000004        -3   # BR(~chi_2+ -> ~c_L     sb)
    -2.59705914E-03    2    -1000003         4   # BR(~chi_2+ -> ~s_L*    c )
     1.04413443E+00    2     1000006        -5   # BR(~chi_2+ -> ~t_1     bb)
    -5.59852036E-04    2    -1000005         6   # BR(~chi_2+ -> ~b_1*    t )
    -2.47691304E-03    2    -2000005         6   # BR(~chi_2+ -> ~b_2*    t )
    -1.91979810E-15    2     1000012       -11   # BR(~chi_2+ -> ~nu_eL   e+  )
    -1.91979810E-15    2     1000014       -13   # BR(~chi_2+ -> ~nu_muL  mu+ )
    -1.34418929E-15    2    -1000011        12   # BR(~chi_2+ -> ~e_L+    nu_e)
    -1.34418929E-15    2    -1000013        14   # BR(~chi_2+ -> ~mu_L+   nu_mu)
    -2.08537439E-15    2    -1000015        16   # BR(~chi_2+ -> ~tau_1+  nu_tau)
    -3.55005224E-17    2    -2000015        16   # BR(~chi_2+ -> ~tau_2+  nu_tau)
    -4.76955597E-04    2     1000024        23   # BR(~chi_2+ -> ~chi_1+  Z )
    -5.61019720E-08    2     1000022        24   # BR(~chi_2+ -> ~chi_10  W+)
    -4.63000213E-04    2     1000023        24   # BR(~chi_2+ -> ~chi_20  W+)
    -4.62939248E-04    2     1000025        24   # BR(~chi_2+ -> ~chi_30  W+)
    -4.80748471E-04    2     1000024        25   # BR(~chi_2+ -> ~chi_1+  h )
    -4.22008506E-04    2     1000024        35   # BR(~chi_2+ -> ~chi_1+  H )
    -4.22063323E-04    2     1000024        36   # BR(~chi_2+ -> ~chi_1+  A )
    -7.98494556E-08    2     1000022        37   # BR(~chi_2+ -> ~chi_10  H+)
    -4.22046641E-04    2     1000023        37   # BR(~chi_2+ -> ~chi_20  H+)
    -4.21984600E-04    2     1000025        37   # BR(~chi_2+ -> ~chi_30  H+)
    -2.71375389E-02    2     1000039        24   # BR(~chi_2+ -> ~G       W+)
    -7.79753160E-09    2     1000039        37   # BR(~chi_2+ -> ~G       H+)
#
#         PDG            Width
DECAY   1000022     1.E-08   # neutralino1 decays (OJ Mods)
#          BR         NDA      ID1       ID2
     1.00000000E+00    2     1000039        22   # BR(~chi_10 -> ~G        gam)
#
#         PDG            Width
DECAY   1000023     1.E-08   # neutralino2 decays (OJ Mods)
#          BR         NDA      ID1       ID2
     7.79100758E-02    2     1000022        23   # BR(~chi_20 -> ~chi_10   Z )
     3.03121204E-03    2     1000022        25   # BR(~chi_20 -> ~chi_10   h )
     3.50326859E-02    2     1000022        35   # BR(~chi_20 -> ~chi_10   H )
     1.42753260E-03    2     1000022        36   # BR(~chi_20 -> ~chi_10   A )
     8.21676243E-08    2     1000002        -2   # BR(~chi_20 -> ~u_L      ub)
     8.21676243E-08    2    -1000002         2   # BR(~chi_20 -> ~u_L*     u )
     3.07816898E-07    2     1000001        -1   # BR(~chi_20 -> ~d_L      db)
     3.07816898E-07    2    -1000001         1   # BR(~chi_20 -> ~d_L*     d )
     7.08087536E-07    2     2000001        -1   # BR(~chi_20 -> ~d_R      db)
     7.08087536E-07    2    -2000001         1   # BR(~chi_20 -> ~d_R*     d )
     8.21676243E-08    2     1000004        -4   # BR(~chi_20 -> ~c_L      cb)
     8.21676243E-08    2    -1000004         4   # BR(~chi_20 -> ~c_L*     c )
     3.07816898E-07    2     1000003        -3   # BR(~chi_20 -> ~s_L      sb)
     3.07816898E-07    2    -1000003         3   # BR(~chi_20 -> ~s_L*     s )
     7.08087536E-07    2     2000003        -3   # BR(~chi_20 -> ~s_R      sb)
     7.08087536E-07    2    -2000003         3   # BR(~chi_20 -> ~s_R*     s )
     1.22471509E+00    2     1000006        -6   # BR(~chi_20 -> ~t_1      tb)
     1.22471509E+00    2    -1000006         6   # BR(~chi_20 -> ~t_1*     t )
    -3.77070292E-01    2     1000005        -5   # BR(~chi_20 -> ~b_1      bb)
    -3.77070292E-01    2    -1000005         5   # BR(~chi_20 -> ~b_1*     b )
    -4.06354359E-01    2     2000005        -5   # BR(~chi_20 -> ~b_2      bb)
    -4.06354359E-01    2    -2000005         5   # BR(~chi_20 -> ~b_2*     b )
     1.01221272E-10    2     1000039        22   # BR(~chi_20 -> ~G        gam)
     4.40360754E-07    2     1000039        23   # BR(~chi_20 -> ~G        Z)
     1.09897180E-05    2     1000039        25   # BR(~chi_20 -> ~G        h)
     8.80835038E-08    2     1000039        35   # BR(~chi_20 -> ~G        H)
     2.27034454E-06    2     1000039        36   # BR(~chi_20 -> ~G        A)
#
#         PDG            Width
DECAY   1000025     2.61309109E+01   # neutralino3 decays
#          BR         NDA      ID1       ID2
     3.10823698E-03    2     1000022        23   # BR(~chi_30 -> ~chi_10   Z )
     7.90047179E-02    2     1000022        25   # BR(~chi_30 -> ~chi_10   h )
     1.40156369E-03    2     1000022        35   # BR(~chi_30 -> ~chi_10   H )
     3.54205970E-02    2     1000022        36   # BR(~chi_30 -> ~chi_10   A )
     8.10152715E-06    2     1000002        -2   # BR(~chi_30 -> ~u_L      ub)
     8.10152715E-06    2    -1000002         2   # BR(~chi_30 -> ~u_L*     u )
     1.96458105E-06    2     1000001        -1   # BR(~chi_30 -> ~d_L      db)
     1.96458105E-06    2    -1000001         1   # BR(~chi_30 -> ~d_L*     d )
     1.80434922E-05    2     2000001        -1   # BR(~chi_30 -> ~d_R      db)
     1.80434922E-05    2    -2000001         1   # BR(~chi_30 -> ~d_R*     d )
     8.10152715E-06    2     1000004        -4   # BR(~chi_30 -> ~c_L      cb)
     8.10152715E-06    2    -1000004         4   # BR(~chi_30 -> ~c_L*     c )
     1.96458105E-06    2     1000003        -3   # BR(~chi_30 -> ~s_L      sb)
     1.96458105E-06    2    -1000003         3   # BR(~chi_30 -> ~s_L*     s )
     1.80434922E-05    2     2000003        -3   # BR(~chi_30 -> ~s_R      sb)
     1.80434922E-05    2    -2000003         3   # BR(~chi_30 -> ~s_R*     s )
     1.23489274E+00    2     1000006        -6   # BR(~chi_30 -> ~t_1      tb)
     1.23489274E+00    2    -1000006         6   # BR(~chi_30 -> ~t_1*     t )
    -3.40649363E-01    2     1000005        -5   # BR(~chi_30 -> ~b_1      bb)
    -3.40649363E-01    2    -1000005         5   # BR(~chi_30 -> ~b_1*     b )
    -4.53766869E-01    2     2000005        -5   # BR(~chi_30 -> ~b_2      bb)
    -4.53766869E-01    2    -2000005         5   # BR(~chi_30 -> ~b_2*     b )
     2.96854001E-09    2     1000039        22   # BR(~chi_30 -> ~G        gam)
     1.11016297E-05    2     1000039        23   # BR(~chi_30 -> ~G        Z)
     4.33110933E-07    2     1000039        25   # BR(~chi_30 -> ~G        h)
     2.27555974E-06    2     1000039        35   # BR(~chi_30 -> ~G        H)
     9.16308604E-08    2     1000039        36   # BR(~chi_30 -> ~G        A)
#
#         PDG            Width
DECAY   1000035    -4.35759328E+05   # neutralino4 decays
#          BR         NDA      ID1       ID2
    -1.12894057E-11    2     1000022        23   # BR(~chi_40 -> ~chi_10   Z )
    -4.60926441E-04    2     1000023        23   # BR(~chi_40 -> ~chi_20   Z )
    -1.60273291E-05    2     1000025        23   # BR(~chi_40 -> ~chi_30   Z )
    -4.62995242E-04    2     1000024       -24   # BR(~chi_40 -> ~chi_1+   W-)
    -4.62995242E-04    2    -1000024        24   # BR(~chi_40 -> ~chi_1-   W+)
    -5.83477016E-08    2     1000022        25   # BR(~chi_40 -> ~chi_10   h )
    -1.07368731E-08    2     1000022        35   # BR(~chi_40 -> ~chi_10   H )
    -6.90005951E-08    2     1000022        36   # BR(~chi_40 -> ~chi_10   A )
    -1.57936530E-05    2     1000023        25   # BR(~chi_40 -> ~chi_20   h )
    -4.03849385E-04    2     1000023        35   # BR(~chi_40 -> ~chi_20   H )
    -1.85641686E-05    2     1000023        36   # BR(~chi_40 -> ~chi_20   A )
    -4.64894754E-04    2     1000025        25   # BR(~chi_40 -> ~chi_30   h )
    -1.81459246E-05    2     1000025        35   # BR(~chi_40 -> ~chi_30   H )
    -4.03428208E-04    2     1000025        36   # BR(~chi_40 -> ~chi_30   A )
    -4.22053874E-04    2     1000024       -37   # BR(~chi_40 -> ~chi_1+   H-)
    -4.22053874E-04    2    -1000024        37   # BR(~chi_40 -> ~chi_1-   H+)
    -1.24277511E-03    2     1000002        -2   # BR(~chi_40 -> ~u_L      ub)
    -1.24277511E-03    2    -1000002         2   # BR(~chi_40 -> ~u_L*     u )
    -1.97666356E-23    2     2000002        -2   # BR(~chi_40 -> ~u_R      ub)
    -1.97666356E-23    2    -2000002         2   # BR(~chi_40 -> ~u_R*     u )
    -1.24277583E-03    2     1000001        -1   # BR(~chi_40 -> ~d_L      db)
    -1.24277583E-03    2    -1000001         1   # BR(~chi_40 -> ~d_L*     d )
    -2.35146106E-17    2     2000001        -1   # BR(~chi_40 -> ~d_R      db)
    -2.35146106E-17    2    -2000001         1   # BR(~chi_40 -> ~d_R*     d )
    -1.24277511E-03    2     1000004        -4   # BR(~chi_40 -> ~c_L      cb)
    -1.24277511E-03    2    -1000004         4   # BR(~chi_40 -> ~c_L*     c )
    -1.97666356E-23    2     2000004        -4   # BR(~chi_40 -> ~c_R      cb)
    -1.97666356E-23    2    -2000004         4   # BR(~chi_40 -> ~c_R*     c )
    -1.24277583E-03    2     1000003        -3   # BR(~chi_40 -> ~s_L      sb)
    -1.24277583E-03    2    -1000003         3   # BR(~chi_40 -> ~s_L*     s )
    -2.35146106E-17    2     2000003        -3   # BR(~chi_40 -> ~s_R      sb)
    -2.35146106E-17    2    -2000003         3   # BR(~chi_40 -> ~s_R*     s )
    -1.51837678E-03    2     1000006        -6   # BR(~chi_40 -> ~t_1      tb)
    -1.51837678E-03    2    -1000006         6   # BR(~chi_40 -> ~t_1*     t )
     2.51128913E-01    2     1000005        -5   # BR(~chi_40 -> ~b_1      bb)
     2.51128913E-01    2    -1000005         5   # BR(~chi_40 -> ~b_1*     b )
     2.70938201E-01    2     2000005        -5   # BR(~chi_40 -> ~b_2      bb)
     2.70938201E-01    2    -2000005         5   # BR(~chi_40 -> ~b_2*     b )
    -6.72091123E-16    2     1000011       -11   # BR(~chi_40 -> ~e_L-     e+)
    -6.72091123E-16    2    -1000011        11   # BR(~chi_40 -> ~e_L+     e-)
    -1.14450043E-28    2     2000011       -11   # BR(~chi_40 -> ~e_R-     e+)
    -1.14450043E-28    2    -2000011        11   # BR(~chi_40 -> ~e_R+     e-)
    -6.72091123E-16    2     1000013       -13   # BR(~chi_40 -> ~mu_L-    mu+)
    -6.72091123E-16    2    -1000013        13   # BR(~chi_40 -> ~mu_L+    mu-)
    -1.14450043E-28    2     2000013       -13   # BR(~chi_40 -> ~mu_R-    mu+)
    -1.14450043E-28    2    -2000013        13   # BR(~chi_40 -> ~mu_R+    mu-)
    -9.59895272E-16    2     1000012       -12   # BR(~chi_40 -> ~nu_eL    nu_eb)
    -9.59895272E-16    2    -1000012        12   # BR(~chi_40 -> ~nu_eL*   nu_e )
    -9.59895272E-16    2     1000014       -14   # BR(~chi_40 -> ~nu_muL   nu_mub)
    -9.59895272E-16    2    -1000014        14   # BR(~chi_40 -> ~nu_muL*  nu_mu )
    -9.59895272E-16    2     1000016       -16   # BR(~chi_40 -> ~nu_tau1  nu_taub)
    -9.59895272E-16    2    -1000016        16   # BR(~chi_40 -> ~nu_tau1* nu_tau )
    -6.56561479E-03    2     1000039        22   # BR(~chi_40 -> ~G        gam)
    -2.05717978E-02    2     1000039        23   # BR(~chi_40 -> ~G        Z)
    -1.24434397E-09    2     1000039        25   # BR(~chi_40 -> ~G        h)
    -7.81027639E-09    2     1000039        35   # BR(~chi_40 -> ~G        H)
    -1.53912577E-12    2     1000039        36   # BR(~chi_40 -> ~G        A)
#
#
#
#
