# SUSY Les Houches Accord 2 - MSSM spectrum + Decays
# SPheno v3.1.12 
# W. Porod, Comput. Phys. Commun. 153 (2003) 275-315, hep-ph/0301101
# in case of problems send email to porod@physik.uni-wuerzburg.de
# Created: 23.11.2012,  13:29
Block SPINFO         # Program information
     1   SPheno      # spectrum calculator
     2   v3.1.12     # version number
#
Block SPhenoINFO     # SPheno specific information
    1      2         # using 2-loop RGEs
    2      1         # using running masses for boundary conditions at mZ
Block MODSEL  # Model selection
    1    2    # mGMSB model
Block MINPAR  # Input parameters
    1    1.20000000E+05  # Lambda, scale of SUSY breaking
    2    2.50000000E+05  # M_M, messenger mass scale
    3    3.00000000E+01  # tanb at m_Z   
    4    1.00000000E+00  # Sign(mu)
    5    3.00000000E+00  # N_5 number of effective five-plets
    6    1.00000000E+00  # c_grav, Gravitino mass factor
Block gauge Q=  2.50000000E+05  # (GMSB scale)
   1    4.93337628E-01  # g'(Q)^DRbar
   2    6.47928260E-01  # g(Q)^DRbar
   3    9.36679764E-01  # g3(Q)^DRbar
Block SMINPUTS  # SM parameters
         1     1.27932503E+02  # alpha_em^-1(MZ)^MSbar
         2     1.16639000E-05  # G_mu [GeV^-2]
         3     1.17200000E-01  # alpha_s(MZ)^MSbar
         4     9.11876000E+01  # m_Z(pole)
         5     4.20000000E+00  # m_b(m_b), MSbar
         6     1.72500000E+02  # m_t(pole)
         7     1.77700000E+00  # m_tau(pole)
         8     0.00000000E+00  # m_nu_3
        11     5.10998910E-04  # m_e(pole)
        12     0.00000000E+00  # m_nu_1
        13     1.05658000E-01  # m_muon(pole)
        14     0.00000000E+00  # m_nu_2
        21     5.00000000E-03  # m_d(2 GeV), MSbar
        22     3.00000000E-03  # m_u(2 GeV), MSbar
        23     1.05000000E-01  # m_s(2 GeV), MSbar
        24     1.27000000E+00  # m_c(m_c), MSbar
Block gauge Q=  2.27671973E+03  # (SUSY scale)
   1    3.64830333E-01  # g'(Q)^DRbar
   2    6.38566217E-01  # g(Q)^DRbar
   3    1.01707988E+00  # g3(Q)^DRbar
Block Yu Q=  2.27671973E+03  # (SUSY scale)
  1  1     8.34727549E-06   # Y_u(Q)^DRbar
  2  2     3.53368085E-03   # Y_c(Q)^DRbar
  3  3     8.38952289E-01   # Y_t(Q)^DRbar
Block Yd Q=  2.27671973E+03  # (SUSY scale)
  1  1     3.65716787E-04   # Y_d(Q)^DRbar
  2  2     7.68005018E-03   # Y_s(Q)^DRbar
  3  3     3.66710822E-01   # Y_b(Q)^DRbar
Block Ye Q=  2.27671973E+03  # (SUSY scale)
  1  1     8.97218598E-05   # Y_e(Q)^DRbar
  2  2     1.85516487E-02   # Y_mu(Q)^DRbar
  3  3     3.12369616E-01   # Y_tau(Q)^DRbar
Block Au Q=  2.27671973E+03  # (SUSY scale)
  1  1    -7.10344074E+02   # A_u(Q)^DRbar
  2  2    -7.10342265E+02   # A_c(Q)^DRbar
  3  3    -6.68859693E+02   # A_t(Q)^DRbar
Block Ad Q=  2.27671973E+03  # (SUSY scale)
  1  1    -7.46755873E+02   # A_d(Q)^DRbar
  2  2    -7.46752254E+02   # A_s(Q)^DRbar
  3  3    -7.26374065E+02   # A_b(Q)^DRbar
Block Ae Q=  2.27671973E+03  # (SUSY scale)
  1  1    -7.51147077E+01   # A_e(Q)^DRbar
  2  2    -7.51120617E+01   # A_mu(Q)^DRbar
  3  3    -7.43656158E+01   # A_tau(Q)^DRbar
Block MSOFT Q=  2.27671973E+03  # soft SUSY breaking masses at Q
   1    5.23866220E+02  # M_1
   2    9.59778288E+02  # M_2
   3    2.44551636E+03  # M_3
  21    3.44451147E+05  # M^2_(H,d)
  22   -5.18897281E+05  # M^2_(H,u)
  31    7.47824344E+02  # M_(L,11)
  32    7.47810278E+02  # M_(L,22)
  33    7.43835965E+02  # M_(L,33)
  34    3.62724389E+02  # M_(E,11)
  35    3.62665316E+02  # M_(E,22)
  36    3.45592850E+02  # M_(E,33)
  41    2.37001952E+03  # M_(Q,11)
  42    2.37001224E+03  # M_(Q,22)
  43    2.28557983E+03  # M_(Q,33)
  44    2.27252795E+03  # M_(U,11)
  45    2.27252532E+03  # M_(U,22)
  46    2.12078173E+03  # M_(U,33)
  47    2.26304025E+03  # M_(D,11)
  48    2.26302750E+03  # M_(D,22)
  49    2.23401733E+03  # M_(D,33)
Block MASS  # Mass spectrum
#   PDG code      mass          particle
         6     1.72500000E+02  # m_t(pole)
        23     9.11876000E+01  # m_Z(pole)
        24     8.03118108E+01  # W+
        15     1.77700000E+00  # m_tau(pole)
        25     1.19669837E+02  # h0
        35     9.82501250E+02  # H0
        36     9.82440670E+02  # A0
        37     9.86190604E+02  # H+
   1000001     2.46799683E+03  # ~d_L
   2000001     2.35525714E+03  # ~d_R
   1000002     2.46670514E+03  # ~u_L
   2000002     2.36399650E+03  # ~u_R
   1000003     2.46798840E+03  # ~s_L
   2000003     2.35524113E+03  # ~s_R
   1000004     2.46669647E+03  # ~c_L
   2000004     2.36399332E+03  # ~c_R
   1000005     2.31706186E+03  # ~b_1
   2000005     2.36786423E+03  # ~b_2
   1000006     2.18437349E+03  # ~t_1
   2000006     2.37297074E+03  # ~t_2
   1000011     7.64672843E+02  # ~e_L-
   2000011     3.77897752E+02  # ~e_R-
   1000012     7.60123731E+02  # ~nu_eL
   1000013     7.64662987E+02  # ~mu_L-
   2000013     3.77803866E+02  # ~mu_R-
   1000014     7.60103695E+02  # ~nu_muL
   1000015     3.50588888E+02  # ~tau_1-
   2000015     7.61831948E+02  # ~tau_2-
   1000016     7.54477275E+02  # ~nu_tauL
   1000021     2.57119336E+03  # ~g
   1000022     5.09337438E+02  # ~chi_10
   1000023     7.88258985E+02  # ~chi_20
   1000025    -8.03612599E+02  # ~chi_30
   1000035     9.98273194E+02  # ~chi_40
   1000024     7.86056737E+02  # ~chi_1+
   1000037     9.98433347E+02  # ~chi_2+
   1000039     7.20000000E-09  # ~G
# Higgs mixing
Block alpha # Effective Higgs mixing angle
          -3.53533668E-02   # alpha
Block Hmix Q=  2.27671973E+03  # Higgs mixing parameters
   1    7.92310031E+02  # mu
   2    2.89429808E+01  # tan[beta](Q)
   3    2.43538535E+02  # v(Q)
   4    8.57392279E+05  # m^2_A(Q)
Block stopmix # stop mixing matrix
   1  1     1.44046338E-01   # Re[R_st(1,1)]
   1  2     9.89570944E-01   # Re[R_st(1,2)]
   2  1    -9.89570944E-01   # Re[R_st(2,1)]
   2  2     1.44046338E-01   # Re[R_st(2,2)]
Block sbotmix # sbottom mixing matrix
   1  1     2.35972027E-01   # Re[R_sb(1,1)]
   1  2     9.71759848E-01   # Re[R_sb(1,2)]
   2  1    -9.71759848E-01   # Re[R_sb(2,1)]
   2  2     2.35972027E-01   # Re[R_sb(2,2)]
Block staumix # stau mixing matrix
   1  1     9.56558548E-02   # Re[R_sta(1,1)]
   1  2     9.95414465E-01   # Re[R_sta(1,2)]
   2  1    -9.95414465E-01   # Re[R_sta(2,1)]
   2  2     9.56558548E-02   # Re[R_sta(2,2)]
Block Nmix # neutralino mixing matrix
   1  1    -9.93177260E-01   # Re[N(1,1)]
   1  2     1.11112477E-02   # Re[N(1,2)]
   1  3    -9.69021520E-02   # Re[N(1,3)]
   1  4     6.39174713E-02   # Re[N(1,4)]
   2  1     1.12444867E-01   # Re[N(2,1)]
   2  2     2.80860370E-01   # Re[N(2,2)]
   2  3    -6.79179995E-01   # Re[N(2,3)]
   2  4     6.68721272E-01   # Re[N(2,4)]
   3  1     2.29520987E-02   # Re[N(3,1)]
   3  2    -3.02844418E-02   # Re[N(3,2)]
   3  3    -7.05508203E-01   # Re[N(3,3)]
   3  4    -7.07682294E-01   # Re[N(3,4)]
   4  1    -2.06950013E-02   # Re[N(4,1)]
   4  2     9.59206362E-01   # Re[N(4,2)]
   4  3     1.77715174E-01   # Re[N(4,3)]
   4  4    -2.18888529E-01   # Re[N(4,4)]
Block Umix # chargino mixing matrix
   1  1    -2.51022684E-01   # Re[U(1,1)]
   1  2     9.67981204E-01   # Re[U(1,2)]
   2  1     9.67981204E-01   # Re[U(2,1)]
   2  2     2.51022684E-01   # Re[U(2,2)]
Block Vmix # chargino mixing matrix
   1  1    -3.09088339E-01   # Re[V(1,1)]
   1  2     9.51033332E-01   # Re[V(1,2)]
   2  1     9.51033332E-01   # Re[V(2,1)]
   2  2     3.09088339E-01   # Re[V(2,2)]
DECAY   2000011     1.79123277E-08   # ~e^-_R
#    BR                NDA      ID1      ID2
     9.51058320E-03    2     1000039        11   # BR(~e^-_R -> ~G e^-)
#    BR                NDA      ID1      ID2       ID3
     2.17073230E-01    3     1000015        11       -15   # BR(~e^-_R -> ~tau^-_1 e^- tau^+)
     7.73416187E-01    3    -1000015        11        15   # BR(~e^-_R -> ~tau^+_1 e^- tau^-)
DECAY   1000011     2.97097803E-01   # ~e^-_L
#    BR                NDA      ID1      ID2
     9.99999668E-01    2     1000022        11   # BR(~e^-_L -> chi^0_1 e^-)
     1.53834324E-07    2     2000011        23   # BR(~e^-_L -> ~e^-_R Z)
     1.58912504E-07    2     2000011        25   # BR(~e^-_L -> ~e^-_R h^0)
     1.94521015E-08    2     1000039        11   # BR(~e^-_L -> ~G e^-)
DECAY   2000013     1.76140112E-08   # ~mu^-_R
#    BR                NDA      ID1      ID2
     9.65964619E-03    2     1000039        13   # BR(~mu^-_R -> ~G mu^-)
#    BR                NDA      ID1      ID2       ID3
     2.16885816E-01    3     1000015        13       -15   # BR(~mu^-_R -> ~tau^-_1 mu^- tau^+)
     7.73454537E-01    3    -1000015        13        15   # BR(~mu^-_R -> ~tau^+_1 mu^- tau^-)
DECAY   1000013     3.01075215E-01   # ~mu^-_L
#    BR                NDA      ID1      ID2
     9.86804162E-01    2     1000022        13   # BR(~mu^-_L -> chi^0_1 mu^-)
     6.49122626E-03    2     2000013        23   # BR(~mu^-_L -> ~mu^-_R Z)
     6.70459229E-03    2     2000013        25   # BR(~mu^-_L -> ~mu^-_R h^0)
     1.91938874E-08    2     1000039        13   # BR(~mu^-_L -> ~G mu^-)
DECAY   1000015     1.17066798E-10   # ~tau^-_1
#    BR                NDA      ID1      ID2
     1.00000000E+00    2     1000039        15   # BR(~tau^-_1 -> ~G tau^-)
DECAY   2000015     1.46151465E+00   # ~tau^-_2
#    BR                NDA      ID1      ID2
     2.03859806E-01    2     1000022        15   # BR(~tau^-_2 -> chi^0_1 tau^-)
     3.98848037E-01    2     1000015        23   # BR(~tau^-_2 -> ~tau^-_1 Z)
     3.97292153E-01    2     1000015        25   # BR(~tau^-_2 -> ~tau^-_1 h^0)
     3.88124375E-09    2     1000039        15   # BR(~tau^-_2 -> ~G tau^-)
DECAY   1000012     3.13309340E-01   # ~nu_e
#    BR                NDA      ID1      ID2
     9.99999701E-01    2     1000022        12   # BR(~nu_e -> chi^0_1 nu_e)
     2.80902232E-07    2     2000011        24   # BR(~nu_e -> ~e^-_R W^+)
     1.79034097E-08    2     1000039        12   # BR(~nu_e -> ~G nu_e)
DECAY   1000014     3.17037313E-01   # ~nu_mu
#    BR                NDA      ID1      ID2
     9.88129966E-01    2     1000022        14   # BR(~nu_mu -> chi^0_1 nu_mu)
     1.18700167E-02    2     2000013        24   # BR(~nu_mu -> ~mu^-_R W^+)
     1.76905557E-08    2     1000039        14   # BR(~nu_mu -> ~G nu_mu)
DECAY   1000016     1.41580086E+00   # ~nu_tau
#    BR                NDA      ID1      ID2
     2.14305635E-01    2     1000022        16   # BR(~nu_tau -> chi^0_1 nu_tau)
     7.85694361E-01    2     1000015        24   # BR(~nu_tau -> ~tau^-_1 W^+)
     3.81694832E-09    2     1000039        16   # BR(~nu_tau -> ~G nu_tau)
DECAY   2000001     1.25699438E+00   # ~d_R
#    BR                NDA      ID1      ID2
     9.88226980E-01    2     1000022         1   # BR(~d_R -> chi^0_1 d)
     1.09945209E-02    2     1000023         1   # BR(~d_R -> chi^0_2 d)
     4.55372889E-04    2     1000025         1   # BR(~d_R -> chi^0_3 d)
     3.17797013E-04    2     1000035         1   # BR(~d_R -> chi^0_4 d)
     4.03290127E-06    2    -1000024         2   # BR(~d_R -> chi^-_1 u)
     2.19052655E-08    2    -1000037         2   # BR(~d_R -> chi^-_2 u)
     1.27451791E-06    2     1000039         1   # BR(~d_R -> ~G d)
DECAY   1000001     2.15572723E+01   # ~d_L
#    BR                NDA      ID1      ID2
     1.70695222E-02    2     1000022         1   # BR(~d_L -> chi^0_1 d)
     2.52058031E-02    2     1000023         1   # BR(~d_L -> chi^0_2 d)
     4.45839537E-04    2     1000025         1   # BR(~d_L -> chi^0_3 d)
     3.01346570E-01    2     1000035         1   # BR(~d_L -> chi^0_4 d)
     4.72509569E-02    2    -1000024         2   # BR(~d_L -> chi^-_1 u)
     6.08681214E-01    2    -1000037         2   # BR(~d_L -> chi^-_2 u)
     4.72831907E-13    2     2000002       -24   # BR(~d_L -> ~u_R W^-)
     3.30861956E-10    2     2000001        23   # BR(~d_L -> ~d_R Z)
     9.38894551E-08    2     1000039         1   # BR(~d_L -> ~G d)
DECAY   2000003     1.26142660E+00   # ~s_R
#    BR                NDA      ID1      ID2
     9.84789643E-01    2     1000022         3   # BR(~s_R -> chi^0_1 s)
     1.18159046E-02    2     1000023         3   # BR(~s_R -> chi^0_2 s)
     1.29022193E-03    2     1000025         3   # BR(~s_R -> chi^0_3 s)
     3.21108564E-04    2     1000035         3   # BR(~s_R -> chi^0_4 s)
     1.77222311E-03    2    -1000024         4   # BR(~s_R -> chi^-_1 c)
     9.62857259E-06    2    -1000037         4   # BR(~s_R -> chi^-_2 c)
     1.26999652E-06    2     1000039         3   # BR(~s_R -> ~G s)
DECAY   1000003     2.15598122E+01   # ~s_L
#    BR                NDA      ID1      ID2
     1.70670765E-02    2     1000022         3   # BR(~s_L -> chi^0_1 s)
     2.52484287E-02    2     1000023         3   # BR(~s_L -> chi^0_2 s)
     4.99900897E-04    2     1000025         3   # BR(~s_L -> chi^0_3 s)
     3.01314951E-01    2     1000035         3   # BR(~s_L -> chi^0_4 s)
     4.72557120E-02    2    -1000024         4   # BR(~s_L -> chi^-_1 c)
     6.08613606E-01    2    -1000037         4   # BR(~s_L -> chi^-_2 c)
     8.47038792E-08    2     2000004       -24   # BR(~s_L -> ~c_R W^-)
     1.45958817E-07    2     2000003        23   # BR(~s_L -> ~s_R Z)
     9.38767905E-08    2     1000039         3   # BR(~s_L -> ~G s)
DECAY   1000005     1.28473953E+01   # ~b_1
#    BR                NDA      ID1      ID2
     1.08894841E-01    2     1000022         5   # BR(~b_1 -> chi^0_1 b)
     2.08427574E-01    2     1000023         5   # BR(~b_1 -> chi^0_2 b)
     1.79593849E-01    2     1000025         5   # BR(~b_1 -> chi^0_3 b)
     4.01635997E-03    2     1000035         5   # BR(~b_1 -> chi^0_4 b)
     4.81094013E-01    2    -1000024         6   # BR(~b_1 -> chi^-_1 t)
     1.74848525E-02    2    -1000037         6   # BR(~b_1 -> chi^-_2 t)
     4.88395557E-04    2     1000006       -24   # BR(~b_1 -> ~t_1 W^-)
     1.14909247E-07    2     1000039         5   # BR(~b_1 -> ~G b)
DECAY   2000005     4.88062778E+01   # ~b_2
#    BR                NDA      ID1      ID2
     5.57626998E-03    2     1000022         5   # BR(~b_2 -> chi^0_1 b)
     4.86895543E-02    2     1000023         5   # BR(~b_2 -> chi^0_2 b)
     5.24715151E-02    2     1000025         5   # BR(~b_2 -> chi^0_3 b)
     1.27939963E-01    2     1000035         5   # BR(~b_2 -> chi^0_4 b)
     4.52547614E-01    2    -1000024         6   # BR(~b_2 -> chi^-_1 t)
     3.04722999E-01    2    -1000037         6   # BR(~b_2 -> chi^-_2 t)
     8.05205054E-03    2     1000006       -24   # BR(~b_2 -> ~t_1 W^-)
     3.37124620E-08    2     1000039         5   # BR(~b_2 -> ~G b)
DECAY   2000002     5.05031399E+00   # ~u_R
#    BR                NDA      ID1      ID2
     9.88222066E-01    2     1000022         2   # BR(~u_R -> chi^0_1 u)
     1.10050111E-02    2     1000023         2   # BR(~u_R -> chi^0_2 u)
     4.54016644E-04    2     1000025         2   # BR(~u_R -> chi^0_3 u)
     3.18582626E-04    2     1000035         2   # BR(~u_R -> chi^0_4 u)
     5.29595980E-10    2     1000024         1   # BR(~u_R -> chi^+_1 d)
     5.29853247E-12    2     1000037         1   # BR(~u_R -> chi^+_2 d)
     3.23149438E-07    2     1000039         2   # BR(~u_R -> ~G u)
DECAY   1000002     2.16147948E+01   # ~u_L
#    BR                NDA      ID1      ID2
     1.34470727E-02    2     1000022         2   # BR(~u_L -> chi^0_1 u)
     3.40972907E-02    2     1000023         2   # BR(~u_L -> chi^0_2 u)
     2.48353583E-04    2     1000025         2   # BR(~u_L -> chi^0_3 u)
     2.95369577E-01    2     1000035         2   # BR(~u_L -> chi^0_4 u)
     7.13943922E-02    2     1000024         1   # BR(~u_L -> chi^+_1 d)
     5.85443219E-01    2     1000037         1   # BR(~u_L -> chi^+_2 d)
     1.01654245E-09    2     2000001        24   # BR(~u_L -> ~d_R W^+)
     8.88426404E-14    2     2000002        23   # BR(~u_L -> ~u_R Z)
     9.33948036E-08    2     1000039         2   # BR(~u_L -> ~G u)
DECAY   2000004     5.05125552E+00   # ~c_R
#    BR                NDA      ID1      ID2
     9.88035798E-01    2     1000022         4   # BR(~c_R -> chi^0_1 c)
     1.10486877E-02    2     1000023         4   # BR(~c_R -> chi^0_2 c)
     5.00423254E-04    2     1000025         4   # BR(~c_R -> chi^0_3 c)
     3.18926122E-04    2     1000035         4   # BR(~c_R -> chi^0_4 c)
     9.48926998E-05    2     1000024         3   # BR(~c_R -> chi^+_1 s)
     9.49222332E-07    2     1000037         3   # BR(~c_R -> chi^+_2 s)
     3.23086655E-07    2     1000039         4   # BR(~c_R -> ~G c)
DECAY   1000004     2.16174350E+01   # ~c_L
#    BR                NDA      ID1      ID2
     1.34454839E-02    2     1000022         4   # BR(~c_L -> chi^0_1 c)
     3.41016858E-02    2     1000023         4   # BR(~c_L -> chi^0_2 c)
     2.59497965E-04    2     1000025         4   # BR(~c_L -> chi^0_3 c)
     2.95333762E-01    2     1000035         4   # BR(~c_L -> chi^0_4 c)
     7.14832766E-02    2     1000024         3   # BR(~c_L -> chi^+_1 s)
     5.85375736E-01    2     1000037         3   # BR(~c_L -> chi^+_2 s)
     4.48367082E-07    2     2000003        24   # BR(~c_L -> ~s_R W^+)
     1.59093198E-08    2     2000004        23   # BR(~c_L -> ~c_R Z)
     9.33816570E-08    2     1000039         4   # BR(~c_L -> ~G c)
DECAY   1000006     5.01428766E+01   # ~t_1
#    BR                NDA      ID1      ID2
     8.06442007E-05    2     1000022         4   # BR(~t_1 -> chi^0_1 c)
     9.18268791E-02    2     1000022         6   # BR(~t_1 -> chi^0_1 t)
     1.96668609E-04    2     1000023         4   # BR(~t_1 -> chi^0_2 c)
     2.12170309E-01    2     1000023         6   # BR(~t_1 -> chi^0_2 t)
     2.31492977E-01    2     1000025         6   # BR(~t_1 -> chi^0_3 t)
     7.57707790E-03    2     1000035         6   # BR(~t_1 -> chi^0_4 t)
     4.41042490E-01    2     1000024         5   # BR(~t_1 -> chi^+_1 b)
     1.56033543E-02    2     1000037         5   # BR(~t_1 -> chi^+_2 b)
     2.13818588E-08    2     1000039         6   # BR(~t_1 -> ~G t)
#    BR                NDA      ID1      ID2       ID3
     9.57783942E-06    3     1000022        24         5   # BR(~t_1 -> chi^0_1 W^+ b)
DECAY   2000006     5.09080363E+01   # ~t_2
#    BR                NDA      ID1      ID2
     6.38377332E-03    2     1000022         6   # BR(~t_2 -> chi^0_1 t)
     2.27438248E-01    2     1000023         6   # BR(~t_2 -> chi^0_2 t)
     2.46995963E-01    2     1000025         6   # BR(~t_2 -> chi^0_3 t)
     1.55370962E-01    2     1000035         6   # BR(~t_2 -> chi^0_4 t)
     9.53829882E-02    2     1000024         5   # BR(~t_2 -> chi^+_1 b)
     2.61243590E-01    2     1000037         5   # BR(~t_2 -> chi^+_2 b)
     4.11280954E-03    2     1000006        23   # BR(~t_2 -> ~t_1 Z)
     3.07163338E-03    2     1000006        25   # BR(~t_2 -> ~t_1 h^0)
     3.19859292E-08    2     1000039         6   # BR(~t_2 -> ~G t)
DECAY   1000024     8.82803308E-01   # chi^+_1
#    BR                NDA      ID1      ID2
     4.37394996E-08    2    -2000011        12   # BR(chi^+_1 -> ~e^+_R nu_e)
     6.55477932E-04    2    -1000011        12   # BR(chi^+_1 -> ~e^+_L nu_e)
     1.87047855E-03    2    -2000013        14   # BR(chi^+_1 -> ~mu^+_R nu_mu)
     6.55189289E-04    2    -1000013        14   # BR(chi^+_1 -> ~mu^+_L nu_mu)
     5.68689384E-01    2    -1000015        16   # BR(chi^+_1 -> ~tau^+_1 nu_tau)
     5.56675073E-04    2    -2000015        16   # BR(chi^+_1 -> ~tau^+_2 nu_tau)
     1.45304082E-03    2     1000012       -11   # BR(chi^+_1 -> ~nu_e e^+)
     1.46837979E-03    2     1000014       -13   # BR(chi^+_1 -> ~nu_mu mu^+)
     7.52375483E-03    2     1000016       -15   # BR(chi^+_1 -> ~nu_tau tau^+)
     4.16722209E-01    2     1000022        24   # BR(chi^+_1 -> chi^0_1 W^+)
#    BR                NDA      ID1      ID2       ID3
     4.32961378E-09    3     1000022        -1         2   # BR(chi^+_1 -> chi^0_1 d_bar u)
     5.23284219E-09    3     1000022        -3         4   # BR(chi^+_1 -> chi^0_1 s_bar c)
     3.85393168E-04    3     1000022        -5         6   # BR(chi^+_1 -> chi^0_1 b_bar t)
     1.96936807E-12    3     1000022       -11        12   # BR(chi^+_1 -> chi^0_1 e^+ nu_e)
     8.41393508E-08    3     1000022       -13        14   # BR(chi^+_1 -> chi^0_1 mu^+ nu_mu)
     1.98794916E-05    3     1000022       -15        16   # BR(chi^+_1 -> chi^0_1 tau^+ nu_tau)
DECAY   1000037     7.52721732E+00   # chi^+_2
#    BR                NDA      ID1      ID2
     2.40458510E-11    2    -2000011        12   # BR(chi^+_2 -> ~e^+_R nu_e)
     8.61694656E-02    2    -1000011        12   # BR(chi^+_2 -> ~e^+_L nu_e)
     1.02889685E-06    2    -2000013        14   # BR(chi^+_2 -> ~mu^+_R nu_mu)
     8.61804197E-02    2    -1000013        14   # BR(chi^+_2 -> ~mu^+_L nu_mu)
     3.63230723E-04    2    -1000015        16   # BR(chi^+_2 -> ~tau^+_1 nu_tau)
     8.93258885E-02    2    -2000015        16   # BR(chi^+_2 -> ~tau^+_2 nu_tau)
     8.60018685E-02    2     1000012       -11   # BR(chi^+_2 -> ~nu_e e^+)
     8.60187579E-02    2     1000014       -13   # BR(chi^+_2 -> ~nu_mu mu^+)
     9.08469199E-02    2     1000016       -15   # BR(chi^+_2 -> ~nu_tau tau^+)
     1.73442236E-03    2     1000022        24   # BR(chi^+_2 -> chi^0_1 W^+)
     1.32843470E-01    2     1000023        24   # BR(chi^+_2 -> chi^0_2 W^+)
     1.10130354E-01    2     1000025        24   # BR(chi^+_2 -> chi^0_3 W^+)
     1.27163353E-01    2     1000024        23   # BR(chi^+_2 -> chi^+_1 Z)
     1.03185756E-01    2     1000024        25   # BR(chi^+_2 -> chi^+_1 h^0)
#    BR                NDA      ID1      ID2       ID3
     2.88063001E-09    3     1000024         2        -2   # BR(chi^+_2 -> chi^+_1 u u_bar)
     2.87814976E-09    3     1000024         4        -4   # BR(chi^+_2 -> chi^+_1 c c_bar)
     4.22652047E-09    3     1000024         1        -1   # BR(chi^+_2 -> chi^+_1 d d_bar)
     4.44246093E-09    3     1000024         3        -3   # BR(chi^+_2 -> chi^+_1 s s_bar)
     5.08183818E-07    3     1000024         5        -5   # BR(chi^+_2 -> chi^+_1 b b_bar)
     1.20106936E-06    3     1000024        11       -11   # BR(chi^+_2 -> chi^+_1 e^- e^+)
     1.20918130E-06    3     1000024        13       -13   # BR(chi^+_2 -> chi^+_1 mu^- mu^+)
     3.33783997E-06    3     1000024        15       -15   # BR(chi^+_2 -> chi^+_1 tau^- tau^+)
     2.37558498E-06    3     1000024        12       -12   # BR(chi^+_2 -> chi^+_1 nu_e nu_bar_e)
     8.13769718E-08    3     1000022        -1         2   # BR(chi^+_2 -> chi^0_1 d_bar u)
     8.13717633E-08    3     1000022        -3         4   # BR(chi^+_2 -> chi^0_1 s_bar c)
     1.13391267E-05    3     1000022        -5         6   # BR(chi^+_2 -> chi^0_1 b_bar t)
     1.95023820E-10    3     1000022       -13        14   # BR(chi^+_2 -> chi^0_1 mu^+ nu_mu)
     5.82571211E-08    3     1000022       -15        16   # BR(chi^+_2 -> chi^0_1 tau^+ nu_tau)
     1.73752958E-09    3     1000023        -1         2   # BR(chi^+_2 -> chi^0_2 d_bar u)
     1.85701901E-09    3     1000023        -3         4   # BR(chi^+_2 -> chi^0_2 s_bar c)
     9.50791509E-06    3     1000023        -5         6   # BR(chi^+_2 -> chi^0_2 b_bar t)
     6.95016551E-07    3     1000023       -11        12   # BR(chi^+_2 -> chi^0_2 e^+ nu_e)
     6.98699358E-07    3     1000023       -13        14   # BR(chi^+_2 -> chi^0_2 mu^+ nu_mu)
     1.62863727E-06    3     1000023       -15        16   # BR(chi^+_2 -> chi^0_2 tau^+ nu_tau)
     4.20925334E-11    3     1000025        -1         2   # BR(chi^+_2 -> chi^0_3 d_bar u)
     1.13844031E-10    3     1000025        -3         4   # BR(chi^+_2 -> chi^0_3 s_bar c)
     1.56364448E-06    3     1000025        -5         6   # BR(chi^+_2 -> chi^0_3 b_bar t)
     9.33466019E-09    3     1000025       -11        12   # BR(chi^+_2 -> chi^0_3 e^+ nu_e)
     1.20389305E-08    3     1000025       -13        14   # BR(chi^+_2 -> chi^0_3 mu^+ nu_mu)
     7.38461287E-07    3     1000025       -15        16   # BR(chi^+_2 -> chi^0_3 tau^+ nu_tau)
DECAY   1000022     1.81461032E+00   # chi^0_1
#    BR                NDA      ID1      ID2
     1.48148047E-01    2     2000011       -11   # BR(chi^0_1 -> ~e^-_R e^+)
     1.48148047E-01    2    -2000011        11   # BR(chi^0_1 -> ~e^+_R e^-)
     1.48329565E-01    2     2000013       -13   # BR(chi^0_1 -> ~mu^-_R mu^+)
     1.48329565E-01    2    -2000013        13   # BR(chi^0_1 -> ~mu^+_R mu^-)
     2.03522388E-01    2     1000015       -15   # BR(chi^0_1 -> ~tau^-_1 tau^+)
     2.03522388E-01    2    -1000015        15   # BR(chi^0_1 -> ~tau^+_1 tau^-)
     3.06575012E-10    2     1000039        22   # BR(chi^0_1 -> ~G photon)
     9.16695712E-11    2     1000039        23   # BR(chi^0_1 -> ~G Z)
     1.88569281E-12    2     1000039        25   # BR(chi^0_1 -> ~G h^0)
DECAY   1000023     1.00991192E+00   # chi^0_2
#    BR                NDA      ID1      ID2
     1.55005830E-02    2     2000011       -11   # BR(chi^0_2 -> ~e^-_R e^+)
     1.55005830E-02    2    -2000011        11   # BR(chi^0_2 -> ~e^+_R e^-)
     6.55101183E-04    2     1000011       -11   # BR(chi^0_2 -> ~e^-_L e^+)
     6.55101183E-04    2    -1000011        11   # BR(chi^0_2 -> ~e^+_L e^-)
     1.63039163E-02    2     2000013       -13   # BR(chi^0_2 -> ~mu^-_R mu^+)
     1.63039163E-02    2    -2000013        13   # BR(chi^0_2 -> ~mu^+_R mu^-)
     6.60005478E-04    2     1000013       -13   # BR(chi^0_2 -> ~mu^-_L mu^+)
     6.60005478E-04    2    -1000013        13   # BR(chi^0_2 -> ~mu^+_L mu^-)
     2.61914775E-01    2     1000015       -15   # BR(chi^0_2 -> ~tau^-_1 tau^+)
     2.61914775E-01    2    -1000015        15   # BR(chi^0_2 -> ~tau^+_1 tau^-)
     2.32824717E-03    2     2000015       -15   # BR(chi^0_2 -> ~tau^-_2 tau^+)
     2.32824717E-03    2    -2000015        15   # BR(chi^0_2 -> ~tau^+_2 tau^-)
     3.65121408E-04    2     1000012       -12   # BR(chi^0_2 -> ~nu_e nu_bar_e)
     3.65121408E-04    2    -1000012        12   # BR(chi^0_2 -> ~nu^*_e nu_e)
     3.65632168E-04    2     1000014       -14   # BR(chi^0_2 -> ~nu_mu nu_bar_mu)
     3.65632168E-04    2    -1000014        14   # BR(chi^0_2 -> ~nu^*_mu nu_mu)
     5.22547337E-04    2     1000016       -16   # BR(chi^0_2 -> ~nu_tau nu_bar_tau)
     5.22547337E-04    2    -1000016        16   # BR(chi^0_2 -> ~nu^*_tau nu_tau)
     1.87915488E-02    2     1000022        23   # BR(chi^0_2 -> chi^0_1 Z)
     3.83950148E-01    2     1000022        25   # BR(chi^0_2 -> chi^0_1 h^0)
     3.74026308E-10    2     1000039        22   # BR(chi^0_2 -> ~G photon)
     1.65006053E-10    2     1000039        23   # BR(chi^0_2 -> ~G Z)
     3.19094169E-09    2     1000039        25   # BR(chi^0_2 -> ~G h^0)
     4.48120822E-07    2     1000022        22   # BR(chi^0_2 -> chi^0_1 photon)
#    BR                NDA      ID1      ID2       ID3
     5.62250537E-09    3     1000022         2        -2   # BR(chi^0_2 -> chi^0_1 u u_bar)
     5.62972346E-09    3     1000022         4        -4   # BR(chi^0_2 -> chi^0_1 c c_bar)
     2.13579127E-09    3     1000022         1        -1   # BR(chi^0_2 -> chi^0_1 d d_bar)
     3.12999707E-09    3     1000022         3        -3   # BR(chi^0_2 -> chi^0_1 s s_bar)
     2.29390013E-06    3     1000022         5        -5   # BR(chi^0_2 -> chi^0_1 b b_bar)
     2.33781460E-06    3     1000022        11       -11   # BR(chi^0_2 -> chi^0_1 e^- e^+)
     2.40776966E-06    3     1000022        13       -13   # BR(chi^0_2 -> chi^0_1 mu^- mu^+)
     1.89369836E-05    3     1000022        15       -15   # BR(chi^0_2 -> chi^0_1 tau^- tau^+)
     2.36528445E-11    3     1000024         1        -2   # BR(chi^0_2 -> chi^+_1 d u_bar)
     2.36528445E-11    3    -1000024        -1         2   # BR(chi^0_2 -> chi^-_1 d_bar u)
     4.23056128E-12    3     1000024         3        -4   # BR(chi^0_2 -> chi^+_1 s c_bar)
     4.23056128E-12    3    -1000024        -3         4   # BR(chi^0_2 -> chi^-_1 s_bar c)
     7.69096273E-12    3     1000024        11       -12   # BR(chi^0_2 -> chi^+_1 e^- nu_bar_e)
     7.69096273E-12    3    -1000024       -11        12   # BR(chi^0_2 -> chi^-_1 e^+ nu_e)
     7.60339064E-12    3     1000024        13       -14   # BR(chi^0_2 -> chi^+_1 mu^- nu_bar_mu)
     7.60339064E-12    3    -1000024       -13        14   # BR(chi^0_2 -> chi^-_1 mu^+ nu_mu)
     1.25763871E-13    3     1000024        15       -16   # BR(chi^0_2 -> chi^+_1 tau^- nu_bar_tau)
     1.25763871E-13    3    -1000024       -15        16   # BR(chi^0_2 -> chi^-_1 tau^+ nu_tau)
DECAY   1000025     9.31831145E-01   # chi^0_3
#    BR                NDA      ID1      ID2
     7.29800655E-04    2     2000011       -11   # BR(chi^0_3 -> ~e^-_R e^+)
     7.29800655E-04    2    -2000011        11   # BR(chi^0_3 -> ~e^+_R e^-)
     4.61186077E-06    2     1000011       -11   # BR(chi^0_3 -> ~e^-_L e^+)
     4.61186077E-06    2    -1000011        11   # BR(chi^0_3 -> ~e^+_L e^-)
     1.60656416E-03    2     2000013       -13   # BR(chi^0_3 -> ~mu^-_R mu^+)
     1.60656416E-03    2    -2000013        13   # BR(chi^0_3 -> ~mu^+_R mu^-)
     1.80363746E-05    2     1000013       -13   # BR(chi^0_3 -> ~mu^-_L mu^+)
     1.80363746E-05    2    -1000013        13   # BR(chi^0_3 -> ~mu^+_L mu^-)
     2.69164151E-01    2     1000015       -15   # BR(chi^0_3 -> ~tau^-_1 tau^+)
     2.69164151E-01    2    -1000015        15   # BR(chi^0_3 -> ~tau^+_1 tau^-)
     4.39630634E-03    2     2000015       -15   # BR(chi^0_3 -> ~tau^-_2 tau^+)
     4.39630634E-03    2    -2000015        15   # BR(chi^0_3 -> ~tau^+_2 tau^-)
     3.65274482E-05    2     1000012       -12   # BR(chi^0_3 -> ~nu_e nu_bar_e)
     3.65274482E-05    2    -1000012        12   # BR(chi^0_3 -> ~nu^*_e nu_e)
     3.65601771E-05    2     1000014       -14   # BR(chi^0_3 -> ~nu_mu nu_bar_mu)
     3.65601771E-05    2    -1000014        14   # BR(chi^0_3 -> ~nu^*_mu nu_mu)
     4.62922986E-05    2     1000016       -16   # BR(chi^0_3 -> ~nu_tau nu_bar_tau)
     4.62922986E-05    2    -1000016        16   # BR(chi^0_3 -> ~nu^*_tau nu_tau)
     4.31043151E-01    2     1000022        23   # BR(chi^0_3 -> chi^0_1 Z)
     1.68487290E-02    2     1000022        25   # BR(chi^0_3 -> chi^0_1 h^0)
     1.91322539E-13    2     1000039        22   # BR(chi^0_3 -> ~G photon)
     7.35636506E-10    2     1000039        23   # BR(chi^0_3 -> ~G Z)
     3.69934882E-09    2     1000039        25   # BR(chi^0_3 -> ~G h^0)
     4.12564699E-07    2     1000022        22   # BR(chi^0_3 -> chi^0_1 photon)
     1.69209384E-09    2     1000023        22   # BR(chi^0_3 -> chi^0_2 photon)
#    BR                NDA      ID1      ID2       ID3
     8.07451168E-11    3     1000022         2        -2   # BR(chi^0_3 -> chi^0_1 u u_bar)
     9.68159167E-11    3     1000022         4        -4   # BR(chi^0_3 -> chi^0_1 c c_bar)
     2.44065573E-11    3     1000022         1        -1   # BR(chi^0_3 -> chi^0_1 d d_bar)
     1.34673992E-09    3     1000022         3        -3   # BR(chi^0_3 -> chi^0_1 s s_bar)
     3.03885627E-06    3     1000022         5        -5   # BR(chi^0_3 -> chi^0_1 b b_bar)
     4.72821399E-08    3     1000022        11       -11   # BR(chi^0_3 -> chi^0_1 e^- e^+)
     1.39535265E-07    3     1000022        13       -13   # BR(chi^0_3 -> chi^0_1 mu^- mu^+)
     2.20900642E-05    3     1000022        15       -15   # BR(chi^0_3 -> chi^0_1 tau^- tau^+)
     9.77879424E-08    3     1000023         2        -2   # BR(chi^0_3 -> chi^0_2 u u_bar)
     9.37139815E-08    3     1000023         4        -4   # BR(chi^0_3 -> chi^0_2 c c_bar)
     1.26926190E-07    3     1000023         1        -1   # BR(chi^0_3 -> chi^0_2 d d_bar)
     1.26878648E-07    3     1000023         3        -3   # BR(chi^0_3 -> chi^0_2 s s_bar)
     6.25904940E-08    3     1000023         5        -5   # BR(chi^0_3 -> chi^0_2 b b_bar)
     2.92024054E-08    3     1000023        11       -11   # BR(chi^0_3 -> chi^0_2 e^- e^+)
     2.91911204E-08    3     1000023        13       -13   # BR(chi^0_3 -> chi^0_2 mu^- mu^+)
     2.58303380E-08    3     1000023        15       -15   # BR(chi^0_3 -> chi^0_2 tau^- tau^+)
     1.74533004E-07    3     1000023        12       -12   # BR(chi^0_3 -> chi^0_2 nu_e nu_bar_e)
     6.62009482E-07    3     1000024         1        -2   # BR(chi^0_3 -> chi^+_1 d u_bar)
     6.62009482E-07    3    -1000024        -1         2   # BR(chi^0_3 -> chi^-_1 d_bar u)
     6.45345988E-07    3     1000024         3        -4   # BR(chi^0_3 -> chi^+_1 s c_bar)
     6.45345988E-07    3    -1000024        -3         4   # BR(chi^0_3 -> chi^-_1 s_bar c)
     2.20424350E-07    3     1000024        11       -12   # BR(chi^0_3 -> chi^+_1 e^- nu_bar_e)
     2.20424350E-07    3    -1000024       -11        12   # BR(chi^0_3 -> chi^-_1 e^+ nu_e)
     2.20423368E-07    3     1000024        13       -14   # BR(chi^0_3 -> chi^+_1 mu^- nu_bar_mu)
     2.20423368E-07    3    -1000024       -13        14   # BR(chi^0_3 -> chi^-_1 mu^+ nu_mu)
     2.09859864E-07    3     1000024        15       -16   # BR(chi^0_3 -> chi^+_1 tau^- nu_bar_tau)
     2.09859864E-07    3    -1000024       -15        16   # BR(chi^0_3 -> chi^-_1 tau^+ nu_tau)
DECAY   1000035     7.52903823E+00   # chi^0_4
#    BR                NDA      ID1      ID2
     1.10359365E-04    2     2000011       -11   # BR(chi^0_4 -> ~e^-_R e^+)
     1.10359365E-04    2    -2000011        11   # BR(chi^0_4 -> ~e^+_R e^-)
     4.12164194E-02    2     1000011       -11   # BR(chi^0_4 -> ~e^-_L e^+)
     4.12164194E-02    2    -1000011        11   # BR(chi^0_4 -> ~e^+_L e^-)
     1.10570524E-04    2     2000013       -13   # BR(chi^0_4 -> ~mu^-_R mu^+)
     1.10570524E-04    2    -2000013        13   # BR(chi^0_4 -> ~mu^+_R mu^-)
     4.12239524E-02    2     1000013       -13   # BR(chi^0_4 -> ~mu^-_L mu^+)
     4.12239524E-02    2    -1000013        13   # BR(chi^0_4 -> ~mu^+_L mu^-)
     2.36449549E-04    2     1000015       -15   # BR(chi^0_4 -> ~tau^-_1 tau^+)
     2.36449549E-04    2    -1000015        15   # BR(chi^0_4 -> ~tau^+_1 tau^-)
     4.33829844E-02    2     2000015       -15   # BR(chi^0_4 -> ~tau^-_2 tau^+)
     4.33829844E-02    2    -2000015        15   # BR(chi^0_4 -> ~tau^+_2 tau^-)
     4.47705699E-02    2     1000012       -12   # BR(chi^0_4 -> ~nu_e nu_bar_e)
     4.47705699E-02    2    -1000012        12   # BR(chi^0_4 -> ~nu^*_e nu_e)
     4.47770832E-02    2     1000014       -14   # BR(chi^0_4 -> ~nu_mu nu_bar_mu)
     4.47770832E-02    2    -1000014        14   # BR(chi^0_4 -> ~nu^*_mu nu_mu)
     4.66178916E-02    2     1000016       -16   # BR(chi^0_4 -> ~nu_tau nu_bar_tau)
     4.66178916E-02    2    -1000016        16   # BR(chi^0_4 -> ~nu^*_tau nu_tau)
     1.33092714E-01    2     1000024       -24   # BR(chi^0_4 -> chi^+_1 W^-)
     1.33092714E-01    2    -1000024        24   # BR(chi^0_4 -> chi^-_1 W^+)
     1.88630305E-04    2     1000022        23   # BR(chi^0_4 -> chi^0_1 Z)
     1.85816545E-03    2     1000023        23   # BR(chi^0_4 -> chi^0_2 Z)
     1.01363891E-01    2     1000025        23   # BR(chi^0_4 -> chi^0_3 Z)
     1.83164429E-03    2     1000022        25   # BR(chi^0_4 -> chi^0_1 h^0)
     1.02891603E-01    2     1000023        25   # BR(chi^0_4 -> chi^0_2 h^0)
     7.50714077E-04    2     1000025        25   # BR(chi^0_4 -> chi^0_3 h^0)
     6.10202299E-10    2     1000039        22   # BR(chi^0_4 -> ~G photon)
     2.65704965E-09    2     1000039        23   # BR(chi^0_4 -> ~G Z)
     1.47366566E-10    2     1000039        25   # BR(chi^0_4 -> ~G h^0)
     2.18632219E-07    2     1000022        22   # BR(chi^0_4 -> chi^0_1 photon)
     8.94931991E-07    2     1000023        22   # BR(chi^0_4 -> chi^0_2 photon)
     8.48710641E-07    2     1000025        22   # BR(chi^0_4 -> chi^0_3 photon)
#    BR                NDA      ID1      ID2       ID3
     3.58264725E-08    3     1000022         2        -2   # BR(chi^0_4 -> chi^0_1 u u_bar)
     3.58225795E-08    3     1000022         4        -4   # BR(chi^0_4 -> chi^0_1 c c_bar)
     1.37959339E-06    3     1000022         6        -6   # BR(chi^0_4 -> chi^0_1 t t_bar)
     4.57147880E-08    3     1000022         1        -1   # BR(chi^0_4 -> chi^0_1 d d_bar)
     4.57142110E-08    3     1000022         3        -3   # BR(chi^0_4 -> chi^0_1 s s_bar)
     5.16355122E-08    3     1000022         5        -5   # BR(chi^0_4 -> chi^0_1 b b_bar)
     6.12084514E-08    3     1000022        11       -11   # BR(chi^0_4 -> chi^0_1 e^- e^+)
     6.11812270E-08    3     1000022        13       -13   # BR(chi^0_4 -> chi^0_1 mu^- mu^+)
     7.81827855E-08    3     1000022        15       -15   # BR(chi^0_4 -> chi^0_1 tau^- tau^+)
     2.89086730E-09    3     1000023         2        -2   # BR(chi^0_4 -> chi^0_2 u u_bar)
     2.88862134E-09    3     1000023         4        -4   # BR(chi^0_4 -> chi^0_2 c c_bar)
     2.15993596E-09    3     1000023         1        -1   # BR(chi^0_4 -> chi^0_2 d d_bar)
     2.25244544E-09    3     1000023         3        -3   # BR(chi^0_4 -> chi^0_2 s s_bar)
     2.17152765E-07    3     1000023         5        -5   # BR(chi^0_4 -> chi^0_2 b b_bar)
     1.04485014E-06    3     1000023        11       -11   # BR(chi^0_4 -> chi^0_2 e^- e^+)
     1.04856642E-06    3     1000023        13       -13   # BR(chi^0_4 -> chi^0_2 mu^- mu^+)
     1.98514015E-06    3     1000023        15       -15   # BR(chi^0_4 -> chi^0_2 tau^- tau^+)
     1.14098782E-06    3     1000023        12       -12   # BR(chi^0_4 -> chi^0_2 nu_e nu_bar_e)
     5.08733770E-12    3     1000025         2        -2   # BR(chi^0_4 -> chi^0_3 u u_bar)
     5.47693074E-12    3     1000025         4        -4   # BR(chi^0_4 -> chi^0_3 c c_bar)
     9.40908813E-12    3     1000025         1        -1   # BR(chi^0_4 -> chi^0_3 d d_bar)
     9.00131294E-11    3     1000025         3        -3   # BR(chi^0_4 -> chi^0_3 s s_bar)
     1.86484548E-07    3     1000025         5        -5   # BR(chi^0_4 -> chi^0_3 b b_bar)
     5.93077431E-10    3     1000025        11       -11   # BR(chi^0_4 -> chi^0_3 e^- e^+)
     3.06737651E-09    3     1000025        13       -13   # BR(chi^0_4 -> chi^0_3 mu^- mu^+)
     6.67141008E-07    3     1000025        15       -15   # BR(chi^0_4 -> chi^0_3 tau^- tau^+)
     1.05139694E-08    3     1000025        12       -12   # BR(chi^0_4 -> chi^0_3 nu_e nu_bar_e)
     1.83349872E-09    3     1000024         1        -2   # BR(chi^0_4 -> chi^+_1 d u_bar)
     1.83349872E-09    3    -1000024        -1         2   # BR(chi^0_4 -> chi^-_1 d_bar u)
     1.95228726E-09    3     1000024         3        -4   # BR(chi^0_4 -> chi^+_1 s c_bar)
     1.95228726E-09    3    -1000024        -3         4   # BR(chi^0_4 -> chi^-_1 s_bar c)
     1.08058661E-05    3     1000024         5        -6   # BR(chi^0_4 -> chi^+_1 b t_bar)
     1.08058661E-05    3    -1000024        -5         6   # BR(chi^0_4 -> chi^-_1 b_bar t)
     6.55395069E-07    3     1000024        11       -12   # BR(chi^0_4 -> chi^+_1 e^- nu_bar_e)
     6.55395069E-07    3    -1000024       -11        12   # BR(chi^0_4 -> chi^-_1 e^+ nu_e)
     6.58959942E-07    3     1000024        13       -14   # BR(chi^0_4 -> chi^+_1 mu^- nu_bar_mu)
     6.58959942E-07    3    -1000024       -13        14   # BR(chi^0_4 -> chi^-_1 mu^+ nu_mu)
     1.51944794E-06    3     1000024        15       -16   # BR(chi^0_4 -> chi^+_1 tau^- nu_bar_tau)
     1.51944794E-06    3    -1000024       -15        16   # BR(chi^0_4 -> chi^-_1 tau^+ nu_tau)
DECAY   1000021     1.37126183E+01   # ~g
#    BR                NDA      ID1      ID2
     4.61593561E-02    2     2000002        -2   # BR(~g -> ~u_R u_bar)
     4.61593561E-02    2    -2000002         2   # BR(~g -> ~u^*_R u)
     1.22326112E-02    2     1000002        -2   # BR(~g -> ~u_L u_bar)
     1.22326112E-02    2    -1000002         2   # BR(~g -> ~u^*_L u)
     4.61592360E-02    2     2000004        -4   # BR(~g -> ~c_R c_bar)
     4.61592360E-02    2    -2000004         4   # BR(~g -> ~c^*_R c)
     1.22340841E-02    2     1000004        -4   # BR(~g -> ~c_L c_bar)
     1.22340841E-02    2    -1000004         4   # BR(~g -> ~c^*_L c)
     2.40551821E-03    2     1000006        -4   # BR(~g -> ~t_1 c_bar)
     2.40551821E-03    2    -1000006         4   # BR(~g -> ~t^*_1 c)
     1.17412898E-01    2     1000006        -6   # BR(~g -> ~t_1 t_bar)
     1.17412898E-01    2    -1000006         6   # BR(~g -> ~t^*_1 t)
     2.68963717E-02    2     2000006        -6   # BR(~g -> ~t_2 t_bar)
     2.68963717E-02    2    -2000006         6   # BR(~g -> ~t^*_2 t)
     4.99579864E-02    2     2000001        -1   # BR(~g -> ~d_R d_bar)
     4.99579864E-02    2    -2000001         1   # BR(~g -> ~d^*_R d)
     1.19381592E-02    2     1000001        -1   # BR(~g -> ~d_L d_bar)
     1.19381592E-02    2    -1000001         1   # BR(~g -> ~d^*_L d)
     4.99649574E-02    2     2000003        -3   # BR(~g -> ~s_R s_bar)
     4.99649574E-02    2    -2000003         3   # BR(~g -> ~s^*_R s)
     1.19401158E-02    2     1000003        -3   # BR(~g -> ~s_L s_bar)
     1.19401158E-02    2    -1000003         3   # BR(~g -> ~s^*_L s)
     6.75741253E-02    2     1000005        -5   # BR(~g -> ~b_1 b_bar)
     6.75741253E-02    2    -1000005         5   # BR(~g -> ~b^*_1 b)
     4.49521377E-02    2     2000005        -5   # BR(~g -> ~b_2 b_bar)
     4.49521377E-02    2    -2000005         5   # BR(~g -> ~b^*_2 b)
     3.03921286E-06    2     1000022        21   # BR(~g -> chi^0_1 g)
     1.45128679E-04    2     1000023        21   # BR(~g -> chi^0_2 g)
     1.75042283E-04    2     1000025        21   # BR(~g -> chi^0_3 g)
     2.16745332E-05    2     1000035        21   # BR(~g -> chi^0_4 g)
DECAY        25     2.64245201E-03   # h^0
#    BR                NDA      ID1      ID2
     9.41581417E-09    2          11       -11   # BR(h^0 -> e^- e^+)
     4.02538334E-04    2          13       -13   # BR(h^0 -> mu^- mu^+)
     1.12722242E-01    2          15       -15   # BR(h^0 -> tau^- tau^+)
     6.43585479E-07    2           1        -1   # BR(h^0 -> d d_bar)
     2.83818817E-04    2           3        -3   # BR(h^0 -> s s_bar)
     6.17380797E-01    2           5        -5   # BR(h^0 -> b b_bar)
     2.52257082E-07    2           2        -2   # BR(h^0 -> u u_bar)
     4.51980339E-02    2           4        -4   # BR(h^0 -> c c_bar)
     6.79791932E-02    2          21        21   # BR(h^0 -> g g)
     3.29300403E-03    2          22        22   # BR(h^0 -> photon photon)
# writing decays into V V* as 3-body decays
#    BR                NDA      ID1      ID2       ID3
     6.99283110E-03    3          24        11        12   # BR(h^0 -> W^+ e^- nu_e)
     6.99283110E-03    3          24        13        14   # BR(h^0 -> W^+ mu^- nu_mu)
     6.99283110E-03    3          24        15        16   # BR(h^0 -> W^+ tau^- nu_tau)
     2.44749088E-02    3          24         1        -2   # BR(h^0 -> W^+ d u_bar)
     2.44749088E-02    3          24         3        -4   # BR(h^0 -> W^+ s c_bar)
     6.99283110E-03    3         -24       -11       -12   # BR(h^0 -> W^- e^+ nu_bar_e)
     6.99283110E-03    3         -24       -13       -14   # BR(h^0 -> W^- mu^+ nu_bar_mu)
     6.99283110E-03    3         -24       -15       -16   # BR(h^0 -> W^- tau^+ nu_bar_tau)
     2.44749088E-02    3         -24        -1         2   # BR(h^0 -> W^- d_bar u)
     2.44749088E-02    3         -24        -3         4   # BR(h^0 -> W^- s_bar c)
     4.50899604E-04    3          23        11       -11   # BR(h^0 -> Z e^- e^+)
     4.50899604E-04    3          23        13       -13   # BR(h^0 -> Z mu^- mu^+)
     3.86485375E-04    3          23        15       -15   # BR(h^0 -> Z tau^- tau^+)
     2.57656917E-03    3          23        12       -12   # BR(h^0 -> Z nu_e nu_bar_e)
     1.80359842E-03    3          23         1        -1   # BR(h^0 -> Z u u_bar)
     1.80359842E-03    3          23         3        -3   # BR(h^0 -> Z c c_bar)
     1.80359842E-03    3          23         5        -5   # BR(h^0 -> Z t t_bar)
     1.80359842E-03    3          23         2        -2   # BR(h^0 -> Z u u_bar)
     1.80359842E-03    3          23         4        -4   # BR(h^0 -> Z c c_bar)
DECAY        35     1.09071013E+01   # H^0
#    BR                NDA      ID1      ID2
     1.44081269E-08    2          11       -11   # BR(H^0 -> e^- e^+)
     6.15993292E-04    2          13       -13   # BR(H^0 -> mu^- mu^+)
     1.74638516E-01    2          15       -15   # BR(H^0 -> tau^- tau^+)
     8.14961241E-07    2           1        -1   # BR(H^0 -> d d_bar)
     3.59397702E-04    2           3        -3   # BR(H^0 -> s s_bar)
     8.19393537E-01    2           5        -5   # BR(H^0 -> b b_bar)
     5.31080250E-13    2           2        -2   # BR(H^0 -> u u_bar)
     9.51756778E-08    2           4        -4   # BR(H^0 -> c c_bar)
     4.72769904E-03    2           6        -6   # BR(H^0 -> t t_bar)
     1.59636388E-06    2     2000011  -2000011   # BR(H^0 -> ~e^-_R ~e^+_R)
     1.60889106E-06    2     2000013  -2000013   # BR(H^0 -> ~mu^-_R ~mu^+_R)
     6.77960348E-06    2     1000015  -1000015   # BR(H^0 -> ~tau^-_1 ~tau^+_1)
     5.78958067E-05    2          23        23   # BR(H^0 -> Z Z)
     1.10656339E-04    2          24       -24   # BR(H^0 -> W^+ W^-)
     4.65812523E-05    2          25        25   # BR(H^0 -> h^0 h^0)
     3.87713414E-05    2          21        21   # BR(H^0 -> g g)
     4.27148694E-08    2          22        22   # BR(H^0 -> photon photon)
DECAY        36     1.09055002E+01   # A^0
#    BR                NDA      ID1      ID2
     1.44113658E-08    2          11       -11   # BR(A^0 -> e^- e^+)
     6.16131791E-04    2          13       -13   # BR(A^0 -> mu^- mu^+)
     1.74680059E-01    2          15       -15   # BR(A^0 -> tau^- tau^+)
     8.15144001E-07    2           1        -1   # BR(A^0 -> d d_bar)
     3.59478263E-04    2           3        -3   # BR(A^0 -> s s_bar)
     8.19585383E-01    2           5        -5   # BR(A^0 -> b b_bar)
     4.71836478E-13    2           2        -2   # BR(A^0 -> u u_bar)
     8.45584722E-08    2           4        -4   # BR(A^0 -> c c_bar)
     4.63178354E-03    2           6        -6   # BR(A^0 -> t t_bar)
     1.08118357E-04    2          25        23   # BR(A^0 -> h^0 Z)
     1.80767228E-05    2          21        21   # BR(A^0 -> g g)
     5.46170712E-08    2          22        22   # BR(A^0 -> photon photon)
DECAY        37     9.39479043E+00   # H^+
#    BR                NDA      ID1      ID2
     1.67926085E-08    2         -11        12   # BR(H^+ -> e^+ nu_e)
     7.17937501E-04    2         -13        12   # BR(H^+ -> mu^+ nu_e)
     2.03543095E-01    2         -15        12   # BR(H^+ -> tau^+ nu_e)
     8.37014389E-07    2          -1         2   # BR(H^+ -> d_bar u)
     3.69208497E-04    2          -3         4   # BR(H^+ -> s_bar c)
     7.95244703E-01    2          -5         6   # BR(H^+ -> b_bar t)
     1.24202875E-04    2          25        24   # BR(H^+ -> h^0 W^+)
DECAY         6     2.43000000E+00   # top
#    BR                NDA      ID1      ID2
     1.00000000E+00    2           5        24   # BR(t -> b W)
Block HiggsBoundsInputHiggsCouplingsFermions
# ScalarNormEffCoupSq PseudoSNormEffCoupSq NP IP1 IP2 IP2
    1.12565526E+00    0.00000000E+00        3  25   5   5  # h0-b-b eff. coupling^2, normalised to SM
    8.99874345E+02    0.00000000E+00        3  35   5   5  # H0-b-b eff. coupling^2, normalised to SM
    0.00000000E+00    9.00000000E+02        3  36   5   5  # A0-b-b eff. coupling^2, normalised to SM
#
    9.99860383E-01    0.00000000E+00        3  25   6   6  # h0-t-t eff. coupling^2, normalised to SM
    1.25072807E-03    0.00000000E+00        3  35   6   6  # H0-t-t eff. coupling^2, normalised to SM
    0.00000000E+00    1.11111111E-03        3  36   6   6  # A0-t-t eff. coupling^2, normalised to SM
#
    1.12565526E+00    0.00000000E+00        3  25  15  15  # h0-tau-tau eff. coupling^2, normalised to SM
    8.99874345E+02    0.00000000E+00        3  35  15  15  # H0-tau-tau eff. coupling^2, normalised to SM
    0.00000000E+00    9.00000000E+02        3  36  15  15  # A0-tau-tau eff. coupling^2, normalised to SM
#
Block HiggsBoundsInputHiggsCouplingsBosons
    9.99995869E-01        3  25  24  24  # h0-W-W eff. coupling^2, normalised to SM
    4.13052575E-06        3  35  24  24  # H0-W-W eff. coupling^2, normalised to SM
    0.00000000E+00        3  36  24  24  # A0-W-W eff. coupling^2, normalised to SM
#
    9.99995869E-01        3  25  23  23  # h0-Z-Z eff. coupling^2, normalised to SM
    4.13052575E-06        3  35  23  23  # H0-Z-Z eff. coupling^2, normalised to SM
    0.00000000E+00        3  36  23  23  # A0-Z-Z eff. coupling^2, normalised to SM
#
    1.16055387E+00        3  25  21  21  # h0-g-g eff. coupling^2, normalised to SM
    1.15357006E-02        3  35  21  21  # H0-g-g eff. coupling^2, normalised to SM
    1.29137772E-01        3  36  21  21  # A0-g-g eff. coupling^2, normalised to SM
#
    0.00000000E+00        3  25  25  23  # h0-h0-Z eff. coupling^2, normalised to SM
    0.00000000E+00        3  35  25  23  # H0-h0-Z eff. coupling^2, normalised to SM
    4.13052575E-06        3  36  25  23  # A0-h0-Z eff. coupling^2, normalised to SM
    0.00000000E+00        3  35  35  23  # H0-H0-Z eff. coupling^2, normalised to SM
    9.99995869E-01        3  36  35  23  # A0-H0-Z eff. coupling^2, normalised to SM
    0.00000000E+00        3  36  36  23  # A0-A0-Z eff. coupling^2, normalised to SM
#
    0.00000000E+00        4  25  21  21  23  # h0-g-g-Z eff. coupling^2, normalised to SM
    0.00000000E+00        4  35  21  21  23  # H0-g-g-Z eff. coupling^2, normalised to SM
    0.00000000E+00        4  36  21  21  23  # A0-g-g-Z eff. coupling^2, normalised to SM
Block SPhenoLowEnergy  # low energy observables
    1    3.14664184E-04   # BR(b -> s gamma)
    2    1.59020854E-06   # BR(b -> s mu+ mu-)
    3    3.53892317E-05   # BR(b -> s nu nu)
    4    5.19623993E-11   # BR(Bd -> mu+ mu-)
    5    3.39607854E-09   # BR(Bs -> mu+ mu-)
    6    1.06901074E-04   # BR(B_u -> tau nu)
    7    9.66614166E-01   # BR(B_u -> tau nu)/BR(B_u -> tau nu)_SM
    8    2.73710019E-01   # |Delta(M_Bd)| [ps^-1] 
    9    2.03042864E+01   # |Delta(M_Bs)| [ps^-1] 
   20    2.18008566E-14   # Delta(g-2)_electron/2
   21    4.71181087E-10   # Delta(g-2)_muon/2
   22    3.67153872E-08   # Delta(g-2)_tau/2
   23    0.00000000E+00   # electric dipole moment of the electron
   24    0.00000000E+00   # electric dipole moment of the muon
   25    0.00000000E+00   # electric dipole moment of the tau
   26    0.00000000E+00   # Br(mu -> e gamma)
   27    0.00000000E+00   # Br(tau -> e gamma)
   28    0.00000000E+00   # Br(tau -> mu gamma)
   29    0.00000000E+00   # Br(mu -> 3 e)
   30    0.00000000E+00   # Br(tau -> 3 e)
   31    0.00000000E+00   # Br(tau -> 3 mu)
   39    7.53023907E-04   # Delta(rho_parameter)
   40    0.00000000E+00   # BR(Z -> e mu)
   41    0.00000000E+00   # BR(Z -> e tau)
   42    0.00000000E+00   # BR(Z -> mu tau)
Block FWCOEF Q=  9.11876000E+01  # Wilson coefficients at scale Q
#    id        order  M        value         comment
Block FWCOEF Q=  1.60000000E+02  # Wilson coefficients at scale Q
#    id        order  M        value         comment
     0305 4422   00   0    -1.87760061E-01   # C7
     0305 4422   00   1    -1.53936085E-02   # C7
     0305 4322   00   1    -3.33744234E-04   # C7'
     0305 6421   00   0    -9.48902295E-02   # C8
     0305 6421   00   1    -2.40730525E-02   # C8
     0305 6321   00   1    -5.15660758E-04   # C8'
 03051111 4133   00   0    -1.18738323E+00   # C9 e+e-
 03051111 4133   00   1     9.32042720E-04   # C9 e+e-
 03051111 4233   00   1    -3.50440577E-05   # C9' e+e-
 03051111 4137   00   0    -3.95186229E+00   # C10 e+e-
 03051111 4137   00   1     3.13179362E-03   # C10 e+e-
 03051111 4237   00   1     8.75096568E-04   # C10' e+e-
 03051313 4133   00   0    -1.18738323E+00   # C9 mu+mu-
 03051313 4133   00   1     9.31933435E-04   # C9 mu+mu-
 03051313 4233   00   1    -3.50486305E-05   # C9' mu+mu-
 03051313 4137   00   0    -3.95186229E+00   # C10 mu+mu-
 03051313 4137   00   1     3.13168415E-03   # C10 mu+mu-
 03051313 4237   00   1     8.75101142E-04   # C10' mu+mu-
 03051212 4237   00   0     1.49018420E+00   # C11 nu_1 nu_1
 03051212 4237   00   1    -7.53920967E-04   # C11 nu_1 nu_1
 03051212 4137   00   1    -2.10100441E-04   # C11' nu_1 nu_1
 03051414 4237   00   0     1.49018420E+00   # C11 nu_2 nu_2
 03051414 4237   00   1    -7.53920889E-04   # C11 nu_2 nu_2
 03051414 4137   00   1    -2.10099355E-04   # C11' nu_2 nu_2
 03051616 4237   00   0     1.49018420E+00   # C11 nu_3 nu_3
 03051616 4237   00   1    -7.53889650E-04   # C11 nu_3 nu_3
 03051616 4137   00   1    -2.09793298E-04   # C11' nu_3 nu_3
