# SUSY Les Houches Accord 2 - MSSM spectrum + Decays
# SPheno v3.1.12 
# W. Porod, Comput. Phys. Commun. 153 (2003) 275-315, hep-ph/0301101
# in case of problems send email to porod@physik.uni-wuerzburg.de
# Created: 09.12.2016,  15:23
Block SPINFO         # Program information
     1   SPheno      # spectrum calculator
     2   v3.1.12     # version number
#
Block SPhenoINFO     # SPheno specific information
    1      2         # using 2-loop RGEs
    2      1         # using running masses for boundary conditions at mZ
Block MODSEL  # Model selection
    1    2    # mGMSB model
Block MINPAR  # Input parameters
    1    1.30000000E+05  # Lambda, scale of SUSY breaking
    2    2.50000000E+05  # M_M, messenger mass scale
    3    5.00000000E+00  # tanb at m_Z   
    4    1.00000000E+00  # Sign(mu)
    5    3.00000000E+00  # N_5 number of effective five-plets
    6    1.00000000E+00  # c_grav, Gravitino mass factor
Block gauge Q=  2.50000000E+05  # (GMSB scale)
   1    4.93144300E-01  # g'(Q)^DRbar
   2    6.47339411E-01  # g(Q)^DRbar
   3    9.35054500E-01  # g3(Q)^DRbar
Block SMINPUTS  # SM parameters
         1     1.27932436E+02  # alpha_em^-1(MZ)^MSbar
         2     1.16639000E-05  # G_mu [GeV^-2]
         3     1.17200000E-01  # alpha_s(MZ)^MSbar
         4     9.11876000E+01  # m_Z(pole)
         5     4.20000000E+00  # m_b(m_b), MSbar
         6     1.72500000E+02  # m_t(pole)
         7     1.77700000E+00  # m_tau(pole)
         8     0.00000000E+00  # m_nu_3
        11     5.10998910E-04  # m_e(pole)
        12     0.00000000E+00  # m_nu_1
        13     1.05658000E-01  # m_muon(pole)
        14     0.00000000E+00  # m_nu_2
        21     5.00000000E-03  # m_d(2 GeV), MSbar
        22     3.00000000E-03  # m_u(2 GeV), MSbar
        23     1.05000000E-01  # m_s(2 GeV), MSbar
        24     1.27000000E+00  # m_c(m_c), MSbar
Block gauge Q=  2.45914687E+03  # (SUSY scale)
   1    3.64958487E-01  # g'(Q)^DRbar
   2    6.38124677E-01  # g(Q)^DRbar
   3    1.01346587E+00  # g3(Q)^DRbar
Block Yu Q=  2.45914687E+03  # (SUSY scale)
  1  1     8.48901752E-06   # Y_u(Q)^DRbar
  2  2     3.59368447E-03   # Y_c(Q)^DRbar
  3  3     8.53474544E-01   # Y_t(Q)^DRbar
Block Yd Q=  2.45914687E+03  # (SUSY scale)
  1  1     6.65793758E-05   # Y_d(Q)^DRbar
  2  2     1.39816641E-03   # Y_s(Q)^DRbar
  3  3     6.55236473E-02   # Y_b(Q)^DRbar
Block Ye Q=  2.45914687E+03  # (SUSY scale)
  1  1     1.43508479E-05   # Y_e(Q)^DRbar
  2  2     2.96729019E-03   # Y_mu(Q)^DRbar
  3  3     4.99067213E-02   # Y_tau(Q)^DRbar
Block Au Q=  2.45914687E+03  # (SUSY scale)
  1  1    -7.54310611E+02   # A_u(Q)^DRbar
  2  2    -7.54309813E+02   # A_c(Q)^DRbar
  3  3    -7.11905883E+02   # A_t(Q)^DRbar
Block Ad Q=  2.45914687E+03  # (SUSY scale)
  1  1    -8.04096317E+02   # A_d(Q)^DRbar
  2  2    -8.04095950E+02   # A_s(Q)^DRbar
  3  3    -7.90073355E+02   # A_b(Q)^DRbar
Block Ae Q=  2.45914687E+03  # (SUSY scale)
  1  1    -9.03739424E+01   # A_e(Q)^DRbar
  2  2    -9.03738652E+01   # A_mu(Q)^DRbar
  3  3    -9.03520788E+01   # A_tau(Q)^DRbar
Block MSOFT Q=  2.45914687E+03  # soft SUSY breaking masses at Q
   1    5.72551186E+02  # M_1
   2    1.04685304E+03  # M_2
   3    2.65186787E+03  # M_3
  21    6.46391397E+05  # M^2_(H,d)
  22   -6.29156718E+05  # M^2_(H,u)
  31    8.08862786E+02  # M_(L,11)
  32    8.08862366E+02  # M_(L,22)
  33    8.08743794E+02  # M_(L,33)
  34    3.92593471E+02  # M_(E,11)
  35    3.92591708E+02  # M_(E,22)
  36    3.92094432E+02  # M_(E,33)
  41    2.55616963E+03  # M_(Q,11)
  42    2.55616804E+03  # M_(Q,22)
  43    2.47829839E+03  # M_(Q,33)
  44    2.45043059E+03  # M_(U,11)
  45    2.45042769E+03  # M_(U,22)
  46    2.28282170E+03  # M_(U,33)
  47    2.44008383E+03  # M_(D,11)
  48    2.44008338E+03  # M_(D,22)
  49    2.43909721E+03  # M_(D,33)
Block MASS  # Mass spectrum
#   PDG code      mass          particle
         6     1.72500000E+02  # m_t(pole)
        23     9.11876000E+01  # m_Z(pole)
        24     8.03167085E+01  # W+
        15     1.77700000E+00  # m_tau(pole)
        25     1.15137756E+02  # h0
        35     1.25776443E+03  # H0
        36     1.25690059E+03  # A0
        37     1.25969276E+03  # H+
   1000001     2.66160247E+03  # ~d_L
   2000001     2.53932205E+03  # ~d_R
   1000002     2.66049647E+03  # ~u_L
   2000002     2.54890331E+03  # ~u_R
   1000003     2.66160057E+03  # ~s_L
   2000003     2.53932147E+03  # ~s_R
   1000004     2.66049479E+03  # ~c_L
   2000004     2.54889975E+03  # ~c_R
   1000005     2.53789076E+03  # ~b_1
   2000005     2.56724620E+03  # ~b_2
   1000006     2.34880350E+03  # ~t_1
   2000006     2.57467023E+03  # ~t_2
   1000011     8.26914919E+02  # ~e_L-
   2000011     4.08798195E+02  # ~e_R-
   1000012     8.22981734E+02  # ~nu_eL
   1000013     8.26914603E+02  # ~mu_L-
   2000013     4.08795454E+02  # ~mu_R-
   1000014     8.22981140E+02  # ~nu_muL
   1000015     4.08022478E+02  # ~tau_1-
   2000015     8.26825314E+02  # ~tau_2-
   1000016     8.22813690E+02  # ~nu_tauL
   1000021     2.78505716E+03  # ~g
   1000022     5.56217661E+02  # ~chi_10
   1000023     8.98410391E+02  # ~chi_20
   1000025    -9.20390706E+02  # ~chi_30
   1000035     1.09312862E+03  # ~chi_40
   1000024     8.95617974E+02  # ~chi_1+
   1000037     1.09311977E+03  # ~chi_2+
   1000039     7.80000000E-09  # ~G
# Higgs mixing
Block alpha # Effective Higgs mixing angle
          -2.10033615E-01   # alpha
Block Hmix Q=  2.45914687E+03  # Higgs mixing parameters
   1    9.08885124E+02  # mu
   2    4.75609637E+00  # tan[beta](Q)
   3    2.43631753E+02  # v(Q)
   4    1.38552367E+06  # m^2_A(Q)
Block stopmix # stop mixing matrix
   1  1     1.40126371E-01   # Re[R_st(1,1)]
   1  2     9.90133627E-01   # Re[R_st(1,2)]
   2  1    -9.90133627E-01   # Re[R_st(2,1)]
   2  2     1.40126371E-01   # Re[R_st(2,2)]
Block sbotmix # sbottom mixing matrix
   1  1     8.84328043E-02   # Re[R_sb(1,1)]
   1  2     9.96082145E-01   # Re[R_sb(1,2)]
   2  1    -9.96082145E-01   # Re[R_sb(2,1)]
   2  2     8.84328043E-02   # Re[R_sb(2,2)]
Block staumix # stau mixing matrix
   1  1     1.55050900E-02   # Re[R_sta(1,1)]
   1  2     9.99879789E-01   # Re[R_sta(1,2)]
   2  1    -9.99879789E-01   # Re[R_sta(2,1)]
   2  2     1.55050900E-02   # Re[R_sta(2,2)]
Block Nmix # neutralino mixing matrix
   1  1    -9.94282938E-01   # Re[N(1,1)]
   1  2     1.19450584E-02   # Re[N(1,2)]
   1  3    -8.59141507E-02   # Re[N(1,3)]
   1  4     6.22696881E-02   # Re[N(1,4)]
   2  1     1.02315303E-01   # Re[N(2,1)]
   2  2     3.54797991E-01   # Re[N(2,2)]
   2  3    -6.62125808E-01   # Re[N(2,3)]
   2  4     6.52103810E-01   # Re[N(2,4)]
   3  1     1.64302119E-02   # Re[N(3,1)]
   3  2    -2.17981519E-02   # Re[N(3,2)]
   3  3    -7.06058294E-01   # Re[N(3,3)]
   3  4    -7.07627426E-01   # Re[N(3,4)]
   4  1    -2.57500812E-02   # Re[N(4,1)]
   4  2     9.34612509E-01   # Re[N(4,2)]
   4  3     2.35986987E-01   # Re[N(4,3)]
   4  4    -2.64851909E-01   # Re[N(4,4)]
Block Umix # chargino mixing matrix
   1  1    -3.33000723E-01   # Re[U(1,1)]
   1  2     9.42926571E-01   # Re[U(1,2)]
   2  1     9.42926571E-01   # Re[U(2,1)]
   2  2     3.33000723E-01   # Re[U(2,2)]
Block Vmix # chargino mixing matrix
   1  1    -3.73726746E-01   # Re[V(1,1)]
   1  2     9.27538851E-01   # Re[V(1,2)]
   2  1     9.27538851E-01   # Re[V(2,1)]
   2  2     3.73726746E-01   # Re[V(2,2)]
DECAY   2000011     2.15034562E-10   # ~e^-_R
#    BR                NDA      ID1      ID2
     1.00000000E+00    2     1000039        11   # BR(~e^-_R -> ~G e^-)
DECAY   1000011     3.11229041E-01   # ~e^-_L
#    BR                NDA      ID1      ID2
     9.99999967E-01    2     1000022        11   # BR(~e^-_L -> chi^0_1 e^-)
     4.65094619E-09    2     2000011        23   # BR(~e^-_L -> ~e^-_R Z)
     4.74175721E-09    2     2000011        25   # BR(~e^-_L -> ~e^-_R h^0)
     2.33984692E-08    2     1000039        11   # BR(~e^-_L -> ~G e^-)
DECAY   2000013     2.15027298E-10   # ~mu^-_R
#    BR                NDA      ID1      ID2
     1.00000000E+00    2     1000039        13   # BR(~mu^-_R -> ~G mu^-)
DECAY   1000013     3.11353854E-01   # ~mu^-_L
#    BR                NDA      ID1      ID2
     9.99598572E-01    2     1000022        13   # BR(~mu^-_L -> chi^0_1 mu^-)
     1.98762393E-04    2     2000013        23   # BR(~mu^-_L -> ~mu^-_R Z)
     2.02642598E-04    2     2000013        25   # BR(~mu^-_L -> ~mu^-_R h^0)
     2.33890431E-08    2     1000039        13   # BR(~mu^-_L -> ~G mu^-)
DECAY   1000015     2.12985931E-10   # ~tau^-_1
#    BR                NDA      ID1      ID2
     1.00000000E+00    2     1000039        15   # BR(~tau^-_1 -> ~G tau^-)
DECAY   2000015     3.46567740E-01   # ~tau^-_2
#    BR                NDA      ID1      ID2
     8.97898052E-01    2     1000022        15   # BR(~tau^-_2 -> chi^0_1 tau^-)
     5.05817970E-02    2     1000015        23   # BR(~tau^-_2 -> ~tau^-_1 Z)
     5.15201297E-02    2     1000015        25   # BR(~tau^-_2 -> ~tau^-_1 h^0)
     2.10008120E-08    2     1000039        15   # BR(~tau^-_2 -> ~G tau^-)
DECAY   1000012     3.31590242E-01   # ~nu_e
#    BR                NDA      ID1      ID2
     9.99999970E-01    2     1000022        12   # BR(~nu_e -> chi^0_1 nu_e)
     8.42771906E-09    2     2000011        24   # BR(~nu_e -> ~e^-_R W^+)
     2.14443389E-08    2     1000039        12   # BR(~nu_e -> ~G nu_e)
DECAY   1000014     3.31708670E-01   # ~nu_mu
#    BR                NDA      ID1      ID2
     9.99639797E-01    2     1000022        14   # BR(~nu_mu -> chi^0_1 nu_mu)
     3.60181662E-04    2     2000013        24   # BR(~nu_mu -> ~mu^-_R W^+)
     2.14366053E-08    2     1000039        14   # BR(~nu_mu -> ~G nu_mu)
DECAY   1000016     3.65129236E-01   # ~nu_tau
#    BR                NDA      ID1      ID2
     9.07335742E-01    2     1000022        16   # BR(~nu_tau -> chi^0_1 nu_tau)
     9.26642384E-02    2     1000015        24   # BR(~nu_tau -> ~tau^-_1 W^+)
     1.94546920E-08    2     1000039        16   # BR(~nu_tau -> ~G nu_tau)
DECAY   2000001     1.35272964E+00   # ~d_R
#    BR                NDA      ID1      ID2
     9.90430698E-01    2     1000022         1   # BR(~d_R -> chi^0_1 d)
     8.85602895E-03    2     1000023         1   # BR(~d_R -> chi^0_2 d)
     2.25207094E-04    2     1000025         1   # BR(~d_R -> chi^0_3 d)
     4.86463908E-04    2     1000035         1   # BR(~d_R -> chi^0_4 d)
     1.29269146E-07    2    -1000024         2   # BR(~d_R -> chi^-_1 u)
     2.31998714E-09    2    -1000037         2   # BR(~d_R -> chi^-_2 u)
     1.47008123E-06    2     1000039         1   # BR(~d_R -> ~G d)
DECAY   1000001     2.30629048E+01   # ~d_L
#    BR                NDA      ID1      ID2
     1.73575470E-02    2     1000022         1   # BR(~d_L -> chi^0_1 d)
     4.12589055E-02    2     1000023         1   # BR(~d_L -> chi^0_2 d)
     2.25209879E-04    2     1000025         1   # BR(~d_L -> chi^0_3 d)
     2.85163128E-01    2     1000035         1   # BR(~d_L -> chi^0_4 d)
     8.15235955E-02    2    -1000024         2   # BR(~d_L -> chi^-_1 u)
     5.74471505E-01    2    -1000037         2   # BR(~d_L -> chi^-_2 u)
     8.44370218E-13    2     2000002       -24   # BR(~d_L -> ~u_R W^-)
     2.43782406E-11    2     2000001        23   # BR(~d_L -> ~d_R Z)
     2.38106619E-11    2     2000001        25   # BR(~d_L -> ~d_R h^0)
     1.09085085E-07    2     1000039         1   # BR(~d_L -> ~G d)
DECAY   2000003     1.35288397E+00   # ~s_R
#    BR                NDA      ID1      ID2
     9.90318691E-01    2     1000022         3   # BR(~s_R -> chi^0_1 s)
     8.88268624E-03    2     1000023         3   # BR(~s_R -> chi^0_2 s)
     2.52230513E-04    2     1000025         3   # BR(~s_R -> chi^0_3 s)
     4.86898266E-04    2     1000035         3   # BR(~s_R -> chi^0_4 s)
     5.70011819E-05    2    -1000024         4   # BR(~s_R -> chi^-_1 c)
     1.02297056E-06    2    -1000037         4   # BR(~s_R -> chi^-_2 c)
     1.46991186E-06    2     1000039         3   # BR(~s_R -> ~G s)
DECAY   1000003     2.30634790E+01   # ~s_L
#    BR                NDA      ID1      ID2
     1.73570809E-02    2     1000022         3   # BR(~s_L -> chi^0_1 s)
     4.12591576E-02    2     1000023         3   # BR(~s_L -> chi^0_2 s)
     2.26954658E-04    2     1000025         3   # BR(~s_L -> chi^0_3 s)
     2.85155989E-01    2     1000035         3   # BR(~s_L -> chi^0_4 s)
     8.15401079E-02    2    -1000024         4   # BR(~s_L -> chi^-_1 c)
     5.74460428E-01    2    -1000037         4   # BR(~s_L -> chi^-_2 c)
     1.51324895E-07    2     2000004       -24   # BR(~s_L -> ~c_R W^-)
     1.07499908E-08    2     2000003        23   # BR(~s_L -> ~s_R Z)
     1.04992341E-08    2     2000003        25   # BR(~s_L -> ~s_R h^0)
     1.09081978E-07    2     1000039         3   # BR(~s_L -> ~G s)
DECAY   1000005     2.04680857E+00   # ~b_1
#    BR                NDA      ID1      ID2
     6.56892090E-01    2     1000022         5   # BR(~b_1 -> chi^0_1 b)
     6.40257888E-02    2     1000023         5   # BR(~b_1 -> chi^0_2 b)
     3.78558783E-02    2     1000025         5   # BR(~b_1 -> chi^0_3 b)
     8.13099990E-03    2     1000035         5   # BR(~b_1 -> chi^0_4 b)
     2.00510097E-01    2    -1000024         6   # BR(~b_1 -> chi^-_1 t)
     3.08979641E-02    2    -1000037         6   # BR(~b_1 -> chi^-_2 t)
     1.68621300E-03    2     1000006       -24   # BR(~b_1 -> ~t_1 W^-)
     9.68826612E-07    2     1000039         5   # BR(~b_1 -> ~G b)
DECAY   2000005     4.99852831E+01   # ~b_2
#    BR                NDA      ID1      ID2
     7.61382495E-03    2     1000022         5   # BR(~b_2 -> chi^0_1 b)
     1.85343986E-02    2     1000023         5   # BR(~b_2 -> chi^0_2 b)
     1.84588123E-03    2     1000025         5   # BR(~b_2 -> chi^0_3 b)
     1.23097315E-01    2     1000035         5   # BR(~b_2 -> chi^0_4 b)
     5.03890461E-01    2    -1000024         6   # BR(~b_2 -> chi^-_1 t)
     3.30618319E-01    2    -1000037         6   # BR(~b_2 -> chi^-_2 t)
     1.43997578E-02    2     1000006       -24   # BR(~b_2 -> ~t_1 W^-)
     4.20198231E-08    2     1000039         5   # BR(~b_2 -> ~G b)
DECAY   2000002     5.43551202E+00   # ~u_R
#    BR                NDA      ID1      ID2
     9.90418220E-01    2     1000022         2   # BR(~u_R -> chi^0_1 u)
     8.86817299E-03    2     1000023         2   # BR(~u_R -> chi^0_2 u)
     2.25483779E-04    2     1000025         2   # BR(~u_R -> chi^0_3 u)
     4.87749743E-04    2     1000035         2   # BR(~u_R -> chi^0_4 u)
     5.25671162E-10    2     1000024         1   # BR(~u_R -> chi^+_1 d)
     1.32504643E-11    2     1000037         1   # BR(~u_R -> chi^+_2 d)
     3.72811900E-07    2     1000039         2   # BR(~u_R -> ~G u)
DECAY   1000002     2.31111247E+01   # ~u_L
#    BR                NDA      ID1      ID2
     1.34508523E-02    2     1000022         2   # BR(~u_L -> chi^0_1 u)
     5.12787401E-02    2     1000023         2   # BR(~u_L -> chi^0_2 u)
     1.25901725E-04    2     1000025         2   # BR(~u_L -> chi^0_3 u)
     2.78441943E-01    2     1000035         2   # BR(~u_L -> chi^0_4 u)
     1.02405091E-01    2     1000024         1   # BR(~u_L -> chi^+_1 d)
     5.54297363E-01    2     1000037         1   # BR(~u_L -> chi^+_2 d)
     6.53276840E-11    2     2000001        24   # BR(~u_L -> ~d_R W^+)
     2.33758469E-13    2     2000002        23   # BR(~u_L -> ~u_R Z)
     1.08631500E-07    2     1000039         2   # BR(~u_L -> ~G u)
DECAY   2000004     5.43653079E+00   # ~c_R
#    BR                NDA      ID1      ID2
     9.90230492E-01    2     1000022         4   # BR(~c_R -> chi^0_1 c)
     8.91206993E-03    2     1000023         4   # BR(~c_R -> chi^0_2 c)
     2.71757973E-04    2     1000025         4   # BR(~c_R -> chi^0_3 c)
     4.88744998E-04    2     1000035         4   # BR(~c_R -> chi^0_4 c)
     9.41878980E-05    2     1000024         3   # BR(~c_R -> chi^+_1 s)
     2.37426972E-06    2     1000037         3   # BR(~c_R -> chi^+_2 s)
     3.72739069E-07    2     1000039         4   # BR(~c_R -> ~G c)
DECAY   1000004     2.31116648E+01   # ~c_L
#    BR                NDA      ID1      ID2
     1.34506591E-02    2     1000022         4   # BR(~c_L -> chi^0_1 c)
     5.12853547E-02    2     1000023         4   # BR(~c_L -> chi^0_2 c)
     1.37248356E-04    2     1000025         4   # BR(~c_L -> chi^0_3 c)
     2.78438132E-01    2     1000035         4   # BR(~c_L -> chi^0_4 c)
     1.02402030E-01    2     1000024         3   # BR(~c_L -> chi^+_1 s)
     5.54286397E-01    2     1000037         3   # BR(~c_L -> chi^+_2 s)
     2.88080390E-08    2     2000003        24   # BR(~c_L -> ~s_R W^+)
     4.18959339E-08    2     2000004        23   # BR(~c_L -> ~c_R Z)
     1.08628519E-07    2     1000039         4   # BR(~c_L -> ~G c)
DECAY   1000006     5.34564105E+01   # ~t_1
#    BR                NDA      ID1      ID2
     6.48937637E-10    2     1000022         4   # BR(~t_1 -> chi^0_1 c)
     9.27164083E-02    2     1000022         6   # BR(~t_1 -> chi^0_1 t)
     2.35749864E-09    2     1000023         4   # BR(~t_1 -> chi^0_2 c)
     2.06431178E-01    2     1000023         6   # BR(~t_1 -> chi^0_2 t)
     2.31047763E-01    2     1000025         6   # BR(~t_1 -> chi^0_3 t)
     1.42811156E-02    2     1000035         6   # BR(~t_1 -> chi^0_4 t)
     4.26417023E-01    2     1000024         5   # BR(~t_1 -> chi^+_1 b)
     2.90981532E-02    2     1000037         5   # BR(~t_1 -> chi^+_2 b)
     2.46491485E-08    2     1000039         6   # BR(~t_1 -> ~G t)
#    BR                NDA      ID1      ID2       ID3
     8.33120930E-06    3     1000022        24         5   # BR(~t_1 -> chi^0_1 W^+ b)
DECAY   2000006     5.04296705E+01   # ~t_2
#    BR                NDA      ID1      ID2
     6.92845093E-03    2     1000022         6   # BR(~t_2 -> chi^0_1 t)
     2.41419929E-01    2     1000023         6   # BR(~t_2 -> chi^0_2 t)
     2.72928860E-01    2     1000025         6   # BR(~t_2 -> chi^0_3 t)
     1.78144446E-01    2     1000035         6   # BR(~t_2 -> chi^0_4 t)
     1.52229725E-02    2     1000024         5   # BR(~t_2 -> chi^+_1 b)
     2.71881376E-01    2     1000037         5   # BR(~t_2 -> chi^+_2 b)
     7.60905902E-03    2     1000006        23   # BR(~t_2 -> ~t_1 Z)
     5.86486559E-03    2     1000006        25   # BR(~t_2 -> ~t_1 h^0)
     4.15020806E-08    2     1000039         6   # BR(~t_2 -> ~G t)
DECAY   1000024     6.40734537E-01   # chi^+_1
#    BR                NDA      ID1      ID2
     1.82710118E-09    2    -2000011        12   # BR(chi^+_1 -> ~e^+_R nu_e)
     1.36660242E-02    2    -1000011        12   # BR(chi^+_1 -> ~e^+_L nu_e)
     7.81142123E-05    2    -2000013        14   # BR(chi^+_1 -> ~mu^+_R nu_mu)
     1.36658014E-02    2    -1000013        14   # BR(chi^+_1 -> ~mu^+_L nu_mu)
     2.21332005E-02    2    -1000015        16   # BR(chi^+_1 -> ~tau^+_1 nu_tau)
     1.36030638E-02    2    -2000015        16   # BR(chi^+_1 -> ~tau^+_2 nu_tau)
     1.91526657E-02    2     1000012       -11   # BR(chi^+_1 -> ~nu_e e^+)
     1.91562647E-02    2     1000014       -13   # BR(chi^+_1 -> ~nu_mu mu^+)
     2.01743045E-02    2     1000016       -15   # BR(chi^+_1 -> ~nu_tau tau^+)
     8.76212327E-01    2     1000022        24   # BR(chi^+_1 -> chi^0_1 W^+)
#    BR                NDA      ID1      ID2       ID3
     1.87518997E-08    3     1000022        -1         2   # BR(chi^+_1 -> chi^0_1 d_bar u)
     1.88102584E-08    3     1000022        -3         4   # BR(chi^+_1 -> chi^0_1 s_bar c)
     2.15683715E-03    3     1000022        -5         6   # BR(chi^+_1 -> chi^0_1 b_bar t)
     1.12390476E-13    3     1000022       -11        12   # BR(chi^+_1 -> chi^0_1 e^+ nu_e)
     4.80493050E-09    3     1000022       -13        14   # BR(chi^+_1 -> chi^0_1 mu^+ nu_mu)
     1.35230902E-06    3     1000022       -15        16   # BR(chi^+_1 -> chi^0_1 tau^+ nu_tau)
DECAY   1000037     8.35647000E+00   # chi^+_2
#    BR                NDA      ID1      ID2
     4.22026328E-12    2    -2000011        12   # BR(chi^+_2 -> ~e^+_R nu_e)
     8.61967613E-02    2    -1000011        12   # BR(chi^+_2 -> ~e^+_L nu_e)
     1.80430095E-07    2    -2000013        14   # BR(chi^+_2 -> ~mu^+_R nu_mu)
     8.61971258E-02    2    -1000013        14   # BR(chi^+_2 -> ~mu^+_L nu_mu)
     5.11891918E-05    2    -1000015        16   # BR(chi^+_2 -> ~tau^+_1 nu_tau)
     8.62998911E-02    2    -2000015        16   # BR(chi^+_2 -> ~tau^+_2 nu_tau)
     8.55377533E-02    2     1000012       -11   # BR(chi^+_2 -> ~nu_e e^+)
     8.55381826E-02    2     1000014       -13   # BR(chi^+_2 -> ~nu_mu mu^+)
     8.56592560E-02    2     1000016       -15   # BR(chi^+_2 -> ~nu_tau tau^+)
     4.25089824E-03    2     1000022        24   # BR(chi^+_2 -> chi^0_1 W^+)
     1.43948336E-01    2     1000023        24   # BR(chi^+_2 -> chi^0_2 W^+)
     1.05842138E-01    2     1000025        24   # BR(chi^+_2 -> chi^0_3 W^+)
     1.37687726E-01    2     1000024        23   # BR(chi^+_2 -> chi^+_1 Z)
     9.27505399E-02    2     1000024        25   # BR(chi^+_2 -> chi^+_1 h^0)
#    BR                NDA      ID1      ID2       ID3
     2.39511311E-09    3     1000024         2        -2   # BR(chi^+_2 -> chi^+_1 u u_bar)
     2.39333475E-09    3     1000024         4        -4   # BR(chi^+_2 -> chi^+_1 c c_bar)
     2.92477904E-09    3     1000024         1        -1   # BR(chi^+_2 -> chi^+_1 d d_bar)
     2.92576753E-09    3     1000024         3        -3   # BR(chi^+_2 -> chi^+_1 s s_bar)
     7.17032462E-09    3     1000024         5        -5   # BR(chi^+_2 -> chi^+_1 b b_bar)
     4.37969774E-07    3     1000024        11       -11   # BR(chi^+_2 -> chi^+_1 e^- e^+)
     4.38020848E-07    3     1000024        13       -13   # BR(chi^+_2 -> chi^+_1 mu^- mu^+)
     4.47488453E-07    3     1000024        15       -15   # BR(chi^+_2 -> chi^+_1 tau^- tau^+)
     1.13084734E-06    3     1000024        12       -12   # BR(chi^+_2 -> chi^+_1 nu_e nu_bar_e)
     8.24510714E-08    3     1000022        -1         2   # BR(chi^+_2 -> chi^0_1 d_bar u)
     8.24484529E-08    3     1000022        -3         4   # BR(chi^+_2 -> chi^0_1 s_bar c)
     3.45915409E-05    3     1000022        -5         6   # BR(chi^+_2 -> chi^0_1 b_bar t)
     3.23388607E-11    3     1000022       -13        14   # BR(chi^+_2 -> chi^0_1 mu^+ nu_mu)
     9.13018323E-09    3     1000022       -15        16   # BR(chi^+_2 -> chi^0_1 tau^+ nu_tau)
     1.27330434E-09    3     1000023        -1         2   # BR(chi^+_2 -> chi^0_2 d_bar u)
     1.27370545E-09    3     1000023        -3         4   # BR(chi^+_2 -> chi^0_2 s_bar c)
     2.09619486E-06    3     1000023        -5         6   # BR(chi^+_2 -> chi^0_2 b_bar t)
     2.25261777E-07    3     1000023       -11        12   # BR(chi^+_2 -> chi^0_2 e^+ nu_e)
     2.25281096E-07    3     1000023       -13        14   # BR(chi^+_2 -> chi^0_2 mu^+ nu_mu)
     2.27697165E-07    3     1000023       -15        16   # BR(chi^+_2 -> chi^0_2 tau^+ nu_tau)
     8.18060631E-12    3     1000025        -1         2   # BR(chi^+_2 -> chi^0_3 d_bar u)
     8.57022721E-12    3     1000025        -3         4   # BR(chi^+_2 -> chi^0_3 s_bar c)
     1.02142229E-09    3     1000025       -11        12   # BR(chi^+_2 -> chi^0_3 e^+ nu_e)
     1.03564329E-09    3     1000025       -13        14   # BR(chi^+_2 -> chi^0_3 mu^+ nu_mu)
     4.99055035E-09    3     1000025       -15        16   # BR(chi^+_2 -> chi^0_3 tau^+ nu_tau)
DECAY   1000022     1.85406931E+00   # chi^0_1
#    BR                NDA      ID1      ID2
     1.66171039E-01    2     2000011       -11   # BR(chi^0_1 -> ~e^-_R e^+)
     1.66171039E-01    2    -2000011        11   # BR(chi^0_1 -> ~e^+_R e^-)
     1.66176266E-01    2     2000013       -13   # BR(chi^0_1 -> ~mu^-_R mu^+)
     1.66176266E-01    2    -2000013        13   # BR(chi^0_1 -> ~mu^+_R mu^-)
     1.67652695E-01    2     1000015       -15   # BR(chi^0_1 -> ~tau^-_1 tau^+)
     1.67652695E-01    2    -1000015        15   # BR(chi^0_1 -> ~tau^+_1 tau^-)
     3.97365530E-10    2     1000039        22   # BR(chi^0_1 -> ~G photon)
     1.16876072E-10    2     1000039        23   # BR(chi^0_1 -> ~G Z)
     3.35325739E-12    2     1000039        25   # BR(chi^0_1 -> ~G h^0)
DECAY   1000023     8.08747987E-01   # chi^0_2
#    BR                NDA      ID1      ID2
     1.93755934E-02    2     2000011       -11   # BR(chi^0_2 -> ~e^-_R e^+)
     1.93755934E-02    2    -2000011        11   # BR(chi^0_2 -> ~e^+_R e^-)
     8.97643928E-03    2     1000011       -11   # BR(chi^0_2 -> ~e^-_L e^+)
     8.97643928E-03    2    -1000011        11   # BR(chi^0_2 -> ~e^+_L e^-)
     1.94056402E-02    2     2000013       -13   # BR(chi^0_2 -> ~mu^-_R mu^+)
     1.94056402E-02    2    -2000013        13   # BR(chi^0_2 -> ~mu^+_R mu^-)
     8.97766888E-03    2     1000013       -13   # BR(chi^0_2 -> ~mu^-_L mu^+)
     8.97766888E-03    2    -1000013        13   # BR(chi^0_2 -> ~mu^+_L mu^-)
     2.78924451E-02    2     1000015       -15   # BR(chi^0_2 -> ~tau^-_1 tau^+)
     2.78924451E-02    2    -1000015        15   # BR(chi^0_2 -> ~tau^+_1 tau^-)
     9.32466848E-03    2     2000015       -15   # BR(chi^0_2 -> ~tau^-_2 tau^+)
     9.32466848E-03    2    -2000015        15   # BR(chi^0_2 -> ~tau^+_2 tau^-)
     5.11075508E-03    2     1000012       -12   # BR(chi^0_2 -> ~nu_e nu_bar_e)
     5.11075508E-03    2    -1000012        12   # BR(chi^0_2 -> ~nu^*_e nu_e)
     5.11083206E-03    2     1000014       -14   # BR(chi^0_2 -> ~nu_mu nu_bar_mu)
     5.11083206E-03    2    -1000014        14   # BR(chi^0_2 -> ~nu^*_mu nu_mu)
     5.13255021E-03    2     1000016       -16   # BR(chi^0_2 -> ~nu_tau nu_bar_tau)
     5.13255021E-03    2    -1000016        16   # BR(chi^0_2 -> ~nu^*_tau nu_tau)
     1.97128500E-02    2     1000022        23   # BR(chi^0_2 -> chi^0_1 Z)
     7.61660871E-01    2     1000022        25   # BR(chi^0_2 -> chi^0_1 h^0)
     9.56937109E-10    2     1000039        22   # BR(chi^0_2 -> ~G photon)
     2.21415766E-10    2     1000039        23   # BR(chi^0_2 -> ~G Z)
     8.20220397E-09    2     1000039        25   # BR(chi^0_2 -> ~G h^0)
     5.38586078E-07    2     1000022        22   # BR(chi^0_2 -> chi^0_1 photon)
#    BR                NDA      ID1      ID2       ID3
     1.49663939E-08    3     1000022         2        -2   # BR(chi^0_2 -> chi^0_1 u u_bar)
     1.49878766E-08    3     1000022         4        -4   # BR(chi^0_2 -> chi^0_1 c c_bar)
     8.36094639E-09    3     1000022         1        -1   # BR(chi^0_2 -> chi^0_1 d d_bar)
     8.38950351E-09    3     1000022         3        -3   # BR(chi^0_2 -> chi^0_1 s s_bar)
     7.28484316E-08    3     1000022         5        -5   # BR(chi^0_2 -> chi^0_1 b b_bar)
     3.81656383E-06    3     1000022        11       -11   # BR(chi^0_2 -> chi^0_1 e^- e^+)
     3.82023147E-06    3     1000022        13       -13   # BR(chi^0_2 -> chi^0_1 mu^- mu^+)
     4.78925163E-06    3     1000022        15       -15   # BR(chi^0_2 -> chi^0_1 tau^- tau^+)
     1.05346656E-10    3     1000024         1        -2   # BR(chi^0_2 -> chi^+_1 d u_bar)
     1.05346656E-10    3    -1000024        -1         2   # BR(chi^0_2 -> chi^-_1 d_bar u)
     3.80916718E-11    3     1000024         3        -4   # BR(chi^0_2 -> chi^+_1 s c_bar)
     3.80916718E-11    3    -1000024        -3         4   # BR(chi^0_2 -> chi^-_1 s_bar c)
     3.47035007E-11    3     1000024        11       -12   # BR(chi^0_2 -> chi^+_1 e^- nu_bar_e)
     3.47035007E-11    3    -1000024       -11        12   # BR(chi^0_2 -> chi^-_1 e^+ nu_e)
     3.44570378E-11    3     1000024        13       -14   # BR(chi^0_2 -> chi^+_1 mu^- nu_bar_mu)
     3.44570378E-11    3    -1000024       -13        14   # BR(chi^0_2 -> chi^-_1 mu^+ nu_mu)
     4.12193189E-12    3     1000024        15       -16   # BR(chi^0_2 -> chi^+_1 tau^- nu_bar_tau)
     4.12193189E-12    3    -1000024       -15        16   # BR(chi^0_2 -> chi^-_1 tau^+ nu_tau)
DECAY   1000025     6.79790631E-01   # chi^0_3
#    BR                NDA      ID1      ID2
     6.24070920E-04    2     2000011       -11   # BR(chi^0_3 -> ~e^-_R e^+)
     6.24070920E-04    2    -2000011        11   # BR(chi^0_3 -> ~e^+_R e^-)
     1.56770096E-05    2     1000011       -11   # BR(chi^0_3 -> ~e^-_L e^+)
     1.56770096E-05    2    -1000011        11   # BR(chi^0_3 -> ~e^+_L e^-)
     6.61781559E-04    2     2000013       -13   # BR(chi^0_3 -> ~mu^-_R mu^+)
     6.61781559E-04    2    -2000013        13   # BR(chi^0_3 -> ~mu^+_R mu^-)
     1.79159450E-05    2     1000013       -13   # BR(chi^0_3 -> ~mu^-_L mu^+)
     1.79159450E-05    2    -1000013        13   # BR(chi^0_3 -> ~mu^+_L mu^-)
     1.13100991E-02    2     1000015       -15   # BR(chi^0_3 -> ~tau^-_1 tau^+)
     1.13100991E-02    2    -1000015        15   # BR(chi^0_3 -> ~tau^+_1 tau^-)
     6.50453150E-04    2     2000015       -15   # BR(chi^0_3 -> ~tau^-_2 tau^+)
     6.50453150E-04    2    -2000015        15   # BR(chi^0_3 -> ~tau^+_2 tau^-)
     1.07235101E-04    2     1000012       -12   # BR(chi^0_3 -> ~nu_e nu_bar_e)
     1.07235101E-04    2    -1000012        12   # BR(chi^0_3 -> ~nu^*_e nu_e)
     1.07236336E-04    2     1000014       -14   # BR(chi^0_3 -> ~nu_mu nu_bar_mu)
     1.07236336E-04    2    -1000014        14   # BR(chi^0_3 -> ~nu^*_mu nu_mu)
     1.07584668E-04    2     1000016       -16   # BR(chi^0_3 -> ~nu_tau nu_bar_tau)
     1.07584668E-04    2    -1000016        16   # BR(chi^0_3 -> ~nu^*_tau nu_tau)
     9.49123147E-01    2     1000022        23   # BR(chi^0_3 -> chi^0_1 Z)
     2.35780352E-02    2     1000022        25   # BR(chi^0_3 -> chi^0_1 h^0)
     2.16605199E-13    2     1000039        22   # BR(chi^0_3 -> ~G photon)
     1.14939846E-09    2     1000039        23   # BR(chi^0_3 -> ~G Z)
     5.43158248E-09    2     1000039        25   # BR(chi^0_3 -> ~G h^0)
     9.04071142E-07    2     1000022        22   # BR(chi^0_3 -> chi^0_1 photon)
     2.64669257E-09    2     1000023        22   # BR(chi^0_3 -> chi^0_2 photon)
#    BR                NDA      ID1      ID2       ID3
     1.18306362E-10    3     1000022         2        -2   # BR(chi^0_3 -> chi^0_1 u u_bar)
     1.64761777E-10    3     1000022         4        -4   # BR(chi^0_3 -> chi^0_1 c c_bar)
     5.64123066E-05    3     1000022         6        -6   # BR(chi^0_3 -> chi^0_1 t t_bar)
     3.17957820E-11    3     1000022         1        -1   # BR(chi^0_3 -> chi^0_1 d d_bar)
     7.73837610E-11    3     1000022         3        -3   # BR(chi^0_3 -> chi^0_1 s s_bar)
     1.01071182E-07    3     1000022         5        -5   # BR(chi^0_3 -> chi^0_1 b b_bar)
     5.44389203E-08    3     1000022        11       -11   # BR(chi^0_3 -> chi^0_1 e^- e^+)
     5.99492672E-08    3     1000022        13       -13   # BR(chi^0_3 -> chi^0_1 mu^- mu^+)
     1.60963468E-06    3     1000022        15       -15   # BR(chi^0_3 -> chi^0_1 tau^- tau^+)
     7.72977496E-07    3     1000023         2        -2   # BR(chi^0_3 -> chi^0_2 u u_bar)
     7.57493094E-07    3     1000023         4        -4   # BR(chi^0_3 -> chi^0_2 c c_bar)
     1.00346936E-06    3     1000023         1        -1   # BR(chi^0_3 -> chi^0_2 d d_bar)
     1.00328861E-06    3     1000023         3        -3   # BR(chi^0_3 -> chi^0_2 s s_bar)
     7.34369343E-07    3     1000023         5        -5   # BR(chi^0_3 -> chi^0_2 b b_bar)
     2.30717782E-07    3     1000023        11       -11   # BR(chi^0_3 -> chi^0_2 e^- e^+)
     2.30689326E-07    3     1000023        13       -13   # BR(chi^0_3 -> chi^0_2 mu^- mu^+)
     2.22281884E-07    3     1000023        15       -15   # BR(chi^0_3 -> chi^0_2 tau^- tau^+)
     1.38229101E-06    3     1000023        12       -12   # BR(chi^0_3 -> chi^0_2 nu_e nu_bar_e)
     4.90500119E-06    3     1000024         1        -2   # BR(chi^0_3 -> chi^+_1 d u_bar)
     4.90500119E-06    3    -1000024        -1         2   # BR(chi^0_3 -> chi^-_1 d_bar u)
     4.84372164E-06    3     1000024         3        -4   # BR(chi^0_3 -> chi^+_1 s c_bar)
     4.84372164E-06    3    -1000024        -3         4   # BR(chi^0_3 -> chi^-_1 s_bar c)
     1.63442129E-06    3     1000024        11       -12   # BR(chi^0_3 -> chi^+_1 e^- nu_bar_e)
     1.63442129E-06    3    -1000024       -11        12   # BR(chi^0_3 -> chi^-_1 e^+ nu_e)
     1.63440951E-06    3     1000024        13       -14   # BR(chi^0_3 -> chi^+_1 mu^- nu_bar_mu)
     1.63440951E-06    3    -1000024       -13        14   # BR(chi^0_3 -> chi^-_1 mu^+ nu_mu)
     1.59345762E-06    3     1000024        15       -16   # BR(chi^0_3 -> chi^+_1 tau^- nu_bar_tau)
     1.59345762E-06    3    -1000024       -15        16   # BR(chi^0_3 -> chi^-_1 tau^+ nu_tau)
DECAY   1000035     8.39501569E+00   # chi^0_4
#    BR                NDA      ID1      ID2
     1.69265413E-04    2     2000011       -11   # BR(chi^0_4 -> ~e^-_R e^+)
     1.69265413E-04    2    -2000011        11   # BR(chi^0_4 -> ~e^+_R e^-)
     4.08315979E-02    2     1000011       -11   # BR(chi^0_4 -> ~e^-_L e^+)
     4.08315979E-02    2    -1000011        11   # BR(chi^0_4 -> ~e^+_L e^-)
     1.69344185E-04    2     2000013       -13   # BR(chi^0_4 -> ~mu^-_R mu^+)
     1.69344185E-04    2    -2000013        13   # BR(chi^0_4 -> ~mu^+_R mu^-)
     4.08318285E-02    2     1000013       -13   # BR(chi^0_4 -> ~mu^-_L mu^+)
     4.08318285E-02    2    -1000013        13   # BR(chi^0_4 -> ~mu^+_L mu^-)
     1.91662910E-04    2     1000015       -15   # BR(chi^0_4 -> ~tau^-_1 tau^+)
     1.91662910E-04    2    -1000015        15   # BR(chi^0_4 -> ~tau^+_1 tau^-)
     4.08968473E-02    2     2000015       -15   # BR(chi^0_4 -> ~tau^-_2 tau^+)
     4.08968473E-02    2    -2000015        15   # BR(chi^0_4 -> ~tau^+_2 tau^-)
     4.45995093E-02    2     1000012       -12   # BR(chi^0_4 -> ~nu_e nu_bar_e)
     4.45995093E-02    2    -1000012        12   # BR(chi^0_4 -> ~nu^*_e nu_e)
     4.45996778E-02    2     1000014       -14   # BR(chi^0_4 -> ~nu_mu nu_bar_mu)
     4.45996778E-02    2    -1000014        14   # BR(chi^0_4 -> ~nu^*_mu nu_mu)
     4.46471803E-02    2     1000016       -16   # BR(chi^0_4 -> ~nu_tau nu_bar_tau)
     4.46471803E-02    2    -1000016        16   # BR(chi^0_4 -> ~nu^*_tau nu_tau)
     1.44959610E-01    2     1000024       -24   # BR(chi^0_4 -> chi^+_1 W^-)
     1.44959610E-01    2    -1000024        24   # BR(chi^0_4 -> chi^-_1 W^+)
     3.03848291E-04    2     1000022        23   # BR(chi^0_4 -> chi^0_1 Z)
     5.89967804E-04    2     1000023        23   # BR(chi^0_4 -> chi^0_2 Z)
     9.55287755E-02    2     1000025        23   # BR(chi^0_4 -> chi^0_3 Z)
     4.67846687E-03    2     1000022        25   # BR(chi^0_4 -> chi^0_1 h^0)
     9.48845948E-02    2     1000023        25   # BR(chi^0_4 -> chi^0_2 h^0)
     2.04297068E-04    2     1000025        25   # BR(chi^0_4 -> chi^0_3 h^0)
     6.83046512E-10    2     1000039        22   # BR(chi^0_4 -> ~G photon)
     3.34298506E-09    2     1000039        23   # BR(chi^0_4 -> ~G Z)
     3.32662066E-10    2     1000039        25   # BR(chi^0_4 -> ~G h^0)
     1.83597121E-07    2     1000022        22   # BR(chi^0_4 -> chi^0_1 photon)
     4.03354644E-07    2     1000023        22   # BR(chi^0_4 -> chi^0_2 photon)
     7.25434983E-07    2     1000025        22   # BR(chi^0_4 -> chi^0_3 photon)
#    BR                NDA      ID1      ID2       ID3
     3.58853707E-08    3     1000022         2        -2   # BR(chi^0_4 -> chi^0_1 u u_bar)
     3.58815251E-08    3     1000022         4        -4   # BR(chi^0_4 -> chi^0_1 c c_bar)
     6.28315959E-06    3     1000022         6        -6   # BR(chi^0_4 -> chi^0_1 t t_bar)
     4.66454957E-08    3     1000022         1        -1   # BR(chi^0_4 -> chi^0_1 d d_bar)
     4.66458655E-08    3     1000022         3        -3   # BR(chi^0_4 -> chi^0_1 s s_bar)
     5.51064607E-08    3     1000022         5        -5   # BR(chi^0_4 -> chi^0_1 b b_bar)
     9.30988214E-08    3     1000022        11       -11   # BR(chi^0_4 -> chi^0_1 e^- e^+)
     9.31231356E-08    3     1000022        13       -13   # BR(chi^0_4 -> chi^0_1 mu^- mu^+)
     9.94522508E-08    3     1000022        15       -15   # BR(chi^0_4 -> chi^0_1 tau^- tau^+)
     2.05340857E-09    3     1000023         2        -2   # BR(chi^0_4 -> chi^0_2 u u_bar)
     2.05164005E-09    3     1000023         4        -4   # BR(chi^0_4 -> chi^0_2 c c_bar)
     1.67938539E-09    3     1000023         1        -1   # BR(chi^0_4 -> chi^0_2 d d_bar)
     1.67982216E-09    3     1000023         3        -3   # BR(chi^0_4 -> chi^0_2 s s_bar)
     2.90051509E-09    3     1000023         5        -5   # BR(chi^0_4 -> chi^0_2 b b_bar)
     3.64953899E-07    3     1000023        11       -11   # BR(chi^0_4 -> chi^0_2 e^- e^+)
     3.64975259E-07    3     1000023        13       -13   # BR(chi^0_4 -> chi^0_2 mu^- mu^+)
     3.66483246E-07    3     1000023        15       -15   # BR(chi^0_4 -> chi^0_2 tau^- tau^+)
     5.70505974E-07    3     1000023        12       -12   # BR(chi^0_4 -> chi^0_2 nu_e nu_bar_e)
     9.85441755E-13    3     1000025         2        -2   # BR(chi^0_4 -> chi^0_3 u u_bar)
     1.11079781E-12    3     1000025         4        -4   # BR(chi^0_4 -> chi^0_3 c c_bar)
     1.79215189E-12    3     1000025         1        -1   # BR(chi^0_4 -> chi^0_3 d d_bar)
     2.16287317E-12    3     1000025         3        -3   # BR(chi^0_4 -> chi^0_3 s s_bar)
     8.34187358E-10    3     1000025         5        -5   # BR(chi^0_4 -> chi^0_3 b b_bar)
     5.64237169E-11    3     1000025        11       -11   # BR(chi^0_4 -> chi^0_3 e^- e^+)
     6.92515975E-11    3     1000025        13       -13   # BR(chi^0_4 -> chi^0_3 mu^- mu^+)
     3.65347907E-09    3     1000025        15       -15   # BR(chi^0_4 -> chi^0_3 tau^- tau^+)
     1.08766741E-09    3     1000025        12       -12   # BR(chi^0_4 -> chi^0_3 nu_e nu_bar_e)
     1.34455842E-09    3     1000024         1        -2   # BR(chi^0_4 -> chi^+_1 d u_bar)
     1.34455842E-09    3    -1000024        -1         2   # BR(chi^0_4 -> chi^-_1 d_bar u)
     1.34524590E-09    3     1000024         3        -4   # BR(chi^0_4 -> chi^+_1 s c_bar)
     1.34524590E-09    3    -1000024        -3         4   # BR(chi^0_4 -> chi^-_1 s_bar c)
     2.92546156E-06    3     1000024         5        -6   # BR(chi^0_4 -> chi^+_1 b t_bar)
     2.92546156E-06    3    -1000024        -5         6   # BR(chi^0_4 -> chi^-_1 b_bar t)
     2.25081591E-07    3     1000024        11       -12   # BR(chi^0_4 -> chi^+_1 e^- nu_bar_e)
     2.25081591E-07    3    -1000024       -11        12   # BR(chi^0_4 -> chi^-_1 e^+ nu_e)
     2.25101657E-07    3     1000024        13       -14   # BR(chi^0_4 -> chi^+_1 mu^- nu_bar_mu)
     2.25101657E-07    3    -1000024       -13        14   # BR(chi^0_4 -> chi^-_1 mu^+ nu_mu)
     2.29018043E-07    3     1000024        15       -16   # BR(chi^0_4 -> chi^+_1 tau^- nu_bar_tau)
     2.29018043E-07    3    -1000024       -15        16   # BR(chi^0_4 -> chi^-_1 tau^+ nu_tau)
DECAY   1000021     1.56565060E+01   # ~g
#    BR                NDA      ID1      ID2
     4.79303804E-02    2     2000002        -2   # BR(~g -> ~u_R u_bar)
     4.79303804E-02    2    -2000002         2   # BR(~g -> ~u^*_R u)
     1.38984805E-02    2     1000002        -2   # BR(~g -> ~u_L u_bar)
     1.38984805E-02    2    -1000002         2   # BR(~g -> ~u^*_L u)
     4.79304668E-02    2     2000004        -4   # BR(~g -> ~c_R c_bar)
     4.79304668E-02    2    -2000004         4   # BR(~g -> ~c^*_R c)
     1.38985126E-02    2     1000004        -4   # BR(~g -> ~c_L c_bar)
     1.38985126E-02    2    -1000004         4   # BR(~g -> ~c^*_L c)
     1.96580373E-08    2     1000006        -4   # BR(~g -> ~t_1 c_bar)
     1.96580373E-08    2    -1000006         4   # BR(~g -> ~t^*_1 c)
     1.24387703E-01    2     1000006        -6   # BR(~g -> ~t_1 t_bar)
     1.24387703E-01    2    -1000006         6   # BR(~g -> ~t^*_1 t)
     2.77541165E-02    2     2000006        -6   # BR(~g -> ~t_2 t_bar)
     2.77541165E-02    2    -2000006         6   # BR(~g -> ~t^*_2 t)
     5.17122702E-02    2     2000001        -1   # BR(~g -> ~d_R d_bar)
     5.17122702E-02    2    -2000001         1   # BR(~g -> ~d^*_R d)
     1.36583067E-02    2     1000001        -1   # BR(~g -> ~d_L d_bar)
     1.36583067E-02    2    -1000001         1   # BR(~g -> ~d^*_L d)
     5.17124774E-02    2     2000003        -3   # BR(~g -> ~s_R s_bar)
     5.17124774E-02    2    -2000003         3   # BR(~g -> ~s^*_R s)
     1.36587241E-02    2     1000003        -3   # BR(~g -> ~s_L s_bar)
     1.36587241E-02    2    -1000003         3   # BR(~g -> ~s^*_L s)
     5.21176587E-02    2     1000005        -5   # BR(~g -> ~b_1 b_bar)
     5.21176587E-02    2    -1000005         5   # BR(~g -> ~b^*_1 b)
     4.11927165E-02    2     2000005        -5   # BR(~g -> ~b_2 b_bar)
     4.11927165E-02    2    -2000005         5   # BR(~g -> ~b^*_2 b)
     3.58114224E-06    2     1000022        21   # BR(~g -> chi^0_1 g)
     1.23584671E-04    2     1000023        21   # BR(~g -> chi^0_2 g)
     1.44121295E-04    2     1000025        21   # BR(~g -> chi^0_3 g)
     2.50459310E-05    2     1000035        21   # BR(~g -> chi^0_4 g)
DECAY        25     2.57961226E-03   # h^0
#    BR                NDA      ID1      ID2
     8.44772242E-09    2          11       -11   # BR(h^0 -> e^- e^+)
     3.61161874E-04    2          13       -13   # BR(h^0 -> mu^- mu^+)
     1.01988506E-01    2          15       -15   # BR(h^0 -> tau^- tau^+)
     7.52681585E-07    2           1        -1   # BR(h^0 -> d d_bar)
     3.31932135E-04    2           3        -3   # BR(h^0 -> s s_bar)
     7.05104212E-01    2           5        -5   # BR(h^0 -> b b_bar)
     2.46770863E-07    2           2        -2   # BR(h^0 -> u u_bar)
     4.42140951E-02    2           4        -4   # BR(h^0 -> c c_bar)
     6.05099427E-02    2          21        21   # BR(h^0 -> g g)
     2.88403474E-03    2          22        22   # BR(h^0 -> photon photon)
# writing decays into V V* as 3-body decays
#    BR                NDA      ID1      ID2       ID3
     3.93963507E-03    3          24        11        12   # BR(h^0 -> W^+ e^- nu_e)
     3.93963507E-03    3          24        13        14   # BR(h^0 -> W^+ mu^- nu_mu)
     3.93963507E-03    3          24        15        16   # BR(h^0 -> W^+ tau^- nu_tau)
     1.37887227E-02    3          24         1        -2   # BR(h^0 -> W^+ d u_bar)
     1.37887227E-02    3          24         3        -4   # BR(h^0 -> W^+ s c_bar)
     3.93963507E-03    3         -24       -11       -12   # BR(h^0 -> W^- e^+ nu_bar_e)
     3.93963507E-03    3         -24       -13       -14   # BR(h^0 -> W^- mu^+ nu_bar_mu)
     3.93963507E-03    3         -24       -15       -16   # BR(h^0 -> W^- tau^+ nu_bar_tau)
     1.37887227E-02    3         -24        -1         2   # BR(h^0 -> W^- d_bar u)
     1.37887227E-02    3         -24        -3         4   # BR(h^0 -> W^- s_bar c)
     2.03434192E-04    3          23        11       -11   # BR(h^0 -> Z e^- e^+)
     2.03434192E-04    3          23        13       -13   # BR(h^0 -> Z mu^- mu^+)
     1.74372164E-04    3          23        15       -15   # BR(h^0 -> Z tau^- tau^+)
     1.16248110E-03    3          23        12       -12   # BR(h^0 -> Z nu_e nu_bar_e)
     8.13736768E-04    3          23         1        -1   # BR(h^0 -> Z u u_bar)
     8.13736768E-04    3          23         3        -3   # BR(h^0 -> Z c c_bar)
     8.13736768E-04    3          23         5        -5   # BR(h^0 -> Z t t_bar)
     8.13736768E-04    3          23         2        -2   # BR(h^0 -> Z u u_bar)
     8.13736768E-04    3          23         4        -4   # BR(h^0 -> Z c c_bar)
DECAY        35     3.09892982E+00   # H^0
#    BR                NDA      ID1      ID2
     1.59063955E-09    2          11       -11   # BR(H^0 -> e^- e^+)
     6.80043473E-05    2          13       -13   # BR(H^0 -> mu^- mu^+)
     1.92366539E-02    2          15       -15   # BR(H^0 -> tau^- tau^+)
     1.16767038E-07    2           1        -1   # BR(H^0 -> d d_bar)
     5.14942257E-05    2           3        -3   # BR(H^0 -> s s_bar)
     1.13093378E-01    2           5        -5   # BR(H^0 -> b b_bar)
     8.62658307E-11    2           2        -2   # BR(H^0 -> u u_bar)
     1.54598151E-05    2           4        -4   # BR(H^0 -> c c_bar)
     8.13296591E-01    2           6        -6   # BR(H^0 -> t t_bar)
     1.74655022E-04    2     2000011  -2000011   # BR(H^0 -> ~e^-_R ~e^+_R)
     9.43153503E-13    2     2000011  -1000011   # BR(H^0 -> ~e^-_R ~e^+_L)
     9.43153503E-13    2    -2000011   1000011   # BR(H^0 -> ~e^+_R ~e^-_L)
     1.74613158E-04    2     2000013  -2000013   # BR(H^0 -> ~mu^-_R ~mu^+_R)
     4.03251502E-08    2     2000013  -1000013   # BR(H^0 -> ~mu^-_R ~mu^+_L)
     4.03251502E-08    2    -2000013   1000013   # BR(H^0 -> ~mu^+_R ~mu^-_L)
     1.63008263E-04    2     1000015  -1000015   # BR(H^0 -> ~tau^-_1 ~tau^+_1)
     1.16173215E-05    2     1000015  -2000015   # BR(H^0 -> ~tau^-_1 ~tau^+_2)
     1.16173215E-05    2    -1000015   2000015   # BR(H^0 -> ~tau^+_1 ~tau^-_2)
     5.68376249E-04    2     1000022   1000022   # BR(H^0 -> chi^0_1 chi^0_1)
     1.68711441E-02    2          23        23   # BR(H^0 -> Z Z)
     3.20597044E-02    2          24       -24   # BR(H^0 -> W^+ W^-)
     3.65276240E-03    2          25        25   # BR(H^0 -> h^0 h^0)
     5.45822795E-04    2          21        21   # BR(H^0 -> g g)
     4.89890557E-06    2          22        22   # BR(H^0 -> photon photon)
DECAY        36     2.87907834E+00   # A^0
#    BR                NDA      ID1      ID2
     1.71988486E-09    2          11       -11   # BR(A^0 -> e^- e^+)
     7.35299525E-05    2          13       -13   # BR(A^0 -> mu^- mu^+)
     2.07998687E-02    2          15       -15   # BR(A^0 -> tau^- tau^+)
     1.26253883E-07    2           1        -1   # BR(A^0 -> d d_bar)
     5.56779279E-05    2           3        -3   # BR(A^0 -> s s_bar)
     1.22282233E-01    2           5        -5   # BR(A^0 -> b b_bar)
     8.20994563E-11    2           2        -2   # BR(A^0 -> u u_bar)
     1.47131463E-05    2           4        -4   # BR(A^0 -> c c_bar)
     8.17238223E-01    2           6        -6   # BR(A^0 -> t t_bar)
     7.84131854E-13    2     2000011  -1000011   # BR(A^0 -> ~e^-_R ~e^+_L)
     7.84131854E-13    2    -2000011   1000011   # BR(A^0 -> ~e^+_R ~e^-_L)
     3.35262900E-08    2     2000013  -1000013   # BR(A^0 -> ~mu^-_R ~mu^+_L)
     3.35262900E-08    2    -2000013   1000013   # BR(A^0 -> ~mu^+_R ~mu^-_L)
     9.67582200E-06    2     1000015  -2000015   # BR(A^0 -> ~tau^-_1 ~tau^+_2)
     9.67582200E-06    2    -1000015   2000015   # BR(A^0 -> ~tau^+_1 ~tau^-_2)
     5.16309595E-03    2     1000022   1000022   # BR(A^0 -> chi^0_1 chi^0_1)
     3.41560234E-02    2          25        23   # BR(A^0 -> h^0 Z)
     1.95480955E-04    2          21        21   # BR(A^0 -> g g)
     1.60803586E-06    2          22        22   # BR(A^0 -> photon photon)
DECAY        37     2.48238690E+00   # H^+
#    BR                NDA      ID1      ID2
     1.99915788E-09    2         -11        12   # BR(H^+ -> e^+ nu_e)
     8.54696654E-05    2         -13        12   # BR(H^+ -> mu^+ nu_e)
     2.41773290E-02    2         -15        12   # BR(H^+ -> tau^+ nu_e)
     1.29173962E-07    2          -1         2   # BR(H^+ -> d_bar u)
     7.19721474E-05    2          -3         4   # BR(H^+ -> s_bar c)
     9.36759002E-01    2          -5         6   # BR(H^+ -> b_bar t)
     1.88260158E-12    2    -2000011   1000012   # BR(H^+ -> ~e^+_R ~nu_e)
     8.04915330E-08    2    -2000013   1000014   # BR(H^+ -> ~mu^+_R ~nu_mu)
     2.31634231E-05    2    -1000015   1000016   # BR(H^+ -> ~tau^+_1 ~nu_tau)
     3.88828517E-02    2          25        24   # BR(H^+ -> h^0 W^+)
DECAY         6     2.43000000E+00   # top
#    BR                NDA      ID1      ID2
     1.00000000E+00    2           5        24   # BR(t -> b W)
Block HiggsBoundsInputHiggsCouplingsFermions
# ScalarNormEffCoupSq PseudoSNormEffCoupSq NP IP1 IP2 IP2
    1.13020018E+00    0.00000000E+00        3  25   5   5  # h0-b-b eff. coupling^2, normalised to SM
    2.48697998E+01    0.00000000E+00        3  35   5   5  # H0-b-b eff. coupling^2, normalised to SM
    0.00000000E+00    2.50000000E+01        3  36   5   5  # A0-b-b eff. coupling^2, normalised to SM
#
    9.94791993E-01    0.00000000E+00        3  25   6   6  # h0-t-t eff. coupling^2, normalised to SM
    4.52080073E-02    0.00000000E+00        3  35   6   6  # H0-t-t eff. coupling^2, normalised to SM
    0.00000000E+00    4.00000000E-02        3  36   6   6  # A0-t-t eff. coupling^2, normalised to SM
#
    1.13020018E+00    0.00000000E+00        3  25  15  15  # h0-tau-tau eff. coupling^2, normalised to SM
    2.48697998E+01    0.00000000E+00        3  35  15  15  # H0-tau-tau eff. coupling^2, normalised to SM
    0.00000000E+00    2.50000000E+01        3  36  15  15  # A0-tau-tau eff. coupling^2, normalised to SM
#
Block HiggsBoundsInputHiggsCouplingsBosons
    9.99840288E-01        3  25  24  24  # h0-W-W eff. coupling^2, normalised to SM
    1.59711939E-04        3  35  24  24  # H0-W-W eff. coupling^2, normalised to SM
    0.00000000E+00        3  36  24  24  # A0-W-W eff. coupling^2, normalised to SM
#
    9.99840288E-01        3  25  23  23  # h0-Z-Z eff. coupling^2, normalised to SM
    1.59711939E-04        3  35  23  23  # H0-Z-Z eff. coupling^2, normalised to SM
    0.00000000E+00        3  36  23  23  # A0-Z-Z eff. coupling^2, normalised to SM
#
    1.15254976E+00        3  25  21  21  # h0-g-g eff. coupling^2, normalised to SM
    4.10937170E-02        3  35  21  21  # H0-g-g eff. coupling^2, normalised to SM
    2.11150129E-01        3  36  21  21  # A0-g-g eff. coupling^2, normalised to SM
#
    0.00000000E+00        3  25  25  23  # h0-h0-Z eff. coupling^2, normalised to SM
    0.00000000E+00        3  35  25  23  # H0-h0-Z eff. coupling^2, normalised to SM
    1.59711939E-04        3  36  25  23  # A0-h0-Z eff. coupling^2, normalised to SM
    0.00000000E+00        3  35  35  23  # H0-H0-Z eff. coupling^2, normalised to SM
    9.99840288E-01        3  36  35  23  # A0-H0-Z eff. coupling^2, normalised to SM
    0.00000000E+00        3  36  36  23  # A0-A0-Z eff. coupling^2, normalised to SM
#
    0.00000000E+00        4  25  21  21  23  # h0-g-g-Z eff. coupling^2, normalised to SM
    0.00000000E+00        4  35  21  21  23  # H0-g-g-Z eff. coupling^2, normalised to SM
    0.00000000E+00        4  36  21  21  23  # A0-g-g-Z eff. coupling^2, normalised to SM
Block SPhenoLowEnergy  # low energy observables
    1    3.14181325E-04   # BR(b -> s gamma)
    2    1.59358478E-06   # BR(b -> s mu+ mu-)
    3    3.54431148E-05   # BR(b -> s nu nu)
    4    5.18888347E-11   # BR(Bd -> mu+ mu-)
    5    3.38960739E-09   # BR(Bs -> mu+ mu-)
    6    1.10527118E-04   # BR(B_u -> tau nu)
    7    9.99401354E-01   # BR(B_u -> tau nu)/BR(B_u -> tau nu)_SM
    8    2.73532537E-01   # |Delta(M_Bd)| [ps^-1] 
    9    2.03014613E+01   # |Delta(M_Bs)| [ps^-1] 
   20    2.94177452E-15   # Delta(g-2)_electron/2
   21    6.10812699E-11   # Delta(g-2)_muon/2
   22    2.45896565E-09   # Delta(g-2)_tau/2
   23    0.00000000E+00   # electric dipole moment of the electron
   24    0.00000000E+00   # electric dipole moment of the muon
   25    0.00000000E+00   # electric dipole moment of the tau
   26    0.00000000E+00   # Br(mu -> e gamma)
   27    0.00000000E+00   # Br(tau -> e gamma)
   28    0.00000000E+00   # Br(tau -> mu gamma)
   29    0.00000000E+00   # Br(mu -> 3 e)
   30    0.00000000E+00   # Br(tau -> 3 e)
   31    0.00000000E+00   # Br(tau -> 3 mu)
   39    4.96401700E-04   # Delta(rho_parameter)
   40    0.00000000E+00   # BR(Z -> e mu)
   41    0.00000000E+00   # BR(Z -> e tau)
   42    0.00000000E+00   # BR(Z -> mu tau)
Block FWCOEF Q=  9.11876000E+01  # Wilson coefficients at scale Q
#    id        order  M        value         comment
Block FWCOEF Q=  1.60000000E+02  # Wilson coefficients at scale Q
#    id        order  M        value         comment
     0305 4422   00   0    -1.87752866E-01   # C7
     0305 4422   00   1    -1.59106653E-02   # C7
     0305 4322   00   1    -3.48342479E-04   # C7'
     0305 6421   00   0    -9.48879305E-02   # C8
     0305 6421   00   1    -2.03104842E-02   # C8
     0305 6321   00   1    -4.40974515E-04   # C8'
 03051111 4133   00   0    -1.25937583E+00   # C9 e+e-
 03051111 4133   00   1     5.65345682E-04   # C9 e+e-
 03051111 4233   00   1    -6.78344386E-07   # C9' e+e-
 03051111 4137   00   0    -3.94802692E+00   # C10 e+e-
 03051111 4137   00   1    -2.04783700E-03   # C10 e+e-
 03051111 4237   00   1     1.72174155E-05   # C10' e+e-
 03051313 4133   00   0    -1.25937583E+00   # C9 mu+mu-
 03051313 4133   00   1     5.65343142E-04   # C9 mu+mu-
 03051313 4233   00   1    -6.78345942E-07   # C9' mu+mu-
 03051313 4137   00   0    -3.94802692E+00   # C10 mu+mu-
 03051313 4137   00   1    -2.04783955E-03   # C10 mu+mu-
 03051313 4237   00   1     1.72174171E-05   # C10' mu+mu-
 03051212 4237   00   0     1.49008186E+00   # C11 nu_1 nu_1
 03051212 4237   00   1     4.90150169E-04   # C11 nu_1 nu_1
 03051212 4137   00   1    -4.13732392E-06   # C11' nu_1 nu_1
 03051414 4237   00   0     1.49008186E+00   # C11 nu_2 nu_2
 03051414 4237   00   1     4.90150170E-04   # C11 nu_2 nu_2
 03051414 4137   00   1    -4.13732356E-06   # C11' nu_2 nu_2
 03051616 4237   00   0     1.49008186E+00   # C11 nu_3 nu_3
 03051616 4237   00   1     4.90150622E-04   # C11 nu_3 nu_3
 03051616 4137   00   1    -4.13722092E-06   # C11' nu_3 nu_3
