# SUSY Les Houches Accord 2 - MSSM-RpV/Bi Spectrum + Decays + Flavor Observables
# SPheno module generated by SARAH
# ----------------------------------------------------------------------
# SPheno v3.3.6  
#   W. Porod, Comput. Phys. Commun. 153 (2003) 275-315, hep-ph/0301101
#   W. Porod, F.Staub, Comput.Phys.Commun.183 (2012) 2458-2469, arXiv:1104.1573
# SARAH: SARAHVER
#   F. Staub; arXiv:0806.0538 (online manual)
#   F. Staub; Comput. Phys. Commun. 181 (2010) 1077-1086; arXiv:0909.2863
#   F. Staub; Comput. Phys. Commun. 182 (2011)  808-833; arXiv:1002.0840
#   F. Staub; Comput. Phys. Commun. 184 (2013)  1792-1809; arXiv:1207.0906
#   F. Staub; Comput. Phys. Commun. 185 (2014)  1773-1790; arXiv:1309.7223 
# Including the calculation of flavor observables based on the FlavorKit 
#   W. Porod, F. Staub, A. Vicente; Eur.Phys.J. C74 (2014) 8, 2992; arXiv:1405.1434 
# Two-loop masss corrections to Higgs fields based on 
#   M. D. Goodsell, K. Nickel, F. Staub; arXiv:1411.0675 
#   M. D. Goodsell, K. Nickel, F. Staub; arXiv:1503.03098
#  
# in case of problems send email to florian.staub@cern.ch and goodsell@lpthe.jussieu.fr 
# ----------------------------------------------------------------------
# Created: 01.02.2018,  11:21
Block SPINFO         # Program information
     1   SPhenoSARAH      # spectrum calculator
     2   v3.3.6      # version number of SPheno
     9   SARAHVER    # version number of SARAH
Block MODSEL  # Input parameters
     1  0   #  SUSY Scale input
     2  1   #  Boundary conditions 
Block MINPAR  # Input parameters
    1    0.00000000E+00  # m0
    2    0.00000000E+00  # m12
    3    5.00000000E+00  # TanBeta
    4    0.00000000E+00  # SignumMue
    5    0.00000000E+00  # Azero
Block EXTPAR  # Input parameters
    1   -9.00000000E+02  # M1input
    2    2.00000000E+03  # M2input
    3    3.20000000E+03  # M3input
   23    5.00000000E+02  # Muinput
   25    5.00000000E+00  # TanBeta
   24    1.00000000E+06  # MA2input
Block gaugeGUT Q=  1.99773551E+03  # (GUT scale)
   1    4.69791174E-01  # g1(Q)^DRbar
   2    6.37009527E-01  # g2(Q)^DRbar
   3    1.02086095E+00  # g3(Q)^DRbar
Block SMINPUTS  # SM parameters
         1     1.27932478E+02  # alpha_em^-1(MZ)^MSbar
         2     1.16637000E-05  # G_mu [GeV^-2]
         3     1.18700000E-01  # alpha_s(MZ)^MSbar
         4     9.11887000E+01  # m_Z(pole)
         5     4.18000000E+00  # m_b(m_b), MSbar
         6     1.73500000E+02  # m_t(pole)
         7     1.77669000E+00  # m_tau(pole)
Block GAUGE Q=  1.99773551E+03  # (SUSY Scale)
   1    3.63898679E-01  # g1
   2    6.37009527E-01  # g2
   3    1.02086095E+00  # g3
Block HMIX Q=  1.99773551E+03  # (SUSY Scale)
   1    5.00000000E+02  # Mu
 101    1.92307692E+05  # Bmu
 102    4.77320892E+01  # vd
 103    2.38660446E+02  # vu
Block MSOFT Q=  1.99773551E+03  # (SUSY Scale)
  21    6.65387186E+05  # mHd2
  22   -1.52380209E+05  # mHu2
   1   -9.00000000E+02  # M1
   2    2.00000000E+03  # M2
   3    3.20000000E+03  # M3
Block PHASES Q=  1.99773551E+03  # (SUSY Scale)
   1    1.00000000E+00  # pG
Block Yd Q=  1.99773551E+03  # (SUSY Scale)
  1  1     6.71032843E-05   # Real(Yd(1,1),dp)
  1  2     0.00000000E+00   # Real(Yd(1,2),dp)
  1  3     0.00000000E+00   # Real(Yd(1,3),dp)
  2  1     0.00000000E+00   # Real(Yd(2,1),dp)
  2  2     1.27496193E-03   # Real(Yd(2,2),dp)
  2  3     0.00000000E+00   # Real(Yd(2,3),dp)
  3  1     0.00000000E+00   # Real(Yd(3,1),dp)
  3  2     0.00000000E+00   # Real(Yd(3,2),dp)
  3  3     6.63365807E-02   # Real(Yd(3,3),dp)
Block Ye Q=  1.99773551E+03  # (SUSY Scale)
  1  1     1.43477370E-05   # Real(Ye(1,1),dp)
  1  2    -2.29306567E-14   # Real(Ye(1,2),dp)
  1  3     2.30611197E-14   # Real(Ye(1,3),dp)
  2  1     1.59511034E-11   # Real(Ye(2,1),dp)
  2  2     2.96665708E-03   # Real(Ye(2,2),dp)
  2  3     1.67372288E-11   # Real(Ye(2,3),dp)
  3  1     3.13601050E-10   # Real(Ye(3,1),dp)
  3  2    -3.26811084E-10   # Real(Ye(3,2),dp)
  3  3     4.98864333E-02   # Real(Ye(3,3),dp)
Block Yu Q=  1.99773551E+03  # (SUSY Scale)
  1  1     7.03273222E-06   # Real(Yu(1,1),dp)
  1  2     0.00000000E+00   # Real(Yu(1,2),dp)
  1  3     0.00000000E+00   # Real(Yu(1,3),dp)
  2  1     0.00000000E+00   # Real(Yu(2,1),dp)
  2  2     3.57262821E-03   # Real(Yu(2,2),dp)
  2  3     0.00000000E+00   # Real(Yu(2,3),dp)
  3  1     0.00000000E+00   # Real(Yu(3,1),dp)
  3  2     0.00000000E+00   # Real(Yu(3,2),dp)
  3  3     8.54284567E-01   # Real(Yu(3,3),dp)
Block RVSNVEV Q=  1.99773551E+03  # (SUSY Scale)
   1   -1.06894366E-02  # vL(1)
   2    1.26615696E-02  # vL(2)
   3   -1.01941408E-02  # vL(3)
Block RVKAPPA Q=  1.99773551E+03  # (SUSY Scale)
   1    1.11038724E-01  # Real(REps(1) ,dp)
   2   -1.15793158E-01  # Real(REps(2) ,dp)
   3    1.16442489E-01  # Real(REps(3) ,dp)
Block Td Q=  1.99773551E+03  # (SUSY Scale)
  1  1     0.00000000E+00   # Real(Td(1,1),dp)
  1  2     0.00000000E+00   # Real(Td(1,2),dp)
  1  3     0.00000000E+00   # Real(Td(1,3),dp)
  2  1     0.00000000E+00   # Real(Td(2,1),dp)
  2  2     0.00000000E+00   # Real(Td(2,2),dp)
  2  3     0.00000000E+00   # Real(Td(2,3),dp)
  3  1     0.00000000E+00   # Real(Td(3,1),dp)
  3  2     0.00000000E+00   # Real(Td(3,2),dp)
  3  3     0.00000000E+00   # Real(Td(3,3),dp)
Block Te Q=  1.99773551E+03  # (SUSY Scale)
  1  1     0.00000000E+00   # Real(Te(1,1),dp)
  1  2     0.00000000E+00   # Real(Te(1,2),dp)
  1  3     0.00000000E+00   # Real(Te(1,3),dp)
  2  1     0.00000000E+00   # Real(Te(2,1),dp)
  2  2     0.00000000E+00   # Real(Te(2,2),dp)
  2  3     0.00000000E+00   # Real(Te(2,3),dp)
  3  1     0.00000000E+00   # Real(Te(3,1),dp)
  3  2     0.00000000E+00   # Real(Te(3,2),dp)
  3  3     0.00000000E+00   # Real(Te(3,3),dp)
Block Tu Q=  1.99773551E+03  # (SUSY Scale)
  1  1     0.00000000E+00   # Real(Tu(1,1),dp)
  1  2     0.00000000E+00   # Real(Tu(1,2),dp)
  1  3     0.00000000E+00   # Real(Tu(1,3),dp)
  2  1     0.00000000E+00   # Real(Tu(2,1),dp)
  2  2     0.00000000E+00   # Real(Tu(2,2),dp)
  2  3     0.00000000E+00   # Real(Tu(2,3),dp)
  3  1     0.00000000E+00   # Real(Tu(3,1),dp)
  3  2     0.00000000E+00   # Real(Tu(3,2),dp)
  3  3    -2.70000000E+03   # Real(Tu(3,3),dp)
Block RVD Q=  1.99773551E+03  # (SUSY Scale)
   1    1.92017215E+02  # Real(Beps(1) ,dp)
   2   -2.25690556E+02  # Real(Beps(2) ,dp)
   3    1.84291078E+02  # Real(Beps(3) ,dp)
Block MSQ2 Q=  1.99773551E+03  # (SUSY Scale)
  1  1     4.00000000E+06   # Real(mq2(1,1),dp)
  1  2     0.00000000E+00   # Real(mq2(1,2),dp)
  1  3     0.00000000E+00   # Real(mq2(1,3),dp)
  2  1     0.00000000E+00   # Real(mq2(2,1),dp)
  2  2     4.00000000E+06   # Real(mq2(2,2),dp)
  2  3     0.00000000E+00   # Real(mq2(2,3),dp)
  3  1     0.00000000E+00   # Real(mq2(3,1),dp)
  3  2     0.00000000E+00   # Real(mq2(3,2),dp)
  3  3     4.00000000E+06   # Real(mq2(3,3),dp)
Block MSL2 Q=  1.99773551E+03  # (SUSY Scale)
  1  1     4.00000000E+06   # Real(ml2(1,1),dp)
  1  2     0.00000000E+00   # Real(ml2(1,2),dp)
  1  3     0.00000000E+00   # Real(ml2(1,3),dp)
  2  1     0.00000000E+00   # Real(ml2(2,1),dp)
  2  2     4.00000000E+06   # Real(ml2(2,2),dp)
  2  3     0.00000000E+00   # Real(ml2(2,3),dp)
  3  1     0.00000000E+00   # Real(ml2(3,1),dp)
  3  2     0.00000000E+00   # Real(ml2(3,2),dp)
  3  3     4.00000000E+06   # Real(ml2(3,3),dp)
Block MSD2 Q=  1.99773551E+03  # (SUSY Scale)
  1  1     4.00000000E+06   # Real(md2(1,1),dp)
  1  2     0.00000000E+00   # Real(md2(1,2),dp)
  1  3     0.00000000E+00   # Real(md2(1,3),dp)
  2  1     0.00000000E+00   # Real(md2(2,1),dp)
  2  2     4.00000000E+06   # Real(md2(2,2),dp)
  2  3     0.00000000E+00   # Real(md2(2,3),dp)
  3  1     0.00000000E+00   # Real(md2(3,1),dp)
  3  2     0.00000000E+00   # Real(md2(3,2),dp)
  3  3     4.00000000E+06   # Real(md2(3,3),dp)
Block MSU2 Q=  1.99773551E+03  # (SUSY Scale)
  1  1     4.00000000E+06   # Real(mu2(1,1),dp)
  1  2     0.00000000E+00   # Real(mu2(1,2),dp)
  1  3     0.00000000E+00   # Real(mu2(1,3),dp)
  2  1     0.00000000E+00   # Real(mu2(2,1),dp)
  2  2     4.00000000E+06   # Real(mu2(2,2),dp)
  2  3     0.00000000E+00   # Real(mu2(2,3),dp)
  3  1     0.00000000E+00   # Real(mu2(3,1),dp)
  3  2     0.00000000E+00   # Real(mu2(3,2),dp)
  3  3     4.00000000E+06   # Real(mu2(3,3),dp)
Block MSE2 Q=  1.99773551E+03  # (SUSY Scale)
  1  1     4.00000000E+06   # Real(me2(1,1),dp)
  1  2     0.00000000E+00   # Real(me2(1,2),dp)
  1  3     0.00000000E+00   # Real(me2(1,3),dp)
  2  1     0.00000000E+00   # Real(me2(2,1),dp)
  2  2     4.00000000E+06   # Real(me2(2,2),dp)
  2  3     0.00000000E+00   # Real(me2(2,3),dp)
  3  1     0.00000000E+00   # Real(me2(3,1),dp)
  3  2     0.00000000E+00   # Real(me2(3,2),dp)
  3  3     4.00000000E+06   # Real(me2(3,3),dp)
Block RVM2LH1 Q=  1.99773551E+03  # (SUSY Scale)
   1    0.00000000E+00  # mlHd2(1) 
   2    0.00000000E+00  # mlHd2(2) 
   3    0.00000000E+00  # mlHd2(3) 
Block MASS  # Mass spectrum
#   PDG code      mass          particle
   1000001     2.04848897E+03  # Sd_1
   1000003     2.07162878E+03  # Sd_2
   1000005     2.07175850E+03  # Sd_3
   2000001     2.07175862E+03  # Sd_4
   2000003     2.09024030E+03  # Sd_5
   2000005     2.09024056E+03  # Sd_6
   1000002     1.90243318E+03  # Su_1
   1000004     2.07195562E+03  # Su_2
   1000006     2.07195608E+03  # Su_3
   2000002     2.08880109E+03  # Su_4
   2000004     2.08880132E+03  # Su_5
   2000006     2.14149083E+03  # Su_6
        25     1.22418731E+02  # hh_1
        35     9.97366338E+02  # hh_2
   1000012     2.01398264E+03  # hh_3
   1000014     2.01403938E+03  # hh_4
   1000016     2.01403958E+03  # hh_5
        36     9.96564532E+02  # Ah_2
   1000017     2.01398270E+03  # Ah_3
   1000018     2.01403938E+03  # Ah_4
   1000019     2.01403958E+03  # Ah_5
        37     9.99706696E+02  # Hpm_2
   1000011     2.00318931E+03  # Hpm_3
   2000011     2.00339347E+03  # Hpm_4
   1000013     2.00339420E+03  # Hpm_5
   2000013     2.01587109E+03  # Hpm_6
   1000015     2.01587122E+03  # Hpm_7
   2000015     2.01590638E+03  # Hpm_8
        23     9.11887000E+01  # VZ
        24     8.03152571E+01  # VWm
         1     5.00000000E-03  # Fd_1
         3     9.50000000E-02  # Fd_2
         5     4.18000000E+00  # Fd_3
         2     2.50000000E-03  # Fu_1
         4     1.27000000E+00  # Fu_2
         6     1.73500000E+02  # Fu_3
   1000021     3.13322797E+03  # Glu
        12     1.96553205E-12  # Chi_1
        14     1.21440521E-11  # Chi_2
        16     5.01471827E-11  # Chi_3
   1000022     5.07482063E+02  # Chi_4
   1000023     5.08939443E+02  # Chi_5
   1000025     8.96116759E+02  # Chi_6
   1000035     2.00966020E+03  # Chi_7
        11     5.10998930E-04  # Cha_1
        13     1.05658372E-01  # Cha_2
        15     1.77669000E+00  # Cha_3
   1000024     5.07870809E+02  # Cha_4
   1000037     2.00987938E+03  # Cha_5
Block DSQMIX Q=  1.99773551E+03  # ()
  1  1     0.00000000E+00   # Real(ZD(1,1),dp)
  1  2     0.00000000E+00   # Real(ZD(1,2),dp)
  1  3     9.98224376E-01   # Real(ZD(1,3),dp)
  1  4     0.00000000E+00   # Real(ZD(1,4),dp)
  1  5     0.00000000E+00   # Real(ZD(1,5),dp)
  1  6     5.95658856E-02   # Real(ZD(1,6),dp)
  2  1     0.00000000E+00   # Real(ZD(2,1),dp)
  2  2     0.00000000E+00   # Real(ZD(2,2),dp)
  2  3    -5.95658856E-02   # Real(ZD(2,3),dp)
  2  4     0.00000000E+00   # Real(ZD(2,4),dp)
  2  5     0.00000000E+00   # Real(ZD(2,5),dp)
  2  6     9.98224376E-01   # Real(ZD(2,6),dp)
  3  1    -0.00000000E+00   # Real(ZD(3,1),dp)
  3  2    -1.64940664E-03   # Real(ZD(3,2),dp)
  3  3    -0.00000000E+00   # Real(ZD(3,3),dp)
  3  4    -0.00000000E+00   # Real(ZD(3,4),dp)
  3  5    -9.99998640E-01   # Real(ZD(3,5),dp)
  3  6    -0.00000000E+00   # Real(ZD(3,6),dp)
  4  1     8.68101346E-05   # Real(ZD(4,1),dp)
  4  2     0.00000000E+00   # Real(ZD(4,2),dp)
  4  3     0.00000000E+00   # Real(ZD(4,3),dp)
  4  4     9.99999996E-01   # Real(ZD(4,4),dp)
  4  5     0.00000000E+00   # Real(ZD(4,5),dp)
  4  6     0.00000000E+00   # Real(ZD(4,6),dp)
  5  1     0.00000000E+00   # Real(ZD(5,1),dp)
  5  2    -9.99998640E-01   # Real(ZD(5,2),dp)
  5  3     0.00000000E+00   # Real(ZD(5,3),dp)
  5  4     0.00000000E+00   # Real(ZD(5,4),dp)
  5  5     1.64940664E-03   # Real(ZD(5,5),dp)
  5  6     0.00000000E+00   # Real(ZD(5,6),dp)
  6  1    -9.99999996E-01   # Real(ZD(6,1),dp)
  6  2    -0.00000000E+00   # Real(ZD(6,2),dp)
  6  3    -0.00000000E+00   # Real(ZD(6,3),dp)
  6  4     8.68101346E-05   # Real(ZD(6,4),dp)
  6  5    -0.00000000E+00   # Real(ZD(6,5),dp)
  6  6    -0.00000000E+00   # Real(ZD(6,6),dp)
Block USQMIX Q=  1.99773551E+03  # ()
  1  1    -0.00000000E+00   # Real(ZU(1,1),dp)
  1  2    -0.00000000E+00   # Real(ZU(1,2),dp)
  1  3    -6.30844676E-01   # Real(ZU(1,3),dp)
  1  4    -0.00000000E+00   # Real(ZU(1,4),dp)
  1  5    -0.00000000E+00   # Real(ZU(1,5),dp)
  1  6    -7.75909141E-01   # Real(ZU(1,6),dp)
  2  1     0.00000000E+00   # Real(ZU(2,1),dp)
  2  2     1.76838987E-03   # Real(ZU(2,2),dp)
  2  3     0.00000000E+00   # Real(ZU(2,3),dp)
  2  4     0.00000000E+00   # Real(ZU(2,4),dp)
  2  5     9.99998436E-01   # Real(ZU(2,5),dp)
  2  6     0.00000000E+00   # Real(ZU(2,6),dp)
  3  1    -3.48115528E-06   # Real(ZU(3,1),dp)
  3  2    -0.00000000E+00   # Real(ZU(3,2),dp)
  3  3    -0.00000000E+00   # Real(ZU(3,3),dp)
  3  4    -1.00000000E+00   # Real(ZU(3,4),dp)
  3  5    -0.00000000E+00   # Real(ZU(3,5),dp)
  3  6    -0.00000000E+00   # Real(ZU(3,6),dp)
  4  1     0.00000000E+00   # Real(ZU(4,1),dp)
  4  2     9.99998436E-01   # Real(ZU(4,2),dp)
  4  3     0.00000000E+00   # Real(ZU(4,3),dp)
  4  4     0.00000000E+00   # Real(ZU(4,4),dp)
  4  5    -1.76838987E-03   # Real(ZU(4,5),dp)
  4  6     0.00000000E+00   # Real(ZU(4,6),dp)
  5  1    -1.00000000E+00   # Real(ZU(5,1),dp)
  5  2     0.00000000E+00   # Real(ZU(5,2),dp)
  5  3     0.00000000E+00   # Real(ZU(5,3),dp)
  5  4     3.48115528E-06   # Real(ZU(5,4),dp)
  5  5     0.00000000E+00   # Real(ZU(5,5),dp)
  5  6     0.00000000E+00   # Real(ZU(5,6),dp)
  6  1     0.00000000E+00   # Real(ZU(6,1),dp)
  6  2     0.00000000E+00   # Real(ZU(6,2),dp)
  6  3    -7.75909141E-01   # Real(ZU(6,3),dp)
  6  4     0.00000000E+00   # Real(ZU(6,4),dp)
  6  5     0.00000000E+00   # Real(ZU(6,5),dp)
  6  6     6.30844676E-01   # Real(ZU(6,6),dp)
Block SCALARMIX Q=  1.99773551E+03  # ()
  1  1     2.00563551E-01   # ZH(1,1)
  1  2     9.79680691E-01   # ZH(1,2)
  1  3    -4.40535955E-05   # ZH(1,3)
  1  4     5.21909492E-05   # ZH(1,4)
  1  5    -4.20058601E-05   # ZH(1,5)
  2  1    -9.79680693E-01   # ZH(2,1)
  2  2     2.00563547E-01   # ZH(2,2)
  2  3    -3.06642436E-05   # ZH(2,3)
  2  4     3.36666375E-05   # ZH(2,4)
  2  5    -3.10222682E-05   # ZH(2,5)
  3  1    -2.19522866E-05   # ZH(3,1)
  3  2     4.73379479E-05   # ZH(3,2)
  3  3    -3.25284594E-04   # ZH(3,3)
  3  4     3.50258298E-04   # ZH(3,4)
  3  5     9.99999884E-01   # ZH(3,5)
  4  1     2.01558423E-05   # ZH(4,1)
  4  2    -5.23651189E-05   # ZH(4,2)
  4  3     1.05634066E-01   # ZH(4,3)
  4  4     9.94405019E-01   # ZH(4,4)
  4  5    -3.13934590E-04   # ZH(4,5)
  5  1     2.34732386E-05   # ZH(5,1)
  5  2    -5.51641677E-05   # ZH(5,2)
  5  3    -9.94405016E-01   # ZH(5,3)
  5  4     1.05633948E-01   # ZH(5,4)
  5  5    -3.60460714E-04   # ZH(5,5)
Block PSEUDOSCALARMIX Q=  1.99773551E+03  # ()
  1  1     1.94555361E-01   # ZA(1,1)
  1  2    -9.80891536E-01   # ZA(1,2)
  1  3    -4.38706105E-05   # ZA(1,3)
  1  4     5.19624593E-05   # ZA(1,4)
  1  5    -4.18391981E-05   # ZA(1,5)
  2  1    -9.80891538E-01   # ZA(2,1)
  2  2    -1.94555357E-01   # ZA(2,2)
  2  3    -3.02569515E-05   # ZA(2,3)
  2  4     3.31848354E-05   # ZA(2,4)
  2  5    -3.06334458E-05   # ZA(2,5)
  3  1     2.18935373E-05   # ZA(3,1)
  3  2     4.69641294E-05   # ZA(3,2)
  3  3     3.16835570E-04   # ZA(3,3)
  3  4    -3.47973633E-04   # ZA(3,4)
  3  5    -9.99999888E-01   # ZA(3,5)
  4  1     2.02776587E-05   # ZA(4,1)
  4  2     5.23928031E-05   # ZA(4,2)
  4  3     9.75850437E-02   # ZA(4,3)
  4  4     9.95227138E-01   # ZA(4,4)
  4  5    -3.15391521E-04   # ZA(4,5)
  5  1     2.32401803E-05   # ZA(5,1)
  5  2     5.43057905E-05   # ZA(5,2)
  5  3    -9.95227138E-01   # ZA(5,3)
  5  4     9.75849296E-02   # ZA(5,4)
  5  5    -3.49277320E-04   # ZA(5,5)
Block CHARGEMIX Q=  1.99773551E+03  # ()
  1  1     1.96015643E-01   # ZP(1,1)
  1  2    -9.80600766E-01   # ZP(1,2)
  1  3    -4.39162099E-05   # ZP(1,3)
  1  4     5.20182580E-05   # ZP(1,4)
  1  5    -4.18814999E-05   # ZP(1,5)
  1  6    -5.34356593E-15   # ZP(1,6)
  1  7     1.12451888E-12   # ZP(1,7)
  1  8    -2.00820564E-11   # ZP(1,8)
  2  1     9.80600768E-01   # ZP(2,1)
  2  2     1.96015639E-01   # ZP(2,2)
  2  3     3.03789298E-05   # ZP(2,3)
  2  4    -3.33290057E-05   # ZP(2,4)
  2  5     3.07502414E-05   # ZP(2,5)
  2  6     1.00021924E-10   # ZP(2,6)
  2  7    -2.16083944E-08   # ZP(2,7)
  2  8     3.64240742E-07   # ZP(2,8)
  3  1     4.26925889E-06   # ZP(3,1)
  3  2     8.47866017E-06   # ZP(3,2)
  3  3     1.77494681E-07   # ZP(3,3)
  3  4    -1.94929792E-07   # ZP(3,4)
  3  5    -1.78535567E-01   # ZP(3,5)
  3  6     2.38189282E-10   # ZP(3,6)
  3  7    -5.45282857E-08   # ZP(3,7)
  3  8    -9.83933459E-01   # ZP(3,8)
  4  1    -2.72856266E-07   # ZP(4,1)
  4  2    -6.48260129E-07   # ZP(4,2)
  4  3    -1.26796522E-08   # ZP(4,3)
  4  4    -1.11922201E-02   # ZP(4,4)
  4  5    -1.89792600E-09   # ZP(4,5)
  4  6    -4.66627257E-09   # ZP(4,6)
  4  7    -9.99937365E-01   # ZP(4,7)
  4  8     5.79701307E-08   # ZP(4,8)
  5  1     1.24484016E-09   # ZP(5,1)
  5  2     2.67350449E-09   # ZP(5,2)
  5  3    -5.41400977E-05   # ZP(5,3)
  5  4    -8.83022888E-12   # ZP(5,4)
  5  5     8.65798293E-12   # ZP(5,5)
  5  6    -9.99999999E-01   # ZP(5,6)
  5  7     4.66734816E-09   # ZP(5,7)
  5  8    -2.53387957E-10   # ZP(5,8)
  6  1    -2.09596875E-05   # ZP(6,1)
  6  2    -4.84523339E-05   # ZP(6,2)
  6  3     9.99952153E-01   # ZP(6,3)
  6  4     9.78128962E-03   # ZP(6,4)
  6  5    -3.18472974E-05   # ZP(6,5)
  6  6    -5.41375081E-05   # ZP(6,6)
  6  7    -1.09493846E-04   # ZP(6,7)
  6  8     5.95666345E-06   # ZP(6,8)
  7  1     2.26897483E-05   # ZP(7,1)
  7  2     5.80135650E-05   # ZP(7,2)
  7  3    -9.78189797E-03   # ZP(7,3)
  7  4     9.99889522E-01   # ZP(7,4)
  7  5     3.56803096E-05   # ZP(7,5)
  7  6     5.29532033E-07   # ZP(7,6)
  7  7    -1.11916845E-02   # ZP(7,7)
  7  8    -6.67285955E-06   # ZP(7,8)
  8  1    -2.15294476E-05   # ZP(8,1)
  8  2    -4.63308056E-05   # ZP(8,2)
  8  3     3.27498879E-05   # ZP(8,3)
  8  4    -3.59744651E-05   # ZP(8,4)
  8  5     9.83933456E-01   # ZP(8,5)
  8  6    -1.71947302E-09   # ZP(8,6)
  8  7     3.90476920E-07   # ZP(8,7)
  8  8    -1.78535567E-01   # ZP(8,8)
Block UVMIX Q=  1.99773551E+03  # ()
  1  1     0.00000000E+00   # Real(UV(1,1),dp)
  1  2     0.00000000E+00   # Real(UV(1,2),dp)
  1  3    -0.00000000E+00   # Real(UV(1,3),dp)
  1  4     0.00000000E+00   # Real(UV(1,4),dp)
  1  5     0.00000000E+00   # Real(UV(1,5),dp)
  1  6    -0.00000000E+00   # Real(UV(1,6),dp)
  1  7     0.00000000E+00   # Real(UV(1,7),dp)
  2  1    -5.66923725E-01   # Real(UV(2,1),dp)
  2  2     3.87968184E-01   # Real(UV(2,2),dp)
  2  3    -7.26689775E-01   # Real(UV(2,3),dp)
  2  4    -2.31419193E-10   # Real(UV(2,4),dp)
  2  5    -6.92259606E-09   # Real(UV(2,5),dp)
  2  6    -3.84709337E-04   # Real(UV(2,6),dp)
  2  7    -9.47240449E-11   # Real(UV(2,7),dp)
  3  1     0.00000000E+00   # Real(UV(3,1),dp)
  3  2    -0.00000000E+00   # Real(UV(3,2),dp)
  3  3    -0.00000000E+00   # Real(UV(3,3),dp)
  3  4     0.00000000E+00   # Real(UV(3,4),dp)
  3  5     0.00000000E+00   # Real(UV(3,5),dp)
  3  6     0.00000000E+00   # Real(UV(3,6),dp)
  3  7     0.00000000E+00   # Real(UV(3,7),dp)
  4  1    -1.56937864E-04   # Real(UV(4,1),dp)
  4  2     1.63569192E-04   # Real(UV(4,2),dp)
  4  3    -1.64632985E-04   # Real(UV(4,3),dp)
  4  4    -2.61986700E-02   # Real(UV(4,4),dp)
  4  5    -4.33172022E-02   # Real(UV(4,5),dp)
  4  6     7.07206440E-01   # Real(UV(4,6),dp)
  4  7    -7.05192330E-01   # Real(UV(4,7),dp)
  5  1    -0.00000000E+00   # Real(UV(5,1),dp)
  5  2     0.00000000E+00   # Real(UV(5,2),dp)
  5  3    -0.00000000E+00   # Real(UV(5,3),dp)
  5  4     0.00000000E+00   # Real(UV(5,4),dp)
  5  5     0.00000000E+00   # Real(UV(5,5),dp)
  5  6     0.00000000E+00   # Real(UV(5,6),dp)
  5  7     0.00000000E+00   # Real(UV(5,7),dp)
  6  1     0.00000000E+00   # Real(UV(6,1),dp)
  6  2    -0.00000000E+00   # Real(UV(6,2),dp)
  6  3     0.00000000E+00   # Real(UV(6,3),dp)
  6  4     0.00000000E+00   # Real(UV(6,4),dp)
  6  5    -0.00000000E+00   # Real(UV(6,5),dp)
  6  6    -0.00000000E+00   # Real(UV(6,6),dp)
  6  7    -0.00000000E+00   # Real(UV(6,7),dp)
  7  1     4.08211710E-06   # Real(UV(7,1),dp)
  7  2    -4.49688752E-06   # Real(UV(7,2),dp)
  7  3     4.11989576E-06   # Real(UV(7,3),dp)
  7  4     6.92745971E-04   # Real(UV(7,4),dp)
  7  5    -9.98908402E-01   # Real(UV(7,5),dp)
  7  6    -1.83147976E-02   # Real(UV(7,6),dp)
  7  7     4.29661839E-02   # Real(UV(7,7),dp)
Block IMUVMIX Q=  1.99773551E+03  # ()
  1  1     8.22689593E-01   # Aimag(UV(1,1))
  1  2     3.11822722E-01   # Aimag(UV(1,2))
  1  3    -4.75340325E-01   # Aimag(UV(1,3))
  1  4     2.10166091E-09   # Aimag(UV(1,4))
  1  5     1.61941258E-09   # Aimag(UV(1,5))
  1  6    -2.12113446E-07   # Aimag(UV(1,6))
  1  7     9.71470680E-12   # Aimag(UV(1,7))
  2  1     0.00000000E+00   # Aimag(UV(2,1))
  2  2     0.00000000E+00   # Aimag(UV(2,2))
  2  3     0.00000000E+00   # Aimag(UV(2,3))
  2  4     0.00000000E+00   # Aimag(UV(2,4))
  2  5     0.00000000E+00   # Aimag(UV(2,5))
  2  6     0.00000000E+00   # Aimag(UV(2,6))
  2  7     0.00000000E+00   # Aimag(UV(2,7))
  3  1     4.21814433E-02   # Aimag(UV(3,1))
  3  2    -8.67321869E-01   # Aimag(UV(3,2))
  3  3    -4.95957147E-01   # Aimag(UV(3,3))
  3  4     3.73044948E-07   # Aimag(UV(3,4))
  3  5     2.98310979E-07   # Aimag(UV(3,5))
  3  6     9.45412296E-05   # Aimag(UV(3,6))
  3  7     1.94732951E-09   # Aimag(UV(3,7))
  4  1     0.00000000E+00   # Aimag(UV(4,1))
  4  2     0.00000000E+00   # Aimag(UV(4,2))
  4  3     0.00000000E+00   # Aimag(UV(4,3))
  4  4     0.00000000E+00   # Aimag(UV(4,4))
  4  5     0.00000000E+00   # Aimag(UV(4,5))
  4  6     0.00000000E+00   # Aimag(UV(4,6))
  4  7     0.00000000E+00   # Aimag(UV(4,7))
  5  1    -1.56737466E-04   # Aimag(UV(5,1))
  5  2     1.63404412E-04   # Aimag(UV(5,2))
  5  3    -1.64393206E-04   # Aimag(UV(5,3))
  5  4     6.30080370E-02   # Aimag(UV(5,4))
  5  5     1.74138389E-02   # Aimag(UV(5,5))
  5  6     7.06290531E-01   # Aimag(UV(5,6))
  5  7     7.04897406E-01   # Aimag(UV(5,7))
  6  1     5.75715390E-06   # Aimag(UV(6,1))
  6  2    -5.69767842E-06   # Aimag(UV(6,2))
  6  3     6.24247120E-06   # Aimag(UV(6,3))
  6  4     9.97668851E-01   # Aimag(UV(6,4))
  6  5    -1.54367366E-03   # Aimag(UV(6,5))
  6  6    -2.60220856E-02   # Aimag(UV(6,6))
  6  7    -6.30660841E-02   # Aimag(UV(6,7))
  7  1     0.00000000E+00   # Aimag(UV(7,1))
  7  2     0.00000000E+00   # Aimag(UV(7,2))
  7  3     0.00000000E+00   # Aimag(UV(7,3))
  7  4     0.00000000E+00   # Aimag(UV(7,4))
  7  5     0.00000000E+00   # Aimag(UV(7,5))
  7  6     0.00000000E+00   # Aimag(UV(7,6))
  7  7     0.00000000E+00   # Aimag(UV(7,7))
Block UELMIX Q=  1.99773551E+03  # ()
  1  1    -9.99999975E-01   # Real(ZEL(1,1),dp)
  1  2    -5.33623112E-08   # Real(ZEL(1,2),dp)
  1  3     5.34899596E-08   # Real(ZEL(1,3),dp)
  1  4    -2.52471522E-08   # Real(ZEL(1,4),dp)
  1  5    -2.21910971E-04   # Real(ZEL(1,5),dp)
  2  1    -2.04461120E-09   # Real(ZEL(2,1),dp)
  2  2     9.99999973E-01   # Real(ZEL(2,2),dp)
  2  3     5.59469437E-08   # Real(ZEL(2,3),dp)
  2  4    -3.69496463E-07   # Real(ZEL(2,4),dp)
  2  5    -2.31253488E-04   # Real(ZEL(2,5),dp)
  3  1     1.82573745E-09   # Real(ZEL(3,1),dp)
  3  2    -2.10771238E-09   # Real(ZEL(3,2),dp)
  3  3     9.99999973E-01   # Real(ZEL(3,3),dp)
  3  4    -2.03523672E-07   # Real(ZEL(3,4),dp)
  3  5     2.32815105E-04   # Real(ZEL(3,5),dp)
  4  1     2.21835898E-04   # Real(ZEL(4,1),dp)
  4  2    -2.31166354E-04   # Real(ZEL(4,2),dp)
  4  3     2.32742274E-04   # Real(ZEL(4,3),dp)
  4  4     2.58981171E-02   # Real(ZEL(4,4),dp)
  4  5    -9.99664509E-01   # Real(ZEL(4,5),dp)
  5  1    -5.77231532E-06   # Real(ZEL(5,1),dp)
  5  2     6.35840245E-06   # Real(ZEL(5,2),dp)
  5  3    -5.82601709E-06   # Real(ZEL(5,3),dp)
  5  4     9.99664588E-01   # Real(ZEL(5,4),dp)
  5  5     2.58981150E-02   # Real(ZEL(5,5),dp)
Block UERMIX Q=  1.99773551E+03  # ()
  1  1    -1.00000000E+00   # Real(ZER(1,1),dp)
  1  2    -2.67278500E-10   # Real(ZER(1,2),dp)
  1  3     1.59338025E-11   # Real(ZER(1,3),dp)
  1  4    -7.23999339E-14   # Real(ZER(1,4),dp)
  1  5     1.32042905E-12   # Real(ZER(1,5),dp)
  2  1    -2.67278500E-10   # Real(ZER(2,1),dp)
  2  2     1.00000000E+00   # Real(ZER(2,2),dp)
  2  3     3.45444250E-09   # Real(ZER(2,3),dp)
  2  4    -3.75081455E-10   # Real(ZER(2,4),dp)
  2  5     6.59258696E-09   # Real(ZER(2,5),dp)
  3  1     1.59338035E-11   # Real(ZER(3,1),dp)
  3  2    -3.45444293E-09   # Real(ZER(3,2),dp)
  3  3     1.00000000E+00   # Real(ZER(3,3),dp)
  3  4    -3.78988676E-09   # Real(ZER(3,4),dp)
  3  5     6.63203698E-08   # Real(ZER(3,5),dp)
  4  1    -1.32238888E-12   # Real(ZER(4,1),dp)
  4  2     6.60319532E-09   # Real(ZER(4,2),dp)
  4  3     6.64281015E-08   # Real(ZER(4,3),dp)
  4  4     6.07948995E-02   # Real(ZER(4,4),dp)
  4  5    -9.98150279E-01   # Real(ZER(4,5),dp)
  5  1     8.00934032E-15   # Real(ZER(5,1),dp)
  5  2    -2.64080017E-11   # Real(ZER(5,2),dp)
  5  3    -2.49063694E-10   # Real(ZER(5,3),dp)
  5  4     9.98150279E-01   # Real(ZER(5,4),dp)
  5  5     6.07948995E-02   # Real(ZER(5,5),dp)
Block UDLMIX Q=  1.99773551E+03  # ()
  1  1     1.00000000E+00   # Real(ZDL(1,1),dp)
  1  2     0.00000000E+00   # Real(ZDL(1,2),dp)
  1  3     0.00000000E+00   # Real(ZDL(1,3),dp)
  2  1     0.00000000E+00   # Real(ZDL(2,1),dp)
  2  2     1.00000000E+00   # Real(ZDL(2,2),dp)
  2  3     0.00000000E+00   # Real(ZDL(2,3),dp)
  3  1     0.00000000E+00   # Real(ZDL(3,1),dp)
  3  2     0.00000000E+00   # Real(ZDL(3,2),dp)
  3  3     1.00000000E+00   # Real(ZDL(3,3),dp)
Block UDRMIX Q=  1.99773551E+03  # ()
  1  1     1.00000000E+00   # Real(ZDR(1,1),dp)
  1  2     0.00000000E+00   # Real(ZDR(1,2),dp)
  1  3     0.00000000E+00   # Real(ZDR(1,3),dp)
  2  1     0.00000000E+00   # Real(ZDR(2,1),dp)
  2  2     1.00000000E+00   # Real(ZDR(2,2),dp)
  2  3     0.00000000E+00   # Real(ZDR(2,3),dp)
  3  1     0.00000000E+00   # Real(ZDR(3,1),dp)
  3  2     0.00000000E+00   # Real(ZDR(3,2),dp)
  3  3     1.00000000E+00   # Real(ZDR(3,3),dp)
Block UULMIX Q=  1.99773551E+03  # ()
  1  1     1.00000000E+00   # Real(ZUL(1,1),dp)
  1  2     0.00000000E+00   # Real(ZUL(1,2),dp)
  1  3     0.00000000E+00   # Real(ZUL(1,3),dp)
  2  1     0.00000000E+00   # Real(ZUL(2,1),dp)
  2  2     1.00000000E+00   # Real(ZUL(2,2),dp)
  2  3     0.00000000E+00   # Real(ZUL(2,3),dp)
  3  1     0.00000000E+00   # Real(ZUL(3,1),dp)
  3  2     0.00000000E+00   # Real(ZUL(3,2),dp)
  3  3     1.00000000E+00   # Real(ZUL(3,3),dp)
Block UURMIX Q=  1.99773551E+03  # ()
  1  1     1.00000000E+00   # Real(ZUR(1,1),dp)
  1  2     0.00000000E+00   # Real(ZUR(1,2),dp)
  1  3     0.00000000E+00   # Real(ZUR(1,3),dp)
  2  1     0.00000000E+00   # Real(ZUR(2,1),dp)
  2  2     1.00000000E+00   # Real(ZUR(2,2),dp)
  2  3     0.00000000E+00   # Real(ZUR(2,3),dp)
  3  1     0.00000000E+00   # Real(ZUR(3,1),dp)
  3  2     0.00000000E+00   # Real(ZUR(3,2),dp)
  3  3     1.00000000E+00   # Real(ZUR(3,3),dp)
Block SPheno # SPheno internal parameters 
         1    -1.00000000E+00  # ErrorLevel
         2     0.00000000E+00  # SPA_conventions
        11     1.00000000E+00  # Branching ratios
        13     1.00000000E+00  # 3 Body decays
        31     1.99773551E+03  # GUT scale
        33     1.99773551E+03  # Renormalization scale
        34     1.00000000E-04  # Precision
        35     4.00000000E+01  # Iterations
        38     2.00000000E+00  # RGE level
        40     7.29735257E-03  # Alpha
        41     2.49520000E+00  # Gamma_Z
        42     2.06000000E+00  # Gamma_W
        50     1.00000000E+00  # Rotate negative fermion masses
        51     0.00000000E+00  # Switch to SCKM matrix
        52     0.00000000E+00  # Ignore negative masses
        53     0.00000000E+00  # Ignore negative masses at MZ
        55     1.00000000E+00  # Calculate one loop masses
        56     1.00000000E+00  # Calculate two-loop Higgs masses
        57     0.00000000E+00  # Calculate low energy
        60     1.00000000E+00  # Include kinetic mixing
        65     1.00000000E+00  # Solution of tadpole equation
         8     3.00000000E+00  # Two-Loop Method: diagrammatic 
         9     1.00000000E+00  # Gauge-less limit
       400     1.00000000E-01  # Step-size for purely-numerical methode for 2-loop calculation
       401     1.00000000E-03  # Step-size for semi-analytical methode for 2-loop calculation
       410     0.00000000E+00  # indicative error in numerical derivation
Block HiggsLHC7 # Higgs production cross section at LHC7 [pb] 
  1        25        1.59780815E+01 # Gluon fusion 
  2        25        1.23901702E+00 # Vector boson fusion 
  3        25        5.85311003E-01 # W-H production 
  4        25        3.38218121E-01 # Z-H production 
  5        25        9.15778441E-02 # t-t-H production 
  1        35        1.01503646E-01 # Gluon fusion 
  2        35        1.49582515E-06 # Vector boson fusion 
Block HiggsLHC8 # Higgs production cross section at LHC8 [pb] 
  1        25        2.02211058E+01 # Gluon fusion 
  2        25        1.59573776E+00 # Vector boson fusion 
  3        25        7.44508093E-01 # W-H production 
  4        25        4.22105526E-01 # Z-H production 
  5        25        1.38429914E-01 # t-t-H production 
  1        35        1.52636778E-01 # Gluon fusion 
  2        35        1.69508339E-06 # Vector boson fusion 
Block EFFHIGGSCOUPLINGS # values of loop-induced couplings 
        25           22           22     0.18416008E-04 # H-Photon-Photon 
        25           21           21     0.58949970E-04 # H-Gluon-Gluon 
        25           22           23     0.00000000E+00 # H-Photon-Z (not yet calculated by SPheno) 
        35           22           22     0.79233003E-04 # H-Photon-Photon 
        35           21           21     0.80055095E-05 # H-Gluon-Gluon 
        35           22           23     0.00000000E+00 # H-Photon-Z (not yet calculated by SPheno) 
   1000012           22           22     0.17186812E-08 # H-Photon-Photon 
   1000012           21           21     0.74886268E-09 # H-Gluon-Gluon 
   1000012           22           23     0.00000000E+00 # H-Photon-Z (not yet calculated by SPheno) 
   1000014           22           22     0.16469120E-08 # H-Photon-Photon 
   1000014           21           21     0.82956061E-09 # H-Gluon-Gluon 
   1000014           22           23     0.00000000E+00 # H-Photon-Z (not yet calculated by SPheno) 
   1000016           22           22     0.18727697E-08 # H-Photon-Photon 
   1000016           21           21     0.87324871E-09 # H-Gluon-Gluon 
   1000016           22           23     0.00000000E+00 # H-Photon-Z (not yet calculated by SPheno) 
        36           22           22     0.12812308E-05 # A-Photon-Photon 
        36           21           21     0.11216160E-04 # A-Gluon-Gluon 
        36           22           23     0.00000000E+00 # A-Photon-Z (not yet calculated by SPheno) 
   1000017           22           22     0.14819871E-09 # A-Photon-Photon 
   1000017           21           21     0.10097622E-08 # A-Gluon-Gluon 
   1000017           22           23     0.00000000E+00 # A-Photon-Z (not yet calculated by SPheno) 
   1000018           22           22     0.15778853E-09 # A-Photon-Photon 
   1000018           21           21     0.11260293E-08 # A-Gluon-Gluon 
   1000018           22           23     0.00000000E+00 # A-Photon-Z (not yet calculated by SPheno) 
   1000019           22           22     0.16686378E-09 # A-Photon-Photon 
   1000019           21           21     0.11673862E-08 # A-Gluon-Gluon 
   1000019           22           23     0.00000000E+00 # A-Photon-Z (not yet calculated by SPheno) 
Block SPhenoLowEnergy # low energy observables 
      20    0.00000000E+00  # (g-2)_e
      21    0.00000000E+00  # (g-2)_mu
      22    0.00000000E+00  # (g-2)_tau
      23    0.00000000E+00  # EDM(e)
      24    0.00000000E+00  # EDM(mu)
      25    0.00000000E+00  # EDM(tau)
      39    0.00000000E+00  # delta(rho)
Block FlavorKitQFV # quark flavor violating observables 
     200    0.00000000E+00  # BR(B->X_s gamma)
     201    0.00000000E+00  # BR(B->X_s gamma)/BR(B->X_s gamma)_SM
     300    0.00000000E+00  # BR(D->mu nu)
     301    0.00000000E+00  # BR(D->mu nu)/BR(D->mu nu)_SM
     400    0.00000000E+00  # BR(Ds->mu nu)
     401    0.00000000E+00  # BR(Ds->mu nu)/BR(Ds->mu nu)_SM
     402    0.00000000E+00  # BR(Ds->tau nu)
     403    0.00000000E+00  # BR(Ds->tau nu)/BR(Ds->tau nu)_SM
     500    0.00000000E+00  # BR(B->mu nu)
     501    0.00000000E+00  # BR(B->mu nu)/BR(B->mu nu)_SM
     502    0.00000000E+00  # BR(B->tau nu)
     503    0.00000000E+00  # BR(B->tau nu)/BR(B->tau nu)_SM
     600    0.00000000E+00  # BR(K->mu nu)
     601    0.00000000E+00  # BR(K->mu nu)/BR(K->mu nu)_SM
     602    0.00000000E+00  # R_K = BR(K->e nu)/(K->mu nu)
     603    0.00000000E+00  # R_K^SM = BR(K->e nu)_SM/(K->mu nu)_SM
    1900    0.00000000E+00  # Delta(M_Bs)
    1901    0.00000000E+00  # Delta(M_Bs)/Delta(M_Bs)_SM
    1902    0.00000000E+00  # Delta(M_Bd)
    1903    0.00000000E+00  # Delta(M_Bd)/Delta(M_Bd)_SM
    4000    0.00000000E+00  # BR(B^0_d->e e)
    4001    0.00000000E+00  # BR(B^0_d->e e)/BR(B^0_d->e e)_SM
    4002    0.00000000E+00  # BR(B^0_s->e e)
    4003    0.00000000E+00  # BR(B^0_s->e e)/BR(B^0_s->e e)_SM
    4004    0.00000000E+00  # BR(B^0_d->mu mu)
    4005    0.00000000E+00  # BR(B^0_d->mu mu)/BR(B^0_d->mu mu)_SM
    4006    0.00000000E+00  # BR(B^0_s->mu mu)
    4007    0.00000000E+00  # BR(B^0_s->mu mu)/BR(B^0_s->mu mu)_SM
    4008    0.00000000E+00  # BR(B^0_d->tau tau)
    4009    0.00000000E+00  # BR(B^0_d->tau tau)/BR(B^0_d->tau tau)_SM
    4010    0.00000000E+00  # BR(B^0_s->tau tau)
    4011    0.00000000E+00  # BR(B^0_s->tau tau)/BR(B^0_s->tau tau)_SM
    5000    0.00000000E+00  # BR(B-> s e e)
    5001    0.00000000E+00  # BR(B-> s e e)/BR(B-> s e e)_SM
    5002    0.00000000E+00  # BR(B-> s mu mu)
    5003    0.00000000E+00  # BR(B-> s mu mu)/BR(B-> s mu mu)_SM
    6000    0.00000000E+00  # BR(B -> K mu mu)
    6001    0.00000000E+00  # BR(B -> K mu mu)/BR(B -> K mu mu)_SM
    7000    0.00000000E+00  # BR(B->s nu nu)
    7001    0.00000000E+00  # BR(B->s nu nu)/BR(B->s nu nu)_SM
    7002    0.00000000E+00  # BR(B->D nu nu)
    7003    0.00000000E+00  # BR(B->D nu nu)/BR(B->D nu nu)_SM
    8000    0.00000000E+00  # BR(K^+ -> pi^+ nu nu)
    8001    0.00000000E+00  # BR(K^+ -> pi^+ nu nu)/BR(K^+ -> pi^+ nu nu)_SM
    8002    0.00000000E+00  # BR(K_L -> pi^0 nu nu)
    8003    0.00000000E+00  # BR(K_L -> pi^0 nu nu)/BR(K_L -> pi^0 nu nu)_SM
    9100    0.00000000E+00  # Delta(M_K)
    9102    0.00000000E+00  # Delta(M_K)/Delta(M_K)_SM
    9103    0.00000000E+00  # epsilon_K
    9104    0.00000000E+00  # epsilon_K/epsilon_K^SM
Block FlavorKitLFV # lepton flavor violating observables 
     701    0.00000000E+00  # BR(mu->e gamma)
     702    0.00000000E+00  # BR(tau->e gamma)
     703    0.00000000E+00  # BR(tau->mu gamma)
     800    0.00000000E+00  # CR(mu-e, Al)
     801    0.00000000E+00  # CR(mu-e, Ti)
     802    0.00000000E+00  # CR(mu-e, Sr)
     803    0.00000000E+00  # CR(mu-e, Sb)
     804    0.00000000E+00  # CR(mu-e, Au)
     805    0.00000000E+00  # CR(mu-e, Pb)
     901    0.00000000E+00  # BR(mu->3e)
     902    0.00000000E+00  # BR(tau->3e)
     903    0.00000000E+00  # BR(tau->3mu)
     904    0.00000000E+00  # BR(tau- -> e- mu+ mu-)
     905    0.00000000E+00  # BR(tau- -> mu- e+ e-)
     906    0.00000000E+00  # BR(tau- -> e+ mu- mu-)
     907    0.00000000E+00  # BR(tau- -> mu+ e- e-)
    1001    0.00000000E+00  # BR(Z->e mu)
    1002    0.00000000E+00  # BR(Z->e tau)
    1003    0.00000000E+00  # BR(Z->mu tau)
    1101    0.00000000E+00  # BR(h->e mu)
    1102    0.00000000E+00  # BR(h->e tau)
    1103    0.00000000E+00  # BR(h->mu tau)
    2001    0.00000000E+00  # BR(tau->e pi)
    2002    0.00000000E+00  # BR(tau->e eta)
    2003    0.00000000E+00  # BR(tau->e eta')
    2004    0.00000000E+00  # BR(tau->mu pi)
    2005    0.00000000E+00  # BR(tau->mu eta)
    2006    0.00000000E+00  # BR(tau->mu eta')
Block FWCOEF Q=  1.60000000E+02  # Wilson coefficients at scale Q 
      030 4422   00   0     0.00000000E+00    # coeffC7sm
      030 4422   00   2     0.00000000E+00    # coeffC7
      030 4322   00   2     0.00000000E+00    # coeffC7p
      030 6421   00   0     0.00000000E+00    # coeffC8sm
      030 6421   00   2     0.00000000E+00    # coeffC8
      030 6321   00   2     0.00000000E+00    # coeffC8p
  0305111 4133   00   0     0.00000000E+00    # coeffC9eeSM
  0305111 4133   00   2     0.00000000E+00    # coeffC9ee
  0305111 4233   00   2     0.00000000E+00    # coeffC9Pee
  0305111 4137   00   0     0.00000000E+00    # coeffC10eeSM
  0305111 4137   00   2     0.00000000E+00    # coeffC10ee
  0305111 4237   00   2     0.00000000E+00    # coeffC10Pee
  0305131 4133   00   0     0.00000000E+00    # coeffC9mumuSM
  0305131 4133   00   2     0.00000000E+00    # coeffC9mumu
  0305131 4233   00   2     0.00000000E+00    # coeffC9Pmumu
  0305131 4137   00   0     0.00000000E+00    # coeffC10mumuSM
  0305131 4137   00   2     0.00000000E+00    # coeffC10mumu
  0305131 4237   00   2     0.00000000E+00    # coeffC10Pmumu
  0305121 4137   00   0     0.00000000E+00    # coeffC11nu1nu1SM
  0305121 4137   00   2     0.00000000E+00    # coeffC11nu1nu1
  0305121 4237   00   2     0.00000000E+00    # coeffC11Pnu1nu1
  0305141 4137   00   0     0.00000000E+00    # coeffC11nu2nu2SM
  0305141 4137   00   2     0.00000000E+00    # coeffC11nu2nu2
  0305141 4237   00   2     0.00000000E+00    # coeffC11Pnu2nu2
  0305161 4137   00   0     0.00000000E+00    # coeffC11nu3nu3SM
  0305161 4137   00   2     0.00000000E+00    # coeffC11nu3nu3
  0305161 4237   00   2     0.00000000E+00    # coeffC11Pnu3nu3
Block IMFWCOEF Q=  1.60000000E+02  # Im(Wilson coefficients) at scale Q 
      030 4422   00   0     0.00000000E+00    # coeffC7sm
      030 4422   00   2     0.00000000E+00    # coeffC7
      030 4322   00   2     0.00000000E+00    # coeffC7p
      030 6421   00   0     0.00000000E+00    # coeffC8sm
      030 6421   00   2     0.00000000E+00    # coeffC8
      030 6321   00   2     0.00000000E+00    # coeffC8p
  0305111 4133   00   0     0.00000000E+00    # coeffC9eeSM
  0305111 4133   00   2     0.00000000E+00    # coeffC9ee
  0305111 4233   00   2     0.00000000E+00    # coeffC9Pee
  0305111 4137   00   0     0.00000000E+00    # coeffC10eeSM
  0305111 4137   00   2     0.00000000E+00    # coeffC10ee
  0305111 4237   00   2     0.00000000E+00    # coeffC10Pee
  0305131 4133   00   0     0.00000000E+00    # coeffC9mumuSM
  0305131 4133   00   2     0.00000000E+00    # coeffC9mumu
  0305131 4233   00   2     0.00000000E+00    # coeffC9Pmumu
  0305131 4137   00   0     0.00000000E+00    # coeffC10mumuSM
  0305131 4137   00   2     0.00000000E+00    # coeffC10mumu
  0305131 4237   00   2     0.00000000E+00    # coeffC10Pmumu
  0305121 4137   00   0     0.00000000E+00    # coeffC11nu1nu1SM
  0305121 4137   00   2     0.00000000E+00    # coeffC11nu1nu1
  0305121 4237   00   2     0.00000000E+00    # coeffC11Pnu1nu1
  0305141 4137   00   0     0.00000000E+00    # coeffC11nu2nu2SM
  0305141 4137   00   2     0.00000000E+00    # coeffC11nu2nu2
  0305141 4237   00   2     0.00000000E+00    # coeffC11Pnu2nu2
  0305161 4137   00   0     0.00000000E+00    # coeffC11nu3nu3SM
  0305161 4137   00   2     0.00000000E+00    # coeffC11nu3nu3
  0305161 4237   00   2     0.00000000E+00    # coeffC11Pnu3nu3
DECAY   1000001     2.91623691E+01   # Sd_1
#    BR                NDA      ID1      ID2
     8.76090081E-01    2            6   -1000024   # BR(Sd_1 -> Fu_3 Cha_4 )
     3.16070041E-03    2            5    1000022   # BR(Sd_1 -> Fd_3 Chi_4 )
     2.76587608E-03    2            5    1000023   # BR(Sd_1 -> Fd_3 Chi_5 )
     6.82856373E-03    2            5    1000025   # BR(Sd_1 -> Fd_3 Chi_6 )
     3.95353932E-04    2            5    1000035   # BR(Sd_1 -> Fd_3 Chi_7 )
     1.10759424E-01    2      1000002        -24   # BR(Sd_1 -> Su_1 VWm )
DECAY   1000003     1.23377211E+00   # Sd_2
#    BR                NDA      ID1      ID2
     2.06961818E-01    2            6   -1000024   # BR(Sd_2 -> Fu_3 Cha_4 )
     6.35035657E-02    2            5    1000022   # BR(Sd_2 -> Fd_3 Chi_4 )
     6.68267951E-02    2            5    1000023   # BR(Sd_2 -> Fd_3 Chi_5 )
     6.45931086E-01    2            5    1000025   # BR(Sd_2 -> Fd_3 Chi_6 )
     1.66857506E-02    2      1000002        -24   # BR(Sd_2 -> Su_1 VWm )
DECAY   1000005     8.02873747E-01   # Sd_3
#    BR                NDA      ID1      ID2
     9.54828862E-04    2            3    1000022   # BR(Sd_3 -> Fd_2 Chi_4 )
     5.33327502E-03    2            3    1000023   # BR(Sd_3 -> Fd_2 Chi_5 )
     9.93634799E-01    2            3    1000025   # BR(Sd_3 -> Fd_2 Chi_6 )
DECAY   2000001     8.02753141E-01   # Sd_4
#    BR                NDA      ID1      ID2
     9.16429703E-04    2            1    1000022   # BR(Sd_4 -> Fd_1 Chi_4 )
     5.29628655E-03    2            1    1000023   # BR(Sd_4 -> Fd_1 Chi_5 )
     9.93787068E-01    2            1    1000025   # BR(Sd_4 -> Fd_1 Chi_6 )
DECAY   2000003     3.71735056E-01   # Sd_5
#    BR                NDA      ID1      ID2
     2.76463983E-02    2            4   -1000024   # BR(Sd_5 -> Fu_2 Cha_4 )
     2.57955281E-01    2            4   -1000037   # BR(Sd_5 -> Fu_2 Cha_5 )
     2.96041386E-02    2            3    1000022   # BR(Sd_5 -> Fd_2 Chi_4 )
     6.66948529E-04    2            3    1000023   # BR(Sd_5 -> Fd_2 Chi_5 )
     5.54607266E-01    2            3    1000025   # BR(Sd_5 -> Fd_2 Chi_6 )
     1.29519967E-01    2            3    1000035   # BR(Sd_5 -> Fd_2 Chi_7 )
DECAY   2000005     3.71223832E-01   # Sd_6
#    BR                NDA      ID1      ID2
     2.64335918E-02    2            2   -1000024   # BR(Sd_6 -> Fu_1 Cha_4 )
     2.58343583E-01    2            2   -1000037   # BR(Sd_6 -> Fu_1 Cha_5 )
     2.95683901E-02    2            1    1000022   # BR(Sd_6 -> Fd_1 Chi_4 )
     5.90143838E-04    2            1    1000023   # BR(Sd_6 -> Fd_1 Chi_5 )
     5.55364757E-01    2            1    1000025   # BR(Sd_6 -> Fd_1 Chi_6 )
     1.29699534E-01    2            1    1000035   # BR(Sd_6 -> Fd_1 Chi_7 )
DECAY   1000002     4.06974220E+01   # Su_1
#    BR                NDA      ID1      ID2
     2.76779279E-01    2            6    1000022   # BR(Su_1 -> Fu_3 Chi_4 )
     2.95901695E-01    2            6    1000023   # BR(Su_1 -> Fu_3 Chi_5 )
     4.87945485E-02    2            6    1000025   # BR(Su_1 -> Fu_3 Chi_6 )
     3.78524477E-01    2      1000024          5   # BR(Su_1 -> Cha_4^* Fd_3 )
DECAY   1000004     3.21253493E+00   # Su_2
#    BR                NDA      ID1      ID2
     9.89431863E-04    2            4    1000022   # BR(Su_2 -> Fu_2 Chi_4 )
     5.36489768E-03    2            4    1000023   # BR(Su_2 -> Fu_2 Chi_5 )
     9.93495943E-01    2            4    1000025   # BR(Su_2 -> Fu_2 Chi_6 )
     1.49669723E-04    2      1000024          3   # BR(Su_2 -> Cha_4^* Fd_2 )
DECAY   1000006     3.21159773E+00   # Su_3
#    BR                NDA      ID1      ID2
     9.16265578E-04    2            2    1000022   # BR(Su_3 -> Fu_1 Chi_4 )
     5.29585119E-03    2            2    1000023   # BR(Su_3 -> Fu_1 Chi_5 )
     9.93787880E-01    2            2    1000025   # BR(Su_3 -> Fu_1 Chi_6 )
DECAY   2000002     4.16060618E-01   # Su_4
#    BR                NDA      ID1      ID2
     4.24166829E-02    2            4    1000022   # BR(Su_4 -> Fu_2 Chi_4 )
     1.60792309E-02    2            4    1000023   # BR(Su_4 -> Fu_2 Chi_5 )
     4.79055835E-01    2            4    1000025   # BR(Su_4 -> Fu_2 Chi_6 )
     1.11704336E-01    2            4    1000035   # BR(Su_4 -> Fu_2 Chi_7 )
     1.28774204E-01    2      1000024          3   # BR(Su_4 -> Cha_4^* Fd_2 )
     2.21969711E-01    2      1000037          3   # BR(Su_4 -> Cha_5^* Fd_2 )
DECAY   2000004     4.15554922E-01   # Su_5
#    BR                NDA      ID1      ID2
     4.19195839E-02    2            2    1000022   # BR(Su_5 -> Fu_1 Chi_4 )
     1.55291172E-02    2            2    1000023   # BR(Su_5 -> Fu_1 Chi_5 )
     4.79624078E-01    2            2    1000025   # BR(Su_5 -> Fu_1 Chi_6 )
     1.11854858E-01    2            2    1000035   # BR(Su_5 -> Fu_1 Chi_7 )
     1.28830718E-01    2      1000024          1   # BR(Su_5 -> Cha_4^* Fd_1 )
     2.22241645E-01    2      1000037          1   # BR(Su_5 -> Cha_5^* Fd_1 )
DECAY   2000006     4.44895772E+01   # Su_6
#    BR                NDA      ID1      ID2
     3.10826063E-01    2            6    1000022   # BR(Su_6 -> Fu_3 Chi_4 )
     2.96707455E-01    2            6    1000023   # BR(Su_6 -> Fu_3 Chi_5 )
     2.75888427E-02    2            6    1000025   # BR(Su_6 -> Fu_3 Chi_6 )
     2.22714636E-01    2      1000024          5   # BR(Su_6 -> Cha_4^* Fd_3 )
     3.75422871E-03    2      1000037          5   # BR(Su_6 -> Cha_5^* Fd_3 )
     6.01992697E-03    2      1000002         25   # BR(Su_6 -> Su_1 hh_1 )
     6.51243896E-03    2      1000001         24   # BR(Su_6 -> Sd_1 VWm^* )
     1.25876409E-01    2      1000002         23   # BR(Su_6 -> Su_1 VZ )
DECAY        25     2.53731630E-03   # hh_1
#    BR                NDA      ID1      ID2
     1.21963574E-03    2           22         22   # BR(hh_1 -> VP VP )
     1.30899129E-01    2           21         21   # BR(hh_1 -> VG VG )
     2.14981777E-02    2           23         23   # BR(hh_1 -> VZ VZ )
     2.08472381E-01    2           24        -24   # BR(hh_1 -> VWm^* VWm_virt )
     3.39813172E-04    2          -13         13   # BR(hh_1 -> Cha_2^* Cha_2 )
     9.59672964E-02    2          -15         15   # BR(hh_1 -> Cha_3^* Cha_3 )
     1.88287524E-04    2           -3          3   # BR(hh_1 -> Fd_2^* Fd_2 )
     5.06162196E-01    2           -5          5   # BR(hh_1 -> Fd_3^* Fd_3 )
     3.52524170E-02    2           -4          4   # BR(hh_1 -> Fu_2^* Fu_2 )
DECAY        35     1.79403365E+00   # hh_2
#    BR                NDA      ID1      ID2
     1.72669614E-02    2           22         22   # BR(hh_2 -> VP VP )
     1.80773702E-03    2           21         21   # BR(hh_2 -> VG VG )
     2.64167859E-02    2          -15         15   # BR(hh_2 -> Cha_3^* Cha_3 )
     1.40121576E-01    2           -5          5   # BR(hh_2 -> Fd_3^* Fd_3 )
     8.02664492E-01    2           -6          6   # BR(hh_2 -> Fu_3^* Fu_3 )
     6.72416130E-03    2           25         25   # BR(hh_2 -> hh_1 hh_1 )
     3.17444106E-03    2          -24         24   # BR(hh_2 -> VWm VWm^* )
     1.66146690E-03    2           23         23   # BR(hh_2 -> VZ VZ )
DECAY   1000012     1.85472233E+00   # hh_3
#    BR                NDA      ID1      ID2
     3.73214458E-02    2          -15   -1000024   # BR(hh_3 -> Cha_3^* Cha_4 )
     3.73214458E-02    2      1000024         15   # BR(hh_3 -> Cha_4^* Cha_3 )
     6.98591623E-04    2           12    1000022   # BR(hh_3 -> Chi_1 Chi_4 )
     2.99813090E-04    2           12    1000023   # BR(hh_3 -> Chi_1 Chi_5 )
     2.08176129E-01    2           12    1000025   # BR(hh_3 -> Chi_1 Chi_6 )
     1.63019606E-03    2           14    1000022   # BR(hh_3 -> Chi_2 Chi_4 )
     6.99627796E-04    2           14    1000023   # BR(hh_3 -> Chi_2 Chi_5 )
     4.85788685E-01    2           14    1000025   # BR(hh_3 -> Chi_2 Chi_6 )
     7.60972346E-04    2           16    1000022   # BR(hh_3 -> Chi_3 Chi_4 )
     3.26584892E-04    2           16    1000023   # BR(hh_3 -> Chi_3 Chi_5 )
     2.26765212E-01    2           16    1000025   # BR(hh_3 -> Chi_3 Chi_6 )
DECAY   1000014     1.76784974E+00   # hh_4
#    BR                NDA      ID1      ID2
     1.61366655E-04    2          -11   -1000024   # BR(hh_4 -> Cha_1^* Cha_4 )
     1.43862241E-02    2          -13   -1000024   # BR(hh_4 -> Cha_2^* Cha_4 )
     1.61366655E-04    2      1000024         11   # BR(hh_4 -> Cha_4^* Cha_1 )
     1.43862241E-02    2      1000024         13   # BR(hh_4 -> Cha_4^* Cha_2 )
     5.11260490E-04    2           12    1000022   # BR(hh_4 -> Chi_1 Chi_4 )
     2.19416594E-04    2           12    1000023   # BR(hh_4 -> Chi_1 Chi_5 )
     1.52355645E-01    2           12    1000025   # BR(hh_4 -> Chi_1 Chi_6 )
     3.44809979E-04    2           14    1000022   # BR(hh_4 -> Chi_2 Chi_4 )
     1.47981377E-04    2           14    1000023   # BR(hh_4 -> Chi_2 Chi_5 )
     1.02753387E-01    2           14    1000025   # BR(hh_4 -> Chi_2 Chi_6 )
     2.38563729E-03    2           16    1000022   # BR(hh_4 -> Chi_3 Chi_4 )
     1.02383896E-03    2           16    1000023   # BR(hh_4 -> Chi_3 Chi_5 )
     7.10920001E-01    2           16    1000025   # BR(hh_4 -> Chi_3 Chi_6 )
DECAY   1000016     1.76754834E+00   # hh_5
#    BR                NDA      ID1      ID2
     1.43023053E-02    2          -11   -1000024   # BR(hh_5 -> Cha_1^* Cha_4 )
     1.62368322E-04    2          -13   -1000024   # BR(hh_5 -> Cha_2^* Cha_4 )
     1.43023053E-02    2      1000024         11   # BR(hh_5 -> Cha_4^* Cha_1 )
     1.62368322E-04    2      1000024         13   # BR(hh_5 -> Cha_4^* Cha_2 )
     1.99784147E-03    2           12    1000022   # BR(hh_5 -> Chi_1 Chi_4 )
     8.57409441E-04    2           12    1000023   # BR(hh_5 -> Chi_1 Chi_5 )
     5.95356875E-01    2           12    1000025   # BR(hh_5 -> Chi_1 Chi_6 )
     1.18673427E-03    2           14    1000022   # BR(hh_5 -> Chi_2 Chi_4 )
     5.09308264E-04    2           14    1000023   # BR(hh_5 -> Chi_2 Chi_5 )
     3.53646883E-01    2           14    1000025   # BR(hh_5 -> Chi_2 Chi_6 )
     1.71901734E-02    2           16    1000025   # BR(hh_5 -> Chi_3 Chi_6 )
DECAY        36     1.85535199E+00   # Ah_2
#    BR                NDA      ID1      ID2
     2.37348218E-03    2           21         21   # BR(Ah_2 -> VG VG )
     2.55866455E-02    2          -15         15   # BR(Ah_2 -> Cha_3^* Cha_3 )
     1.35726100E-01    2           -5          5   # BR(Ah_2 -> Fd_3^* Fd_3 )
     8.30150835E-01    2           -6          6   # BR(Ah_2 -> Fu_3^* Fu_3 )
     6.00232001E-03    2           25         23   # BR(Ah_2 -> hh_1 VZ )
DECAY   1000017     1.85472245E+00   # Ah_3
#    BR                NDA      ID1      ID2
     3.73214450E-02    2          -15   -1000024   # BR(Ah_3 -> Cha_3^* Cha_4 )
     3.73214450E-02    2      1000024         15   # BR(Ah_3 -> Cha_4^* Cha_3 )
     6.98573277E-04    2           12    1000022   # BR(Ah_3 -> Chi_1 Chi_4 )
     2.99805216E-04    2           12    1000023   # BR(Ah_3 -> Chi_1 Chi_5 )
     2.08170667E-01    2           12    1000025   # BR(Ah_3 -> Chi_1 Chi_6 )
     1.63022150E-03    2           14    1000022   # BR(Ah_3 -> Chi_2 Chi_4 )
     6.99638716E-04    2           14    1000023   # BR(Ah_3 -> Chi_2 Chi_5 )
     4.85796277E-01    2           14    1000025   # BR(Ah_3 -> Chi_2 Chi_6 )
     7.60965160E-04    2           16    1000022   # BR(Ah_3 -> Chi_3 Chi_4 )
     3.26581809E-04    2           16    1000023   # BR(Ah_3 -> Chi_3 Chi_5 )
     2.26763076E-01    2           16    1000025   # BR(Ah_3 -> Chi_3 Chi_6 )
DECAY   1000018     1.76785025E+00   # Ah_4
#    BR                NDA      ID1      ID2
     1.37712144E-04    2          -11   -1000024   # BR(Ah_4 -> Cha_1^* Cha_4 )
     1.44100172E-02    2          -13   -1000024   # BR(Ah_4 -> Cha_2^* Cha_4 )
     1.37712144E-04    2      1000024         11   # BR(Ah_4 -> Cha_4^* Cha_1 )
     1.44100172E-02    2      1000024         13   # BR(Ah_4 -> Cha_4^* Cha_2 )
     4.95003793E-04    2           12    1000022   # BR(Ah_4 -> Chi_1 Chi_4 )
     2.12439741E-04    2           12    1000023   # BR(Ah_4 -> Chi_1 Chi_5 )
     1.47511149E-01    2           12    1000025   # BR(Ah_4 -> Chi_1 Chi_6 )
     3.55212675E-04    2           14    1000022   # BR(Ah_4 -> Chi_2 Chi_4 )
     1.52445880E-04    2           14    1000023   # BR(Ah_4 -> Chi_2 Chi_5 )
     1.05853390E-01    2           14    1000025   # BR(Ah_4 -> Chi_2 Chi_6 )
     2.39149035E-03    2           16    1000022   # BR(Ah_4 -> Chi_3 Chi_4 )
     1.02635091E-03    2           16    1000023   # BR(Ah_4 -> Chi_3 Chi_5 )
     7.12664213E-01    2           16    1000025   # BR(Ah_4 -> Chi_3 Chi_6 )
DECAY   1000019     1.76754783E+00   # Ah_5
#    BR                NDA      ID1      ID2
     1.43259680E-02    2          -11   -1000024   # BR(Ah_5 -> Cha_1^* Cha_4 )
     1.38567031E-04    2          -13   -1000024   # BR(Ah_5 -> Cha_2^* Cha_4 )
     1.43259680E-02    2      1000024         11   # BR(Ah_5 -> Cha_4^* Cha_1 )
     1.38567031E-04    2      1000024         13   # BR(Ah_5 -> Cha_4^* Cha_2 )
     2.01412061E-03    2           12    1000022   # BR(Ah_5 -> Chi_1 Chi_4 )
     8.64395923E-04    2           12    1000023   # BR(Ah_5 -> Chi_1 Chi_5 )
     6.00208058E-01    2           12    1000025   # BR(Ah_5 -> Chi_1 Chi_6 )
     1.17630329E-03    2           14    1000022   # BR(Ah_5 -> Chi_2 Chi_4 )
     5.04831619E-04    2           14    1000023   # BR(Ah_5 -> Chi_2 Chi_5 )
     3.50538449E-01    2           14    1000025   # BR(Ah_5 -> Chi_2 Chi_6 )
     1.54477019E-02    2           16    1000025   # BR(Ah_5 -> Chi_3 Chi_6 )
DECAY        37     1.86357297E+00   # Hpm_2
#    BR                NDA      ID1      ID2
     5.77048450E-03    2           12        -15   # BR(Hpm_2^* -> Chi_1 Cha_3^* )
     1.34865560E-02    2           14        -15   # BR(Hpm_2^* -> Chi_2 Cha_3^* )
     6.28190362E-03    2           16        -15   # BR(Hpm_2^* -> Chi_3 Cha_3^* )
     9.70922810E-01    2            6         -5   # BR(Hpm_2^* -> Fu_3 Fd_3^* )
     3.38193629E-03    2           25         24   # BR(Hpm_2^* -> hh_1 VWm^* )
DECAY   1000011     6.78965080E+00   # Hpm_3
#    BR                NDA      ID1      ID2
     3.13789049E-03    2           12   -1000024   # BR(Hpm_3 -> Chi_1 Cha_4 )
     7.33375780E-03    2           14   -1000024   # BR(Hpm_3 -> Chi_2 Cha_4 )
     3.41599155E-03    2           16   -1000024   # BR(Hpm_3 -> Chi_3 Cha_4 )
     8.23058456E-03    2      1000022         15   # BR(Hpm_3 -> Chi_4 Cha_3 )
     1.22373481E-02    2      1000023         15   # BR(Hpm_3 -> Chi_5 Cha_3 )
     9.65644423E-01    2      1000025         15   # BR(Hpm_3 -> Chi_6 Cha_3 )
DECAY   2000011     6.76595824E+00   # Hpm_4
#    BR                NDA      ID1      ID2
     9.63947218E-04    2      1000022         13   # BR(Hpm_4 -> Chi_4 Cha_2 )
     5.44443162E-03    2      1000023         13   # BR(Hpm_4 -> Chi_5 Cha_2 )
     9.93540500E-01    2      1000025         13   # BR(Hpm_4 -> Chi_6 Cha_2 )
DECAY   1000013     6.76592409E+00   # Hpm_5
#    BR                NDA      ID1      ID2
     9.37813129E-04    2      1000022         11   # BR(Hpm_5 -> Chi_4 Cha_1 )
     5.42009449E-03    2      1000023         11   # BR(Hpm_5 -> Chi_5 Cha_1 )
     9.93642091E-01    2      1000025         11   # BR(Hpm_5 -> Chi_6 Cha_1 )
DECAY   2000013     1.74729282E+00   # Hpm_6
#    BR                NDA      ID1      ID2
     3.65791375E-03    2           12   -1000024   # BR(Hpm_6 -> Chi_1 Cha_4 )
     2.23582770E-04    2           12   -1000037   # BR(Hpm_6 -> Chi_1 Cha_5 )
     1.70121301E-03    2           14   -1000024   # BR(Hpm_6 -> Chi_2 Cha_4 )
     1.03971811E-04    2           14   -1000037   # BR(Hpm_6 -> Chi_2 Cha_5 )
     1.38761907E-02    2      1000022         11   # BR(Hpm_6 -> Chi_4 Cha_1 )
     1.16426477E-02    2      1000023         11   # BR(Hpm_6 -> Chi_5 Cha_1 )
     9.68516920E-01    2      1000025         11   # BR(Hpm_6 -> Chi_6 Cha_1 )
     1.75734644E-04    2      1000035         11   # BR(Hpm_6 -> Chi_7 Cha_1 )
DECAY   1000015     1.74818425E+00   # Hpm_7
#    BR                NDA      ID1      ID2
     4.92648901E-04    2           12   -1000024   # BR(Hpm_7 -> Chi_1 Cha_4 )
     8.26845863E-04    2           14   -1000024   # BR(Hpm_7 -> Chi_2 Cha_4 )
     4.02054751E-03    2           16   -1000024   # BR(Hpm_7 -> Chi_3 Cha_4 )
     2.46758185E-04    2           16   -1000037   # BR(Hpm_7 -> Chi_3 Cha_5 )
     1.39442778E-02    2      1000022         13   # BR(Hpm_7 -> Chi_4 Cha_2 )
     1.17182401E-02    2      1000023         13   # BR(Hpm_7 -> Chi_5 Cha_2 )
     9.68398791E-01    2      1000025         13   # BR(Hpm_7 -> Chi_6 Cha_2 )
     1.75606141E-04    2      1000035         13   # BR(Hpm_7 -> Chi_7 Cha_2 )
DECAY   2000015     1.98515263E+00   # Hpm_8
#    BR                NDA      ID1      ID2
     2.05184600E-04    2           12   -1000024   # BR(Hpm_8 -> Chi_1 Cha_4 )
     4.79719702E-04    2           14   -1000024   # BR(Hpm_8 -> Chi_2 Cha_4 )
     1.49424018E-04    2           14   -1000037   # BR(Hpm_8 -> Chi_2 Cha_5 )
     2.23336426E-04    2           16   -1000024   # BR(Hpm_8 -> Chi_3 Cha_4 )
     3.11703538E-02    2      1000022         15   # BR(Hpm_8 -> Chi_4 Cha_3 )
     3.06517189E-02    2      1000023         15   # BR(Hpm_8 -> Chi_5 Cha_3 )
     9.36841133E-01    2      1000025         15   # BR(Hpm_8 -> Chi_6 Cha_3 )
     1.45476026E-04    2      1000035         15   # BR(Hpm_8 -> Chi_7 Cha_3 )
DECAY   1000021     2.47594286E+02   # Glu
#    BR                NDA      ID1      ID2
     4.15499849E-02    2            1   -2000001   # BR(Glu -> Fd_1 Sd_4^* )
     4.15499849E-02    2           -1    2000001   # BR(Glu -> Fd_1^* Sd_4 )
     4.04010661E-02    2            1   -2000005   # BR(Glu -> Fd_1 Sd_6^* )
     4.04010661E-02    2           -1    2000005   # BR(Glu -> Fd_1^* Sd_6 )
     4.15499777E-02    2            3   -1000005   # BR(Glu -> Fd_2 Sd_3^* )
     4.15499777E-02    2           -3    1000005   # BR(Glu -> Fd_2^* Sd_3 )
     4.04010964E-02    2            3   -2000003   # BR(Glu -> Fd_2 Sd_5^* )
     4.04010964E-02    2           -3    2000003   # BR(Glu -> Fd_2^* Sd_5 )
     4.29805377E-02    2            5   -1000001   # BR(Glu -> Fd_3 Sd_1^* )
     4.29805377E-02    2           -5    1000001   # BR(Glu -> Fd_3^* Sd_1 )
     4.15813009E-02    2            5   -1000003   # BR(Glu -> Fd_3 Sd_2^* )
     4.15813009E-02    2           -5    1000003   # BR(Glu -> Fd_3^* Sd_2 )
     4.15376793E-02    2            2   -1000006   # BR(Glu -> Fu_1 Su_3^* )
     4.15376793E-02    2           -2    1000006   # BR(Glu -> Fu_1^* Su_3 )
     4.04903214E-02    2            2   -2000004   # BR(Glu -> Fu_1 Su_5^* )
     4.04903214E-02    2           -2    2000004   # BR(Glu -> Fu_1^* Su_5 )
     4.15374777E-02    2            4   -1000004   # BR(Glu -> Fu_2 Su_2^* )
     4.15374777E-02    2           -4    1000004   # BR(Glu -> Fu_2^* Su_2 )
     4.04905255E-02    2            4   -2000002   # BR(Glu -> Fu_2 Su_4^* )
     4.04905255E-02    2           -4    2000002   # BR(Glu -> Fu_2^* Su_4 )
     4.31019089E-02    2            6   -1000002   # BR(Glu -> Fu_3 Su_1^* )
     4.31019089E-02    2           -6    1000002   # BR(Glu -> Fu_3^* Su_1 )
     4.43229437E-02    2            6   -2000006   # BR(Glu -> Fu_3 Su_6^* )
     4.43229437E-02    2           -6    2000006   # BR(Glu -> Fu_3^* Su_6 )
DECAY         6     1.43812708E+00   # Fu_3
#    BR                NDA      ID1      ID2
     1.00000000E+00    2            5         24   # BR(Fu_3 -> Fd_3 VWm^* )
DECAY        13     1.08230782E-18   # Cha_2
#    BR                NDA      ID1      ID2
#    BR                NDA      ID1      ID2       ID3
     1.83180023E-02    3           11         12         12   # BR(Cha_2 -> Cha_1 Chi_1 Chi_1 )
     3.65354283E-02    3           11         12         14   # BR(Cha_2 -> Cha_1 Chi_1 Chi_2 )
     1.28224664E-01    3           11         12         16   # BR(Cha_2 -> Cha_1 Chi_1 Chi_3 )
     1.34658010E-02    3           11         14         14   # BR(Cha_2 -> Cha_1 Chi_2 Chi_2 )
     6.07532096E-02    3           11         14         16   # BR(Cha_2 -> Cha_1 Chi_2 Chi_3 )
     3.72558112E-04    3           11         16         16   # BR(Cha_2 -> Cha_1 Chi_3 Chi_3 )
     7.21792931E-02    3           12         -2          1   # BR(Cha_2 -> Chi_1 Fu_1^* Fd_1 )
     1.11735074E-01    3           14         -2          1   # BR(Cha_2 -> Chi_2 Fu_1^* Fd_1 )
     5.58415969E-01    3           16         -2          1   # BR(Cha_2 -> Chi_3 Fu_1^* Fd_1 )
DECAY        15     1.84343491E-12   # Cha_3
#    BR                NDA      ID1      ID2
#    BR                NDA      ID1      ID2       ID3
     3.05161653E-02    3           11         12         12   # BR(Cha_3 -> Cha_1 Chi_1 Chi_1 )
     8.58125254E-02    3           11         12         14   # BR(Cha_3 -> Cha_1 Chi_1 Chi_2 )
     3.33009270E-02    3           11         12         16   # BR(Cha_3 -> Cha_1 Chi_1 Chi_3 )
     3.38685111E-02    3           11         14         14   # BR(Cha_3 -> Cha_1 Chi_2 Chi_2 )
     1.59631025E-02    3           11         14         16   # BR(Cha_3 -> Cha_1 Chi_2 Chi_3 )
     4.26748755E-03    3           13         12         12   # BR(Cha_3 -> Cha_2 Chi_1 Chi_1 )
     1.65817799E-02    3           13         12         14   # BR(Cha_3 -> Cha_2 Chi_1 Chi_2 )
     3.76646079E-02    3           13         12         16   # BR(Cha_3 -> Cha_2 Chi_1 Chi_3 )
     1.54396714E-02    3           13         14         14   # BR(Cha_3 -> Cha_2 Chi_2 Chi_2 )
     8.43562065E-02    3           13         14         16   # BR(Cha_3 -> Cha_2 Chi_2 Chi_3 )
     3.59415182E-02    3           13         16         16   # BR(Cha_3 -> Cha_2 Chi_3 Chi_3 )
     1.35255543E-01    3           12         -2          1   # BR(Cha_3 -> Chi_1 Fu_1^* Fd_1 )
     1.71442118E-03    3           12         -4          3   # BR(Cha_3 -> Chi_1 Fu_2^* Fd_2 )
     3.16114170E-01    3           14         -2          1   # BR(Cha_3 -> Chi_2 Fu_1^* Fd_1 )
     4.00688073E-03    3           14         -4          3   # BR(Cha_3 -> Chi_2 Fu_2^* Fd_2 )
     1.47242784E-01    3           16         -2          1   # BR(Cha_3 -> Chi_3 Fu_1^* Fd_1 )
     1.86636453E-03    3           16         -4          3   # BR(Cha_3 -> Chi_3 Fu_2^* Fd_2 )
DECAY   1000024     4.67506013E-12   # Cha_4
#    BR                NDA      ID1      ID2
     2.18196719E-04    2          -11         25   # BR(Cha_4^* -> Cha_1^* hh_1 )
     8.75371012E-02    2          -13         25   # BR(Cha_4^* -> Cha_2^* hh_1 )
     7.78139545E-02    2          -15         25   # BR(Cha_4^* -> Cha_3^* hh_1 )
     5.02561221E-04    2          -13         23   # BR(Cha_4^* -> Cha_2^* VZ )
     2.40018739E-02    2          -15         23   # BR(Cha_4^* -> Cha_3^* VZ )
     7.11204606E-01    2           14         24   # BR(Cha_4^* -> Chi_2 VWm^* )
     9.25183217E-02    2           16         24   # BR(Cha_4^* -> Chi_3 VWm^* )
#    BR                NDA      ID1      ID2       ID3
     1.71147207E-04    3          -11         12    1000022   # BR(Cha_4^* -> Cha_1^* Chi_1 Chi_4 )
     1.33603787E-04    3          -13         16    1000022   # BR(Cha_4^* -> Cha_2^* Chi_3 Chi_4 )
     6.23308229E-04    3          -11          5         -5   # BR(Cha_4^* -> Cha_1^* Fd_3 Fd_3^* )
     6.78487982E-04    3          -13          5         -5   # BR(Cha_4^* -> Cha_2^* Fd_3 Fd_3^* )
     7.88923082E-04    3          -15          5         -5   # BR(Cha_4^* -> Cha_3^* Fd_3 Fd_3^* )
     1.75262637E-04    3          -15          6         -6   # BR(Cha_4^* -> Cha_3^* Fu_3 Fu_3^* )
     2.38421427E-03    3           14          6         -5   # BR(Cha_4^* -> Chi_2 Fu_3 Fd_3^* )
     1.69703102E-04    3           16          6         -5   # BR(Cha_4^* -> Chi_3 Fu_3 Fd_3^* )
     7.57829465E-04    3      1000022          2         -1   # BR(Cha_4^* -> Chi_4 Fu_1 Fd_1^* )
DECAY   1000037     2.53190529E+01   # Cha_5
#    BR                NDA      ID1      ID2
     6.42042675E-02    2      1000024         36   # BR(Cha_5^* -> Cha_4^* Ah_2 )
     1.86715580E-01    2      1000024         25   # BR(Cha_5^* -> Cha_4^* hh_1 )
     6.34088844E-02    2      1000024         35   # BR(Cha_5^* -> Cha_4^* hh_2 )
     1.78650461E-01    2      1000024         23   # BR(Cha_5^* -> Cha_4^* VZ )
     6.41377631E-02    2      1000022         37   # BR(Cha_5^* -> Chi_4 Hpm_2^* )
     6.34733489E-02    2      1000023         37   # BR(Cha_5^* -> Chi_5 Hpm_2^* )
     1.82158417E-01    2      1000022         24   # BR(Cha_5^* -> Chi_4 VWm^* )
     1.75307782E-01    2      1000023         24   # BR(Cha_5^* -> Chi_5 VWm^* )
     5.47508973E-04    2      1000025         24   # BR(Cha_5^* -> Chi_6 VWm^* )
     3.34787175E-03    2           -5    1000002   # BR(Cha_5^* -> Fd_3^* Su_1 )
#    BR                NDA      ID1      ID2       ID3
     1.68883527E-04    3      1000024          5         -5   # BR(Cha_5^* -> Cha_4^* Fd_3 Fd_3^* )
     7.15672313E-03    3      1000024          6         -6   # BR(Cha_5^* -> Cha_4^* Fu_3 Fu_3^* )
     5.24431660E-03    3      1000022          6         -5   # BR(Cha_5^* -> Chi_4 Fu_3 Fd_3^* )
     5.14804071E-03    3      1000023          6         -5   # BR(Cha_5^* -> Chi_5 Fu_3 Fd_3^* )
DECAY   1000022     4.11249944E-12   # Chi_4
#    BR                NDA      ID1      ID2
     1.37437023E-01    2           11         24   # BR(Chi_4 -> Cha_1 VWm^* )
     1.37437023E-01    2          -11        -24   # BR(Chi_4 -> Cha_1^* VWm )
     1.92726956E-01    2           13         24   # BR(Chi_4 -> Cha_2 VWm^* )
     1.92726956E-01    2          -13        -24   # BR(Chi_4 -> Cha_2^* VWm )
     1.55262724E-01    2           15         24   # BR(Chi_4 -> Cha_3 VWm^* )
     1.55262724E-01    2          -15        -24   # BR(Chi_4 -> Cha_3^* VWm )
     2.60154111E-04    2           14         25   # BR(Chi_4 -> Chi_2 hh_1 )
     1.71726563E-02    2           16         25   # BR(Chi_4 -> Chi_3 hh_1 )
     6.60167401E-03    2           16         23   # BR(Chi_4 -> Chi_3 VZ )
#    BR                NDA      ID1      ID2       ID3
     1.34064018E-04    3           14         -5          5   # BR(Chi_4 -> Chi_2 Fd_3^* Fd_3 )
     5.28648835E-04    3           11         -5          6   # BR(Chi_4 -> Cha_1 Fd_3^* Fu_3 )
     5.28648835E-04    3          -11          5         -6   # BR(Chi_4 -> Cha_1^* Fd_3 Fu_3^* )
     7.21351920E-04    3           13         -5          6   # BR(Chi_4 -> Cha_2 Fd_3^* Fu_3 )
     7.21351920E-04    3          -13          5         -6   # BR(Chi_4 -> Cha_2^* Fd_3 Fu_3^* )
     1.18646198E-03    3           15         -5          6   # BR(Chi_4 -> Cha_3 Fd_3^* Fu_3 )
     1.18646198E-03    3          -15          5         -6   # BR(Chi_4 -> Cha_3^* Fd_3 Fu_3^* )
DECAY   1000023     8.74639845E-12   # Chi_5
#    BR                NDA      ID1      ID2
     6.14855421E-02    2           11         24   # BR(Chi_5 -> Cha_1 VWm^* )
     6.14855421E-02    2          -11        -24   # BR(Chi_5 -> Cha_1^* VWm )
     6.85529989E-02    2           13         24   # BR(Chi_5 -> Cha_2 VWm^* )
     6.85529989E-02    2          -13        -24   # BR(Chi_5 -> Cha_2^* VWm )
     8.08557482E-02    2           15         24   # BR(Chi_5 -> Cha_3 VWm^* )
     8.08557482E-02    2          -15        -24   # BR(Chi_5 -> Cha_3^* VWm )
     8.34181834E-04    2           16         25   # BR(Chi_5 -> Chi_3 hh_1 )
     4.78286499E-03    2           16         23   # BR(Chi_5 -> Chi_3 VZ )
#    BR                NDA      ID1      ID2       ID3
     1.42190930E-02    3           12        -11   -1000024   # BR(Chi_5 -> Chi_1 Cha_1^* Cha_4 )
     1.94693631E-03    3           12        -13   -1000024   # BR(Chi_5 -> Chi_1 Cha_2^* Cha_4 )
     1.42190930E-02    3           12    1000024         11   # BR(Chi_5 -> Chi_1 Cha_4^* Cha_1 )
     1.94697575E-03    3           12    1000024         13   # BR(Chi_5 -> Chi_1 Cha_4^* Cha_2 )
     6.75225986E-03    3           14        -11   -1000024   # BR(Chi_5 -> Chi_2 Cha_1^* Cha_4 )
     3.01389859E-03    3           14        -13   -1000024   # BR(Chi_5 -> Chi_2 Cha_2^* Cha_4 )
     6.75225986E-03    3           14    1000024         11   # BR(Chi_5 -> Chi_2 Cha_4^* Cha_1 )
     3.01395969E-03    3           14    1000024         13   # BR(Chi_5 -> Chi_2 Cha_4^* Cha_2 )
     1.50624961E-02    3           16        -13   -1000024   # BR(Chi_5 -> Chi_3 Cha_2^* Cha_4 )
     1.50628013E-02    3           16    1000024         13   # BR(Chi_5 -> Chi_3 Cha_4^* Cha_2 )
     2.61640774E-02    3      1000022        -11         11   # BR(Chi_5 -> Chi_4 Cha_1^* Cha_1 )
     2.54537989E-02    3      1000022        -13         13   # BR(Chi_5 -> Chi_4 Cha_2^* Cha_2 )
     1.13894241E-01    3      1000022         -1          1   # BR(Chi_5 -> Chi_4 Fd_1^* Fd_1 )
     1.10025483E-01    3      1000022         -3          3   # BR(Chi_5 -> Chi_4 Fd_2^* Fd_2 )
     8.77527595E-02    3      1000022         -2          2   # BR(Chi_5 -> Chi_4 Fu_1^* Fu_1 )
     1.15327287E-04    3           11         -5          6   # BR(Chi_5 -> Cha_1 Fd_3^* Fu_3 )
     1.15327287E-04    3          -11          5         -6   # BR(Chi_5 -> Cha_1^* Fd_3 Fu_3^* )
     2.17483640E-04    3           13         -5          6   # BR(Chi_5 -> Cha_2 Fd_3^* Fu_3 )
     2.17483640E-04    3          -13          5         -6   # BR(Chi_5 -> Cha_2^* Fd_3 Fu_3^* )
     1.95152623E-04    3           15         -5          6   # BR(Chi_5 -> Cha_3 Fd_3^* Fu_3 )
     1.95152623E-04    3          -15          5         -6   # BR(Chi_5 -> Cha_3^* Fd_3 Fu_3^* )
     6.30175851E-02    3     -1000024         -1          2   # BR(Chi_5 -> Cha_4 Fd_1^* Fu_1 )
     6.30175851E-02    3      1000024          1         -2   # BR(Chi_5 -> Cha_4^* Fd_1 Fu_1^* )
DECAY   1000025     1.26917387E+00   # Chi_6
#    BR                NDA      ID1      ID2
     2.47400133E-01    2     -1000024         24   # BR(Chi_6 -> Cha_4 VWm^* )
     2.47400133E-01    2      1000024        -24   # BR(Chi_6 -> Cha_4^* VWm )
     3.53489545E-02    2      1000022         25   # BR(Chi_6 -> Chi_4 hh_1 )
     2.17567380E-01    2      1000023         25   # BR(Chi_6 -> Chi_5 hh_1 )
     2.09071479E-01    2      1000022         23   # BR(Chi_6 -> Chi_4 VZ )
     4.13961741E-02    2      1000023         23   # BR(Chi_6 -> Chi_5 VZ )
#    BR                NDA      ID1      ID2       ID3
     8.73125218E-04    3     -1000024         -5          6   # BR(Chi_6 -> Cha_4 Fd_3^* Fu_3 )
     8.73125218E-04    3      1000024          5         -6   # BR(Chi_6 -> Cha_4^* Fd_3 Fu_3^* )
DECAY   1000035     2.48892834E+01   # Chi_7
#    BR                NDA      ID1      ID2
     2.25674460E-02    2      1000022         36   # BR(Chi_7 -> Chi_4 Ah_2 )
     4.26963533E-02    2      1000023         36   # BR(Chi_7 -> Chi_5 Ah_2 )
     6.48263650E-02    2     -1000024         37   # BR(Chi_7 -> Cha_4 Hpm_2^* )
     6.48263650E-02    2      1000024        -37   # BR(Chi_7 -> Cha_4^* Hpm_2 )
     1.72080950E-01    2     -1000024         24   # BR(Chi_7 -> Cha_4 VWm^* )
     1.72080950E-01    2      1000024        -24   # BR(Chi_7 -> Cha_4^* VWm )
     1.64080587E-01    2      1000022         25   # BR(Chi_7 -> Chi_4 hh_1 )
     4.20200109E-02    2      1000022         35   # BR(Chi_7 -> Chi_4 hh_2 )
     2.53824601E-02    2      1000023         25   # BR(Chi_7 -> Chi_5 hh_1 )
     2.25817779E-02    2      1000023         35   # BR(Chi_7 -> Chi_5 hh_2 )
     2.60151520E-02    2      1000022         23   # BR(Chi_7 -> Chi_4 VZ )
     1.60173294E-01    2      1000023         23   # BR(Chi_7 -> Chi_5 VZ )
     5.43366304E-04    2      1000025         23   # BR(Chi_7 -> Chi_6 VZ )
#    BR                NDA      ID1      ID2       ID3
     2.14480839E-03    3      1000022         -6          6   # BR(Chi_7 -> Chi_4 Fu_3^* Fu_3 )
     5.48819625E-03    3      1000023         -6          6   # BR(Chi_7 -> Chi_5 Fu_3^* Fu_3 )
     5.97008272E-03    3     -1000024         -5          6   # BR(Chi_7 -> Cha_4 Fd_3^* Fu_3 )
     5.97008272E-03    3      1000024          5         -6   # BR(Chi_7 -> Cha_4^* Fd_3 Fu_3^* )
