#
#                              ======================
#                              | THE SUSYHIT OUTPUT |
#                              ======================
#
#
#              ------------------------------------------------------
#              |     This is the output of the SUSY-HIT package     |
#              |  created by A.Djouadi, M.Muehlleitner and M.Spira. |
#              |  In case of problems with SUSY-HIT email to        |
#              |           margarete.muehlleitner@cern.ch           |
#              |           michael.spira@psi.ch                     |
#              |           abdelhak.djouadi@cern.ch                 |
#              ------------------------------------------------------
#
#              ------------------------------------------------------
#              |  SUSY Les Houches Accord - MSSM Spectrum + Decays  |
#              |              based on the decay programs           |
#              |                                                    |
#              |                     SDECAY 1.3b                    |
#              |                                                    |
#              |  Authors: M.Muhlleitner, A.Djouadi and Y.Mambrini  |
#              |  Ref.:    Comput.Phys.Commun.168(2005)46           |
#              |           [hep-ph/0311167]                         |
#              |                                                    |
#              |                     HDECAY 3.4                     |
#              |                                                    |
#              |  By: A.Djouadi,J.Kalinowski,M.Muhlleitner,M.Spira  |
#              |  Ref.:    Comput.Phys.Commun.108(1998)56           |
#              |           [hep-ph/9704448]                         |
#              |                                                    |
#              |                                                    |
#              |  If not stated otherwise all DRbar couplings and   |
#              |  soft SUSY breaking masses are given at the scale  |
#              |  Q=  0.50007473E+04
#              |                                                    |
#              ------------------------------------------------------
#
#
BLOCK DCINFO  # Decay Program information
     1   SDECAY/HDECAY # decay calculator
     2   1.3b  /3.4    # version number
#
BLOCK SPINFO  # Spectrum calculator information
     1    SOFTSUSY    # spectrum calculator                
     2    3.4.0       # version number                     
#
BLOCK MODSEL  # Model selection
     1     0   #  nonUniversal                                     
#
BLOCK SMINPUTS  # Standard Model inputs
         1     1.25778332E+02   # alpha_em^-1(M_Z)^MSbar
         2     1.16570000E-05   # G_F [GeV^-2]
         3     1.17200002E-01   # alpha_S(M_Z)^MSbar
         4     9.11876000E+01   # M_Z pole mass
         5     4.25000000E+00   # mb(mb)^MSbar
         6     1.72500000E+02   # mt pole mass
         7     1.77682000E+00   # mtau pole mass
#
BLOCK MINPAR  # Input parameters - minimal models
         3     1.00000000E+01   # tanb                
#
BLOCK EXTPAR  # Input parameters - non-minimal models
         0    -1.00000000E+00   # Set                 
         1     6.00000000E+01   # M_1(MX)             
         2     3.00000000E+03   # M_2(MX)             
         3     7.73141000E+02   # M_3(MX)             
        11     5.00000000E+03   # At(MX)              
        12     5.00000000E+03   # Ab(MX)              
        13     0.00000000E+00   # Atau(MX)            
        23    -4.75125000E+02   # mu(MX)              
        26     3.00000000E+03   # mA(pole)            
        31     5.00000000E+03   # meL(MX)             
        32     5.00000000E+03   # mmuL(MX)            
        33     5.00000000E+03   # mtauL(MX)           
        34     5.00000000E+03   # meR(MX)             
        35     5.00000000E+03   # mmuR(MX)            
        36     5.00000000E+03   # mtauR(MX)           
        41     5.00000000E+03   # mqL1(MX)            
        42     5.00000000E+03   # mqL2(MX)            
        43     5.00000000E+03   # mqL3(MX)            
        44     5.00000000E+03   # muR(MX)             
        45     5.00000000E+03   # mcR(MX)             
        46     5.00000000E+03   # mtR(MX)             
        47     5.00000000E+03   # mdR(MX)             
        48     5.00000000E+03   # msR(MX)             
        49     5.00000000E+03   # mbR(MX)             
#
BLOCK MASS  # Mass Spectrum
# PDG code           mass       particle
        24     8.00901991E+01   # W+
        25     1.24299320E+02   # h
        35     3.00008520E+03   # H
        36     2.99999943E+03   # A
        37     3.00142865E+03   # H+
         5     4.87878001E+00   # b-quark pole mass calculated from mb(mb)_Msbar
   1000001     5.06383924E+03   # ~d_L
   2000001     5.04596379E+03   # ~d_R
   1000002     5.06336146E+03   # ~u_L
   2000002     5.04566237E+03   # ~u_R
   1000003     5.06383924E+03   # ~s_L
   2000003     5.04596379E+03   # ~s_R
   1000004     5.06336146E+03   # ~c_L
   2000004     5.04566237E+03   # ~c_R
   1000005     5.01034388E+03   # ~b_1
   2000005     5.04424889E+03   # ~b_2
   1000006     4.90085701E+03   # ~t_1
   2000006     5.05531233E+03   # ~t_2
   1000011     5.01911180E+03   # ~e_L
   2000011     5.00594434E+03   # ~e_R
   1000012     5.01816090E+03   # ~nu_eL
   1000013     5.01911180E+03   # ~mu_L
   2000013     5.00594434E+03   # ~mu_R
   1000014     5.01816090E+03   # ~nu_muL
   1000015     5.00477456E+03   # ~tau_1
   2000015     5.01863593E+03   # ~tau_2
   1000016     5.01760905E+03   # ~nu_tauL
   1000021     1.00000096E+03   # ~g
   1000022     6.02020263E+01   # ~chi_10
   1000023     5.00511285E+02   # ~chi_20
   1000025    -5.02709756E+02   # ~chi_30
   1000035     3.07418932E+03   # ~chi_40
   1000024     5.00000159E+02   # ~chi_1+
   1000037     3.07435711E+03   # ~chi_2+
#
BLOCK NMIX  # Neutralino Mixing Matrix
  1  1     9.96027419E-01   # N_11
  1  2     2.24838105E-04   # N_12
  1  3    -8.90337011E-02   # N_13
  1  4    -1.52615663E-03   # N_14
  2  1     6.40714713E-02   # N_21
  2  2     1.90130311E-02   # N_22
  2  3     7.04713326E-01   # N_23
  2  4     7.06337370E-01   # N_24
  3  1    -6.18390994E-02   # N_31
  3  2     1.70184478E-02   # N_32
  3  3    -7.03882212E-01   # N_33
  3  4     7.07415104E-01   # N_34
  4  1    -3.89859264E-04   # N_41
  4  2     9.99674360E-01   # N_42
  4  3    -1.40019151E-03   # N_43
  4  4    -2.54766745E-02   # N_44
#
BLOCK UMIX  # Chargino Mixing Matrix U
  1  1     1.98542502E-03   # U_11
  1  2     9.99998029E-01   # U_12
  2  1    -9.99998029E-01   # U_21
  2  2     1.98542502E-03   # U_22
#
BLOCK VMIX  # Chargino Mixing Matrix V
  1  1     3.60497489E-02   # V_11
  1  2    -9.99349997E-01   # V_12
  2  1    -9.99349997E-01   # V_21
  2  2    -3.60497489E-02   # V_22
#
BLOCK STOPMIX  # Stop Mixing Matrix
  1  1    -5.07378799E-01   # cos(theta_t)
  1  2     8.61723131E-01   # sin(theta_t)
  2  1    -8.61723131E-01   # -sin(theta_t)
  2  2    -5.07378799E-01   # cos(theta_t)
#
BLOCK SBOTMIX  # Sbottom Mixing Matrix
  1  1     9.98710001E-01   # cos(theta_b)
  1  2    -5.07772971E-02   # sin(theta_b)
  2  1     5.07772971E-02   # -sin(theta_b)
  2  2     9.98710001E-01   # cos(theta_b)
#
BLOCK STAUMIX  # Stau Mixing Matrix
  1  1    -5.69307827E-02   # cos(theta_tau)
  1  2     9.98378128E-01   # sin(theta_tau)
  2  1    -9.98378128E-01   # -sin(theta_tau)
  2  2    -5.69307827E-02   # cos(theta_tau)
#
BLOCK ALPHA  # Higgs mixing
          -1.05433982E-01   # Mixing angle in the neutral Higgs boson sector
#
BLOCK HMIX Q=  5.00074734E+03  # DRbar Higgs Parameters
         1    -4.83557792E+02   # mu(Q)MSSM           
         2     9.47378251E+00   # tan                 
         3     2.41820975E+02   # higgs               
         4     8.67459598E+06   # mA^2(Q)MSSM         
#
BLOCK GAUGE Q=  5.00074734E+03  # The gauge couplings
     1     3.70975205E-01   # gprime(Q) DRbar
     2     6.33377963E-01   # g(Q) DRbar
     3     1.00864658E+00   # g3(Q) DRbar
#
BLOCK AU Q=  5.00074734E+03  # The trilinear couplings
  1  1     5.00000001E+03   # A_u(Q) DRbar
  2  2     5.00000001E+03   # A_c(Q) DRbar
  3  3     5.00000001E+03   # A_t(Q) DRbar
#
BLOCK AD Q=  5.00074734E+03  # The trilinear couplings
  1  1     5.00000000E+03   # A_d(Q) DRbar
  2  2     5.00000000E+03   # A_s(Q) DRbar
  3  3     5.00000001E+03   # A_b(Q) DRbar
#
BLOCK AE Q=  5.00074734E+03  # The trilinear couplings
  1  1     0.00000000E+00   # A_e(Q) DRbar
  2  2     1.61688830E-08   # A_mu(Q) DRbar
  3  3     1.51845515E-08   # A_tau(Q) DRbar
#
BLOCK Yu Q=  5.00074734E+03  # The Yukawa couplings
  1  1     0.00000000E+00   # y_u(Q) DRbar
  2  2     0.00000000E+00   # y_c(Q) DRbar
  3  3     8.14500493E-01   # y_t(Q) DRbar
#
BLOCK Yd Q=  5.00074734E+03  # The Yukawa couplings
  1  1     0.00000000E+00   # y_d(Q) DRbar
  2  2     0.00000000E+00   # y_s(Q) DRbar
  3  3     1.29059347E-01   # y_b(Q) DRbar
#
BLOCK Ye Q=  5.00074734E+03  # The Yukawa couplings
  1  1     0.00000000E+00   # y_e(Q) DRbar
  2  2     0.00000000E+00   # y_mu(Q) DRbar
  3  3     9.71577739E-02   # y_tau(Q) DRbar
#
BLOCK MSOFT Q=  5.00074734E+03  # The soft SUSY breaking masses at the scale Q
         1     6.00000000E+01   # M_1(Q)              
         2     3.00000000E+03   # M_2(Q)              
         3     7.73141000E+02   # M_3(Q)              
        21     8.48967589E+06   # mH1^2(Q)            
        22     3.36938224E+05   # mH2^2(Q)            
        31     5.00000000E+03   # meL(Q)              
        32     5.00000000E+03   # mmuL(Q)             
        33     5.00000000E+03   # mtauL(Q)            
        34     5.00000000E+03   # meR(Q)              
        35     5.00000000E+03   # mmuR(Q)             
        36     5.00000000E+03   # mtauR(Q)            
        41     5.00000000E+03   # mqL1(Q)             
        42     5.00000000E+03   # mqL2(Q)             
        43     5.00000000E+03   # mqL3(Q)             
        44     5.00000000E+03   # muR(Q)              
        45     5.00000000E+03   # mcR(Q)              
        46     5.00000000E+03   # mtR(Q)              
        47     5.00000000E+03   # mdR(Q)              
        48     5.00000000E+03   # msR(Q)              
        49     5.00000000E+03   # mbR(Q)              
#
#
#
#                             =================
#                             |The decay table|
#                             =================
#
# - The QCD corrections to the decays gluino -> squark  + quark
#                                     squark -> gaugino + quark_prime
#                                     squark -> squark_prime + Higgs
#                                     squark -> gluino  + quark
#   are included.
#
# - The multi-body decays for the inos, stops and sbottoms are included.
#
# - The loop induced decays for the gluino, neutralinos and stops
#   are included.
#
# - The SUSY decays of the top quark are included.
#
#
#         PDG            Width
DECAY         6     1.40603795E+00   # top decays
#          BR         NDA      ID1       ID2
     1.00000000E+00    2           5        24   # BR(t ->  b    W+)
#
#         PDG            Width
DECAY   1000021     1.46521066E-05   # gluino decays
#          BR         NDA      ID1       ID2
     2.09517384E-06    2     1000022        21   # BR(~g -> ~chi_10 g)
     5.35719759E-02    2     1000023        21   # BR(~g -> ~chi_20 g)
     5.18132426E-02    2     1000025        21   # BR(~g -> ~chi_30 g)
#           BR         NDA      ID1       ID2       ID3
     4.74136673E-02    3     1000022         1        -1   # BR(~g -> ~chi_10 d  db)
     3.66582884E-05    3     1000023         1        -1   # BR(~g -> ~chi_20 d  db)
     2.89834426E-05    3     1000025         1        -1   # BR(~g -> ~chi_30 d  db)
     1.61668133E-01    3     1000022         2        -2   # BR(~g -> ~chi_10 u  ub)
     1.91307232E-04    3     1000023         2        -2   # BR(~g -> ~chi_20 u  ub)
     4.82014512E-05    3     1000025         2        -2   # BR(~g -> ~chi_30 u  ub)
     4.74136673E-02    3     1000022         3        -3   # BR(~g -> ~chi_10 s  sb)
     3.66582884E-05    3     1000023         3        -3   # BR(~g -> ~chi_20 s  sb)
     2.89834426E-05    3     1000025         3        -3   # BR(~g -> ~chi_30 s  sb)
     1.61668133E-01    3     1000022         4        -4   # BR(~g -> ~chi_10 c  cb)
     1.91307232E-04    3     1000023         4        -4   # BR(~g -> ~chi_20 c  cb)
     4.82014512E-05    3     1000025         4        -4   # BR(~g -> ~chi_30 c  cb)
     4.85501997E-02    3     1000022         5        -5   # BR(~g -> ~chi_10 b  bb)
     4.77332663E-03    3     1000023         5        -5   # BR(~g -> ~chi_20 b  bb)
     4.66423387E-03    3     1000025         5        -5   # BR(~g -> ~chi_30 b  bb)
     1.03462897E-01    3     1000022         6        -6   # BR(~g -> ~chi_10 t  tb)
     6.01476165E-02    3     1000023         6        -6   # BR(~g -> ~chi_20 t  tb)
     2.92175559E-02    3     1000025         6        -6   # BR(~g -> ~chi_30 t  tb)
     5.12756461E-05    3     1000024         1        -2   # BR(~g -> ~chi_1+ d  ub)
     5.12756461E-05    3    -1000024         2        -1   # BR(~g -> ~chi_1- u  db)
     5.12756461E-05    3     1000024         3        -4   # BR(~g -> ~chi_1+ s  cb)
     5.12756461E-05    3    -1000024         4        -3   # BR(~g -> ~chi_1- c  sb)
     1.12408926E-01    3     1000024         5        -6   # BR(~g -> ~chi_1+ b  tb)
     1.12408926E-01    3    -1000024         6        -5   # BR(~g -> ~chi_1- t  bb)
#
#         PDG            Width
DECAY   1000006     4.22965934E+02   # stop1 decays
#          BR         NDA      ID1       ID2
     2.05990855E-02    2     1000022         6   # BR(~t_1 -> ~chi_10 t )
     7.69298980E-02    2     1000023         6   # BR(~t_1 -> ~chi_20 t )
     7.26932293E-02    2     1000025         6   # BR(~t_1 -> ~chi_30 t )
     4.91795873E-03    2     1000035         6   # BR(~t_1 -> ~chi_40 t )
     1.10289599E-01    2     1000024         5   # BR(~t_1 -> ~chi_1+ b )
     9.80410677E-03    2     1000037         5   # BR(~t_1 -> ~chi_2+ b )
     7.04766123E-01    2     1000021         6   # BR(~t_1 -> ~g      t )
#
#         PDG            Width
DECAY   2000006     4.21704737E+02   # stop2 decays
#          BR         NDA      ID1       ID2
     8.51378529E-03    2     1000022         6   # BR(~t_2 -> ~chi_10 t )
     7.69075583E-02    2     1000023         6   # BR(~t_2 -> ~chi_20 t )
     8.16627941E-02    2     1000025         6   # BR(~t_2 -> ~chi_30 t )
     1.30763392E-02    2     1000035         6   # BR(~t_2 -> ~chi_40 t )
     4.66126126E-02    2     1000024         5   # BR(~t_2 -> ~chi_1+ b )
     2.60376572E-02    2     1000037         5   # BR(~t_2 -> ~chi_2+ b )
     7.44202316E-01    2     1000021         6   # BR(~t_2 -> ~g      t )
     6.77293130E-04    2     1000006        25   # BR(~t_2 -> ~t_1    h )
     2.30964418E-03    2     1000006        23   # BR(~t_2 -> ~t_1    Z )
#
#         PDG            Width
DECAY   1000005     3.99503414E+02   # sbottom1 decays
#          BR         NDA      ID1       ID2
     1.95494539E-03    2     1000022         5   # BR(~b_1 -> ~chi_10 b )
     2.03013454E-03    2     1000023         5   # BR(~b_1 -> ~chi_20 b )
     2.02916647E-03    2     1000025         5   # BR(~b_1 -> ~chi_30 b )
     1.88700458E-02    2     1000035         5   # BR(~b_1 -> ~chi_40 b )
     1.63340175E-01    2    -1000024         6   # BR(~b_1 -> ~chi_1- t )
     3.78851621E-02    2    -1000037         6   # BR(~b_1 -> ~chi_2- t )
     7.72475493E-01    2     1000021         5   # BR(~b_1 -> ~g      b )
     1.41487707E-03    2     1000006       -24   # BR(~b_1 -> ~t_1    W-)
#
#         PDG            Width
DECAY   2000005     3.17294843E+02   # sbottom2 decays
#          BR         NDA      ID1       ID2
     9.25389284E-03    2     1000022         5   # BR(~b_2 -> ~chi_10 b )
     2.65538903E-03    2     1000023         5   # BR(~b_2 -> ~chi_20 b )
     2.68960464E-03    2     1000025         5   # BR(~b_2 -> ~chi_30 b )
     6.11318959E-05    2     1000035         5   # BR(~b_2 -> ~chi_40 b )
     5.73085745E-03    2    -1000024         6   # BR(~b_2 -> ~chi_1- t )
     1.22736478E-04    2    -1000037         6   # BR(~b_2 -> ~chi_2- t )
     9.79467947E-01    2     1000021         5   # BR(~b_2 -> ~g      b )
     1.84404473E-05    2     1000006       -24   # BR(~b_2 -> ~t_1    W-)
#
#         PDG            Width
DECAY   1000002     3.36344392E+02   # sup_L decays
#          BR         NDA      ID1       ID2
     2.21205300E-03    2     1000022         2   # BR(~u_L -> ~chi_10 u)
     5.68920573E-05    2     1000023         2   # BR(~u_L -> ~chi_20 u)
     1.39995726E-06    2     1000025         2   # BR(~u_L -> ~chi_30 u)
     2.32719932E-02    2     1000035         2   # BR(~u_L -> ~chi_40 u)
     1.48824008E-04    2     1000024         1   # BR(~u_L -> ~chi_1+ d)
     4.65149715E-02    2     1000037         1   # BR(~u_L -> ~chi_2+ d)
     9.27793866E-01    2     1000021         2   # BR(~u_L -> ~g      u)
#
#         PDG            Width
DECAY   2000002     3.22717925E+02   # sup_R decays
#          BR         NDA      ID1       ID2
     3.66731037E-02    2     1000022         2   # BR(~u_R -> ~chi_10 u)
     1.48856964E-04    2     1000023         2   # BR(~u_R -> ~chi_20 u)
     1.38640524E-04    2     1000025         2   # BR(~u_R -> ~chi_30 u)
     2.22397266E-09    2     1000035         2   # BR(~u_R -> ~chi_40 u)
     9.63039397E-01    2     1000021         2   # BR(~u_R -> ~g      u)
#
#         PDG            Width
DECAY   1000001     3.36352903E+02   # sdown_L decays
#          BR         NDA      ID1       ID2
     2.20199885E-03    2     1000022         1   # BR(~d_L -> ~chi_10 d)
     2.42218456E-06    2     1000023         1   # BR(~d_L -> ~chi_20 d)
     4.84523924E-05    2     1000025         1   # BR(~d_L -> ~chi_30 d)
     2.32857897E-02    2     1000035         1   # BR(~d_L -> ~chi_40 d)
     4.51447409E-07    2    -1000024         2   # BR(~d_L -> ~chi_1- u)
     4.65887389E-02    2    -1000037         2   # BR(~d_L -> ~chi_2- u)
     9.27872146E-01    2     1000021         1   # BR(~d_L -> ~g      d)
#
#         PDG            Width
DECAY   2000001     3.13793819E+02   # sdown_R decays
#          BR         NDA      ID1       ID2
     9.42958109E-03    2     1000022         1   # BR(~d_R -> ~chi_10 d)
     3.82749727E-05    2     1000023         1   # BR(~d_R -> ~chi_20 d)
     3.56480628E-05    2     1000025         1   # BR(~d_R -> ~chi_30 d)
     5.71919626E-10    2     1000035         1   # BR(~d_R -> ~chi_40 d)
     9.90496495E-01    2     1000021         1   # BR(~d_R -> ~g      d)
#
#         PDG            Width
DECAY   1000004     3.36344392E+02   # scharm_L decays
#          BR         NDA      ID1       ID2
     2.21205300E-03    2     1000022         4   # BR(~c_L -> ~chi_10 c)
     5.68920573E-05    2     1000023         4   # BR(~c_L -> ~chi_20 c)
     1.39995726E-06    2     1000025         4   # BR(~c_L -> ~chi_30 c)
     2.32719932E-02    2     1000035         4   # BR(~c_L -> ~chi_40 c)
     1.48824008E-04    2     1000024         3   # BR(~c_L -> ~chi_1+ s)
     4.65149715E-02    2     1000037         3   # BR(~c_L -> ~chi_2+ s)
     9.27793866E-01    2     1000021         4   # BR(~c_L -> ~g      c)
#
#         PDG            Width
DECAY   2000004     3.22717925E+02   # scharm_R decays
#          BR         NDA      ID1       ID2
     3.66731037E-02    2     1000022         4   # BR(~c_R -> ~chi_10 c)
     1.48856964E-04    2     1000023         4   # BR(~c_R -> ~chi_20 c)
     1.38640524E-04    2     1000025         4   # BR(~c_R -> ~chi_30 c)
     2.22397266E-09    2     1000035         4   # BR(~c_R -> ~chi_40 c)
     9.63039397E-01    2     1000021         4   # BR(~c_R -> ~g      c)
#
#         PDG            Width
DECAY   1000003     3.36352903E+02   # sstrange_L decays
#          BR         NDA      ID1       ID2
     2.20199885E-03    2     1000022         3   # BR(~s_L -> ~chi_10 s)
     2.42218456E-06    2     1000023         3   # BR(~s_L -> ~chi_20 s)
     4.84523924E-05    2     1000025         3   # BR(~s_L -> ~chi_30 s)
     2.32857897E-02    2     1000035         3   # BR(~s_L -> ~chi_40 s)
     4.51447409E-07    2    -1000024         4   # BR(~s_L -> ~chi_1- c)
     4.65887389E-02    2    -1000037         4   # BR(~s_L -> ~chi_2- c)
     9.27872146E-01    2     1000021         3   # BR(~s_L -> ~g      s)
#
#         PDG            Width
DECAY   2000003     3.13793819E+02   # sstrange_R decays
#          BR         NDA      ID1       ID2
     9.42958109E-03    2     1000022         3   # BR(~s_R -> ~chi_10 s)
     3.82749727E-05    2     1000023         3   # BR(~s_R -> ~chi_20 s)
     3.56480628E-05    2     1000025         3   # BR(~s_R -> ~chi_30 s)
     5.71919626E-10    2     1000035         3   # BR(~s_R -> ~chi_40 s)
     9.90496495E-01    2     1000021         3   # BR(~s_R -> ~g      s)
#
#         PDG            Width
DECAY   1000011     3.03388514E+01   # selectron_L decays
#          BR         NDA      ID1       ID2
     2.24786363E-01    2     1000022        11   # BR(~e_L -> ~chi_10 e-)
     2.06865861E-03    2     1000023        11   # BR(~e_L -> ~chi_20 e-)
     2.38537270E-04    2     1000025        11   # BR(~e_L -> ~chi_30 e-)
     2.57466646E-01    2     1000035        11   # BR(~e_L -> ~chi_40 e-)
     5.10185168E-06    2    -1000024        12   # BR(~e_L -> ~chi_1- nu_e)
     5.15434694E-01    2    -1000037        12   # BR(~e_L -> ~chi_2- nu_e)
#
#         PDG            Width
DECAY   2000011     2.73994868E+01   # selectron_R decays
#          BR         NDA      ID1       ID2
     9.92225656E-01    2     1000022        11   # BR(~e_R -> ~chi_10 e-)
     4.02528090E-03    2     1000023        11   # BR(~e_R -> ~chi_20 e-)
     3.74900387E-03    2     1000025        11   # BR(~e_R -> ~chi_30 e-)
     5.89937951E-08    2     1000035        11   # BR(~e_R -> ~chi_40 e-)
#
#         PDG            Width
DECAY   1000013     3.03388514E+01   # smuon_L decays
#          BR         NDA      ID1       ID2
     2.24786363E-01    2     1000022        13   # BR(~mu_L -> ~chi_10 mu-)
     2.06865861E-03    2     1000023        13   # BR(~mu_L -> ~chi_20 mu-)
     2.38537270E-04    2     1000025        13   # BR(~mu_L -> ~chi_30 mu-)
     2.57466646E-01    2     1000035        13   # BR(~mu_L -> ~chi_40 mu-)
     5.10185168E-06    2    -1000024        14   # BR(~mu_L -> ~chi_1- nu_mu)
     5.15434694E-01    2    -1000037        14   # BR(~mu_L -> ~chi_2- nu_mu)
#
#         PDG            Width
DECAY   2000013     2.73994868E+01   # smuon_R decays
#          BR         NDA      ID1       ID2
     9.92225656E-01    2     1000022        13   # BR(~mu_R -> ~chi_10 mu-)
     4.02528090E-03    2     1000023        13   # BR(~mu_R -> ~chi_20 mu-)
     3.74900387E-03    2     1000025        13   # BR(~mu_R -> ~chi_30 mu-)
     5.89937951E-08    2     1000035        13   # BR(~mu_R -> ~chi_40 mu-)
#
#         PDG            Width
DECAY   1000015     2.92429929E+01   # stau_1 decays
#          BR         NDA      ID1       ID2
     9.28327125E-01    2     1000022        15   # BR(~tau_1 -> ~chi_10  tau-)
     1.91927540E-02    2     1000023        15   # BR(~tau_1 -> ~chi_20  tau-)
     1.84878539E-02    2     1000025        15   # BR(~tau_1 -> ~chi_30  tau-)
     8.48284924E-04    2     1000035        15   # BR(~tau_1 -> ~chi_40  tau-)
     3.14459204E-02    2    -1000024        16   # BR(~tau_1 -> ~chi_1-  nu_tau)
     1.69806222E-03    2    -1000037        16   # BR(~tau_1 -> ~chi_2-  nu_tau)
#
#         PDG            Width
DECAY   2000015     3.12465261E+01   # stau_2 decays
#          BR         NDA      ID1       ID2
     2.19774554E-01    2     1000022        15   # BR(~tau_2 -> ~chi_10  tau-)
     1.68990320E-02    2     1000023        15   # BR(~tau_2 -> ~chi_20  tau-)
     1.54675249E-02    2     1000025        15   # BR(~tau_2 -> ~chi_30  tau-)
     2.49105332E-01    2     1000035        15   # BR(~tau_2 -> ~chi_40  tau-)
     5.72636009E-05    2    -1000024        16   # BR(~tau_2 -> ~chi_1-  nu_tau)
     4.98696293E-01    2    -1000037        16   # BR(~tau_2 -> ~chi_2-  nu_tau)
#
#         PDG            Width
DECAY   1000012     3.03420491E+01   # snu_eL decays
#          BR         NDA      ID1       ID2
     2.24373900E-01    2     1000022        12   # BR(~nu_eL -> ~chi_10 nu_e)
     2.21744075E-04    2     1000023        12   # BR(~nu_eL -> ~chi_20 nu_e)
     1.83320502E-03    2     1000025        12   # BR(~nu_eL -> ~chi_30 nu_e)
     2.57508780E-01    2     1000035        12   # BR(~nu_eL -> ~chi_40 nu_e)
     1.68148879E-03    2     1000024        11   # BR(~nu_eL -> ~chi_1+ e-)
     5.14380882E-01    2     1000037        11   # BR(~nu_eL -> ~chi_2+ e-)
#
#         PDG            Width
DECAY   1000014     3.03420491E+01   # snu_muL decays
#          BR         NDA      ID1       ID2
     2.24373900E-01    2     1000022        14   # BR(~nu_muL -> ~chi_10 nu_mu)
     2.21744075E-04    2     1000023        14   # BR(~nu_muL -> ~chi_20 nu_mu)
     1.83320502E-03    2     1000025        14   # BR(~nu_muL -> ~chi_30 nu_mu)
     2.57508780E-01    2     1000035        14   # BR(~nu_muL -> ~chi_40 nu_mu)
     1.68148879E-03    2     1000024        13   # BR(~nu_muL -> ~chi_1+ mu-)
     5.14380882E-01    2     1000037        13   # BR(~nu_muL -> ~chi_2+ mu-)
#
#         PDG            Width
DECAY   1000016     3.12561973E+01   # snu_tauL decays
#          BR         NDA      ID1       ID2
     2.17787683E-01    2     1000022        16   # BR(~nu_tauL -> ~chi_10 nu_tau)
     2.15234115E-04    2     1000023        16   # BR(~nu_tauL -> ~chi_20 nu_tau)
     1.77938574E-03    2     1000025        16   # BR(~nu_tauL -> ~chi_30 nu_tau)
     2.49883887E-01    2     1000035        16   # BR(~nu_tauL -> ~chi_40 nu_tau)
     3.11843710E-02    2     1000024        15   # BR(~nu_tauL -> ~chi_1+ tau-)
     4.99149439E-01    2     1000037        15   # BR(~nu_tauL -> ~chi_2+ tau-)
#
#         PDG            Width
DECAY   1000024     2.94291658E-01   # chargino1+ decays
#          BR         NDA      ID1       ID2
     1.00000000E+00    2     1000022        24   # BR(~chi_1+ -> ~chi_10  W+)
#
#         PDG            Width
DECAY   1000037     2.21778102E+01   # chargino2+ decays
#          BR         NDA      ID1       ID2
     2.53582518E-01    2     1000024        23   # BR(~chi_2+ -> ~chi_1+  Z )
     1.56197711E-04    2     1000022        24   # BR(~chi_2+ -> ~chi_10  W+)
     2.45011843E-01    2     1000023        24   # BR(~chi_2+ -> ~chi_20  W+)
     2.44419112E-01    2     1000025        24   # BR(~chi_2+ -> ~chi_30  W+)
     2.56825145E-01    2     1000024        25   # BR(~chi_2+ -> ~chi_1+  h )
     5.18418235E-06    2     1000022        37   # BR(~chi_2+ -> ~chi_10  H+)
#
#         PDG            Width
DECAY   1000022     0.00000000E+00   # neutralino1 decays
#
#         PDG            Width
DECAY   1000023     2.97667891E-01   # neutralino2 decays
#          BR         NDA      ID1       ID2
     5.04177441E-01    2     1000022        23   # BR(~chi_20 -> ~chi_10   Z )
     4.95822559E-01    2     1000022        25   # BR(~chi_20 -> ~chi_10   h )
#
#         PDG            Width
DECAY   1000025     2.90595950E-01   # neutralino3 decays
#          BR         NDA      ID1       ID2
     5.33553771E-01    2     1000022        23   # BR(~chi_30 -> ~chi_10   Z )
     4.66446229E-01    2     1000022        25   # BR(~chi_30 -> ~chi_10   h )
#
#         PDG            Width
DECAY   1000035     2.21887745E+01   # neutralino4 decays
#          BR         NDA      ID1       ID2
     3.10185692E-06    2     1000022        23   # BR(~chi_40 -> ~chi_10   Z )
     1.12718093E-01    2     1000023        23   # BR(~chi_40 -> ~chi_20   Z )
     1.40425384E-01    2     1000025        23   # BR(~chi_40 -> ~chi_30   Z )
     2.45195852E-01    2     1000024       -24   # BR(~chi_40 -> ~chi_1+   W-)
     2.45195852E-01    2    -1000024        24   # BR(~chi_40 -> ~chi_1-   W+)
     1.45471640E-04    2     1000022        25   # BR(~chi_40 -> ~chi_10   h )
     4.98638252E-06    2     1000022        35   # BR(~chi_40 -> ~chi_10   H )
     5.44589912E-07    2     1000022        36   # BR(~chi_40 -> ~chi_10   A )
     1.43376047E-01    2     1000023        25   # BR(~chi_40 -> ~chi_20   h )
     1.12934666E-01    2     1000025        25   # BR(~chi_40 -> ~chi_30   h )
#
#         PDG            Width
DECAY        25     4.02318585E-03   # h decays
#          BR         NDA      ID1       ID2
     6.18006677E-01    2           5        -5   # BR(h -> b       bb     )
     6.42280911E-02    2         -15        15   # BR(h -> tau+    tau-   )
     2.27392904E-04    2         -13        13   # BR(h -> mu+     mu-    )
     4.82416871E-04    2           3        -3   # BR(h -> s       sb     )
     2.09026430E-02    2           4        -4   # BR(h -> c       cb     )
     6.70678099E-02    2          21        21   # BR(h -> g       g      )
     2.29430761E-03    2          22        22   # BR(h -> gam     gam    )
     1.44002456E-03    2          22        23   # BR(h -> Z       gam    )
     2.01477692E-01    2          24       -24   # BR(h -> W+      W-     )
     2.38007959E-02    2          23        23   # BR(h -> Z       Z      )
     7.21486153E-05    2     1000022   1000022   # BR(h -> ~chi_10 ~chi_10)
#
#         PDG            Width
DECAY        35     8.66679863E+00   # H decays
#          BR         NDA      ID1       ID2
     3.68769036E-01    2           5        -5   # BR(H -> b       bb     )
     6.43346441E-02    2         -15        15   # BR(H -> tau+    tau-   )
     2.27492412E-04    2         -13        13   # BR(H -> mu+     mu-    )
     2.78870852E-04    2           3        -3   # BR(H -> s       sb     )
     1.55742846E-06    2           4        -4   # BR(H -> c       cb     )
     1.55599442E-01    2           6        -6   # BR(H -> t       tb     )
     5.17247984E-05    2          21        21   # BR(H -> g       g      )
     1.48756965E-07    2          22        22   # BR(H -> gam     gam    )
     9.17195414E-08    2          23        22   # BR(H -> Z       gam    )
     7.35925785E-05    2          24       -24   # BR(H -> W+      W-     )
     3.67496949E-05    2          23        23   # BR(H -> Z       Z      )
     2.69078020E-04    2          25        25   # BR(H -> h       h      )
     1.76305484E-23    2          36        36   # BR(H -> A       A      )
     1.14277626E-18    2          23        36   # BR(H -> Z       A      )
     3.17403619E-03    2     1000024  -1000024   # BR(H -> ~chi_1+ ~chi_1-)
     6.71533503E-03    2     1000022   1000022   # BR(H -> ~chi_10 ~chi_10)
     3.69015489E-04    2     1000023   1000023   # BR(H -> ~chi_20 ~chi_20)
     2.44846692E-03    2     1000025   1000025   # BR(H -> ~chi_30 ~chi_30)
     2.39436127E-01    2     1000022   1000023   # BR(H -> ~chi_10 ~chi_20)
     1.54890911E-01    2     1000022   1000025   # BR(H -> ~chi_10 ~chi_30)
     3.32368032E-03    2     1000023   1000025   # BR(H -> ~chi_20 ~chi_30)
#
#         PDG            Width
DECAY        36     8.67387455E+00   # A decays
#          BR         NDA      ID1       ID2
     3.68594159E-01    2           5        -5   # BR(A -> b       bb     )
     6.42840684E-02    2         -15        15   # BR(A -> tau+    tau-   )
     2.27313254E-04    2         -13        13   # BR(A -> mu+     mu-    )
     2.78854753E-04    2           3        -3   # BR(A -> s       sb     )
     1.56242474E-06    2           4        -4   # BR(A -> c       cb     )
     1.56012479E-01    2           6        -6   # BR(A -> t       tb     )
     1.54442260E-04    2          21        21   # BR(A -> g       g      )
     5.93056136E-07    2          22        22   # BR(A -> gam     gam    )
     1.86803540E-07    2          23        22   # BR(A -> Z       gam    )
     7.32571953E-05    2          23        25   # BR(A -> Z       h      )
     3.48587885E-03    2     1000024  -1000024   # BR(A -> ~chi_1+ ~chi_1-)
     6.67234343E-03    2     1000022   1000022   # BR(A -> ~chi_10 ~chi_10)
     2.71186151E-04    2     1000023   1000023   # BR(A -> ~chi_20 ~chi_20)
     4.22220367E-03    2     1000025   1000025   # BR(A -> ~chi_30 ~chi_30)
     1.58291738E-01    2     1000022   1000023   # BR(A -> ~chi_10 ~chi_20)
     2.35066868E-01    2     1000022   1000025   # BR(A -> ~chi_10 ~chi_30)
     2.36286633E-03    2     1000023   1000025   # BR(A -> ~chi_20 ~chi_30)
#
#         PDG            Width
DECAY        37     8.60300926E+00   # H+ decays
#          BR         NDA      ID1       ID2
     5.89504919E-04    2           4        -5   # BR(H+ -> c       bb     )
     6.48444711E-02    2         -15        16   # BR(H+ -> tau+    nu_tau )
     2.29294880E-04    2         -13        14   # BR(H+ -> mu+     nu_mu  )
     3.77281166E-06    2           2        -5   # BR(H+ -> u       bb     )
     1.34542233E-05    2           2        -3   # BR(H+ -> u       sb     )
     2.78231650E-04    2           4        -3   # BR(H+ -> c       sb     )
     5.22487357E-01    2           6        -5   # BR(H+ -> t       bb     )
     7.40139234E-05    2          24        25   # BR(H+ -> W+      h      )
     9.10873684E-13    2          24        36   # BR(H+ -> W+      A      )
     4.07676306E-01    2     1000024   1000022   # BR(H+ -> ~chi_1+ ~chi_10)
     3.47320904E-03    2     1000024   1000023   # BR(H+ -> ~chi_1+ ~chi_20)
     3.30384983E-04    2     1000024   1000025   # BR(H+ -> ~chi_1+ ~chi_30)
