#
#                              ======================
#                              | THE SUSYHIT OUTPUT |
#                              ======================
#
#
#              ------------------------------------------------------
#              |     This is the output of the SUSY-HIT package     |
#              |  created by A.Djouadi, M.Muehlleitner and M.Spira. |
#              |  In case of problems with SUSY-HIT email to        |
#              |           margarete.muehlleitner@cern.ch           |
#              |           michael.spira@psi.ch                     |
#              |           abdelhak.djouadi@cern.ch                 |
#              ------------------------------------------------------
#
#              ------------------------------------------------------
#              |  SUSY Les Houches Accord - MSSM Spectrum + Decays  |
#              |              based on the decay programs           |
#              |                                                    |
#              |                     SDECAY 1.3b                    |
#              |                                                    |
#              |  Authors: M.Muhlleitner, A.Djouadi and Y.Mambrini  |
#              |  Ref.:    Comput.Phys.Commun.168(2005)46           |
#              |           [hep-ph/0311167]                         |
#              |                                                    |
#              |                     HDECAY 3.4                     |
#              |                                                    |
#              |  By: A.Djouadi,J.Kalinowski,M.Muhlleitner,M.Spira  |
#              |  Ref.:    Comput.Phys.Commun.108(1998)56           |
#              |           [hep-ph/9704448]                         |
#              |                                                    |
#              |                                                    |
#              |  If not stated otherwise all DRbar couplings and   |
#              |  soft SUSY breaking masses are given at the scale  |
#              |  Q=  0.50007551E+04
#              |                                                    |
#              ------------------------------------------------------
#
#
BLOCK DCINFO  # Decay Program information
     1   SDECAY/HDECAY # decay calculator
     2   1.3b  /3.4    # version number
#
BLOCK SPINFO  # Spectrum calculator information
     1    SOFTSUSY    # spectrum calculator                
     2    3.4.0       # version number                     
#
BLOCK MODSEL  # Model selection
     1     0   #  nonUniversal                                     
#
BLOCK SMINPUTS  # Standard Model inputs
         1     1.25778332E+02   # alpha_em^-1(M_Z)^MSbar
         2     1.16570000E-05   # G_F [GeV^-2]
         3     1.17200002E-01   # alpha_S(M_Z)^MSbar
         4     9.11876000E+01   # M_Z pole mass
         5     4.25000000E+00   # mb(mb)^MSbar
         6     1.72500000E+02   # mt pole mass
         7     1.77682000E+00   # mtau pole mass
#
BLOCK MINPAR  # Input parameters - minimal models
         3     1.00000000E+01   # tanb                
#
BLOCK EXTPAR  # Input parameters - non-minimal models
         0    -1.00000000E+00   # Set                 
         1     6.00000000E+01   # M_1(MX)             
         2     3.00000000E+03   # M_2(MX)             
         3     7.73140000E+02   # M_3(MX)             
        11     5.00000000E+03   # At(MX)              
        12     5.00000000E+03   # Ab(MX)              
        13     0.00000000E+00   # Atau(MX)            
        23    -2.82922000E+02   # mu(MX)              
        26     3.00000000E+03   # mA(pole)            
        31     5.00000000E+03   # meL(MX)             
        32     5.00000000E+03   # mmuL(MX)            
        33     5.00000000E+03   # mtauL(MX)           
        34     5.00000000E+03   # meR(MX)             
        35     5.00000000E+03   # mmuR(MX)            
        36     5.00000000E+03   # mtauR(MX)           
        41     5.00000000E+03   # mqL1(MX)            
        42     5.00000000E+03   # mqL2(MX)            
        43     5.00000000E+03   # mqL3(MX)            
        44     5.00000000E+03   # muR(MX)             
        45     5.00000000E+03   # mcR(MX)             
        46     5.00000000E+03   # mtR(MX)             
        47     5.00000000E+03   # mdR(MX)             
        48     5.00000000E+03   # msR(MX)             
        49     5.00000000E+03   # mbR(MX)             
#
BLOCK MASS  # Mass Spectrum
# PDG code           mass       particle
        24     8.00887936E+01   # W+
        25     1.24295478E+02   # h
        35     3.00008831E+03   # H
        36     2.99999970E+03   # A
        37     3.00146942E+03   # H+
         5     4.87878001E+00   # b-quark pole mass calculated from mb(mb)_Msbar
   1000001     5.06387338E+03   # ~d_L
   2000001     5.04596676E+03   # ~d_R
   1000002     5.06339492E+03   # ~u_L
   2000002     5.04565857E+03   # ~u_R
   1000003     5.06387338E+03   # ~s_L
   2000003     5.04596676E+03   # ~s_R
   1000004     5.06339492E+03   # ~c_L
   2000004     5.04565857E+03   # ~c_R
   1000005     5.01050162E+03   # ~b_1
   2000005     5.04414371E+03   # ~b_2
   1000006     4.90109578E+03   # ~t_1
   2000006     5.05510067E+03   # ~t_2
   1000011     5.01914193E+03   # ~e_L
   2000011     5.00595468E+03   # ~e_R
   1000012     5.01818965E+03   # ~nu_eL
   1000013     5.01914193E+03   # ~mu_L
   2000013     5.00595468E+03   # ~mu_R
   1000014     5.01818965E+03   # ~nu_muL
   1000015     5.00481657E+03   # ~tau_1
   2000015     5.01862319E+03   # ~tau_2
   1000016     5.01763564E+03   # ~nu_tauL
   1000021     1.00000070E+03   # ~g
   1000022     5.97913212E+01   # ~chi_10
   1000023     3.01966827E+02   # ~chi_20
   1000025    -3.03839575E+02   # ~chi_30
   1000035     3.07424026E+03   # ~chi_40
   1000024     3.00000735E+02   # ~chi_1+
   1000037     3.07440829E+03   # ~chi_2+
#
BLOCK NMIX  # Neutralino Mixing Matrix
  1  1     9.88601998E-01   # N_11
  1  2     5.98640076E-05   # N_12
  1  3    -1.49830216E-01   # N_13
  1  4    -1.47306649E-02   # N_14
  2  1     1.16392480E-01   # N_21
  2  2     1.77007829E-02   # N_22
  2  3     6.98594023E-01   # N_23
  2  4     7.05766154E-01   # N_24
  3  1    -9.54920004E-02   # N_31
  3  2     1.80318049E-02   # N_32
  3  3    -6.99655080E-01   # N_33
  3  4     7.07841014E-01   # N_34
  4  1    -3.97653539E-04   # N_41
  4  2     9.99680715E-01   # N_42
  4  3     2.59435068E-04   # N_43
  4  4    -2.52634490E-02   # N_44
#
BLOCK UMIX  # Chargino Mixing Matrix U
  1  1    -3.64345984E-04   # U_11
  1  2     9.99999934E-01   # U_12
  2  1    -9.99999934E-01   # U_21
  2  2    -3.64345984E-04   # U_22
#
BLOCK VMIX  # Chargino Mixing Matrix V
  1  1     3.57369925E-02   # V_11
  1  2    -9.99361230E-01   # V_12
  2  1    -9.99361230E-01   # V_21
  2  2    -3.57369925E-02   # V_22
#
BLOCK STOPMIX  # Stop Mixing Matrix
  1  1    -5.06409215E-01   # cos(theta_t)
  1  2     8.62293284E-01   # sin(theta_t)
  2  1    -8.62293284E-01   # -sin(theta_t)
  2  2    -5.06409215E-01   # cos(theta_t)
#
BLOCK SBOTMIX  # Sbottom Mixing Matrix
  1  1     9.99177938E-01   # cos(theta_b)
  1  2    -4.05394649E-02   # sin(theta_b)
  2  1     4.05394649E-02   # -sin(theta_b)
  2  2     9.99177938E-01   # cos(theta_b)
#
BLOCK STAUMIX  # Stau Mixing Matrix
  1  1    -3.37643018E-02   # cos(theta_tau)
  1  2     9.99429823E-01   # sin(theta_tau)
  2  1    -9.99429823E-01   # -sin(theta_tau)
  2  2    -3.37643018E-02   # cos(theta_tau)
#
BLOCK ALPHA  # Higgs mixing
          -1.05439199E-01   # Mixing angle in the neutral Higgs boson sector
#
BLOCK HMIX Q=  5.00075513E+03  # DRbar Higgs Parameters
         1    -2.87934316E+02   # mu(Q)MSSM           
         2     9.47352857E+00   # tan                 
         3     2.41769947E+02   # higgs               
         4     8.74947752E+06   # mA^2(Q)MSSM         
#
BLOCK GAUGE Q=  5.00075513E+03  # The gauge couplings
     1     3.71089678E-01   # gprime(Q) DRbar
     2     6.33949293E-01   # g(Q) DRbar
     3     1.00864802E+00   # g3(Q) DRbar
#
BLOCK AU Q=  5.00075513E+03  # The trilinear couplings
  1  1     5.00000001E+03   # A_u(Q) DRbar
  2  2     5.00000001E+03   # A_c(Q) DRbar
  3  3     5.00000001E+03   # A_t(Q) DRbar
#
BLOCK AD Q=  5.00075513E+03  # The trilinear couplings
  1  1     5.00000000E+03   # A_d(Q) DRbar
  2  2     5.00000000E+03   # A_s(Q) DRbar
  3  3     5.00000001E+03   # A_b(Q) DRbar
#
BLOCK AE Q=  5.00075513E+03  # The trilinear couplings
  1  1     0.00000000E+00   # A_e(Q) DRbar
  2  2     1.59280576E-08   # A_mu(Q) DRbar
  3  3     1.49383588E-08   # A_tau(Q) DRbar
#
BLOCK Yu Q=  5.00075513E+03  # The Yukawa couplings
  1  1     0.00000000E+00   # y_u(Q) DRbar
  2  2     0.00000000E+00   # y_c(Q) DRbar
  3  3     8.14680201E-01   # y_t(Q) DRbar
#
BLOCK Yd Q=  5.00075513E+03  # The Yukawa couplings
  1  1     0.00000000E+00   # y_d(Q) DRbar
  2  2     0.00000000E+00   # y_s(Q) DRbar
  3  3     1.28960339E-01   # y_b(Q) DRbar
#
BLOCK Ye Q=  5.00075513E+03  # The Yukawa couplings
  1  1     0.00000000E+00   # y_e(Q) DRbar
  2  2     0.00000000E+00   # y_mu(Q) DRbar
  3  3     9.72944635E-02   # y_tau(Q) DRbar
#
BLOCK MSOFT Q=  5.00075513E+03  # The soft SUSY breaking masses at the scale Q
         1     6.00000000E+01   # M_1(Q)              
         2     3.00000000E+03   # M_2(Q)              
         3     7.73140000E+02   # M_3(Q)              
        21     8.64808657E+06   # mH1^2(Q)            
        22     4.90674993E+05   # mH2^2(Q)            
        31     5.00000000E+03   # meL(Q)              
        32     5.00000000E+03   # mmuL(Q)             
        33     5.00000000E+03   # mtauL(Q)            
        34     5.00000000E+03   # meR(Q)              
        35     5.00000000E+03   # mmuR(Q)             
        36     5.00000000E+03   # mtauR(Q)            
        41     5.00000000E+03   # mqL1(Q)             
        42     5.00000000E+03   # mqL2(Q)             
        43     5.00000000E+03   # mqL3(Q)             
        44     5.00000000E+03   # muR(Q)              
        45     5.00000000E+03   # mcR(Q)              
        46     5.00000000E+03   # mtR(Q)              
        47     5.00000000E+03   # mdR(Q)              
        48     5.00000000E+03   # msR(Q)              
        49     5.00000000E+03   # mbR(Q)              
#
#
#
#                             =================
#                             |The decay table|
#                             =================
#
# - The QCD corrections to the decays gluino -> squark  + quark
#                                     squark -> gaugino + quark_prime
#                                     squark -> squark_prime + Higgs
#                                     squark -> gluino  + quark
#   are included.
#
# - The multi-body decays for the inos, stops and sbottoms are included.
#
# - The loop induced decays for the gluino, neutralinos and stops
#   are included.
#
# - The SUSY decays of the top quark are included.
#
#
#         PDG            Width
DECAY         6     1.40863741E+00   # top decays
#          BR         NDA      ID1       ID2
     1.00000000E+00    2           5        24   # BR(t ->  b    W+)
#
#         PDG            Width
DECAY   1000021     3.45018036E-05   # gluino decays
#          BR         NDA      ID1       ID2
     1.25472964E-05    2     1000022        21   # BR(~g -> ~chi_10 g)
     4.04501043E-02    2     1000023        21   # BR(~g -> ~chi_20 g)
     3.91814878E-02    2     1000025        21   # BR(~g -> ~chi_30 g)
#           BR         NDA      ID1       ID2       ID3
     1.98503190E-02    3     1000022         1        -1   # BR(~g -> ~chi_10 d  db)
     1.46711584E-04    3     1000023         1        -1   # BR(~g -> ~chi_20 d  db)
     8.73799097E-05    3     1000025         1        -1   # BR(~g -> ~chi_30 d  db)
     6.76556790E-02    3     1000022         2        -2   # BR(~g -> ~chi_10 u  ub)
     6.93193250E-04    3     1000023         2        -2   # BR(~g -> ~chi_20 u  ub)
     1.78919258E-04    3     1000025         2        -2   # BR(~g -> ~chi_30 u  ub)
     1.98503190E-02    3     1000022         3        -3   # BR(~g -> ~chi_10 s  sb)
     1.46711584E-04    3     1000023         3        -3   # BR(~g -> ~chi_20 s  sb)
     8.73799097E-05    3     1000025         3        -3   # BR(~g -> ~chi_30 s  sb)
     6.76556790E-02    3     1000022         4        -4   # BR(~g -> ~chi_10 c  cb)
     6.93193250E-04    3     1000023         4        -4   # BR(~g -> ~chi_20 c  cb)
     1.78919258E-04    3     1000025         4        -4   # BR(~g -> ~chi_30 c  cb)
     2.07461057E-02    3     1000022         5        -5   # BR(~g -> ~chi_10 b  bb)
     6.42116058E-03    3     1000023         5        -5   # BR(~g -> ~chi_20 b  bb)
     6.33416008E-03    3     1000025         5        -5   # BR(~g -> ~chi_30 b  bb)
     4.17414034E-02    3     1000022         6        -6   # BR(~g -> ~chi_10 t  tb)
     1.57115332E-01    3     1000023         6        -6   # BR(~g -> ~chi_20 t  tb)
     1.09913033E-01    3     1000025         6        -6   # BR(~g -> ~chi_30 t  tb)
     6.47807184E-05    3     1000024         1        -2   # BR(~g -> ~chi_1+ d  ub)
     6.47807184E-05    3    -1000024         2        -1   # BR(~g -> ~chi_1- u  db)
     6.47807184E-05    3     1000024         3        -4   # BR(~g -> ~chi_1+ s  cb)
     6.47807184E-05    3    -1000024         4        -3   # BR(~g -> ~chi_1- c  sb)
     2.00300569E-01    3     1000024         5        -6   # BR(~g -> ~chi_1+ b  tb)
     2.00300569E-01    3    -1000024         6        -5   # BR(~g -> ~chi_1- t  bb)
#
#         PDG            Width
DECAY   1000006     4.24616782E+02   # stop1 decays
#          BR         NDA      ID1       ID2
     1.97321181E-02    2     1000022         6   # BR(~t_1 -> ~chi_10 t )
     7.92294861E-02    2     1000023         6   # BR(~t_1 -> ~chi_20 t )
     7.27512857E-02    2     1000025         6   # BR(~t_1 -> ~chi_30 t )
     4.88384851E-03    2     1000035         6   # BR(~t_1 -> ~chi_40 t )
     1.11592822E-01    2     1000024         5   # BR(~t_1 -> ~chi_1+ b )
     9.73657085E-03    2     1000037         5   # BR(~t_1 -> ~chi_2+ b )
     7.02073869E-01    2     1000021         6   # BR(~t_1 -> ~g      t )
#
#         PDG            Width
DECAY   2000006     4.22775345E+02   # stop2 decays
#          BR         NDA      ID1       ID2
     8.94861216E-03    2     1000022         6   # BR(~t_2 -> ~chi_10 t )
     7.61800634E-02    2     1000023         6   # BR(~t_2 -> ~chi_20 t )
     8.35832062E-02    2     1000025         6   # BR(~t_2 -> ~chi_30 t )
     1.30895337E-02    2     1000035         6   # BR(~t_2 -> ~chi_40 t )
     4.69091116E-02    2     1000024         5   # BR(~t_2 -> ~chi_1+ b )
     2.60673987E-02    2     1000037         5   # BR(~t_2 -> ~chi_2+ b )
     7.42280816E-01    2     1000021         6   # BR(~t_2 -> ~g      t )
     6.70261507E-04    2     1000006        25   # BR(~t_2 -> ~t_1    h )
     2.27099676E-03    2     1000006        23   # BR(~t_2 -> ~t_1    Z )
#
#         PDG            Width
DECAY   1000005     4.00536302E+02   # sbottom1 decays
#          BR         NDA      ID1       ID2
     2.00654145E-03    2     1000022         5   # BR(~b_1 -> ~chi_10 b )
     1.99051429E-03    2     1000023         5   # BR(~b_1 -> ~chi_20 b )
     2.04158636E-03    2     1000025         5   # BR(~b_1 -> ~chi_30 b )
     1.88751376E-02    2     1000035         5   # BR(~b_1 -> ~chi_40 b )
     1.65275170E-01    2    -1000024         6   # BR(~b_1 -> ~chi_1- t )
     3.78911702E-02    2    -1000037         6   # BR(~b_1 -> ~chi_2- t )
     7.70516732E-01    2     1000021         5   # BR(~b_1 -> ~g      b )
     1.40314814E-03    2     1000006       -24   # BR(~b_1 -> ~t_1    W-)
#
#         PDG            Width
DECAY   2000005     3.17247672E+02   # sbottom2 decays
#          BR         NDA      ID1       ID2
     9.17558821E-03    2     1000022         5   # BR(~b_2 -> ~chi_10 b )
     2.75503492E-03    2     1000023         5   # BR(~b_2 -> ~chi_20 b )
     2.74499298E-03    2     1000025         5   # BR(~b_2 -> ~chi_30 b )
     3.78003094E-05    2     1000035         5   # BR(~b_2 -> ~chi_40 b )
     5.60513627E-03    2    -1000024         6   # BR(~b_2 -> ~chi_1- t )
     7.58926033E-05    2    -1000037         6   # BR(~b_2 -> ~chi_2- t )
     9.79593944E-01    2     1000021         5   # BR(~b_2 -> ~g      b )
     1.16108710E-05    2     1000006       -24   # BR(~b_2 -> ~t_1    W-)
#
#         PDG            Width
DECAY   1000002     3.36390535E+02   # sup_L decays
#          BR         NDA      ID1       ID2
     2.17657923E-03    2     1000022         2   # BR(~u_L -> ~chi_10 u)
     9.48338130E-05    2     1000023         2   # BR(~u_L -> ~chi_20 u)
     2.09489309E-08    2     1000025         2   # BR(~u_L -> ~chi_30 u)
     2.33106384E-02    2     1000035         2   # BR(~u_L -> ~chi_40 u)
     1.48341369E-04    2     1000024         1   # BR(~u_L -> ~chi_1+ d)
     4.65927978E-02    2     1000037         1   # BR(~u_L -> ~chi_2+ d)
     9.27676788E-01    2     1000021         2   # BR(~u_L -> ~g      u)
#
#         PDG            Width
DECAY   2000002     3.22726064E+02   # sup_R decays
#          BR         NDA      ID1       ID2
     3.61498270E-02    2     1000022         2   # BR(~u_R -> ~chi_10 u)
     4.97729512E-04    2     1000023         2   # BR(~u_R -> ~chi_20 u)
     3.34995573E-04    2     1000025         2   # BR(~u_R -> ~chi_30 u)
     2.31506091E-09    2     1000035         2   # BR(~u_R -> ~chi_40 u)
     9.63017446E-01    2     1000021         2   # BR(~u_R -> ~g      u)
#
#         PDG            Width
DECAY   1000001     3.36398782E+02   # sdown_L decays
#          BR         NDA      ID1       ID2
     2.17403169E-03    2     1000022         1   # BR(~d_L -> ~chi_10 d)
     1.45755823E-06    2     1000023         1   # BR(~d_L -> ~chi_20 d)
     7.80611910E-05    2     1000025         1   # BR(~d_L -> ~chi_30 d)
     2.33246244E-02    2     1000035         1   # BR(~d_L -> ~chi_40 d)
     1.54200330E-08    2    -1000024         2   # BR(~d_L -> ~chi_1- u)
     4.66658752E-02    2    -1000037         2   # BR(~d_L -> ~chi_2- u)
     9.27755935E-01    2     1000021         1   # BR(~d_L -> ~g      d)
#
#         PDG            Width
DECAY   2000001     3.13796909E+02   # sdown_R decays
#          BR         NDA      ID1       ID2
     9.29518882E-03    2     1000022         1   # BR(~d_R -> ~chi_10 d)
     1.27981071E-04    2     1000023         1   # BR(~d_R -> ~chi_20 d)
     8.61373333E-05    2     1000025         1   # BR(~d_R -> ~chi_30 d)
     5.95355828E-10    2     1000035         1   # BR(~d_R -> ~chi_40 d)
     9.90490692E-01    2     1000021         1   # BR(~d_R -> ~g      d)
#
#         PDG            Width
DECAY   1000004     3.36390535E+02   # scharm_L decays
#          BR         NDA      ID1       ID2
     2.17657923E-03    2     1000022         4   # BR(~c_L -> ~chi_10 c)
     9.48338130E-05    2     1000023         4   # BR(~c_L -> ~chi_20 c)
     2.09489309E-08    2     1000025         4   # BR(~c_L -> ~chi_30 c)
     2.33106384E-02    2     1000035         4   # BR(~c_L -> ~chi_40 c)
     1.48341369E-04    2     1000024         3   # BR(~c_L -> ~chi_1+ s)
     4.65927978E-02    2     1000037         3   # BR(~c_L -> ~chi_2+ s)
     9.27676788E-01    2     1000021         4   # BR(~c_L -> ~g      c)
#
#         PDG            Width
DECAY   2000004     3.22726064E+02   # scharm_R decays
#          BR         NDA      ID1       ID2
     3.61498270E-02    2     1000022         4   # BR(~c_R -> ~chi_10 c)
     4.97729512E-04    2     1000023         4   # BR(~c_R -> ~chi_20 c)
     3.34995573E-04    2     1000025         4   # BR(~c_R -> ~chi_30 c)
     2.31506091E-09    2     1000035         4   # BR(~c_R -> ~chi_40 c)
     9.63017446E-01    2     1000021         4   # BR(~c_R -> ~g      c)
#
#         PDG            Width
DECAY   1000003     3.36398782E+02   # sstrange_L decays
#          BR         NDA      ID1       ID2
     2.17403169E-03    2     1000022         3   # BR(~s_L -> ~chi_10 s)
     1.45755823E-06    2     1000023         3   # BR(~s_L -> ~chi_20 s)
     7.80611910E-05    2     1000025         3   # BR(~s_L -> ~chi_30 s)
     2.33246244E-02    2     1000035         3   # BR(~s_L -> ~chi_40 s)
     1.54200330E-08    2    -1000024         4   # BR(~s_L -> ~chi_1- c)
     4.66658752E-02    2    -1000037         4   # BR(~s_L -> ~chi_2- c)
     9.27755935E-01    2     1000021         3   # BR(~s_L -> ~g      s)
#
#         PDG            Width
DECAY   2000003     3.13796909E+02   # sstrange_R decays
#          BR         NDA      ID1       ID2
     9.29518882E-03    2     1000022         3   # BR(~s_R -> ~chi_10 s)
     1.27981071E-04    2     1000023         3   # BR(~s_R -> ~chi_20 s)
     8.61373333E-05    2     1000025         3   # BR(~s_R -> ~chi_30 s)
     5.95355828E-10    2     1000035         3   # BR(~s_R -> ~chi_40 s)
     9.90490692E-01    2     1000021         3   # BR(~s_R -> ~g      s)
#
#         PDG            Width
DECAY   1000011     3.03850927E+01   # selectron_L decays
#          BR         NDA      ID1       ID2
     2.21124240E-01    2     1000022        11   # BR(~e_L -> ~chi_10 e-)
     4.82983052E-03    2     1000023        11   # BR(~e_L -> ~chi_20 e-)
     9.39892094E-04    2     1000025        11   # BR(~e_L -> ~chi_30 e-)
     2.57534817E-01    2     1000035        11   # BR(~e_L -> ~chi_40 e-)
     1.74071386E-07    2    -1000024        12   # BR(~e_L -> ~chi_1- nu_e)
     5.15571046E-01    2    -1000037        12   # BR(~e_L -> ~chi_2- nu_e)
#
#         PDG            Width
DECAY   2000011     2.74164840E+01   # selectron_R decays
#          BR         NDA      ID1       ID2
     9.77489474E-01    2     1000022        11   # BR(~e_R -> ~chi_10 e-)
     1.34547800E-02    2     1000023        11   # BR(~e_R -> ~chi_20 e-)
     9.05568424E-03    2     1000025        11   # BR(~e_R -> ~chi_30 e-)
     6.13740262E-08    2     1000035        11   # BR(~e_R -> ~chi_40 e-)
#
#         PDG            Width
DECAY   1000013     3.03850927E+01   # smuon_L decays
#          BR         NDA      ID1       ID2
     2.21124240E-01    2     1000022        13   # BR(~mu_L -> ~chi_10 mu-)
     4.82983052E-03    2     1000023        13   # BR(~mu_L -> ~chi_20 mu-)
     9.39892094E-04    2     1000025        13   # BR(~mu_L -> ~chi_30 mu-)
     2.57534817E-01    2     1000035        13   # BR(~mu_L -> ~chi_40 mu-)
     1.74071386E-07    2    -1000024        14   # BR(~mu_L -> ~chi_1- nu_mu)
     5.15571046E-01    2    -1000037        14   # BR(~mu_L -> ~chi_2- nu_mu)
#
#         PDG            Width
DECAY   2000013     2.74164840E+01   # smuon_R decays
#          BR         NDA      ID1       ID2
     9.77489474E-01    2     1000022        13   # BR(~mu_R -> ~chi_10 mu-)
     1.34547800E-02    2     1000023        13   # BR(~mu_R -> ~chi_20 mu-)
     9.05568424E-03    2     1000025        13   # BR(~mu_R -> ~chi_30 mu-)
     6.13740262E-08    2     1000035        13   # BR(~mu_R -> ~chi_40 mu-)
#
#         PDG            Width
DECAY   1000015     2.92838730E+01   # stau_1 decays
#          BR         NDA      ID1       ID2
     9.15755710E-01    2     1000022        15   # BR(~tau_1 -> ~chi_10  tau-)
     2.78276591E-02    2     1000023        15   # BR(~tau_1 -> ~chi_20  tau-)
     2.35944337E-02    2     1000025        15   # BR(~tau_1 -> ~chi_30  tau-)
     3.02751117E-04    2     1000035        15   # BR(~tau_1 -> ~chi_40  tau-)
     3.19134971E-02    2    -1000024        16   # BR(~tau_1 -> ~chi_1-  nu_tau)
     6.05948724E-04    2    -1000037        16   # BR(~tau_1 -> ~chi_2-  nu_tau)
#
#         PDG            Width
DECAY   2000015     3.13122651E+01   # stau_2 decays
#          BR         NDA      ID1       ID2
     2.15151961E-01    2     1000022        15   # BR(~tau_2 -> ~chi_10  tau-)
     1.96477329E-02    2     1000023        15   # BR(~tau_2 -> ~chi_20  tau-)
     1.60690901E-02    2     1000025        15   # BR(~tau_2 -> ~chi_30  tau-)
     2.49535320E-01    2     1000035        15   # BR(~tau_2 -> ~chi_40  tau-)
     3.91354221E-05    2    -1000024        16   # BR(~tau_2 -> ~chi_1-  nu_tau)
     4.99556761E-01    2    -1000037        16   # BR(~tau_2 -> ~chi_2-  nu_tau)
#
#         PDG            Width
DECAY   1000012     3.03882228E+01   # snu_eL decays
#          BR         NDA      ID1       ID2
     2.20968037E-01    2     1000022        12   # BR(~nu_eL -> ~chi_10 nu_e)
     1.66684028E-03    2     1000023        12   # BR(~nu_eL -> ~chi_20 nu_e)
     3.58172732E-03    2     1000025        12   # BR(~nu_eL -> ~chi_30 nu_e)
     2.57581894E-01    2     1000035        12   # BR(~nu_eL -> ~chi_40 nu_e)
     1.67419905E-03    2     1000024        11   # BR(~nu_eL -> ~chi_1+ e-)
     5.14527302E-01    2     1000037        11   # BR(~nu_eL -> ~chi_2+ e-)
#
#         PDG            Width
DECAY   1000014     3.03882228E+01   # snu_muL decays
#          BR         NDA      ID1       ID2
     2.20968037E-01    2     1000022        14   # BR(~nu_muL -> ~chi_10 nu_mu)
     1.66684028E-03    2     1000023        14   # BR(~nu_muL -> ~chi_20 nu_mu)
     3.58172732E-03    2     1000025        14   # BR(~nu_muL -> ~chi_30 nu_mu)
     2.57581894E-01    2     1000035        14   # BR(~nu_muL -> ~chi_40 nu_mu)
     1.67419905E-03    2     1000024        13   # BR(~nu_muL -> ~chi_1+ mu-)
     5.14527302E-01    2     1000037        13   # BR(~nu_muL -> ~chi_2+ mu-)
#
#         PDG            Width
DECAY   1000016     3.13168501E+01   # snu_tauL decays
#          BR         NDA      ID1       ID2
     2.14392066E-01    2     1000022        16   # BR(~nu_tauL -> ~chi_10 nu_tau)
     1.61723291E-03    2     1000023        16   # BR(~nu_tauL -> ~chi_20 nu_tau)
     3.47513030E-03    2     1000025        16   # BR(~nu_tauL -> ~chi_30 nu_tau)
     2.49850007E-01    2     1000035        16   # BR(~nu_tauL -> ~chi_40 nu_tau)
     3.15832348E-02    2     1000024        15   # BR(~nu_tauL -> ~chi_1+ tau-)
     4.99082329E-01    2     1000037        15   # BR(~nu_tauL -> ~chi_2+ tau-)
#
#         PDG            Width
DECAY   1000024     1.63188186E-01   # chargino1+ decays
#          BR         NDA      ID1       ID2
     1.00000000E+00    2     1000022        24   # BR(~chi_1+ -> ~chi_10  W+)
#
#         PDG            Width
DECAY   1000037     2.29148408E+01   # chargino2+ decays
#          BR         NDA      ID1       ID2
     2.53671804E-01    2     1000024        23   # BR(~chi_2+ -> ~chi_1+  Z )
     1.47737533E-04    2     1000022        24   # BR(~chi_2+ -> ~chi_10  W+)
     2.45474472E-01    2     1000023        24   # BR(~chi_2+ -> ~chi_20  W+)
     2.44581520E-01    2     1000025        24   # BR(~chi_2+ -> ~chi_30  W+)
     2.56109322E-01    2     1000024        25   # BR(~chi_2+ -> ~chi_1+  h )
     1.51446507E-05    2     1000022        37   # BR(~chi_2+ -> ~chi_10  H+)
#
#         PDG            Width
DECAY   1000022     0.00000000E+00   # neutralino1 decays
#
#         PDG            Width
DECAY   1000023     1.53715484E-01   # neutralino2 decays
#          BR         NDA      ID1       ID2
     4.91083062E-01    2     1000022        23   # BR(~chi_20 -> ~chi_10   Z )
     5.08916938E-01    2     1000022        25   # BR(~chi_20 -> ~chi_10   h )
#
#         PDG            Width
DECAY   1000025     1.38559202E-01   # neutralino3 decays
#          BR         NDA      ID1       ID2
     6.70548004E-01    2     1000022        23   # BR(~chi_30 -> ~chi_10   Z )
     3.29451996E-01    2     1000022        25   # BR(~chi_30 -> ~chi_10   h )
#
#         PDG            Width
DECAY   1000035     2.29163492E+01   # neutralino4 decays
#          BR         NDA      ID1       ID2
     6.90576074E-05    2     1000022        23   # BR(~chi_40 -> ~chi_10   Z )
     1.29010840E-01    2     1000023        23   # BR(~chi_40 -> ~chi_20   Z )
     1.24426162E-01    2     1000025        23   # BR(~chi_40 -> ~chi_30   Z )
     2.45307638E-01    2     1000024       -24   # BR(~chi_40 -> ~chi_1+   W-)
     2.45307638E-01    2    -1000024        24   # BR(~chi_40 -> ~chi_1-   W+)
     6.82062172E-05    2     1000022        25   # BR(~chi_40 -> ~chi_10   h )
     1.46164677E-05    2     1000022        35   # BR(~chi_40 -> ~chi_10   H )
     1.55085734E-06    2     1000022        36   # BR(~chi_40 -> ~chi_10   A )
     1.26551372E-01    2     1000023        25   # BR(~chi_40 -> ~chi_20   h )
     1.29242919E-01    2     1000025        25   # BR(~chi_40 -> ~chi_30   h )
#
#         PDG            Width
DECAY        25     4.02586335E-03   # h decays
#          BR         NDA      ID1       ID2
     6.18393666E-01    2           5        -5   # BR(h -> b       bb     )
     6.41863110E-02    2         -15        15   # BR(h -> tau+    tau-   )
     2.27245003E-04    2         -13        13   # BR(h -> mu+     mu-    )
     4.82105714E-04    2           3        -3   # BR(h -> s       sb     )
     2.08882109E-02    2           4        -4   # BR(h -> c       cb     )
     6.70172080E-02    2          21        21   # BR(h -> g       g      )
     2.29146191E-03    2          22        22   # BR(h -> gam     gam    )
     1.43848939E-03    2          22        23   # BR(h -> Z       gam    )
     2.01300008E-01    2          24       -24   # BR(h -> W+      W-     )
     2.37733786E-02    2          23        23   # BR(h -> Z       Z      )
     1.91450421E-06    2     1000022   1000022   # BR(h -> ~chi_10 ~chi_10)
#
#         PDG            Width
DECAY        35     8.78910311E+00   # H decays
#          BR         NDA      ID1       ID2
     3.62163400E-01    2           5        -5   # BR(H -> b       bb     )
     6.34360297E-02    2         -15        15   # BR(H -> tau+    tau-   )
     2.24314840E-04    2         -13        13   # BR(H -> mu+     mu-    )
     2.74975592E-04    2           3        -3   # BR(H -> s       sb     )
     1.53590983E-06    2           4        -4   # BR(H -> c       cb     )
     1.53449564E-01    2           6        -6   # BR(H -> t       tb     )
     5.10294306E-05    2          21        21   # BR(H -> g       g      )
     1.37916492E-07    2          22        22   # BR(H -> gam     gam    )
     9.04203923E-08    2          23        22   # BR(H -> Z       gam    )
     7.38799249E-05    2          24       -24   # BR(H -> W+      W-     )
     3.68931807E-05    2          23        23   # BR(H -> Z       Z      )
     2.66596635E-04    2          25        25   # BR(H -> h       h      )
    -1.37207415E-23    2          36        36   # BR(H -> A       A      )
     6.57632218E-19    2          23        36   # BR(H -> Z       A      )
     3.40482559E-03    2     1000024  -1000024   # BR(H -> ~chi_1+ ~chi_1-)
     1.88069433E-02    2     1000022   1000022   # BR(H -> ~chi_10 ~chi_10)
     3.32847885E-03    2     1000023   1000023   # BR(H -> ~chi_20 ~chi_20)
     5.10399361E-03    2     1000025   1000025   # BR(H -> ~chi_30 ~chi_30)
     2.31901472E-01    2     1000022   1000023   # BR(H -> ~chi_10 ~chi_20)
     1.47969273E-01    2     1000022   1000025   # BR(H -> ~chi_10 ~chi_30)
     9.50656614E-03    2     1000023   1000025   # BR(H -> ~chi_20 ~chi_30)
#
#         PDG            Width
DECAY        36     8.79447931E+00   # A decays
#          BR         NDA      ID1       ID2
     3.62065970E-01    2           5        -5   # BR(A -> b       bb     )
     6.33991034E-02    2         -15        15   # BR(A -> tau+    tau-   )
     2.24183952E-04    2         -13        13   # BR(A -> mu+     mu-    )
     2.75015909E-04    2           3        -3   # BR(A -> s       sb     )
     1.54108086E-06    2           4        -4   # BR(A -> c       cb     )
     1.53881234E-01    2           6        -6   # BR(A -> t       tb     )
     1.52329053E-04    2          21        21   # BR(A -> g       g      )
     5.62951619E-07    2          22        22   # BR(A -> gam     gam    )
     1.84187733E-07    2          23        22   # BR(A -> Z       gam    )
     7.35580841E-05    2          23        25   # BR(A -> Z       h      )
     3.55991304E-03    2     1000024  -1000024   # BR(A -> ~chi_1+ ~chi_1-)
     1.80593908E-02    2     1000022   1000022   # BR(A -> ~chi_10 ~chi_10)
     2.25828398E-03    2     1000023   1000023   # BR(A -> ~chi_20 ~chi_20)
     8.17236046E-03    2     1000025   1000025   # BR(A -> ~chi_30 ~chi_30)
     1.51096045E-01    2     1000022   1000023   # BR(A -> ~chi_10 ~chi_20)
     2.28446019E-01    2     1000022   1000025   # BR(A -> ~chi_10 ~chi_30)
     8.33430481E-03    2     1000023   1000025   # BR(A -> ~chi_20 ~chi_30)
#
#         PDG            Width
DECAY        37     8.71973307E+00   # H+ decays
#          BR         NDA      ID1       ID2
     5.78533594E-04    2           4        -5   # BR(H+ -> c       bb     )
     6.39738915E-02    2         -15        16   # BR(H+ -> tau+    nu_tau )
     2.26216445E-04    2         -13        14   # BR(H+ -> mu+     nu_mu  )
     3.70259547E-06    2           2        -5   # BR(H+ -> u       bb     )
     1.32735682E-05    2           2        -3   # BR(H+ -> u       sb     )
     2.74495884E-04    2           4        -3   # BR(H+ -> c       sb     )
     5.13581037E-01    2           6        -5   # BR(H+ -> t       bb     )
     7.43456291E-05    2          24        25   # BR(H+ -> W+      h      )
     1.03342799E-12    2          24        36   # BR(H+ -> W+      A      )
     4.10441930E-01    2     1000024   1000022   # BR(H+ -> ~chi_1+ ~chi_10)
     9.12528956E-03    2     1000024   1000023   # BR(H+ -> ~chi_1+ ~chi_20)
     1.70728389E-03    2     1000024   1000025   # BR(H+ -> ~chi_1+ ~chi_30)
