#
#                              ======================
#                              | THE SUSYHIT OUTPUT |
#                              ======================
#
#
#              ------------------------------------------------------
#              |     This is the output of the SUSY-HIT package     |
#              |  created by A.Djouadi, M.Muehlleitner and M.Spira. |
#              |  In case of problems with SUSY-HIT email to        |
#              |           margarete.muehlleitner@cern.ch           |
#              |           michael.spira@psi.ch                     |
#              |           abdelhak.djouadi@cern.ch                 |
#              ------------------------------------------------------
#
#              ------------------------------------------------------
#              |  SUSY Les Houches Accord - MSSM Spectrum + Decays  |
#              |              based on the decay programs           |
#              |                                                    |
#              |                     SDECAY 1.3b                    |
#              |                                                    |
#              |  Authors: M.Muhlleitner, A.Djouadi and Y.Mambrini  |
#              |  Ref.:    Comput.Phys.Commun.168(2005)46           |
#              |           [hep-ph/0311167]                         |
#              |                                                    |
#              |                     HDECAY 3.4                     |
#              |                                                    |
#              |  By: A.Djouadi,J.Kalinowski,M.Muhlleitner,M.Spira  |
#              |  Ref.:    Comput.Phys.Commun.108(1998)56           |
#              |           [hep-ph/9704448]                         |
#              |                                                    |
#              |                                                    |
#              |  If not stated otherwise all DRbar couplings and   |
#              |  soft SUSY breaking masses are given at the scale  |
#              |  Q=  0.50007703E+04
#              |                                                    |
#              ------------------------------------------------------
#
#
BLOCK DCINFO  # Decay Program information
     1   SDECAY/HDECAY # decay calculator
     2   1.3b  /3.4    # version number
#
BLOCK SPINFO  # Spectrum calculator information
     1    SOFTSUSY    # spectrum calculator                
     2    3.4.0       # version number                     
#
BLOCK MODSEL  # Model selection
     1     0   #  nonUniversal                                     
#
BLOCK SMINPUTS  # Standard Model inputs
         1     1.25778332E+02   # alpha_em^-1(M_Z)^MSbar
         2     1.16570000E-05   # G_F [GeV^-2]
         3     1.17200002E-01   # alpha_S(M_Z)^MSbar
         4     9.11876000E+01   # M_Z pole mass
         5     4.25000000E+00   # mb(mb)^MSbar
         6     1.72500000E+02   # mt pole mass
         7     1.77682000E+00   # mtau pole mass
#
BLOCK MINPAR  # Input parameters - minimal models
         3     1.00000000E+01   # tanb                
#
BLOCK EXTPAR  # Input parameters - non-minimal models
         0    -1.00000000E+00   # Set                 
         1     6.00000000E+01   # M_1(MX)             
         2     3.00000000E+03   # M_2(MX)             
         3     2.04381200E+03   # M_3(MX)             
        11     5.00000000E+03   # At(MX)              
        12     5.00000000E+03   # Ab(MX)              
        13     0.00000000E+00   # Atau(MX)            
        23    -2.82775000E+02   # mu(MX)              
        26     3.00000000E+03   # mA(pole)            
        31     5.00000000E+03   # meL(MX)             
        32     5.00000000E+03   # mmuL(MX)            
        33     5.00000000E+03   # mtauL(MX)           
        34     5.00000000E+03   # meR(MX)             
        35     5.00000000E+03   # mmuR(MX)            
        36     5.00000000E+03   # mtauR(MX)           
        41     5.00000000E+03   # mqL1(MX)            
        42     5.00000000E+03   # mqL2(MX)            
        43     5.00000000E+03   # mqL3(MX)            
        44     5.00000000E+03   # muR(MX)             
        45     5.00000000E+03   # mcR(MX)             
        46     5.00000000E+03   # mtR(MX)             
        47     5.00000000E+03   # mdR(MX)             
        48     5.00000000E+03   # msR(MX)             
        49     5.00000000E+03   # mbR(MX)             
#
BLOCK MASS  # Mass Spectrum
# PDG code           mass       particle
        24     8.00918605E+01   # W+
        25     1.24792960E+02   # h
        35     3.00008908E+03   # H
        36     2.99999971E+03   # A
        37     3.00146927E+03   # H+
         5     4.87878001E+00   # b-quark pole mass calculated from mb(mb)_Msbar
   1000001     5.07816707E+03   # ~d_L
   2000001     5.06031652E+03   # ~d_R
   1000002     5.07769395E+03   # ~u_L
   2000002     5.06001042E+03   # ~u_R
   1000003     5.07816707E+03   # ~s_L
   2000003     5.06031652E+03   # ~s_R
   1000004     5.07769395E+03   # ~c_L
   2000004     5.06001042E+03   # ~c_R
   1000005     5.02409382E+03   # ~b_1
   2000005     5.05843811E+03   # ~b_2
   1000006     4.91582809E+03   # ~t_1
   2000006     5.06705839E+03   # ~t_2
   1000011     5.01913770E+03   # ~e_L
   2000011     5.00595389E+03   # ~e_R
   1000012     5.01818621E+03   # ~nu_eL
   1000013     5.01913770E+03   # ~mu_L
   2000013     5.00595389E+03   # ~mu_R
   1000014     5.01818621E+03   # ~nu_muL
   1000015     5.00481627E+03   # ~tau_1
   2000015     5.01861918E+03   # ~tau_2
   1000016     5.01763243E+03   # ~nu_tauL
   1000021     2.40000041E+03   # ~g
   1000022     5.97919527E+01   # ~chi_10
   1000023     3.01966985E+02   # ~chi_20
   1000025    -3.03836154E+02   # ~chi_30
   1000035     3.07422576E+03   # ~chi_40
   1000024     3.00000489E+02   # ~chi_1+
   1000037     3.07439369E+03   # ~chi_2+
#
BLOCK NMIX  # Neutralino Mixing Matrix
  1  1     9.88607448E-01   # N_11
  1  2     6.02003969E-05   # N_12
  1  3    -1.49795204E-01   # N_13
  1  4    -1.47209917E-02   # N_14
  2  1     1.16360599E-01   # N_21
  2  2     1.76946024E-02   # N_22
  2  3     6.98596455E-01   # N_23
  2  4     7.05769159E-01   # N_24
  3  1    -9.54744327E-02   # N_31
  3  2     1.80270501E-02   # N_32
  3  3    -6.99660148E-01   # N_33
  3  4     7.07838496E-01   # N_34
  4  1    -3.97473554E-04   # N_41
  4  2     9.99680911E-01   # N_42
  4  3     2.60522881E-04   # N_43
  4  4    -2.52557173E-02   # N_44
#
BLOCK UMIX  # Chargino Mixing Matrix U
  1  1    -3.65889086E-04   # U_11
  1  2     9.99999933E-01   # U_12
  2  1    -9.99999933E-01   # U_21
  2  2    -3.65889086E-04   # U_22
#
BLOCK VMIX  # Chargino Mixing Matrix V
  1  1     3.57260271E-02   # V_11
  1  2    -9.99361622E-01   # V_12
  2  1    -9.99361622E-01   # V_21
  2  2    -3.57260271E-02   # V_22
#
BLOCK STOPMIX  # Stop Mixing Matrix
  1  1    -5.01257348E-01   # cos(theta_t)
  1  2     8.65298256E-01   # sin(theta_t)
  2  1    -8.65298256E-01   # -sin(theta_t)
  2  2    -5.01257348E-01   # cos(theta_t)
#
BLOCK SBOTMIX  # Sbottom Mixing Matrix
  1  1     9.99223858E-01   # cos(theta_b)
  1  2    -3.93913900E-02   # sin(theta_b)
  2  1     3.93913900E-02   # -sin(theta_b)
  2  2     9.99223858E-01   # cos(theta_b)
#
BLOCK STAUMIX  # Stau Mixing Matrix
  1  1    -3.37569614E-02   # cos(theta_tau)
  1  2     9.99430071E-01   # sin(theta_tau)
  2  1    -9.99430071E-01   # -sin(theta_tau)
  2  2    -3.37569614E-02   # cos(theta_tau)
#
BLOCK ALPHA  # Higgs mixing
          -1.05497014E-01   # Mixing angle in the neutral Higgs boson sector
#
BLOCK HMIX Q=  5.00077030E+03  # DRbar Higgs Parameters
         1    -2.87950618E+02   # mu(Q)MSSM           
         2     9.46842782E+00   # tan                 
         3     2.41695722E+02   # higgs               
         4     8.75186310E+06   # mA^2(Q)MSSM         
#
BLOCK GAUGE Q=  5.00077030E+03  # The gauge couplings
     1     3.71062443E-01   # gprime(Q) DRbar
     2     6.33877013E-01   # g(Q) DRbar
     3     9.95822300E-01   # g3(Q) DRbar
#
BLOCK AU Q=  5.00077030E+03  # The trilinear couplings
  1  1     5.00000002E+03   # A_u(Q) DRbar
  2  2     5.00000002E+03   # A_c(Q) DRbar
  3  3     5.00000002E+03   # A_t(Q) DRbar
#
BLOCK AD Q=  5.00077030E+03  # The trilinear couplings
  1  1     5.00000001E+03   # A_d(Q) DRbar
  2  2     5.00000001E+03   # A_s(Q) DRbar
  3  3     5.00000001E+03   # A_b(Q) DRbar
#
BLOCK AE Q=  5.00077030E+03  # The trilinear couplings
  1  1     0.00000000E+00   # A_e(Q) DRbar
  2  2     2.31056837E-07   # A_mu(Q) DRbar
  3  3     2.30919684E-07   # A_tau(Q) DRbar
#
BLOCK Yu Q=  5.00077030E+03  # The Yukawa couplings
  1  1     0.00000000E+00   # y_u(Q) DRbar
  2  2     0.00000000E+00   # y_c(Q) DRbar
  3  3     8.21360311E-01   # y_t(Q) DRbar
#
BLOCK Yd Q=  5.00077030E+03  # The Yukawa couplings
  1  1     0.00000000E+00   # y_d(Q) DRbar
  2  2     0.00000000E+00   # y_s(Q) DRbar
  3  3     1.30037878E-01   # y_b(Q) DRbar
#
BLOCK Ye Q=  5.00077030E+03  # The Yukawa couplings
  1  1     0.00000000E+00   # y_e(Q) DRbar
  2  2     0.00000000E+00   # y_mu(Q) DRbar
  3  3     9.72724515E-02   # y_tau(Q) DRbar
#
BLOCK MSOFT Q=  5.00077030E+03  # The soft SUSY breaking masses at the scale Q
         1     6.00000000E+01   # M_1(Q)              
         2     3.00000000E+03   # M_2(Q)              
         3     2.04381200E+03   # M_3(Q)              
        21     8.64848907E+06   # mH1^2(Q)            
        22     4.97184422E+05   # mH2^2(Q)            
        31     5.00000000E+03   # meL(Q)              
        32     5.00000000E+03   # mmuL(Q)             
        33     5.00000000E+03   # mtauL(Q)            
        34     5.00000000E+03   # meR(Q)              
        35     5.00000000E+03   # mmuR(Q)             
        36     5.00000000E+03   # mtauR(Q)            
        41     5.00000000E+03   # mqL1(Q)             
        42     5.00000000E+03   # mqL2(Q)             
        43     4.99999999E+03   # mqL3(Q)             
        44     5.00000000E+03   # muR(Q)              
        45     5.00000000E+03   # mcR(Q)              
        46     4.99999999E+03   # mtR(Q)              
        47     5.00000000E+03   # mdR(Q)              
        48     5.00000000E+03   # msR(Q)              
        49     5.00000000E+03   # mbR(Q)              
#
#
#
#                             =================
#                             |The decay table|
#                             =================
#
# - The QCD corrections to the decays gluino -> squark  + quark
#                                     squark -> gaugino + quark_prime
#                                     squark -> squark_prime + Higgs
#                                     squark -> gluino  + quark
#   are included.
#
# - The multi-body decays for the inos, stops and sbottoms are included.
#
# - The loop induced decays for the gluino, neutralinos and stops
#   are included.
#
# - The SUSY decays of the top quark are included.
#
#
#         PDG            Width
DECAY         6     1.40818158E+00   # top decays
#          BR         NDA      ID1       ID2
     1.00000000E+00    2           5        24   # BR(t ->  b    W+)
#
#         PDG            Width
DECAY   1000021     6.56115348E-03   # gluino decays
#          BR         NDA      ID1       ID2
     5.54165854E-07    2     1000022        21   # BR(~g -> ~chi_10 g)
     4.28183657E-03    2     1000023        21   # BR(~g -> ~chi_20 g)
     4.15113248E-03    2     1000025        21   # BR(~g -> ~chi_30 g)
#           BR         NDA      ID1       ID2       ID3
     9.09198304E-03    3     1000022         1        -1   # BR(~g -> ~chi_10 d  db)
     1.05119484E-04    3     1000023         1        -1   # BR(~g -> ~chi_20 d  db)
     9.12439624E-05    3     1000025         1        -1   # BR(~g -> ~chi_30 d  db)
     3.09938498E-02    3     1000022         2        -2   # BR(~g -> ~chi_10 u  ub)
     4.96587610E-04    3     1000023         2        -2   # BR(~g -> ~chi_20 u  ub)
     1.86965365E-04    3     1000025         2        -2   # BR(~g -> ~chi_30 u  ub)
     9.09198304E-03    3     1000022         3        -3   # BR(~g -> ~chi_10 s  sb)
     1.05119484E-04    3     1000023         3        -3   # BR(~g -> ~chi_20 s  sb)
     9.12439624E-05    3     1000025         3        -3   # BR(~g -> ~chi_30 s  sb)
     3.09938498E-02    3     1000022         4        -4   # BR(~g -> ~chi_10 c  cb)
     4.96587610E-04    3     1000023         4        -4   # BR(~g -> ~chi_20 c  cb)
     1.86965365E-04    3     1000025         4        -4   # BR(~g -> ~chi_30 c  cb)
     9.49482588E-03    3     1000022         5        -5   # BR(~g -> ~chi_10 b  bb)
     5.35513343E-03    3     1000023         5        -5   # BR(~g -> ~chi_20 b  bb)
     5.34926382E-03    3     1000025         5        -5   # BR(~g -> ~chi_30 b  bb)
     3.06568996E-02    3     1000022         6        -6   # BR(~g -> ~chi_10 t  tb)
     2.13885541E-01    3     1000023         6        -6   # BR(~g -> ~chi_20 t  tb)
     2.03357761E-01    3     1000025         6        -6   # BR(~g -> ~chi_30 t  tb)
     5.27377900E-05    3     1000024         1        -2   # BR(~g -> ~chi_1+ d  ub)
     5.27377900E-05    3    -1000024         2        -1   # BR(~g -> ~chi_1- u  db)
     5.27377900E-05    3     1000024         3        -4   # BR(~g -> ~chi_1+ s  cb)
     5.27377900E-05    3    -1000024         4        -3   # BR(~g -> ~chi_1- c  sb)
     2.20662301E-01    3     1000024         5        -6   # BR(~g -> ~chi_1+ b  tb)
     2.20662301E-01    3    -1000024         6        -5   # BR(~g -> ~chi_1- t  bb)
#
#         PDG            Width
DECAY   1000006     3.13073585E+02   # stop1 decays
#          BR         NDA      ID1       ID2
     2.70725442E-02    2     1000022         6   # BR(~t_1 -> ~chi_10 t )
     1.08284290E-01    2     1000023         6   # BR(~t_1 -> ~chi_20 t )
     9.96282183E-02    2     1000025         6   # BR(~t_1 -> ~chi_30 t )
     6.41018279E-03    2     1000035         6   # BR(~t_1 -> ~chi_40 t )
     1.55183703E-01    2     1000024         5   # BR(~t_1 -> ~chi_1+ b )
     1.27789604E-02    2     1000037         5   # BR(~t_1 -> ~chi_2+ b )
     5.90642102E-01    2     1000021         6   # BR(~t_1 -> ~g      t )
#
#         PDG            Width
DECAY   2000006     3.18805321E+02   # stop2 decays
#          BR         NDA      ID1       ID2
     1.14162118E-02    2     1000022         6   # BR(~t_2 -> ~chi_10 t )
     1.02160506E-01    2     1000023         6   # BR(~t_2 -> ~chi_20 t )
     1.11871617E-01    2     1000025         6   # BR(~t_2 -> ~chi_30 t )
     1.78229548E-02    2     1000035         6   # BR(~t_2 -> ~chi_40 t )
     6.03568466E-02    2     1000024         5   # BR(~t_2 -> ~chi_1+ b )
     3.54930108E-02    2     1000037         5   # BR(~t_2 -> ~chi_2+ b )
     6.57196859E-01    2     1000021         6   # BR(~t_2 -> ~g      t )
     8.58489589E-04    2     1000006        25   # BR(~t_2 -> ~t_1    h )
     2.82350481E-03    2     1000006        23   # BR(~t_2 -> ~t_1    Z )
#
#         PDG            Width
DECAY   1000005     2.93210963E+02   # sbottom1 decays
#          BR         NDA      ID1       ID2
     2.72221886E-03    2     1000022         5   # BR(~b_1 -> ~chi_10 b )
     2.75059731E-03    2     1000023         5   # BR(~b_1 -> ~chi_20 b )
     2.82195861E-03    2     1000025         5   # BR(~b_1 -> ~chi_30 b )
     2.60472459E-02    2     1000035         5   # BR(~b_1 -> ~chi_40 b )
     2.28024885E-01    2    -1000024         6   # BR(~b_1 -> ~chi_1- t )
     5.22912025E-02    2    -1000037         6   # BR(~b_1 -> ~chi_2- t )
     6.83505858E-01    2     1000021         5   # BR(~b_1 -> ~g      b )
     1.83603330E-03    2     1000006       -24   # BR(~b_1 -> ~t_1    W-)
#
#         PDG            Width
DECAY   2000005     2.09641020E+02   # sbottom2 decays
#          BR         NDA      ID1       ID2
     1.38579762E-02    2     1000022         5   # BR(~b_2 -> ~chi_10 b )
     4.20346267E-03    2     1000023         5   # BR(~b_2 -> ~chi_20 b )
     4.18582154E-03    2     1000025         5   # BR(~b_2 -> ~chi_30 b )
     4.91260388E-05    2     1000035         5   # BR(~b_2 -> ~chi_40 b )
     8.49657698E-03    2    -1000024         6   # BR(~b_2 -> ~chi_1- t )
     9.86486011E-05    2    -1000037         6   # BR(~b_2 -> ~chi_2- t )
     9.69091625E-01    2     1000021         5   # BR(~b_2 -> ~g      b )
     1.67628525E-05    2     1000006       -24   # BR(~b_2 -> ~t_1    W-)
#
#         PDG            Width
DECAY   1000002     2.29303190E+02   # sup_L decays
#          BR         NDA      ID1       ID2
     3.18288111E-03    2     1000022         2   # BR(~u_L -> ~chi_10 u)
     1.38664333E-04    2     1000023         2   # BR(~u_L -> ~chi_20 u)
     3.08617402E-08    2     1000025         2   # BR(~u_L -> ~chi_30 u)
     3.45427898E-02    2     1000035         2   # BR(~u_L -> ~chi_40 u)
     2.16891218E-04    2     1000024         1   # BR(~u_L -> ~chi_1+ d)
     6.90435105E-02    2     1000037         1   # BR(~u_L -> ~chi_2+ d)
     8.92875232E-01    2     1000021         2   # BR(~u_L -> ~g      u)
#
#         PDG            Width
DECAY   2000002     2.15101821E+02   # sup_R decays
#          BR         NDA      ID1       ID2
     5.40621725E-02    2     1000022         2   # BR(~u_R -> ~chi_10 u)
     7.44361492E-04    2     1000023         2   # BR(~u_R -> ~chi_20 u)
     5.01083127E-04    2     1000025         2   # BR(~u_R -> ~chi_30 u)
     3.50612295E-09    2     1000035         2   # BR(~u_R -> ~chi_40 u)
     9.44692379E-01    2     1000021         2   # BR(~u_R -> ~g      u)
#
#         PDG            Width
DECAY   1000001     2.29318512E+02   # sdown_L decays
#          BR         NDA      ID1       ID2
     3.17899944E-03    2     1000022         1   # BR(~d_L -> ~chi_10 d)
     2.13308799E-06    2     1000023         1   # BR(~d_L -> ~chi_20 d)
     1.14154014E-04    2     1000025         1   # BR(~d_L -> ~chi_30 d)
     3.45618261E-02    2     1000035         1   # BR(~d_L -> ~chi_40 d)
     2.27501399E-08    2    -1000024         2   # BR(~d_L -> ~chi_1- u)
     6.91483757E-02    2    -1000037         2   # BR(~d_L -> ~chi_2- u)
     8.92994489E-01    2     1000021         1   # BR(~d_L -> ~g      d)
#
#         PDG            Width
DECAY   2000001     2.06205992E+02   # sdown_R decays
#          BR         NDA      ID1       ID2
     1.40994784E-02    2     1000022         1   # BR(~d_R -> ~chi_10 d)
     1.94130498E-04    2     1000023         1   # BR(~d_R -> ~chi_20 d)
     1.30683168E-04    2     1000025         1   # BR(~d_R -> ~chi_30 d)
     9.14528634E-10    2     1000035         1   # BR(~d_R -> ~chi_40 d)
     9.85575707E-01    2     1000021         1   # BR(~d_R -> ~g      d)
#
#         PDG            Width
DECAY   1000004     2.29303190E+02   # scharm_L decays
#          BR         NDA      ID1       ID2
     3.18288111E-03    2     1000022         4   # BR(~c_L -> ~chi_10 c)
     1.38664333E-04    2     1000023         4   # BR(~c_L -> ~chi_20 c)
     3.08617402E-08    2     1000025         4   # BR(~c_L -> ~chi_30 c)
     3.45427898E-02    2     1000035         4   # BR(~c_L -> ~chi_40 c)
     2.16891218E-04    2     1000024         3   # BR(~c_L -> ~chi_1+ s)
     6.90435105E-02    2     1000037         3   # BR(~c_L -> ~chi_2+ s)
     8.92875232E-01    2     1000021         4   # BR(~c_L -> ~g      c)
#
#         PDG            Width
DECAY   2000004     2.15101821E+02   # scharm_R decays
#          BR         NDA      ID1       ID2
     5.40621725E-02    2     1000022         4   # BR(~c_R -> ~chi_10 c)
     7.44361492E-04    2     1000023         4   # BR(~c_R -> ~chi_20 c)
     5.01083127E-04    2     1000025         4   # BR(~c_R -> ~chi_30 c)
     3.50612295E-09    2     1000035         4   # BR(~c_R -> ~chi_40 c)
     9.44692379E-01    2     1000021         4   # BR(~c_R -> ~g      c)
#
#         PDG            Width
DECAY   1000003     2.29318512E+02   # sstrange_L decays
#          BR         NDA      ID1       ID2
     3.17899944E-03    2     1000022         3   # BR(~s_L -> ~chi_10 s)
     2.13308799E-06    2     1000023         3   # BR(~s_L -> ~chi_20 s)
     1.14154014E-04    2     1000025         3   # BR(~s_L -> ~chi_30 s)
     3.45618261E-02    2     1000035         3   # BR(~s_L -> ~chi_40 s)
     2.27501399E-08    2    -1000024         4   # BR(~s_L -> ~chi_1- c)
     6.91483757E-02    2    -1000037         4   # BR(~s_L -> ~chi_2- c)
     8.92994489E-01    2     1000021         3   # BR(~s_L -> ~g      s)
#
#         PDG            Width
DECAY   2000003     2.06205992E+02   # sstrange_R decays
#          BR         NDA      ID1       ID2
     1.40994784E-02    2     1000022         3   # BR(~s_R -> ~chi_10 s)
     1.94130498E-04    2     1000023         3   # BR(~s_R -> ~chi_20 s)
     1.30683168E-04    2     1000025         3   # BR(~s_R -> ~chi_30 s)
     9.14528634E-10    2     1000035         3   # BR(~s_R -> ~chi_40 s)
     9.85575707E-01    2     1000021         3   # BR(~s_R -> ~g      s)
#
#         PDG            Width
DECAY   1000011     3.03789103E+01   # selectron_L decays
#          BR         NDA      ID1       ID2
     2.21139283E-01    2     1000022        11   # BR(~e_L -> ~chi_10 e-)
     4.82722379E-03    2     1000023        11   # BR(~e_L -> ~chi_20 e-)
     9.39706636E-04    2     1000025        11   # BR(~e_L -> ~chi_30 e-)
     2.57530823E-01    2     1000035        11   # BR(~e_L -> ~chi_40 e-)
     1.75544526E-07    2    -1000024        12   # BR(~e_L -> ~chi_1- nu_e)
     5.15562788E-01    2    -1000037        12   # BR(~e_L -> ~chi_2- nu_e)
#
#         PDG            Width
DECAY   2000011     2.74124575E+01   # selectron_R decays
#          BR         NDA      ID1       ID2
     9.77500176E-01    2     1000022        11   # BR(~e_R -> ~chi_10 e-)
     1.34474091E-02    2     1000023        11   # BR(~e_R -> ~chi_20 e-)
     9.05235343E-03    2     1000025        11   # BR(~e_R -> ~chi_30 e-)
     6.13191535E-08    2     1000035        11   # BR(~e_R -> ~chi_40 e-)
#
#         PDG            Width
DECAY   1000013     3.03789103E+01   # smuon_L decays
#          BR         NDA      ID1       ID2
     2.21139283E-01    2     1000022        13   # BR(~mu_L -> ~chi_10 mu-)
     4.82722379E-03    2     1000023        13   # BR(~mu_L -> ~chi_20 mu-)
     9.39706636E-04    2     1000025        13   # BR(~mu_L -> ~chi_30 mu-)
     2.57530823E-01    2     1000035        13   # BR(~mu_L -> ~chi_40 mu-)
     1.75544526E-07    2    -1000024        14   # BR(~mu_L -> ~chi_1- nu_mu)
     5.15562788E-01    2    -1000037        14   # BR(~mu_L -> ~chi_2- nu_mu)
#
#         PDG            Width
DECAY   2000013     2.74124575E+01   # smuon_R decays
#          BR         NDA      ID1       ID2
     9.77500176E-01    2     1000022        13   # BR(~mu_R -> ~chi_10 mu-)
     1.34474091E-02    2     1000023        13   # BR(~mu_R -> ~chi_20 mu-)
     9.05235343E-03    2     1000025        13   # BR(~mu_R -> ~chi_30 mu-)
     6.13191535E-08    2     1000035        13   # BR(~mu_R -> ~chi_40 mu-)
#
#         PDG            Width
DECAY   1000015     2.92789999E+01   # stau_1 decays
#          BR         NDA      ID1       ID2
     9.15782973E-01    2     1000022        15   # BR(~tau_1 -> ~chi_10  tau-)
     2.78168654E-02    2     1000023        15   # BR(~tau_1 -> ~chi_20  tau-)
     2.35875290E-02    2     1000025        15   # BR(~tau_1 -> ~chi_30  tau-)
     3.02608730E-04    2     1000035        15   # BR(~tau_1 -> ~chi_40  tau-)
     3.19043607E-02    2    -1000024        16   # BR(~tau_1 -> ~chi_1-  nu_tau)
     6.05663500E-04    2    -1000037        16   # BR(~tau_1 -> ~chi_2-  nu_tau)
#
#         PDG            Width
DECAY   2000015     3.13056667E+01   # stau_2 decays
#          BR         NDA      ID1       ID2
     2.15167815E-01    2     1000022        15   # BR(~tau_2 -> ~chi_10  tau-)
     1.96416086E-02    2     1000023        15   # BR(~tau_2 -> ~chi_20  tau-)
     1.60653208E-02    2     1000025        15   # BR(~tau_2 -> ~chi_30  tau-)
     2.49533420E-01    2     1000035        15   # BR(~tau_2 -> ~chi_40  tau-)
     3.91323752E-05    2    -1000024        16   # BR(~tau_2 -> ~chi_1-  nu_tau)
     4.99552704E-01    2    -1000037        16   # BR(~tau_2 -> ~chi_2-  nu_tau)
#
#         PDG            Width
DECAY   1000012     3.03820387E+01   # snu_eL decays
#          BR         NDA      ID1       ID2
     2.20982603E-01    2     1000022        12   # BR(~nu_eL -> ~chi_10 nu_e)
     1.66615618E-03    2     1000023        12   # BR(~nu_eL -> ~chi_20 nu_e)
     3.58040060E-03    2     1000025        12   # BR(~nu_eL -> ~chi_30 nu_e)
     2.57577949E-01    2     1000035        12   # BR(~nu_eL -> ~chi_40 nu_e)
     1.67312963E-03    2     1000024        11   # BR(~nu_eL -> ~chi_1+ e-)
     5.14519762E-01    2     1000037        11   # BR(~nu_eL -> ~chi_2+ e-)
#
#         PDG            Width
DECAY   1000014     3.03820387E+01   # snu_muL decays
#          BR         NDA      ID1       ID2
     2.20982603E-01    2     1000022        14   # BR(~nu_muL -> ~chi_10 nu_mu)
     1.66615618E-03    2     1000023        14   # BR(~nu_muL -> ~chi_20 nu_mu)
     3.58040060E-03    2     1000025        14   # BR(~nu_muL -> ~chi_30 nu_mu)
     2.57577949E-01    2     1000035        14   # BR(~nu_muL -> ~chi_40 nu_mu)
     1.67312963E-03    2     1000024        13   # BR(~nu_muL -> ~chi_1+ mu-)
     5.14519762E-01    2     1000037        13   # BR(~nu_muL -> ~chi_2+ mu-)
#
#         PDG            Width
DECAY   1000016     3.13102470E+01   # snu_tauL decays
#          BR         NDA      ID1       ID2
     2.14407783E-01    2     1000022        16   # BR(~nu_tauL -> ~chi_10 nu_tau)
     1.61658111E-03    2     1000023        16   # BR(~nu_tauL -> ~chi_20 nu_tau)
     3.47386875E-03    2     1000025        16   # BR(~nu_tauL -> ~chi_30 nu_tau)
     2.49848055E-01    2     1000035        16   # BR(~nu_tauL -> ~chi_40 nu_tau)
     3.15749508E-02    2     1000024        15   # BR(~nu_tauL -> ~chi_1+ tau-)
     4.99078761E-01    2     1000037        15   # BR(~nu_tauL -> ~chi_2+ tau-)
#
#         PDG            Width
DECAY   1000024     1.63060536E-01   # chargino1+ decays
#          BR         NDA      ID1       ID2
     1.00000000E+00    2     1000022        24   # BR(~chi_1+ -> ~chi_10  W+)
#
#         PDG            Width
DECAY   1000037     2.28978967E+01   # chargino2+ decays
#          BR         NDA      ID1       ID2
     2.53647945E-01    2     1000024        23   # BR(~chi_2+ -> ~chi_1+  Z )
     1.47790564E-04    2     1000022        24   # BR(~chi_2+ -> ~chi_10  W+)
     2.45429123E-01    2     1000023        24   # BR(~chi_2+ -> ~chi_20  W+)
     2.44533463E-01    2     1000025        24   # BR(~chi_2+ -> ~chi_30  W+)
     2.56226546E-01    2     1000024        25   # BR(~chi_2+ -> ~chi_1+  h )
     1.51328693E-05    2     1000022        37   # BR(~chi_2+ -> ~chi_10  H+)
#
#         PDG            Width
DECAY   1000022     0.00000000E+00   # neutralino1 decays
#
#         PDG            Width
DECAY   1000023     1.53413610E-01   # neutralino2 decays
#          BR         NDA      ID1       ID2
     4.91766766E-01    2     1000022        23   # BR(~chi_20 -> ~chi_10   Z )
     5.08233234E-01    2     1000022        25   # BR(~chi_20 -> ~chi_10   h )
#
#         PDG            Width
DECAY   1000025     1.38265586E-01   # neutralino3 decays
#          BR         NDA      ID1       ID2
     6.71444882E-01    2     1000022        23   # BR(~chi_30 -> ~chi_10   Z )
     3.28555118E-01    2     1000022        25   # BR(~chi_30 -> ~chi_10   h )
#
#         PDG            Width
DECAY   1000035     2.28993897E+01   # neutralino4 decays
#          BR         NDA      ID1       ID2
     6.90247670E-05    2     1000022        23   # BR(~chi_40 -> ~chi_10   Z )
     1.29011546E-01    2     1000023        23   # BR(~chi_40 -> ~chi_20   Z )
     1.24402206E-01    2     1000025        23   # BR(~chi_40 -> ~chi_30   Z )
     2.45260289E-01    2     1000024       -24   # BR(~chi_40 -> ~chi_1+   W-)
     2.45260289E-01    2    -1000024        24   # BR(~chi_40 -> ~chi_1-   W+)
     6.83335110E-05    2     1000022        25   # BR(~chi_40 -> ~chi_10   h )
     1.46066122E-05    2     1000022        35   # BR(~chi_40 -> ~chi_10   H )
     1.54843228E-06    2     1000022        36   # BR(~chi_40 -> ~chi_10   A )
     1.26595622E-01    2     1000023        25   # BR(~chi_40 -> ~chi_20   h )
     1.29316535E-01    2     1000025        25   # BR(~chi_40 -> ~chi_30   h )
#
#         PDG            Width
DECAY        25     4.07726512E-03   # h decays
#          BR         NDA      ID1       ID2
     6.09446987E-01    2           5        -5   # BR(h -> b       bb     )
     6.36331215E-02    2         -15        15   # BR(h -> tau+    tau-   )
     2.25284301E-04    2         -13        13   # BR(h -> mu+     mu-    )
     4.77573935E-04    2           3        -3   # BR(h -> s       sb     )
     2.06912637E-02    2           4        -4   # BR(h -> c       cb     )
     6.69544310E-02    2          21        21   # BR(h -> g       g      )
     2.30065810E-03    2          22        22   # BR(h -> gam     gam    )
     1.48607398E-03    2          22        23   # BR(h -> Z       gam    )
     2.09787118E-01    2          24       -24   # BR(h -> W+      W-     )
     2.49952448E-02    2          23        23   # BR(h -> Z       Z      )
     2.24281540E-06    2     1000022   1000022   # BR(h -> ~chi_10 ~chi_10)
#
#         PDG            Width
DECAY        35     8.77917459E+00   # H decays
#          BR         NDA      ID1       ID2
     3.61448946E-01    2           5        -5   # BR(H -> b       bb     )
     6.34393943E-02    2         -15        15   # BR(H -> tau+    tau-   )
     2.24326737E-04    2         -13        13   # BR(H -> mu+     mu-    )
     2.74990080E-04    2           3        -3   # BR(H -> s       sb     )
     1.53934590E-06    2           4        -4   # BR(H -> c       cb     )
     1.53792855E-01    2           6        -6   # BR(H -> t       tb     )
     5.11725419E-05    2          21        21   # BR(H -> g       g      )
     1.38354990E-07    2          22        22   # BR(H -> gam     gam    )
     9.07353173E-08    2          23        22   # BR(H -> Z       gam    )
     7.48257033E-05    2          24       -24   # BR(H -> W+      W-     )
     3.73654833E-05    2          23        23   # BR(H -> Z       Z      )
     2.67568810E-04    2          25        25   # BR(H -> h       h      )
    -7.53078780E-24    2          36        36   # BR(H -> A       A      )
     6.33050621E-19    2          23        36   # BR(H -> Z       A      )
     3.40676770E-03    2     1000024  -1000024   # BR(H -> ~chi_1+ ~chi_1-)
     1.88145574E-02    2     1000022   1000022   # BR(H -> ~chi_10 ~chi_10)
     3.32965806E-03    2     1000023   1000023   # BR(H -> ~chi_20 ~chi_20)
     5.10615383E-03    2     1000025   1000025   # BR(H -> ~chi_30 ~chi_30)
     2.32134354E-01    2     1000022   1000023   # BR(H -> ~chi_10 ~chi_20)
     1.48084263E-01    2     1000022   1000025   # BR(H -> ~chi_10 ~chi_30)
     9.51103234E-03    2     1000023   1000025   # BR(H -> ~chi_20 ~chi_30)
#
#         PDG            Width
DECAY        36     8.78450496E+00   # A decays
#          BR         NDA      ID1       ID2
     3.61353304E-01    2           5        -5   # BR(A -> b       bb     )
     6.34027600E-02    2         -15        15   # BR(A -> tau+    tau-   )
     2.24196882E-04    2         -13        13   # BR(A -> mu+     mu-    )
     2.75031900E-04    2           3        -3   # BR(A -> s       sb     )
     1.54449341E-06    2           4        -4   # BR(A -> c       cb     )
     1.54221987E-01    2           6        -6   # BR(A -> t       tb     )
     1.52598002E-04    2          21        21   # BR(A -> g       g      )
     5.63954241E-07    2          22        22   # BR(A -> gam     gam    )
     1.84671835E-07    2          23        22   # BR(A -> Z       gam    )
     7.44969561E-05    2          23        25   # BR(A -> Z       h      )
     3.56203791E-03    2     1000024  -1000024   # BR(A -> ~chi_1+ ~chi_1-)
     1.80666948E-02    2     1000022   1000022   # BR(A -> ~chi_10 ~chi_10)
     2.25856221E-03    2     1000023   1000023   # BR(A -> ~chi_20 ~chi_20)
     8.17774417E-03    2     1000025   1000025   # BR(A -> ~chi_30 ~chi_30)
     1.51212809E-01    2     1000022   1000023   # BR(A -> ~chi_10 ~chi_20)
     2.28677892E-01    2     1000022   1000025   # BR(A -> ~chi_10 ~chi_30)
     8.33759265E-03    2     1000023   1000025   # BR(A -> ~chi_20 ~chi_30)
#
#         PDG            Width
DECAY        37     8.72649627E+00   # H+ decays
#          BR         NDA      ID1       ID2
     5.79346733E-04    2           4        -5   # BR(H+ -> c       bb     )
     6.38554894E-02    2         -15        16   # BR(H+ -> tau+    nu_tau )
     2.25797767E-04    2         -13        14   # BR(H+ -> mu+     nu_mu  )
     3.70779954E-06    2           2        -5   # BR(H+ -> u       bb     )
     1.32490017E-05    2           2        -3   # BR(H+ -> u       sb     )
     2.73991062E-04    2           4        -3   # BR(H+ -> c       sb     )
     5.14134572E-01    2           6        -5   # BR(H+ -> t       bb     )
     7.51508492E-05    2          24        25   # BR(H+ -> W+      h      )
     1.03206299E-12    2          24        36   # BR(H+ -> W+      A      )
     4.10022208E-01    2     1000024   1000022   # BR(H+ -> ~chi_1+ ~chi_10)
     9.11151916E-03    2     1000024   1000023   # BR(H+ -> ~chi_1+ ~chi_20)
     1.70496727E-03    2     1000024   1000025   # BR(H+ -> ~chi_1+ ~chi_30)
