#
#                              ======================
#                              | THE SUSYHIT OUTPUT |
#                              ======================
#
#
#              ------------------------------------------------------
#              |     This is the output of the SUSY-HIT package     |
#              |  created by A.Djouadi, M.Muehlleitner and M.Spira. |
#              |  In case of problems with SUSY-HIT email to        |
#              |           margarete.muehlleitner@cern.ch           |
#              |           michael.spira@psi.ch                     |
#              |           abdelhak.djouadi@cern.ch                 |
#              ------------------------------------------------------
#
#              ------------------------------------------------------
#              |  SUSY Les Houches Accord - MSSM Spectrum + Decays  |
#              |              based on the decay programs           |
#              |                                                    |
#              |                     SDECAY 1.3b                    |
#              |                                                    |
#              |  Authors: M.Muhlleitner, A.Djouadi and Y.Mambrini  |
#              |  Ref.:    Comput.Phys.Commun.168(2005)46           |
#              |           [hep-ph/0311167]                         |
#              |                                                    |
#              |                     HDECAY 3.4                     |
#              |                                                    |
#              |  By: A.Djouadi,J.Kalinowski,M.Muhlleitner,M.Spira  |
#              |  Ref.:    Comput.Phys.Commun.108(1998)56           |
#              |           [hep-ph/9704448]                         |
#              |                                                    |
#              |                                                    |
#              |  If not stated otherwise all DRbar couplings and   |
#              |  soft SUSY breaking masses are given at the scale  |
#              |  Q=  0.50007332E+04
#              |                                                    |
#              ------------------------------------------------------
#
#
BLOCK DCINFO  # Decay Program information
     1   SDECAY/HDECAY # decay calculator
     2   1.3b  /3.4    # version number
#
BLOCK SPINFO  # Spectrum calculator information
     1    SOFTSUSY    # spectrum calculator                
     2    3.4.0       # version number                     
#
BLOCK MODSEL  # Model selection
     1     0   #  nonUniversal                                     
#
BLOCK SMINPUTS  # Standard Model inputs
         1     1.25778332E+02   # alpha_em^-1(M_Z)^MSbar
         2     1.16570000E-05   # G_F [GeV^-2]
         3     1.17200002E-01   # alpha_S(M_Z)^MSbar
         4     9.11876000E+01   # M_Z pole mass
         5     4.25000000E+00   # mb(mb)^MSbar
         6     1.72500000E+02   # mt pole mass
         7     1.77682000E+00   # mtau pole mass
#
BLOCK MINPAR  # Input parameters - minimal models
         3     1.00000000E+01   # tanb                
#
BLOCK EXTPAR  # Input parameters - non-minimal models
         0    -1.00000000E+00   # Set                 
         1     6.00000000E+01   # M_1(MX)             
         2     3.00000000E+03   # M_2(MX)             
         3     6.88106000E+02   # M_3(MX)             
        11     5.00000000E+03   # At(MX)              
        12     5.00000000E+03   # Ab(MX)              
        13     0.00000000E+00   # Atau(MX)            
        23    -7.65278000E+02   # mu(MX)              
        26     3.00000000E+03   # mA(pole)            
        31     5.00000000E+03   # meL(MX)             
        32     5.00000000E+03   # mmuL(MX)            
        33     5.00000000E+03   # mtauL(MX)           
        34     5.00000000E+03   # meR(MX)             
        35     5.00000000E+03   # mmuR(MX)            
        36     5.00000000E+03   # mtauR(MX)           
        41     5.00000000E+03   # mqL1(MX)            
        42     5.00000000E+03   # mqL2(MX)            
        43     5.00000000E+03   # mqL3(MX)            
        44     5.00000000E+03   # muR(MX)             
        45     5.00000000E+03   # mcR(MX)             
        46     5.00000000E+03   # mtR(MX)             
        47     5.00000000E+03   # mdR(MX)             
        48     5.00000000E+03   # msR(MX)             
        49     5.00000000E+03   # mbR(MX)             
#
BLOCK MASS  # Mass Spectrum
# PDG code           mass       particle
        24     8.00911449E+01   # W+
        25     1.24216855E+02   # h
        35     3.00008215E+03   # H
        36     2.99999712E+03   # A
        37     3.00136385E+03   # H+
         5     4.87878001E+00   # b-quark pole mass calculated from mb(mb)_Msbar
   1000001     5.06347792E+03   # ~d_L
   2000001     5.04562927E+03   # ~d_R
   1000002     5.06300040E+03   # ~u_L
   2000002     5.04533711E+03   # ~u_R
   1000003     5.06347792E+03   # ~s_L
   2000003     5.04562927E+03   # ~s_R
   1000004     5.06300040E+03   # ~c_L
   2000004     5.04533711E+03   # ~c_R
   1000005     5.00999832E+03   # ~b_1
   2000005     5.04409576E+03   # ~b_2
   1000006     4.90050658E+03   # ~t_1
   2000006     5.05560613E+03   # ~t_2
   1000011     5.01908581E+03   # ~e_L
   2000011     5.00593171E+03   # ~e_R
   1000012     5.01813592E+03   # ~nu_eL
   1000013     5.01908581E+03   # ~mu_L
   2000013     5.00593171E+03   # ~mu_R
   1000014     5.01813592E+03   # ~nu_muL
   1000015     5.00468697E+03   # ~tau_1
   2000015     5.01870142E+03   # ~tau_2
   1000016     5.01758731E+03   # ~nu_tauL
   1000021     9.00000723E+02   # ~g
   1000022     6.02871850E+01   # ~chi_10
   1000023     7.99840716E+02   # ~chi_20
   1000025    -8.02076019E+02   # ~chi_30
   1000035     3.07422071E+03   # ~chi_40
   1000024     8.00000742E+02   # ~chi_1+
   1000037     3.07438832E+03   # ~chi_2+
#
BLOCK NMIX  # Neutralino Mixing Matrix
  1  1     9.98451176E-01   # N_11
  1  2     2.07753588E-04   # N_12
  1  3    -5.56117006E-02   # N_13
  1  4     1.59509387E-03   # N_14
  2  1     3.82111181E-02   # N_21
  2  2     2.14615277E-02   # N_22
  2  3     7.06385158E-01   # N_23
  2  4     7.06469619E-01   # N_24
  3  1    -4.04351907E-02   # N_31
  3  2     1.56926714E-02   # N_32
  3  3    -7.05627896E-01   # N_33
  3  4     7.07253850E-01   # N_34
  4  1    -3.93103589E-04   # N_41
  4  2     9.99646487E-01   # N_42
  4  3    -4.07680559E-03   # N_43
  4  4    -2.62702378E-02   # N_44
#
BLOCK UMIX  # Chargino Mixing Matrix U
  1  1     5.77626834E-03   # U_11
  1  2     9.99983317E-01   # U_12
  2  1    -9.99983317E-01   # U_21
  2  2     5.77626834E-03   # U_22
#
BLOCK VMIX  # Chargino Mixing Matrix V
  1  1     3.71799658E-02   # V_11
  1  2    -9.99308586E-01   # V_12
  2  1    -9.99308586E-01   # V_21
  2  2    -3.71799658E-02   # V_22
#
BLOCK STOPMIX  # Stop Mixing Matrix
  1  1    -5.09351618E-01   # cos(theta_t)
  1  2     8.60558498E-01   # sin(theta_t)
  2  1    -8.60558498E-01   # -sin(theta_t)
  2  2    -5.09351618E-01   # cos(theta_t)
#
BLOCK SBOTMIX  # Sbottom Mixing Matrix
  1  1     9.97775982E-01   # cos(theta_b)
  1  2    -6.66565056E-02   # sin(theta_b)
  2  1     6.66565056E-02   # -sin(theta_b)
  2  2     9.97775982E-01   # cos(theta_b)
#
BLOCK STAUMIX  # Stau Mixing Matrix
  1  1    -9.13802451E-02   # cos(theta_tau)
  1  2     9.95816073E-01   # sin(theta_tau)
  2  1    -9.95816073E-01   # -sin(theta_tau)
  2  2    -9.13802451E-02   # cos(theta_tau)
#
BLOCK ALPHA  # Higgs mixing
          -1.05418226E-01   # Mixing angle in the neutral Higgs boson sector
#
BLOCK HMIX Q=  5.00073324E+03  # DRbar Higgs Parameters
         1    -7.78808313E+02   # mu(Q)MSSM           
         2     9.47490538E+00   # tan                 
         3     2.41900329E+02   # higgs               
         4     8.57119779E+06   # mA^2(Q)MSSM         
#
BLOCK GAUGE Q=  5.00073324E+03  # The gauge couplings
     1     3.70870265E-01   # gprime(Q) DRbar
     2     6.32855144E-01   # g(Q) DRbar
     3     1.01019633E+00   # g3(Q) DRbar
#
BLOCK AU Q=  5.00073324E+03  # The trilinear couplings
  1  1     5.00000001E+03   # A_u(Q) DRbar
  2  2     5.00000001E+03   # A_c(Q) DRbar
  3  3     5.00000001E+03   # A_t(Q) DRbar
#
BLOCK AD Q=  5.00073324E+03  # The trilinear couplings
  1  1     5.00000000E+03   # A_d(Q) DRbar
  2  2     5.00000000E+03   # A_s(Q) DRbar
  3  3     5.00000001E+03   # A_b(Q) DRbar
#
BLOCK AE Q=  5.00073324E+03  # The trilinear couplings
  1  1     0.00000000E+00   # A_e(Q) DRbar
  2  2     0.00000000E+00   # A_mu(Q) DRbar
  3  3    -1.28878942E-09   # A_tau(Q) DRbar
#
BLOCK Yu Q=  5.00073324E+03  # The Yukawa couplings
  1  1     0.00000000E+00   # y_u(Q) DRbar
  2  2     0.00000000E+00   # y_c(Q) DRbar
  3  3     8.13296132E-01   # y_t(Q) DRbar
#
BLOCK Yd Q=  5.00073324E+03  # The Yukawa couplings
  1  1     0.00000000E+00   # y_d(Q) DRbar
  2  2     0.00000000E+00   # y_s(Q) DRbar
  3  3     1.29059952E-01   # y_b(Q) DRbar
#
BLOCK Ye Q=  5.00073324E+03  # The Yukawa couplings
  1  1     0.00000000E+00   # y_e(Q) DRbar
  2  2     0.00000000E+00   # y_mu(Q) DRbar
  3  3     9.69795701E-02   # y_tau(Q) DRbar
#
BLOCK MSOFT Q=  5.00073324E+03  # The soft SUSY breaking masses at the scale Q
         1     6.00000000E+01   # M_1(Q)              
         2     3.00000000E+03   # M_2(Q)              
         3     6.88106000E+02   # M_3(Q)              
        21     8.10189088E+06   # mH1^2(Q)            
        22    -4.29430500E+04   # mH2^2(Q)            
        31     5.00000000E+03   # meL(Q)              
        32     5.00000000E+03   # mmuL(Q)             
        33     5.00000000E+03   # mtauL(Q)            
        34     5.00000000E+03   # meR(Q)              
        35     5.00000000E+03   # mmuR(Q)             
        36     5.00000000E+03   # mtauR(Q)            
        41     5.00000000E+03   # mqL1(Q)             
        42     5.00000000E+03   # mqL2(Q)             
        43     5.00000000E+03   # mqL3(Q)             
        44     5.00000000E+03   # muR(Q)              
        45     5.00000000E+03   # mcR(Q)              
        46     5.00000000E+03   # mtR(Q)              
        47     5.00000000E+03   # mdR(Q)              
        48     5.00000000E+03   # msR(Q)              
        49     5.00000000E+03   # mbR(Q)              
#
#
#
#                             =================
#                             |The decay table|
#                             =================
#
# - The QCD corrections to the decays gluino -> squark  + quark
#                                     squark -> gaugino + quark_prime
#                                     squark -> squark_prime + Higgs
#                                     squark -> gluino  + quark
#   are included.
#
# - The multi-body decays for the inos, stops and sbottoms are included.
#
# - The loop induced decays for the gluino, neutralinos and stops
#   are included.
#
# - The SUSY decays of the top quark are included.
#
#
#         PDG            Width
DECAY         6     1.40367631E+00   # top decays
#          BR         NDA      ID1       ID2
     1.00000000E+00    2           5        24   # BR(t ->  b    W+)
#
#         PDG            Width
DECAY   1000021     4.87248311E-06   # gluino decays
#          BR         NDA      ID1       ID2
     2.06890493E-05    2     1000022        21   # BR(~g -> ~chi_10 g)
     2.60018830E-03    2     1000023        21   # BR(~g -> ~chi_20 g)
     2.39995349E-03    2     1000025        21   # BR(~g -> ~chi_30 g)
#           BR         NDA      ID1       ID2       ID3
     8.46272202E-02    3     1000022         1        -1   # BR(~g -> ~chi_10 d  db)
     4.86723467E-08    3     1000023         1        -1   # BR(~g -> ~chi_20 d  db)
     2.80339752E-08    3     1000025         1        -1   # BR(~g -> ~chi_30 d  db)
     2.88538333E-01    3     1000022         2        -2   # BR(~g -> ~chi_10 u  ub)
     2.00864554E-07    3     1000023         2        -2   # BR(~g -> ~chi_20 u  ub)
     3.71769611E-08    3     1000025         2        -2   # BR(~g -> ~chi_30 u  ub)
     8.46272202E-02    3     1000022         3        -3   # BR(~g -> ~chi_10 s  sb)
     4.86723467E-08    3     1000023         3        -3   # BR(~g -> ~chi_20 s  sb)
     2.80339752E-08    3     1000025         3        -3   # BR(~g -> ~chi_30 s  sb)
     2.88538333E-01    3     1000022         4        -4   # BR(~g -> ~chi_10 c  cb)
     2.00864554E-07    3     1000023         4        -4   # BR(~g -> ~chi_20 c  cb)
     3.71769611E-08    3     1000025         4        -4   # BR(~g -> ~chi_30 c  cb)
     8.60187860E-02    3     1000022         5        -5   # BR(~g -> ~chi_10 b  bb)
     9.76044512E-06    3     1000023         5        -5   # BR(~g -> ~chi_20 b  bb)
     8.46674319E-06    3     1000025         5        -5   # BR(~g -> ~chi_30 b  bb)
     1.62609921E-01    3     1000022         6        -6   # BR(~g -> ~chi_10 t  tb)
     1.24516797E-07    3     1000024         1        -2   # BR(~g -> ~chi_1+ d  ub)
     1.24516797E-07    3    -1000024         2        -1   # BR(~g -> ~chi_1- u  db)
     1.24516797E-07    3     1000024         3        -4   # BR(~g -> ~chi_1+ s  cb)
     1.24516797E-07    3    -1000024         4        -3   # BR(~g -> ~chi_1- c  sb)
#
#         PDG            Width
DECAY   1000006     4.24884788E+02   # stop1 decays
#          BR         NDA      ID1       ID2
     2.06667902E-02    2     1000022         6   # BR(~t_1 -> ~chi_10 t )
     7.32598308E-02    2     1000023         6   # BR(~t_1 -> ~chi_20 t )
     7.01401939E-02    2     1000025         6   # BR(~t_1 -> ~chi_30 t )
     4.95126011E-03    2     1000035         6   # BR(~t_1 -> ~chi_40 t )
     1.05447217E-01    2     1000024         5   # BR(~t_1 -> ~chi_1+ b )
     9.86782088E-03    2     1000037         5   # BR(~t_1 -> ~chi_2+ b )
     7.15666887E-01    2     1000021         6   # BR(~t_1 -> ~g      t )
#
#         PDG            Width
DECAY   2000006     4.24308378E+02   # stop2 decays
#          BR         NDA      ID1       ID2
     8.42676261E-03    2     1000022         6   # BR(~t_2 -> ~chi_10 t )
     7.45198141E-02    2     1000023         6   # BR(~t_2 -> ~chi_20 t )
     7.79686876E-02    2     1000025         6   # BR(~t_2 -> ~chi_30 t )
     1.29071526E-02    2     1000035         6   # BR(~t_2 -> ~chi_40 t )
     4.52760282E-02    2     1000024         5   # BR(~t_2 -> ~chi_1+ b )
     2.56910536E-02    2     1000037         5   # BR(~t_2 -> ~chi_2+ b )
     7.52185907E-01    2     1000021         6   # BR(~t_2 -> ~g      t )
     6.77826191E-04    2     1000006        25   # BR(~t_2 -> ~t_1    h )
     2.34676781E-03    2     1000006        23   # BR(~t_2 -> ~t_1    Z )
#
#         PDG            Width
DECAY   1000005     4.02639290E+02   # sbottom1 decays
#          BR         NDA      ID1       ID2
     1.92542630E-03    2     1000022         5   # BR(~b_1 -> ~chi_10 b )
     1.98458777E-03    2     1000023         5   # BR(~b_1 -> ~chi_20 b )
     1.94820953E-03    2     1000025         5   # BR(~b_1 -> ~chi_30 b )
     1.86447812E-02    2     1000035         5   # BR(~b_1 -> ~chi_40 b )
     1.56250599E-01    2    -1000024         6   # BR(~b_1 -> ~chi_1- t )
     3.74458971E-02    2    -1000037         6   # BR(~b_1 -> ~chi_2- t )
     7.80391704E-01    2     1000021         5   # BR(~b_1 -> ~g      b )
     1.40879516E-03    2     1000006       -24   # BR(~b_1 -> ~t_1    W-)
#
#         PDG            Width
DECAY   2000005     3.22951589E+02   # sbottom2 decays
#          BR         NDA      ID1       ID2
     9.11001296E-03    2     1000022         5   # BR(~b_2 -> ~chi_10 b )
     2.49728757E-03    2     1000023         5   # BR(~b_2 -> ~chi_20 b )
     2.55326573E-03    2     1000025         5   # BR(~b_2 -> ~chi_30 b )
     1.06864763E-04    2     1000035         5   # BR(~b_2 -> ~chi_40 b )
     5.81911871E-03    2    -1000024         6   # BR(~b_2 -> ~chi_1- t )
     2.14606367E-04    2    -1000037         6   # BR(~b_2 -> ~chi_2- t )
     9.79667273E-01    2     1000021         5   # BR(~b_2 -> ~g      b )
     3.15712525E-05    2     1000006       -24   # BR(~b_2 -> ~t_1    W-)
#
#         PDG            Width
DECAY   1000002     3.41871590E+02   # sup_L decays
#          BR         NDA      ID1       ID2
     2.18540905E-03    2     1000022         2   # BR(~u_L -> ~chi_10 u)
     4.56190984E-05    2     1000023         2   # BR(~u_L -> ~chi_20 u)
     3.31107254E-06    2     1000025         2   # BR(~u_L -> ~chi_30 u)
     2.28449977E-02    2     1000035         2   # BR(~u_L -> ~chi_40 u)
     1.50735534E-04    2     1000024         1   # BR(~u_L -> ~chi_1+ d)
     4.56603407E-02    2     1000037         1   # BR(~u_L -> ~chi_2+ d)
     9.29109587E-01    2     1000021         2   # BR(~u_L -> ~g      u)
#
#         PDG            Width
DECAY   2000002     3.28305172E+02   # sup_R decays
#          BR         NDA      ID1       ID2
     3.62069369E-02    2     1000022         2   # BR(~u_R -> ~chi_10 u)
     5.04171572E-05    2     1000023         2   # BR(~u_R -> ~chi_20 u)
     5.64406605E-05    2     1000025         2   # BR(~u_R -> ~chi_30 u)
     2.22031321E-09    2     1000035         2   # BR(~u_R -> ~chi_40 u)
     9.63686203E-01    2     1000021         2   # BR(~u_R -> ~g      u)
#
#         PDG            Width
DECAY   1000001     3.41880195E+02   # sdown_L decays
#          BR         NDA      ID1       ID2
     2.17626836E-03    2     1000022         1   # BR(~d_L -> ~chi_10 d)
     1.06831180E-05    2     1000023         1   # BR(~d_L -> ~chi_20 d)
     3.03383968E-05    2     1000025         1   # BR(~d_L -> ~chi_30 d)
     2.28586049E-02    2     1000035         1   # BR(~d_L -> ~chi_40 d)
     3.63853597E-06    2    -1000024         2   # BR(~d_L -> ~chi_1- u)
     4.57352010E-02    2    -1000037         2   # BR(~d_L -> ~chi_2- u)
     9.29185266E-01    2     1000021         1   # BR(~d_L -> ~g      d)
#
#         PDG            Width
DECAY   2000001     3.19384569E+02   # sdown_R decays
#          BR         NDA      ID1       ID2
     9.30509474E-03    2     1000022         1   # BR(~d_R -> ~chi_10 d)
     1.29571634E-05    2     1000023         1   # BR(~d_R -> ~chi_20 d)
     1.45051987E-05    2     1000025         1   # BR(~d_R -> ~chi_30 d)
     5.70692615E-10    2     1000035         1   # BR(~d_R -> ~chi_40 d)
     9.90667442E-01    2     1000021         1   # BR(~d_R -> ~g      d)
#
#         PDG            Width
DECAY   1000004     3.41871590E+02   # scharm_L decays
#          BR         NDA      ID1       ID2
     2.18540905E-03    2     1000022         4   # BR(~c_L -> ~chi_10 c)
     4.56190984E-05    2     1000023         4   # BR(~c_L -> ~chi_20 c)
     3.31107254E-06    2     1000025         4   # BR(~c_L -> ~chi_30 c)
     2.28449977E-02    2     1000035         4   # BR(~c_L -> ~chi_40 c)
     1.50735534E-04    2     1000024         3   # BR(~c_L -> ~chi_1+ s)
     4.56603407E-02    2     1000037         3   # BR(~c_L -> ~chi_2+ s)
     9.29109587E-01    2     1000021         4   # BR(~c_L -> ~g      c)
#
#         PDG            Width
DECAY   2000004     3.28305172E+02   # scharm_R decays
#          BR         NDA      ID1       ID2
     3.62069369E-02    2     1000022         4   # BR(~c_R -> ~chi_10 c)
     5.04171572E-05    2     1000023         4   # BR(~c_R -> ~chi_20 c)
     5.64406605E-05    2     1000025         4   # BR(~c_R -> ~chi_30 c)
     2.22031321E-09    2     1000035         4   # BR(~c_R -> ~chi_40 c)
     9.63686203E-01    2     1000021         4   # BR(~c_R -> ~g      c)
#
#         PDG            Width
DECAY   1000003     3.41880195E+02   # sstrange_L decays
#          BR         NDA      ID1       ID2
     2.17626836E-03    2     1000022         3   # BR(~s_L -> ~chi_10 s)
     1.06831180E-05    2     1000023         3   # BR(~s_L -> ~chi_20 s)
     3.03383968E-05    2     1000025         3   # BR(~s_L -> ~chi_30 s)
     2.28586049E-02    2     1000035         3   # BR(~s_L -> ~chi_40 s)
     3.63853597E-06    2    -1000024         4   # BR(~s_L -> ~chi_1- c)
     4.57352010E-02    2    -1000037         4   # BR(~s_L -> ~chi_2- c)
     9.29185266E-01    2     1000021         3   # BR(~s_L -> ~g      s)
#
#         PDG            Width
DECAY   2000003     3.19384569E+02   # sstrange_R decays
#          BR         NDA      ID1       ID2
     9.30509474E-03    2     1000022         3   # BR(~s_R -> ~chi_10 s)
     1.29571634E-05    2     1000023         3   # BR(~s_R -> ~chi_20 s)
     1.45051987E-05    2     1000025         3   # BR(~s_R -> ~chi_30 s)
     5.70692615E-10    2     1000035         3   # BR(~s_R -> ~chi_40 s)
     9.90667442E-01    2     1000021         3   # BR(~s_R -> ~g      s)
#
#         PDG            Width
DECAY   1000011     3.02960018E+01   # selectron_L decays
#          BR         NDA      ID1       ID2
     2.26058149E-01    2     1000022        11   # BR(~e_L -> ~chi_10 e-)
     1.20567094E-03    2     1000023        11   # BR(~e_L -> ~chi_20 e-)
     4.01450699E-05    2     1000025        11   # BR(~e_L -> ~chi_30 e-)
     2.57379078E-01    2     1000035        11   # BR(~e_L -> ~chi_40 e-)
     4.18331447E-05    2    -1000024        12   # BR(~e_L -> ~chi_1- nu_e)
     5.15275124E-01    2    -1000037        12   # BR(~e_L -> ~chi_2- nu_e)
#
#         PDG            Width
DECAY   2000011     2.73839109E+01   # selectron_R decays
#          BR         NDA      ID1       ID2
     9.97060004E-01    2     1000022        11   # BR(~e_R -> ~chi_10 e-)
     1.38710958E-03    2     1000023        11   # BR(~e_R -> ~chi_20 e-)
     1.55282636E-03    2     1000025        11   # BR(~e_R -> ~chi_30 e-)
     5.99779149E-08    2     1000035        11   # BR(~e_R -> ~chi_40 e-)
#
#         PDG            Width
DECAY   1000013     3.02960018E+01   # smuon_L decays
#          BR         NDA      ID1       ID2
     2.26058149E-01    2     1000022        13   # BR(~mu_L -> ~chi_10 mu-)
     1.20567094E-03    2     1000023        13   # BR(~mu_L -> ~chi_20 mu-)
     4.01450699E-05    2     1000025        13   # BR(~mu_L -> ~chi_30 mu-)
     2.57379078E-01    2     1000035        13   # BR(~mu_L -> ~chi_40 mu-)
     4.18331447E-05    2    -1000024        14   # BR(~mu_L -> ~chi_1- nu_mu)
     5.15275124E-01    2    -1000037        14   # BR(~mu_L -> ~chi_2- nu_mu)
#
#         PDG            Width
DECAY   2000013     2.73839109E+01   # smuon_R decays
#          BR         NDA      ID1       ID2
     9.97060004E-01    2     1000022        13   # BR(~mu_R -> ~chi_10 mu-)
     1.38710958E-03    2     1000023        13   # BR(~mu_R -> ~chi_20 mu-)
     1.55282636E-03    2     1000025        13   # BR(~mu_R -> ~chi_30 mu-)
     5.99779149E-08    2     1000035        13   # BR(~mu_R -> ~chi_40 mu-)
#
#         PDG            Width
DECAY   1000015     2.91769973E+01   # stau_1 decays
#          BR         NDA      ID1       ID2
     9.30669506E-01    2     1000022        15   # BR(~tau_1 -> ~chi_10  tau-)
     1.64902473E-02    2     1000023        15   # BR(~tau_1 -> ~chi_20  tau-)
     1.59045325E-02    2     1000025        15   # BR(~tau_1 -> ~chi_30  tau-)
     2.16753477E-03    2     1000035        15   # BR(~tau_1 -> ~chi_40  tau-)
     3.04289701E-02    2    -1000024        16   # BR(~tau_1 -> ~chi_1-  nu_tau)
     4.33920948E-03    2    -1000037        16   # BR(~tau_1 -> ~chi_2-  nu_tau)
#
#         PDG            Width
DECAY   2000015     3.11584290E+01   # stau_2 decays
#          BR         NDA      ID1       ID2
     2.24555620E-01    2     1000022        15   # BR(~tau_2 -> ~chi_10  tau-)
     1.54728571E-02    2     1000023        15   # BR(~tau_2 -> ~chi_20  tau-)
     1.49672290E-02    2     1000025        15   # BR(~tau_2 -> ~chi_30  tau-)
     2.48140758E-01    2     1000035        15   # BR(~tau_2 -> ~chi_40  tau-)
     8.29852920E-05    2    -1000024        16   # BR(~tau_2 -> ~chi_1-  nu_tau)
     4.96780550E-01    2    -1000037        16   # BR(~tau_2 -> ~chi_2-  nu_tau)
#
#         PDG            Width
DECAY   1000012     3.02990120E+01   # snu_eL decays
#          BR         NDA      ID1       ID2
     2.25672149E-01    2     1000022        12   # BR(~nu_eL -> ~chi_10 nu_e)
     5.43473486E-07    2     1000023        12   # BR(~nu_eL -> ~chi_20 nu_e)
     9.72051893E-04    2     1000025        12   # BR(~nu_eL -> ~chi_30 nu_e)
     2.57425014E-01    2     1000035        12   # BR(~nu_eL -> ~chi_40 nu_e)
     1.73264600E-03    2     1000024        11   # BR(~nu_eL -> ~chi_1+ e-)
     5.14197595E-01    2     1000037        11   # BR(~nu_eL -> ~chi_2+ e-)
#
#         PDG            Width
DECAY   1000014     3.02990120E+01   # snu_muL decays
#          BR         NDA      ID1       ID2
     2.25672149E-01    2     1000022        14   # BR(~nu_muL -> ~chi_10 nu_mu)
     5.43473486E-07    2     1000023        14   # BR(~nu_muL -> ~chi_20 nu_mu)
     9.72051893E-04    2     1000025        14   # BR(~nu_muL -> ~chi_30 nu_mu)
     2.57425014E-01    2     1000035        14   # BR(~nu_muL -> ~chi_40 nu_mu)
     1.73264600E-03    2     1000024        13   # BR(~nu_muL -> ~chi_1+ mu-)
     5.14197595E-01    2     1000037        13   # BR(~nu_muL -> ~chi_2+ mu-)
#
#         PDG            Width
DECAY   1000016     3.11812605E+01   # snu_tauL decays
#          BR         NDA      ID1       ID2
     2.19262951E-01    2     1000022        16   # BR(~nu_tauL -> ~chi_10 nu_tau)
     5.28032590E-07    2     1000023        16   # BR(~nu_tauL -> ~chi_20 nu_tau)
     9.44434381E-04    2     1000025        16   # BR(~nu_tauL -> ~chi_30 nu_tau)
     2.50048318E-01    2     1000035        16   # BR(~nu_tauL -> ~chi_40 nu_tau)
     3.02814358E-02    2     1000024        15   # BR(~nu_tauL -> ~chi_1+ tau-)
     4.99462332E-01    2     1000037        15   # BR(~nu_tauL -> ~chi_2+ tau-)
#
#         PDG            Width
DECAY   1000024     4.83720393E-01   # chargino1+ decays
#          BR         NDA      ID1       ID2
     1.00000000E+00    2     1000022        24   # BR(~chi_1+ -> ~chi_10  W+)
#
#         PDG            Width
DECAY   1000037     2.11308185E+01   # chargino2+ decays
#          BR         NDA      ID1       ID2
     2.53385395E-01    2     1000024        23   # BR(~chi_2+ -> ~chi_1+  Z )
     1.84753489E-04    2     1000022        24   # BR(~chi_2+ -> ~chi_10  W+)
     2.44455971E-01    2     1000023        24   # BR(~chi_2+ -> ~chi_20  W+)
     2.44272826E-01    2     1000025        24   # BR(~chi_2+ -> ~chi_30  W+)
     2.57699131E-01    2     1000024        25   # BR(~chi_2+ -> ~chi_1+  h )
     1.92395694E-06    2     1000022        37   # BR(~chi_2+ -> ~chi_10  H+)
#
#         PDG            Width
DECAY   1000022     0.00000000E+00   # neutralino1 decays
#
#         PDG            Width
DECAY   1000023     5.02038518E-01   # neutralino2 decays
#          BR         NDA      ID1       ID2
     5.29385039E-01    2     1000022        23   # BR(~chi_20 -> ~chi_10   Z )
     4.70614961E-01    2     1000022        25   # BR(~chi_20 -> ~chi_10   h )
#
#         PDG            Width
DECAY   1000025     5.01843433E-01   # neutralino3 decays
#          BR         NDA      ID1       ID2
     4.69579344E-01    2     1000022        23   # BR(~chi_30 -> ~chi_10   Z )
     5.30420656E-01    2     1000022        25   # BR(~chi_30 -> ~chi_10   h )
#
#         PDG            Width
DECAY   1000035     2.11465684E+01   # neutralino4 decays
#          BR         NDA      ID1       ID2
     3.18721509E-05    2     1000022        23   # BR(~chi_40 -> ~chi_10   Z )
     8.82274480E-02    2     1000023        23   # BR(~chi_40 -> ~chi_20   Z )
     1.64498040E-01    2     1000025        23   # BR(~chi_40 -> ~chi_30   Z )
     2.44993349E-01    2     1000024       -24   # BR(~chi_40 -> ~chi_1+   W-)
     2.44993349E-01    2    -1000024        24   # BR(~chi_40 -> ~chi_1-   W+)
     1.51409765E-04    2     1000022        25   # BR(~chi_40 -> ~chi_10   h )
     1.83269003E-06    2     1000022        35   # BR(~chi_40 -> ~chi_10   H )
     2.13866917E-07    2     1000022        36   # BR(~chi_40 -> ~chi_10   A )
     1.68665700E-01    2     1000023        25   # BR(~chi_40 -> ~chi_20   h )
     8.84367855E-02    2     1000025        25   # BR(~chi_40 -> ~chi_30   h )
#
#         PDG            Width
DECAY        25     4.00957257E-03   # h decays
#          BR         NDA      ID1       ID2
     6.19033758E-01    2           5        -5   # BR(h -> b       bb     )
     6.43992157E-02    2         -15        15   # BR(h -> tau+    tau-   )
     2.27999123E-04    2         -13        13   # BR(h -> mu+     mu-    )
     4.83765970E-04    2           3        -3   # BR(h -> s       sb     )
     2.09624309E-02    2           4        -4   # BR(h -> c       cb     )
     6.71642057E-02    2          21        21   # BR(h -> g       g      )
     2.29628957E-03    2          22        22   # BR(h -> gam     gam    )
     1.43411740E-03    2          22        23   # BR(h -> Z       gam    )
     2.00306150E-01    2          24       -24   # BR(h -> W+      W-     )
     2.36329349E-02    2          23        23   # BR(h -> Z       Z      )
     5.91330252E-05    2     1000022   1000022   # BR(h -> ~chi_10 ~chi_10)
#
#         PDG            Width
DECAY        35     8.36872860E+00   # H decays
#          BR         NDA      ID1       ID2
     3.84200837E-01    2           5        -5   # BR(H -> b       bb     )
     6.66418339E-02    2         -15        15   # BR(H -> tau+    tau-   )
     2.35650818E-04    2         -13        13   # BR(H -> mu+     mu-    )
     2.88871870E-04    2           3        -3   # BR(H -> s       sb     )
     1.61241371E-06    2           4        -4   # BR(H -> c       cb     )
     1.61092900E-01    2           6        -6   # BR(H -> t       tb     )
     5.35158647E-05    2          21        21   # BR(H -> g       g      )
     2.09222127E-07    2          22        22   # BR(H -> gam     gam    )
     9.49717115E-08    2          23        22   # BR(H -> Z       gam    )
     7.43073039E-05    2          24       -24   # BR(H -> W+      W-     )
     3.71066087E-05    2          23        23   # BR(H -> Z       Z      )
     2.76600531E-04    2          25        25   # BR(H -> h       h      )
    -2.34900497E-24    2          36        36   # BR(H -> A       A      )
     9.75836296E-19    2          23        36   # BR(H -> Z       A      )
     2.57889955E-03    2     1000024  -1000024   # BR(H -> ~chi_1+ ~chi_1-)
     2.70009318E-03    2     1000022   1000022   # BR(H -> ~chi_10 ~chi_10)
     4.83310496E-07    2     1000023   1000023   # BR(H -> ~chi_20 ~chi_20)
     1.01823527E-03    2     1000025   1000025   # BR(H -> ~chi_30 ~chi_30)
     2.28954632E-01    2     1000022   1000023   # BR(H -> ~chi_10 ~chi_20)
     1.50781007E-01    2     1000022   1000025   # BR(H -> ~chi_10 ~chi_30)
     1.06310912E-03    2     1000023   1000025   # BR(H -> ~chi_20 ~chi_30)
#
#         PDG            Width
DECAY        36     8.38070919E+00   # A decays
#          BR         NDA      ID1       ID2
     3.83782050E-01    2           5        -5   # BR(A -> b       bb     )
     6.65485087E-02    2         -15        15   # BR(A -> tau+    tau-   )
     2.35320484E-04    2         -13        13   # BR(A -> mu+     mu-    )
     2.88677559E-04    2           3        -3   # BR(A -> s       sb     )
     1.61669554E-06    2           4        -4   # BR(A -> c       cb     )
     1.61431570E-01    2           6        -6   # BR(A -> t       tb     )
     1.59822704E-04    2          21        21   # BR(A -> g       g      )
     5.95695029E-07    2          22        22   # BR(A -> gam     gam    )
     1.93348611E-07    2          23        22   # BR(A -> Z       gam    )
     7.39237959E-05    2          23        25   # BR(A -> Z       h      )
     3.37026786E-03    2     1000024  -1000024   # BR(A -> ~chi_1+ ~chi_1-)
     2.73361368E-03    2     1000022   1000022   # BR(A -> ~chi_10 ~chi_10)
     4.41191297E-07    2     1000023   1000023   # BR(A -> ~chi_20 ~chi_20)
     2.17870491E-03    2     1000025   1000025   # BR(A -> ~chi_30 ~chi_30)
     1.53078883E-01    2     1000022   1000023   # BR(A -> ~chi_10 ~chi_20)
     2.25626832E-01    2     1000022   1000025   # BR(A -> ~chi_10 ~chi_30)
     4.88978106E-04    2     1000023   1000025   # BR(A -> ~chi_20 ~chi_30)
#
#         PDG            Width
DECAY        37     8.31329616E+00   # H+ decays
#          BR         NDA      ID1       ID2
     6.14378067E-04    2           4        -5   # BR(H+ -> c       bb     )
     6.71187185E-02    2         -15        16   # BR(H+ -> tau+    nu_tau )
     2.37336788E-04    2         -13        14   # BR(H+ -> mu+     nu_mu  )
     3.93199909E-06    2           2        -5   # BR(H+ -> u       bb     )
     1.39261334E-05    2           2        -3   # BR(H+ -> u       sb     )
     2.87989949E-04    2           4        -3   # BR(H+ -> c       sb     )
     5.43356531E-01    2           6        -5   # BR(H+ -> t       bb     )
     7.46732211E-05    2          24        25   # BR(H+ -> W+      h      )
     7.53809957E-13    2          24        36   # BR(H+ -> W+      A      )
     3.86823016E-01    2     1000024   1000022   # BR(H+ -> ~chi_1+ ~chi_10)
     1.44528349E-03    2     1000024   1000023   # BR(H+ -> ~chi_1+ ~chi_20)
     2.42154363E-05    2     1000024   1000025   # BR(H+ -> ~chi_1+ ~chi_30)
