#
#                              ======================
#                              | THE SUSYHIT OUTPUT |
#                              ======================
#
#
#              ------------------------------------------------------
#              |     This is the output of the SUSY-HIT package     |
#              |  created by A.Djouadi, M.Muehlleitner and M.Spira. |
#              |  In case of problems with SUSY-HIT email to        |
#              |           margarete.muehlleitner@cern.ch           |
#              |           michael.spira@psi.ch                     |
#              |           abdelhak.djouadi@cern.ch                 |
#              ------------------------------------------------------
#
#              ------------------------------------------------------
#              |  SUSY Les Houches Accord - MSSM Spectrum + Decays  |
#              |              based on the decay programs           |
#              |                                                    |
#              |                     SDECAY 1.3b                    |
#              |                                                    |
#              |  Authors: M.Muhlleitner, A.Djouadi and Y.Mambrini  |
#              |  Ref.:    Comput.Phys.Commun.168(2005)46           |
#              |           [hep-ph/0311167]                         |
#              |                                                    |
#              |                     HDECAY 3.4                     |
#              |                                                    |
#              |  By: A.Djouadi,J.Kalinowski,M.Muhlleitner,M.Spira  |
#              |  Ref.:    Comput.Phys.Commun.108(1998)56           |
#              |           [hep-ph/9704448]                         |
#              |                                                    |
#              |                                                    |
#              |  If not stated otherwise all DRbar couplings and   |
#              |  soft SUSY breaking masses are given at the scale  |
#              |  Q=  0.91187600E+02
#              |                                                    |
#              ------------------------------------------------------
#
#
BLOCK DCINFO  # Decay Program information
     1   SDECAY/HDECAY # decay calculator
     2   1.3b  /3.4    # version number
#
BLOCK SPINFO  # Spectrum calculator information
     1   SuSpect     # RGE +Spectrum calculator            
     2   2.41         # version number                     
#
BLOCK MODSEL  # Model selection
     1     0   # #general MSSM low scale                           
#
BLOCK SMINPUTS  # Standard Model inputs
         1     1.27934000E+02   # alpha_em^-1(M_Z)^MSbar
         2     1.16639000E-05   # G_F [GeV^-2]
         3     1.17200000E-01   # alpha_S(M_Z)^MSbar
         4     9.11870000E+01   # M_Z pole mass
         5     4.25000000E+00   # mb(mb)^MSbar
         6     1.72500000E+02   # mt pole mass
         7     1.77700000E+00   # mtau pole mass
#
BLOCK MINPAR  # Input parameters - minimal models
#
BLOCK EXTPAR  # Input parameters - non-minimal models
         0     9.11876000E+01   # EWSB                
         1     5.00000000E+02   # M_1                 
         2     1.00000000E+05   # M_2                 
         3     1.80000000E+03   # M_3                 
        11     0.00000000E+00   # A_t                 
        12     0.00000000E+00   # A_b                 
        13     0.00000000E+00   # A_tau               
        14     0.00000000E+00   # A_u                 
        15     0.00000000E+00   # A_d                 
        16     0.00000000E+00   # A_e                 
        23     1.00000000E+05   # mu(EWSB)            
        25     1.50000000E+00   # tanbeta(in)         
        26     2.00000000E+03   # MA_pole             
        31     1.00000000E+05   # M_eL                
        32     1.00000000E+05   # M_muL               
        33     1.00000000E+05   # M_tauL              
        34     1.00000000E+05   # M_eR                
        35     1.00000000E+05   # M_muR               
        36     1.00000000E+05   # M_tauR              
        41     3.00000000E+03   # M_q1L               
        42     3.00000000E+03   # M_q2L               
        43     3.00000000E+03   # M_q3L               
        44     1.00000000E+05   # M_uR                
        45     1.00000000E+05   # M_cR                
        46     1.00000000E+05   # M_tR                
        47     3.00000000E+03   # M_dR                
        48     3.00000000E+03   # M_sR                
        49     3.00000000E+03   # M_bR                
#
BLOCK MASS  # Mass Spectrum
# PDG code           mass       particle
        24     8.05744334E+01   # W+
        25     1.25000000E+02   # h
        35     2.00926343E+03   # H
        36     2.00000000E+03   # A
        37     2.02302276E+03   # H+
         5     4.87877839E+00   # b-quark pole mass calculated from mb(mb)_Msbar
   1000001     3.00021864E+03   # ~d_L
   2000001     3.00004271E+03   # ~d_R
   1000002     2.99982405E+03   # ~u_L
   2000002     9.99999974E+04   # ~u_R
   1000003     3.00021864E+03   # ~s_L
   2000003     3.00004271E+03   # ~s_R
   1000004     2.99982405E+03   # ~c_L
   2000004     9.99999974E+04   # ~c_R
   1000005     2.94980858E+03   # ~b_1
   2000005     3.04962382E+03   # ~b_2
   1000006     3.00183625E+03   # ~t_1
   2000006     1.00000155E+05   # ~t_2
   1000011     1.00000004E+05   # ~e_L
   2000011     1.00000004E+05   # ~e_R
   1000012     9.99999922E+04   # ~nu_eL
   1000013     1.00000004E+05   # ~mu_L
   2000013     1.00000004E+05   # ~mu_R
   1000014     9.99999922E+04   # ~nu_muL
   1000015     9.99986714E+04   # ~tau_1
   2000015     1.00001336E+05   # ~tau_2
   1000016     9.99999922E+04   # ~nu_tauL
   1000021     1.80000000E+03   # ~g
   1000022     4.99981449E+02   # ~chi_10
   1000023     9.99230759E+04   # ~chi_20
   1000025    -1.00000002E+05   # ~chi_30
   1000035     1.00076945E+05   # ~chi_40
   1000024     9.99230668E+04   # ~chi_1+
   1000037     1.00076936E+05   # ~chi_2+
   1000039     5.00000000E-09   # ~gravitino
#
BLOCK NMIX  # Neutralino Mixing Matrix
  1  1     9.99999899E-01   # N_11
  1  2    -3.27184153E-07   # N_12
  1  3     3.73240849E-04   # N_13
  1  4    -2.49860506E-04   # N_14
  2  1     3.11768394E-04   # N_21
  2  2     7.07148444E-01   # N_22
  2  3    -5.00008963E-01   # N_23
  2  4     4.99932014E-01   # N_24
  3  1     8.72429816E-05   # N_31
  3  2    -7.69343790E-05   # N_32
  3  3    -7.07106742E-01   # N_33
  3  4    -7.07106811E-01   # N_34
  4  1     3.11332907E-04   # N_41
  4  2    -7.07065118E-01   # N_42
  4  3    -4.99990949E-01   # N_43
  4  4     5.00067868E-01   # N_44
#
BLOCK UMIX  # Chargino Mixing Matrix U
  1  1    -7.07052378E-01   # U_11
  1  2     7.07161180E-01   # U_12
  2  1     7.07161180E-01   # U_21
  2  2     7.07052378E-01   # U_22
#
BLOCK VMIX  # Chargino Mixing Matrix V
  1  1    -7.07161180E-01   # V_11
  1  2     7.07052378E-01   # V_12
  2  1     7.07052378E-01   # V_21
  2  2     7.07161180E-01   # V_22
#
BLOCK STOPMIX  # Stop Mixing Matrix
  1  1     9.99999516E-01   # cos(theta_t)
  1  2     9.83869791E-04   # sin(theta_t)
  2  1    -9.83869791E-04   # -sin(theta_t)
  2  2     9.99999516E-01   # cos(theta_t)
#
BLOCK SBOTMIX  # Sbottom Mixing Matrix
  1  1     7.06483247E-01   # cos(theta_b)
  1  2     7.07729766E-01   # sin(theta_b)
  2  1    -7.07729766E-01   # -sin(theta_b)
  2  2     7.06483247E-01   # cos(theta_b)
#
BLOCK STAUMIX  # Stau Mixing Matrix
  1  1     7.07086461E-01   # cos(theta_tau)
  1  2     7.07127101E-01   # sin(theta_tau)
  2  1    -7.07127101E-01   # -sin(theta_tau)
  2  2     7.07086461E-01   # cos(theta_tau)
#
BLOCK ALPHA  # Higgs mixing
          -6.22929193E-01   # Mixing angle in the neutral Higgs boson sector
#
BLOCK HMIX Q=  9.11876000E+01  # DRbar Higgs Parameters
         1     1.00000000E+05   # mu(Q)               
         2     1.49999982E+00   # tanbeta(Q)          
         3     2.55416959E+02   # vev(Q)              
         4    -2.17182616E+09   # MA^2(Q)             
#
BLOCK GAUGE Q=  9.11876000E+01  # The gauge couplings
     1     3.50054055E-01   # gprime(Q) DRbar
     2     6.14311995E-01   # g(Q) DRbar
     3     1.07646376E+00   # g3(Q) DRbar
#
BLOCK AU Q=  9.11876000E+01  # The trilinear couplings
  1  1     0.00000000E+00   # A_u(Q) DRbar
  2  2     0.00000000E+00   # A_c(Q) DRbar
  3  3     0.00000000E+00   # A_t(Q) DRbar
#
BLOCK AD Q=  9.11876000E+01  # The trilinear couplings
  1  1     0.00000000E+00   # A_d(Q) DRbar
  2  2     0.00000000E+00   # A_s(Q) DRbar
  3  3     0.00000000E+00   # A_b(Q) DRbar
#
BLOCK AE Q=  9.11876000E+01  # The trilinear couplings
  1  1     0.00000000E+00   # A_e(Q) DRbar
  2  2     0.00000000E+00   # A_mu(Q) DRbar
  3  3     0.00000000E+00   # A_tau(Q) DRbar
#
BLOCK Yu Q=  9.11876000E+01  # The Yukawa couplings
  1  1     0.00000000E+00   # y_u(Q) DRbar
  2  2     0.00000000E+00   # y_c(Q) DRbar
  3  3     9.81411601E-01   # y_t(Q) DRbar
#
BLOCK Yd Q=  9.11876000E+01  # The Yukawa couplings
  1  1     0.00000000E+00   # y_d(Q) DRbar
  2  2     0.00000000E+00   # y_s(Q) DRbar
  3  3     1.99234095E-02   # y_b(Q) DRbar
#
BLOCK Ye Q=  9.11876000E+01  # The Yukawa couplings
  1  1     0.00000000E+00   # y_e(Q) DRbar
  2  2     0.00000000E+00   # y_mu(Q) DRbar
  3  3     1.77333637E-02   # y_tau(Q) DRbar
#
BLOCK MSOFT Q=  9.11876000E+01  # The soft SUSY breaking masses at the scale Q
         1     5.00000000E+02   # M_1                 
         2     1.00000000E+05   # M_2                 
         3     1.80000000E+03   # M_3                 
        14     0.00000000E+00   # A_u                 
        15     0.00000000E+00   # A_d                 
        16     0.00000000E+00   # A_e                 
        21    -1.06456931E+10   # M^2_Hd              
        22    -1.00450284E+10   # M^2_Hu              
        31     1.00000000E+05   # M_eL                
        32     1.00000000E+05   # M_muL               
        33     1.00000000E+05   # M_tauL              
        34     1.00000000E+05   # M_eR                
        35     1.00000000E+05   # M_muR               
        36     1.00000000E+05   # M_tauR              
        41     3.00000000E+03   # M_q1L               
        42     3.00000000E+03   # M_q2L               
        43     3.00000000E+03   # M_q3L               
        44     1.00000000E+05   # M_uR                
        45     1.00000000E+05   # M_cR                
        46     1.00000000E+05   # M_tR                
        47     3.00000000E+03   # M_dR                
        48     3.00000000E+03   # M_sR                
        49     3.00000000E+03   # M_bR                
#
#
#
#                             =================
#                             |The decay table|
#                             =================
#
# - The QCD corrections to the decays gluino -> squark  + quark
#                                     squark -> gaugino + quark_prime
#                                     squark -> squark_prime + Higgs
#                                     squark -> gluino  + quark
#   are included.
#
# - The multi-body decays for the inos, stops and sbottoms are included.
#
# - The loop induced decays for the gluino, neutralinos and stops
#   are included.
#
# - The SUSY decays of the top quark are included.
#
# - Possible decays of the NLSP in GMSB models are included.
#
#
#         PDG            Width
DECAY         6     1.30285902E+00   # top decays
#          BR         NDA      ID1       ID2
     1.00000000E+00    2           5        24   # BR(t ->  b    W+)
#
#         PDG            Width
DECAY   1000021     1.E-04   # gluino decays (OJ Mods)
#          BR         NDA      ID1       ID2
     2.46686262E-02    2     1000022        21   # BR(~g -> ~chi_10 g)
#          BR         NDA      ID1       ID2
     2.20511474E-03    2     1000039        21   # BR(~g -> ~G      g)
#           BR         NDA      ID1       ID2       ID3
     2.73171413E-01    3     1000022         1        -1   # BR(~g -> ~chi_10 d  db)
     5.46569948E-02    3     1000022         2        -2   # BR(~g -> ~chi_10 u  ub)
     2.73171413E-01    3     1000022         3        -3   # BR(~g -> ~chi_10 s  sb)
     5.46569948E-02    3     1000022         4        -4   # BR(~g -> ~chi_10 c  cb)
     2.74142352E-01    3     1000022         5        -5   # BR(~g -> ~chi_10 b  bb)
     4.33270908E-02    3     1000022         6        -6   # BR(~g -> ~chi_10 t  tb)
#
#         PDG            Width
DECAY   1000006     8.01511980E+01   # stop1 decays
#          BR         NDA      ID1       ID2
     4.56793391E-03    2     1000022         6   # BR(~t_1 -> ~chi_10 t )
     9.95432066E-01    2     1000021         6   # BR(~t_1 -> ~g      t )
#
#         PDG            Width
DECAY   2000006     4.85369510E+03   # stop2 decays
#          BR         NDA      ID1       ID2
     4.32622502E-02    2     1000022         6   # BR(~t_2 -> ~chi_10 t )
     3.18158059E-07    2     1000024         5   # BR(~t_2 -> ~chi_1+ b )
     5.59824306E-01    2     1000021         6   # BR(~t_2 -> ~g      t )
     2.34006794E-02    2     1000006        25   # BR(~t_2 -> ~t_1    h )
     4.84869653E-02    2     1000006        35   # BR(~t_2 -> ~t_1    H )
     5.08076487E-02    2     1000006        36   # BR(~t_2 -> ~t_1    A )
     5.05300487E-02    2     1000005        37   # BR(~t_2 -> ~b_1    H+)
     5.11104252E-02    2     2000005        37   # BR(~t_2 -> ~b_2    H+)
     5.70180458E-02    2     1000006        23   # BR(~t_2 -> ~t_1    Z )
     5.75438107E-02    2     1000005        24   # BR(~t_2 -> ~b_1    W+)
     5.80155013E-02    2     2000005        24   # BR(~t_2 -> ~b_2    W+)
#
#         PDG            Width
DECAY   1000005     7.74687092E+01   # sbottom1 decays
#          BR         NDA      ID1       ID2
     1.16662962E-02    2     1000022         5   # BR(~b_1 -> ~chi_10 b )
     9.88333704E-01    2     1000021         5   # BR(~b_1 -> ~g      b )
#
#         PDG            Width
DECAY   2000005     8.50082504E+01   # sbottom2 decays
#          BR         NDA      ID1       ID2
     1.09933666E-02    2     1000022         5   # BR(~b_2 -> ~chi_10 b )
     9.88437945E-01    2     1000021         5   # BR(~b_2 -> ~g      b )
     5.68688812E-04    2     1000005        23   # BR(~b_2 -> ~b_1    Z )
#
#         PDG            Width
DECAY   1000002     4.71753521E+01   # sup_L decays
#          BR         NDA      ID1       ID2
     7.86136459E-03    2     1000022         2   # BR(~u_L -> ~chi_10 u)
     9.92138635E-01    2     1000021         2   # BR(~u_L -> ~g      u)
#
#         PDG            Width
DECAY   2000002     4.01720506E+03   # sup_R decays
#          BR         NDA      ID1       ID2
     5.22722018E-02    2     1000022         2   # BR(~u_R -> ~chi_10 u)
     6.46196317E-13    2     1000023         2   # BR(~u_R -> ~chi_20 u)
     9.47727798E-01    2     1000021         2   # BR(~u_R -> ~g      u)
#
#         PDG            Width
DECAY   1000001     4.71954211E+01   # sdown_L decays
#          BR         NDA      ID1       ID2
     7.85923923E-03    2     1000022         1   # BR(~d_L -> ~chi_10 d)
     9.92140761E-01    2     1000021         1   # BR(~d_L -> ~g      d)
#
#         PDG            Width
DECAY   2000001     4.82991561E+01   # sdown_R decays
#          BR         NDA      ID1       ID2
     3.07164246E-02    2     1000022         1   # BR(~d_R -> ~chi_10 d)
     9.69283575E-01    2     1000021         1   # BR(~d_R -> ~g      d)
#
#         PDG            Width
DECAY   1000004     4.71753521E+01   # scharm_L decays
#          BR         NDA      ID1       ID2
     7.86136459E-03    2     1000022         4   # BR(~c_L -> ~chi_10 c)
     9.92138635E-01    2     1000021         4   # BR(~c_L -> ~g      c)
#
#         PDG            Width
DECAY   2000004     4.01720506E+03   # scharm_R decays
#          BR         NDA      ID1       ID2
     5.22722018E-02    2     1000022         4   # BR(~c_R -> ~chi_10 c)
     6.46196317E-13    2     1000023         4   # BR(~c_R -> ~chi_20 c)
     9.47727798E-01    2     1000021         4   # BR(~c_R -> ~g      c)
#
#         PDG            Width
DECAY   1000003     4.71954211E+01   # sstrange_L decays
#          BR         NDA      ID1       ID2
     7.85923923E-03    2     1000022         3   # BR(~s_L -> ~chi_10 s)
     9.92140761E-01    2     1000021         3   # BR(~s_L -> ~g      s)
#
#         PDG            Width
DECAY   2000003     4.82991561E+01   # sstrange_R decays
#          BR         NDA      ID1       ID2
     3.07164246E-02    2     1000022         3   # BR(~s_R -> ~chi_10 s)
     9.69283575E-01    2     1000021         3   # BR(~s_R -> ~g      s)
#
#         PDG            Width
DECAY   1000011     1.21885723E+02   # selectron_L decays
#          BR         NDA      ID1       ID2
     9.99989070E-01    2     1000022        11   # BR(~e_L -> ~chi_10 e-)
     3.64468916E-06    2     1000023        11   # BR(~e_L -> ~chi_20 e-)
     3.65124718E-24    2     1000025        11   # BR(~e_L -> ~chi_30 e-)
     7.28546037E-06    2    -1000024        12   # BR(~e_L -> ~chi_1- nu_e)
#
#         PDG            Width
DECAY   2000011     4.87538124E+02   # selectron_R decays
#          BR         NDA      ID1       ID2
     1.00000000E+00    2     1000022        11   # BR(~e_R -> ~chi_10 e-)
     2.29922664E-13    2     1000023        11   # BR(~e_R -> ~chi_20 e-)
     1.21787508E-23    2     1000025        11   # BR(~e_R -> ~chi_30 e-)
#
#         PDG            Width
DECAY   1000013     1.21885723E+02   # smuon_L decays
#          BR         NDA      ID1       ID2
     9.99989070E-01    2     1000022        13   # BR(~mu_L -> ~chi_10 mu-)
     3.64468916E-06    2     1000023        13   # BR(~mu_L -> ~chi_20 mu-)
     3.65124718E-24    2     1000025        13   # BR(~mu_L -> ~chi_30 mu-)
     7.28546037E-06    2    -1000024        14   # BR(~mu_L -> ~chi_1- nu_mu)
#
#         PDG            Width
DECAY   2000013     4.87538124E+02   # smuon_R decays
#          BR         NDA      ID1       ID2
     1.00000000E+00    2     1000022        13   # BR(~mu_R -> ~chi_10 mu-)
     2.29922664E-13    2     1000023        13   # BR(~mu_R -> ~chi_20 mu-)
     1.21787508E-23    2     1000025        13   # BR(~mu_R -> ~chi_30 mu-)
#
#         PDG            Width
DECAY   1000015     7.65208871E+02   # stau_1 decays
#          BR         NDA      ID1       ID2
     3.98219386E-01    2     1000022        15   # BR(~tau_1 -> ~chi_10  tau-)
     2.96463897E-07    2     1000023        15   # BR(~tau_1 -> ~chi_20  tau-)
     5.93108023E-07    2    -1000024        16   # BR(~tau_1 -> ~chi_1-  nu_tau)
     6.01779725E-01    2     1000039        15   # BR(~tau_1 -> ~G       tau-)
#
#         PDG            Width
DECAY   2000015     3.04702157E+02   # stau_2 decays
#          BR         NDA      ID1       ID2
     9.99997867E-01    2     1000022        15   # BR(~tau_2 -> ~chi_10  tau-)
     7.11028841E-07    2     1000023        15   # BR(~tau_2 -> ~chi_20  tau-)
     1.42226870E-06    2    -1000024        16   # BR(~tau_2 -> ~chi_1-  nu_tau)
#
#         PDG            Width
DECAY   1000012     1.21885988E+02   # snu_eL decays
#          BR         NDA      ID1       ID2
     9.99989075E-01    2     1000022        12   # BR(~nu_eL -> ~chi_10 nu_e)
     3.63990444E-06    2     1000023        12   # BR(~nu_eL -> ~chi_20 nu_e)
     7.28545333E-06    2     1000024        11   # BR(~nu_eL -> ~chi_1+ e-)
#
#         PDG            Width
DECAY   1000014     1.21885988E+02   # snu_muL decays
#          BR         NDA      ID1       ID2
     9.99989075E-01    2     1000022        14   # BR(~nu_muL -> ~chi_10 nu_mu)
     3.63990444E-06    2     1000023        14   # BR(~nu_muL -> ~chi_20 nu_mu)
     7.28545333E-06    2     1000024        13   # BR(~nu_muL -> ~chi_1+ mu-)
#
#         PDG            Width
DECAY   1000016     1.21885988E+02   # snu_tauL decays
#          BR         NDA      ID1       ID2
     9.99989080E-01    2     1000022        16   # BR(~nu_tauL -> ~chi_10 nu_tau)
     3.63990447E-06    2     1000023        16   # BR(~nu_tauL -> ~chi_20 nu_tau)
     7.27986706E-06    2     1000024        15   # BR(~nu_tauL -> ~chi_1+ tau-)
#
#         PDG            Width
DECAY   1000024     3.91325125E+03   # chargino1+ decays
#          BR         NDA      ID1       ID2
     1.24575460E-01    2     1000002        -1   # BR(~chi_1+ -> ~u_L     db)
     1.24537083E-01    2    -1000001         2   # BR(~chi_1+ -> ~d_L*    u )
     1.24575460E-01    2     1000004        -3   # BR(~chi_1+ -> ~c_L     sb)
     1.24537083E-01    2    -1000003         4   # BR(~chi_1+ -> ~s_L*    c )
     1.12178612E-01    2     1000006        -5   # BR(~chi_1+ -> ~t_1     bb)
     1.37690428E-01    2    -1000005         6   # BR(~chi_1+ -> ~b_1*    t )
     1.33434944E-01    2    -2000005         6   # BR(~chi_1+ -> ~b_2*    t )
     6.67394443E-03    2     1000022        24   # BR(~chi_1+ -> ~chi_10  W+)
     6.90676742E-03    2     1000022        37   # BR(~chi_1+ -> ~chi_10  H+)
     7.86983030E-02    2     1000039        24   # BR(~chi_1+ -> ~G       W+)
     2.61919148E-02    2     1000039        37   # BR(~chi_1+ -> ~G       H+)
#
#         PDG            Width
DECAY   1000037     3.91749824E+03   # chargino2+ decays
#          BR         NDA      ID1       ID2
     1.24507601E-01    2     1000002        -1   # BR(~chi_2+ -> ~u_L     db)
     1.24545877E-01    2    -1000001         2   # BR(~chi_2+ -> ~d_L*    u )
     1.24507601E-01    2     1000004        -3   # BR(~chi_2+ -> ~c_L     sb)
     1.24545877E-01    2    -1000003         4   # BR(~chi_2+ -> ~s_L*    c )
     1.11810808E-01    2     1000006        -5   # BR(~chi_2+ -> ~t_1     bb)
     8.24017799E-07    2     2000006        -5   # BR(~chi_2+ -> ~t_2     bb)
     1.31996458E-01    2    -1000005         6   # BR(~chi_2+ -> ~b_1*    t )
     1.38480398E-01    2    -2000005         6   # BR(~chi_2+ -> ~b_2*    t )
     1.01317878E-07    2     1000012       -11   # BR(~chi_2+ -> ~nu_eL   e+  )
     1.01317878E-07    2     1000014       -13   # BR(~chi_2+ -> ~nu_muL  mu+ )
     1.01240173E-07    2     1000016       -15   # BR(~chi_2+ -> ~nu_tau1 tau+)
     1.01317991E-07    2    -1000011        12   # BR(~chi_2+ -> ~e_L+    nu_e)
     1.01317991E-07    2    -1000013        14   # BR(~chi_2+ -> ~mu_L+   nu_mu)
     4.94427261E-08    2    -1000015        16   # BR(~chi_2+ -> ~tau_1+  nu_tau)
     5.17881284E-08    2    -2000015        16   # BR(~chi_2+ -> ~tau_2+  nu_tau)
     2.59364647E-04    2     1000024        23   # BR(~chi_2+ -> ~chi_1+  Z )
     6.65396837E-03    2     1000022        24   # BR(~chi_2+ -> ~chi_10  W+)
     2.96730280E-04    2     1000023        24   # BR(~chi_2+ -> ~chi_20  W+)
     1.61625820E-12    2     1000024        25   # BR(~chi_2+ -> ~chi_1+  h )
     6.88143461E-03    2     1000022        37   # BR(~chi_2+ -> ~chi_10  H+)
     7.91681785E-02    2     1000039        24   # BR(~chi_2+ -> ~G       W+)
     2.63442708E-02    2     1000039        37   # BR(~chi_2+ -> ~G       H+)
#
#         PDG            Width
DECAY   1000022     1.E-08   # neutralino1 decays (OJ Mods)
#          BR         NDA      ID1       ID2
     7.79050715E-01    2     1000039        22   # BR(~chi_10 -> ~G        gam)
     2.20949285E-01    2     1000039        23   # BR(~chi_10 -> ~G        Z)
     8.76033029E-11    2     1000039        25   # BR(~chi_10 -> ~G        h)
#
#         PDG            Width
DECAY   1000023     1.E-08   # neutralino2 decays (OJ Mods)
#          BR         NDA      ID1       ID2
     2.59759757E-04    2     1000022        23   # BR(~chi_20 -> ~chi_10   Z )
     6.85739328E-03    2     1000022        25   # BR(~chi_20 -> ~chi_10   h )
     1.84625435E-04    2     1000022        35   # BR(~chi_20 -> ~chi_10   H )
     6.63242125E-03    2     1000022        36   # BR(~chi_20 -> ~chi_10   A )
     6.03190646E-02    2     1000002        -2   # BR(~chi_20 -> ~u_L      ub)
     6.03190646E-02    2    -1000002         2   # BR(~chi_20 -> ~u_L*     u )
     6.02988480E-02    2     1000001        -1   # BR(~chi_20 -> ~d_L      db)
     6.02988480E-02    2    -1000001         1   # BR(~chi_20 -> ~d_L*     d )
     1.69174348E-09    2     2000001        -1   # BR(~chi_20 -> ~d_R      db)
     1.69174348E-09    2    -2000001         1   # BR(~chi_20 -> ~d_R*     d )
     6.03190646E-02    2     1000004        -4   # BR(~chi_20 -> ~c_L      cb)
     6.03190646E-02    2    -1000004         4   # BR(~chi_20 -> ~c_L*     c )
     6.02988480E-02    2     1000003        -3   # BR(~chi_20 -> ~s_L      sb)
     6.02988480E-02    2    -1000003         3   # BR(~chi_20 -> ~s_L*     s )
     1.69174348E-09    2     2000003        -3   # BR(~chi_20 -> ~s_R      sb)
     1.69174348E-09    2    -2000003         3   # BR(~chi_20 -> ~s_R*     s )
     1.35534720E-01    2     1000006        -6   # BR(~chi_20 -> ~t_1      tb)
     1.35534720E-01    2    -1000006         6   # BR(~chi_20 -> ~t_1*     t )
     2.92572912E-02    2     1000005        -5   # BR(~chi_20 -> ~b_1      bb)
     2.92572912E-02    2    -1000005         5   # BR(~chi_20 -> ~b_1*     b )
     2.67592829E-02    2     2000005        -5   # BR(~chi_20 -> ~b_2      bb)
     2.67592829E-02    2    -2000005         5   # BR(~chi_20 -> ~b_2*     b )
     1.28773716E-02    2     1000039        22   # BR(~chi_20 -> ~G        gam)
     6.47887885E-02    2     1000039        23   # BR(~chi_20 -> ~G        Z)
     6.85419434E-04    2     1000039        25   # BR(~chi_20 -> ~G        h)
     2.54943925E-02    2     1000039        35   # BR(~chi_20 -> ~G        H)
     1.00766281E-03    2     1000039        36   # BR(~chi_20 -> ~G        A)
#
#         PDG            Width
DECAY   1000025     1.51062483E+03   # neutralino3 decays
#          BR         NDA      ID1       ID2
     2.94523194E-02    2     1000022        23   # BR(~chi_30 -> ~chi_10   Z )
     8.01040218E-04    2     1000022        25   # BR(~chi_30 -> ~chi_10   h )
     2.97900767E-02    2     1000022        35   # BR(~chi_30 -> ~chi_10   H )
     1.20033999E-03    2     1000022        36   # BR(~chi_30 -> ~chi_10   A )
     9.75921150E-10    2     1000002        -2   # BR(~chi_30 -> ~u_L      ub)
     9.75921150E-10    2    -1000002         2   # BR(~chi_30 -> ~u_L*     u )
     1.80782688E-17    2     2000002        -2   # BR(~chi_30 -> ~u_R      ub)
     1.80782688E-17    2    -2000002         2   # BR(~chi_30 -> ~u_R*     u )
     2.34178344E-09    2     1000001        -1   # BR(~chi_30 -> ~d_L      db)
     2.34178344E-09    2    -1000001         1   # BR(~chi_30 -> ~d_L*     d )
     2.94199513E-10    2     2000001        -1   # BR(~chi_30 -> ~d_R      db)
     2.94199513E-10    2    -2000001         1   # BR(~chi_30 -> ~d_R*     d )
     9.75921150E-10    2     1000004        -4   # BR(~chi_30 -> ~c_L      cb)
     9.75921150E-10    2    -1000004         4   # BR(~chi_30 -> ~c_L*     c )
     1.80782688E-17    2     2000004        -4   # BR(~chi_30 -> ~c_R      cb)
     1.80782688E-17    2    -2000004         4   # BR(~chi_30 -> ~c_R*     c )
     2.34178344E-09    2     1000003        -3   # BR(~chi_30 -> ~s_L      sb)
     2.34178344E-09    2    -1000003         3   # BR(~chi_30 -> ~s_L*     s )
     2.94199513E-10    2     2000003        -3   # BR(~chi_30 -> ~s_R      sb)
     2.94199513E-10    2    -2000003         3   # BR(~chi_30 -> ~s_R*     s )
     3.52383307E-01    2     1000006        -6   # BR(~chi_30 -> ~t_1      tb)
     3.52383307E-01    2    -1000006         6   # BR(~chi_30 -> ~t_1*     t )
     1.24323104E-04    2     1000005        -5   # BR(~chi_30 -> ~b_1      bb)
     1.24323104E-04    2    -1000005         5   # BR(~chi_30 -> ~b_1*     b )
     1.26538235E-04    2     2000005        -5   # BR(~chi_30 -> ~b_2      bb)
     1.26538235E-04    2    -2000005         5   # BR(~chi_30 -> ~b_2*     b )
     5.86840769E-23    2     1000012       -12   # BR(~chi_30 -> ~nu_eL    nu_eb)
     5.86840769E-23    2    -1000012        12   # BR(~chi_30 -> ~nu_eL*   nu_e )
     5.86840769E-23    2     1000014       -14   # BR(~chi_30 -> ~nu_muL   nu_mub)
     5.86840769E-23    2    -1000014        14   # BR(~chi_30 -> ~nu_muL*  nu_mu )
     5.86840769E-23    2     1000016       -16   # BR(~chi_30 -> ~nu_tau1  nu_taub)
     5.86840769E-23    2    -1000016        16   # BR(~chi_30 -> ~nu_tau1* nu_tau )
     3.32304360E-10    2     1000039        22   # BR(~chi_30 -> ~G        gam)
     4.49370237E-03    2     1000039        23   # BR(~chi_30 -> ~G        Z)
     1.13778878E-01    2     1000039        25   # BR(~chi_30 -> ~G        h)
     3.05206221E-03    2     1000039        35   # BR(~chi_30 -> ~G        H)
     1.12163229E-01    2     1000039        36   # BR(~chi_30 -> ~G        A)
#
#         PDG            Width
DECAY   1000035     3.91865418E+03   # neutralino4 decays
#          BR         NDA      ID1       ID2
     2.60176636E-04    2     1000022        23   # BR(~chi_40 -> ~chi_10   Z )
     1.03836279E-18    2     1000023        23   # BR(~chi_40 -> ~chi_20   Z )
     2.96586377E-04    2     1000024       -24   # BR(~chi_40 -> ~chi_1+   W-)
     2.96586377E-04    2    -1000024        24   # BR(~chi_40 -> ~chi_1-   W+)
     6.83769203E-03    2     1000022        25   # BR(~chi_40 -> ~chi_10   h )
     1.83037301E-04    2     1000022        35   # BR(~chi_40 -> ~chi_10   H )
     6.61137199E-03    2     1000022        36   # BR(~chi_40 -> ~chi_10   A )
     4.34710390E-12    2     1000023        25   # BR(~chi_40 -> ~chi_20   h )
     6.02754632E-02    2     1000002        -2   # BR(~chi_40 -> ~u_L      ub)
     6.02754632E-02    2    -1000002         2   # BR(~chi_40 -> ~u_L*     u )
     1.75632383E-12    2     2000002        -2   # BR(~chi_40 -> ~u_R      ub)
     1.75632383E-12    2    -2000002         2   # BR(~chi_40 -> ~u_R*     u )
     6.02956164E-02    2     1000001        -1   # BR(~chi_40 -> ~d_L      db)
     6.02956164E-02    2    -1000001         1   # BR(~chi_40 -> ~d_L*     d )
     1.68676310E-09    2     2000001        -1   # BR(~chi_40 -> ~d_R      db)
     1.68676310E-09    2    -2000001         1   # BR(~chi_40 -> ~d_R*     d )
     6.02754632E-02    2     1000004        -4   # BR(~chi_40 -> ~c_L      cb)
     6.02754632E-02    2    -1000004         4   # BR(~chi_40 -> ~c_L*     c )
     1.75632383E-12    2     2000004        -4   # BR(~chi_40 -> ~c_R      cb)
     1.75632383E-12    2    -2000004         4   # BR(~chi_40 -> ~c_R*     c )
     6.02956164E-02    2     1000003        -3   # BR(~chi_40 -> ~s_L      sb)
     6.02956164E-02    2    -1000003         3   # BR(~chi_40 -> ~s_L*     s )
     1.68676310E-09    2     2000003        -3   # BR(~chi_40 -> ~s_R      sb)
     1.68676310E-09    2    -2000003         3   # BR(~chi_40 -> ~s_R*     s )
     1.35038219E-01    2     1000006        -6   # BR(~chi_40 -> ~t_1      tb)
     1.35038219E-01    2    -1000006         6   # BR(~chi_40 -> ~t_1*     t )
     2.65724306E-02    2     1000005        -5   # BR(~chi_40 -> ~b_1      bb)
     2.65724306E-02    2    -1000005         5   # BR(~chi_40 -> ~b_1*     b )
     2.94455506E-02    2     2000005        -5   # BR(~chi_40 -> ~b_2      bb)
     2.94455506E-02    2    -2000005         5   # BR(~chi_40 -> ~b_2*     b )
     5.06182927E-08    2     1000011       -11   # BR(~chi_40 -> ~e_L-     e+)
     5.06182927E-08    2    -1000011        11   # BR(~chi_40 -> ~e_L+     e-)
     1.27528987E-14    2     2000011       -11   # BR(~chi_40 -> ~e_R-     e+)
     1.27528987E-14    2    -2000011        11   # BR(~chi_40 -> ~e_R+     e-)
     5.06182927E-08    2     1000013       -13   # BR(~chi_40 -> ~mu_L-    mu+)
     5.06182927E-08    2    -1000013        13   # BR(~chi_40 -> ~mu_L+    mu-)
     1.27528987E-14    2     2000013       -13   # BR(~chi_40 -> ~mu_R-    mu+)
     1.27528987E-14    2    -2000013        13   # BR(~chi_40 -> ~mu_R+    mu-)
     2.46826939E-08    2     1000015       -15   # BR(~chi_40 -> ~tau_1-   tau+)
     2.46826939E-08    2    -1000015        15   # BR(~chi_40 -> ~tau_1+   tau-)
     2.58532298E-08    2     2000015       -15   # BR(~chi_40 -> ~tau_2-   tau+)
     2.58532298E-08    2    -2000015        15   # BR(~chi_40 -> ~tau_2+   tau-)
     5.06846569E-08    2     1000012       -12   # BR(~chi_40 -> ~nu_eL    nu_eb)
     5.06846569E-08    2    -1000012        12   # BR(~chi_40 -> ~nu_eL*   nu_e )
     5.06846569E-08    2     1000014       -14   # BR(~chi_40 -> ~nu_muL   nu_mub)
     5.06846569E-08    2    -1000014        14   # BR(~chi_40 -> ~nu_muL*  nu_mu )
     5.06846569E-08    2     1000016       -16   # BR(~chi_40 -> ~nu_tau1  nu_taub)
     5.06846569E-08    2    -1000016        16   # BR(~chi_40 -> ~nu_tau1* nu_tau )
     1.29118088E-02    2     1000039        22   # BR(~chi_40 -> ~G        gam)
     6.52167909E-02    2     1000039        23   # BR(~chi_40 -> ~G        Z)
     6.91002390E-04    2     1000039        25   # BR(~chi_40 -> ~G        h)
     2.56526769E-02    2     1000039        35   # BR(~chi_40 -> ~G        H)
     1.01241110E-03    2     1000039        36   # BR(~chi_40 -> ~G        A)
#
#
#
#
