#
#                              ======================
#                              | THE SUSYHIT OUTPUT |
#                              ======================
#
#
#              ------------------------------------------------------
#              |     This is the output of the SUSY-HIT package     |
#              |  created by A.Djouadi, M.Muehlleitner and M.Spira. |
#              |  In case of problems with SUSY-HIT email to        |
#              |           margarete.muehlleitner@cern.ch           |
#              |           michael.spira@psi.ch                     |
#              |           abdelhak.djouadi@cern.ch                 |
#              ------------------------------------------------------
#
#              ------------------------------------------------------
#              |  SUSY Les Houches Accord - MSSM Spectrum + Decays  |
#              |              based on the decay programs           |
#              |                                                    |
#              |                     SDECAY 1.3b                    |
#              |                                                    |
#              |  Authors: M.Muhlleitner, A.Djouadi and Y.Mambrini  |
#              |  Ref.:    Comput.Phys.Commun.168(2005)46           |
#              |           [hep-ph/0311167]                         |
#              |                                                    |
#              |                     HDECAY 3.4                     |
#              |                                                    |
#              |  By: A.Djouadi,J.Kalinowski,M.Muhlleitner,M.Spira  |
#              |  Ref.:    Comput.Phys.Commun.108(1998)56           |
#              |           [hep-ph/9704448]                         |
#              |                                                    |
#              |                                                    |
#              |  If not stated otherwise all DRbar couplings and   |
#              |  soft SUSY breaking masses are given at the scale  |
#              |  Q=  0.50007670E+04
#              |                                                    |
#              ------------------------------------------------------
#
#
BLOCK DCINFO  # Decay Program information
     1   SDECAY/HDECAY # decay calculator
     2   1.3b  /3.4    # version number
#
BLOCK SPINFO  # Spectrum calculator information
     1    SOFTSUSY    # spectrum calculator                
     2    3.4.0       # version number                     
#
BLOCK MODSEL  # Model selection
     1     0   #  nonUniversal                                     
#
BLOCK SMINPUTS  # Standard Model inputs
         1     1.25778332E+02   # alpha_em^-1(M_Z)^MSbar
         2     1.16570000E-05   # G_F [GeV^-2]
         3     1.17200002E-01   # alpha_S(M_Z)^MSbar
         4     9.11876000E+01   # M_Z pole mass
         5     4.25000000E+00   # mb(mb)^MSbar
         6     1.72500000E+02   # mt pole mass
         7     1.77682000E+00   # mtau pole mass
#
BLOCK MINPAR  # Input parameters - minimal models
         3     1.00000000E+01   # tanb                
#
BLOCK EXTPAR  # Input parameters - non-minimal models
         0    -1.00000000E+00   # Set                 
         1     6.00000000E+01   # M_1(MX)             
         2     3.00000000E+03   # M_2(MX)             
         3     1.21156000E+03   # M_3(MX)             
        11     5.00000000E+03   # At(MX)              
        12     5.00000000E+03   # Ab(MX)              
        13     0.00000000E+00   # Atau(MX)            
        23    -1.87309000E+02   # mu(MX)              
        26     3.00000000E+03   # mA(pole)            
        31     5.00000000E+03   # meL(MX)             
        32     5.00000000E+03   # mmuL(MX)            
        33     5.00000000E+03   # mtauL(MX)           
        34     5.00000000E+03   # meR(MX)             
        35     5.00000000E+03   # mmuR(MX)            
        36     5.00000000E+03   # mtauR(MX)           
        41     5.00000000E+03   # mqL1(MX)            
        42     5.00000000E+03   # mqL2(MX)            
        43     5.00000000E+03   # mqL3(MX)            
        44     5.00000000E+03   # muR(MX)             
        45     5.00000000E+03   # mcR(MX)             
        46     5.00000000E+03   # mtR(MX)             
        47     5.00000000E+03   # mdR(MX)             
        48     5.00000000E+03   # msR(MX)             
        49     5.00000000E+03   # mbR(MX)             
#
BLOCK MASS  # Mass Spectrum
# PDG code           mass       particle
        24     8.00897567E+01   # W+
        25     1.24600874E+02   # h
        35     3.00009074E+03   # H
        36     2.99999978E+03   # A
        37     3.00148212E+03   # H+
         5     4.87878001E+00   # b-quark pole mass calculated from mb(mb)_Msbar
   1000001     5.06679170E+03   # ~d_L
   2000001     5.04887156E+03   # ~d_R
   1000002     5.06631407E+03   # ~u_L
   2000002     5.04856037E+03   # ~u_R
   1000003     5.06679170E+03   # ~s_L
   2000003     5.04887156E+03   # ~s_R
   1000004     5.06631407E+03   # ~c_L
   2000004     5.04856037E+03   # ~c_R
   1000005     5.01306172E+03   # ~b_1
   2000005     5.04697249E+03   # ~b_2
   1000006     4.90377013E+03   # ~t_1
   2000006     5.05705564E+03   # ~t_2
   1000011     5.01916578E+03   # ~e_L
   2000011     5.00596066E+03   # ~e_R
   1000012     5.01821278E+03   # ~nu_eL
   1000013     5.01916578E+03   # ~mu_L
   2000013     5.00596066E+03   # ~mu_R
   1000014     5.01821278E+03   # ~nu_muL
   1000015     5.00483307E+03   # ~tau_1
   2000015     5.01863106E+03   # ~tau_2
   1000016     5.01765775E+03   # ~nu_tauL
   1000021     1.50000086E+03   # ~g
   1000022     5.87054512E+01   # ~chi_10
   1000023     2.04232666E+02   # ~chi_20
   1000025    -2.05084779E+02   # ~chi_30
   1000035     3.07431680E+03   # ~chi_40
   1000024     2.00000245E+02   # ~chi_1+
   1000037     3.07448499E+03   # ~chi_2+
#
BLOCK NMIX  # Neutralino Mixing Matrix
  1  1     9.72108189E-01   # N_11
  1  2    -5.01469867E-04   # N_12
  1  3    -2.30107141E-01   # N_13
  1  4    -4.53444629E-02   # N_14
  2  1     1.94560452E-01   # N_21
  2  2     1.71155757E-02   # N_22
  2  3     6.83256086E-01   # N_23
  2  4     7.03572603E-01   # N_24
  3  1    -1.30964619E-01   # N_31
  3  2     1.85852699E-02   # N_32
  3  3    -6.92972351E-01   # N_33
  3  4     7.08725741E-01   # N_34
  4  1    -4.08648898E-04   # N_41
  4  2     9.99680646E-01   # N_42
  4  3     1.06970677E-03   # N_43
  4  4    -2.52447103E-02   # N_44
#
BLOCK UMIX  # Chargino Mixing Matrix U
  1  1    -1.50884814E-03   # U_11
  1  2     9.99998862E-01   # U_12
  2  1    -9.99998862E-01   # U_21
  2  2    -1.50884814E-03   # U_22
#
BLOCK VMIX  # Chargino Mixing Matrix V
  1  1     3.57111703E-02   # V_11
  1  2    -9.99362153E-01   # V_12
  2  1    -9.99362153E-01   # V_21
  2  2    -3.57111703E-02   # V_22
#
BLOCK STOPMIX  # Stop Mixing Matrix
  1  1    -5.04217713E-01   # cos(theta_t)
  1  2     8.63576573E-01   # sin(theta_t)
  2  1    -8.63576573E-01   # -sin(theta_t)
  2  2    -5.04217713E-01   # cos(theta_t)
#
BLOCK SBOTMIX  # Sbottom Mixing Matrix
  1  1     9.99386083E-01   # cos(theta_b)
  1  2    -3.50350839E-02   # sin(theta_b)
  2  1     3.50350839E-02   # -sin(theta_b)
  2  2     9.99386083E-01   # cos(theta_b)
#
BLOCK STAUMIX  # Stau Mixing Matrix
  1  1    -2.21886200E-02   # cos(theta_tau)
  1  2     9.99753802E-01   # sin(theta_tau)
  2  1    -9.99753802E-01   # -sin(theta_tau)
  2  2    -2.21886200E-02   # cos(theta_tau)
#
BLOCK ALPHA  # Higgs mixing
          -1.05475617E-01   # Mixing angle in the neutral Higgs boson sector
#
BLOCK HMIX Q=  5.00076702E+03  # DRbar Higgs Parameters
         1    -1.90684196E+02   # mu(Q)MSSM           
         2     9.47043212E+00   # tan                 
         3     2.41687144E+02   # higgs               
         4     8.78923315E+06   # mA^2(Q)MSSM         
#
BLOCK GAUGE Q=  5.00076702E+03  # The gauge couplings
     1     3.71168815E-01   # gprime(Q) DRbar
     2     6.34385364E-01   # g(Q) DRbar
     3     1.00271442E+00   # g3(Q) DRbar
#
BLOCK AU Q=  5.00076702E+03  # The trilinear couplings
  1  1     5.00000001E+03   # A_u(Q) DRbar
  2  2     5.00000001E+03   # A_c(Q) DRbar
  3  3     5.00000001E+03   # A_t(Q) DRbar
#
BLOCK AD Q=  5.00076702E+03  # The trilinear couplings
  1  1     5.00000000E+03   # A_d(Q) DRbar
  2  2     5.00000000E+03   # A_s(Q) DRbar
  3  3     5.00000001E+03   # A_b(Q) DRbar
#
BLOCK AE Q=  5.00076702E+03  # The trilinear couplings
  1  1     0.00000000E+00   # A_e(Q) DRbar
  2  2     9.52546872E-08   # A_mu(Q) DRbar
  3  3     9.45763652E-08   # A_tau(Q) DRbar
#
BLOCK Yu Q=  5.00076702E+03  # The Yukawa couplings
  1  1     0.00000000E+00   # y_u(Q) DRbar
  2  2     0.00000000E+00   # y_c(Q) DRbar
  3  3     8.18385825E-01   # y_t(Q) DRbar
#
BLOCK Yd Q=  5.00076702E+03  # The Yukawa couplings
  1  1     0.00000000E+00   # y_d(Q) DRbar
  2  2     0.00000000E+00   # y_s(Q) DRbar
  3  3     1.29426084E-01   # y_b(Q) DRbar
#
BLOCK Ye Q=  5.00076702E+03  # The Yukawa couplings
  1  1     0.00000000E+00   # y_e(Q) DRbar
  2  2     0.00000000E+00   # y_mu(Q) DRbar
  3  3     9.73596752E-02   # y_tau(Q) DRbar
#
BLOCK MSOFT Q=  5.00076702E+03  # The soft SUSY breaking masses at the scale Q
         1     6.00000000E+01   # M_1(Q)              
         2     3.00000000E+03   # M_2(Q)              
         3     1.21156000E+03   # M_3(Q)              
        21     8.69769506E+06   # mH1^2(Q)            
        22     5.41192333E+05   # mH2^2(Q)            
        31     5.00000000E+03   # meL(Q)              
        32     5.00000000E+03   # mmuL(Q)             
        33     5.00000000E+03   # mtauL(Q)            
        34     5.00000000E+03   # meR(Q)              
        35     5.00000000E+03   # mmuR(Q)             
        36     5.00000000E+03   # mtauR(Q)            
        41     5.00000000E+03   # mqL1(Q)             
        42     5.00000000E+03   # mqL2(Q)             
        43     5.00000000E+03   # mqL3(Q)             
        44     5.00000000E+03   # muR(Q)              
        45     5.00000000E+03   # mcR(Q)              
        46     5.00000000E+03   # mtR(Q)              
        47     5.00000000E+03   # mdR(Q)              
        48     5.00000000E+03   # msR(Q)              
        49     5.00000000E+03   # mbR(Q)              
#
#
#
#                             =================
#                             |The decay table|
#                             =================
#
# - The QCD corrections to the decays gluino -> squark  + quark
#                                     squark -> gaugino + quark_prime
#                                     squark -> squark_prime + Higgs
#                                     squark -> gluino  + quark
#   are included.
#
# - The multi-body decays for the inos, stops and sbottoms are included.
#
# - The loop induced decays for the gluino, neutralinos and stops
#   are included.
#
# - The SUSY decays of the top quark are included.
#
#
#         PDG            Width
DECAY         6     1.41053363E+00   # top decays
#          BR         NDA      ID1       ID2
     1.00000000E+00    2           5        24   # BR(t ->  b    W+)
#
#         PDG            Width
DECAY   1000021     5.11955055E-04   # gluino decays
#          BR         NDA      ID1       ID2
     4.25527098E-05    2     1000022        21   # BR(~g -> ~chi_10 g)
     1.18849836E-02    2     1000023        21   # BR(~g -> ~chi_20 g)
     1.15962990E-02    2     1000025        21   # BR(~g -> ~chi_30 g)
#           BR         NDA      ID1       ID2       ID3
     9.92584133E-03    3     1000022         1        -1   # BR(~g -> ~chi_10 d  db)
     3.42552592E-04    3     1000023         1        -1   # BR(~g -> ~chi_20 d  db)
     1.60457977E-04    3     1000025         1        -1   # BR(~g -> ~chi_30 d  db)
     3.37807276E-02    3     1000022         2        -2   # BR(~g -> ~chi_10 u  ub)
     1.44132433E-03    3     1000023         2        -2   # BR(~g -> ~chi_20 u  ub)
     3.71665503E-04    3     1000025         2        -2   # BR(~g -> ~chi_30 u  ub)
     9.92584133E-03    3     1000022         3        -3   # BR(~g -> ~chi_10 s  sb)
     3.42552592E-04    3     1000023         3        -3   # BR(~g -> ~chi_20 s  sb)
     1.60457977E-04    3     1000025         3        -3   # BR(~g -> ~chi_30 s  sb)
     3.37807276E-02    3     1000022         4        -4   # BR(~g -> ~chi_10 c  cb)
     1.44132433E-03    3     1000023         4        -4   # BR(~g -> ~chi_20 c  cb)
     3.71665503E-04    3     1000025         4        -4   # BR(~g -> ~chi_30 c  cb)
     1.08046532E-02    3     1000022         5        -5   # BR(~g -> ~chi_10 b  bb)
     5.68097576E-03    3     1000023         5        -5   # BR(~g -> ~chi_20 b  bb)
     5.65707330E-03    3     1000025         5        -5   # BR(~g -> ~chi_30 b  bb)
     2.74540524E-02    3     1000022         6        -6   # BR(~g -> ~chi_10 t  tb)
     2.07482437E-01    3     1000023         6        -6   # BR(~g -> ~chi_20 t  tb)
     1.84675358E-01    3     1000025         6        -6   # BR(~g -> ~chi_30 t  tb)
     5.64955997E-05    3     1000024         1        -2   # BR(~g -> ~chi_1+ d  ub)
     5.64955997E-05    3    -1000024         2        -1   # BR(~g -> ~chi_1- u  db)
     5.64955997E-05    3     1000024         3        -4   # BR(~g -> ~chi_1+ s  cb)
     5.64955997E-05    3    -1000024         4        -3   # BR(~g -> ~chi_1- c  sb)
     2.21225247E-01    3     1000024         5        -6   # BR(~g -> ~chi_1+ b  tb)
     2.21225247E-01    3    -1000024         6        -5   # BR(~g -> ~chi_1- t  bb)
#
#         PDG            Width
DECAY   1000006     3.92011904E+02   # stop1 decays
#          BR         NDA      ID1       ID2
     1.97051201E-02    2     1000022         6   # BR(~t_1 -> ~chi_10 t )
     8.92321599E-02    2     1000023         6   # BR(~t_1 -> ~chi_20 t )
     7.90288932E-02    2     1000025         6   # BR(~t_1 -> ~chi_30 t )
     5.22845178E-03    2     1000035         6   # BR(~t_1 -> ~chi_40 t )
     1.22992695E-01    2     1000024         5   # BR(~t_1 -> ~chi_1+ b )
     1.04235370E-02    2     1000037         5   # BR(~t_1 -> ~chi_2+ b )
     6.73389143E-01    2     1000021         6   # BR(~t_1 -> ~g      t )
#
#         PDG            Width
DECAY   2000006     3.93020616E+02   # stop2 decays
#          BR         NDA      ID1       ID2
     1.09089971E-02    2     1000022         6   # BR(~t_2 -> ~chi_10 t )
     8.01186693E-02    2     1000023         6   # BR(~t_2 -> ~chi_20 t )
     9.23210970E-02    2     1000025         6   # BR(~t_2 -> ~chi_30 t )
     1.42231731E-02    2     1000035         6   # BR(~t_2 -> ~chi_40 t )
     5.02854692E-02    2     1000024         5   # BR(~t_2 -> ~chi_1+ b )
     2.83249957E-02    2     1000037         5   # BR(~t_2 -> ~chi_2+ b )
     7.20706081E-01    2     1000021         6   # BR(~t_2 -> ~g      t )
     7.18337770E-04    2     1000006        25   # BR(~t_2 -> ~t_1    h )
     2.39317993E-03    2     1000006        23   # BR(~t_2 -> ~t_1    Z )
#
#         PDG            Width
DECAY   1000005     3.69278079E+02   # sbottom1 decays
#          BR         NDA      ID1       ID2
     2.28876376E-03    2     1000022         5   # BR(~b_1 -> ~chi_10 b )
     2.07973709E-03    2     1000023         5   # BR(~b_1 -> ~chi_20 b )
     2.21994659E-03    2     1000025         5   # BR(~b_1 -> ~chi_30 b )
     2.05642399E-02    2     1000035         5   # BR(~b_1 -> ~chi_40 b )
     1.81414585E-01    2    -1000024         6   # BR(~b_1 -> ~chi_1- t )
     4.12822401E-02    2    -1000037         6   # BR(~b_1 -> ~chi_2- t )
     7.48636528E-01    2     1000021         5   # BR(~b_1 -> ~g      b )
     1.51395971E-03    2     1000006       -24   # BR(~b_1 -> ~t_1    W-)
#
#         PDG            Width
DECAY   2000005     2.85251760E+02   # sbottom2 decays
#          BR         NDA      ID1       ID2
     1.00109308E-02    2     1000022         5   # BR(~b_2 -> ~chi_10 b )
     3.25288290E-03    2     1000023         5   # BR(~b_2 -> ~chi_20 b )
     3.11654405E-03    2     1000025         5   # BR(~b_2 -> ~chi_30 b )
     2.96327345E-05    2     1000035         5   # BR(~b_2 -> ~chi_40 b )
     6.18939147E-03    2    -1000024         6   # BR(~b_2 -> ~chi_1- t )
     5.95041837E-05    2    -1000037         6   # BR(~b_2 -> ~chi_2- t )
     9.77331418E-01    2     1000021         5   # BR(~b_2 -> ~g      b )
     9.69570900E-06    2     1000006       -24   # BR(~b_2 -> ~t_1    W-)
#
#         PDG            Width
DECAY   1000002     3.04595680E+02   # sup_L decays
#          BR         NDA      ID1       ID2
     2.30992938E-03    2     1000022         2   # BR(~u_L -> ~chi_10 u)
     1.95322820E-04    2     1000023         2   # BR(~u_L -> ~chi_20 u)
     3.11778575E-06    2     1000025         2   # BR(~u_L -> ~chi_30 u)
     2.58507769E-02    2     1000035         2   # BR(~u_L -> ~chi_40 u)
     1.64349785E-04    2     1000024         1   # BR(~u_L -> ~chi_1+ d)
     5.16703031E-02    2     1000037         1   # BR(~u_L -> ~chi_2+ d)
     9.19806200E-01    2     1000021         2   # BR(~u_L -> ~g      u)
#
#         PDG            Width
DECAY   2000002     2.90741326E+02   # sup_R decays
#          BR         NDA      ID1       ID2
     3.87883739E-02    2     1000022         2   # BR(~u_R -> ~chi_10 u)
     1.54943307E-03    2     1000023         2   # BR(~u_R -> ~chi_20 u)
     7.02037417E-04    2     1000025         2   # BR(~u_R -> ~chi_30 u)
     2.72255440E-09    2     1000035         2   # BR(~u_R -> ~chi_40 u)
     9.58960153E-01    2     1000021         2   # BR(~u_R -> ~g      u)
#
#         PDG            Width
DECAY   1000001     3.04606073E+02   # sdown_L decays
#          BR         NDA      ID1       ID2
     2.33464053E-03    2     1000022         1   # BR(~d_L -> ~chi_10 d)
     2.79541329E-05    2     1000023         1   # BR(~d_L -> ~chi_20 d)
     1.25458613E-04    2     1000025         1   # BR(~d_L -> ~chi_30 d)
     2.58662240E-02    2     1000035         1   # BR(~d_L -> ~chi_40 d)
     2.93412520E-07    2    -1000024         2   # BR(~d_L -> ~chi_1- u)
     5.17505753E-02    2    -1000037         2   # BR(~d_L -> ~chi_2- u)
     9.19894854E-01    2     1000021         1   # BR(~d_L -> ~g      d)
#
#         PDG            Width
DECAY   2000001     2.81816368E+02   # sdown_R decays
#          BR         NDA      ID1       ID2
     1.00048154E-02    2     1000022         1   # BR(~d_R -> ~chi_10 d)
     3.99650605E-04    2     1000023         1   # BR(~d_R -> ~chi_20 d)
     1.81078928E-04    2     1000025         1   # BR(~d_R -> ~chi_30 d)
     7.02338678E-10    2     1000035         1   # BR(~d_R -> ~chi_40 d)
     9.89414454E-01    2     1000021         1   # BR(~d_R -> ~g      d)
#
#         PDG            Width
DECAY   1000004     3.04595680E+02   # scharm_L decays
#          BR         NDA      ID1       ID2
     2.30992938E-03    2     1000022         4   # BR(~c_L -> ~chi_10 c)
     1.95322820E-04    2     1000023         4   # BR(~c_L -> ~chi_20 c)
     3.11778575E-06    2     1000025         4   # BR(~c_L -> ~chi_30 c)
     2.58507769E-02    2     1000035         4   # BR(~c_L -> ~chi_40 c)
     1.64349785E-04    2     1000024         3   # BR(~c_L -> ~chi_1+ s)
     5.16703031E-02    2     1000037         3   # BR(~c_L -> ~chi_2+ s)
     9.19806200E-01    2     1000021         4   # BR(~c_L -> ~g      c)
#
#         PDG            Width
DECAY   2000004     2.90741326E+02   # scharm_R decays
#          BR         NDA      ID1       ID2
     3.87883739E-02    2     1000022         4   # BR(~c_R -> ~chi_10 c)
     1.54943307E-03    2     1000023         4   # BR(~c_R -> ~chi_20 c)
     7.02037417E-04    2     1000025         4   # BR(~c_R -> ~chi_30 c)
     2.72255440E-09    2     1000035         4   # BR(~c_R -> ~chi_40 c)
     9.58960153E-01    2     1000021         4   # BR(~c_R -> ~g      c)
#
#         PDG            Width
DECAY   1000003     3.04606073E+02   # sstrange_L decays
#          BR         NDA      ID1       ID2
     2.33464053E-03    2     1000022         3   # BR(~s_L -> ~chi_10 s)
     2.79541329E-05    2     1000023         3   # BR(~s_L -> ~chi_20 s)
     1.25458613E-04    2     1000025         3   # BR(~s_L -> ~chi_30 s)
     2.58662240E-02    2     1000035         3   # BR(~s_L -> ~chi_40 s)
     2.93412520E-07    2    -1000024         4   # BR(~s_L -> ~chi_1- c)
     5.17505753E-02    2    -1000037         4   # BR(~s_L -> ~chi_2- c)
     9.19894854E-01    2     1000021         3   # BR(~s_L -> ~g      s)
#
#         PDG            Width
DECAY   2000003     2.81816368E+02   # sstrange_R decays
#          BR         NDA      ID1       ID2
     1.00048154E-02    2     1000022         3   # BR(~s_R -> ~chi_10 s)
     3.99650605E-04    2     1000023         3   # BR(~s_R -> ~chi_20 s)
     1.81078928E-04    2     1000025         3   # BR(~s_R -> ~chi_30 s)
     7.02338678E-10    2     1000035         3   # BR(~s_R -> ~chi_40 s)
     9.89414454E-01    2     1000021         3   # BR(~s_R -> ~g      s)
#
#         PDG            Width
DECAY   1000011     3.04196424E+01   # selectron_L decays
#          BR         NDA      ID1       ID2
     2.13238078E-01    2     1000022        11   # BR(~e_L -> ~chi_10 e-)
     1.12889698E-02    2     1000023        11   # BR(~e_L -> ~chi_20 e-)
     2.21762493E-03    2     1000025        11   # BR(~e_L -> ~chi_30 e-)
     2.57581801E-01    2     1000035        11   # BR(~e_L -> ~chi_40 e-)
     2.99795221E-06    2    -1000024        12   # BR(~e_L -> ~chi_1- nu_e)
     5.15670528E-01    2    -1000037        12   # BR(~e_L -> ~chi_2- nu_e)
#
#         PDG            Width
DECAY   2000011     2.74282379E+01   # selectron_R decays
#          BR         NDA      ID1       ID2
     9.45153547E-01    2     1000022        11   # BR(~e_R -> ~chi_10 e-)
     3.77445990E-02    2     1000023        11   # BR(~e_R -> ~chi_20 e-)
     1.71017889E-02    2     1000025        11   # BR(~e_R -> ~chi_30 e-)
     6.48112242E-08    2     1000035        11   # BR(~e_R -> ~chi_40 e-)
#
#         PDG            Width
DECAY   1000013     3.04196424E+01   # smuon_L decays
#          BR         NDA      ID1       ID2
     2.13238078E-01    2     1000022        13   # BR(~mu_L -> ~chi_10 mu-)
     1.12889698E-02    2     1000023        13   # BR(~mu_L -> ~chi_20 mu-)
     2.21762493E-03    2     1000025        13   # BR(~mu_L -> ~chi_30 mu-)
     2.57581801E-01    2     1000035        13   # BR(~mu_L -> ~chi_40 mu-)
     2.99795221E-06    2    -1000024        14   # BR(~mu_L -> ~chi_1- nu_mu)
     5.15670528E-01    2    -1000037        14   # BR(~mu_L -> ~chi_2- nu_mu)
#
#         PDG            Width
DECAY   2000013     2.74282379E+01   # smuon_R decays
#          BR         NDA      ID1       ID2
     9.45153547E-01    2     1000022        13   # BR(~mu_R -> ~chi_10 mu-)
     3.77445990E-02    2     1000023        13   # BR(~mu_R -> ~chi_20 mu-)
     1.71017889E-02    2     1000025        13   # BR(~mu_R -> ~chi_30 mu-)
     6.48112242E-08    2     1000035        13   # BR(~mu_R -> ~chi_40 mu-)
#
#         PDG            Width
DECAY   1000015     2.93042167E+01   # stau_1 decays
#          BR         NDA      ID1       ID2
     8.86688429E-01    2     1000022        15   # BR(~tau_1 -> ~chi_10  tau-)
     4.98590342E-02    2     1000023        15   # BR(~tau_1 -> ~chi_20  tau-)
     3.09787430E-02    2     1000025        15   # BR(~tau_1 -> ~chi_30  tau-)
     1.33174164E-04    2     1000035        15   # BR(~tau_1 -> ~chi_40  tau-)
     3.20741590E-02    2    -1000024        16   # BR(~tau_1 -> ~chi_1-  nu_tau)
     2.66460833E-04    2    -1000037        16   # BR(~tau_1 -> ~chi_2-  nu_tau)
#
#         PDG            Width
DECAY   2000015     3.13531187E+01   # stau_2 decays
#          BR         NDA      ID1       ID2
     2.07963155E-01    2     1000022        15   # BR(~tau_2 -> ~chi_10  tau-)
     2.54146678E-02    2     1000023        15   # BR(~tau_2 -> ~chi_20  tau-)
     1.70099705E-02    2     1000025        15   # BR(~tau_2 -> ~chi_30  tau-)
     2.49696606E-01    2     1000035        15   # BR(~tau_2 -> ~chi_40  tau-)
     3.08454983E-05    2    -1000024        16   # BR(~tau_2 -> ~chi_1-  nu_tau)
     4.99884756E-01    2    -1000037        16   # BR(~tau_2 -> ~chi_2-  nu_tau)
#
#         PDG            Width
DECAY   1000012     3.04225840E+01   # snu_eL decays
#          BR         NDA      ID1       ID2
     2.13930098E-01    2     1000022        12   # BR(~nu_eL -> ~chi_10 nu_e)
     6.15658789E-03    2     1000023        12   # BR(~nu_eL -> ~chi_20 nu_e)
     5.96592825E-03    2     1000025        12   # BR(~nu_eL -> ~chi_30 nu_e)
     2.57636898E-01    2     1000035        12   # BR(~nu_eL -> ~chi_40 nu_e)
     1.67886904E-03    2     1000024        11   # BR(~nu_eL -> ~chi_1+ e-)
     5.14631619E-01    2     1000037        11   # BR(~nu_eL -> ~chi_2+ e-)
#
#         PDG            Width
DECAY   1000014     3.04225840E+01   # snu_muL decays
#          BR         NDA      ID1       ID2
     2.13930098E-01    2     1000022        14   # BR(~nu_muL -> ~chi_10 nu_mu)
     6.15658789E-03    2     1000023        14   # BR(~nu_muL -> ~chi_20 nu_mu)
     5.96592825E-03    2     1000025        14   # BR(~nu_muL -> ~chi_30 nu_mu)
     2.57636898E-01    2     1000035        14   # BR(~nu_muL -> ~chi_40 nu_mu)
     1.67886904E-03    2     1000024        13   # BR(~nu_muL -> ~chi_1+ mu-)
     5.14631619E-01    2     1000037        13   # BR(~nu_muL -> ~chi_2+ mu-)
#
#         PDG            Width
DECAY   1000016     3.13561885E+01   # snu_tauL decays
#          BR         NDA      ID1       ID2
     2.07537537E-01    2     1000022        16   # BR(~nu_tauL -> ~chi_10 nu_tau)
     5.97261554E-03    2     1000023        16   # BR(~nu_tauL -> ~chi_20 nu_tau)
     5.78765319E-03    2     1000025        16   # BR(~nu_tauL -> ~chi_30 nu_tau)
     2.49871884E-01    2     1000035        16   # BR(~nu_tauL -> ~chi_40 nu_tau)
     3.17095213E-02    2     1000024        15   # BR(~nu_tauL -> ~chi_1+ tau-)
     4.99120789E-01    2     1000037        15   # BR(~nu_tauL -> ~chi_2+ tau-)
#
#         PDG            Width
DECAY   1000024     8.36240498E-02   # chargino1+ decays
#          BR         NDA      ID1       ID2
     1.00000000E+00    2     1000022        24   # BR(~chi_1+ -> ~chi_10  W+)
#
#         PDG            Width
DECAY   1000037     2.33077937E+01   # chargino2+ decays
#          BR         NDA      ID1       ID2
     2.53783931E-01    2     1000024        23   # BR(~chi_2+ -> ~chi_1+  Z )
     7.56020869E-04    2     1000022        24   # BR(~chi_2+ -> ~chi_10  W+)
     2.44862225E-01    2     1000023        24   # BR(~chi_2+ -> ~chi_20  W+)
     2.44888407E-01    2     1000025        24   # BR(~chi_2+ -> ~chi_30  W+)
     2.55671903E-01    2     1000024        25   # BR(~chi_2+ -> ~chi_1+  h )
     3.75127321E-05    2     1000022        37   # BR(~chi_2+ -> ~chi_10  H+)
#
#         PDG            Width
DECAY   1000022     0.00000000E+00   # neutralino1 decays
#
#         PDG            Width
DECAY   1000023     6.60012629E-02   # neutralino2 decays
#          BR         NDA      ID1       ID2
     5.80513016E-01    2     1000022        23   # BR(~chi_20 -> ~chi_10   Z )
     4.19486984E-01    2     1000022        25   # BR(~chi_20 -> ~chi_10   h )
#
#         PDG            Width
DECAY   1000025     4.88962906E-02   # neutralino3 decays
#          BR         NDA      ID1       ID2
     9.01058692E-01    2     1000022        23   # BR(~chi_30 -> ~chi_10   Z )
     9.89413079E-02    2     1000022        25   # BR(~chi_30 -> ~chi_10   h )
#
#         PDG            Width
DECAY   1000035     2.33100453E+01   # neutralino4 decays
#          BR         NDA      ID1       ID2
     7.78387960E-04    2     1000022        23   # BR(~chi_40 -> ~chi_10   Z )
     1.35968973E-01    2     1000023        23   # BR(~chi_40 -> ~chi_20   Z )
     1.16853593E-01    2     1000025        23   # BR(~chi_40 -> ~chi_30   Z )
     2.45466599E-01    2     1000024       -24   # BR(~chi_40 -> ~chi_1+   W-)
     2.45466599E-01    2    -1000024        24   # BR(~chi_40 -> ~chi_1-   W+)
     1.15769607E-05    2     1000022        25   # BR(~chi_40 -> ~chi_10   h )
     3.59875073E-05    2     1000022        35   # BR(~chi_40 -> ~chi_10   H )
     3.92958854E-06    2     1000022        36   # BR(~chi_40 -> ~chi_10   A )
     1.18309504E-01    2     1000023        25   # BR(~chi_40 -> ~chi_20   h )
     1.37104849E-01    2     1000025        25   # BR(~chi_40 -> ~chi_30   h )
#
#         PDG            Width
DECAY        25     4.06679261E-03   # h decays
#          BR         NDA      ID1       ID2
     6.12624207E-01    2           5        -5   # BR(h -> b       bb     )
     6.36994689E-02    2         -15        15   # BR(h -> tau+    tau-   )
     2.25520039E-04    2         -13        13   # BR(h -> mu+     mu-    )
     4.78217095E-04    2           3        -3   # BR(h -> s       sb     )
     2.07188454E-02    2           4        -4   # BR(h -> c       cb     )
     6.68231158E-02    2          21        21   # BR(h -> g       g      )
     2.29042657E-03    2          22        22   # BR(h -> gam     gam    )
     1.46415677E-03    2          22        23   # BR(h -> Z       gam    )
     2.06033295E-01    2          24       -24   # BR(h -> W+      W-     )
     2.44609496E-02    2          23        23   # BR(h -> Z       Z      )
     1.18179822E-03    2     1000022   1000022   # BR(h -> ~chi_10 ~chi_10)
#
#         PDG            Width
DECAY        35     8.82031151E+00   # H decays
#          BR         NDA      ID1       ID2
     3.59521973E-01    2           5        -5   # BR(H -> b       bb     )
     6.31702821E-02    2         -15        15   # BR(H -> tau+    tau-   )
     2.23375135E-04    2         -13        13   # BR(H -> mu+     mu-    )
     2.73823575E-04    2           3        -3   # BR(H -> s       sb     )
     1.53154101E-06    2           4        -4   # BR(H -> c       cb     )
     1.53013087E-01    2           6        -6   # BR(H -> t       tb     )
     5.09105654E-05    2          21        21   # BR(H -> g       g      )
     1.46593904E-07    2          22        22   # BR(H -> gam     gam    )
     9.02096375E-08    2          23        22   # BR(H -> Z       gam    )
     7.48639779E-05    2          24       -24   # BR(H -> W+      W-     )
     3.73845880E-05    2          23        23   # BR(H -> Z       Z      )
     2.66622535E-04    2          25        25   # BR(H -> h       h      )
    -1.05525933E-23    2          36        36   # BR(H -> A       A      )
     1.07302270E-18    2          23        36   # BR(H -> Z       A      )
     3.48246508E-03    2     1000024  -1000024   # BR(H -> ~chi_1+ ~chi_1-)
     4.37208149E-02    2     1000022   1000022   # BR(H -> ~chi_10 ~chi_10)
     1.24596157E-02    2     1000023   1000023   # BR(H -> ~chi_20 ~chi_20)
     8.48722375E-03    2     1000025   1000025   # BR(H -> ~chi_30 ~chi_30)
     2.02308632E-01    2     1000022   1000023   # BR(H -> ~chi_10 ~chi_20)
     1.31704814E-01    2     1000022   1000025   # BR(H -> ~chi_10 ~chi_30)
     2.12023442E-02    2     1000023   1000025   # BR(H -> ~chi_20 ~chi_30)
#
#         PDG            Width
DECAY        36     8.82531674E+00   # A decays
#          BR         NDA      ID1       ID2
     3.59441266E-01    2           5        -5   # BR(A -> b       bb     )
     6.31362831E-02    2         -15        15   # BR(A -> tau+    tau-   )
     2.23254600E-04    2         -13        13   # BR(A -> mu+     mu-    )
     2.73875911E-04    2           3        -3   # BR(A -> s       sb     )
     1.53670044E-06    2           4        -4   # BR(A -> c       cb     )
     1.53443836E-01    2           6        -6   # BR(A -> t       tb     )
     1.51854764E-04    2          21        21   # BR(A -> g       g      )
     5.33333573E-07    2          22        22   # BR(A -> gam     gam    )
     1.83671293E-07    2          23        22   # BR(A -> Z       gam    )
     7.45390795E-05    2          23        25   # BR(A -> Z       h      )
     3.60742633E-03    2     1000024  -1000024   # BR(A -> ~chi_1+ ~chi_1-)
     4.02643950E-02    2     1000022   1000022   # BR(A -> ~chi_10 ~chi_10)
     8.19477701E-03    2     1000023   1000023   # BR(A -> ~chi_20 ~chi_20)
     1.33455800E-02    2     1000025   1000025   # BR(A -> ~chi_30 ~chi_30)
     1.28523568E-01    2     1000022   1000023   # BR(A -> ~chi_10 ~chi_20)
     2.08542359E-01    2     1000022   1000025   # BR(A -> ~chi_10 ~chi_30)
     2.07747304E-02    2     1000023   1000025   # BR(A -> ~chi_20 ~chi_30)
#
#         PDG            Width
DECAY        37     8.75495451E+00   # H+ decays
#          BR         NDA      ID1       ID2
     5.74815144E-04    2           4        -5   # BR(H+ -> c       bb     )
     6.36751470E-02    2         -15        16   # BR(H+ -> tau+    nu_tau )
     2.25160063E-04    2         -13        14   # BR(H+ -> mu+     nu_mu  )
     3.67879746E-06    2           2        -5   # BR(H+ -> u       bb     )
     1.32115762E-05    2           2        -3   # BR(H+ -> u       sb     )
     2.73215838E-04    2           4        -3   # BR(H+ -> c       sb     )
     5.10746748E-01    2           6        -5   # BR(H+ -> t       bb     )
     7.52981010E-05    2          24        25   # BR(H+ -> W+      h      )
     1.07422139E-12    2          24        36   # BR(H+ -> W+      A      )
     3.98368706E-01    2     1000024   1000022   # BR(H+ -> ~chi_1+ ~chi_10)
     2.17963816E-02    2     1000024   1000023   # BR(H+ -> ~chi_1+ ~chi_20)
     4.24763869E-03    2     1000024   1000025   # BR(H+ -> ~chi_1+ ~chi_30)
