#
#                              ======================
#                              | THE SUSYHIT OUTPUT |
#                              ======================
#
#
#              ------------------------------------------------------
#              |     This is the output of the SUSY-HIT package     |
#              |  created by A.Djouadi, M.Muehlleitner and M.Spira. |
#              |  In case of problems with SUSY-HIT email to        |
#              |           margarete.muehlleitner@cern.ch           |
#              |           michael.spira@psi.ch                     |
#              |           abdelhak.djouadi@cern.ch                 |
#              ------------------------------------------------------
#
#              ------------------------------------------------------
#              |  SUSY Les Houches Accord - MSSM Spectrum + Decays  |
#              |              based on the decay programs           |
#              |                                                    |
#              |                     SDECAY 1.3b                    |
#              |                                                    |
#              |  Authors: M.Muhlleitner, A.Djouadi and Y.Mambrini  |
#              |  Ref.:    Comput.Phys.Commun.168(2005)46           |
#              |           [hep-ph/0311167]                         |
#              |                                                    |
#              |                     HDECAY 3.4                     |
#              |                                                    |
#              |  By: A.Djouadi,J.Kalinowski,M.Muhlleitner,M.Spira  |
#              |  Ref.:    Comput.Phys.Commun.108(1998)56           |
#              |           [hep-ph/9704448]                         |
#              |                                                    |
#              |                                                    |
#              |  If not stated otherwise all DRbar couplings and   |
#              |  soft SUSY breaking masses are given at the scale  |
#              |  Q=  0.50007589E+04
#              |                                                    |
#              ------------------------------------------------------
#
#
BLOCK DCINFO  # Decay Program information
     1   SDECAY/HDECAY # decay calculator
     2   1.3b  /3.4    # version number
#
BLOCK SPINFO  # Spectrum calculator information
     1    SOFTSUSY    # spectrum calculator                
     2    3.4.0       # version number                     
#
BLOCK MODSEL  # Model selection
     1     0   #  nonUniversal                                     
#
BLOCK SMINPUTS  # Standard Model inputs
         1     1.25778332E+02   # alpha_em^-1(M_Z)^MSbar
         2     1.16570000E-05   # G_F [GeV^-2]
         3     1.17200002E-01   # alpha_S(M_Z)^MSbar
         4     9.11876000E+01   # M_Z pole mass
         5     4.25000000E+00   # mb(mb)^MSbar
         6     1.72500000E+02   # mt pole mass
         7     1.77682000E+00   # mtau pole mass
#
BLOCK MINPAR  # Input parameters - minimal models
         3     1.00000000E+01   # tanb                
#
BLOCK EXTPAR  # Input parameters - non-minimal models
         0    -1.00000000E+00   # Set                 
         1     6.00000000E+01   # M_1(MX)             
         2     3.00000000E+03   # M_2(MX)             
         3     7.73139000E+02   # M_3(MX)             
        11     5.00000000E+03   # At(MX)              
        12     5.00000000E+03   # Ab(MX)              
        13     0.00000000E+00   # Atau(MX)            
        23    -1.87365000E+02   # mu(MX)              
        26     3.00000000E+03   # mA(pole)            
        31     5.00000000E+03   # meL(MX)             
        32     5.00000000E+03   # mmuL(MX)            
        33     5.00000000E+03   # mtauL(MX)           
        34     5.00000000E+03   # meR(MX)             
        35     5.00000000E+03   # mmuR(MX)            
        36     5.00000000E+03   # mtauR(MX)           
        41     5.00000000E+03   # mqL1(MX)            
        42     5.00000000E+03   # mqL2(MX)            
        43     5.00000000E+03   # mqL3(MX)            
        44     5.00000000E+03   # muR(MX)             
        45     5.00000000E+03   # mcR(MX)             
        46     5.00000000E+03   # mtR(MX)             
        47     5.00000000E+03   # mdR(MX)             
        48     5.00000000E+03   # msR(MX)             
        49     5.00000000E+03   # mbR(MX)             
#
BLOCK MASS  # Mass Spectrum
# PDG code           mass       particle
        24     8.00879713E+01   # W+
        25     1.24297881E+02   # h
        35     3.00009030E+03   # H
        36     2.99999978E+03   # A
        37     3.00148253E+03   # H+
         5     4.87878001E+00   # b-quark pole mass calculated from mb(mb)_Msbar
   1000001     5.06390039E+03   # ~d_L
   2000001     5.04596847E+03   # ~d_R
   1000002     5.06342133E+03   # ~u_L
   2000002     5.04565674E+03   # ~u_R
   1000003     5.06390039E+03   # ~s_L
   2000003     5.04596847E+03   # ~s_R
   1000004     5.06342133E+03   # ~c_L
   2000004     5.04565674E+03   # ~c_R
   1000005     5.01060130E+03   # ~b_1
   2000005     5.04409311E+03   # ~b_2
   1000006     4.90124122E+03   # ~t_1
   2000006     5.05501822E+03   # ~t_2
   1000011     5.01916700E+03   # ~e_L
   2000011     5.00596099E+03   # ~e_R
   1000012     5.01821358E+03   # ~nu_eL
   1000013     5.01916700E+03   # ~mu_L
   2000013     5.00596099E+03   # ~mu_R
   1000014     5.01821358E+03   # ~nu_muL
   1000015     5.00483319E+03   # ~tau_1
   2000015     5.01863219E+03   # ~tau_2
   1000016     5.01765844E+03   # ~nu_tauL
   1000021     1.00000006E+03   # ~g
   1000022     5.87046595E+01   # ~chi_10
   1000023     2.04233722E+02   # ~chi_20
   1000025    -2.05087311E+02   # ~chi_30
   1000035     3.07432110E+03   # ~chi_40
   1000024     2.00000535E+02   # ~chi_1+
   1000037     3.07448934E+03   # ~chi_2+
#
BLOCK NMIX  # Neutralino Mixing Matrix
  1  1     9.72099456E-01   # N_11
  1  2    -5.01926356E-04   # N_12
  1  3    -2.30141788E-01   # N_13
  1  4    -4.53558424E-02   # N_14
  2  1     1.94593193E-01   # N_21
  2  2     1.71190478E-02   # N_22
  2  3     6.83249926E-01   # N_23
  2  4     7.03569446E-01   # N_24
  3  1    -1.30980797E-01   # N_31
  3  2     1.85881653E-02   # N_32
  3  3    -6.92966920E-01   # N_33
  3  4     7.08727986E-01   # N_34
  4  1    -4.08765720E-04   # N_41
  4  2     9.99680532E-01   # N_42
  4  3     1.06922286E-03   # N_43
  4  4    -2.52492235E-02   # N_44
#
BLOCK UMIX  # Chargino Mixing Matrix U
  1  1    -1.50816001E-03   # U_11
  1  2     9.99998863E-01   # U_12
  2  1    -9.99998863E-01   # U_21
  2  2    -1.50816001E-03   # U_22
#
BLOCK VMIX  # Chargino Mixing Matrix V
  1  1     3.57175795E-02   # V_11
  1  2    -9.99361924E-01   # V_12
  2  1    -9.99361924E-01   # V_21
  2  2    -3.57175795E-02   # V_22
#
BLOCK STOPMIX  # Stop Mixing Matrix
  1  1    -5.05936450E-01   # cos(theta_t)
  1  2     8.62570756E-01   # sin(theta_t)
  2  1    -8.62570756E-01   # -sin(theta_t)
  2  2    -5.05936450E-01   # cos(theta_t)
#
BLOCK SBOTMIX  # Sbottom Mixing Matrix
  1  1     9.99369768E-01   # cos(theta_b)
  1  2    -3.54974197E-02   # sin(theta_b)
  2  1     3.54974197E-02   # -sin(theta_b)
  2  2     9.99369768E-01   # cos(theta_b)
#
BLOCK STAUMIX  # Stau Mixing Matrix
  1  1    -2.21933658E-02   # cos(theta_tau)
  1  2     9.99753697E-01   # sin(theta_tau)
  2  1    -9.99753697E-01   # -sin(theta_tau)
  2  2    -2.21933658E-02   # cos(theta_tau)
#
BLOCK ALPHA  # Higgs mixing
          -1.05442435E-01   # Mixing angle in the neutral Higgs boson sector
#
BLOCK HMIX Q=  5.00075894E+03  # DRbar Higgs Parameters
         1    -1.90679162E+02   # mu(Q)MSSM           
         2     9.47335883E+00   # tan                 
         3     2.41737026E+02   # higgs               
         4     8.78846456E+06   # mA^2(Q)MSSM         
#
BLOCK GAUGE Q=  5.00075894E+03  # The gauge couplings
     1     3.71178683E-01   # gprime(Q) DRbar
     2     6.34406956E-01   # g(Q) DRbar
     3     1.00864893E+00   # g3(Q) DRbar
#
BLOCK AU Q=  5.00075894E+03  # The trilinear couplings
  1  1     5.00000001E+03   # A_u(Q) DRbar
  2  2     5.00000001E+03   # A_c(Q) DRbar
  3  3     5.00000001E+03   # A_t(Q) DRbar
#
BLOCK AD Q=  5.00075894E+03  # The trilinear couplings
  1  1     5.00000000E+03   # A_d(Q) DRbar
  2  2     5.00000000E+03   # A_s(Q) DRbar
  3  3     5.00000001E+03   # A_b(Q) DRbar
#
BLOCK AE Q=  5.00075894E+03  # The trilinear couplings
  1  1     0.00000000E+00   # A_e(Q) DRbar
  2  2     1.57667491E-08   # A_mu(Q) DRbar
  3  3     1.47730036E-08   # A_tau(Q) DRbar
#
BLOCK Yu Q=  5.00075894E+03  # The Yukawa couplings
  1  1     0.00000000E+00   # y_u(Q) DRbar
  2  2     0.00000000E+00   # y_c(Q) DRbar
  3  3     8.14801283E-01   # y_t(Q) DRbar
#
BLOCK Yd Q=  5.00075894E+03  # The Yukawa couplings
  1  1     0.00000000E+00   # y_d(Q) DRbar
  2  2     0.00000000E+00   # y_s(Q) DRbar
  3  3     1.28919440E-01   # y_b(Q) DRbar
#
BLOCK Ye Q=  5.00075894E+03  # The Yukawa couplings
  1  1     0.00000000E+00   # y_e(Q) DRbar
  2  2     0.00000000E+00   # y_mu(Q) DRbar
  3  3     9.73693538E-02   # y_tau(Q) DRbar
#
BLOCK MSOFT Q=  5.00075894E+03  # The soft SUSY breaking masses at the scale Q
         1     6.00000000E+01   # M_1(Q)              
         2     3.00000000E+03   # M_2(Q)              
         3     7.73139000E+02   # M_3(Q)              
        21     8.69754847E+06   # mH1^2(Q)            
        22     5.38130338E+05   # mH2^2(Q)            
        31     5.00000000E+03   # meL(Q)              
        32     5.00000000E+03   # mmuL(Q)             
        33     5.00000000E+03   # mtauL(Q)            
        34     5.00000000E+03   # meR(Q)              
        35     5.00000000E+03   # mmuR(Q)             
        36     5.00000000E+03   # mtauR(Q)            
        41     5.00000000E+03   # mqL1(Q)             
        42     5.00000000E+03   # mqL2(Q)             
        43     5.00000000E+03   # mqL3(Q)             
        44     5.00000000E+03   # muR(Q)              
        45     5.00000000E+03   # mcR(Q)              
        46     5.00000000E+03   # mtR(Q)              
        47     5.00000000E+03   # mdR(Q)              
        48     5.00000000E+03   # msR(Q)              
        49     5.00000000E+03   # mbR(Q)              
#
#
#
#                             =================
#                             |The decay table|
#                             =================
#
# - The QCD corrections to the decays gluino -> squark  + quark
#                                     squark -> gaugino + quark_prime
#                                     squark -> squark_prime + Higgs
#                                     squark -> gluino  + quark
#   are included.
#
# - The multi-body decays for the inos, stops and sbottoms are included.
#
# - The loop induced decays for the gluino, neutralinos and stops
#   are included.
#
# - The SUSY decays of the top quark are included.
#
#
#         PDG            Width
DECAY         6     1.41070816E+00   # top decays
#          BR         NDA      ID1       ID2
     1.00000000E+00    2           5        24   # BR(t ->  b    W+)
#
#         PDG            Width
DECAY   1000021     4.80670924E-05   # gluino decays
#          BR         NDA      ID1       ID2
     1.35690569E-04    2     1000022        21   # BR(~g -> ~chi_10 g)
     3.38562003E-02    2     1000023        21   # BR(~g -> ~chi_20 g)
     3.30450378E-02    2     1000025        21   # BR(~g -> ~chi_30 g)
#           BR         NDA      ID1       ID2       ID3
     1.37900766E-02    3     1000022         1        -1   # BR(~g -> ~chi_10 d  db)
     4.19397557E-04    3     1000023         1        -1   # BR(~g -> ~chi_20 d  db)
     1.66972032E-04    3     1000025         1        -1   # BR(~g -> ~chi_30 d  db)
     4.69297901E-02    3     1000022         2        -2   # BR(~g -> ~chi_10 u  ub)
     1.76468460E-03    3     1000023         2        -2   # BR(~g -> ~chi_20 u  ub)
     3.86695835E-04    3     1000025         2        -2   # BR(~g -> ~chi_30 u  ub)
     1.37900766E-02    3     1000022         3        -3   # BR(~g -> ~chi_10 s  sb)
     4.19397557E-04    3     1000023         3        -3   # BR(~g -> ~chi_20 s  sb)
     1.66972032E-04    3     1000025         3        -3   # BR(~g -> ~chi_30 s  sb)
     4.69297901E-02    3     1000022         4        -4   # BR(~g -> ~chi_10 c  cb)
     1.76468460E-03    3     1000023         4        -4   # BR(~g -> ~chi_20 c  cb)
     3.86695835E-04    3     1000025         4        -4   # BR(~g -> ~chi_30 c  cb)
     1.50189369E-02    3     1000022         5        -5   # BR(~g -> ~chi_10 b  bb)
     6.49273912E-03    3     1000023         5        -5   # BR(~g -> ~chi_20 b  bb)
     6.42337176E-03    3     1000025         5        -5   # BR(~g -> ~chi_30 b  bb)
     2.70280495E-02    3     1000022         6        -6   # BR(~g -> ~chi_10 t  tb)
     1.79648412E-01    3     1000023         6        -6   # BR(~g -> ~chi_20 t  tb)
     1.37015385E-01    3     1000025         6        -6   # BR(~g -> ~chi_30 t  tb)
     6.51868563E-05    3     1000024         1        -2   # BR(~g -> ~chi_1+ d  ub)
     6.51868563E-05    3    -1000024         2        -1   # BR(~g -> ~chi_1- u  db)
     6.51868563E-05    3     1000024         3        -4   # BR(~g -> ~chi_1+ s  cb)
     6.51868563E-05    3    -1000024         4        -3   # BR(~g -> ~chi_1- c  sb)
     2.17080098E-01    3     1000024         5        -6   # BR(~g -> ~chi_1+ b  tb)
     2.17080098E-01    3    -1000024         6        -5   # BR(~g -> ~chi_1- t  bb)
#
#         PDG            Width
DECAY   1000006     4.25173458E+02   # stop1 decays
#          BR         NDA      ID1       ID2
     1.80875022E-02    2     1000022         6   # BR(~t_1 -> ~chi_10 t )
     8.17718376E-02    2     1000023         6   # BR(~t_1 -> ~chi_20 t )
     7.23355577E-02    2     1000025         6   # BR(~t_1 -> ~chi_30 t )
     4.87528836E-03    2     1000035         6   # BR(~t_1 -> ~chi_40 t )
     1.12027323E-01    2     1000024         5   # BR(~t_1 -> ~chi_1+ b )
     9.71966740E-03    2     1000037         5   # BR(~t_1 -> ~chi_2+ b )
     7.01182824E-01    2     1000021         6   # BR(~t_1 -> ~g      t )
#
#         PDG            Width
DECAY   2000006     4.23129866E+02   # stop2 decays
#          BR         NDA      ID1       ID2
     1.02371348E-02    2     1000022         6   # BR(~t_2 -> ~chi_10 t )
     7.38301973E-02    2     1000023         6   # BR(~t_2 -> ~chi_20 t )
     8.51735718E-02    2     1000025         6   # BR(~t_2 -> ~chi_30 t )
     1.31060582E-02    2     1000035         6   # BR(~t_2 -> ~chi_40 t )
     4.69871298E-02    2     1000024         5   # BR(~t_2 -> ~chi_1+ b )
     2.61008088E-02    2     1000037         5   # BR(~t_2 -> ~chi_2+ b )
     7.41644463E-01    2     1000021         6   # BR(~t_2 -> ~g      t )
     6.66932424E-04    2     1000006        25   # BR(~t_2 -> ~t_1    h )
     2.25370437E-03    2     1000006        23   # BR(~t_2 -> ~t_1    Z )
#
#         PDG            Width
DECAY   1000005     4.00902359E+02   # sbottom1 decays
#          BR         NDA      ID1       ID2
     2.11248231E-03    2     1000022         5   # BR(~b_1 -> ~chi_10 b )
     1.90182991E-03    2     1000023         5   # BR(~b_1 -> ~chi_20 b )
     2.03072054E-03    2     1000025         5   # BR(~b_1 -> ~chi_30 b )
     1.88926521E-02    2     1000035         5   # BR(~b_1 -> ~chi_40 b )
     1.65905824E-01    2    -1000024         6   # BR(~b_1 -> ~chi_1- t )
     3.79256369E-02    2    -1000037         6   # BR(~b_1 -> ~chi_2- t )
     7.69832730E-01    2     1000021         5   # BR(~b_1 -> ~g      b )
     1.39812393E-03    2     1000006       -24   # BR(~b_1 -> ~t_1    W-)
#
#         PDG            Width
DECAY   2000005     3.17223807E+02   # sbottom2 decays
#          BR         NDA      ID1       ID2
     9.00180922E-03    2     1000022         5   # BR(~b_2 -> ~chi_10 b )
     2.91199400E-03    2     1000023         5   # BR(~b_2 -> ~chi_20 b )
     2.78881995E-03    2     1000025         5   # BR(~b_2 -> ~chi_30 b )
     2.83653896E-05    2     1000035         5   # BR(~b_2 -> ~chi_40 b )
     5.54564328E-03    2    -1000024         6   # BR(~b_2 -> ~chi_1- t )
     5.69549509E-05    2    -1000037         6   # BR(~b_2 -> ~chi_2- t )
     9.79657567E-01    2     1000021         5   # BR(~b_2 -> ~g      b )
     8.84641725E-06    2     1000006       -24   # BR(~b_2 -> ~t_1    W-)
#
#         PDG            Width
DECAY   1000002     3.36426740E+02   # sup_L decays
#          BR         NDA      ID1       ID2
     2.09290004E-03    2     1000022         2   # BR(~u_L -> ~chi_10 u)
     1.77020606E-04    2     1000023         2   # BR(~u_L -> ~chi_20 u)
     2.82471378E-06    2     1000025         2   # BR(~u_L -> ~chi_30 u)
     2.33406644E-02    2     1000035         2   # BR(~u_L -> ~chi_40 u)
     1.48951954E-04    2     1000024         1   # BR(~u_L -> ~chi_1+ d)
     4.66530861E-02    2     1000037         1   # BR(~u_L -> ~chi_2+ d)
     9.27584552E-01    2     1000021         2   # BR(~u_L -> ~g      u)
#
#         PDG            Width
DECAY   2000002     3.22732345E+02   # sup_R decays
#          BR         NDA      ID1       ID2
     3.49694071E-02    2     1000022         2   # BR(~u_R -> ~chi_10 u)
     1.39722608E-03    2     1000023         2   # BR(~u_R -> ~chi_20 u)
     6.33016393E-04    2     1000025         2   # BR(~u_R -> ~chi_30 u)
     2.44722627E-09    2     1000035         2   # BR(~u_R -> ~chi_40 u)
     9.63000348E-01    2     1000021         2   # BR(~u_R -> ~g      u)
#
#         PDG            Width
DECAY   1000001     3.36434796E+02   # sdown_L decays
#          BR         NDA      ID1       ID2
     2.11533171E-03    2     1000022         1   # BR(~d_L -> ~chi_10 d)
     2.53326107E-05    2     1000023         1   # BR(~d_L -> ~chi_20 d)
     1.13694580E-04    2     1000025         1   # BR(~d_L -> ~chi_30 d)
     2.33548903E-02    2     1000035         1   # BR(~d_L -> ~chi_40 d)
     2.65587749E-07    2    -1000024         2   # BR(~d_L -> ~chi_1- u)
     4.67261387E-02    2    -1000037         2   # BR(~d_L -> ~chi_2- u)
     9.27664347E-01    2     1000021         1   # BR(~d_L -> ~g      d)
#
#         PDG            Width
DECAY   2000001     3.13799133E+02   # sdown_R decays
#          BR         NDA      ID1       ID2
     8.99178558E-03    2     1000022         1   # BR(~d_R -> ~chi_10 d)
     3.59272941E-04    2     1000023         1   # BR(~d_R -> ~chi_20 d)
     1.62769408E-04    2     1000025         1   # BR(~d_R -> ~chi_30 d)
     6.29353587E-10    2     1000035         1   # BR(~d_R -> ~chi_40 d)
     9.90486171E-01    2     1000021         1   # BR(~d_R -> ~g      d)
#
#         PDG            Width
DECAY   1000004     3.36426740E+02   # scharm_L decays
#          BR         NDA      ID1       ID2
     2.09290004E-03    2     1000022         4   # BR(~c_L -> ~chi_10 c)
     1.77020606E-04    2     1000023         4   # BR(~c_L -> ~chi_20 c)
     2.82471378E-06    2     1000025         4   # BR(~c_L -> ~chi_30 c)
     2.33406644E-02    2     1000035         4   # BR(~c_L -> ~chi_40 c)
     1.48951954E-04    2     1000024         3   # BR(~c_L -> ~chi_1+ s)
     4.66530861E-02    2     1000037         3   # BR(~c_L -> ~chi_2+ s)
     9.27584552E-01    2     1000021         4   # BR(~c_L -> ~g      c)
#
#         PDG            Width
DECAY   2000004     3.22732345E+02   # scharm_R decays
#          BR         NDA      ID1       ID2
     3.49694071E-02    2     1000022         4   # BR(~c_R -> ~chi_10 c)
     1.39722608E-03    2     1000023         4   # BR(~c_R -> ~chi_20 c)
     6.33016393E-04    2     1000025         4   # BR(~c_R -> ~chi_30 c)
     2.44722627E-09    2     1000035         4   # BR(~c_R -> ~chi_40 c)
     9.63000348E-01    2     1000021         4   # BR(~c_R -> ~g      c)
#
#         PDG            Width
DECAY   1000003     3.36434796E+02   # sstrange_L decays
#          BR         NDA      ID1       ID2
     2.11533171E-03    2     1000022         3   # BR(~s_L -> ~chi_10 s)
     2.53326107E-05    2     1000023         3   # BR(~s_L -> ~chi_20 s)
     1.13694580E-04    2     1000025         3   # BR(~s_L -> ~chi_30 s)
     2.33548903E-02    2     1000035         3   # BR(~s_L -> ~chi_40 s)
     2.65587749E-07    2    -1000024         4   # BR(~s_L -> ~chi_1- c)
     4.67261387E-02    2    -1000037         4   # BR(~s_L -> ~chi_2- c)
     9.27664347E-01    2     1000021         3   # BR(~s_L -> ~g      s)
#
#         PDG            Width
DECAY   2000003     3.13799133E+02   # sstrange_R decays
#          BR         NDA      ID1       ID2
     8.99178558E-03    2     1000022         3   # BR(~s_R -> ~chi_10 s)
     3.59272941E-04    2     1000023         3   # BR(~s_R -> ~chi_20 s)
     1.62769408E-04    2     1000025         3   # BR(~s_R -> ~chi_30 s)
     6.29353587E-10    2     1000035         3   # BR(~s_R -> ~chi_40 s)
     9.90486171E-01    2     1000021         3   # BR(~s_R -> ~g      s)
#
#         PDG            Width
DECAY   1000011     3.04215562E+01   # selectron_L decays
#          BR         NDA      ID1       ID2
     2.13231875E-01    2     1000022        11   # BR(~e_L -> ~chi_10 e-)
     1.12927860E-02    2     1000023        11   # BR(~e_L -> ~chi_20 e-)
     2.21809520E-03    2     1000025        11   # BR(~e_L -> ~chi_30 e-)
     2.57582385E-01    2     1000035        11   # BR(~e_L -> ~chi_40 e-)
     2.99523448E-06    2    -1000024        12   # BR(~e_L -> ~chi_1- nu_e)
     5.15671864E-01    2    -1000037        12   # BR(~e_L -> ~chi_2- nu_e)
#
#         PDG            Width
DECAY   2000011     2.74296968E+01   # selectron_R decays
#          BR         NDA      ID1       ID2
     9.45136617E-01    2     1000022        11   # BR(~e_R -> ~chi_10 e-)
     3.77573041E-02    2     1000023        11   # BR(~e_R -> ~chi_20 e-)
     1.71060137E-02    2     1000025        11   # BR(~e_R -> ~chi_30 e-)
     6.48480789E-08    2     1000035        11   # BR(~e_R -> ~chi_40 e-)
#
#         PDG            Width
DECAY   1000013     3.04215562E+01   # smuon_L decays
#          BR         NDA      ID1       ID2
     2.13231875E-01    2     1000022        13   # BR(~mu_L -> ~chi_10 mu-)
     1.12927860E-02    2     1000023        13   # BR(~mu_L -> ~chi_20 mu-)
     2.21809520E-03    2     1000025        13   # BR(~mu_L -> ~chi_30 mu-)
     2.57582385E-01    2     1000035        13   # BR(~mu_L -> ~chi_40 mu-)
     2.99523448E-06    2    -1000024        14   # BR(~mu_L -> ~chi_1- nu_mu)
     5.15671864E-01    2    -1000037        14   # BR(~mu_L -> ~chi_2- nu_mu)
#
#         PDG            Width
DECAY   2000013     2.74296968E+01   # smuon_R decays
#          BR         NDA      ID1       ID2
     9.45136617E-01    2     1000022        13   # BR(~mu_R -> ~chi_10 mu-)
     3.77573041E-02    2     1000023        13   # BR(~mu_R -> ~chi_20 mu-)
     1.71060137E-02    2     1000025        13   # BR(~mu_R -> ~chi_30 mu-)
     6.48480789E-08    2     1000035        13   # BR(~mu_R -> ~chi_40 mu-)
#
#         PDG            Width
DECAY   1000015     2.93060489E+01   # stau_1 decays
#          BR         NDA      ID1       ID2
     8.86665273E-01    2     1000022        15   # BR(~tau_1 -> ~chi_10  tau-)
     4.98721690E-02    2     1000023        15   # BR(~tau_1 -> ~chi_20  tau-)
     3.09842269E-02    2     1000025        15   # BR(~tau_1 -> ~chi_30  tau-)
     1.33229739E-04    2     1000035        15   # BR(~tau_1 -> ~chi_40  tau-)
     3.20785288E-02    2    -1000024        16   # BR(~tau_1 -> ~chi_1-  nu_tau)
     2.66572087E-04    2    -1000037        16   # BR(~tau_1 -> ~chi_2-  nu_tau)
#
#         PDG            Width
DECAY   2000015     3.13552175E+01   # stau_2 decays
#          BR         NDA      ID1       ID2
     2.07956778E-01    2     1000022        15   # BR(~tau_2 -> ~chi_10  tau-)
     2.54201084E-02    2     1000023        15   # BR(~tau_2 -> ~chi_20  tau-)
     1.70122639E-02    2     1000025        15   # BR(~tau_2 -> ~chi_30  tau-)
     2.49696098E-01    2     1000035        15   # BR(~tau_2 -> ~chi_40  tau-)
     3.08488405E-05    2    -1000024        16   # BR(~tau_2 -> ~chi_1-  nu_tau)
     4.99883902E-01    2    -1000037        16   # BR(~tau_2 -> ~chi_2-  nu_tau)
#
#         PDG            Width
DECAY   1000012     3.04244988E+01   # snu_eL decays
#          BR         NDA      ID1       ID2
     2.13924550E-01    2     1000022        12   # BR(~nu_eL -> ~chi_10 nu_e)
     6.15850918E-03    2     1000023        12   # BR(~nu_eL -> ~chi_20 nu_e)
     5.96743696E-03    2     1000025        12   # BR(~nu_eL -> ~chi_30 nu_e)
     2.57637470E-01    2     1000035        12   # BR(~nu_eL -> ~chi_40 nu_e)
     1.67948059E-03    2     1000024        11   # BR(~nu_eL -> ~chi_1+ e-)
     5.14632554E-01    2     1000037        11   # BR(~nu_eL -> ~chi_2+ e-)
#
#         PDG            Width
DECAY   1000014     3.04244988E+01   # snu_muL decays
#          BR         NDA      ID1       ID2
     2.13924550E-01    2     1000022        14   # BR(~nu_muL -> ~chi_10 nu_mu)
     6.15850918E-03    2     1000023        14   # BR(~nu_muL -> ~chi_20 nu_mu)
     5.96743696E-03    2     1000025        14   # BR(~nu_muL -> ~chi_30 nu_mu)
     2.57637470E-01    2     1000035        14   # BR(~nu_muL -> ~chi_40 nu_mu)
     1.67948059E-03    2     1000024        13   # BR(~nu_muL -> ~chi_1+ mu-)
     5.14632554E-01    2     1000037        13   # BR(~nu_muL -> ~chi_2+ mu-)
#
#         PDG            Width
DECAY   1000016     3.13582884E+01   # snu_tauL decays
#          BR         NDA      ID1       ID2
     2.07531314E-01    2     1000022        16   # BR(~nu_tauL -> ~chi_10 nu_tau)
     5.97445521E-03    2     1000023        16   # BR(~nu_tauL -> ~chi_20 nu_tau)
     5.78909337E-03    2     1000025        16   # BR(~nu_tauL -> ~chi_30 nu_tau)
     2.49871413E-01    2     1000035        16   # BR(~nu_tauL -> ~chi_40 nu_tau)
     3.17140782E-02    2     1000024        15   # BR(~nu_tauL -> ~chi_1+ tau-)
     4.99119647E-01    2     1000037        15   # BR(~nu_tauL -> ~chi_2+ tau-)
#
#         PDG            Width
DECAY   1000024     8.36610193E-02   # chargino1+ decays
#          BR         NDA      ID1       ID2
     1.00000000E+00    2     1000022        24   # BR(~chi_1+ -> ~chi_10  W+)
#
#         PDG            Width
DECAY   1000037     2.33162653E+01   # chargino2+ decays
#          BR         NDA      ID1       ID2
     2.53799485E-01    2     1000024        23   # BR(~chi_2+ -> ~chi_1+  Z )
     7.56314426E-04    2     1000022        24   # BR(~chi_2+ -> ~chi_10  W+)
     2.44887335E-01    2     1000023        24   # BR(~chi_2+ -> ~chi_20  W+)
     2.44916315E-01    2     1000025        24   # BR(~chi_2+ -> ~chi_30  W+)
     2.55603029E-01    2     1000024        25   # BR(~chi_2+ -> ~chi_1+  h )
     3.75214405E-05    2     1000022        37   # BR(~chi_2+ -> ~chi_10  H+)
#
#         PDG            Width
DECAY   1000022     0.00000000E+00   # neutralino1 decays
#
#         PDG            Width
DECAY   1000023     6.62600549E-02   # neutralino2 decays
#          BR         NDA      ID1       ID2
     5.78429032E-01    2     1000022        23   # BR(~chi_20 -> ~chi_10   Z )
     4.21570968E-01    2     1000022        25   # BR(~chi_20 -> ~chi_10   h )
#
#         PDG            Width
DECAY   1000025     4.90149365E-02   # neutralino3 decays
#          BR         NDA      ID1       ID2
     8.99308694E-01    2     1000022        23   # BR(~chi_30 -> ~chi_10   Z )
     1.00691306E-01    2     1000022        25   # BR(~chi_30 -> ~chi_10   h )
#
#         PDG            Width
DECAY   1000035     2.33185351E+01   # neutralino4 decays
#          BR         NDA      ID1       ID2
     7.78625290E-04    2     1000022        23   # BR(~chi_40 -> ~chi_10   Z )
     1.35969318E-01    2     1000023        23   # BR(~chi_40 -> ~chi_20   Z )
     1.16868012E-01    2     1000025        23   # BR(~chi_40 -> ~chi_30   Z )
     2.45493782E-01    2     1000024       -24   # BR(~chi_40 -> ~chi_1+   W-)
     2.45493782E-01    2    -1000024        24   # BR(~chi_40 -> ~chi_1-   W+)
     1.16203065E-05    2     1000022        25   # BR(~chi_40 -> ~chi_10   h )
     3.59955510E-05    2     1000022        35   # BR(~chi_40 -> ~chi_10   H )
     3.93160480E-06    2     1000022        36   # BR(~chi_40 -> ~chi_10   A )
     1.18285231E-01    2     1000023        25   # BR(~chi_40 -> ~chi_20   h )
     1.37059703E-01    2     1000025        25   # BR(~chi_40 -> ~chi_30   h )
#
#         PDG            Width
DECAY        25     4.03242160E-03   # h decays
#          BR         NDA      ID1       ID2
     6.17802540E-01    2           5        -5   # BR(h -> b       bb     )
     6.40848095E-02    2         -15        15   # BR(h -> tau+    tau-   )
     2.26885637E-04    2         -13        13   # BR(h -> mu+     mu-    )
     4.81341333E-04    2           3        -3   # BR(h -> s       sb     )
     2.08545571E-02    2           4        -4   # BR(h -> c       cb     )
     6.69120444E-02    2          21        21   # BR(h -> g       g      )
     2.28658014E-03    2          22        22   # BR(h -> gam     gam    )
     1.43642228E-03    2          22        23   # BR(h -> Z       gam    )
     2.01050009E-01    2          24       -24   # BR(h -> W+      W-     )
     2.37419495E-02    2          23        23   # BR(h -> Z       Z      )
     1.12286040E-03    2     1000022   1000022   # BR(h -> ~chi_10 ~chi_10)
#
#         PDG            Width
DECAY        35     8.82576136E+00   # H decays
#          BR         NDA      ID1       ID2
     3.59911914E-01    2           5        -5   # BR(H -> b       bb     )
     6.31703048E-02    2         -15        15   # BR(H -> tau+    tau-   )
     2.23375215E-04    2         -13        13   # BR(H -> mu+     mu-    )
     2.73823729E-04    2           3        -3   # BR(H -> s       sb     )
     1.52962537E-06    2           4        -4   # BR(H -> c       cb     )
     1.52821699E-01    2           6        -6   # BR(H -> t       tb     )
     5.08304304E-05    2          21        21   # BR(H -> g       g      )
     1.46338486E-07    2          22        22   # BR(H -> gam     gam    )
     9.00318969E-08    2          23        22   # BR(H -> Z       gam    )
     7.43155288E-05    2          24       -24   # BR(H -> W+      W-     )
     3.71107037E-05    2          23        23   # BR(H -> Z       Z      )
     2.66116240E-04    2          25        25   # BR(H -> h       h      )
    -1.70053320E-23    2          36        36   # BR(H -> A       A      )
     9.92475459E-19    2          23        36   # BR(H -> Z       A      )
     3.48146225E-03    2     1000024  -1000024   # BR(H -> ~chi_1+ ~chi_1-)
     4.37127512E-02    2     1000022   1000022   # BR(H -> ~chi_10 ~chi_10)
     1.24573816E-02    2     1000023   1000023   # BR(H -> ~chi_20 ~chi_20)
     8.48567579E-03    2     1000025   1000025   # BR(H -> ~chi_30 ~chi_30)
     2.02187819E-01    2     1000022   1000023   # BR(H -> ~chi_10 ~chi_20)
     1.31645455E-01    2     1000022   1000025   # BR(H -> ~chi_10 ~chi_30)
     2.11981991E-02    2     1000023   1000025   # BR(H -> ~chi_20 ~chi_30)
#
#         PDG            Width
DECAY        36     8.83079210E+00   # A decays
#          BR         NDA      ID1       ID2
     3.59830165E-01    2           5        -5   # BR(A -> b       bb     )
     6.31361413E-02    2         -15        15   # BR(A -> tau+    tau-   )
     2.23254099E-04    2         -13        13   # BR(A -> mu+     mu-    )
     2.73875222E-04    2           3        -3   # BR(A -> s       sb     )
     1.53479887E-06    2           4        -4   # BR(A -> c       cb     )
     1.53253960E-01    2           6        -6   # BR(A -> t       tb     )
     1.51705840E-04    2          21        21   # BR(A -> g       g      )
     5.32796877E-07    2          22        22   # BR(A -> gam     gam    )
     1.83399440E-07    2          23        22   # BR(A -> Z       gam    )
     7.39947098E-05    2          23        25   # BR(A -> Z       h      )
     3.60631725E-03    2     1000024  -1000024   # BR(A -> ~chi_1+ ~chi_1-)
     4.02575756E-02    2     1000022   1000022   # BR(A -> ~chi_10 ~chi_10)
     8.19439983E-03    2     1000023   1000023   # BR(A -> ~chi_20 ~chi_20)
     1.33413514E-02    2     1000025   1000025   # BR(A -> ~chi_30 ~chi_30)
     1.28463823E-01    2     1000022   1000023   # BR(A -> ~chi_10 ~chi_20)
     2.08420220E-01    2     1000022   1000025   # BR(A -> ~chi_10 ~chi_30)
     2.07709661E-02    2     1000023   1000025   # BR(A -> ~chi_20 ~chi_30)
#
#         PDG            Width
DECAY        37     8.75415502E+00   # H+ decays
#          BR         NDA      ID1       ID2
     5.74706425E-04    2           4        -5   # BR(H+ -> c       bb     )
     6.37203366E-02    2         -15        16   # BR(H+ -> tau+    nu_tau )
     2.25319856E-04    2         -13        14   # BR(H+ -> mu+     nu_mu  )
     3.67810167E-06    2           2        -5   # BR(H+ -> u       bb     )
     1.32209521E-05    2           2        -3   # BR(H+ -> u       sb     )
     2.73407895E-04    2           4        -3   # BR(H+ -> c       sb     )
     5.10598857E-01    2           6        -5   # BR(H+ -> t       bb     )
     7.48014287E-05    2          24        25   # BR(H+ -> W+      h      )
     1.07580285E-12    2          24        36   # BR(H+ -> W+      A      )
     3.98457646E-01    2     1000024   1000022   # BR(H+ -> ~chi_1+ ~chi_10)
     2.18083322E-02    2     1000024   1000023   # BR(H+ -> ~chi_1+ ~chi_20)
     4.24969448E-03    2     1000024   1000025   # BR(H+ -> ~chi_1+ ~chi_30)
