#
#                              ======================
#                              | THE SUSYHIT OUTPUT |
#                              ======================
#
#
#              ------------------------------------------------------
#              |     This is the output of the SUSY-HIT package     |
#              |  created by A.Djouadi, M.Muehlleitner and M.Spira. |
#              |  In case of problems with SUSY-HIT email to        |
#              |           margarete.muehlleitner@cern.ch           |
#              |           michael.spira@psi.ch                     |
#              |           abdelhak.djouadi@cern.ch                 |
#              ------------------------------------------------------
#
#              ------------------------------------------------------
#              |  SUSY Les Houches Accord - MSSM Spectrum + Decays  |
#              |              based on the decay programs           |
#              |                                                    |
#              |                     SDECAY 1.3b                    |
#              |                                                    |
#              |  Authors: M.Muhlleitner, A.Djouadi and Y.Mambrini  |
#              |  Ref.:    Comput.Phys.Commun.168(2005)46           |
#              |           [hep-ph/0311167]                         |
#              |                                                    |
#              |                     HDECAY 3.4                     |
#              |                                                    |
#              |  By: A.Djouadi,J.Kalinowski,M.Muhlleitner,M.Spira  |
#              |  Ref.:    Comput.Phys.Commun.108(1998)56           |
#              |           [hep-ph/9704448]                         |
#              |                                                    |
#              |                                                    |
#              |  If not stated otherwise all DRbar couplings and   |
#              |  soft SUSY breaking masses are given at the scale  |
#              |  Q=  0.50007624E+04
#              |                                                    |
#              ------------------------------------------------------
#
#
BLOCK DCINFO  # Decay Program information
     1   SDECAY/HDECAY # decay calculator
     2   1.3b  /3.4    # version number
#
BLOCK SPINFO  # Spectrum calculator information
     1    SOFTSUSY    # spectrum calculator                
     2    3.4.0       # version number                     
#
BLOCK MODSEL  # Model selection
     1     0   #  nonUniversal                                     
#
BLOCK SMINPUTS  # Standard Model inputs
         1     1.25778332E+02   # alpha_em^-1(M_Z)^MSbar
         2     1.16570000E-05   # G_F [GeV^-2]
         3     1.17200002E-01   # alpha_S(M_Z)^MSbar
         4     9.11876000E+01   # M_Z pole mass
         5     4.25000000E+00   # mb(mb)^MSbar
         6     1.72500000E+02   # mt pole mass
         7     1.77682000E+00   # mtau pole mass
#
BLOCK MINPAR  # Input parameters - minimal models
         3     1.00000000E+01   # tanb                
#
BLOCK EXTPAR  # Input parameters - non-minimal models
         0    -1.00000000E+00   # Set                 
         1     6.00000000E+01   # M_1(MX)             
         2     3.00000000E+03   # M_2(MX)             
         3     2.04381300E+03   # M_3(MX)             
        11     5.00000000E+03   # At(MX)              
        12     5.00000000E+03   # Ab(MX)              
        13     0.00000000E+00   # Atau(MX)            
        23    -4.74877000E+02   # mu(MX)              
        26     3.00000000E+03   # mA(pole)            
        31     5.00000000E+03   # meL(MX)             
        32     5.00000000E+03   # mmuL(MX)            
        33     5.00000000E+03   # mtauL(MX)           
        34     5.00000000E+03   # meR(MX)             
        35     5.00000000E+03   # mmuR(MX)            
        36     5.00000000E+03   # mtauR(MX)           
        41     5.00000000E+03   # mqL1(MX)            
        42     5.00000000E+03   # mqL2(MX)            
        43     5.00000000E+03   # mqL3(MX)            
        44     5.00000000E+03   # muR(MX)             
        45     5.00000000E+03   # mcR(MX)             
        46     5.00000000E+03   # mtR(MX)             
        47     5.00000000E+03   # mdR(MX)             
        48     5.00000000E+03   # msR(MX)             
        49     5.00000000E+03   # mbR(MX)             
#
BLOCK MASS  # Mass Spectrum
# PDG code           mass       particle
        24     8.00932777E+01   # W+
        25     1.24798298E+02   # h
        35     3.00008590E+03   # H
        36     2.99999945E+03   # A
        37     3.00143019E+03   # H+
         5     4.87878001E+00   # b-quark pole mass calculated from mb(mb)_Msbar
   1000001     5.07813303E+03   # ~d_L
   2000001     5.06031355E+03   # ~d_R
   1000002     5.07766059E+03   # ~u_L
   2000002     5.06001407E+03   # ~u_R
   1000003     5.07813303E+03   # ~s_L
   2000003     5.06031355E+03   # ~s_R
   1000004     5.07766059E+03   # ~c_L
   2000004     5.06001407E+03   # ~c_R
   1000005     5.02393623E+03   # ~b_1
   2000005     5.05853405E+03   # ~b_2
   1000006     4.91558797E+03   # ~t_1
   2000006     5.06726555E+03   # ~t_2
   1000011     5.01910754E+03   # ~e_L
   2000011     5.00594369E+03   # ~e_R
   1000012     5.01815742E+03   # ~nu_eL
   1000013     5.01910754E+03   # ~mu_L
   2000013     5.00594369E+03   # ~mu_R
   1000014     5.01815742E+03   # ~nu_muL
   1000015     5.00477440E+03   # ~tau_1
   2000015     5.01863184E+03   # ~tau_2
   1000016     5.01760579E+03   # ~nu_tauL
   1000021     2.40000010E+03   # ~g
   1000022     6.02023623E+01   # ~chi_10
   1000023     5.00513016E+02   # ~chi_20
   1000025    -5.02707504E+02   # ~chi_30
   1000035     3.07417607E+03   # ~chi_40
   1000024     5.00000649E+02   # ~chi_1+
   1000037     3.07434376E+03   # ~chi_2+
#
BLOCK NMIX  # Neutralino Mixing Matrix
  1  1     9.96029290E-01   # N_11
  1  2     2.24962373E-04   # N_12
  1  3    -8.90128448E-02   # N_13
  1  4    -1.52173534E-03   # N_14
  2  1     6.40534701E-02   # N_21
  2  2     1.90063650E-02   # N_22
  2  3     7.04713427E-01   # N_23
  2  4     7.06339080E-01   # N_24
  3  1    -6.18276147E-02   # N_31
  3  2     1.70140230E-02   # N_32
  3  3    -7.03884751E-01   # N_33
  3  4     7.07413688E-01   # N_34
  4  1    -3.89683105E-04   # N_41
  4  2     9.99674562E-01   # N_42
  4  3    -1.39855989E-03   # N_43
  4  4    -2.54688373E-02   # N_44
#
BLOCK UMIX  # Chargino Mixing Matrix U
  1  1     1.98311340E-03   # U_11
  1  2     9.99998034E-01   # U_12
  2  1    -9.99998034E-01   # U_21
  2  2     1.98311340E-03   # U_22
#
BLOCK VMIX  # Chargino Mixing Matrix V
  1  1     3.60386446E-02   # V_11
  1  2    -9.99350397E-01   # V_12
  2  1    -9.99350397E-01   # V_21
  2  2    -3.60386446E-02   # V_22
#
BLOCK STOPMIX  # Stop Mixing Matrix
  1  1    -5.02270027E-01   # cos(theta_t)
  1  2     8.64710830E-01   # sin(theta_t)
  2  1    -8.64710830E-01   # -sin(theta_t)
  2  2    -5.02270027E-01   # cos(theta_t)
#
BLOCK SBOTMIX  # Sbottom Mixing Matrix
  1  1     9.98770587E-01   # cos(theta_b)
  1  2    -4.95713077E-02   # sin(theta_b)
  2  1     4.95713077E-02   # -sin(theta_b)
  2  2     9.98770587E-01   # cos(theta_b)
#
BLOCK STAUMIX  # Stau Mixing Matrix
  1  1    -5.69195227E-02   # cos(theta_tau)
  1  2     9.98378770E-01   # sin(theta_tau)
  2  1    -9.98378770E-01   # -sin(theta_tau)
  2  2    -5.69195227E-02   # cos(theta_tau)
#
BLOCK ALPHA  # Higgs mixing
          -1.05491646E-01   # Mixing angle in the neutral Higgs boson sector
#
BLOCK HMIX Q=  5.00076241E+03  # DRbar Higgs Parameters
         1    -4.83586146E+02   # mu(Q)MSSM           
         2     9.46870065E+00   # tan                 
         3     2.41746920E+02   # higgs               
         4     8.67847548E+06   # mA^2(Q)MSSM         
#
BLOCK GAUGE Q=  5.00076241E+03  # The gauge couplings
     1     3.70948060E-01   # gprime(Q) DRbar
     2     6.33306258E-01   # g(Q) DRbar
     3     9.95820942E-01   # g3(Q) DRbar
#
BLOCK AU Q=  5.00076241E+03  # The trilinear couplings
  1  1     5.00000002E+03   # A_u(Q) DRbar
  2  2     5.00000002E+03   # A_c(Q) DRbar
  3  3     5.00000002E+03   # A_t(Q) DRbar
#
BLOCK AD Q=  5.00076241E+03  # The trilinear couplings
  1  1     5.00000001E+03   # A_d(Q) DRbar
  2  2     5.00000001E+03   # A_s(Q) DRbar
  3  3     5.00000001E+03   # A_b(Q) DRbar
#
BLOCK AE Q=  5.00076241E+03  # The trilinear couplings
  1  1     0.00000000E+00   # A_e(Q) DRbar
  2  2     2.32166784E-07   # A_mu(Q) DRbar
  3  3     2.32034376E-07   # A_tau(Q) DRbar
#
BLOCK Yu Q=  5.00076241E+03  # The Yukawa couplings
  1  1     0.00000000E+00   # y_u(Q) DRbar
  2  2     0.00000000E+00   # y_c(Q) DRbar
  3  3     8.21191576E-01   # y_t(Q) DRbar
#
BLOCK Yd Q=  5.00076241E+03  # The Yukawa couplings
  1  1     0.00000000E+00   # y_d(Q) DRbar
  2  2     0.00000000E+00   # y_s(Q) DRbar
  3  3     1.30272380E-01   # y_b(Q) DRbar
#
BLOCK Ye Q=  5.00076241E+03  # The Yukawa couplings
  1  1     0.00000000E+00   # y_e(Q) DRbar
  2  2     0.00000000E+00   # y_mu(Q) DRbar
  3  3     9.71360406E-02   # y_tau(Q) DRbar
#
BLOCK MSOFT Q=  5.00076241E+03  # The soft SUSY breaking masses at the scale Q
         1     6.00000000E+01   # M_1(Q)              
         2     3.00000000E+03   # M_2(Q)              
         3     2.04381300E+03   # M_3(Q)              
        21     8.49018819E+06   # mH1^2(Q)            
        22     3.43447014E+05   # mH2^2(Q)            
        31     5.00000000E+03   # meL(Q)              
        32     5.00000000E+03   # mmuL(Q)             
        33     5.00000000E+03   # mtauL(Q)            
        34     5.00000000E+03   # meR(Q)              
        35     5.00000000E+03   # mmuR(Q)             
        36     5.00000000E+03   # mtauR(Q)            
        41     5.00000000E+03   # mqL1(Q)             
        42     5.00000000E+03   # mqL2(Q)             
        43     4.99999999E+03   # mqL3(Q)             
        44     5.00000000E+03   # muR(Q)              
        45     5.00000000E+03   # mcR(Q)              
        46     4.99999999E+03   # mtR(Q)              
        47     5.00000000E+03   # mdR(Q)              
        48     5.00000000E+03   # msR(Q)              
        49     5.00000000E+03   # mbR(Q)              
#
#
#
#                             =================
#                             |The decay table|
#                             =================
#
# - The QCD corrections to the decays gluino -> squark  + quark
#                                     squark -> gaugino + quark_prime
#                                     squark -> squark_prime + Higgs
#                                     squark -> gluino  + quark
#   are included.
#
# - The multi-body decays for the inos, stops and sbottoms are included.
#
# - The loop induced decays for the gluino, neutralinos and stops
#   are included.
#
# - The SUSY decays of the top quark are included.
#
#
#         PDG            Width
DECAY         6     1.40558471E+00   # top decays
#          BR         NDA      ID1       ID2
     1.00000000E+00    2           5        24   # BR(t ->  b    W+)
#
#         PDG            Width
DECAY   1000021     5.53306082E-03   # gluino decays
#          BR         NDA      ID1       ID2
     3.67970137E-07    2     1000022        21   # BR(~g -> ~chi_10 g)
     4.67401749E-03    2     1000023        21   # BR(~g -> ~chi_20 g)
     4.54722043E-03    2     1000025        21   # BR(~g -> ~chi_30 g)
#           BR         NDA      ID1       ID2       ID3
     1.09359661E-02    3     1000022         1        -1   # BR(~g -> ~chi_10 d  db)
     3.53103606E-05    3     1000023         1        -1   # BR(~g -> ~chi_20 d  db)
     4.15188107E-05    3     1000025         1        -1   # BR(~g -> ~chi_30 d  db)
     3.72955890E-02    3     1000022         2        -2   # BR(~g -> ~chi_10 u  ub)
     1.84231066E-04    3     1000023         2        -2   # BR(~g -> ~chi_20 u  ub)
     6.91103956E-05    3     1000025         2        -2   # BR(~g -> ~chi_30 u  ub)
     1.09359661E-02    3     1000022         3        -3   # BR(~g -> ~chi_10 s  sb)
     3.53103606E-05    3     1000023         3        -3   # BR(~g -> ~chi_20 s  sb)
     4.15188107E-05    3     1000025         3        -3   # BR(~g -> ~chi_30 s  sb)
     3.72955890E-02    3     1000022         4        -4   # BR(~g -> ~chi_10 c  cb)
     1.84231066E-04    3     1000023         4        -4   # BR(~g -> ~chi_20 c  cb)
     6.91103956E-05    3     1000025         4        -4   # BR(~g -> ~chi_30 c  cb)
     1.11927192E-02    3     1000022         5        -5   # BR(~g -> ~chi_10 b  bb)
     5.30378258E-03    3     1000023         5        -5   # BR(~g -> ~chi_20 b  bb)
     5.27868249E-03    3     1000025         5        -5   # BR(~g -> ~chi_30 b  bb)
     3.75432236E-02    3     1000022         6        -6   # BR(~g -> ~chi_10 t  tb)
     2.07562803E-01    3     1000023         6        -6   # BR(~g -> ~chi_20 t  tb)
     1.96347790E-01    3     1000025         6        -6   # BR(~g -> ~chi_30 t  tb)
     5.45184415E-05    3     1000024         1        -2   # BR(~g -> ~chi_1+ d  ub)
     5.45184415E-05    3    -1000024         2        -1   # BR(~g -> ~chi_1- u  db)
     5.45184415E-05    3     1000024         3        -4   # BR(~g -> ~chi_1+ s  cb)
     5.45184415E-05    3    -1000024         4        -3   # BR(~g -> ~chi_1- c  sb)
     2.15103934E-01    3     1000024         5        -6   # BR(~g -> ~chi_1+ b  tb)
     2.15103934E-01    3    -1000024         6        -5   # BR(~g -> ~chi_1- t  bb)
#
#         PDG            Width
DECAY   1000006     3.11399872E+02   # stop1 decays
#          BR         NDA      ID1       ID2
     2.82817503E-02    2     1000022         6   # BR(~t_1 -> ~chi_10 t )
     1.05350593E-01    2     1000023         6   # BR(~t_1 -> ~chi_20 t )
     9.96776898E-02    2     1000025         6   # BR(~t_1 -> ~chi_30 t )
     6.46754485E-03    2     1000035         6   # BR(~t_1 -> ~chi_40 t )
     1.53607747E-01    2     1000024         5   # BR(~t_1 -> ~chi_1+ b )
     1.28927826E-02    2     1000037         5   # BR(~t_1 -> ~chi_2+ b )
     5.93721892E-01    2     1000021         6   # BR(~t_1 -> ~g      t )
#
#         PDG            Width
DECAY   2000006     3.17757556E+02   # stop2 decays
#          BR         NDA      ID1       ID2
     1.08517654E-02    2     1000022         6   # BR(~t_2 -> ~chi_10 t )
     1.03181459E-01    2     1000023         6   # BR(~t_2 -> ~chi_20 t )
     1.09426878E-01    2     1000025         6   # BR(~t_2 -> ~chi_30 t )
     1.78171784E-02    2     1000035         6   # BR(~t_2 -> ~chi_40 t )
     6.00602949E-02    2     1000024         5   # BR(~t_2 -> ~chi_1+ b )
     3.54769340E-02    2     1000037         5   # BR(~t_2 -> ~chi_2+ b )
     6.59441080E-01    2     1000021         6   # BR(~t_2 -> ~g      t )
     8.68953062E-04    2     1000006        25   # BR(~t_2 -> ~t_1    h )
     2.87545655E-03    2     1000006        23   # BR(~t_2 -> ~t_1    Z )
#
#         PDG            Width
DECAY   1000005     2.92181444E+02   # sbottom1 decays
#          BR         NDA      ID1       ID2
     2.65680000E-03    2     1000022         5   # BR(~b_1 -> ~chi_10 b )
     2.81118247E-03    2     1000023         5   # BR(~b_1 -> ~chi_20 b )
     2.81223828E-03    2     1000025         5   # BR(~b_1 -> ~chi_30 b )
     2.60664864E-02    2     1000035         5   # BR(~b_1 -> ~chi_40 b )
     2.25605971E-01    2    -1000024         6   # BR(~b_1 -> ~chi_1- t )
     5.23354506E-02    2    -1000037         6   # BR(~b_1 -> ~chi_2- t )
     6.85857832E-01    2     1000021         5   # BR(~b_1 -> ~g      b )
     1.85404009E-03    2     1000006       -24   # BR(~b_1 -> ~t_1    W-)
#
#         PDG            Width
DECAY   2000005     2.09694876E+02   # sbottom2 decays
#          BR         NDA      ID1       ID2
     1.39684992E-02    2     1000022         5   # BR(~b_2 -> ~chi_10 b )
     4.06493118E-03    2     1000023         5   # BR(~b_2 -> ~chi_20 b )
     4.11275428E-03    2     1000025         5   # BR(~b_2 -> ~chi_30 b )
     8.22961896E-05    2     1000035         5   # BR(~b_2 -> ~chi_40 b )
     8.68607243E-03    2    -1000024         6   # BR(~b_2 -> ~chi_1- t )
     1.65249956E-04    2    -1000037         6   # BR(~b_2 -> ~chi_2- t )
     9.68893320E-01    2     1000021         5   # BR(~b_2 -> ~g      b )
     2.68769898E-05    2     1000006       -24   # BR(~b_2 -> ~t_1    W-)
#
#         PDG            Width
DECAY   1000002     2.29256598E+02   # sup_L decays
#          BR         NDA      ID1       ID2
     3.23494247E-03    2     1000022         2   # BR(~u_L -> ~chi_10 u)
     8.32301437E-05    2     1000023         2   # BR(~u_L -> ~chi_20 u)
     2.04712713E-06    2     1000025         2   # BR(~u_L -> ~chi_30 u)
     3.44878177E-02    2     1000035         2   # BR(~u_L -> ~chi_40 u)
     2.17721158E-04    2     1000024         1   # BR(~u_L -> ~chi_1+ d)
     6.89327694E-02    2     1000037         1   # BR(~u_L -> ~chi_2+ d)
     8.93041472E-01    2     1000021         2   # BR(~u_L -> ~g      u)
#
#         PDG            Width
DECAY   2000002     2.15094148E+02   # sup_R decays
#          BR         NDA      ID1       ID2
     5.48449830E-02    2     1000022         2   # BR(~u_R -> ~chi_10 u)
     2.22729775E-04    2     1000023         2   # BR(~u_R -> ~chi_20 u)
     2.07484051E-04    2     1000025         2   # BR(~u_R -> ~chi_30 u)
     3.36820788E-09    2     1000035         2   # BR(~u_R -> ~chi_40 u)
     9.44724800E-01    2     1000021         2   # BR(~u_R -> ~g      u)
#
#         PDG            Width
DECAY   1000001     2.29272150E+02   # sdown_L decays
#          BR         NDA      ID1       ID2
     3.22009471E-03    2     1000022         1   # BR(~d_L -> ~chi_10 d)
     3.54157573E-06    2     1000023         1   # BR(~d_L -> ~chi_20 d)
     7.08941544E-05    2     1000025         1   # BR(~d_L -> ~chi_30 d)
     3.45065696E-02    2     1000035         1   # BR(~d_L -> ~chi_40 d)
     6.59283103E-07    2    -1000024         2   # BR(~d_L -> ~chi_1- u)
     6.90386541E-02    2    -1000037         2   # BR(~d_L -> ~chi_2- u)
     8.93159587E-01    2     1000021         1   # BR(~d_L -> ~g      d)
#
#         PDG            Width
DECAY   2000001     2.06203289E+02   # sdown_R decays
#          BR         NDA      ID1       ID2
     1.43032945E-02    2     1000022         1   # BR(~d_R -> ~chi_10 d)
     5.80869246E-05    2     1000023         1   # BR(~d_R -> ~chi_20 d)
     5.41109095E-05    2     1000025         1   # BR(~d_R -> ~chi_30 d)
     8.78531552E-10    2     1000035         1   # BR(~d_R -> ~chi_40 d)
     9.85584507E-01    2     1000021         1   # BR(~d_R -> ~g      d)
#
#         PDG            Width
DECAY   1000004     2.29256598E+02   # scharm_L decays
#          BR         NDA      ID1       ID2
     3.23494247E-03    2     1000022         4   # BR(~c_L -> ~chi_10 c)
     8.32301437E-05    2     1000023         4   # BR(~c_L -> ~chi_20 c)
     2.04712713E-06    2     1000025         4   # BR(~c_L -> ~chi_30 c)
     3.44878177E-02    2     1000035         4   # BR(~c_L -> ~chi_40 c)
     2.17721158E-04    2     1000024         3   # BR(~c_L -> ~chi_1+ s)
     6.89327694E-02    2     1000037         3   # BR(~c_L -> ~chi_2+ s)
     8.93041472E-01    2     1000021         4   # BR(~c_L -> ~g      c)
#
#         PDG            Width
DECAY   2000004     2.15094148E+02   # scharm_R decays
#          BR         NDA      ID1       ID2
     5.48449830E-02    2     1000022         4   # BR(~c_R -> ~chi_10 c)
     2.22729775E-04    2     1000023         4   # BR(~c_R -> ~chi_20 c)
     2.07484051E-04    2     1000025         4   # BR(~c_R -> ~chi_30 c)
     3.36820788E-09    2     1000035         4   # BR(~c_R -> ~chi_40 c)
     9.44724800E-01    2     1000021         4   # BR(~c_R -> ~g      c)
#
#         PDG            Width
DECAY   1000003     2.29272150E+02   # sstrange_L decays
#          BR         NDA      ID1       ID2
     3.22009471E-03    2     1000022         3   # BR(~s_L -> ~chi_10 s)
     3.54157573E-06    2     1000023         3   # BR(~s_L -> ~chi_20 s)
     7.08941544E-05    2     1000025         3   # BR(~s_L -> ~chi_30 s)
     3.45065696E-02    2     1000035         3   # BR(~s_L -> ~chi_40 s)
     6.59283103E-07    2    -1000024         4   # BR(~s_L -> ~chi_1- c)
     6.90386541E-02    2    -1000037         4   # BR(~s_L -> ~chi_2- c)
     8.93159587E-01    2     1000021         3   # BR(~s_L -> ~g      s)
#
#         PDG            Width
DECAY   2000003     2.06203289E+02   # sstrange_R decays
#          BR         NDA      ID1       ID2
     1.43032945E-02    2     1000022         3   # BR(~s_R -> ~chi_10 s)
     5.80869246E-05    2     1000023         3   # BR(~s_R -> ~chi_20 s)
     5.41109095E-05    2     1000025         3   # BR(~s_R -> ~chi_30 s)
     8.78531552E-10    2     1000035         3   # BR(~s_R -> ~chi_40 s)
     9.85584507E-01    2     1000021         3   # BR(~s_R -> ~g      s)
#
#         PDG            Width
DECAY   1000011     3.03326961E+01   # selectron_L decays
#          BR         NDA      ID1       ID2
     2.24799818E-01    2     1000022        11   # BR(~e_L -> ~chi_10 e-)
     2.06745864E-03    2     1000023        11   # BR(~e_L -> ~chi_20 e-)
     2.38510328E-04    2     1000025        11   # BR(~e_L -> ~chi_30 e-)
     2.57462663E-01    2     1000035        11   # BR(~e_L -> ~chi_40 e-)
     5.08985404E-06    2    -1000024        12   # BR(~e_L -> ~chi_1- nu_e)
     5.15426460E-01    2    -1000037        12   # BR(~e_L -> ~chi_2- nu_e)
#
#         PDG            Width
DECAY   2000011     2.73954756E+01   # selectron_R decays
#          BR         NDA      ID1       ID2
     9.92229311E-01    2     1000022        11   # BR(~e_R -> ~chi_10 e-)
     4.02301851E-03    2     1000023        11   # BR(~e_R -> ~chi_20 e-)
     3.74761188E-03    2     1000025        11   # BR(~e_R -> ~chi_30 e-)
     5.89410866E-08    2     1000035        11   # BR(~e_R -> ~chi_40 e-)
#
#         PDG            Width
DECAY   1000013     3.03326961E+01   # smuon_L decays
#          BR         NDA      ID1       ID2
     2.24799818E-01    2     1000022        13   # BR(~mu_L -> ~chi_10 mu-)
     2.06745864E-03    2     1000023        13   # BR(~mu_L -> ~chi_20 mu-)
     2.38510328E-04    2     1000025        13   # BR(~mu_L -> ~chi_30 mu-)
     2.57462663E-01    2     1000035        13   # BR(~mu_L -> ~chi_40 mu-)
     5.08985404E-06    2    -1000024        14   # BR(~mu_L -> ~chi_1- nu_mu)
     5.15426460E-01    2    -1000037        14   # BR(~mu_L -> ~chi_2- nu_mu)
#
#         PDG            Width
DECAY   2000013     2.73954756E+01   # smuon_R decays
#          BR         NDA      ID1       ID2
     9.92229311E-01    2     1000022        13   # BR(~mu_R -> ~chi_10 mu-)
     4.02301851E-03    2     1000023        13   # BR(~mu_R -> ~chi_20 mu-)
     3.74761188E-03    2     1000025        13   # BR(~mu_R -> ~chi_30 mu-)
     5.89410866E-08    2     1000035        13   # BR(~mu_R -> ~chi_40 mu-)
#
#         PDG            Width
DECAY   1000015     2.92381510E+01   # stau_1 decays
#          BR         NDA      ID1       ID2
     9.28348626E-01    2     1000022        15   # BR(~tau_1 -> ~chi_10  tau-)
     1.91864126E-02    2     1000023        15   # BR(~tau_1 -> ~chi_20  tau-)
     1.84826812E-02    2     1000025        15   # BR(~tau_1 -> ~chi_30  tau-)
     8.47916850E-04    2     1000035        15   # BR(~tau_1 -> ~chi_40  tau-)
     3.14370392E-02    2    -1000024        16   # BR(~tau_1 -> ~chi_1-  nu_tau)
     1.69732463E-03    2    -1000037        16   # BR(~tau_1 -> ~chi_2-  nu_tau)
#
#         PDG            Width
DECAY   2000015     3.12399718E+01   # stau_2 decays
#          BR         NDA      ID1       ID2
     2.19788683E-01    2     1000022        15   # BR(~tau_2 -> ~chi_10  tau-)
     1.68942858E-02    2     1000023        15   # BR(~tau_2 -> ~chi_20  tau-)
     1.54638167E-02    2     1000025        15   # BR(~tau_2 -> ~chi_30  tau-)
     2.49103528E-01    2     1000035        15   # BR(~tau_2 -> ~chi_40  tau-)
     5.72560597E-05    2    -1000024        16   # BR(~tau_2 -> ~chi_1-  nu_tau)
     4.98692431E-01    2    -1000037        16   # BR(~tau_2 -> ~chi_2-  nu_tau)
#
#         PDG            Width
DECAY   1000012     3.03358919E+01   # snu_eL decays
#          BR         NDA      ID1       ID2
     2.24387198E-01    2     1000022        12   # BR(~nu_eL -> ~chi_10 nu_e)
     2.21681789E-04    2     1000023        12   # BR(~nu_eL -> ~chi_20 nu_e)
     1.83249294E-03    2     1000025        12   # BR(~nu_eL -> ~chi_30 nu_e)
     2.57504848E-01    2     1000035        12   # BR(~nu_eL -> ~chi_40 nu_e)
     1.68041232E-03    2     1000024        11   # BR(~nu_eL -> ~chi_1+ e-)
     5.14373367E-01    2     1000037        11   # BR(~nu_eL -> ~chi_2+ e-)
#
#         PDG            Width
DECAY   1000014     3.03358919E+01   # snu_muL decays
#          BR         NDA      ID1       ID2
     2.24387198E-01    2     1000022        14   # BR(~nu_muL -> ~chi_10 nu_mu)
     2.21681789E-04    2     1000023        14   # BR(~nu_muL -> ~chi_20 nu_mu)
     1.83249294E-03    2     1000025        14   # BR(~nu_muL -> ~chi_30 nu_mu)
     2.57504848E-01    2     1000035        14   # BR(~nu_muL -> ~chi_40 nu_mu)
     1.68041232E-03    2     1000024        13   # BR(~nu_muL -> ~chi_1+ mu-)
     5.14373367E-01    2     1000037        13   # BR(~nu_muL -> ~chi_2+ mu-)
#
#         PDG            Width
DECAY   1000016     3.12496321E+01   # snu_tauL decays
#          BR         NDA      ID1       ID2
     2.17802151E-01    2     1000022        16   # BR(~nu_tauL -> ~chi_10 nu_tau)
     2.15175199E-04    2     1000023        16   # BR(~nu_tauL -> ~chi_20 nu_tau)
     1.77870731E-03    2     1000025        16   # BR(~nu_tauL -> ~chi_30 nu_tau)
     2.49881888E-01    2     1000035        16   # BR(~nu_tauL -> ~chi_40 nu_tau)
     3.11763029E-02    2     1000024        15   # BR(~nu_tauL -> ~chi_1+ tau-)
     4.99145776E-01    2     1000037        15   # BR(~nu_tauL -> ~chi_2+ tau-)
#
#         PDG            Width
DECAY   1000024     2.94065280E-01   # chargino1+ decays
#          BR         NDA      ID1       ID2
     1.00000000E+00    2     1000022        24   # BR(~chi_1+ -> ~chi_10  W+)
#
#         PDG            Width
DECAY   1000037     2.21612217E+01   # chargino2+ decays
#          BR         NDA      ID1       ID2
     2.53559172E-01    2     1000024        23   # BR(~chi_2+ -> ~chi_1+  Z )
     1.56236244E-04    2     1000022        24   # BR(~chi_2+ -> ~chi_10  W+)
     2.44966164E-01    2     1000023        24   # BR(~chi_2+ -> ~chi_20  W+)
     2.44372102E-01    2     1000025        24   # BR(~chi_2+ -> ~chi_30  W+)
     2.56941146E-01    2     1000024        25   # BR(~chi_2+ -> ~chi_1+  h )
     5.17995671E-06    2     1000022        37   # BR(~chi_2+ -> ~chi_10  H+)
#
#         PDG            Width
DECAY   1000022     0.00000000E+00   # neutralino1 decays
#
#         PDG            Width
DECAY   1000023     2.97398313E-01   # neutralino2 decays
#          BR         NDA      ID1       ID2
     5.04346350E-01    2     1000022        23   # BR(~chi_20 -> ~chi_10   Z )
     4.95653650E-01    2     1000022        25   # BR(~chi_20 -> ~chi_10   h )
#
#         PDG            Width
DECAY   1000025     2.90299591E-01   # neutralino3 decays
#          BR         NDA      ID1       ID2
     5.33685991E-01    2     1000022        23   # BR(~chi_30 -> ~chi_10   Z )
     4.66314009E-01    2     1000022        25   # BR(~chi_30 -> ~chi_10   h )
#
#         PDG            Width
DECAY   1000035     2.21721745E+01   # neutralino4 decays
#          BR         NDA      ID1       ID2
     3.09989217E-06    2     1000022        23   # BR(~chi_40 -> ~chi_10   Z )
     1.12720072E-01    2     1000023        23   # BR(~chi_40 -> ~chi_20   Z )
     1.40400361E-01    2     1000025        23   # BR(~chi_40 -> ~chi_30   Z )
     2.45149080E-01    2     1000024       -24   # BR(~chi_40 -> ~chi_1+   W-)
     2.45149080E-01    2    -1000024        24   # BR(~chi_40 -> ~chi_1-   W+)
     1.45586471E-04    2     1000022        25   # BR(~chi_40 -> ~chi_10   h )
     4.98326316E-06    2     1000022        35   # BR(~chi_40 -> ~chi_10   H )
     5.43819288E-07    2     1000022        36   # BR(~chi_40 -> ~chi_10   A )
     1.43427402E-01    2     1000023        25   # BR(~chi_40 -> ~chi_20   h )
     1.12999791E-01    2     1000025        25   # BR(~chi_40 -> ~chi_30   h )
#
#         PDG            Width
DECAY        25     4.07204046E-03   # h decays
#          BR         NDA      ID1       ID2
     6.08756266E-01    2           5        -5   # BR(h -> b       bb     )
     6.37146697E-02    2         -15        15   # BR(h -> tau+    tau-   )
     2.25572988E-04    2         -13        13   # BR(h -> mu+     mu-    )
     4.78182208E-04    2           3        -3   # BR(h -> s       sb     )
     2.07185353E-02    2           4        -4   # BR(h -> c       cb     )
     6.70486777E-02    2          21        21   # BR(h -> g       g      )
     2.30504966E-03    2          22        22   # BR(h -> gam     gam    )
     1.48877218E-03    2          22        23   # BR(h -> Z       gam    )
     2.10135064E-01    2          24       -24   # BR(h -> W+      W-     )
     2.50441058E-02    2          23        23   # BR(h -> Z       Z      )
     8.51046768E-05    2     1000022   1000022   # BR(h -> ~chi_10 ~chi_10)
#
#         PDG            Width
DECAY        35     8.66047903E+00   # H decays
#          BR         NDA      ID1       ID2
     3.68312181E-01    2           5        -5   # BR(H -> b       bb     )
     6.43125285E-02    2         -15        15   # BR(H -> tau+    tau-   )
     2.27414209E-04    2         -13        13   # BR(H -> mu+     mu-    )
     2.78774891E-04    2           3        -3   # BR(H -> s       sb     )
     1.56028266E-06    2           4        -4   # BR(H -> c       cb     )
     1.55884600E-01    2           6        -6   # BR(H -> t       tb     )
     5.18493884E-05    2          21        21   # BR(H -> g       g      )
     1.49162828E-07    2          22        22   # BR(H -> gam     gam    )
     9.20021229E-08    2          23        22   # BR(H -> Z       gam    )
     7.45457971E-05    2          24       -24   # BR(H -> W+      W-     )
     3.72257130E-05    2          23        23   # BR(H -> Z       Z      )
     2.69850905E-04    2          25        25   # BR(H -> h       h      )
     2.99096128E-25    2          36        36   # BR(H -> A       A      )
     5.40185441E-19    2          23        36   # BR(H -> Z       A      )
     3.17458974E-03    2     1000024  -1000024   # BR(H -> ~chi_1+ ~chi_1-)
     6.71523366E-03    2     1000022   1000022   # BR(H -> ~chi_10 ~chi_10)
     3.68928799E-04    2     1000023   1000023   # BR(H -> ~chi_20 ~chi_20)
     2.44853730E-03    2     1000025   1000025   # BR(H -> ~chi_30 ~chi_30)
     2.39573065E-01    2     1000022   1000023   # BR(H -> ~chi_10 ~chi_20)
     1.54944824E-01    2     1000022   1000025   # BR(H -> ~chi_10 ~chi_30)
     3.32404974E-03    2     1000023   1000025   # BR(H -> ~chi_20 ~chi_30)
#
#         PDG            Width
DECAY        36     8.66750727E+00   # A decays
#          BR         NDA      ID1       ID2
     3.68139149E-01    2           5        -5   # BR(A -> b       bb     )
     6.42622951E-02    2         -15        15   # BR(A -> tau+    tau-   )
     2.27236262E-04    2         -13        13   # BR(A -> mu+     mu-    )
     2.78760435E-04    2           3        -3   # BR(A -> s       sb     )
     1.56525132E-06    2           4        -4   # BR(A -> c       cb     )
     1.56294721E-01    2           6        -6   # BR(A -> t       tb     )
     1.54652629E-04    2          21        21   # BR(A -> g       g      )
     5.93856046E-07    2          22        22   # BR(A -> gam     gam    )
     1.87219493E-07    2          23        22   # BR(A -> Z       gam    )
     7.42033195E-05    2          23        25   # BR(A -> Z       h      )
     3.48653033E-03    2     1000024  -1000024   # BR(A -> ~chi_1+ ~chi_1-)
     6.67237911E-03    2     1000022   1000022   # BR(A -> ~chi_10 ~chi_10)
     2.71060683E-04    2     1000023   1000023   # BR(A -> ~chi_20 ~chi_20)
     4.22331963E-03    2     1000025   1000025   # BR(A -> ~chi_30 ~chi_30)
     1.58346089E-01    2     1000022   1000023   # BR(A -> ~chi_10 ~chi_20)
     2.35204492E-01    2     1000022   1000025   # BR(A -> ~chi_10 ~chi_30)
     2.36276451E-03    2     1000023   1000025   # BR(A -> ~chi_20 ~chi_30)
#
#         PDG            Width
DECAY        37     8.61695363E+00   # H+ decays
#          BR         NDA      ID1       ID2
     5.91156224E-04    2           4        -5   # BR(H+ -> c       bb     )
     6.46701342E-02    2         -15        16   # BR(H+ -> tau+    nu_tau )
     2.28678412E-04    2         -13        14   # BR(H+ -> mu+     nu_mu  )
     3.78338001E-06    2           2        -5   # BR(H+ -> u       bb     )
     1.34180502E-05    2           2        -3   # BR(H+ -> u       sb     )
     2.77486833E-04    2           4        -3   # BR(H+ -> c       sb     )
     5.23433556E-01    2           6        -5   # BR(H+ -> t       bb     )
     7.47936633E-05    2          24        25   # BR(H+ -> W+      h      )
     9.14248037E-13    2          24        36   # BR(H+ -> W+      A      )
     4.06912167E-01    2     1000024   1000022   # BR(H+ -> ~chi_1+ ~chi_10)
     3.46513785E-03    2     1000024   1000023   # BR(H+ -> ~chi_1+ ~chi_20)
     3.29688060E-04    2     1000024   1000025   # BR(H+ -> ~chi_1+ ~chi_30)
