#
#                              ======================
#                              | THE SUSYHIT OUTPUT |
#                              ======================
#
#
#              ------------------------------------------------------
#              |     This is the output of the SUSY-HIT package     |
#              |  created by A.Djouadi, M.Muehlleitner and M.Spira. |
#              |  In case of problems with SUSY-HIT email to        |
#              |           margarete.muehlleitner@cern.ch           |
#              |           michael.spira@psi.ch                     |
#              |           abdelhak.djouadi@cern.ch                 |
#              ------------------------------------------------------
#
#              ------------------------------------------------------
#              |  SUSY Les Houches Accord - MSSM Spectrum + Decays  |
#              |              based on the decay programs           |
#              |                                                    |
#              |                     SDECAY 1.3b                    |
#              |                                                    |
#              |  Authors: M.Muhlleitner, A.Djouadi and Y.Mambrini  |
#              |  Ref.:    Comput.Phys.Commun.168(2005)46           |
#              |           [hep-ph/0311167]                         |
#              |                                                    |
#              |                     HDECAY 3.4                     |
#              |                                                    |
#              |  By: A.Djouadi,J.Kalinowski,M.Muhlleitner,M.Spira  |
#              |  Ref.:    Comput.Phys.Commun.108(1998)56           |
#              |           [hep-ph/9704448]                         |
#              |                                                    |
#              |                                                    |
#              |  If not stated otherwise all DRbar couplings and   |
#              |  soft SUSY breaking masses are given at the scale  |
#              |  Q=  0.50007627E+04
#              |                                                    |
#              ------------------------------------------------------
#
#
BLOCK DCINFO  # Decay Program information
     1   SDECAY/HDECAY # decay calculator
     2   1.3b  /3.4    # version number
#
BLOCK SPINFO  # Spectrum calculator information
     1    SOFTSUSY    # spectrum calculator                
     2    3.4.0       # version number                     
#
BLOCK MODSEL  # Model selection
     1     0   #  nonUniversal                                     
#
BLOCK SMINPUTS  # Standard Model inputs
         1     1.25778332E+02   # alpha_em^-1(M_Z)^MSbar
         2     1.16570000E-05   # G_F [GeV^-2]
         3     1.17200002E-01   # alpha_S(M_Z)^MSbar
         4     9.11876000E+01   # M_Z pole mass
         5     4.25000000E+00   # mb(mb)^MSbar
         6     1.72500000E+02   # mt pole mass
         7     1.77682000E+00   # mtau pole mass
#
BLOCK MINPAR  # Input parameters - minimal models
         3     1.00000000E+01   # tanb                
#
BLOCK EXTPAR  # Input parameters - non-minimal models
         0    -1.00000000E+00   # Set                 
         1     6.00000000E+01   # M_1(MX)             
         2     3.00000000E+03   # M_2(MX)             
         3     9.46036000E+02   # M_3(MX)             
        11     5.00000000E+03   # At(MX)              
        12     5.00000000E+03   # Ab(MX)              
        13     0.00000000E+00   # Atau(MX)            
        23    -1.87339000E+02   # mu(MX)              
        26     3.00000000E+03   # mA(pole)            
        31     5.00000000E+03   # meL(MX)             
        32     5.00000000E+03   # mmuL(MX)            
        33     5.00000000E+03   # mtauL(MX)           
        34     5.00000000E+03   # meR(MX)             
        35     5.00000000E+03   # mmuR(MX)            
        36     5.00000000E+03   # mtauR(MX)           
        41     5.00000000E+03   # mqL1(MX)            
        42     5.00000000E+03   # mqL2(MX)            
        43     5.00000000E+03   # mqL3(MX)            
        44     5.00000000E+03   # muR(MX)             
        45     5.00000000E+03   # mcR(MX)             
        46     5.00000000E+03   # mtR(MX)             
        47     5.00000000E+03   # mdR(MX)             
        48     5.00000000E+03   # msR(MX)             
        49     5.00000000E+03   # mbR(MX)             
#
BLOCK MASS  # Mass Spectrum
# PDG code           mass       particle
        24     8.00888173E+01   # W+
        25     1.24444334E+02   # h
        35     3.00009051E+03   # H
        36     2.99999978E+03   # A
        37     3.00148233E+03   # H+
         5     4.87878001E+00   # b-quark pole mass calculated from mb(mb)_Msbar
   1000001     5.06480158E+03   # ~d_L
   2000001     5.04687342E+03   # ~d_R
   1000002     5.06432305E+03   # ~u_L
   2000002     5.04656189E+03   # ~u_R
   1000003     5.06480158E+03   # ~s_L
   2000003     5.04687342E+03   # ~s_R
   1000004     5.06432305E+03   # ~c_L
   2000004     5.04656189E+03   # ~c_R
   1000005     5.01129707E+03   # ~b_1
   2000005     5.04498745E+03   # ~b_2
   1000006     4.90190949E+03   # ~t_1
   2000006     5.05556738E+03   # ~t_2
   1000011     5.01916654E+03   # ~e_L
   2000011     5.00596085E+03   # ~e_R
   1000012     5.01821332E+03   # ~nu_eL
   1000013     5.01916654E+03   # ~mu_L
   2000013     5.00596085E+03   # ~mu_R
   1000014     5.01821332E+03   # ~nu_muL
   1000015     5.00483314E+03   # ~tau_1
   2000015     5.01863177E+03   # ~tau_2
   1000016     5.01765823E+03   # ~nu_tauL
   1000021     1.20000009E+03   # ~g
   1000022     5.87050471E+01   # ~chi_10
   1000023     2.04233592E+02   # ~chi_20
   1000025    -2.05086508E+02   # ~chi_30
   1000035     3.07431949E+03   # ~chi_40
   1000024     2.00000819E+02   # ~chi_1+
   1000037     3.07448770E+03   # ~chi_2+
#
BLOCK NMIX  # Neutralino Mixing Matrix
  1  1     9.72103863E-01   # N_11
  1  2    -5.01703920E-04   # N_12
  1  3    -2.30124304E-01   # N_13
  1  4    -4.53501110E-02   # N_14
  2  1     1.94576693E-01   # N_21
  2  2     1.71173912E-02   # N_22
  2  3     6.83253107E-01   # N_23
  2  4     7.03570961E-01   # N_24
  3  1    -1.30972604E-01   # N_31
  3  2     1.85867767E-02   # N_32
  3  3    -6.92969590E-01   # N_33
  3  4     7.08726927E-01   # N_34
  4  1    -4.08709038E-04   # N_41
  4  2     9.99680586E-01   # N_42
  4  3     1.06944766E-03   # N_43
  4  4    -2.52470651E-02   # N_44
#
BLOCK UMIX  # Chargino Mixing Matrix U
  1  1    -1.50847976E-03   # U_11
  1  2     9.99998862E-01   # U_12
  2  1    -9.99998862E-01   # U_21
  2  2    -1.50847976E-03   # U_22
#
BLOCK VMIX  # Chargino Mixing Matrix V
  1  1     3.57145145E-02   # V_11
  1  2    -9.99362033E-01   # V_12
  2  1    -9.99362033E-01   # V_21
  2  2    -3.57145145E-02   # V_22
#
BLOCK STOPMIX  # Stop Mixing Matrix
  1  1    -5.05261554E-01   # cos(theta_t)
  1  2     8.62966258E-01   # sin(theta_t)
  2  1    -8.62966258E-01   # -sin(theta_t)
  2  2    -5.05261554E-01   # cos(theta_t)
#
BLOCK SBOTMIX  # Sbottom Mixing Matrix
  1  1     9.99376831E-01   # cos(theta_b)
  1  2    -3.52980121E-02   # sin(theta_b)
  2  1     3.52980121E-02   # -sin(theta_b)
  2  2     9.99376831E-01   # cos(theta_b)
#
BLOCK STAUMIX  # Stau Mixing Matrix
  1  1    -2.21909940E-02   # cos(theta_tau)
  1  2     9.99753750E-01   # sin(theta_tau)
  2  1    -9.99753750E-01   # -sin(theta_tau)
  2  2    -2.21909940E-02   # cos(theta_tau)
#
BLOCK ALPHA  # Higgs mixing
          -1.05458080E-01   # Mixing angle in the neutral Higgs boson sector
#
BLOCK HMIX Q=  5.00076269E+03  # DRbar Higgs Parameters
         1    -1.90681856E+02   # mu(Q)MSSM           
         2     9.47197940E+00   # tan                 
         3     2.41712593E+02   # higgs               
         4     8.78879392E+06   # mA^2(Q)MSSM         
#
BLOCK GAUGE Q=  5.00076269E+03  # The gauge couplings
     1     3.71174586E-01   # gprime(Q) DRbar
     2     6.34398720E-01   # g(Q) DRbar
     3     1.00597486E+00   # g3(Q) DRbar
#
BLOCK AU Q=  5.00076269E+03  # The trilinear couplings
  1  1     5.00000001E+03   # A_u(Q) DRbar
  2  2     5.00000001E+03   # A_c(Q) DRbar
  3  3     5.00000001E+03   # A_t(Q) DRbar
#
BLOCK AD Q=  5.00076269E+03  # The trilinear couplings
  1  1     5.00000000E+03   # A_d(Q) DRbar
  2  2     5.00000000E+03   # A_s(Q) DRbar
  3  3     5.00000001E+03   # A_b(Q) DRbar
#
BLOCK AE Q=  5.00076269E+03  # The trilinear couplings
  1  1     0.00000000E+00   # A_e(Q) DRbar
  2  2     4.81462177E-08   # A_mu(Q) DRbar
  3  3     4.72810481E-08   # A_tau(Q) DRbar
#
BLOCK Yu Q=  5.00076269E+03  # The Yukawa couplings
  1  1     0.00000000E+00   # y_u(Q) DRbar
  2  2     0.00000000E+00   # y_c(Q) DRbar
  3  3     8.16469840E-01   # y_t(Q) DRbar
#
BLOCK Yd Q=  5.00076269E+03  # The Yukawa couplings
  1  1     0.00000000E+00   # y_d(Q) DRbar
  2  2     0.00000000E+00   # y_s(Q) DRbar
  3  3     1.29149968E-01   # y_b(Q) DRbar
#
BLOCK Ye Q=  5.00076269E+03  # The Yukawa couplings
  1  1     0.00000000E+00   # y_e(Q) DRbar
  2  2     0.00000000E+00   # y_mu(Q) DRbar
  3  3     9.73651711E-02   # y_tau(Q) DRbar
#
BLOCK MSOFT Q=  5.00076269E+03  # The soft SUSY breaking masses at the scale Q
         1     6.00000000E+01   # M_1(Q)              
         2     3.00000000E+03   # M_2(Q)              
         3     9.46036000E+02   # M_3(Q)              
        21     8.69761214E+06   # mH1^2(Q)            
        22     5.39559215E+05   # mH2^2(Q)            
        31     5.00000000E+03   # meL(Q)              
        32     5.00000000E+03   # mmuL(Q)             
        33     5.00000000E+03   # mtauL(Q)            
        34     5.00000000E+03   # meR(Q)              
        35     5.00000000E+03   # mmuR(Q)             
        36     5.00000000E+03   # mtauR(Q)            
        41     5.00000000E+03   # mqL1(Q)             
        42     5.00000000E+03   # mqL2(Q)             
        43     5.00000000E+03   # mqL3(Q)             
        44     5.00000000E+03   # muR(Q)              
        45     5.00000000E+03   # mcR(Q)              
        46     5.00000000E+03   # mtR(Q)              
        47     5.00000000E+03   # mdR(Q)              
        48     5.00000000E+03   # msR(Q)              
        49     5.00000000E+03   # mbR(Q)              
#
#
#
#                             =================
#                             |The decay table|
#                             =================
#
# - The QCD corrections to the decays gluino -> squark  + quark
#                                     squark -> gaugino + quark_prime
#                                     squark -> squark_prime + Higgs
#                                     squark -> gluino  + quark
#   are included.
#
# - The multi-body decays for the inos, stops and sbottoms are included.
#
# - The loop induced decays for the gluino, neutralinos and stops
#   are included.
#
# - The SUSY decays of the top quark are included.
#
#
#         PDG            Width
DECAY         6     1.41063433E+00   # top decays
#          BR         NDA      ID1       ID2
     1.00000000E+00    2           5        24   # BR(t ->  b    W+)
#
#         PDG            Width
DECAY   1000021     1.42972803E-04   # gluino decays
#          BR         NDA      ID1       ID2
     7.84140848E-05    2     1000022        21   # BR(~g -> ~chi_10 g)
     2.06653395E-02    2     1000023        21   # BR(~g -> ~chi_20 g)
     2.01698285E-02    2     1000025        21   # BR(~g -> ~chi_30 g)
#           BR         NDA      ID1       ID2       ID3
     1.15448897E-02    3     1000022         1        -1   # BR(~g -> ~chi_10 d  db)
     3.77569069E-04    3     1000023         1        -1   # BR(~g -> ~chi_20 d  db)
     1.62161922E-04    3     1000025         1        -1   # BR(~g -> ~chi_30 d  db)
     3.92896902E-02    3     1000022         2        -2   # BR(~g -> ~chi_10 u  ub)
     1.58867595E-03    3     1000023         2        -2   # BR(~g -> ~chi_20 u  ub)
     3.75575685E-04    3     1000025         2        -2   # BR(~g -> ~chi_30 u  ub)
     1.15448897E-02    3     1000022         3        -3   # BR(~g -> ~chi_10 s  sb)
     3.77569069E-04    3     1000023         3        -3   # BR(~g -> ~chi_20 s  sb)
     1.62161922E-04    3     1000025         3        -3   # BR(~g -> ~chi_30 s  sb)
     3.92896902E-02    3     1000022         4        -4   # BR(~g -> ~chi_10 c  cb)
     1.58867595E-03    3     1000023         4        -4   # BR(~g -> ~chi_20 c  cb)
     3.75575685E-04    3     1000025         4        -4   # BR(~g -> ~chi_30 c  cb)
     1.25694021E-02    3     1000022         5        -5   # BR(~g -> ~chi_10 b  bb)
     6.03226012E-03    3     1000023         5        -5   # BR(~g -> ~chi_20 b  bb)
     5.98572657E-03    3     1000025         5        -5   # BR(~g -> ~chi_30 b  bb)
     2.73611617E-02    3     1000022         6        -6   # BR(~g -> ~chi_10 t  tb)
     1.96510921E-01    3     1000023         6        -6   # BR(~g -> ~chi_20 t  tb)
     1.63937558E-01    3     1000025         6        -6   # BR(~g -> ~chi_30 t  tb)
     6.02516302E-05    3     1000024         1        -2   # BR(~g -> ~chi_1+ d  ub)
     6.02516302E-05    3    -1000024         2        -1   # BR(~g -> ~chi_1- u  db)
     6.02516302E-05    3     1000024         3        -4   # BR(~g -> ~chi_1+ s  cb)
     6.02516302E-05    3    -1000024         4        -3   # BR(~g -> ~chi_1- c  sb)
     2.19885629E-01    3     1000024         5        -6   # BR(~g -> ~chi_1+ b  tb)
     2.19885629E-01    3    -1000024         6        -5   # BR(~g -> ~chi_1- t  bb)
#
#         PDG            Width
DECAY   1000006     4.12863198E+02   # stop1 decays
#          BR         NDA      ID1       ID2
     1.86594181E-02    2     1000022         6   # BR(~t_1 -> ~chi_10 t )
     8.44694718E-02    2     1000023         6   # BR(~t_1 -> ~chi_20 t )
     7.47599241E-02    2     1000025         6   # BR(~t_1 -> ~chi_30 t )
     4.99839022E-03    2     1000035         6   # BR(~t_1 -> ~chi_40 t )
     1.16000628E-01    2     1000024         5   # BR(~t_1 -> ~chi_1+ b )
     9.96496062E-03    2     1000037         5   # BR(~t_1 -> ~chi_2+ b )
     6.91147207E-01    2     1000021         6   # BR(~t_1 -> ~g      t )
#
#         PDG            Width
DECAY   2000006     4.12031187E+02   # stop2 decays
#          BR         NDA      ID1       ID2
     1.04726191E-02    2     1000022         6   # BR(~t_2 -> ~chi_10 t )
     7.61102287E-02    2     1000023         6   # BR(~t_2 -> ~chi_20 t )
     8.77605791E-02    2     1000025         6   # BR(~t_2 -> ~chi_30 t )
     1.34995850E-02    2     1000035         6   # BR(~t_2 -> ~chi_40 t )
     4.81753962E-02    2     1000024         5   # BR(~t_2 -> ~chi_1+ b )
     2.68841595E-02    2     1000037         5   # BR(~t_2 -> ~chi_2+ b )
     7.34105354E-01    2     1000021         6   # BR(~t_2 -> ~g      t )
     6.86344262E-04    2     1000006        25   # BR(~t_2 -> ~t_1    h )
     2.30573402E-03    2     1000006        23   # BR(~t_2 -> ~t_1    Z )
#
#         PDG            Width
DECAY   1000005     3.89171421E+02   # sbottom1 decays
#          BR         NDA      ID1       ID2
     2.17461719E-03    2     1000022         5   # BR(~b_1 -> ~chi_10 b )
     1.96587443E-03    2     1000023         5   # BR(~b_1 -> ~chi_20 b )
     2.09878706E-03    2     1000025         5   # BR(~b_1 -> ~chi_30 b )
     1.94799670E-02    2     1000035         5   # BR(~b_1 -> ~chi_40 b )
     1.71511662E-01    2    -1000024         6   # BR(~b_1 -> ~chi_1- t )
     3.91052179E-02    2    -1000037         6   # BR(~b_1 -> ~chi_2- t )
     7.62221495E-01    2     1000021         5   # BR(~b_1 -> ~g      b )
     1.44237933E-03    2     1000006       -24   # BR(~b_1 -> ~t_1    W-)
#
#         PDG            Width
DECAY   2000005     3.05304707E+02   # sbottom2 decays
#          BR         NDA      ID1       ID2
     9.35398587E-03    2     1000022         5   # BR(~b_2 -> ~chi_10 b )
     3.03242322E-03    2     1000023         5   # BR(~b_2 -> ~chi_20 b )
     2.90471455E-03    2     1000025         5   # BR(~b_2 -> ~chi_30 b )
     2.87392861E-05    2     1000035         5   # BR(~b_2 -> ~chi_40 b )
     5.77329146E-03    2    -1000024         6   # BR(~b_2 -> ~chi_1- t )
     5.77077249E-05    2    -1000037         6   # BR(~b_2 -> ~chi_2- t )
     9.78839989E-01    2     1000021         5   # BR(~b_2 -> ~g      b )
     9.14845789E-06    2     1000006       -24   # BR(~b_2 -> ~t_1    W-)
#
#         PDG            Width
DECAY   1000002     3.24555647E+02   # sup_L decays
#          BR         NDA      ID1       ID2
     2.16895678E-03    2     1000022         2   # BR(~u_L -> ~chi_10 u)
     1.83426225E-04    2     1000023         2   # BR(~u_L -> ~chi_20 u)
     2.92730493E-06    2     1000025         2   # BR(~u_L -> ~chi_30 u)
     2.42185913E-02    2     1000035         2   # BR(~u_L -> ~chi_40 u)
     1.54342122E-04    2     1000024         1   # BR(~u_L -> ~chi_1+ d)
     4.84078884E-02    2     1000037         1   # BR(~u_L -> ~chi_2+ d)
     9.24863868E-01    2     1000021         2   # BR(~u_L -> ~g      u)
#
#         PDG            Width
DECAY   2000002     3.10804302E+02   # sup_R decays
#          BR         NDA      ID1       ID2
     3.63029965E-02    2     1000022         2   # BR(~u_R -> ~chi_10 u)
     1.45031063E-03    2     1000023         2   # BR(~u_R -> ~chi_20 u)
     6.57095871E-04    2     1000025         2   # BR(~u_R -> ~chi_30 u)
     2.54302220E-09    2     1000035         2   # BR(~u_R -> ~chi_40 u)
     9.61589594E-01    2     1000021         2   # BR(~u_R -> ~g      u)
#
#         PDG            Width
DECAY   1000001     3.24564530E+02   # sdown_L decays
#          BR         NDA      ID1       ID2
     2.19218567E-03    2     1000022         1   # BR(~d_L -> ~chi_10 d)
     2.62500272E-05    2     1000023         1   # BR(~d_L -> ~chi_20 d)
     1.17813189E-04    2     1000025         1   # BR(~d_L -> ~chi_30 d)
     2.42332538E-02    2     1000035         1   # BR(~d_L -> ~chi_40 d)
     2.75361666E-07    2    -1000024         2   # BR(~d_L -> ~chi_1- u)
     4.84834833E-02    2    -1000037         2   # BR(~d_L -> ~chi_2- u)
     9.24946739E-01    2     1000021         1   # BR(~d_L -> ~g      d)
#
#         PDG            Width
DECAY   2000001     3.01873769E+02   # sdown_R decays
#          BR         NDA      ID1       ID2
     9.34482229E-03    2     1000022         1   # BR(~d_R -> ~chi_10 d)
     3.73327304E-04    2     1000023         1   # BR(~d_R -> ~chi_20 d)
     1.69144338E-04    2     1000025         1   # BR(~d_R -> ~chi_30 d)
     6.54698727E-10    2     1000035         1   # BR(~d_R -> ~chi_40 d)
     9.90112705E-01    2     1000021         1   # BR(~d_R -> ~g      d)
#
#         PDG            Width
DECAY   1000004     3.24555647E+02   # scharm_L decays
#          BR         NDA      ID1       ID2
     2.16895678E-03    2     1000022         4   # BR(~c_L -> ~chi_10 c)
     1.83426225E-04    2     1000023         4   # BR(~c_L -> ~chi_20 c)
     2.92730493E-06    2     1000025         4   # BR(~c_L -> ~chi_30 c)
     2.42185913E-02    2     1000035         4   # BR(~c_L -> ~chi_40 c)
     1.54342122E-04    2     1000024         3   # BR(~c_L -> ~chi_1+ s)
     4.84078884E-02    2     1000037         3   # BR(~c_L -> ~chi_2+ s)
     9.24863868E-01    2     1000021         4   # BR(~c_L -> ~g      c)
#
#         PDG            Width
DECAY   2000004     3.10804302E+02   # scharm_R decays
#          BR         NDA      ID1       ID2
     3.63029965E-02    2     1000022         4   # BR(~c_R -> ~chi_10 c)
     1.45031063E-03    2     1000023         4   # BR(~c_R -> ~chi_20 c)
     6.57095871E-04    2     1000025         4   # BR(~c_R -> ~chi_30 c)
     2.54302220E-09    2     1000035         4   # BR(~c_R -> ~chi_40 c)
     9.61589594E-01    2     1000021         4   # BR(~c_R -> ~g      c)
#
#         PDG            Width
DECAY   1000003     3.24564530E+02   # sstrange_L decays
#          BR         NDA      ID1       ID2
     2.19218567E-03    2     1000022         3   # BR(~s_L -> ~chi_10 s)
     2.62500272E-05    2     1000023         3   # BR(~s_L -> ~chi_20 s)
     1.17813189E-04    2     1000025         3   # BR(~s_L -> ~chi_30 s)
     2.42332538E-02    2     1000035         3   # BR(~s_L -> ~chi_40 s)
     2.75361666E-07    2    -1000024         4   # BR(~s_L -> ~chi_1- c)
     4.84834833E-02    2    -1000037         4   # BR(~s_L -> ~chi_2- c)
     9.24946739E-01    2     1000021         3   # BR(~s_L -> ~g      s)
#
#         PDG            Width
DECAY   2000003     3.01873769E+02   # sstrange_R decays
#          BR         NDA      ID1       ID2
     9.34482229E-03    2     1000022         3   # BR(~s_R -> ~chi_10 s)
     3.73327304E-04    2     1000023         3   # BR(~s_R -> ~chi_20 s)
     1.69144338E-04    2     1000025         3   # BR(~s_R -> ~chi_30 s)
     6.54698727E-10    2     1000035         3   # BR(~s_R -> ~chi_40 s)
     9.90112705E-01    2     1000021         3   # BR(~s_R -> ~g      s)
#
#         PDG            Width
DECAY   1000011     3.04208131E+01   # selectron_L decays
#          BR         NDA      ID1       ID2
     2.13234458E-01    2     1000022        11   # BR(~e_L -> ~chi_10 e-)
     1.12908554E-02    2     1000023        11   # BR(~e_L -> ~chi_20 e-)
     2.21784281E-03    2     1000025        11   # BR(~e_L -> ~chi_30 e-)
     2.57582277E-01    2     1000035        11   # BR(~e_L -> ~chi_40 e-)
     2.99649977E-06    2    -1000024        12   # BR(~e_L -> ~chi_1- nu_e)
     5.15671570E-01    2    -1000037        12   # BR(~e_L -> ~chi_2- nu_e)
#
#         PDG            Width
DECAY   2000011     2.74290912E+01   # selectron_R decays
#          BR         NDA      ID1       ID2
     9.45145161E-01    2     1000022        11   # BR(~e_R -> ~chi_10 e-)
     3.77509005E-02    2     1000023        11   # BR(~e_R -> ~chi_20 e-)
     1.71038738E-02    2     1000025        11   # BR(~e_R -> ~chi_30 e-)
     6.48301719E-08    2     1000035        11   # BR(~e_R -> ~chi_40 e-)
#
#         PDG            Width
DECAY   1000013     3.04208131E+01   # smuon_L decays
#          BR         NDA      ID1       ID2
     2.13234458E-01    2     1000022        13   # BR(~mu_L -> ~chi_10 mu-)
     1.12908554E-02    2     1000023        13   # BR(~mu_L -> ~chi_20 mu-)
     2.21784281E-03    2     1000025        13   # BR(~mu_L -> ~chi_30 mu-)
     2.57582277E-01    2     1000035        13   # BR(~mu_L -> ~chi_40 mu-)
     2.99649977E-06    2    -1000024        14   # BR(~mu_L -> ~chi_1- nu_mu)
     5.15671570E-01    2    -1000037        14   # BR(~mu_L -> ~chi_2- nu_mu)
#
#         PDG            Width
DECAY   2000013     2.74290912E+01   # smuon_R decays
#          BR         NDA      ID1       ID2
     9.45145161E-01    2     1000022        13   # BR(~mu_R -> ~chi_10 mu-)
     3.77509005E-02    2     1000023        13   # BR(~mu_R -> ~chi_20 mu-)
     1.71038738E-02    2     1000025        13   # BR(~mu_R -> ~chi_30 mu-)
     6.48301719E-08    2     1000035        13   # BR(~mu_R -> ~chi_40 mu-)
#
#         PDG            Width
DECAY   1000015     2.93052820E+01   # stau_1 decays
#          BR         NDA      ID1       ID2
     8.86676429E-01    2     1000022        15   # BR(~tau_1 -> ~chi_10  tau-)
     4.98656628E-02    2     1000023        15   # BR(~tau_1 -> ~chi_20  tau-)
     3.09815754E-02    2     1000025        15   # BR(~tau_1 -> ~chi_30  tau-)
     1.33202267E-04    2     1000035        15   # BR(~tau_1 -> ~chi_40  tau-)
     3.20766131E-02    2    -1000024        16   # BR(~tau_1 -> ~chi_1-  nu_tau)
     2.66517093E-04    2    -1000037        16   # BR(~tau_1 -> ~chi_2-  nu_tau)
#
#         PDG            Width
DECAY   2000015     3.13543944E+01   # stau_2 decays
#          BR         NDA      ID1       ID2
     2.07959430E-01    2     1000022        15   # BR(~tau_2 -> ~chi_10  tau-)
     2.54174567E-02    2     1000023        15   # BR(~tau_2 -> ~chi_20  tau-)
     1.70111898E-02    2     1000025        15   # BR(~tau_2 -> ~chi_30  tau-)
     2.49696482E-01    2     1000035        15   # BR(~tau_2 -> ~chi_40  tau-)
     3.08470087E-05    2    -1000024        16   # BR(~tau_2 -> ~chi_1-  nu_tau)
     4.99884594E-01    2    -1000037        16   # BR(~tau_2 -> ~chi_2-  nu_tau)
#
#         PDG            Width
DECAY   1000012     3.04237553E+01   # snu_eL decays
#          BR         NDA      ID1       ID2
     2.13926813E-01    2     1000022        12   # BR(~nu_eL -> ~chi_10 nu_e)
     6.15750943E-03    2     1000023        12   # BR(~nu_eL -> ~chi_20 nu_e)
     5.96667155E-03    2     1000025        12   # BR(~nu_eL -> ~chi_30 nu_e)
     2.57637366E-01    2     1000035        12   # BR(~nu_eL -> ~chi_40 nu_e)
     1.67918970E-03    2     1000024        11   # BR(~nu_eL -> ~chi_1+ e-)
     5.14632450E-01    2     1000037        11   # BR(~nu_eL -> ~chi_2+ e-)
#
#         PDG            Width
DECAY   1000014     3.04237553E+01   # snu_muL decays
#          BR         NDA      ID1       ID2
     2.13926813E-01    2     1000022        14   # BR(~nu_muL -> ~chi_10 nu_mu)
     6.15750943E-03    2     1000023        14   # BR(~nu_muL -> ~chi_20 nu_mu)
     5.96667155E-03    2     1000025        14   # BR(~nu_muL -> ~chi_30 nu_mu)
     2.57637366E-01    2     1000035        14   # BR(~nu_muL -> ~chi_40 nu_mu)
     1.67918970E-03    2     1000024        13   # BR(~nu_muL -> ~chi_1+ mu-)
     5.14632450E-01    2     1000037        13   # BR(~nu_muL -> ~chi_2+ mu-)
#
#         PDG            Width
DECAY   1000016     3.13574649E+01   # snu_tauL decays
#          BR         NDA      ID1       ID2
     2.07533890E-01    2     1000022        16   # BR(~nu_tauL -> ~chi_10 nu_tau)
     5.97349629E-03    2     1000023        16   # BR(~nu_tauL -> ~chi_20 nu_tau)
     5.78836144E-03    2     1000025        16   # BR(~nu_tauL -> ~chi_30 nu_tau)
     2.49871776E-01    2     1000035        16   # BR(~nu_tauL -> ~chi_40 nu_tau)
     3.17120027E-02    2     1000024        15   # BR(~nu_tauL -> ~chi_1+ tau-)
     4.99120473E-01    2     1000037        15   # BR(~nu_tauL -> ~chi_2+ tau-)
#
#         PDG            Width
DECAY   1000024     8.36440370E-02   # chargino1+ decays
#          BR         NDA      ID1       ID2
     1.00000000E+00    2     1000022        24   # BR(~chi_1+ -> ~chi_10  W+)
#
#         PDG            Width
DECAY   1000037     2.33123711E+01   # chargino2+ decays
#          BR         NDA      ID1       ID2
     2.53791887E-01    2     1000024        23   # BR(~chi_2+ -> ~chi_1+  Z )
     7.56163493E-04    2     1000022        24   # BR(~chi_2+ -> ~chi_10  W+)
     2.44875414E-01    2     1000023        24   # BR(~chi_2+ -> ~chi_20  W+)
     2.44903080E-01    2     1000025        24   # BR(~chi_2+ -> ~chi_30  W+)
     2.55635938E-01    2     1000024        25   # BR(~chi_2+ -> ~chi_1+  h )
     3.75178131E-05    2     1000022        37   # BR(~chi_2+ -> ~chi_10  H+)
#
#         PDG            Width
DECAY   1000022     0.00000000E+00   # neutralino1 decays
#
#         PDG            Width
DECAY   1000023     6.61357979E-02   # neutralino2 decays
#          BR         NDA      ID1       ID2
     5.79431619E-01    2     1000022        23   # BR(~chi_20 -> ~chi_10   Z )
     4.20568381E-01    2     1000022        25   # BR(~chi_20 -> ~chi_10   h )
#
#         PDG            Width
DECAY   1000025     4.89581746E-02   # neutralino3 decays
#          BR         NDA      ID1       ID2
     9.00152956E-01    2     1000022        23   # BR(~chi_30 -> ~chi_10   Z )
     9.98470440E-02    2     1000022        25   # BR(~chi_30 -> ~chi_10   h )
#
#         PDG            Width
DECAY   1000035     2.33146324E+01   # neutralino4 decays
#          BR         NDA      ID1       ID2
     7.78500367E-04    2     1000022        23   # BR(~chi_40 -> ~chi_10   Z )
     1.35969009E-01    2     1000023        23   # BR(~chi_40 -> ~chi_20   Z )
     1.16861112E-01    2     1000025        23   # BR(~chi_40 -> ~chi_30   Z )
     2.45480880E-01    2     1000024       -24   # BR(~chi_40 -> ~chi_1+   W-)
     2.45480880E-01    2    -1000024        24   # BR(~chi_40 -> ~chi_1-   W+)
     1.15991423E-05    2     1000022        25   # BR(~chi_40 -> ~chi_10   h )
     3.59920883E-05    2     1000022        35   # BR(~chi_40 -> ~chi_10   H )
     3.93078021E-06    2     1000022        36   # BR(~chi_40 -> ~chi_10   A )
     1.18296898E-01    2     1000023        25   # BR(~chi_40 -> ~chi_20   h )
     1.37081199E-01    2     1000025        25   # BR(~chi_40 -> ~chi_30   h )
#
#         PDG            Width
DECAY        25     4.04920115E-03   # h decays
#          BR         NDA      ID1       ID2
     6.15329053E-01    2           5        -5   # BR(h -> b       bb     )
     6.38951114E-02    2         -15        15   # BR(h -> tau+    tau-   )
     2.26213380E-04    2         -13        13   # BR(h -> mu+     mu-    )
     4.79804926E-04    2           3        -3   # BR(h -> s       sb     )
     2.07878213E-02    2           4        -4   # BR(h -> c       cb     )
     6.68658032E-02    2          21        21   # BR(h -> g       g      )
     2.28832368E-03    2          22        22   # BR(h -> gam     gam    )
     1.44972678E-03    2          22        23   # BR(h -> Z       gam    )
     2.03440578E-01    2          24       -24   # BR(h -> W+      W-     )
     2.40862624E-02    2          23        23   # BR(h -> Z       Z      )
     1.15130172E-03    2     1000022   1000022   # BR(h -> ~chi_10 ~chi_10)
#
#         PDG            Width
DECAY        35     8.82332050E+00   # H decays
#          BR         NDA      ID1       ID2
     3.59737633E-01    2           5        -5   # BR(H -> b       bb     )
     6.31693776E-02    2         -15        15   # BR(H -> tau+    tau-   )
     2.23371937E-04    2         -13        13   # BR(H -> mu+     mu-    )
     2.73819683E-04    2           3        -3   # BR(H -> s       sb     )
     1.53050592E-06    2           4        -4   # BR(H -> c       cb     )
     1.52909673E-01    2           6        -6   # BR(H -> t       tb     )
     5.08674670E-05    2          21        21   # BR(H -> g       g      )
     1.46457057E-07    2          22        22   # BR(H -> gam     gam    )
     9.01144621E-08    2          23        22   # BR(H -> Z       gam    )
     7.45770019E-05    2          24       -24   # BR(H -> W+      W-     )
     3.72412780E-05    2          23        23   # BR(H -> Z       Z      )
     2.66341642E-04    2          25        25   # BR(H -> h       h      )
    -7.21140763E-24    2          36        36   # BR(H -> A       A      )
     1.20441926E-18    2          23        36   # BR(H -> Z       A      )
     3.48187574E-03    2     1000024  -1000024   # BR(H -> ~chi_1+ ~chi_1-)
     4.37154813E-02    2     1000022   1000022   # BR(H -> ~chi_10 ~chi_10)
     1.24580983E-02    2     1000023   1000023   # BR(H -> ~chi_20 ~chi_20)
     8.48621884E-03    2     1000025   1000025   # BR(H -> ~chi_30 ~chi_30)
     2.02242266E-01    2     1000022   1000023   # BR(H -> ~chi_10 ~chi_20)
     1.31671750E-01    2     1000022   1000025   # BR(H -> ~chi_10 ~chi_30)
     2.11996418E-02    2     1000023   1000025   # BR(H -> ~chi_20 ~chi_30)
#
#         PDG            Width
DECAY        36     8.82833915E+00   # A decays
#          BR         NDA      ID1       ID2
     3.59656382E-01    2           5        -5   # BR(A -> b       bb     )
     6.31352932E-02    2         -15        15   # BR(A -> tau+    tau-   )
     2.23251100E-04    2         -13        13   # BR(A -> mu+     mu-    )
     2.73871578E-04    2           3        -3   # BR(A -> s       sb     )
     1.53567251E-06    2           4        -4   # BR(A -> c       cb     )
     1.53341194E-01    2           6        -6   # BR(A -> t       tb     )
     1.51773806E-04    2          21        21   # BR(A -> g       g      )
     5.33041958E-07    2          22        22   # BR(A -> gam     gam    )
     1.83525047E-07    2          23        22   # BR(A -> Z       gam    )
     7.42542295E-05    2          23        25   # BR(A -> Z       h      )
     3.60677890E-03    2     1000024  -1000024   # BR(A -> ~chi_1+ ~chi_1-)
     4.02598149E-02    2     1000022   1000022   # BR(A -> ~chi_10 ~chi_10)
     8.19435842E-03    2     1000023   1000023   # BR(A -> ~chi_20 ~chi_20)
     1.33430514E-02    2     1000025   1000025   # BR(A -> ~chi_30 ~chi_30)
     1.28490457E-01    2     1000022   1000023   # BR(A -> ~chi_10 ~chi_20)
     2.08475041E-01    2     1000022   1000025   # BR(A -> ~chi_10 ~chi_30)
     2.07722261E-02    2     1000023   1000025   # BR(A -> ~chi_20 ~chi_30)
#
#         PDG            Width
DECAY        37     8.75438791E+00   # H+ decays
#          BR         NDA      ID1       ID2
     5.74741121E-04    2           4        -5   # BR(H+ -> c       bb     )
     6.37000822E-02    2         -15        16   # BR(H+ -> tau+    nu_tau )
     2.25248235E-04    2         -13        14   # BR(H+ -> mu+     nu_mu  )
     3.67832372E-06    2           2        -5   # BR(H+ -> u       bb     )
     1.32167497E-05    2           2        -3   # BR(H+ -> u       sb     )
     2.73321856E-04    2           4        -3   # BR(H+ -> c       sb     )
     5.10660724E-01    2           6        -5   # BR(H+ -> t       bb     )
     7.50409138E-05    2          24        25   # BR(H+ -> W+      h      )
     1.07505381E-12    2          24        36   # BR(H+ -> W+      A      )
     3.98422362E-01    2     1000024   1000022   # BR(H+ -> ~chi_1+ ~chi_10)
     2.18028366E-02    2     1000024   1000023   # BR(H+ -> ~chi_1+ ~chi_20)
     4.24874779E-03    2     1000024   1000025   # BR(H+ -> ~chi_1+ ~chi_30)
