#
#                              ======================
#                              | THE SUSYHIT OUTPUT |
#                              ======================
#
#
#              ------------------------------------------------------
#              |     This is the output of the SUSY-HIT package     |
#              |  created by A.Djouadi, M.Muehlleitner and M.Spira. |
#              |  In case of problems with SUSY-HIT email to        |
#              |           margarete.muehlleitner@cern.ch           |
#              |           michael.spira@psi.ch                     |
#              |           abdelhak.djouadi@cern.ch                 |
#              ------------------------------------------------------
#
#              ------------------------------------------------------
#              |  SUSY Les Houches Accord - MSSM Spectrum + Decays  |
#              |              based on the decay programs           |
#              |                                                    |
#              |                     SDECAY 1.3b                    |
#              |                                                    |
#              |  Authors: M.Muhlleitner, A.Djouadi and Y.Mambrini  |
#              |  Ref.:    Comput.Phys.Commun.168(2005)46           |
#              |           [hep-ph/0311167]                         |
#              |                                                    |
#              |                     HDECAY 3.4                     |
#              |                                                    |
#              |  By: A.Djouadi,J.Kalinowski,M.Muhlleitner,M.Spira  |
#              |  Ref.:    Comput.Phys.Commun.108(1998)56           |
#              |           [hep-ph/9704448]                         |
#              |                                                    |
#              |                                                    |
#              |  If not stated otherwise all DRbar couplings and   |
#              |  soft SUSY breaking masses are given at the scale  |
#              |  Q=  0.50007742E+04
#              |                                                    |
#              ------------------------------------------------------
#
#
BLOCK DCINFO  # Decay Program information
     1   SDECAY/HDECAY # decay calculator
     2   1.3b  /3.4    # version number
#
BLOCK SPINFO  # Spectrum calculator information
     1    SOFTSUSY    # spectrum calculator                
     2    3.4.0       # version number                     
#
BLOCK MODSEL  # Model selection
     1     0   #  nonUniversal                                     
#
BLOCK SMINPUTS  # Standard Model inputs
         1     1.25778332E+02   # alpha_em^-1(M_Z)^MSbar
         2     1.16570000E-05   # G_F [GeV^-2]
         3     1.17200002E-01   # alpha_S(M_Z)^MSbar
         4     9.11876000E+01   # M_Z pole mass
         5     4.25000000E+00   # mb(mb)^MSbar
         6     1.72500000E+02   # mt pole mass
         7     1.77682000E+00   # mtau pole mass
#
BLOCK MINPAR  # Input parameters - minimal models
         3     1.00000000E+01   # tanb                
#
BLOCK EXTPAR  # Input parameters - non-minimal models
         0    -1.00000000E+00   # Set                 
         1     6.00000000E+01   # M_1(MX)             
         2     3.00000000E+03   # M_2(MX)             
         3     2.04381100E+03   # M_3(MX)             
        11     5.00000000E+03   # At(MX)              
        12     5.00000000E+03   # Ab(MX)              
        13     0.00000000E+00   # Atau(MX)            
        23    -1.87268000E+02   # mu(MX)              
        26     3.00000000E+03   # mA(pole)            
        31     5.00000000E+03   # meL(MX)             
        32     5.00000000E+03   # mmuL(MX)            
        33     5.00000000E+03   # mtauL(MX)           
        34     5.00000000E+03   # meR(MX)             
        35     5.00000000E+03   # mmuR(MX)            
        36     5.00000000E+03   # mtauR(MX)           
        41     5.00000000E+03   # mqL1(MX)            
        42     5.00000000E+03   # mqL2(MX)            
        43     5.00000000E+03   # mqL3(MX)            
        44     5.00000000E+03   # muR(MX)             
        45     5.00000000E+03   # mcR(MX)             
        46     5.00000000E+03   # mtR(MX)             
        47     5.00000000E+03   # mdR(MX)             
        48     5.00000000E+03   # msR(MX)             
        49     5.00000000E+03   # mbR(MX)             
#
BLOCK MASS  # Mass Spectrum
# PDG code           mass       particle
        24     8.00910364E+01   # W+
        25     1.24794594E+02   # h
        35     3.00009111E+03   # H
        36     2.99999978E+03   # A
        37     3.00148185E+03   # H+
         5     4.87878001E+00   # b-quark pole mass calculated from mb(mb)_Msbar
   1000001     5.07819399E+03   # ~d_L
   2000001     5.06031822E+03   # ~d_R
   1000002     5.07772029E+03   # ~u_L
   2000002     5.06000867E+03   # ~u_R
   1000003     5.07819399E+03   # ~s_L
   2000003     5.06031822E+03   # ~s_R
   1000004     5.07772029E+03   # ~c_L
   2000004     5.06000867E+03   # ~c_R
   1000005     5.02419338E+03   # ~b_1
   2000005     5.05839217E+03   # ~b_2
   1000006     4.91597446E+03   # ~t_1
   2000006     5.06697833E+03   # ~t_2
   1000011     5.01916279E+03   # ~e_L
   2000011     5.00596013E+03   # ~e_R
   1000012     5.01821015E+03   # ~nu_eL
   1000013     5.01916279E+03   # ~mu_L
   2000013     5.00596013E+03   # ~mu_R
   1000014     5.01821015E+03   # ~nu_muL
   1000015     5.00483282E+03   # ~tau_1
   2000015     5.01862820E+03   # ~tau_2
   1000016     5.01765525E+03   # ~nu_tauL
   1000021     2.40000015E+03   # ~g
   1000022     5.87059808E+01   # ~chi_10
   1000023     2.04232758E+02   # ~chi_20
   1000025    -2.05083508E+02   # ~chi_30
   1000035     3.07430592E+03   # ~chi_40
   1000024     2.00000406E+02   # ~chi_1+
   1000037     3.07447406E+03   # ~chi_2+
#
BLOCK NMIX  # Neutralino Mixing Matrix
  1  1     9.72112898E-01   # N_11
  1  2    -5.01152692E-04   # N_12
  1  3    -2.30088650E-01   # N_13
  1  4    -4.53373585E-02   # N_14
  2  1     1.94542141E-01   # N_21
  2  2     1.71131222E-02   # N_22
  2  3     6.83258888E-01   # N_23
  2  4     7.03575006E-01   # N_24
  3  1    -1.30956874E-01   # N_31
  3  2     1.85831982E-02   # N_32
  3  3    -6.92975728E-01   # N_33
  3  4     7.08723925E-01   # N_34
  4  1    -4.08579332E-04   # N_41
  4  2     9.99680726E-01   # N_42
  4  3     1.07004454E-03   # N_43
  4  4    -2.52415021E-02   # N_44
#
BLOCK UMIX  # Chargino Mixing Matrix U
  1  1    -1.50932883E-03   # U_11
  1  2     9.99998861E-01   # U_12
  2  1    -9.99998861E-01   # U_21
  2  2    -1.50932883E-03   # U_22
#
BLOCK VMIX  # Chargino Mixing Matrix V
  1  1     3.57066093E-02   # V_11
  1  2    -9.99362316E-01   # V_12
  2  1    -9.99362316E-01   # V_21
  2  2    -3.57066093E-02   # V_22
#
BLOCK STOPMIX  # Stop Mixing Matrix
  1  1    -5.00763575E-01   # cos(theta_t)
  1  2     8.65584104E-01   # sin(theta_t)
  2  1    -8.65584104E-01   # -sin(theta_t)
  2  2    -5.00763575E-01   # cos(theta_t)
#
BLOCK SBOTMIX  # Sbottom Mixing Matrix
  1  1     9.99408679E-01   # cos(theta_b)
  1  2    -3.43844782E-02   # sin(theta_b)
  2  1     3.43844782E-02   # -sin(theta_b)
  2  2     9.99408679E-01   # cos(theta_b)
#
BLOCK STAUMIX  # Stau Mixing Matrix
  1  1    -2.21883294E-02   # cos(theta_tau)
  1  2     9.99753809E-01   # sin(theta_tau)
  2  1    -9.99753809E-01   # -sin(theta_tau)
  2  2    -2.21883294E-02   # cos(theta_tau)
#
BLOCK ALPHA  # Higgs mixing
          -1.05500332E-01   # Mixing angle in the neutral Higgs boson sector
#
BLOCK HMIX Q=  5.00077416E+03  # DRbar Higgs Parameters
         1    -1.90689919E+02   # mu(Q)MSSM           
         2     9.46824799E+00   # tan                 
         3     2.41662590E+02   # higgs               
         4     8.79011567E+06   # mA^2(Q)MSSM         
#
BLOCK GAUGE Q=  5.00077416E+03  # The gauge couplings
     1     3.71151386E-01   # gprime(Q) DRbar
     2     6.34334311E-01   # g(Q) DRbar
     3     9.95823134E-01   # g3(Q) DRbar
#
BLOCK AU Q=  5.00077416E+03  # The trilinear couplings
  1  1     5.00000002E+03   # A_u(Q) DRbar
  2  2     5.00000002E+03   # A_c(Q) DRbar
  3  3     5.00000002E+03   # A_t(Q) DRbar
#
BLOCK AD Q=  5.00077416E+03  # The trilinear couplings
  1  1     5.00000001E+03   # A_d(Q) DRbar
  2  2     5.00000001E+03   # A_s(Q) DRbar
  3  3     5.00000001E+03   # A_b(Q) DRbar
#
BLOCK AE Q=  5.00077416E+03  # The trilinear couplings
  1  1     0.00000000E+00   # A_e(Q) DRbar
  2  2     2.30476962E-07   # A_mu(Q) DRbar
  3  3     2.30336139E-07   # A_tau(Q) DRbar
#
BLOCK Yu Q=  5.00077416E+03  # The Yukawa couplings
  1  1     0.00000000E+00   # y_u(Q) DRbar
  2  2     0.00000000E+00   # y_c(Q) DRbar
  3  3     8.21476645E-01   # y_t(Q) DRbar
#
BLOCK Yd Q=  5.00077416E+03  # The Yukawa couplings
  1  1     0.00000000E+00   # y_d(Q) DRbar
  2  2     0.00000000E+00   # y_s(Q) DRbar
  3  3     1.29930230E-01   # y_b(Q) DRbar
#
BLOCK Ye Q=  5.00077416E+03  # The Yukawa couplings
  1  1     0.00000000E+00   # y_e(Q) DRbar
  2  2     0.00000000E+00   # y_mu(Q) DRbar
  3  3     9.73472396E-02   # y_tau(Q) DRbar
#
BLOCK MSOFT Q=  5.00077416E+03  # The soft SUSY breaking masses at the scale Q
         1     6.00000000E+01   # M_1(Q)              
         2     3.00000000E+03   # M_2(Q)              
         3     2.04381100E+03   # M_3(Q)              
        21     8.69790256E+06   # mH1^2(Q)            
        22     5.44638258E+05   # mH2^2(Q)            
        31     5.00000000E+03   # meL(Q)              
        32     5.00000000E+03   # mmuL(Q)             
        33     5.00000000E+03   # mtauL(Q)            
        34     5.00000000E+03   # meR(Q)              
        35     5.00000000E+03   # mmuR(Q)             
        36     5.00000000E+03   # mtauR(Q)            
        41     5.00000000E+03   # mqL1(Q)             
        42     5.00000000E+03   # mqL2(Q)             
        43     4.99999999E+03   # mqL3(Q)             
        44     5.00000000E+03   # muR(Q)              
        45     5.00000000E+03   # mcR(Q)              
        46     4.99999999E+03   # mtR(Q)              
        47     5.00000000E+03   # mdR(Q)              
        48     5.00000000E+03   # msR(Q)              
        49     5.00000000E+03   # mbR(Q)              
#
#
#
#                             =================
#                             |The decay table|
#                             =================
#
# - The QCD corrections to the decays gluino -> squark  + quark
#                                     squark -> gaugino + quark_prime
#                                     squark -> squark_prime + Higgs
#                                     squark -> gluino  + quark
#   are included.
#
# - The multi-body decays for the inos, stops and sbottoms are included.
#
# - The loop induced decays for the gluino, neutralinos and stops
#   are included.
#
# - The SUSY decays of the top quark are included.
#
#
#         PDG            Width
DECAY         6     1.41025035E+00   # top decays
#          BR         NDA      ID1       ID2
     1.00000000E+00    2           5        24   # BR(t ->  b    W+)
#
#         PDG            Width
DECAY   1000021     6.93715912E-03   # gluino decays
#          BR         NDA      ID1       ID2
     1.29878054E-05    2     1000022        21   # BR(~g -> ~chi_10 g)
     4.13651009E-03    2     1000023        21   # BR(~g -> ~chi_20 g)
     4.02832763E-03    2     1000025        21   # BR(~g -> ~chi_30 g)
#           BR         NDA      ID1       ID2       ID3
     8.32329945E-03    3     1000022         1        -1   # BR(~g -> ~chi_10 d  db)
     2.99226734E-04    3     1000023         1        -1   # BR(~g -> ~chi_20 d  db)
     1.64011172E-04    3     1000025         1        -1   # BR(~g -> ~chi_30 d  db)
     2.83308092E-02    3     1000022         2        -2   # BR(~g -> ~chi_10 u  ub)
     1.25897619E-03    3     1000023         2        -2   # BR(~g -> ~chi_20 u  ub)
     3.80066675E-04    3     1000025         2        -2   # BR(~g -> ~chi_30 u  ub)
     8.32329945E-03    3     1000022         3        -3   # BR(~g -> ~chi_10 s  sb)
     2.99226734E-04    3     1000023         3        -3   # BR(~g -> ~chi_20 s  sb)
     1.64011172E-04    3     1000025         3        -3   # BR(~g -> ~chi_30 s  sb)
     2.83308092E-02    3     1000022         4        -4   # BR(~g -> ~chi_10 c  cb)
     1.25897619E-03    3     1000023         4        -4   # BR(~g -> ~chi_20 c  cb)
     3.80066675E-04    3     1000025         4        -4   # BR(~g -> ~chi_30 c  cb)
     9.06364730E-03    3     1000022         5        -5   # BR(~g -> ~chi_10 b  bb)
     5.32689281E-03    3     1000023         5        -5   # BR(~g -> ~chi_20 b  bb)
     5.33948044E-03    3     1000025         5        -5   # BR(~g -> ~chi_30 b  bb)
     2.74452488E-02    3     1000022         6        -6   # BR(~g -> ~chi_10 t  tb)
     2.16796747E-01    3     1000023         6        -6   # BR(~g -> ~chi_20 t  tb)
     2.05566073E-01    3     1000025         6        -6   # BR(~g -> ~chi_30 t  tb)
     5.27238030E-05    3     1000024         1        -2   # BR(~g -> ~chi_1+ d  ub)
     5.27238030E-05    3    -1000024         2        -1   # BR(~g -> ~chi_1- u  db)
     5.27238030E-05    3     1000024         3        -4   # BR(~g -> ~chi_1+ s  cb)
     5.27238030E-05    3    -1000024         4        -3   # BR(~g -> ~chi_1- c  sb)
     2.22280205E-01    3     1000024         5        -6   # BR(~g -> ~chi_1+ b  tb)
     2.22280205E-01    3    -1000024         6        -5   # BR(~g -> ~chi_1- t  bb)
#
#         PDG            Width
DECAY   1000006     3.13639944E+02   # stop1 decays
#          BR         NDA      ID1       ID2
     2.48481043E-02    2     1000022         6   # BR(~t_1 -> ~chi_10 t )
     1.11633590E-01    2     1000023         6   # BR(~t_1 -> ~chi_20 t )
     9.90382585E-02    2     1000025         6   # BR(~t_1 -> ~chi_30 t )
     6.39435012E-03    2     1000035         6   # BR(~t_1 -> ~chi_40 t )
     1.55708565E-01    2     1000024         5   # BR(~t_1 -> ~chi_1+ b )
     1.27476052E-02    2     1000037         5   # BR(~t_1 -> ~chi_2+ b )
     5.89629527E-01    2     1000021         6   # BR(~t_1 -> ~g      t )
#
#         PDG            Width
DECAY   2000006     3.19149970E+02   # stop2 decays
#          BR         NDA      ID1       ID2
     1.31175056E-02    2     1000022         6   # BR(~t_2 -> ~chi_10 t )
     9.90433423E-02    2     1000023         6   # BR(~t_2 -> ~chi_20 t )
     1.13932307E-01    2     1000025         6   # BR(~t_2 -> ~chi_30 t )
     1.78418642E-02    2     1000035         6   # BR(~t_2 -> ~chi_40 t )
     6.04243347E-02    2     1000024         5   # BR(~t_2 -> ~chi_1+ b )
     3.55313476E-02    2     1000037         5   # BR(~t_2 -> ~chi_2+ b )
     6.56455233E-01    2     1000021         6   # BR(~t_2 -> ~g      t )
     8.53602959E-04    2     1000006        25   # BR(~t_2 -> ~t_1    h )
     2.80046278E-03    2     1000006        23   # BR(~t_2 -> ~t_1    Z )
#
#         PDG            Width
DECAY   1000005     2.93575605E+02   # sbottom1 decays
#          BR         NDA      ID1       ID2
     2.86292603E-03    2     1000022         5   # BR(~b_1 -> ~chi_10 b )
     2.62801394E-03    2     1000023         5   # BR(~b_1 -> ~chi_20 b )
     2.80431335E-03    2     1000025         5   # BR(~b_1 -> ~chi_30 b )
     2.60619539E-02    2     1000035         5   # BR(~b_1 -> ~chi_40 b )
     2.28803482E-01    2    -1000024         6   # BR(~b_1 -> ~chi_1- t )
     5.23197839E-02    2    -1000037         6   # BR(~b_1 -> ~chi_2- t )
     6.82691178E-01    2     1000021         5   # BR(~b_1 -> ~g      b )
     1.82834854E-03    2     1000006       -24   # BR(~b_1 -> ~t_1    W-)
#
#         PDG            Width
DECAY   2000005     2.09614273E+02   # sbottom2 decays
#          BR         NDA      ID1       ID2
     1.36058624E-02    2     1000022         5   # BR(~b_2 -> ~chi_10 b )
     4.42969484E-03    2     1000023         5   # BR(~b_2 -> ~chi_20 b )
     4.24498936E-03    2     1000025         5   # BR(~b_2 -> ~chi_30 b )
     3.59203192E-05    2     1000035         5   # BR(~b_2 -> ~chi_40 b )
     8.40719614E-03    2    -1000024         6   # BR(~b_2 -> ~chi_1- t )
     7.21396279E-05    2    -1000037         6   # BR(~b_2 -> ~chi_2- t )
     9.69191507E-01    2     1000021         5   # BR(~b_2 -> ~g      b )
     1.26907499E-05    2     1000006       -24   # BR(~b_2 -> ~t_1    W-)
#
#         PDG            Width
DECAY   1000002     2.29339841E+02   # sup_L decays
#          BR         NDA      ID1       ID2
     3.06041273E-03    2     1000022         2   # BR(~u_L -> ~chi_10 u)
     2.58774647E-04    2     1000023         2   # BR(~u_L -> ~chi_20 u)
     4.13302038E-06    2     1000025         2   # BR(~u_L -> ~chi_30 u)
     3.45854799E-02    2     1000035         2   # BR(~u_L -> ~chi_40 u)
     2.17720333E-04    2     1000024         1   # BR(~u_L -> ~chi_1+ d)
     6.91292436E-02    2     1000037         1   # BR(~u_L -> ~chi_2+ d)
     8.92744236E-01    2     1000021         2   # BR(~u_L -> ~g      u)
#
#         PDG            Width
DECAY   2000002     2.15107829E+02   # sup_R decays
#          BR         NDA      ID1       ID2
     5.22971359E-02    2     1000022         2   # BR(~u_R -> ~chi_10 u)
     2.08910974E-03    2     1000023         2   # BR(~u_R -> ~chi_20 u)
     9.46628744E-04    2     1000025         2   # BR(~u_R -> ~chi_30 u)
     3.70623277E-09    2     1000035         2   # BR(~u_R -> ~chi_40 u)
     9.44667122E-01    2     1000021         2   # BR(~u_R -> ~g      u)
#
#         PDG            Width
DECAY   1000001     2.29354990E+02   # sdown_L decays
#          BR         NDA      ID1       ID2
     3.09303179E-03    2     1000022         1   # BR(~d_L -> ~chi_10 d)
     3.70409657E-05    2     1000023         1   # BR(~d_L -> ~chi_20 d)
     1.66217702E-04    2     1000025         1   # BR(~d_L -> ~chi_30 d)
     3.46048744E-02    2     1000035         1   # BR(~d_L -> ~chi_40 d)
     3.89029230E-07    2    -1000024         2   # BR(~d_L -> ~chi_1- u)
     6.92340741E-02    2    -1000037         2   # BR(~d_L -> ~chi_2- u)
     8.92864372E-01    2     1000021         1   # BR(~d_L -> ~g      d)
#
#         PDG            Width
DECAY   2000001     2.06207977E+02   # sdown_R decays
#          BR         NDA      ID1       ID2
     1.36394138E-02    2     1000022         1   # BR(~d_R -> ~chi_10 d)
     5.44852801E-04    2     1000023         1   # BR(~d_R -> ~chi_20 d)
     2.46886659E-04    2     1000025         1   # BR(~d_R -> ~chi_30 d)
     9.66744694E-10    2     1000035         1   # BR(~d_R -> ~chi_40 d)
     9.85568846E-01    2     1000021         1   # BR(~d_R -> ~g      d)
#
#         PDG            Width
DECAY   1000004     2.29339841E+02   # scharm_L decays
#          BR         NDA      ID1       ID2
     3.06041273E-03    2     1000022         4   # BR(~c_L -> ~chi_10 c)
     2.58774647E-04    2     1000023         4   # BR(~c_L -> ~chi_20 c)
     4.13302038E-06    2     1000025         4   # BR(~c_L -> ~chi_30 c)
     3.45854799E-02    2     1000035         4   # BR(~c_L -> ~chi_40 c)
     2.17720333E-04    2     1000024         3   # BR(~c_L -> ~chi_1+ s)
     6.91292436E-02    2     1000037         3   # BR(~c_L -> ~chi_2+ s)
     8.92744236E-01    2     1000021         4   # BR(~c_L -> ~g      c)
#
#         PDG            Width
DECAY   2000004     2.15107829E+02   # scharm_R decays
#          BR         NDA      ID1       ID2
     5.22971359E-02    2     1000022         4   # BR(~c_R -> ~chi_10 c)
     2.08910974E-03    2     1000023         4   # BR(~c_R -> ~chi_20 c)
     9.46628744E-04    2     1000025         4   # BR(~c_R -> ~chi_30 c)
     3.70623277E-09    2     1000035         4   # BR(~c_R -> ~chi_40 c)
     9.44667122E-01    2     1000021         4   # BR(~c_R -> ~g      c)
#
#         PDG            Width
DECAY   1000003     2.29354990E+02   # sstrange_L decays
#          BR         NDA      ID1       ID2
     3.09303179E-03    2     1000022         3   # BR(~s_L -> ~chi_10 s)
     3.70409657E-05    2     1000023         3   # BR(~s_L -> ~chi_20 s)
     1.66217702E-04    2     1000025         3   # BR(~s_L -> ~chi_30 s)
     3.46048744E-02    2     1000035         3   # BR(~s_L -> ~chi_40 s)
     3.89029230E-07    2    -1000024         4   # BR(~s_L -> ~chi_1- c)
     6.92340741E-02    2    -1000037         4   # BR(~s_L -> ~chi_2- c)
     8.92864372E-01    2     1000021         3   # BR(~s_L -> ~g      s)
#
#         PDG            Width
DECAY   2000003     2.06207977E+02   # sstrange_R decays
#          BR         NDA      ID1       ID2
     1.36394138E-02    2     1000022         3   # BR(~s_R -> ~chi_10 s)
     5.44852801E-04    2     1000023         3   # BR(~s_R -> ~chi_20 s)
     2.46886659E-04    2     1000025         3   # BR(~s_R -> ~chi_30 s)
     9.66744694E-10    2     1000035         3   # BR(~s_R -> ~chi_40 s)
     9.85568846E-01    2     1000021         3   # BR(~s_R -> ~g      s)
#
#         PDG            Width
DECAY   1000011     3.04153535E+01   # selectron_L decays
#          BR         NDA      ID1       ID2
     2.13250308E-01    2     1000022        11   # BR(~e_L -> ~chi_10 e-)
     1.12871254E-02    2     1000023        11   # BR(~e_L -> ~chi_20 e-)
     2.21758773E-03    2     1000025        11   # BR(~e_L -> ~chi_30 e-)
     2.57578385E-01    2     1000035        11   # BR(~e_L -> ~chi_40 e-)
     2.99980101E-06    2    -1000024        12   # BR(~e_L -> ~chi_1- nu_e)
     5.15663593E-01    2    -1000037        12   # BR(~e_L -> ~chi_2- nu_e)
#
#         PDG            Width
DECAY   2000011     2.74256598E+01   # selectron_R decays
#          BR         NDA      ID1       ID2
     9.45162675E-01    2     1000022        11   # BR(~e_R -> ~chi_10 e-)
     3.77374936E-02    2     1000023        11   # BR(~e_R -> ~chi_20 e-)
     1.70997665E-02    2     1000025        11   # BR(~e_R -> ~chi_30 e-)
     6.47896970E-08    2     1000035        11   # BR(~e_R -> ~chi_40 e-)
#
#         PDG            Width
DECAY   1000013     3.04153535E+01   # smuon_L decays
#          BR         NDA      ID1       ID2
     2.13250308E-01    2     1000022        13   # BR(~mu_L -> ~chi_10 mu-)
     1.12871254E-02    2     1000023        13   # BR(~mu_L -> ~chi_20 mu-)
     2.21758773E-03    2     1000025        13   # BR(~mu_L -> ~chi_30 mu-)
     2.57578385E-01    2     1000035        13   # BR(~mu_L -> ~chi_40 mu-)
     2.99980101E-06    2    -1000024        14   # BR(~mu_L -> ~chi_1- nu_mu)
     5.15663593E-01    2    -1000037        14   # BR(~mu_L -> ~chi_2- nu_mu)
#
#         PDG            Width
DECAY   2000013     2.74256598E+01   # smuon_R decays
#          BR         NDA      ID1       ID2
     9.45162675E-01    2     1000022        13   # BR(~mu_R -> ~chi_10 mu-)
     3.77374936E-02    2     1000023        13   # BR(~mu_R -> ~chi_20 mu-)
     1.70997665E-02    2     1000025        13   # BR(~mu_R -> ~chi_30 mu-)
     6.47896970E-08    2     1000035        13   # BR(~mu_R -> ~chi_40 mu-)
#
#         PDG            Width
DECAY   1000015     2.93011593E+01   # stau_1 decays
#          BR         NDA      ID1       ID2
     8.86705500E-01    2     1000022        15   # BR(~tau_1 -> ~chi_10  tau-)
     4.98506812E-02    2     1000023        15   # BR(~tau_1 -> ~chi_20  tau-)
     3.09749052E-02    2     1000025        15   # BR(~tau_1 -> ~chi_30  tau-)
     1.33165046E-04    2     1000035        15   # BR(~tau_1 -> ~chi_40  tau-)
     3.20693055E-02    2    -1000024        16   # BR(~tau_1 -> ~chi_1-  nu_tau)
     2.66442582E-04    2    -1000037        16   # BR(~tau_1 -> ~chi_2-  nu_tau)
#
#         PDG            Width
DECAY   2000015     3.13485928E+01   # stau_2 decays
#          BR         NDA      ID1       ID2
     2.07975393E-01    2     1000022        15   # BR(~tau_2 -> ~chi_10  tau-)
     2.54114120E-02    2     1000023        15   # BR(~tau_2 -> ~chi_20  tau-)
     1.70084224E-02    2     1000025        15   # BR(~tau_2 -> ~chi_30  tau-)
     2.49694159E-01    2     1000035        15   # BR(~tau_2 -> ~chi_40  tau-)
     3.08484219E-05    2    -1000024        16   # BR(~tau_2 -> ~chi_1-  nu_tau)
     4.99879765E-01    2    -1000037        16   # BR(~tau_2 -> ~chi_2-  nu_tau)
#
#         PDG            Width
DECAY   1000012     3.04182943E+01   # snu_eL decays
#          BR         NDA      ID1       ID2
     2.13941880E-01    2     1000022        12   # BR(~nu_eL -> ~chi_10 nu_e)
     6.15589604E-03    2     1000023        12   # BR(~nu_eL -> ~chi_20 nu_e)
     5.96530074E-03    2     1000025        12   # BR(~nu_eL -> ~chi_30 nu_e)
     2.57633515E-01    2     1000035        12   # BR(~nu_eL -> ~chi_40 nu_e)
     1.67840585E-03    2     1000024        11   # BR(~nu_eL -> ~chi_1+ e-)
     5.14625002E-01    2     1000037        11   # BR(~nu_eL -> ~chi_2+ e-)
#
#         PDG            Width
DECAY   1000014     3.04182943E+01   # snu_muL decays
#          BR         NDA      ID1       ID2
     2.13941880E-01    2     1000022        14   # BR(~nu_muL -> ~chi_10 nu_mu)
     6.15589604E-03    2     1000023        14   # BR(~nu_muL -> ~chi_20 nu_mu)
     5.96530074E-03    2     1000025        14   # BR(~nu_muL -> ~chi_30 nu_mu)
     2.57633515E-01    2     1000035        14   # BR(~nu_muL -> ~chi_40 nu_mu)
     1.67840585E-03    2     1000024        13   # BR(~nu_muL -> ~chi_1+ mu-)
     5.14625002E-01    2     1000037        13   # BR(~nu_muL -> ~chi_2+ mu-)
#
#         PDG            Width
DECAY   1000016     3.13516612E+01   # snu_tauL decays
#          BR         NDA      ID1       ID2
     2.07549675E-01    2     1000022        16   # BR(~nu_tauL -> ~chi_10 nu_tau)
     5.97196472E-03    2     1000023        16   # BR(~nu_tauL -> ~chi_20 nu_tau)
     5.78706416E-03    2     1000025        16   # BR(~nu_tauL -> ~chi_30 nu_tau)
     2.49869471E-01    2     1000035        16   # BR(~nu_tauL -> ~chi_40 nu_tau)
     3.17057210E-02    2     1000024        15   # BR(~nu_tauL -> ~chi_1+ tau-)
     4.99116105E-01    2     1000037        15   # BR(~nu_tauL -> ~chi_2+ tau-)
#
#         PDG            Width
DECAY   1000024     8.35935432E-02   # chargino1+ decays
#          BR         NDA      ID1       ID2
     1.00000000E+00    2     1000022        24   # BR(~chi_1+ -> ~chi_10  W+)
#
#         PDG            Width
DECAY   1000037     2.32990846E+01   # chargino2+ decays
#          BR         NDA      ID1       ID2
     2.53775193E-01    2     1000024        23   # BR(~chi_2+ -> ~chi_1+  Z )
     7.55840328E-04    2     1000022        24   # BR(~chi_2+ -> ~chi_10  W+)
     2.44843310E-01    2     1000023        24   # BR(~chi_2+ -> ~chi_20  W+)
     2.44867036E-01    2     1000025        24   # BR(~chi_2+ -> ~chi_30  W+)
     2.55721128E-01    2     1000024        25   # BR(~chi_2+ -> ~chi_1+  h )
     3.74935204E-05    2     1000022        37   # BR(~chi_2+ -> ~chi_10  H+)
#
#         PDG            Width
DECAY   1000022     0.00000000E+00   # neutralino1 decays
#
#         PDG            Width
DECAY   1000023     6.58318050E-02   # neutralino2 decays
#          BR         NDA      ID1       ID2
     5.81856724E-01    2     1000022        23   # BR(~chi_20 -> ~chi_10   Z )
     4.18143276E-01    2     1000022        25   # BR(~chi_20 -> ~chi_10   h )
#
#         PDG            Width
DECAY   1000025     4.88176261E-02   # neutralino3 decays
#          BR         NDA      ID1       ID2
     9.02174641E-01    2     1000022        23   # BR(~chi_30 -> ~chi_10   Z )
     9.78253590E-02    2     1000022        25   # BR(~chi_30 -> ~chi_10   h )
#
#         PDG            Width
DECAY   1000035     2.33013197E+01   # neutralino4 decays
#          BR         NDA      ID1       ID2
     7.78260407E-04    2     1000022        23   # BR(~chi_40 -> ~chi_10   Z )
     1.35969997E-01    2     1000023        23   # BR(~chi_40 -> ~chi_20   Z )
     1.16844450E-01    2     1000025        23   # BR(~chi_40 -> ~chi_30   Z )
     2.45445890E-01    2     1000024       -24   # BR(~chi_40 -> ~chi_1+   W-)
     2.45445890E-01    2    -1000024        24   # BR(~chi_40 -> ~chi_1-   W+)
     1.15451063E-05    2     1000022        25   # BR(~chi_40 -> ~chi_10   h )
     3.59716797E-05    2     1000022        35   # BR(~chi_40 -> ~chi_10   H )
     3.92533849E-06    2     1000022        36   # BR(~chi_40 -> ~chi_10   A )
     1.18326891E-01    2     1000023        25   # BR(~chi_40 -> ~chi_20   h )
     1.37137180E-01    2     1000025        25   # BR(~chi_40 -> ~chi_30   h )
#
#         PDG            Width
DECAY        25     4.08563478E-03   # h decays
#          BR         NDA      ID1       ID2
     6.08957459E-01    2           5        -5   # BR(h -> b       bb     )
     6.35051930E-02    2         -15        15   # BR(h -> tau+    tau-   )
     2.24831380E-04    2         -13        13   # BR(h -> mu+     mu-    )
     4.76612429E-04    2           3        -3   # BR(h -> s       sb     )
     2.06490882E-02    2           4        -4   # BR(h -> c       cb     )
     6.68198738E-02    2          21        21   # BR(h -> g       g      )
     2.29472972E-03    2          22        22   # BR(h -> gam     gam    )
     1.48320436E-03    2          22        23   # BR(h -> Z       gam    )
     2.09419621E-01    2          24       -24   # BR(h -> W+      W-     )
     2.49491622E-02    2          23        23   # BR(h -> Z       Z      )
     1.22022544E-03    2     1000022   1000022   # BR(h -> ~chi_10 ~chi_10)
#
#         PDG            Width
DECAY        35     8.81414098E+00   # H decays
#          BR         NDA      ID1       ID2
     3.59075910E-01    2           5        -5   # BR(H -> b       bb     )
     6.31853499E-02    2         -15        15   # BR(H -> tau+    tau-   )
     2.23428416E-04    2         -13        13   # BR(H -> mu+     mu-    )
     2.73888848E-04    2           3        -3   # BR(H -> s       sb     )
     1.53333682E-06    2           4        -4   # BR(H -> c       cb     )
     1.53192503E-01    2           6        -6   # BR(H -> t       tb     )
     5.09823828E-05    2          21        21   # BR(H -> g       g      )
     1.46815282E-07    2          22        22   # BR(H -> gam     gam    )
     9.03624988E-08    2          23        22   # BR(H -> Z       gam    )
     7.52594445E-05    2          24       -24   # BR(H -> W+      W-     )
     3.75820761E-05    2          23        23   # BR(H -> Z       Z      )
     2.67185273E-04    2          25        25   # BR(H -> h       h      )
     1.37776016E-23    2          36        36   # BR(H -> A       A      )
     1.27832840E-18    2          23        36   # BR(H -> Z       A      )
     3.48408497E-03    2     1000024  -1000024   # BR(H -> ~chi_1+ ~chi_1-)
     4.37401109E-02    2     1000022   1000022   # BR(H -> ~chi_10 ~chi_10)
     1.24651630E-02    2     1000023   1000023   # BR(H -> ~chi_20 ~chi_20)
     8.49087778E-03    2     1000025   1000025   # BR(H -> ~chi_30 ~chi_30)
     2.02444747E-01    2     1000022   1000023   # BR(H -> ~chi_10 ~chi_20)
     1.31779319E-01    2     1000022   1000025   # BR(H -> ~chi_10 ~chi_30)
     2.12118376E-02    2     1000023   1000025   # BR(H -> ~chi_20 ~chi_30)
#
#         PDG            Width
DECAY        36     8.81912658E+00   # A decays
#          BR         NDA      ID1       ID2
     3.58995944E-01    2           5        -5   # BR(A -> b       bb     )
     6.31514597E-02    2         -15        15   # BR(A -> tau+    tau-   )
     2.23308265E-04    2         -13        13   # BR(A -> mu+     mu-    )
     2.73941801E-04    2           3        -3   # BR(A -> s       sb     )
     1.53848860E-06    2           4        -4   # BR(A -> c       cb     )
     1.53622389E-01    2           6        -6   # BR(A -> t       tb     )
     1.52002315E-04    2          21        21   # BR(A -> g       g      )
     5.33863134E-07    2          22        22   # BR(A -> gam     gam    )
     1.83916086E-07    2          23        22   # BR(A -> Z       gam    )
     7.49317372E-05    2          23        25   # BR(A -> Z       h      )
     3.60915494E-03    2     1000024  -1000024   # BR(A -> ~chi_1+ ~chi_1-)
     4.02817140E-02    2     1000022   1000022   # BR(A -> ~chi_10 ~chi_10)
     8.19760137E-03    2     1000023   1000023   # BR(A -> ~chi_20 ~chi_20)
     1.33526695E-02    2     1000025   1000025   # BR(A -> ~chi_30 ~chi_30)
     1.28596958E-01    2     1000022   1000023   # BR(A -> ~chi_10 ~chi_20)
     2.08681820E-01    2     1000022   1000025   # BR(A -> ~chi_10 ~chi_30)
     2.07838488E-02    2     1000023   1000025   # BR(A -> ~chi_20 ~chi_30)
#
#         PDG            Width
DECAY        37     8.75740557E+00   # H+ decays
#          BR         NDA      ID1       ID2
     5.75110207E-04    2           4        -5   # BR(H+ -> c       bb     )
     6.36279609E-02    2         -15        16   # BR(H+ -> tau+    nu_tau )
     2.24993209E-04    2         -13        14   # BR(H+ -> mu+     nu_mu  )
     3.68068586E-06    2           2        -5   # BR(H+ -> u       bb     )
     1.32017860E-05    2           2        -3   # BR(H+ -> u       sb     )
     2.73014747E-04    2           4        -3   # BR(H+ -> c       sb     )
     5.10958469E-01    2           6        -5   # BR(H+ -> t       bb     )
     7.56204695E-05    2          24        25   # BR(H+ -> W+      h      )
     1.07294280E-12    2          24        36   # BR(H+ -> W+      A      )
     3.98218237E-01    2     1000024   1000022   # BR(H+ -> ~chi_1+ ~chi_10)
     2.17841330E-02    2     1000024   1000023   # BR(H+ -> ~chi_1+ ~chi_20)
     4.24557847E-03    2     1000024   1000025   # BR(H+ -> ~chi_1+ ~chi_30)
