#
#                              ======================
#                              | THE SUSYHIT OUTPUT |
#                              ======================
#
#
#              ------------------------------------------------------
#              |     This is the output of the SUSY-HIT package     |
#              |  created by A.Djouadi, M.Muehlleitner and M.Spira. |
#              |  In case of problems with SUSY-HIT email to        |
#              |           margarete.muehlleitner@cern.ch           |
#              |           michael.spira@psi.ch                     |
#              |           abdelhak.djouadi@cern.ch                 |
#              ------------------------------------------------------
#
#              ------------------------------------------------------
#              |  SUSY Les Houches Accord - MSSM Spectrum + Decays  |
#              |              based on the decay programs           |
#              |                                                    |
#              |                     SDECAY 1.3b                    |
#              |                                                    |
#              |  Authors: M.Muhlleitner, A.Djouadi and Y.Mambrini  |
#              |  Ref.:    Comput.Phys.Commun.168(2005)46           |
#              |           [hep-ph/0311167]                         |
#              |                                                    |
#              |                     HDECAY 3.4                     |
#              |                                                    |
#              |  By: A.Djouadi,J.Kalinowski,M.Muhlleitner,M.Spira  |
#              |  Ref.:    Comput.Phys.Commun.108(1998)56           |
#              |           [hep-ph/9704448]                         |
#              |                                                    |
#              |                                                    |
#              |  If not stated otherwise all DRbar couplings and   |
#              |  soft SUSY breaking masses are given at the scale  |
#              |  Q=  0.50007654E+04
#              |                                                    |
#              ------------------------------------------------------
#
#
BLOCK DCINFO  # Decay Program information
     1   SDECAY/HDECAY # decay calculator
     2   1.3b  /3.4    # version number
#
BLOCK SPINFO  # Spectrum calculator information
     1    SOFTSUSY    # spectrum calculator                
     2    3.4.0       # version number                     
#
BLOCK MODSEL  # Model selection
     1     0   #  nonUniversal                                     
#
BLOCK SMINPUTS  # Standard Model inputs
         1     1.25778332E+02   # alpha_em^-1(M_Z)^MSbar
         2     1.16570000E-05   # G_F [GeV^-2]
         3     1.17200002E-01   # alpha_S(M_Z)^MSbar
         4     9.11876000E+01   # M_Z pole mass
         5     4.25000000E+00   # mb(mb)^MSbar
         6     1.72500000E+02   # mt pole mass
         7     1.77682000E+00   # mtau pole mass
#
BLOCK MINPAR  # Input parameters - minimal models
         3     1.00000000E+01   # tanb                
#
BLOCK EXTPAR  # Input parameters - non-minimal models
         0    -1.00000000E+00   # Set                 
         1     6.00000000E+01   # M_1(MX)             
         2     3.00000000E+03   # M_2(MX)             
         3     1.03377000E+03   # M_3(MX)             
        11     5.00000000E+03   # At(MX)              
        12     5.00000000E+03   # Ab(MX)              
        13     0.00000000E+00   # Atau(MX)            
        23    -1.58764000E+02   # mu(MX)              
        26     3.00000000E+03   # mA(pole)            
        31     5.00000000E+03   # meL(MX)             
        32     5.00000000E+03   # mmuL(MX)            
        33     5.00000000E+03   # mtauL(MX)           
        34     5.00000000E+03   # meR(MX)             
        35     5.00000000E+03   # mmuR(MX)            
        36     5.00000000E+03   # mtauR(MX)           
        41     5.00000000E+03   # mqL1(MX)            
        42     5.00000000E+03   # mqL2(MX)            
        43     5.00000000E+03   # mqL3(MX)            
        44     5.00000000E+03   # muR(MX)             
        45     5.00000000E+03   # mcR(MX)             
        46     5.00000000E+03   # mtR(MX)             
        47     5.00000000E+03   # mdR(MX)             
        48     5.00000000E+03   # msR(MX)             
        49     5.00000000E+03   # mbR(MX)             
#
BLOCK MASS  # Mass Spectrum
# PDG code           mass       particle
        24     8.00889897E+01   # W+
        25     1.24506000E+02   # h
        35     3.00009126E+03   # H
        36     2.99999979E+03   # A
        37     3.00148518E+03   # H+
         5     4.87878001E+00   # b-quark pole mass calculated from mb(mb)_Msbar
   1000001     5.06538813E+03   # ~d_L
   2000001     5.04745194E+03   # ~d_R
   1000002     5.06490963E+03   # ~u_L
   2000002     5.04713944E+03   # ~u_R
   1000003     5.06538813E+03   # ~s_L
   2000003     5.04745194E+03   # ~s_R
   1000004     5.06490963E+03   # ~c_L
   2000004     5.04713944E+03   # ~c_R
   1000005     5.01182141E+03   # ~b_1
   2000005     5.04554611E+03   # ~b_2
   1000006     4.90246170E+03   # ~t_1
   2000006     5.05595230E+03   # ~t_2
   1000011     5.01917670E+03   # ~e_L
   2000011     5.00596295E+03   # ~e_R
   1000012     5.01822309E+03   # ~nu_eL
   1000013     5.01917670E+03   # ~mu_L
   2000013     5.00596295E+03   # ~mu_R
   1000014     5.01822309E+03   # ~nu_muL
   1000015     5.00483766E+03   # ~tau_1
   2000015     5.01863781E+03   # ~tau_2
   1000016     5.01766767E+03   # ~nu_tauL
   1000021     1.30000070E+03   # ~g
   1000022     5.78416118E+01   # ~chi_10
   1000023    -1.75656373E+02   # ~chi_20
   1000025     1.75675716E+02   # ~chi_30
   1000035     3.07435720E+03   # ~chi_40
   1000024     1.70000710E+02   # ~chi_1+
   1000037     3.07452549E+03   # ~chi_2+
#
BLOCK NMIX  # Neutralino Mixing Matrix
  1  1     9.59053539E-01   # N_11
  1  2    -9.56806977E-04   # N_12
  1  3    -2.74970774E-01   # N_13
  1  4    -6.78709653E-02   # N_14
  2  1    -1.47324766E-01   # N_21
  2  2     1.87636247E-02   # N_22
  2  3    -6.89005414E-01   # N_23
  2  4     7.09376402E-01   # N_24
  3  1     2.41891612E-01   # N_31
  3  2     1.69328487E-02   # N_32
  3  3     6.70567591E-01   # N_33
  3  4     7.01099730E-01   # N_34
  4  1    -4.14070813E-04   # N_41
  4  2     9.99680094E-01   # N_42
  4  3     1.31094485E-03   # N_43
  4  4    -2.52551070E-02   # N_44
#
BLOCK UMIX  # Chargino Mixing Matrix U
  1  1    -1.84812452E-03   # U_11
  1  2     9.99998292E-01   # U_12
  2  1    -9.99998292E-01   # U_21
  2  2    -1.84812452E-03   # U_22
#
BLOCK VMIX  # Chargino Mixing Matrix V
  1  1     3.57349288E-02   # V_11
  1  2    -9.99361303E-01   # V_12
  2  1    -9.99361303E-01   # V_21
  2  2    -3.57349288E-02   # V_22
#
BLOCK STOPMIX  # Stop Mixing Matrix
  1  1    -5.04771842E-01   # cos(theta_t)
  1  2     8.63252795E-01   # sin(theta_t)
  2  1    -8.63252795E-01   # -sin(theta_t)
  2  2    -5.04771842E-01   # cos(theta_t)
#
BLOCK SBOTMIX  # Sbottom Mixing Matrix
  1  1     9.99431620E-01   # cos(theta_b)
  1  2    -3.37110804E-02   # sin(theta_b)
  2  1     3.37110804E-02   # -sin(theta_b)
  2  2     9.99431620E-01   # cos(theta_b)
#
BLOCK STAUMIX  # Stau Mixing Matrix
  1  1    -1.87289615E-02   # cos(theta_tau)
  1  2     9.99824598E-01   # sin(theta_tau)
  2  1    -9.99824598E-01   # -sin(theta_tau)
  2  2    -1.87289615E-02   # cos(theta_tau)
#
BLOCK ALPHA  # Higgs mixing
          -1.05465752E-01   # Mixing angle in the neutral Higgs boson sector
#
BLOCK HMIX Q=  5.00076541E+03  # DRbar Higgs Parameters
         1    -1.61605413E+02   # mu(Q)MSSM           
         2     9.47133947E+00   # tan                 
         3     2.41691160E+02   # higgs               
         4     8.80071793E+06   # mA^2(Q)MSSM         
#
BLOCK GAUGE Q=  5.00076541E+03  # The gauge couplings
     1     3.71207540E-01   # gprime(Q) DRbar
     2     6.34580973E-01   # g(Q) DRbar
     3     1.00480463E+00   # g3(Q) DRbar
#
BLOCK AU Q=  5.00076541E+03  # The trilinear couplings
  1  1     5.00000001E+03   # A_u(Q) DRbar
  2  2     5.00000001E+03   # A_c(Q) DRbar
  3  3     5.00000001E+03   # A_t(Q) DRbar
#
BLOCK AD Q=  5.00076541E+03  # The trilinear couplings
  1  1     5.00000000E+03   # A_d(Q) DRbar
  2  2     5.00000000E+03   # A_s(Q) DRbar
  3  3     5.00000001E+03   # A_b(Q) DRbar
#
BLOCK AE Q=  5.00076541E+03  # The trilinear couplings
  1  1     0.00000000E+00   # A_e(Q) DRbar
  2  2     6.39346762E-08   # A_mu(Q) DRbar
  3  3     6.31310370E-08   # A_tau(Q) DRbar
#
BLOCK Yu Q=  5.00076541E+03  # The Yukawa couplings
  1  1     0.00000000E+00   # y_u(Q) DRbar
  2  2     0.00000000E+00   # y_c(Q) DRbar
  3  3     8.17220364E-01   # y_t(Q) DRbar
#
BLOCK Yd Q=  5.00076541E+03  # The Yukawa couplings
  1  1     0.00000000E+00   # y_d(Q) DRbar
  2  2     0.00000000E+00   # y_s(Q) DRbar
  3  3     1.29233952E-01   # y_b(Q) DRbar
#
BLOCK Ye Q=  5.00076541E+03  # The Yukawa couplings
  1  1     0.00000000E+00   # y_e(Q) DRbar
  2  2     0.00000000E+00   # y_mu(Q) DRbar
  3  3     9.73868053E-02   # y_tau(Q) DRbar
#
BLOCK MSOFT Q=  5.00076541E+03  # The soft SUSY breaking masses at the scale Q
         1     6.00000000E+01   # M_1(Q)              
         2     3.00000000E+03   # M_2(Q)              
         3     1.03377000E+03   # M_3(Q)              
        21     8.70861999E+06   # mH1^2(Q)            
        22     5.50595639E+05   # mH2^2(Q)            
        31     5.00000000E+03   # meL(Q)              
        32     5.00000000E+03   # mmuL(Q)             
        33     5.00000000E+03   # mtauL(Q)            
        34     5.00000000E+03   # meR(Q)              
        35     5.00000000E+03   # mmuR(Q)             
        36     5.00000000E+03   # mtauR(Q)            
        41     5.00000000E+03   # mqL1(Q)             
        42     5.00000000E+03   # mqL2(Q)             
        43     5.00000000E+03   # mqL3(Q)             
        44     5.00000000E+03   # muR(Q)              
        45     5.00000000E+03   # mcR(Q)              
        46     5.00000000E+03   # mtR(Q)              
        47     5.00000000E+03   # mdR(Q)              
        48     5.00000000E+03   # msR(Q)              
        49     5.00000000E+03   # mbR(Q)              
#
#
#
#                             =================
#                             |The decay table|
#                             =================
#
# - The QCD corrections to the decays gluino -> squark  + quark
#                                     squark -> gaugino + quark_prime
#                                     squark -> squark_prime + Higgs
#                                     squark -> gluino  + quark
#   are included.
#
# - The multi-body decays for the inos, stops and sbottoms are included.
#
# - The loop induced decays for the gluino, neutralinos and stops
#   are included.
#
# - The SUSY decays of the top quark are included.
#
#
#         PDG            Width
DECAY         6     1.41143737E+00   # top decays
#          BR         NDA      ID1       ID2
     1.00000000E+00    2           5        24   # BR(t ->  b    W+)
#
#         PDG            Width
DECAY   1000021     2.37782126E-04   # gluino decays
#          BR         NDA      ID1       ID2
     1.43806402E-04    2     1000022        21   # BR(~g -> ~chi_10 g)
     1.60593194E-02    2     1000023        21   # BR(~g -> ~chi_20 g)
     1.63225979E-02    2     1000025        21   # BR(~g -> ~chi_30 g)
#           BR         NDA      ID1       ID2       ID3
     1.01062655E-02    3     1000022         1        -1   # BR(~g -> ~chi_10 d  db)
     2.04111195E-04    3     1000023         1        -1   # BR(~g -> ~chi_20 d  db)
     5.64624946E-04    3     1000025         1        -1   # BR(~g -> ~chi_30 d  db)
     3.43506550E-02    3     1000022         2        -2   # BR(~g -> ~chi_10 u  ub)
     4.91658551E-04    3     1000023         2        -2   # BR(~g -> ~chi_20 u  ub)
     2.28480664E-03    3     1000025         2        -2   # BR(~g -> ~chi_30 u  ub)
     1.01062655E-02    3     1000022         3        -3   # BR(~g -> ~chi_10 s  sb)
     2.04111195E-04    3     1000023         3        -3   # BR(~g -> ~chi_20 s  sb)
     5.64624946E-04    3     1000025         3        -3   # BR(~g -> ~chi_30 s  sb)
     3.43506550E-02    3     1000022         4        -4   # BR(~g -> ~chi_10 c  cb)
     4.91658551E-04    3     1000023         4        -4   # BR(~g -> ~chi_20 c  cb)
     2.28480664E-03    3     1000025         4        -4   # BR(~g -> ~chi_30 c  cb)
     1.13475304E-02    3     1000022         5        -5   # BR(~g -> ~chi_10 b  bb)
     5.83544842E-03    3     1000023         5        -5   # BR(~g -> ~chi_20 b  bb)
     5.87592646E-03    3     1000025         5        -5   # BR(~g -> ~chi_30 b  bb)
     2.50251733E-02    3     1000022         6        -6   # BR(~g -> ~chi_10 t  tb)
     1.75578799E-01    3     1000023         6        -6   # BR(~g -> ~chi_20 t  tb)
     2.03568193E-01    3     1000025         6        -6   # BR(~g -> ~chi_30 t  tb)
     5.88740714E-05    3     1000024         1        -2   # BR(~g -> ~chi_1+ d  ub)
     5.88740714E-05    3    -1000024         2        -1   # BR(~g -> ~chi_1- u  db)
     5.88740714E-05    3     1000024         3        -4   # BR(~g -> ~chi_1+ s  cb)
     5.88740714E-05    3    -1000024         4        -3   # BR(~g -> ~chi_1- c  sb)
     2.22001733E-01    3     1000024         5        -6   # BR(~g -> ~chi_1+ b  tb)
     2.22001733E-01    3    -1000024         6        -5   # BR(~g -> ~chi_1- t  bb)
#
#         PDG            Width
DECAY   1000006     4.06372555E+02   # stop1 decays
#          BR         NDA      ID1       ID2
     1.79121294E-02    2     1000022         6   # BR(~t_1 -> ~chi_10 t )
     7.58906271E-02    2     1000023         6   # BR(~t_1 -> ~chi_20 t )
     8.73300991E-02    2     1000025         6   # BR(~t_1 -> ~chi_30 t )
     5.06709680E-03    2     1000035         6   # BR(~t_1 -> ~chi_40 t )
     1.18283017E-01    2     1000024         5   # BR(~t_1 -> ~chi_1+ b )
     1.01022875E-02    2     1000037         5   # BR(~t_1 -> ~chi_2+ b )
     6.85414743E-01    2     1000021         6   # BR(~t_1 -> ~g      t )
#
#         PDG            Width
DECAY   2000006     4.06106346E+02   # stop2 decays
#          BR         NDA      ID1       ID2
     1.17599839E-02    2     1000022         6   # BR(~t_2 -> ~chi_10 t )
     8.99515850E-02    2     1000023         6   # BR(~t_2 -> ~chi_20 t )
     7.55562407E-02    2     1000025         6   # BR(~t_2 -> ~chi_30 t )
     1.37288538E-02    2     1000035         6   # BR(~t_2 -> ~chi_40 t )
     4.88434395E-02    2     1000024         5   # BR(~t_2 -> ~chi_1+ b )
     2.73403231E-02    2     1000037         5   # BR(~t_2 -> ~chi_2+ b )
     7.29795679E-01    2     1000021         6   # BR(~t_2 -> ~g      t )
     6.95541280E-04    2     1000006        25   # BR(~t_2 -> ~t_1    h )
     2.32835338E-03    2     1000006        23   # BR(~t_2 -> ~t_1    Z )
#
#         PDG            Width
DECAY   1000005     3.82950651E+02   # sbottom1 decays
#          BR         NDA      ID1       ID2
     2.28484481E-03    2     1000022         5   # BR(~b_1 -> ~chi_10 b )
     2.12574733E-03    2     1000023         5   # BR(~b_1 -> ~chi_20 b )
     1.93729537E-03    2     1000025         5   # BR(~b_1 -> ~chi_30 b )
     1.98203360E-02    2     1000035         5   # BR(~b_1 -> ~chi_40 b )
     1.74737691E-01    2    -1000024         6   # BR(~b_1 -> ~chi_1- t )
     3.97886783E-02    2    -1000037         6   # BR(~b_1 -> ~chi_2- t )
     7.57841409E-01    2     1000021         5   # BR(~b_1 -> ~g      b )
     1.46399814E-03    2     1000006       -24   # BR(~b_1 -> ~t_1    W-)
#
#         PDG            Width
DECAY   2000005     2.98916047E+02   # sbottom2 decays
#          BR         NDA      ID1       ID2
     9.41156548E-03    2     1000022         5   # BR(~b_2 -> ~chi_10 b )
     2.99002479E-03    2     1000023         5   # BR(~b_2 -> ~chi_20 b )
     3.22840587E-03    2     1000025         5   # BR(~b_2 -> ~chi_30 b )
     2.63435486E-05    2     1000035         5   # BR(~b_2 -> ~chi_40 b )
     5.88224377E-03    2    -1000024         6   # BR(~b_2 -> ~chi_1- t )
     5.29010998E-05    2    -1000037         6   # BR(~b_2 -> ~chi_2- t )
     9.78399989E-01    2     1000021         5   # BR(~b_2 -> ~g      b )
     8.52595855E-06    2     1000006       -24   # BR(~b_2 -> ~t_1    W-)
#
#         PDG            Width
DECAY   1000002     3.18217130E+02   # sup_L decays
#          BR         NDA      ID1       ID2
     2.14260896E-03    2     1000022         2   # BR(~u_L -> ~chi_10 u)
     6.13205018E-06    2     1000023         2   # BR(~u_L -> ~chi_20 u)
     2.53821308E-04    2     1000025         2   # BR(~u_L -> ~chi_30 u)
     2.47284648E-02    2     1000035         2   # BR(~u_L -> ~chi_40 u)
     1.57799926E-04    2     1000024         1   # BR(~u_L -> ~chi_1+ d)
     4.94270973E-02    2     1000037         1   # BR(~u_L -> ~chi_2+ d)
     9.23284076E-01    2     1000021         2   # BR(~u_L -> ~g      u)
#
#         PDG            Width
DECAY   2000002     3.04421337E+02   # sup_R decays
#          BR         NDA      ID1       ID2
     3.60772196E-02    2     1000022         2   # BR(~u_R -> ~chi_10 u)
     8.49619590E-04    2     1000023         2   # BR(~u_R -> ~chi_20 u)
     2.29041612E-03    2     1000025         2   # BR(~u_R -> ~chi_30 u)
     2.66682249E-09    2     1000035         2   # BR(~u_R -> ~chi_40 u)
     9.60782742E-01    2     1000021         2   # BR(~u_R -> ~g      u)
#
#         PDG            Width
DECAY   1000001     3.18226396E+02   # sdown_L decays
#          BR         NDA      ID1       ID2
     2.18705572E-03    2     1000022         1   # BR(~d_L -> ~chi_10 d)
     1.39336433E-04    2     1000023         1   # BR(~d_L -> ~chi_20 d)
     5.64707571E-05    2     1000025         1   # BR(~d_L -> ~chi_30 d)
     2.47434907E-02    2     1000035         1   # BR(~d_L -> ~chi_40 d)
     4.22096879E-07    2    -1000024         2   # BR(~d_L -> ~chi_1- u)
     4.95042051E-02    2    -1000037         2   # BR(~d_L -> ~chi_2- u)
     9.23369019E-01    2     1000021         1   # BR(~d_L -> ~g      d)
#
#         PDG            Width
DECAY   2000001     2.95490852E+02   # sdown_R decays
#          BR         NDA      ID1       ID2
     9.29246938E-03    2     1000022         1   # BR(~d_R -> ~chi_10 d)
     2.18837983E-04    2     1000023         1   # BR(~d_R -> ~chi_20 d)
     5.89946431E-04    2     1000025         1   # BR(~d_R -> ~chi_30 d)
     6.86997411E-10    2     1000035         1   # BR(~d_R -> ~chi_40 d)
     9.89898746E-01    2     1000021         1   # BR(~d_R -> ~g      d)
#
#         PDG            Width
DECAY   1000004     3.18217130E+02   # scharm_L decays
#          BR         NDA      ID1       ID2
     2.14260896E-03    2     1000022         4   # BR(~c_L -> ~chi_10 c)
     6.13205018E-06    2     1000023         4   # BR(~c_L -> ~chi_20 c)
     2.53821308E-04    2     1000025         4   # BR(~c_L -> ~chi_30 c)
     2.47284648E-02    2     1000035         4   # BR(~c_L -> ~chi_40 c)
     1.57799926E-04    2     1000024         3   # BR(~c_L -> ~chi_1+ s)
     4.94270973E-02    2     1000037         3   # BR(~c_L -> ~chi_2+ s)
     9.23284076E-01    2     1000021         4   # BR(~c_L -> ~g      c)
#
#         PDG            Width
DECAY   2000004     3.04421337E+02   # scharm_R decays
#          BR         NDA      ID1       ID2
     3.60772196E-02    2     1000022         4   # BR(~c_R -> ~chi_10 c)
     8.49619590E-04    2     1000023         4   # BR(~c_R -> ~chi_20 c)
     2.29041612E-03    2     1000025         4   # BR(~c_R -> ~chi_30 c)
     2.66682249E-09    2     1000035         4   # BR(~c_R -> ~chi_40 c)
     9.60782742E-01    2     1000021         4   # BR(~c_R -> ~g      c)
#
#         PDG            Width
DECAY   1000003     3.18226396E+02   # sstrange_L decays
#          BR         NDA      ID1       ID2
     2.18705572E-03    2     1000022         3   # BR(~s_L -> ~chi_10 s)
     1.39336433E-04    2     1000023         3   # BR(~s_L -> ~chi_20 s)
     5.64707571E-05    2     1000025         3   # BR(~s_L -> ~chi_30 s)
     2.47434907E-02    2     1000035         3   # BR(~s_L -> ~chi_40 s)
     4.22096879E-07    2    -1000024         4   # BR(~s_L -> ~chi_1- c)
     4.95042051E-02    2    -1000037         4   # BR(~s_L -> ~chi_2- c)
     9.23369019E-01    2     1000021         3   # BR(~s_L -> ~g      s)
#
#         PDG            Width
DECAY   2000003     2.95490852E+02   # sstrange_R decays
#          BR         NDA      ID1       ID2
     9.29246938E-03    2     1000022         3   # BR(~s_R -> ~chi_10 s)
     2.18837983E-04    2     1000023         3   # BR(~s_R -> ~chi_20 s)
     5.89946431E-04    2     1000025         3   # BR(~s_R -> ~chi_30 s)
     6.86997411E-10    2     1000035         3   # BR(~s_R -> ~chi_40 s)
     9.89898746E-01    2     1000021         3   # BR(~s_R -> ~g      s)
#
#         PDG            Width
DECAY   1000011     3.04351693E+01   # selectron_L decays
#          BR         NDA      ID1       ID2
     2.07146782E-01    2     1000022        11   # BR(~e_L -> ~chi_10 e-)
     2.99498592E-03    2     1000023        11   # BR(~e_L -> ~chi_20 e-)
     1.65404081E-02    2     1000025        11   # BR(~e_L -> ~chi_30 e-)
     2.57601065E-01    2     1000035        11   # BR(~e_L -> ~chi_40 e-)
     4.50221725E-06    2    -1000024        12   # BR(~e_L -> ~chi_1- nu_e)
     5.15712257E-01    2    -1000037        12   # BR(~e_L -> ~chi_2- nu_e)
#
#         PDG            Width
DECAY   2000011     2.74339826E+01   # selectron_R decays
#          BR         NDA      ID1       ID2
     9.19945766E-01    2     1000022        11   # BR(~e_R -> ~chi_10 e-)
     2.16607698E-02    2     1000023        11   # BR(~e_R -> ~chi_20 e-)
     5.83933980E-02    2     1000025        11   # BR(~e_R -> ~chi_30 e-)
     6.65403868E-08    2     1000035        11   # BR(~e_R -> ~chi_40 e-)
#
#         PDG            Width
DECAY   1000013     3.04351693E+01   # smuon_L decays
#          BR         NDA      ID1       ID2
     2.07146782E-01    2     1000022        13   # BR(~mu_L -> ~chi_10 mu-)
     2.99498592E-03    2     1000023        13   # BR(~mu_L -> ~chi_20 mu-)
     1.65404081E-02    2     1000025        13   # BR(~mu_L -> ~chi_30 mu-)
     2.57601065E-01    2     1000035        13   # BR(~mu_L -> ~chi_40 mu-)
     4.50221725E-06    2    -1000024        14   # BR(~mu_L -> ~chi_1- nu_mu)
     5.15712257E-01    2    -1000037        14   # BR(~mu_L -> ~chi_2- nu_mu)
#
#         PDG            Width
DECAY   2000013     2.74339826E+01   # smuon_R decays
#          BR         NDA      ID1       ID2
     9.19945766E-01    2     1000022        13   # BR(~mu_R -> ~chi_10 mu-)
     2.16607698E-02    2     1000023        13   # BR(~mu_R -> ~chi_20 mu-)
     5.83933980E-02    2     1000025        13   # BR(~mu_R -> ~chi_30 mu-)
     6.65403868E-08    2     1000035        13   # BR(~mu_R -> ~chi_40 mu-)
#
#         PDG            Width
DECAY   1000015     2.93124037E+01   # stau_1 decays
#          BR         NDA      ID1       ID2
     8.63867049E-01    2     1000022        15   # BR(~tau_1 -> ~chi_10  tau-)
     3.51180762E-02    2     1000023        15   # BR(~tau_1 -> ~chi_20  tau-)
     6.86117491E-02    2     1000025        15   # BR(~tau_1 -> ~chi_30  tau-)
     9.58215962E-05    2     1000035        15   # BR(~tau_1 -> ~chi_40  tau-)
     3.21156265E-02    2    -1000024        16   # BR(~tau_1 -> ~chi_1-  nu_tau)
     1.91677370E-04    2    -1000037        16   # BR(~tau_1 -> ~chi_2-  nu_tau)
#
#         PDG            Width
DECAY   2000015     3.13702368E+01   # stau_2 decays
#          BR         NDA      ID1       ID2
     2.02639832E-01    2     1000022        15   # BR(~tau_2 -> ~chi_10  tau-)
     1.75812627E-02    2     1000023        15   # BR(~tau_2 -> ~chi_20  tau-)
     3.00327369E-02    2     1000025        15   # BR(~tau_2 -> ~chi_30  tau-)
     2.49741002E-01    2     1000035        15   # BR(~tau_2 -> ~chi_40  tau-)
     2.85126845E-05    2    -1000024        16   # BR(~tau_2 -> ~chi_1-  nu_tau)
     4.99976654E-01    2    -1000037        16   # BR(~tau_2 -> ~chi_2-  nu_tau)
#
#         PDG            Width
DECAY   1000012     3.04380207E+01   # snu_eL decays
#          BR         NDA      ID1       ID2
     2.08505589E-01    2     1000022        12   # BR(~nu_eL -> ~chi_10 nu_e)
     7.25526699E-03    2     1000023        12   # BR(~nu_eL -> ~chi_20 nu_e)
     1.02220112E-02    2     1000025        12   # BR(~nu_eL -> ~chi_30 nu_e)
     2.57660052E-01    2     1000035        12   # BR(~nu_eL -> ~chi_40 nu_e)
     1.68277575E-03    2     1000024        11   # BR(~nu_eL -> ~chi_1+ e-)
     5.14674305E-01    2     1000037        11   # BR(~nu_eL -> ~chi_2+ e-)
#
#         PDG            Width
DECAY   1000014     3.04380207E+01   # snu_muL decays
#          BR         NDA      ID1       ID2
     2.08505589E-01    2     1000022        14   # BR(~nu_muL -> ~chi_10 nu_mu)
     7.25526699E-03    2     1000023        14   # BR(~nu_muL -> ~chi_20 nu_mu)
     1.02220112E-02    2     1000025        14   # BR(~nu_muL -> ~chi_30 nu_mu)
     2.57660052E-01    2     1000035        14   # BR(~nu_muL -> ~chi_40 nu_mu)
     1.68277575E-03    2     1000024        13   # BR(~nu_muL -> ~chi_1+ mu-)
     5.14674305E-01    2     1000037        13   # BR(~nu_muL -> ~chi_2+ mu-)
#
#         PDG            Width
DECAY   1000016     3.13729727E+01   # snu_tauL decays
#          BR         NDA      ID1       ID2
     2.02269472E-01    2     1000022        16   # BR(~nu_tauL -> ~chi_10 nu_tau)
     7.03826846E-03    2     1000023        16   # BR(~nu_tauL -> ~chi_20 nu_tau)
     9.91628001E-03    2     1000025        16   # BR(~nu_tauL -> ~chi_30 nu_tau)
     2.49887311E-01    2     1000035        16   # BR(~nu_tauL -> ~chi_40 nu_tau)
     3.17404695E-02    2     1000024        15   # BR(~nu_tauL -> ~chi_1+ tau-)
     4.99148199E-01    2     1000037        15   # BR(~nu_tauL -> ~chi_2+ tau-)
#
#         PDG            Width
DECAY   1000024     5.13569733E-02   # chargino1+ decays
#          BR         NDA      ID1       ID2
     1.00000000E+00    2     1000022        24   # BR(~chi_1+ -> ~chi_10  W+)
#
#         PDG            Width
DECAY   1000037     2.34423402E+01   # chargino2+ decays
#          BR         NDA      ID1       ID2
     2.53923624E-01    2     1000024        23   # BR(~chi_2+ -> ~chi_1+  Z )
     1.78511133E-03    2     1000022        24   # BR(~chi_2+ -> ~chi_10  W+)
     2.45164861E-01    2     1000023        24   # BR(~chi_2+ -> ~chi_20  W+)
     2.43644592E-01    2     1000025        24   # BR(~chi_2+ -> ~chi_30  W+)
     2.55426483E-01    2     1000024        25   # BR(~chi_2+ -> ~chi_1+  h )
     5.53276243E-05    2     1000022        37   # BR(~chi_2+ -> ~chi_10  H+)
#
#         PDG            Width
DECAY   1000022     0.00000000E+00   # neutralino1 decays
#
#         PDG            Width
DECAY   1000023     2.13817674E-02   # neutralino2 decays
#          BR         NDA      ID1       ID2
     1.00000000E+00    2     1000022        23   # BR(~chi_20 -> ~chi_10   Z )
#
#         PDG            Width
DECAY   1000025     2.52490318E-02   # neutralino3 decays
#          BR         NDA      ID1       ID2
     1.00000000E+00    2     1000022        23   # BR(~chi_30 -> ~chi_10   Z )
#
#         PDG            Width
DECAY   1000035     2.34531921E+01   # neutralino4 decays
#          BR         NDA      ID1       ID2
     1.72217999E-03    2     1000022        23   # BR(~chi_40 -> ~chi_10   Z )
     1.14754575E-01    2     1000023        23   # BR(~chi_40 -> ~chi_20   Z )
     1.37044067E-01    2     1000025        23   # BR(~chi_40 -> ~chi_30   Z )
     2.45663740E-01    2     1000024       -24   # BR(~chi_40 -> ~chi_1+   W-)
     2.45663740E-01    2    -1000024        24   # BR(~chi_40 -> ~chi_1-   W+)
     1.61045251E-04    2     1000022        25   # BR(~chi_40 -> ~chi_10   h )
     5.27392335E-05    2     1000022        35   # BR(~chi_40 -> ~chi_10   H )
     5.97645016E-06    2     1000022        36   # BR(~chi_40 -> ~chi_10   A )
     1.39329543E-01    2     1000023        25   # BR(~chi_40 -> ~chi_20   h )
     1.15602395E-01    2     1000025        25   # BR(~chi_40 -> ~chi_30   h )
#
#         PDG            Width
DECAY        25     4.07370367E-03   # h decays
#          BR         NDA      ID1       ID2
     6.11799190E-01    2           5        -5   # BR(h -> b       bb     )
     6.35430627E-02    2         -15        15   # BR(h -> tau+    tau-   )
     2.24966720E-04    2         -13        13   # BR(h -> mu+     mu-    )
     4.77114580E-04    2           3        -3   # BR(h -> s       sb     )
     2.06710220E-02    2           4        -4   # BR(h -> c       cb     )
     6.65604982E-02    2          21        21   # BR(h -> g       g      )
     2.27853468E-03    2          22        22   # BR(h -> gam     gam    )
     1.44911228E-03    2          22        23   # BR(h -> Z       gam    )
     2.03583325E-01    2          24       -24   # BR(h -> W+      W-     )
     2.41287566E-02    2          23        23   # BR(h -> Z       Z      )
     5.28441654E-03    2     1000022   1000022   # BR(h -> ~chi_10 ~chi_10)
#
#         PDG            Width
DECAY        35     8.82988676E+00   # H decays
#          BR         NDA      ID1       ID2
     3.59114636E-01    2           5        -5   # BR(H -> b       bb     )
     6.31138808E-02    2         -15        15   # BR(H -> tau+    tau-   )
     2.23175696E-04    2         -13        13   # BR(H -> mu+     mu-    )
     2.73579101E-04    2           3        -3   # BR(H -> s       sb     )
     1.52959209E-06    2           4        -4   # BR(H -> c       cb     )
     1.52818375E-01    2           6        -6   # BR(H -> t       tb     )
     5.08433292E-05    2          21        21   # BR(H -> g       g      )
     1.51699567E-07    2          22        22   # BR(H -> gam     gam    )
     9.00697677E-08    2          23        22   # BR(H -> Z       gam    )
     7.48588943E-05    2          24       -24   # BR(H -> W+      W-     )
     3.73820464E-05    2          23        23   # BR(H -> Z       Z      )
     2.66403198E-04    2          25        25   # BR(H -> h       h      )
    -1.74170444E-23    2          36        36   # BR(H -> A       A      )
     9.37123857E-19    2          23        36   # BR(H -> Z       A      )
     3.50247554E-03    2     1000024  -1000024   # BR(H -> ~chi_1+ ~chi_1-)
     6.14443500E-02    2     1000022   1000022   # BR(H -> ~chi_10 ~chi_10)
     1.02226853E-02    2     1000023   1000023   # BR(H -> ~chi_20 ~chi_20)
     2.02279787E-02    2     1000025   1000025   # BR(H -> ~chi_30 ~chi_30)
     1.20867964E-01    2     1000022   1000023   # BR(H -> ~chi_10 ~chi_20)
     1.78584815E-01    2     1000022   1000025   # BR(H -> ~chi_10 ~chi_30)
     2.91748255E-02    2     1000023   1000025   # BR(H -> ~chi_20 ~chi_30)
#
#         PDG            Width
DECAY        36     8.83486615E+00   # A decays
#          BR         NDA      ID1       ID2
     3.59035307E-01    2           5        -5   # BR(A -> b       bb     )
     6.30801262E-02    2         -15        15   # BR(A -> tau+    tau-   )
     2.23056025E-04    2         -13        13   # BR(A -> mu+     mu-    )
     2.73632288E-04    2           3        -3   # BR(A -> s       sb     )
     1.53474536E-06    2           4        -4   # BR(A -> c       cb     )
     1.53248616E-01    2           6        -6   # BR(A -> t       tb     )
     1.51673649E-04    2          21        21   # BR(A -> g       g      )
     5.20877872E-07    2          22        22   # BR(A -> gam     gam    )
     1.83414559E-07    2          23        22   # BR(A -> Z       gam    )
     7.45348275E-05    2          23        25   # BR(A -> Z       h      )
     3.62450244E-03    2     1000024  -1000024   # BR(A -> ~chi_1+ ~chi_1-)
     5.54057759E-02    2     1000022   1000022   # BR(A -> ~chi_10 ~chi_10)
     1.60395528E-02    2     1000023   1000023   # BR(A -> ~chi_20 ~chi_20)
     1.31504549E-02    2     1000025   1000025   # BR(A -> ~chi_30 ~chi_30)
     1.94706080E-01    2     1000022   1000023   # BR(A -> ~chi_10 ~chi_20)
     1.11202484E-01    2     1000022   1000025   # BR(A -> ~chi_10 ~chi_30)
     2.97819651E-02    2     1000023   1000025   # BR(A -> ~chi_20 ~chi_30)
#
#         PDG            Width
DECAY        37     8.76142075E+00   # H+ decays
#          BR         NDA      ID1       ID2
     5.73796605E-04    2           4        -5   # BR(H+ -> c       bb     )
     6.36404102E-02    2         -15        16   # BR(H+ -> tau+    nu_tau )
     2.25037231E-04    2         -13        14   # BR(H+ -> mu+     nu_mu  )
     3.67227884E-06    2           2        -5   # BR(H+ -> u       bb     )
     1.32043671E-05    2           2        -3   # BR(H+ -> u       sb     )
     2.73066186E-04    2           4        -3   # BR(H+ -> c       sb     )
     5.09969933E-01    2           6        -5   # BR(H+ -> t       bb     )
     7.53198805E-05    2          24        25   # BR(H+ -> W+      h      )
     1.08451687E-12    2          24        36   # BR(H+ -> W+      A      )
     3.87469266E-01    2     1000024   1000022   # BR(H+ -> ~chi_1+ ~chi_10)
     5.78568579E-03    2     1000024   1000023   # BR(H+ -> ~chi_1+ ~chi_20)
     3.19706084E-02    2     1000024   1000025   # BR(H+ -> ~chi_1+ ~chi_30)
