#
#                              ======================
#                              | THE SUSYHIT OUTPUT |
#                              ======================
#
#
#              ------------------------------------------------------
#              |     This is the output of the SUSY-HIT package     |
#              |  created by A.Djouadi, M.Muehlleitner and M.Spira. |
#              |  In case of problems with SUSY-HIT email to        |
#              |           margarete.muehlleitner@cern.ch           |
#              |           michael.spira@psi.ch                     |
#              |           abdelhak.djouadi@cern.ch                 |
#              ------------------------------------------------------
#
#              ------------------------------------------------------
#              |  SUSY Les Houches Accord - MSSM Spectrum + Decays  |
#              |              based on the decay programs           |
#              |                                                    |
#              |                     SDECAY 1.3b                    |
#              |                                                    |
#              |  Authors: M.Muhlleitner, A.Djouadi and Y.Mambrini  |
#              |  Ref.:    Comput.Phys.Commun.168(2005)46           |
#              |           [hep-ph/0311167]                         |
#              |                                                    |
#              |                     HDECAY 3.4                     |
#              |                                                    |
#              |  By: A.Djouadi,J.Kalinowski,M.Muhlleitner,M.Spira  |
#              |  Ref.:    Comput.Phys.Commun.108(1998)56           |
#              |           [hep-ph/9704448]                         |
#              |                                                    |
#              |                                                    |
#              |  If not stated otherwise all DRbar couplings and   |
#              |  soft SUSY breaking masses are given at the scale  |
#              |  Q=  0.50007619E+04
#              |                                                    |
#              ------------------------------------------------------
#
#
BLOCK DCINFO  # Decay Program information
     1   SDECAY/HDECAY # decay calculator
     2   1.3b  /3.4    # version number
#
BLOCK SPINFO  # Spectrum calculator information
     1    SOFTSUSY    # spectrum calculator                
     2    3.4.0       # version number                     
#
BLOCK MODSEL  # Model selection
     1     0   #  nonUniversal                                     
#
BLOCK SMINPUTS  # Standard Model inputs
         1     1.25778332E+02   # alpha_em^-1(M_Z)^MSbar
         2     1.16570000E-05   # G_F [GeV^-2]
         3     1.17200002E-01   # alpha_S(M_Z)^MSbar
         4     9.11876000E+01   # M_Z pole mass
         5     4.25000000E+00   # mb(mb)^MSbar
         6     1.72500000E+02   # mt pole mass
         7     1.77682000E+00   # mtau pole mass
#
BLOCK MINPAR  # Input parameters - minimal models
         3     1.00000000E+01   # tanb                
#
BLOCK EXTPAR  # Input parameters - non-minimal models
         0    -1.00000000E+00   # Set                 
         1     6.00000000E+01   # M_1(MX)             
         2     3.00000000E+03   # M_2(MX)             
         3     1.12229200E+03   # M_3(MX)             
        11     5.00000000E+03   # At(MX)              
        12     5.00000000E+03   # Ab(MX)              
        13     0.00000000E+00   # Atau(MX)            
        23    -2.82851000E+02   # mu(MX)              
        26     3.00000000E+03   # mA(pole)            
        31     5.00000000E+03   # meL(MX)             
        32     5.00000000E+03   # mmuL(MX)            
        33     5.00000000E+03   # mtauL(MX)           
        34     5.00000000E+03   # meR(MX)             
        35     5.00000000E+03   # mmuR(MX)            
        36     5.00000000E+03   # mtauR(MX)           
        41     5.00000000E+03   # mqL1(MX)            
        42     5.00000000E+03   # mqL2(MX)            
        43     5.00000000E+03   # mqL3(MX)            
        44     5.00000000E+03   # muR(MX)             
        45     5.00000000E+03   # mcR(MX)             
        46     5.00000000E+03   # mtR(MX)             
        47     5.00000000E+03   # mdR(MX)             
        48     5.00000000E+03   # msR(MX)             
        49     5.00000000E+03   # mbR(MX)             
#
BLOCK MASS  # Mass Spectrum
# PDG code           mass       particle
        24     8.00903036E+01   # W+
        25     1.24553672E+02   # h
        35     3.00008867E+03   # H
        36     2.99999970E+03   # A
        37     3.00146927E+03   # H+
         5     4.87878001E+00   # b-quark pole mass calculated from mb(mb)_Msbar
   1000001     5.06601255E+03   # ~d_L
   2000001     5.04811469E+03   # ~d_R
   1000002     5.06553519E+03   # ~u_L
   2000002     5.04780689E+03   # ~u_R
   1000003     5.06601255E+03   # ~s_L
   2000003     5.04811469E+03   # ~s_R
   1000004     5.06553519E+03   # ~c_L
   2000004     5.04780689E+03   # ~c_R
   1000005     5.01227524E+03   # ~b_1
   2000005     5.04627056E+03   # ~b_2
   1000006     4.90288869E+03   # ~t_1
   2000006     5.05655049E+03   # ~t_2
   1000011     5.01914096E+03   # ~e_L
   2000011     5.00595444E+03   # ~e_R
   1000012     5.01818905E+03   # ~nu_eL
   1000013     5.01914096E+03   # ~mu_L
   2000013     5.00595444E+03   # ~mu_R
   1000014     5.01818905E+03   # ~nu_muL
   1000015     5.00481650E+03   # ~tau_1
   2000015     5.01862229E+03   # ~tau_2
   1000016     5.01763512E+03   # ~nu_tauL
   1000021     1.40000006E+03   # ~g
   1000022     5.97916254E+01   # ~chi_10
   1000023     3.01966946E+02   # ~chi_20
   1000025    -3.03838064E+02   # ~chi_30
   1000035     3.07423713E+03   # ~chi_40
   1000024     3.00000851E+02   # ~chi_1+
   1000037     3.07440512E+03   # ~chi_2+
#
BLOCK NMIX  # Neutralino Mixing Matrix
  1  1     9.88605089E-01   # N_11
  1  2     6.00286568E-05   # N_12
  1  3    -1.49810317E-01   # N_13
  1  4    -1.47256221E-02   # N_14
  2  1     1.16374717E-01   # N_21
  2  2     1.76977091E-02   # N_22
  2  3     6.98595639E-01   # N_23
  2  4     7.05767560E-01   # N_24
  3  1    -9.54816505E-02   # N_31
  3  2     1.80294441E-02   # N_32
  3  3    -6.99657727E-01   # N_33
  3  4     7.07839854E-01   # N_34
  4  1    -3.97556351E-04   # N_41
  4  2     9.99680812E-01   # N_42
  4  3     2.59973326E-04   # N_43
  4  4    -2.52596066E-02   # N_44
#
BLOCK UMIX  # Chargino Mixing Matrix U
  1  1    -3.65109451E-04   # U_11
  1  2     9.99999933E-01   # U_12
  2  1    -9.99999933E-01   # U_21
  2  2    -3.65109451E-04   # U_22
#
BLOCK VMIX  # Chargino Mixing Matrix V
  1  1     3.57315453E-02   # V_11
  1  2    -9.99361424E-01   # V_12
  2  1    -9.99361424E-01   # V_21
  2  2    -3.57315453E-02   # V_22
#
BLOCK STOPMIX  # Stop Mixing Matrix
  1  1    -5.05048850E-01   # cos(theta_t)
  1  2     8.63090759E-01   # sin(theta_t)
  2  1    -8.63090759E-01   # -sin(theta_t)
  2  2    -5.05048850E-01   # cos(theta_t)
#
BLOCK SBOTMIX  # Sbottom Mixing Matrix
  1  1     9.99194095E-01   # cos(theta_b)
  1  2    -4.01392640E-02   # sin(theta_b)
  2  1     4.01392640E-02   # -sin(theta_b)
  2  2     9.99194095E-01   # cos(theta_b)
#
BLOCK STAUMIX  # Stau Mixing Matrix
  1  1    -3.37582542E-02   # cos(theta_tau)
  1  2     9.99430028E-01   # sin(theta_tau)
  2  1    -9.99430028E-01   # -sin(theta_tau)
  2  2    -3.37582542E-02   # cos(theta_tau)
#
BLOCK ALPHA  # Higgs mixing
          -1.05467176E-01   # Mixing angle in the neutral Higgs boson sector
#
BLOCK HMIX Q=  5.00076190E+03  # DRbar Higgs Parameters
         1    -2.87941262E+02   # mu(Q)MSSM           
         2     9.47106186E+00   # tan                 
         3     2.41727327E+02   # higgs               
         4     8.75038455E+06   # mA^2(Q)MSSM         
#
BLOCK GAUGE Q=  5.00076190E+03  # The gauge couplings
     1     3.71081725E-01   # gprime(Q) DRbar
     2     6.33932381E-01   # g(Q) DRbar
     3     1.00372087E+00   # g3(Q) DRbar
#
BLOCK AU Q=  5.00076190E+03  # The trilinear couplings
  1  1     5.00000001E+03   # A_u(Q) DRbar
  2  2     5.00000001E+03   # A_c(Q) DRbar
  3  3     5.00000001E+03   # A_t(Q) DRbar
#
BLOCK AD Q=  5.00076190E+03  # The trilinear couplings
  1  1     5.00000000E+03   # A_d(Q) DRbar
  2  2     5.00000000E+03   # A_s(Q) DRbar
  3  3     5.00000001E+03   # A_b(Q) DRbar
#
BLOCK AE Q=  5.00076190E+03  # The trilinear couplings
  1  1     0.00000000E+00   # A_e(Q) DRbar
  2  2     7.99579013E-08   # A_mu(Q) DRbar
  3  3     7.92217152E-08   # A_tau(Q) DRbar
#
BLOCK Yu Q=  5.00076190E+03  # The Yukawa couplings
  1  1     0.00000000E+00   # y_u(Q) DRbar
  2  2     0.00000000E+00   # y_c(Q) DRbar
  3  3     8.17693711E-01   # y_t(Q) DRbar
#
BLOCK Yd Q=  5.00076190E+03  # The Yukawa couplings
  1  1     0.00000000E+00   # y_d(Q) DRbar
  2  2     0.00000000E+00   # y_s(Q) DRbar
  3  3     1.29407213E-01   # y_b(Q) DRbar
#
BLOCK Ye Q=  5.00076190E+03  # The Yukawa couplings
  1  1     0.00000000E+00   # y_e(Q) DRbar
  2  2     0.00000000E+00   # y_mu(Q) DRbar
  3  3     9.72865719E-02   # y_tau(Q) DRbar
#
BLOCK MSOFT Q=  5.00076190E+03  # The soft SUSY breaking masses at the scale Q
         1     6.00000000E+01   # M_1(Q)              
         2     3.00000000E+03   # M_2(Q)              
         3     1.12229200E+03   # M_3(Q)              
        21     8.64822402E+06   # mH1^2(Q)            
        22     4.93243168E+05   # mH2^2(Q)            
        31     5.00000000E+03   # meL(Q)              
        32     5.00000000E+03   # mmuL(Q)             
        33     5.00000000E+03   # mtauL(Q)            
        34     5.00000000E+03   # meR(Q)              
        35     5.00000000E+03   # mmuR(Q)             
        36     5.00000000E+03   # mtauR(Q)            
        41     5.00000000E+03   # mqL1(Q)             
        42     5.00000000E+03   # mqL2(Q)             
        43     5.00000000E+03   # mqL3(Q)             
        44     5.00000000E+03   # muR(Q)              
        45     5.00000000E+03   # mcR(Q)              
        46     5.00000000E+03   # mtR(Q)              
        47     5.00000000E+03   # mdR(Q)              
        48     5.00000000E+03   # msR(Q)              
        49     5.00000000E+03   # mbR(Q)              
#
#
#
#                             =================
#                             |The decay table|
#                             =================
#
# - The QCD corrections to the decays gluino -> squark  + quark
#                                     squark -> gaugino + quark_prime
#                                     squark -> squark_prime + Higgs
#                                     squark -> gluino  + quark
#   are included.
#
# - The multi-body decays for the inos, stops and sbottoms are included.
#
# - The loop induced decays for the gluino, neutralinos and stops
#   are included.
#
# - The SUSY decays of the top quark are included.
#
#
#         PDG            Width
DECAY         6     1.40849595E+00   # top decays
#          BR         NDA      ID1       ID2
     1.00000000E+00    2           5        24   # BR(t ->  b    W+)
#
#         PDG            Width
DECAY   1000021     2.92960427E-04   # gluino decays
#          BR         NDA      ID1       ID2
     3.59668876E-06    2     1000022        21   # BR(~g -> ~chi_10 g)
     1.54433522E-02    2     1000023        21   # BR(~g -> ~chi_20 g)
     1.49800500E-02    2     1000025        21   # BR(~g -> ~chi_30 g)
#           BR         NDA      ID1       ID2       ID3
     1.26441753E-02    3     1000022         1        -1   # BR(~g -> ~chi_10 d  db)
     1.24039995E-04    3     1000023         1        -1   # BR(~g -> ~chi_20 d  db)
     8.59862640E-05    3     1000025         1        -1   # BR(~g -> ~chi_30 d  db)
     4.30964948E-02    3     1000022         2        -2   # BR(~g -> ~chi_10 u  ub)
     5.86053115E-04    3     1000023         2        -2   # BR(~g -> ~chi_20 u  ub)
     1.76089924E-04    3     1000025         2        -2   # BR(~g -> ~chi_30 u  ub)
     1.26441753E-02    3     1000022         3        -3   # BR(~g -> ~chi_10 s  sb)
     1.24039995E-04    3     1000023         3        -3   # BR(~g -> ~chi_20 s  sb)
     8.59862640E-05    3     1000025         3        -3   # BR(~g -> ~chi_30 s  sb)
     4.30964948E-02    3     1000022         4        -4   # BR(~g -> ~chi_10 c  cb)
     5.86053115E-04    3     1000023         4        -4   # BR(~g -> ~chi_20 c  cb)
     1.76089924E-04    3     1000025         4        -4   # BR(~g -> ~chi_30 c  cb)
     1.32056423E-02    3     1000022         5        -5   # BR(~g -> ~chi_10 b  bb)
     5.75415004E-03    3     1000023         5        -5   # BR(~g -> ~chi_20 b  bb)
     5.71047792E-03    3     1000025         5        -5   # BR(~g -> ~chi_30 b  bb)
     3.52071462E-02    3     1000022         6        -6   # BR(~g -> ~chi_10 t  tb)
     1.96940320E-01    3     1000023         6        -6   # BR(~g -> ~chi_20 t  tb)
     1.69206574E-01    3     1000025         6        -6   # BR(~g -> ~chi_30 t  tb)
     5.73592869E-05    3     1000024         1        -2   # BR(~g -> ~chi_1+ d  ub)
     5.73592869E-05    3    -1000024         2        -1   # BR(~g -> ~chi_1- u  db)
     5.73592869E-05    3     1000024         3        -4   # BR(~g -> ~chi_1+ s  cb)
     5.73592869E-05    3    -1000024         4        -3   # BR(~g -> ~chi_1- c  sb)
     2.14946787E-01    3     1000024         5        -6   # BR(~g -> ~chi_1+ b  tb)
     2.14946787E-01    3    -1000024         6        -5   # BR(~g -> ~chi_1- t  bb)
#
#         PDG            Width
DECAY   1000006     3.98726981E+02   # stop1 decays
#          BR         NDA      ID1       ID2
     2.10794373E-02    2     1000022         6   # BR(~t_1 -> ~chi_10 t )
     8.48400299E-02    2     1000023         6   # BR(~t_1 -> ~chi_20 t )
     7.79535201E-02    2     1000025         6   # BR(~t_1 -> ~chi_30 t )
     5.15479960E-03    2     1000035         6   # BR(~t_1 -> ~chi_40 t )
     1.20046816E-01    2     1000024         5   # BR(~t_1 -> ~chi_1+ b )
     1.02765312E-02    2     1000037         5   # BR(~t_1 -> ~chi_2+ b )
     6.80648866E-01    2     1000021         6   # BR(~t_1 -> ~g      t )
#
#         PDG            Width
DECAY   2000006     3.99333749E+02   # stop2 decays
#          BR         NDA      ID1       ID2
     9.38446769E-03    2     1000022         6   # BR(~t_2 -> ~chi_10 t )
     8.11821432E-02    2     1000023         6   # BR(~t_2 -> ~chi_20 t )
     8.90155015E-02    2     1000025         6   # BR(~t_2 -> ~chi_30 t )
     1.39447574E-02    2     1000035         6   # BR(~t_2 -> ~chi_40 t )
     4.94547204E-02    2     1000024         5   # BR(~t_2 -> ~chi_1+ b )
     2.77699810E-02    2     1000037         5   # BR(~t_2 -> ~chi_2+ b )
     7.26156887E-01    2     1000021         6   # BR(~t_2 -> ~g      t )
     7.10808982E-04    2     1000006        25   # BR(~t_2 -> ~t_1    h )
     2.38073265E-03    2     1000006        23   # BR(~t_2 -> ~t_1    Z )
#
#         PDG            Width
DECAY   1000005     3.75861221E+02   # sbottom1 decays
#          BR         NDA      ID1       ID2
     2.13506829E-03    2     1000022         5   # BR(~b_1 -> ~chi_10 b )
     2.13421977E-03    2     1000023         5   # BR(~b_1 -> ~chi_20 b )
     2.18901743E-03    2     1000025         5   # BR(~b_1 -> ~chi_30 b )
     2.01547998E-02    2     1000035         5   # BR(~b_1 -> ~chi_40 b )
     1.77218094E-01    2    -1000024         6   # BR(~b_1 -> ~chi_1- t )
     4.04610243E-02    2    -1000037         6   # BR(~b_1 -> ~chi_2- t )
     7.54213173E-01    2     1000021         5   # BR(~b_1 -> ~g      b )
     1.49460320E-03    2     1000006       -24   # BR(~b_1 -> ~t_1    W-)
#
#         PDG            Width
DECAY   2000005     2.92266060E+02   # sbottom2 decays
#          BR         NDA      ID1       ID2
     9.95810164E-03    2     1000022         5   # BR(~b_2 -> ~chi_10 b )
     3.00549239E-03    2     1000023         5   # BR(~b_2 -> ~chi_20 b )
     2.99414011E-03    2     1000025         5   # BR(~b_2 -> ~chi_30 b )
     3.92724560E-05    2     1000035         5   # BR(~b_2 -> ~chi_40 b )
     6.10385295E-03    2    -1000024         6   # BR(~b_2 -> ~chi_1- t )
     7.88527111E-05    2    -1000037         6   # BR(~b_2 -> ~chi_2- t )
     9.77807802E-01    2     1000021         5   # BR(~b_2 -> ~g      b )
     1.24858379E-05    2     1000006       -24   # BR(~b_2 -> ~t_1    W-)
#
#         PDG            Width
DECAY   1000002     3.11515037E+02   # sup_L decays
#          BR         NDA      ID1       ID2
     2.34908809E-03    2     1000022         2   # BR(~u_L -> ~chi_10 u)
     1.02330123E-04    2     1000023         2   # BR(~u_L -> ~chi_20 u)
     2.26451582E-08    2     1000025         2   # BR(~u_L -> ~chi_30 u)
     2.52257668E-02    2     1000035         2   # BR(~u_L -> ~chi_40 u)
     1.60069157E-04    2     1000024         1   # BR(~u_L -> ~chi_1+ d)
     5.04207373E-02    2     1000037         1   # BR(~u_L -> ~chi_2+ d)
     9.21741986E-01    2     1000021         2   # BR(~u_L -> ~g      u)
#
#         PDG            Width
DECAY   2000002     2.97727160E+02   # sup_R decays
#          BR         NDA      ID1       ID2
     3.91632101E-02    2     1000022         2   # BR(~u_R -> ~chi_10 u)
     5.39128378E-04    2     1000023         2   # BR(~u_R -> ~chi_20 u)
     3.62891518E-04    2     1000025         2   # BR(~u_R -> ~chi_30 u)
     2.51366243E-09    2     1000035         2   # BR(~u_R -> ~chi_40 u)
     9.59934767E-01    2     1000021         2   # BR(~u_R -> ~g      u)
#
#         PDG            Width
DECAY   1000001     3.11525086E+02   # sdown_L decays
#          BR         NDA      ID1       ID2
     2.34631249E-03    2     1000022         1   # BR(~d_L -> ~chi_10 d)
     1.57308973E-06    2     1000023         1   # BR(~d_L -> ~chi_20 d)
     8.42382146E-05    2     1000025         1   # BR(~d_L -> ~chi_30 d)
     2.52406724E-02    2     1000035         1   # BR(~d_L -> ~chi_40 d)
     1.67139032E-08    2    -1000024         2   # BR(~d_L -> ~chi_1- u)
     5.04993434E-02    2    -1000037         2   # BR(~d_L -> ~chi_2- u)
     9.21827844E-01    2     1000021         1   # BR(~d_L -> ~g      d)
#
#         PDG            Width
DECAY   2000001     2.88804198E+02   # sdown_R decays
#          BR         NDA      ID1       ID2
     1.00939204E-02    2     1000022         1   # BR(~d_R -> ~chi_10 d)
     1.38954985E-04    2     1000023         1   # BR(~d_R -> ~chi_20 d)
     9.35316860E-05    2     1000025         1   # BR(~d_R -> ~chi_30 d)
     6.47963352E-10    2     1000035         1   # BR(~d_R -> ~chi_40 d)
     9.89673592E-01    2     1000021         1   # BR(~d_R -> ~g      d)
#
#         PDG            Width
DECAY   1000004     3.11515037E+02   # scharm_L decays
#          BR         NDA      ID1       ID2
     2.34908809E-03    2     1000022         4   # BR(~c_L -> ~chi_10 c)
     1.02330123E-04    2     1000023         4   # BR(~c_L -> ~chi_20 c)
     2.26451582E-08    2     1000025         4   # BR(~c_L -> ~chi_30 c)
     2.52257668E-02    2     1000035         4   # BR(~c_L -> ~chi_40 c)
     1.60069157E-04    2     1000024         3   # BR(~c_L -> ~chi_1+ s)
     5.04207373E-02    2     1000037         3   # BR(~c_L -> ~chi_2+ s)
     9.21741986E-01    2     1000021         4   # BR(~c_L -> ~g      c)
#
#         PDG            Width
DECAY   2000004     2.97727160E+02   # scharm_R decays
#          BR         NDA      ID1       ID2
     3.91632101E-02    2     1000022         4   # BR(~c_R -> ~chi_10 c)
     5.39128378E-04    2     1000023         4   # BR(~c_R -> ~chi_20 c)
     3.62891518E-04    2     1000025         4   # BR(~c_R -> ~chi_30 c)
     2.51366243E-09    2     1000035         4   # BR(~c_R -> ~chi_40 c)
     9.59934767E-01    2     1000021         4   # BR(~c_R -> ~g      c)
#
#         PDG            Width
DECAY   1000003     3.11525086E+02   # sstrange_L decays
#          BR         NDA      ID1       ID2
     2.34631249E-03    2     1000022         3   # BR(~s_L -> ~chi_10 s)
     1.57308973E-06    2     1000023         3   # BR(~s_L -> ~chi_20 s)
     8.42382146E-05    2     1000025         3   # BR(~s_L -> ~chi_30 s)
     2.52406724E-02    2     1000035         3   # BR(~s_L -> ~chi_40 s)
     1.67139032E-08    2    -1000024         4   # BR(~s_L -> ~chi_1- c)
     5.04993434E-02    2    -1000037         4   # BR(~s_L -> ~chi_2- c)
     9.21827844E-01    2     1000021         3   # BR(~s_L -> ~g      s)
#
#         PDG            Width
DECAY   2000003     2.88804198E+02   # sstrange_R decays
#          BR         NDA      ID1       ID2
     1.00939204E-02    2     1000022         3   # BR(~s_R -> ~chi_10 s)
     1.38954985E-04    2     1000023         3   # BR(~s_R -> ~chi_20 s)
     9.35316860E-05    2     1000025         3   # BR(~s_R -> ~chi_30 s)
     6.47963352E-10    2     1000035         3   # BR(~s_R -> ~chi_40 s)
     9.89673592E-01    2     1000021         3   # BR(~s_R -> ~g      s)
#
#         PDG            Width
DECAY   1000011     3.03835814E+01   # selectron_L decays
#          BR         NDA      ID1       ID2
     2.21127225E-01    2     1000022        11   # BR(~e_L -> ~chi_10 e-)
     4.82833632E-03    2     1000023        11   # BR(~e_L -> ~chi_20 e-)
     9.39719580E-04    2     1000025        11   # BR(~e_L -> ~chi_30 e-)
     2.57534425E-01    2     1000035        11   # BR(~e_L -> ~chi_40 e-)
     1.74800997E-07    2    -1000024        12   # BR(~e_L -> ~chi_1- nu_e)
     5.15570119E-01    2    -1000037        12   # BR(~e_L -> ~chi_2- nu_e)
#
#         PDG            Width
DECAY   2000011     2.74153087E+01   # selectron_R decays
#          BR         NDA      ID1       ID2
     9.77495544E-01    2     1000022        11   # BR(~e_R -> ~chi_10 e-)
     1.34506729E-02    2     1000023        11   # BR(~e_R -> ~chi_20 e-)
     9.05372164E-03    2     1000025        11   # BR(~e_R -> ~chi_30 e-)
     6.13441714E-08    2     1000035        11   # BR(~e_R -> ~chi_40 e-)
#
#         PDG            Width
DECAY   1000013     3.03835814E+01   # smuon_L decays
#          BR         NDA      ID1       ID2
     2.21127225E-01    2     1000022        13   # BR(~mu_L -> ~chi_10 mu-)
     4.82833632E-03    2     1000023        13   # BR(~mu_L -> ~chi_20 mu-)
     9.39719580E-04    2     1000025        13   # BR(~mu_L -> ~chi_30 mu-)
     2.57534425E-01    2     1000035        13   # BR(~mu_L -> ~chi_40 mu-)
     1.74800997E-07    2    -1000024        14   # BR(~mu_L -> ~chi_1- nu_mu)
     5.15570119E-01    2    -1000037        14   # BR(~mu_L -> ~chi_2- nu_mu)
#
#         PDG            Width
DECAY   2000013     2.74153087E+01   # smuon_R decays
#          BR         NDA      ID1       ID2
     9.77495544E-01    2     1000022        13   # BR(~mu_R -> ~chi_10 mu-)
     1.34506729E-02    2     1000023        13   # BR(~mu_R -> ~chi_20 mu-)
     9.05372164E-03    2     1000025        13   # BR(~mu_R -> ~chi_30 mu-)
     6.13441714E-08    2     1000035        13   # BR(~mu_R -> ~chi_40 mu-)
#
#         PDG            Width
DECAY   1000015     2.92823940E+01   # stau_1 decays
#          BR         NDA      ID1       ID2
     9.15768094E-01    2     1000022        15   # BR(~tau_1 -> ~chi_10  tau-)
     2.78223773E-02    2     1000023        15   # BR(~tau_1 -> ~chi_20  tau-)
     2.35912143E-02    2     1000025        15   # BR(~tau_1 -> ~chi_30  tau-)
     3.02644846E-04    2     1000035        15   # BR(~tau_1 -> ~chi_40  tau-)
     3.19099341E-02    2    -1000024        16   # BR(~tau_1 -> ~chi_1-  nu_tau)
     6.05735882E-04    2    -1000037        16   # BR(~tau_1 -> ~chi_2-  nu_tau)
#
#         PDG            Width
DECAY   2000015     3.13106044E+01   # stau_2 decays
#          BR         NDA      ID1       ID2
     2.15155355E-01    2     1000022        15   # BR(~tau_2 -> ~chi_10  tau-)
     1.96446401E-02    2     1000023        15   # BR(~tau_2 -> ~chi_20  tau-)
     1.60672653E-02    2     1000025        15   # BR(~tau_2 -> ~chi_30  tau-)
     2.49535875E-01    2     1000035        15   # BR(~tau_2 -> ~chi_40  tau-)
     3.91290932E-05    2    -1000024        16   # BR(~tau_2 -> ~chi_1-  nu_tau)
     4.99557735E-01    2    -1000037        16   # BR(~tau_2 -> ~chi_2-  nu_tau)
#
#         PDG            Width
DECAY   1000012     3.03867109E+01   # snu_eL decays
#          BR         NDA      ID1       ID2
     2.20970789E-01    2     1000022        12   # BR(~nu_eL -> ~chi_10 nu_e)
     1.66637358E-03    2     1000023        12   # BR(~nu_eL -> ~chi_20 nu_e)
     3.58092691E-03    2     1000025        12   # BR(~nu_eL -> ~chi_30 nu_e)
     2.57581514E-01    2     1000035        12   # BR(~nu_eL -> ~chi_40 nu_e)
     1.67368247E-03    2     1000024        11   # BR(~nu_eL -> ~chi_1+ e-)
     5.14526714E-01    2     1000037        11   # BR(~nu_eL -> ~chi_2+ e-)
#
#         PDG            Width
DECAY   1000014     3.03867109E+01   # snu_muL decays
#          BR         NDA      ID1       ID2
     2.20970789E-01    2     1000022        14   # BR(~nu_muL -> ~chi_10 nu_mu)
     1.66637358E-03    2     1000023        14   # BR(~nu_muL -> ~chi_20 nu_mu)
     3.58092691E-03    2     1000025        14   # BR(~nu_muL -> ~chi_30 nu_mu)
     2.57581514E-01    2     1000035        14   # BR(~nu_muL -> ~chi_40 nu_mu)
     1.67368247E-03    2     1000024        13   # BR(~nu_muL -> ~chi_1+ mu-)
     5.14526714E-01    2     1000037        13   # BR(~nu_muL -> ~chi_2+ mu-)
#
#         PDG            Width
DECAY   1000016     3.13151878E+01   # snu_tauL decays
#          BR         NDA      ID1       ID2
     2.14395453E-01    2     1000022        16   # BR(~nu_tauL -> ~chi_10 nu_tau)
     1.61678550E-03    2     1000023        16   # BR(~nu_tauL -> ~chi_20 nu_tau)
     3.47436533E-03    2     1000025        16   # BR(~nu_tauL -> ~chi_30 nu_tau)
     2.49850483E-01    2     1000035        16   # BR(~nu_tauL -> ~chi_40 nu_tau)
     3.15794658E-02    2     1000024        15   # BR(~nu_tauL -> ~chi_1+ tau-)
     4.99083447E-01    2     1000037        15   # BR(~nu_tauL -> ~chi_2+ tau-)
#
#         PDG            Width
DECAY   1000024     1.63129584E-01   # chargino1+ decays
#          BR         NDA      ID1       ID2
     1.00000000E+00    2     1000022        24   # BR(~chi_1+ -> ~chi_10  W+)
#
#         PDG            Width
DECAY   1000037     2.29078279E+01   # chargino2+ decays
#          BR         NDA      ID1       ID2
     2.53658675E-01    2     1000024        23   # BR(~chi_2+ -> ~chi_1+  Z )
     1.47758461E-04    2     1000022        24   # BR(~chi_2+ -> ~chi_10  W+)
     2.45452535E-01    2     1000023        24   # BR(~chi_2+ -> ~chi_20  W+)
     2.44558439E-01    2     1000025        24   # BR(~chi_2+ -> ~chi_30  W+)
     2.56167450E-01    2     1000024        25   # BR(~chi_2+ -> ~chi_1+  h )
     1.51417249E-05    2     1000022        37   # BR(~chi_2+ -> ~chi_10  H+)
#
#         PDG            Width
DECAY   1000022     0.00000000E+00   # neutralino1 decays
#
#         PDG            Width
DECAY   1000023     1.53564370E-01   # neutralino2 decays
#          BR         NDA      ID1       ID2
     4.91436101E-01    2     1000022        23   # BR(~chi_20 -> ~chi_10   Z )
     5.08563899E-01    2     1000022        25   # BR(~chi_20 -> ~chi_10   h )
#
#         PDG            Width
DECAY   1000025     1.38412043E-01   # neutralino3 decays
#          BR         NDA      ID1       ID2
     6.71013878E-01    2     1000022        23   # BR(~chi_30 -> ~chi_10   Z )
     3.28986122E-01    2     1000022        25   # BR(~chi_30 -> ~chi_10   h )
#
#         PDG            Width
DECAY   1000035     2.29093298E+01   # neutralino4 decays
#          BR         NDA      ID1       ID2
     6.90385882E-05    2     1000022        23   # BR(~chi_40 -> ~chi_10   Z )
     1.29010472E-01    2     1000023        23   # BR(~chi_40 -> ~chi_20   Z )
     1.24413668E-01    2     1000025        23   # BR(~chi_40 -> ~chi_30   Z )
     2.45284851E-01    2     1000024       -24   # BR(~chi_40 -> ~chi_1+   W-)
     2.45284851E-01    2    -1000024        24   # BR(~chi_40 -> ~chi_1-   W+)
     6.82663240E-05    2     1000022        25   # BR(~chi_40 -> ~chi_10   h )
     1.46137825E-05    2     1000022        35   # BR(~chi_40 -> ~chi_10   H )
     1.55027601E-06    2     1000022        36   # BR(~chi_40 -> ~chi_10   A )
     1.26573395E-01    2     1000023        25   # BR(~chi_40 -> ~chi_20   h )
     1.29279295E-01    2     1000025        25   # BR(~chi_40 -> ~chi_30   h )
#
#         PDG            Width
DECAY        25     4.05454093E-03   # h decays
#          BR         NDA      ID1       ID2
     6.13978237E-01    2           5        -5   # BR(h -> b       bb     )
     6.38659028E-02    2         -15        15   # BR(h -> tau+    tau-   )
     2.26109486E-04    2         -13        13   # BR(h -> mu+     mu-    )
     4.79502604E-04    2           3        -3   # BR(h -> s       sb     )
     2.07751237E-02    2           4        -4   # BR(h -> c       cb     )
     6.69503633E-02    2          21        21   # BR(h -> g       g      )
     2.29505330E-03    2          22        22   # BR(h -> gam     gam    )
     1.46234128E-03    2          22        23   # BR(h -> Z       gam    )
     2.05576104E-01    2          24       -24   # BR(h -> W+      W-     )
     2.43891825E-02    2          23        23   # BR(h -> Z       Z      )
     2.07964787E-06    2     1000022   1000022   # BR(h -> ~chi_10 ~chi_10)
#
#         PDG            Width
DECAY        35     8.78516558E+00   # H decays
#          BR         NDA      ID1       ID2
     3.61881819E-01    2           5        -5   # BR(H -> b       bb     )
     6.34314126E-02    2         -15        15   # BR(H -> tau+    tau-   )
     2.24298513E-04    2         -13        13   # BR(H -> mu+     mu-    )
     2.74955532E-04    2           3        -3   # BR(H -> s       sb     )
     1.53741973E-06    2           4        -4   # BR(H -> c       cb     )
     1.53600415E-01    2           6        -6   # BR(H -> t       tb     )
     5.10935850E-05    2          21        21   # BR(H -> g       g      )
     1.38116296E-07    2          22        22   # BR(H -> gam     gam    )
     9.05644260E-08    2          23        22   # BR(H -> Z       gam    )
     7.43429160E-05    2          24       -24   # BR(H -> W+      W-     )
     3.71243891E-05    2          23        23   # BR(H -> Z       Z      )
     2.66983044E-04    2          25        25   # BR(H -> h       h      )
    -2.92420947E-23    2          36        36   # BR(H -> A       A      )
     8.16137216E-19    2          23        36   # BR(H -> Z       A      )
     3.40540332E-03    2     1000024  -1000024   # BR(H -> ~chi_1+ ~chi_1-)
     1.88080004E-02    2     1000022   1000022   # BR(H -> ~chi_10 ~chi_10)
     3.32853992E-03    2     1000023   1000023   # BR(H -> ~chi_20 ~chi_20)
     5.10437416E-03    2     1000025   1000025   # BR(H -> ~chi_30 ~chi_30)
     2.31991540E-01    2     1000022   1000023   # BR(H -> ~chi_10 ~chi_20)
     1.48010516E-01    2     1000022   1000025   # BR(H -> ~chi_10 ~chi_30)
     9.50741591E-03    2     1000023   1000025   # BR(H -> ~chi_20 ~chi_30)
#
#         PDG            Width
DECAY        36     8.79052002E+00   # A decays
#          BR         NDA      ID1       ID2
     3.61785275E-01    2           5        -5   # BR(A -> b       bb     )
     6.33946324E-02    2         -15        15   # BR(A -> tau+    tau-   )
     2.24168142E-04    2         -13        13   # BR(A -> mu+     mu-    )
     2.74996577E-04    2           3        -3   # BR(A -> s       sb     )
     1.54257818E-06    2           4        -4   # BR(A -> c       cb     )
     1.54030745E-01    2           6        -6   # BR(A -> t       tb     )
     1.52444029E-04    2          21        21   # BR(A -> g       g      )
     5.63379976E-07    2          22        22   # BR(A -> gam     gam    )
     1.84404676E-07    2          23        22   # BR(A -> Z       gam    )
     7.40176140E-05    2          23        25   # BR(A -> Z       h      )
     3.56056375E-03    2     1000024  -1000024   # BR(A -> ~chi_1+ ~chi_1-)
     1.80604063E-02    2     1000022   1000022   # BR(A -> ~chi_10 ~chi_10)
     2.25807385E-03    2     1000023   1000023   # BR(A -> ~chi_20 ~chi_20)
     8.17390027E-03    2     1000025   1000025   # BR(A -> ~chi_30 ~chi_30)
     1.51137926E-01    2     1000022   1000023   # BR(A -> ~chi_10 ~chi_20)
     2.28535833E-01    2     1000022   1000025   # BR(A -> ~chi_10 ~chi_30)
     8.33472694E-03    2     1000023   1000025   # BR(A -> ~chi_20 ~chi_30)
#
#         PDG            Width
DECAY        37     8.72151290E+00   # H+ decays
#          BR         NDA      ID1       ID2
     5.78754111E-04    2           4        -5   # BR(H+ -> c       bb     )
     6.39275291E-02    2         -15        16   # BR(H+ -> tau+    nu_tau )
     2.26052505E-04    2         -13        14   # BR(H+ -> mu+     nu_mu  )
     3.70400677E-06    2           2        -5   # BR(H+ -> u       bb     )
     1.32639488E-05    2           2        -3   # BR(H+ -> u       sb     )
     2.74298509E-04    2           4        -3   # BR(H+ -> c       sb     )
     5.13766987E-01    2           6        -5   # BR(H+ -> t       bb     )
     7.47611248E-05    2          24        25   # BR(H+ -> W+      h      )
     1.03268565E-12    2          24        36   # BR(H+ -> W+      A      )
     4.10308423E-01    2     1000024   1000022   # BR(H+ -> ~chi_1+ ~chi_10)
     9.11986888E-03    2     1000024   1000023   # BR(H+ -> ~chi_1+ ~chi_20)
     1.70635762E-03    2     1000024   1000025   # BR(H+ -> ~chi_1+ ~chi_30)
