#
#                              ======================
#                              | THE SUSYHIT OUTPUT |
#                              ======================
#
#
#              ------------------------------------------------------
#              |     This is the output of the SUSY-HIT package     |
#              |  created by A.Djouadi, M.Muehlleitner and M.Spira. |
#              |  In case of problems with SUSY-HIT email to        |
#              |           margarete.muehlleitner@cern.ch           |
#              |           michael.spira@psi.ch                     |
#              |           abdelhak.djouadi@cern.ch                 |
#              ------------------------------------------------------
#
#              ------------------------------------------------------
#              |  SUSY Les Houches Accord - MSSM Spectrum + Decays  |
#              |              based on the decay programs           |
#              |                                                    |
#              |                     SDECAY 1.3b                    |
#              |                                                    |
#              |  Authors: M.Muhlleitner, A.Djouadi and Y.Mambrini  |
#              |  Ref.:    Comput.Phys.Commun.168(2005)46           |
#              |           [hep-ph/0311167]                         |
#              |                                                    |
#              |                     HDECAY 3.4                     |
#              |                                                    |
#              |  By: A.Djouadi,J.Kalinowski,M.Muhlleitner,M.Spira  |
#              |  Ref.:    Comput.Phys.Commun.108(1998)56           |
#              |           [hep-ph/9704448]                         |
#              |                                                    |
#              |                                                    |
#              |  If not stated otherwise all DRbar couplings and   |
#              |  soft SUSY breaking masses are given at the scale  |
#              |  Q=  0.91187600E+02
#              |                                                    |
#              ------------------------------------------------------
#
#
BLOCK DCINFO  # Decay Program information
     1   SDECAY/HDECAY # decay calculator
     2   1.3b  /3.4    # version number
#
BLOCK SPINFO  # Spectrum calculator information
     1   SuSpect     # RGE +Spectrum calculator            
     2   2.41         # version number                     
#
BLOCK MODSEL  # Model selection
     1     0   # #general MSSM low scale                           
#
BLOCK SMINPUTS  # Standard Model inputs
         1     1.27934000E+02   # alpha_em^-1(M_Z)^MSbar
         2     1.16639000E-05   # G_F [GeV^-2]
         3     1.17200000E-01   # alpha_S(M_Z)^MSbar
         4     9.11870000E+01   # M_Z pole mass
         5     4.25000000E+00   # mb(mb)^MSbar
         6     1.72500000E+02   # mt pole mass
         7     1.77700000E+00   # mtau pole mass
#
BLOCK MINPAR  # Input parameters - minimal models
#
BLOCK EXTPAR  # Input parameters - non-minimal models
         0     9.11876000E+01   # EWSB                
         1     0.85000000E+03   # M_1                 
         2     3.00000000E+03   # M_2                 
         3     1.90000000E+03   # M_3                 
        11     0.00000000E+00   # A_t                 
        12     0.00000000E+00   # A_b                 
        13     0.00000000E+00   # A_tau               
        14     0.00000000E+00   # A_u                 
        15     0.00000000E+00   # A_d                 
        16     0.00000000E+00   # A_e                 
        23     3.00000000E+03   # mu(EWSB)            
        25     1.50000000E+00   # tanbeta(in)         
        26     2.00000000E+03   # MA_pole             
        31     3.00000000E+03   # M_eL                
        32     3.00000000E+03   # M_muL               
        33     3.00000000E+03   # M_tauL              
        34     3.00000000E+03   # M_eR                
        35     3.00000000E+03   # M_muR               
        36     3.00000000E+03   # M_tauR              
        41     3.00000000E+03   # M_q1L               
        42     3.00000000E+03   # M_q2L               
        43     3.00000000E+03   # M_q3L               
        44     3.00000000E+03   # M_uR                
        45     3.00000000E+03   # M_cR                
        46     3.00000000E+03   # M_tR                
        47     3.00000000E+03   # M_dR                
        48     3.00000000E+03   # M_sR                
        49     3.00000000E+03   # M_bR                
#
BLOCK MASS  # Mass Spectrum
# PDG code           mass       particle
        24     8.05385198E+01   # W+
        25     1.25000000E+02   # h
        35     2.00378664E+03   # H
        36     2.00000000E+03   # A
        37     2.00144842E+03   # H+
         5     4.87877839E+00   # b-quark pole mass calculated from mb(mb)_Msbar
   1000001     3.00022258E+03   # ~d_L
   2000001     3.00004244E+03   # ~d_R
   1000002     2.99981985E+03   # ~u_L
   2000002     2.99991511E+03   # ~u_R
   1000003     3.00022258E+03   # ~s_L
   2000003     3.00004244E+03   # ~s_R
   1000004     2.99981985E+03   # ~c_L
   2000004     2.99991511E+03   # ~c_R
   1000005     2.99811258E+03   # ~b_1
   2000005     3.00215350E+03   # ~b_2
   1000006     2.95236849E+03   # ~t_1
   2000006     3.05430786E+03   # ~t_2
   1000011     3.00013770E+03   # ~e_L
   2000011     3.00012733E+03   # ~e_R
   1000012     2.99973495E+03   # ~nu_eL
   1000013     3.00013770E+03   # ~mu_L
   2000013     3.00012733E+03   # ~mu_R
   1000014     2.99973495E+03   # ~nu_muL
   1000015     2.99879763E+03   # ~tau_1
   2000015     3.00146786E+03   # ~tau_2
   1000016     2.99973495E+03   # ~nu_tauL
   1000021     1000   # ~g
   1000022     200   # ~chi_10
   1000023     2.92307213E+03   # ~chi_20
   1000025    -3.00005654E+03   # ~chi_30
   1000035     3.07844087E+03   # ~chi_40
   1000024     2.92231572E+03   # ~chi_1+
   1000037     3.07776483E+03   # ~chi_2+
   1000039     1.00000000E-07   # ~gravitino
#
BLOCK NMIX  # Neutralino Mixing Matrix
  1  1     9.99428945E-01   # N_11
  1  2    -1.98912850E-03   # N_12
  1  3     2.51347342E-02   # N_13
  1  4    -2.24960698E-02   # N_14
  2  1     2.51217992E-02   # N_21
  2  2     7.10331756E-01   # N_22
  2  3    -4.98682371E-01   # N_23
  2  4     4.96098362E-01   # N_24
  3  1     1.86012869E-03   # N_31
  3  2    -2.59139051E-03   # N_32
  3  3    -7.07069866E-01   # N_33
  3  4    -7.07136500E-01   # N_34
  4  1     2.25215401E-02   # N_41
  4  2    -7.03859450E-01   # N_42
  4  3    -5.00735802E-01   # N_43
  4  4     5.03327241E-01   # N_44
#
BLOCK UMIX  # Chargino Mixing Matrix U
  1  1    -7.05272442E-01   # U_11
  1  2     7.08936374E-01   # U_12
  2  1     7.08936374E-01   # U_21
  2  2     7.05272442E-01   # U_22
#
BLOCK VMIX  # Chargino Mixing Matrix V
  1  1    -7.08936374E-01   # V_11
  1  2     7.05272442E-01   # V_12
  2  1     7.05272442E-01   # V_21
  2  2     7.08936374E-01   # V_22
#
BLOCK STOPMIX  # Stop Mixing Matrix
  1  1     7.07436723E-01   # cos(theta_t)
  1  2     7.06776685E-01   # sin(theta_t)
  2  1    -7.06776685E-01   # -sin(theta_t)
  2  2     7.07436723E-01   # cos(theta_t)
#
BLOCK SBOTMIX  # Sbottom Mixing Matrix
  1  1     6.91166047E-01   # cos(theta_b)
  1  2     7.22695991E-01   # sin(theta_b)
  2  1    -7.22695991E-01   # -sin(theta_b)
  2  2     6.91166047E-01   # cos(theta_b)
#
BLOCK STAUMIX  # Stau Mixing Matrix
  1  1     7.05732361E-01   # cos(theta_tau)
  1  2     7.08478535E-01   # sin(theta_tau)
  2  1    -7.08478535E-01   # -sin(theta_tau)
  2  2     7.05732361E-01   # cos(theta_tau)
#
BLOCK ALPHA  # Higgs mixing
          -5.89893427E-01   # Mixing angle in the neutral Higgs boson sector
#
BLOCK HMIX Q=  9.11876000E+01  # DRbar Higgs Parameters
         1     3.00000000E+03   # mu(Q)               
         2     1.49999980E+00   # tanbeta(Q)          
         3     2.52451996E+02   # vev(Q)              
         4     2.81569811E+06   # MA^2(Q)             
#
BLOCK GAUGE Q=  9.11876000E+01  # The gauge couplings
     1     3.53088826E-01   # gprime(Q) DRbar
     2     6.27951507E-01   # g(Q) DRbar
     3     1.08950440E+00   # g3(Q) DRbar
#
BLOCK AU Q=  9.11876000E+01  # The trilinear couplings
  1  1     0.00000000E+00   # A_u(Q) DRbar
  2  2     0.00000000E+00   # A_c(Q) DRbar
  3  3     0.00000000E+00   # A_t(Q) DRbar
#
BLOCK AD Q=  9.11876000E+01  # The trilinear couplings
  1  1     0.00000000E+00   # A_d(Q) DRbar
  2  2     0.00000000E+00   # A_s(Q) DRbar
  3  3     0.00000000E+00   # A_b(Q) DRbar
#
BLOCK AE Q=  9.11876000E+01  # The trilinear couplings
  1  1     0.00000000E+00   # A_e(Q) DRbar
  2  2     0.00000000E+00   # A_mu(Q) DRbar
  3  3     0.00000000E+00   # A_tau(Q) DRbar
#
BLOCK Yu Q=  9.11876000E+01  # The Yukawa couplings
  1  1     0.00000000E+00   # y_u(Q) DRbar
  2  2     0.00000000E+00   # y_c(Q) DRbar
  3  3     1.03062866E+00   # y_t(Q) DRbar
#
BLOCK Yd Q=  9.11876000E+01  # The Yukawa couplings
  1  1     0.00000000E+00   # y_d(Q) DRbar
  2  2     0.00000000E+00   # y_s(Q) DRbar
  3  3     2.71802985E-02   # y_b(Q) DRbar
#
BLOCK Ye Q=  9.11876000E+01  # The Yukawa couplings
  1  1     0.00000000E+00   # y_e(Q) DRbar
  2  2     0.00000000E+00   # y_mu(Q) DRbar
  3  3     1.79783696E-02   # y_tau(Q) DRbar
#
BLOCK MSOFT Q=  9.11876000E+01  # The soft SUSY breaking masses at the scale Q
         1     0.85000000E+03   # M_1                 
         2     3.00000000E+03   # M_2                 
         3     1.90000000E+03   # M_3                 
        14     0.00000000E+00   # A_u                 
        15     0.00000000E+00   # A_d                 
        16     0.00000000E+00   # A_e                 
        21    -6.68287176E+06   # M^2_Hd              
        22    -9.06814493E+06   # M^2_Hu              
        31     3.00000000E+03   # M_eL                
        32     3.00000000E+03   # M_muL               
        33     3.00000000E+03   # M_tauL              
        34     3.00000000E+03   # M_eR                
        35     3.00000000E+03   # M_muR               
        36     3.00000000E+03   # M_tauR              
        41     3.00000000E+03   # M_q1L               
        42     3.00000000E+03   # M_q2L               
        43     3.00000000E+03   # M_q3L               
        44     3.00000000E+03   # M_uR                
        45     3.00000000E+03   # M_cR                
        46     3.00000000E+03   # M_tR                
        47     3.00000000E+03   # M_dR                
        48     3.00000000E+03   # M_sR                
        49     3.00000000E+03   # M_bR                
#
#
#
#                             =================
#                             |The decay table|
#                             =================
#
# - The QCD corrections to the decays gluino -> squark  + quark
#                                     squark -> gaugino + quark_prime
#                                     squark -> squark_prime + Higgs
#                                     squark -> gluino  + quark
#   are included.
#
# - The multi-body decays for the inos, stops and sbottoms are included.
#
# - The loop induced decays for the gluino, neutralinos and stops
#   are included.
#
# - The SUSY decays of the top quark are included.
#
# - Possible decays of the NLSP in GMSB models are included.
#
#
#         PDG            Width
DECAY         6     1.36287895E+00   # top decays
#          BR         NDA      ID1       ID2
     1.00000000E+00    2           5        24   # BR(t ->  b    W+)
#
#         PDG            Width
DECAY   1000021     1.E-04   # gluino decays (OJ Mods)
#          BR         NDA      ID1       ID2
     4.35216627E-03    2     1000022        21   # BR(~g -> ~chi_10 g)
#          BR         NDA      ID1       ID2
     4.10748831E-03    2     1000039        21   # BR(~g -> ~G      g)
#           BR         NDA      ID1       ID2       ID3
     1.01606715E-01    3     1000022         1        -1   # BR(~g -> ~chi_10 d  db)
     3.43687966E-01    3     1000022         2        -2   # BR(~g -> ~chi_10 u  ub)
     1.01606715E-01    3     1000022         3        -3   # BR(~g -> ~chi_10 s  sb)
     3.43687966E-01    3     1000022         4        -4   # BR(~g -> ~chi_10 c  cb)
     1.00950984E-01    3     1000022         5        -5   # BR(~g -> ~chi_10 b  bb)
#
#         PDG            Width
DECAY   1000006     6.89263631E+01   # stop1 decays
#          BR         NDA      ID1       ID2
     2.40786767E-02    2     1000022         6   # BR(~t_1 -> ~chi_10 t )
     2.30034241E-04    2     1000024         5   # BR(~t_1 -> ~chi_1+ b )
     9.75691289E-01    2     1000021         6   # BR(~t_1 -> ~g      t )
#
#         PDG            Width
DECAY   2000006     6.26551707E+01   # stop2 decays
#          BR         NDA      ID1       ID2
     2.26969844E-02    2     1000022         6   # BR(~t_2 -> ~chi_10 t )
     1.12795275E-04    2     1000024         5   # BR(~t_2 -> ~chi_1+ b )
     9.76160890E-01    2     1000021         6   # BR(~t_2 -> ~g      t )
     1.02933043E-03    2     1000006        23   # BR(~t_2 -> ~t_1    Z )
#
#         PDG            Width
DECAY   1000005     6.49794332E+01   # sbottom1 decays
#          BR         NDA      ID1       ID2
     7.37551905E-03    2     1000022         5   # BR(~b_1 -> ~chi_10 b )
     1.20356940E-04    2     1000023         5   # BR(~b_1 -> ~chi_20 b )
     9.92504124E-01    2     1000021         5   # BR(~b_1 -> ~g      b )
#
#         PDG            Width
DECAY   2000005     6.49523432E+01   # sbottom2 decays
#          BR         NDA      ID1       ID2
     6.82240186E-03    2     1000022         5   # BR(~b_2 -> ~chi_10 b )
     1.27590928E-04    2     1000023         5   # BR(~b_2 -> ~chi_20 b )
     9.93050007E-01    2     1000021         5   # BR(~b_2 -> ~g      b )
#
#         PDG            Width
DECAY   1000002     6.47847821E+01   # sup_L decays
#          BR         NDA      ID1       ID2
     2.95735266E-03    2     1000022         2   # BR(~u_L -> ~chi_10 u)
     6.20453311E-04    2     1000023         2   # BR(~u_L -> ~chi_20 u)
     1.23614635E-03    2     1000024         1   # BR(~u_L -> ~chi_1+ d)
     9.95186048E-01    2     1000021         2   # BR(~u_L -> ~g      u)
#
#         PDG            Width
DECAY   2000002     6.76123642E+01   # sup_R decays
#          BR         NDA      ID1       ID2
     4.63212855E-02    2     1000022         2   # BR(~u_R -> ~chi_10 u)
     4.13156839E-07    2     1000023         2   # BR(~u_R -> ~chi_20 u)
     9.53678301E-01    2     1000021         2   # BR(~u_R -> ~g      u)
#
#         PDG            Width
DECAY   1000001     6.48239741E+01   # sdown_L decays
#          BR         NDA      ID1       ID2
     3.08495119E-03    2     1000022         1   # BR(~d_L -> ~chi_10 d)
     6.08124103E-04    2     1000023         1   # BR(~d_L -> ~chi_20 d)
     1.39433659E-11    2     1000025         1   # BR(~d_L -> ~chi_30 d)
     1.23123728E-03    2    -1000024         2   # BR(~d_L -> ~chi_1- u)
     9.95075687E-01    2     1000021         1   # BR(~d_L -> ~g      d)
#
#         PDG            Width
DECAY   2000001     6.52735857E+01   # sdown_R decays
#          BR         NDA      ID1       ID2
     1.19966501E-02    2     1000022         1   # BR(~d_R -> ~chi_10 d)
     1.07228910E-07    2     1000023         1   # BR(~d_R -> ~chi_20 d)
     9.88003243E-01    2     1000021         1   # BR(~d_R -> ~g      d)
#
#         PDG            Width
DECAY   1000004     6.47847821E+01   # scharm_L decays
#          BR         NDA      ID1       ID2
     2.95735266E-03    2     1000022         4   # BR(~c_L -> ~chi_10 c)
     6.20453311E-04    2     1000023         4   # BR(~c_L -> ~chi_20 c)
     1.23614635E-03    2     1000024         3   # BR(~c_L -> ~chi_1+ s)
     9.95186048E-01    2     1000021         4   # BR(~c_L -> ~g      c)
#
#         PDG            Width
DECAY   2000004     6.76123642E+01   # scharm_R decays
#          BR         NDA      ID1       ID2
     4.63212855E-02    2     1000022         4   # BR(~c_R -> ~chi_10 c)
     4.13156839E-07    2     1000023         4   # BR(~c_R -> ~chi_20 c)
     9.53678301E-01    2     1000021         4   # BR(~c_R -> ~g      c)
#
#         PDG            Width
DECAY   1000003     6.48239741E+01   # sstrange_L decays
#          BR         NDA      ID1       ID2
     3.08495119E-03    2     1000022         3   # BR(~s_L -> ~chi_10 s)
     6.08124103E-04    2     1000023         3   # BR(~s_L -> ~chi_20 s)
     1.39433659E-11    2     1000025         3   # BR(~s_L -> ~chi_30 s)
     1.23123728E-03    2    -1000024         4   # BR(~s_L -> ~chi_1- c)
     9.95075687E-01    2     1000021         3   # BR(~s_L -> ~g      s)
#
#         PDG            Width
DECAY   2000003     6.52735857E+01   # sstrange_R decays
#          BR         NDA      ID1       ID2
     1.19966501E-02    2     1000022         3   # BR(~s_R -> ~chi_10 s)
     1.07228910E-07    2     1000023         3   # BR(~s_R -> ~chi_20 s)
     9.88003243E-01    2     1000021         3   # BR(~s_R -> ~g      s)
#
#         PDG            Width
DECAY   1000011     1.75019665E+00   # selectron_L decays
#          BR         NDA      ID1       ID2
     9.73385281E-01    2     1000022        11   # BR(~e_L -> ~chi_10 e-)
     9.07617150E-03    2     1000023        11   # BR(~e_L -> ~chi_20 e-)
     4.70083334E-14    2     1000025        11   # BR(~e_L -> ~chi_30 e-)
     1.75385479E-02    2    -1000024        12   # BR(~e_L -> ~chi_1- nu_e)
#
#         PDG            Width
DECAY   2000011     6.86291647E+00   # selectron_R decays
#          BR         NDA      ID1       ID2
     9.99996481E-01    2     1000022        11   # BR(~e_R -> ~chi_10 e-)
     3.51899307E-06    2     1000023        11   # BR(~e_R -> ~chi_20 e-)
     1.67093378E-14    2     1000025        11   # BR(~e_R -> ~chi_30 e-)
#
#         PDG            Width
DECAY   1000013     1.75019665E+00   # smuon_L decays
#          BR         NDA      ID1       ID2
     9.73385281E-01    2     1000022        13   # BR(~mu_L -> ~chi_10 mu-)
     9.07617150E-03    2     1000023        13   # BR(~mu_L -> ~chi_20 mu-)
     4.70083334E-14    2     1000025        13   # BR(~mu_L -> ~chi_30 mu-)
     1.75385479E-02    2    -1000024        14   # BR(~mu_L -> ~chi_1- nu_mu)
#
#         PDG            Width
DECAY   2000013     6.86291647E+00   # smuon_R decays
#          BR         NDA      ID1       ID2
     9.99996481E-01    2     1000022        13   # BR(~mu_R -> ~chi_10 mu-)
     3.51899307E-06    2     1000023        13   # BR(~mu_R -> ~chi_20 mu-)
     1.67093378E-14    2     1000025        13   # BR(~mu_R -> ~chi_30 mu-)
#
#         PDG            Width
DECAY   1000015     4.31798383E+00   # stau_1 decays
#          BR         NDA      ID1       ID2
     9.94504803E-01    2     1000022        15   # BR(~tau_1 -> ~chi_10  tau-)
     1.87178798E-03    2     1000023        15   # BR(~tau_1 -> ~chi_20  tau-)
     3.62340287E-03    2    -1000024        16   # BR(~tau_1 -> ~chi_1-  nu_tau)
     6.46608173E-09    2     1000039        15   # BR(~tau_1 -> ~G       tau-)
#
#         PDG            Width
DECAY   2000015     4.29506622E+00   # stau_2 decays
#          BR         NDA      ID1       ID2
     9.94685099E-01    2     1000022        15   # BR(~tau_2 -> ~chi_10  tau-)
     1.81675252E-03    2     1000023        15   # BR(~tau_2 -> ~chi_20  tau-)
     3.49814873E-03    2    -1000024        16   # BR(~tau_2 -> ~chi_1-  nu_tau)
#
#         PDG            Width
DECAY   1000012     1.77246299E+00   # snu_eL decays
#          BR         NDA      ID1       ID2
     9.74484706E-01    2     1000022        12   # BR(~nu_eL -> ~chi_10 nu_e)
     8.19269794E-03    2     1000023        12   # BR(~nu_eL -> ~chi_20 nu_e)
     1.73225964E-02    2     1000024        11   # BR(~nu_eL -> ~chi_1+ e-)
#
#         PDG            Width
DECAY   1000014     1.77246299E+00   # snu_muL decays
#          BR         NDA      ID1       ID2
     9.74484706E-01    2     1000022        14   # BR(~nu_muL -> ~chi_10 nu_mu)
     8.19269794E-03    2     1000023        14   # BR(~nu_muL -> ~chi_20 nu_mu)
     1.73225964E-02    2     1000024        13   # BR(~nu_muL -> ~chi_1+ mu-)
#
#         PDG            Width
DECAY   1000016     1.77244003E+00   # snu_tauL decays
#          BR         NDA      ID1       ID2
     9.74497327E-01    2     1000022        16   # BR(~nu_tauL -> ~chi_10 nu_tau)
     8.19280405E-03    2     1000023        16   # BR(~nu_tauL -> ~chi_20 nu_tau)
     1.73098687E-02    2     1000024        15   # BR(~nu_tauL -> ~chi_1+ tau-)
#
#         PDG            Width
DECAY   1000024     1.54861084E+00   # chargino1+ decays
#          BR         NDA      ID1       ID2
     9.99999988E-01    2     1000022        24   # BR(~chi_1+ -> ~chi_10  W+)
     1.18406064E-08    2     1000039        24   # BR(~chi_1+ -> ~G       W+)
     3.15387538E-10    2     1000039        37   # BR(~chi_1+ -> ~G       H+)
#
#         PDG            Width
DECAY   1000037     4.38680829E+00   # chargino2+ decays
#          BR         NDA      ID1       ID2
     2.70604621E-02    2     1000002        -1   # BR(~chi_2+ -> ~u_L     db)
     2.71513880E-02    2    -1000001         2   # BR(~chi_2+ -> ~d_L*    u )
     2.70604621E-02    2     1000004        -3   # BR(~chi_2+ -> ~c_L     sb)
     2.71513880E-02    2    -1000003         4   # BR(~chi_2+ -> ~s_L*    c )
     4.39323001E-03    2     1000006        -5   # BR(~chi_2+ -> ~t_1     bb)
     4.47369384E-03    2     2000006        -5   # BR(~chi_2+ -> ~t_2     bb)
     3.43070217E-03    2     1000012       -11   # BR(~chi_2+ -> ~nu_eL   e+  )
     3.43070217E-03    2     1000014       -13   # BR(~chi_2+ -> ~nu_muL  mu+ )
     3.42811659E-03    2     1000016       -15   # BR(~chi_2+ -> ~nu_tau1 tau+)
     3.43120328E-03    2    -1000011        12   # BR(~chi_2+ -> ~e_L+    nu_e)
     3.43120328E-03    2    -1000013        14   # BR(~chi_2+ -> ~mu_L+   nu_mu)
     1.66802983E-03    2    -1000015        16   # BR(~chi_2+ -> ~tau_1+  nu_tau)
     1.76026385E-03    2    -2000015        16   # BR(~chi_2+ -> ~tau_2+  nu_tau)
     2.61625352E-01    2     1000024        23   # BR(~chi_2+ -> ~chi_1+  Z )
     2.97674743E-01    2     1000022        24   # BR(~chi_2+ -> ~chi_10  W+)
     3.02826315E-01    2     1000023        24   # BR(~chi_2+ -> ~chi_20  W+)
     2.73927638E-06    2     1000024        25   # BR(~chi_2+ -> ~chi_1+  h )
     5.42515327E-09    2     1000039        24   # BR(~chi_2+ -> ~G       W+)
     2.00609142E-10    2     1000039        37   # BR(~chi_2+ -> ~G       H+)
#
#         PDG            Width
DECAY   1000022     3.29106098087E-16   # neutralino1 decays (OJ Mods)
#          BR         NDA      ID1       ID2
     7.59780320E-01    2     1000039        22   # BR(~chi_10 -> ~G        gam)
     2.40208778E-01    2     1000039        23   # BR(~chi_10 -> ~G        Z)
     1.09018806E-05    2     1000039        25   # BR(~chi_10 -> ~G        h)
#
#         PDG            Width
DECAY   1000023     1.E-08   # neutralino2 decays (OJ Mods)
#          BR         NDA      ID1       ID2
     2.67381030E-03    2     1000022        23   # BR(~chi_20 -> ~chi_10   Z )
     9.97326178E-01    2     1000022        25   # BR(~chi_20 -> ~chi_10   h )
     2.09891282E-09    2     1000039        22   # BR(~chi_20 -> ~G        gam)
     9.25116755E-09    2     1000039        23   # BR(~chi_20 -> ~G        Z)
     1.38358342E-10    2     1000039        25   # BR(~chi_20 -> ~G        h)
     2.88393329E-10    2     1000039        35   # BR(~chi_20 -> ~G        H)
     1.19752647E-11    2     1000039        36   # BR(~chi_20 -> ~G        A)
#
#         PDG            Width
DECAY   1000025     2.97108752E+00   # neutralino3 decays
#          BR         NDA      ID1       ID2
     9.96995656E-01    2     1000022        23   # BR(~chi_30 -> ~chi_10   Z )
     3.00433748E-03    2     1000022        25   # BR(~chi_30 -> ~chi_10   h )
     7.57394152E-10    2     1000002        -2   # BR(~chi_30 -> ~u_L      ub)
     7.57394152E-10    2    -1000002         2   # BR(~chi_30 -> ~u_L*     u )
     1.74774851E-10    2     2000002        -2   # BR(~chi_30 -> ~u_R      ub)
     1.74774851E-10    2    -2000002         2   # BR(~chi_30 -> ~u_R*     u )
     4.35426440E-12    2     2000001        -1   # BR(~chi_30 -> ~d_R      db)
     4.35426440E-12    2    -2000001         1   # BR(~chi_30 -> ~d_R*     d )
     7.57394152E-10    2     1000004        -4   # BR(~chi_30 -> ~c_L      cb)
     7.57394152E-10    2    -1000004         4   # BR(~chi_30 -> ~c_L*     c )
     1.74774851E-10    2     2000004        -4   # BR(~chi_30 -> ~c_R      cb)
     1.74774851E-10    2    -2000004         4   # BR(~chi_30 -> ~c_R*     c )
     4.35426440E-12    2     2000003        -3   # BR(~chi_30 -> ~s_R      sb)
     4.35426440E-12    2    -2000003         3   # BR(~chi_30 -> ~s_R*     s )
     1.20408769E-12    2     1000012       -12   # BR(~chi_30 -> ~nu_eL    nu_eb)
     1.20408769E-12    2    -1000012        12   # BR(~chi_30 -> ~nu_eL*   nu_e )
     1.20408769E-12    2     1000014       -14   # BR(~chi_30 -> ~nu_muL   nu_mub)
     1.20408769E-12    2    -1000014        14   # BR(~chi_30 -> ~nu_muL*  nu_mu )
     1.20408769E-12    2     1000016       -16   # BR(~chi_30 -> ~nu_tau1  nu_taub)
     1.20408769E-12    2    -1000016        16   # BR(~chi_30 -> ~nu_tau1* nu_tau )
     1.16216918E-15    2     1000039        22   # BR(~chi_30 -> ~G        gam)
     1.80607558E-10    2     1000039        23   # BR(~chi_30 -> ~G        Z)
     4.49952761E-09    2     1000039        25   # BR(~chi_30 -> ~G        h)
     1.67162409E-11    2     1000039        35   # BR(~chi_30 -> ~G        H)
     4.31324958E-10    2     1000039        36   # BR(~chi_30 -> ~G        A)
#
#         PDG            Width
DECAY   1000035     4.62211994E+00   # neutralino4 decays
#          BR         NDA      ID1       ID2
     1.05807105E-03    2     1000022        23   # BR(~chi_40 -> ~chi_10   Z )
     1.75640905E-10    2     1000023        23   # BR(~chi_40 -> ~chi_20   Z )
     2.82270587E-01    2     1000024       -24   # BR(~chi_40 -> ~chi_1+   W-)
     2.82270587E-01    2    -1000024        24   # BR(~chi_40 -> ~chi_1-   W+)
     2.97250918E-01    2     1000022        25   # BR(~chi_40 -> ~chi_10   h )
     2.36621227E-05    2     1000023        25   # BR(~chi_40 -> ~chi_20   h )
     2.06919826E-02    2     1000002        -2   # BR(~chi_40 -> ~u_L      ub)
     2.06919826E-02    2    -1000002         2   # BR(~chi_40 -> ~u_L*     u )
     1.20339379E-05    2     2000002        -2   # BR(~chi_40 -> ~u_R      ub)
     1.20339379E-05    2    -2000002         2   # BR(~chi_40 -> ~u_R*     u )
     2.10631986E-02    2     1000001        -1   # BR(~chi_40 -> ~d_L      db)
     2.10631986E-02    2    -1000001         1   # BR(~chi_40 -> ~d_L*     d )
     3.00258813E-06    2     2000001        -1   # BR(~chi_40 -> ~d_R      db)
     3.00258813E-06    2    -2000001         1   # BR(~chi_40 -> ~d_R*     d )
     2.06919826E-02    2     1000004        -4   # BR(~chi_40 -> ~c_L      cb)
     2.06919826E-02    2    -1000004         4   # BR(~chi_40 -> ~c_L*     c )
     1.20339379E-05    2     2000004        -4   # BR(~chi_40 -> ~c_R      cb)
     1.20339379E-05    2    -2000004         4   # BR(~chi_40 -> ~c_R*     c )
     2.10631986E-02    2     1000003        -3   # BR(~chi_40 -> ~s_L      sb)
     2.10631986E-02    2    -1000003         3   # BR(~chi_40 -> ~s_L*     s )
     3.00258813E-06    2     2000003        -3   # BR(~chi_40 -> ~s_R      sb)
     3.00258813E-06    2    -2000003         3   # BR(~chi_40 -> ~s_R*     s )
     3.26492428E-03    2     1000005        -5   # BR(~chi_40 -> ~b_1      bb)
     3.26492428E-03    2    -1000005         5   # BR(~chi_40 -> ~b_1*     b )
     3.84860957E-03    2     2000005        -5   # BR(~chi_40 -> ~b_2      bb)
     3.84860957E-03    2    -2000005         5   # BR(~chi_40 -> ~b_2*     b )
     1.57417769E-03    2     1000011       -11   # BR(~chi_40 -> ~e_L-     e+)
     1.57417769E-03    2    -1000011        11   # BR(~chi_40 -> ~e_L+     e-)
     2.11415538E-06    2     2000011       -11   # BR(~chi_40 -> ~e_R-     e+)
     2.11415538E-06    2    -2000011        11   # BR(~chi_40 -> ~e_R+     e-)
     1.57417769E-03    2     1000013       -13   # BR(~chi_40 -> ~mu_L-    mu+)
     1.57417769E-03    2    -1000013        13   # BR(~chi_40 -> ~mu_L+    mu-)
     2.11415538E-06    2     2000013       -13   # BR(~chi_40 -> ~mu_R-    mu+)
     2.11415538E-06    2    -2000013        13   # BR(~chi_40 -> ~mu_R+    mu-)
     7.63820768E-04    2     1000015       -15   # BR(~chi_40 -> ~tau_1-   tau+)
     7.63820768E-04    2    -1000015        15   # BR(~chi_40 -> ~tau_1+   tau-)
     8.09833307E-04    2     2000015       -15   # BR(~chi_40 -> ~tau_2-   tau+)
     8.09833307E-04    2    -2000015        15   # BR(~chi_40 -> ~tau_2+   tau-)
     1.70887506E-03    2     1000012       -12   # BR(~chi_40 -> ~nu_eL    nu_eb)
     1.70887506E-03    2    -1000012        12   # BR(~chi_40 -> ~nu_eL*   nu_e )
     1.70887506E-03    2     1000014       -14   # BR(~chi_40 -> ~nu_muL   nu_mub)
     1.70887506E-03    2    -1000014        14   # BR(~chi_40 -> ~nu_muL*  nu_mu )
     1.70887506E-03    2     1000016       -16   # BR(~chi_40 -> ~nu_tau1  nu_taub)
     1.70887506E-03    2    -1000016        16   # BR(~chi_40 -> ~nu_tau1* nu_tau )
     7.28931161E-10    2     1000039        22   # BR(~chi_40 -> ~G        gam)
     4.34160756E-09    2     1000039        23   # BR(~chi_40 -> ~G        Z)
     6.67753287E-11    2     1000039        25   # BR(~chi_40 -> ~G        h)
     1.84058378E-10    2     1000039        35   # BR(~chi_40 -> ~G        H)
     7.25548027E-12    2     1000039        36   # BR(~chi_40 -> ~G        A)
#
#         PDG            Width
DECAY        25     4.10250341E-03   # h decays
#          BR         NDA      ID1       ID2
     6.19148875E-01    2           5        -5   # BR(h -> b       bb     )
     6.34287898E-02    2         -15        15   # BR(h -> tau+    tau-   )
     2.24514555E-04    2         -13        13   # BR(h -> mu+     mu-    )
     4.75773383E-04    2           3        -3   # BR(h -> s       sb     )
     2.05529531E-02    2           4        -4   # BR(h -> c       cb     )
     6.68672643E-02    2          21        21   # BR(h -> g       g      )
     2.29149374E-03    2          22        22   # BR(h -> gam     gam    )
     1.53096759E-03    2          22        23   # BR(h -> Z       gam    )
     1.99967194E-01    2          24       -24   # BR(h -> W+      W-     )
     2.55121745E-02    2          23        23   # BR(h -> Z       Z      )
#
#         PDG            Width
DECAY        35     3.75766997E+01   # H decays
#          BR         NDA      ID1       ID2
     1.45110969E-03    2           5        -5   # BR(H -> b       bb     )
     2.48033230E-04    2         -15        15   # BR(H -> tau+    tau-   )
     8.76889812E-07    2         -13        13   # BR(H -> mu+     mu-    )
     1.12272575E-06    2           3        -3   # BR(H -> s       sb     )
     1.01186638E-05    2           4        -4   # BR(H -> c       cb     )
     9.96302181E-01    2           6        -6   # BR(H -> t       tb     )
     7.94015185E-04    2          21        21   # BR(H -> g       g      )
     2.69531060E-06    2          22        22   # BR(H -> gam     gam    )
     1.15922553E-06    2          23        22   # BR(H -> Z       gam    )
     2.48764462E-04    2          24       -24   # BR(H -> W+      W-     )
     1.24042822E-04    2          23        23   # BR(H -> Z       Z      )
     8.15881179E-04    2          25        25   # BR(H -> h       h      )
     6.10973617E-24    2          36        36   # BR(H -> A       A      )
     2.23556603E-11    2          23        36   # BR(H -> Z       A      )
     4.89040341E-12    2          24       -37   # BR(H -> W+      H-     )
     4.89040341E-12    2         -24        37   # BR(H -> W-      H+     )
#
#         PDG            Width
DECAY        36     3.80421340E+01   # A decays
#          BR         NDA      ID1       ID2
     1.45226624E-03    2           5        -5   # BR(A -> b       bb     )
     2.45154925E-04    2         -15        15   # BR(A -> tau+    tau-   )
     8.66711221E-07    2         -13        13   # BR(A -> mu+     mu-    )
     1.14259113E-06    2           3        -3   # BR(A -> s       sb     )
     1.00127280E-05    2           4        -4   # BR(A -> c       cb     )
     9.97101395E-01    2           6        -6   # BR(A -> t       tb     )
     9.42406057E-04    2          21        21   # BR(A -> g       g      )
     3.11023584E-06    2          22        22   # BR(A -> gam     gam    )
     1.34993421E-06    2          23        22   # BR(A -> Z       gam    )
     2.42295080E-04    2          23        25   # BR(A -> Z       h      )
#
#         PDG            Width
DECAY        37     3.72542890E+01   # H+ decays
#          BR         NDA      ID1       ID2
     2.31234544E-06    2           4        -5   # BR(H+ -> c       bb     )
     2.50520703E-04    2         -15        16   # BR(H+ -> tau+    nu_tau )
     8.85681183E-07    2         -13        14   # BR(H+ -> mu+     nu_mu  )
     1.46986146E-08    2           2        -5   # BR(H+ -> u       bb     )
     5.48486081E-08    2           2        -3   # BR(H+ -> u       sb     )
     1.09287930E-05    2           4        -3   # BR(H+ -> c       sb     )
     9.99486975E-01    2           6        -5   # BR(H+ -> t       bb     )
     2.48308008E-04    2          24        25   # BR(H+ -> W+      h      )
     2.25042358E-13    2          24        36   # BR(H+ -> W+      A      )
