# SUSY Les Houches Accord 2 - MSSM spectrum + Decays
# SPheno v3.3.6  
# W. Porod, Comput. Phys. Commun. 153 (2003) 275-315, hep-ph/0301101
# in case of problems send email to porod@physik.uni-wuerzburg.de
# Created: 06.12.2016,  13:43
Block SPINFO         # Program information
     1   SPheno      # spectrum calculator
     2   v3.3.6      # version number
#
Block SPhenoINFO     # SPheno specific information
    1      2         # using 2-loop RGEs
    2      1         # using running masses for boundary conditions at mZ
Block MODSEL  # Model selection
    1    2    # mGMSB model
Block MINPAR  # Input parameters
    1    2.70000000E+05  # Lambda, scale of SUSY breaking
    2    5.00000000E+05  # M_M, messenger mass scale
    3    1.00000000E+01  # tanb at m_Z   
    4    1.00000000E+00  # Sign(mu)
    5    3.00000000E+00  # N_5 number of effective five-plets
    6    1.00000000E+05  # c_grav, Gravitino mass factor
Block gauge Q=  5.00000000E+05  # (GMSB scale)
   1    4.95384701E-01  # g'(Q)^DRbar
   2    6.44866469E-01  # g(Q)^DRbar
   3    9.14619794E-01  # g3(Q)^DRbar
Block SMINPUTS  # SM parameters
         1     1.27931129E+02  # alpha_em^-1(MZ)^MSbar
         2     1.16637900E-05  # G_mu [GeV^-2]
         3     1.18400000E-01  # alpha_s(MZ)^MSbar
         4     9.11876000E+01  # m_Z(pole)
         5     4.18000000E+00  # m_b(m_b), MSbar
         6     1.73100000E+02  # m_t(pole)
         7     1.77682000E+00  # m_tau(pole)
         8     0.00000000E+00  # m_nu_3
        11     5.10998930E-04  # m_e(pole)
        12     0.00000000E+00  # m_nu_1
        13     1.05658372E-01  # m_muon(pole)
        14     0.00000000E+00  # m_nu_2
        21     5.00000000E-03  # m_d(2 GeV), MSbar
        22     2.50000000E-03  # m_u(2 GeV), MSbar
        23     9.50000000E-02  # m_s(2 GeV), MSbar
        24     1.27000000E+00  # m_c(m_c), MSbar
Block gauge Q=  4.72444825E+03  # (SUSY scale)
   1    3.66340114E-01  # g'(Q)^DRbar
   2    6.35722474E-01  # g(Q)^DRbar
   3    9.88397621E-01  # g3(Q)^DRbar
Block Yu Q=  4.72444825E+03  # (SUSY scale)
#   1  1     6.71795149E-06   # Y_u(Q)^DRbar
  1  1     0.0   # Y_u(Q)^DRbar
#   2  2     3.41271986E-03   # Y_c(Q)^DRbar
  2  2     0.0   # Y_c(Q)^DRbar
#   3  3     8.26031777E-01   # Y_t(Q)^DRbar
  3  3     0.0   # Y_t(Q)^DRbar
Block Yd Q=  4.72444825E+03  # (SUSY scale)
#   1  1     1.26315743E-04   # Y_d(Q)^DRbar
  1  1     0.0   # Y_d(Q)^DRbar
#   2  2     2.39999793E-03   # Y_s(Q)^DRbar
  2  2     0.0   # Y_s(Q)^DRbar
#   3  3     1.23461954E-01   # Y_b(Q)^DRbar
  3  3     0.0   # Y_b(Q)^DRbar
Block Ye Q=  4.72444825E+03  # (SUSY scale)
#   1  1     2.83110774E-05   # Y_e(Q)^DRbar
  1  1     0.0   # Y_e(Q)^DRbar
#   2  2     5.85383610E-03   # Y_mu(Q)^DRbar
  2  2     0.0   # Y_mu(Q)^DRbar
#   3  3     9.84574648E-02   # Y_tau(Q)^DRbar
  3  3     0.0   # Y_tau(Q)^DRbar
Block Au Q=  4.72444825E+03  # (SUSY scale)
#   1  1    -1.46242093E+03   # A_u(Q)^DRbar
  1  1    0.0   # A_u(Q)^DRbar
#   2  2    -1.46241936E+03   # A_c(Q)^DRbar
  2  2    0.0   # A_c(Q)^DRbar
#   3  3    -1.38383468E+03   # A_t(Q)^DRbar
  3  3    0.0   # A_t(Q)^DRbar
Block Ad Q=  4.72444825E+03  # (SUSY scale)
#   1  1    -1.55092027E+03   # A_d(Q)^DRbar
  1  1    0.0   # A_d(Q)^DRbar
#   2  2    -1.55091915E+03   # A_s(Q)^DRbar
  2  2    0.0   # A_s(Q)^DRbar
#   3  3    -1.52375140E+03   # A_b(Q)^DRbar
  3  3    0.0   # A_b(Q)^DRbar
Block Ae Q=  4.72444825E+03  # (SUSY scale)
#   1  1    -1.86750574E+02   # A_e(Q)^DRbar
  1  1    0.0   # A_e(Q)^DRbar
#   2  2    -1.86749946E+02   # A_mu(Q)^DRbar
  2  2    0.0   # A_mu(Q)^DRbar
#   3  3    -1.86573032E+02   # A_tau(Q)^DRbar
  3  3    0.0   # A_tau(Q)^DRbar
Block MSOFT Q=  4.72444825E+03  # soft SUSY breaking masses at Q
   1    1.20392008E+03  # M_1
   2    2.16866231E+03  # M_2
   3    5.26331888E+03  # M_3
  21    2.67810175E+06  # M^2_(H,d)
  22   -2.02857881E+06  # M^2_(H,u)
  31    1.67043270E+03  # M_(L,11)
  32    1.67042930E+03  # M_(L,22)
  33    1.66947177E+03  # M_(L,33)
  34    8.24258746E+02  # M_(E,11)
  35    8.24244744E+02  # M_(E,22)
  36    8.20288572E+02  # M_(E,33)
  41    5.07484977E+03  # M_(Q,11)
  42    5.07484598E+03  # M_(Q,22)
  43    4.92435593E+03  # M_(Q,33)
  44    4.84786107E+03  # M_(U,11)
  45    4.84785575E+03  # M_(U,22)
  46    4.52876396E+03  # M_(U,33)
  47    4.82477493E+03  # M_(D,11)
  48    4.82477223E+03  # M_(D,22)
  49    4.81765953E+03  # M_(D,33)
Block MASS  # Mass spectrum
#   PDG code      mass          particle
         6     1.73100000E+02  # m_t(pole)
        23     9.11876000E+01  # m_Z(pole)
        24     8.04115779E+01  # W+
        15     1.77682000E+00  # m_tau(pole)
        25     1.23601900E+02  # h0
        35     2.33309205E+03  # H0
        36     2.33294363E+03  # A0
        37     2.33416854E+03  # H+
   1000001     5.26710170E+03  # ~d_L
   2000001     5.00585922E+03  # ~d_R
   1000002     5.26650195E+03  # ~u_L
   2000002     5.02782384E+03  # ~u_R
   1000003     5.26709717E+03  # ~s_L
   2000003     5.00585593E+03  # ~s_R
   1000004     5.26649749E+03  # ~c_L
   2000004     5.02781752E+03  # ~c_R
   1000005     4.99703433E+03  # ~b_1
   2000005     5.08669839E+03  # ~b_2
   1000006     4.65053435E+03  # ~t_1
   2000006     5.08969415E+03  # ~t_2
   1000011     1.70547676E+03  # ~e_L-
   2000011     8.53296261E+02  # ~e_R-
   1000012     1.70323400E+03  # ~nu_eL
   1000013     1.70547237E+03  # ~mu_L-
   2000013     8.53277970E+02  # ~mu_R-
   1000014     1.70322923E+03  # ~nu_muL
   1000015     8.48109482E+02  # ~tau_1-
   2000015     1.70423560E+03  # ~tau_2-
   1000016     1.70188390E+03  # ~nu_tauL
   1000021     5.50624542E+03  # ~g
   1000022     1.17542897E+03  # ~chi_10
   1000023     1.61421514E+03  # ~chi_20
   1000025    -1.61831229E+03  # ~chi_30
   1000035     2.22294927E+03  # ~chi_40
   1000024     1.61203310E+03  # ~chi_1+
   1000037     2.22301725E+03  # ~chi_2+
   1000039     3.24000000E-03  # ~G
# Higgs mixing
Block alpha # Effective Higgs mixing angle
          -1.05783838E-01   # alpha
Block Hmix Q=  4.72444825E+03  # Higgs mixing parameters
   1    1.59555049E+03  # mu
   2    9.45885799E+00  # tan[beta](Q)
   3    2.42894329E+02  # v(Q)
   4    4.80514198E+06  # m^2_A(Q)
Block stopmix # stop mixing matrix
   1  1     6.14332135E-02   # Re[R_st(1,1)]
   1  2     9.98111196E-01   # Re[R_st(1,2)]
   2  1    -9.98111196E-01   # Re[R_st(2,1)]
   2  2     6.14332135E-02   # Re[R_st(2,2)]
Block sbotmix # sbottom mixing matrix
   1  1     4.35023709E-02   # Re[R_sb(1,1)]
   1  2     9.99053324E-01   # Re[R_sb(1,2)]
   2  1    -9.99053324E-01   # Re[R_sb(2,1)]
   2  2     4.35023709E-02   # Re[R_sb(2,2)]
Block staumix # stau mixing matrix
   1  1     1.27526428E-02   # Re[R_sta(1,1)]
   1  2     9.99918682E-01   # Re[R_sta(1,2)]
   2  1    -9.99918682E-01   # Re[R_sta(2,1)]
   2  2     1.27526428E-02   # Re[R_sta(2,2)]
Block Nmix # neutralino mixing matrix
   1  1    -9.96790713E-01   # Re[N(1,1)]
   1  2     4.12313258E-03   # Re[N(1,2)]
   1  3    -6.31688472E-02   # Re[N(1,3)]
   1  4     4.89997033E-02   # Re[N(1,4)]
   2  1    -7.93425118E-02   # Re[N(2,1)]
   2  2    -9.97569357E-02   # Re[N(2,2)]
   2  3     7.01931461E-01   # Re[N(2,3)]
   2  4    -7.00746419E-01   # Re[N(2,4)]
   3  1    -9.96925466E-03   # Re[N(3,1)]
   3  2     1.29078077E-02   # Re[N(3,2)]
   3  3     7.06769452E-01   # Re[N(3,3)]
   3  4     7.07255925E-01   # Re[N(3,4)]
   4  1    -3.69515736E-03   # Re[N(4,1)]
   4  2     9.94919566E-01   # Re[N(4,2)]
   4  3     6.14724478E-02   # Re[N(4,3)]
   4  4    -7.96400774E-02   # Re[N(4,4)]
Block Umix # chargino mixing matrix
   1  1    -8.69693194E-02   # Re[U(1,1)]
   1  2     9.96210990E-01   # Re[U(1,2)]
   2  1     9.96210990E-01   # Re[U(2,1)]
   2  2     8.69693194E-02   # Re[U(2,2)]
Block Vmix # chargino mixing matrix
   1  1    -1.12649760E-01   # Re[V(1,1)]
   1  2     9.93634758E-01   # Re[V(1,2)]
   2  1     9.93634758E-01   # Re[V(2,1)]
   2  2     1.12649760E-01   # Re[V(2,2)]
DECAY        23     2.49520000E+00   # Z
DECAY        24     2.08500000E+00   # W
DECAY   2000011     6.88809837E-14   # ~e^-_R
#    BR                NDA      ID1      ID2
     7.16906436E-07    2     1000039        11   # BR(~e^-_R -> ~G e^-)
#    BR                NDA      ID1      ID2       ID3
     3.43846199E-01    3     1000015        11       -15   # BR(~e^-_R -> ~tau^-_1 e^- tau^+)
     6.56153084E-01    3    -1000015        15        11   # BR(~e^-_R -> ~tau^+_1 tau^- e^-)
     8.12760538E-12    3     1000015        12       -16   # BR(~e^-_R -> ~tau^-_1 nu_e nu_bar_tau)
DECAY   1000011     6.17324689E-01   # ~e^-_L
#    BR                NDA      ID1      ID2
     9.95535826E-01    2     1000022        11   # BR(~e^-_L -> chi^0_1 e^-)
     2.55008637E-03    2     1000023        11   # BR(~e^-_L -> chi^0_2 e^-)
     5.65366673E-06    2     1000025        11   # BR(~e^-_L -> chi^0_3 e^-)
     1.90840457E-03    2    -1000024        12   # BR(~e^-_L -> chi^-_1 nu_e)
     1.44464898E-08    2     2000011        23   # BR(~e^-_L -> ~e^-_R Z)
     1.44767759E-08    2     2000011        25   # BR(~e^-_L -> ~e^-_R h^0)
#    BR                NDA      ID1      ID2       ID3
     7.22675159E-11    3     1000012         1        -2   # BR(~e^-_L -> ~nu_e d u_bar)
     1.39618799E-11    3     1000012         3        -4   # BR(~e^-_L -> ~nu_e s c_bar)
DECAY   2000013     6.71974296E-14   # ~mu^-_R
#    BR                NDA      ID1      ID2
     7.34788896E-07    2     1000039        13   # BR(~mu^-_R -> ~G mu^-)
#    BR                NDA      ID1      ID2       ID3
     3.43828705E-01    3     1000015        13       -15   # BR(~mu^-_R -> ~tau^-_1 mu^- tau^+)
     6.56170210E-01    3    -1000015        15        13   # BR(~mu^-_R -> ~tau^+_1 tau^- mu^-)
     3.49955527E-07    3     1000015        14       -16   # BR(~mu^-_R -> ~tau^-_1 nu_mu nu_bar_tau)
DECAY   1000013     6.18092962E-01   # ~mu^-_L
#    BR                NDA      ID1      ID2
     9.94288141E-01    2     1000022        13   # BR(~mu^-_L -> chi^0_1 mu^-)
     2.55628241E-03    2     1000023        13   # BR(~mu^-_L -> chi^0_2 mu^-)
     1.49788008E-05    2     1000025        13   # BR(~mu^-_L -> chi^0_3 mu^-)
     1.90555651E-03    2    -1000024        14   # BR(~mu^-_L -> chi^-_1 nu_mu)
     6.16874124E-04    2     2000013        23   # BR(~mu^-_L -> ~mu^-_R Z)
     6.18166857E-04    2     2000013        25   # BR(~mu^-_L -> ~mu^-_R h^0)
#    BR                NDA      ID1      ID2       ID3
     7.22397703E-11    3     1000014         1        -2   # BR(~mu^-_L -> ~nu_mu d u_bar)
     1.39656248E-11    3     1000014         3        -4   # BR(~mu^-_L -> ~nu_mu s c_bar)
DECAY   1000015     4.78976908E-20   # ~tau^-_1
#    BR                NDA      ID1      ID2
     1.00000000E+00    2     1000039        15   # BR(~tau^-_1 -> ~G tau^-)
DECAY   2000015     8.35403642E-01   # ~tau^-_2
#    BR                NDA      ID1      ID2
     7.33506995E-01    2     1000022        15   # BR(~tau^-_2 -> chi^0_1 tau^-)
     3.79333734E-03    2     1000023        15   # BR(~tau^-_2 -> chi^0_2 tau^-)
     1.90367950E-03    2     1000025        15   # BR(~tau^-_2 -> chi^0_3 tau^-)
     1.31325230E-03    2    -1000024        16   # BR(~tau^-_2 -> chi^-_1 nu_tau)
     1.29620282E-01    2     1000015        23   # BR(~tau^-_2 -> ~tau^-_1 Z)
     1.29862454E-01    2     1000015        25   # BR(~tau^-_2 -> ~tau^-_1 h^0)
#    BR                NDA      ID1      ID2       ID3
     6.76821057E-11    3     1000016         1        -2   # BR(~tau^-_2 -> ~nu_tau d u_bar)
     1.54741161E-11    3     1000016         3        -4   # BR(~tau^-_2 -> ~nu_tau s c_bar)
DECAY   1000012     6.30747744E-01   # ~nu_e
#    BR                NDA      ID1      ID2
     9.96642972E-01    2     1000022        12   # BR(~nu_e -> chi^0_1 nu_e)
     3.28460042E-04    2     1000023        12   # BR(~nu_e -> chi^0_2 nu_e)
     3.57072784E-05    2     1000025        12   # BR(~nu_e -> chi^0_3 nu_e)
     2.99283343E-03    2     1000024        11   # BR(~nu_e -> chi^+_1 e^-)
     2.72347322E-08    2     2000011        24   # BR(~nu_e -> ~e^-_R W^+)
DECAY   1000014     6.31485947E-01   # ~nu_mu
#    BR                NDA      ID1      ID2
     9.95464962E-01    2     1000022        14   # BR(~nu_mu -> chi^0_1 nu_mu)
     3.28042697E-04    2     1000023        14   # BR(~nu_mu -> chi^0_2 nu_mu)
     3.56617239E-05    2     1000025        14   # BR(~nu_mu -> chi^0_3 nu_mu)
     3.00830801E-03    2     1000024        13   # BR(~nu_mu -> chi^+_1 mu^-)
     1.16302552E-03    2     2000013        24   # BR(~nu_mu -> ~mu^-_R W^+)
DECAY   1000016     8.40269396E-01   # ~nu_tau
#    BR                NDA      ID1      ID2
     7.45380113E-01    2     1000022        16   # BR(~nu_tau -> chi^0_1 nu_tau)
     2.39510691E-04    2     1000023        16   # BR(~nu_tau -> chi^0_2 nu_tau)
     2.59988385E-05    2     1000025        16   # BR(~nu_tau -> chi^0_3 nu_tau)
     6.16442900E-03    2     1000024        15   # BR(~nu_tau -> chi^+_1 tau^-)
     2.48189948E-01    2     1000015        24   # BR(~nu_tau -> ~tau^-_1 W^+)
DECAY   2000001     2.64985860E+00   # ~d_R
#    BR                NDA      ID1      ID2
     9.94235025E-01    2     1000022         1   # BR(~d_R -> chi^0_1 d)
     5.66505978E-03    2     1000023         1   # BR(~d_R -> chi^0_2 d)
     8.95674173E-05    2     1000025         1   # BR(~d_R -> chi^0_3 d)
     9.86339687E-06    2     1000035         1   # BR(~d_R -> chi^0_4 d)
     4.84464322E-07    2    -1000024         2   # BR(~d_R -> chi^-_1 u)
     4.78107685E-11    2    -1000037         2   # BR(~d_R -> chi^-_2 u)
DECAY   1000001     4.36891473E+01   # ~d_L
#    BR                NDA      ID1      ID2
     1.67404229E-02    2     1000022         1   # BR(~d_L -> chi^0_1 d)
     2.84214289E-03    2     1000023         1   # BR(~d_L -> chi^0_2 d)
     8.73455401E-05    2     1000025         1   # BR(~d_L -> chi^0_3 d)
     3.24522131E-01    2     1000035         1   # BR(~d_L -> chi^0_4 d)
     6.02236977E-03    2    -1000024         2   # BR(~d_L -> chi^-_1 u)
     6.49785587E-01    2    -1000037         2   # BR(~d_L -> chi^-_2 u)
     1.08873881E-12    2     2000002       -24   # BR(~d_L -> ~u_R W^-)
     1.83591017E-10    2     2000001        23   # BR(~d_L -> ~d_R Z)
     1.79300026E-10    2     2000001        25   # BR(~d_L -> ~d_R h^0)
DECAY   2000003     2.65077919E+00   # ~s_R
#    BR                NDA      ID1      ID2
     9.93890374E-01    2     1000022         3   # BR(~s_R -> chi^0_1 s)
     5.74918030E-03    2     1000023         3   # BR(~s_R -> chi^0_2 s)
     1.75730653E-04    2     1000025         3   # BR(~s_R -> chi^0_3 s)
     9.86728138E-06    2     1000035         3   # BR(~s_R -> chi^0_4 s)
     1.74830514E-04    2    -1000024         4   # BR(~s_R -> chi^-_1 c)
     1.72526121E-08    2    -1000037         4   # BR(~s_R -> chi^-_2 c)
DECAY   1000003     4.36905826E+01   # ~s_L
#    BR                NDA      ID1      ID2
     1.67398597E-02    2     1000022         3   # BR(~s_L -> chi^0_1 s)
     2.84756908E-03    2     1000023         3   # BR(~s_L -> chi^0_2 s)
     9.30016609E-05    2     1000025         3   # BR(~s_L -> chi^0_3 s)
     3.24511022E-01    2     1000035         3   # BR(~s_L -> chi^0_4 s)
     6.04454732E-03    2    -1000024         4   # BR(~s_L -> chi^-_1 c)
     6.49763588E-01    2    -1000037         4   # BR(~s_L -> chi^-_2 c)
     2.80957377E-07    2     2000004       -24   # BR(~s_L -> ~c_R W^-)
     6.62737757E-08    2     2000003        23   # BR(~s_L -> ~s_R Z)
     6.47248093E-08    2     2000003        25   # BR(~s_L -> ~s_R h^0)
DECAY   1000005     5.23858591E+00   # ~b_1
#    BR                NDA      ID1      ID2
     5.05109595E-01    2     1000022         5   # BR(~b_1 -> chi^0_1 b)
     1.20025338E-01    2     1000023         5   # BR(~b_1 -> chi^0_2 b)
     1.14856384E-01    2     1000025         5   # BR(~b_1 -> chi^0_3 b)
     1.72641184E-03    2     1000035         5   # BR(~b_1 -> chi^0_4 b)
     2.54343100E-01    2    -1000024         6   # BR(~b_1 -> chi^-_1 t)
     3.70564547E-03    2    -1000037         6   # BR(~b_1 -> chi^-_2 t)
     2.33525084E-04    2     1000006       -24   # BR(~b_1 -> ~t_1 W^-)
DECAY   2000005     9.88673894E+01   # ~b_2
#    BR                NDA      ID1      ID2
     7.02227659E-03    2     1000022         5   # BR(~b_2 -> chi^0_1 b)
     7.25541072E-03    2     1000023         5   # BR(~b_2 -> chi^0_2 b)
     6.38405266E-03    2     1000025         5   # BR(~b_2 -> chi^0_3 b)
     1.34180292E-01    2     1000035         5   # BR(~b_2 -> chi^0_4 b)
     5.55775146E-01    2    -1000024         6   # BR(~b_2 -> chi^-_1 t)
     2.76293841E-01    2    -1000037         6   # BR(~b_2 -> chi^-_2 t)
     1.30889812E-02    2     1000006       -24   # BR(~b_2 -> ~t_1 W^-)
DECAY   2000002     1.06568288E+01   # ~u_R
#    BR                NDA      ID1      ID2
     9.94230195E-01    2     1000022         2   # BR(~u_R -> chi^0_1 u)
     5.67049073E-03    2     1000023         2   # BR(~u_R -> chi^0_2 u)
     8.94185114E-05    2     1000025         2   # BR(~u_R -> chi^0_3 u)
     9.89554754E-06    2     1000035         2   # BR(~u_R -> chi^0_4 u)
     3.43527714E-10    2     1000024         1   # BR(~u_R -> chi^+_1 d)
     1.53772176E-13    2     1000037         1   # BR(~u_R -> chi^+_2 d)
DECAY   1000002     4.37148522E+01   # ~u_L
#    BR                NDA      ID1      ID2
     1.53474676E-02    2     1000022         2   # BR(~u_L -> chi^0_1 u)
     5.25791569E-03    2     1000023         2   # BR(~u_L -> chi^0_2 u)
     4.79954516E-05    2     1000025         2   # BR(~u_L -> chi^0_3 u)
     3.23338349E-01    2     1000035         2   # BR(~u_L -> chi^0_4 u)
     1.00965228E-02    2     1000024         1   # BR(~u_L -> chi^+_1 d)
     6.45911749E-01    2     1000037         1   # BR(~u_L -> chi^+_2 d)
     3.68046756E-10    2     2000001        24   # BR(~u_L -> ~d_R W^+)
     5.28451191E-13    2     2000002        23   # BR(~u_L -> ~u_R Z)
     3.90165577E-13    2     2000002        25   # BR(~u_L -> ~u_R h^0)
DECAY   2000004     1.06586958E+01   # ~c_R
#    BR                NDA      ID1      ID2
     9.94054643E-01    2     1000022         4   # BR(~c_R -> chi^0_1 c)
     5.71326733E-03    2     1000023         4   # BR(~c_R -> chi^0_2 c)
     1.33502104E-04    2     1000025         4   # BR(~c_R -> chi^0_3 c)
     9.91172272E-06    2     1000035         4   # BR(~c_R -> chi^0_4 c)
     8.86364455E-05    2     1000024         3   # BR(~c_R -> chi^+_1 s)
     3.96785089E-08    2     1000037         3   # BR(~c_R -> chi^+_2 s)
DECAY   1000004     4.37162791E+01   # ~c_L
#    BR                NDA      ID1      ID2
     1.53469748E-02    2     1000022         4   # BR(~c_L -> chi^0_1 c)
     5.26879869E-03    2     1000023         4   # BR(~c_L -> chi^0_2 c)
     5.94134063E-05    2     1000025         4   # BR(~c_L -> chi^0_3 c)
     3.23327560E-01    2     1000035         4   # BR(~c_L -> chi^0_4 c)
     1.01069333E-02    2     1000024         3   # BR(~c_L -> chi^+_1 s)
     6.45889950E-01    2     1000037         3   # BR(~c_L -> chi^+_2 s)
     1.32859893E-07    2     2000003        24   # BR(~c_L -> ~s_R W^+)
     1.36371168E-07    2     2000004        23   # BR(~c_L -> ~c_R Z)
     1.00685364E-07    2     2000004        25   # BR(~c_L -> ~c_R h^0)
DECAY   1000006     1.07068764E+02   # ~t_1
#    BR                NDA      ID1      ID2
     2.78601764E-08    2     1000022         4   # BR(~t_1 -> chi^0_1 c)
     9.09936211E-02    2     1000022         6   # BR(~t_1 -> chi^0_1 t)
     9.26575578E-09    2     1000023         4   # BR(~t_1 -> chi^0_2 c)
     2.24627878E-01    2     1000023         6   # BR(~t_1 -> chi^0_2 t)
     2.28317533E-01    2     1000025         6   # BR(~t_1 -> chi^0_3 t)
     7.46195161E-04    2     1000035         6   # BR(~t_1 -> chi^0_4 t)
     4.53805208E-01    2     1000024         5   # BR(~t_1 -> chi^+_1 b)
     1.50390520E-03    2     1000037         5   # BR(~t_1 -> chi^+_2 b)
#    BR                NDA      ID1      ID2       ID3
     5.62283892E-06    3     1000022        24         5   # BR(~t_1 -> chi^0_1 W^+ b)
DECAY   2000006     9.89556114E+01   # ~t_2
#    BR                NDA      ID1      ID2
     7.24009320E-03    2     1000022         6   # BR(~t_2 -> chi^0_1 t)
     2.76957392E-01    2     1000023         6   # BR(~t_2 -> chi^0_2 t)
     2.80197982E-01    2     1000025         6   # BR(~t_2 -> chi^0_3 t)
     1.39626252E-01    2     1000035         6   # BR(~t_2 -> chi^0_4 t)
     1.28468625E-02    2     1000024         5   # BR(~t_2 -> chi^+_1 b)
     2.71300592E-01    2     1000037         5   # BR(~t_2 -> chi^+_2 b)
     8.99756069E-06    2     1000005        24   # BR(~t_2 -> ~b_1 W^+)
     6.79701906E-03    2     1000006        23   # BR(~t_2 -> ~t_1 Z)
     5.02480904E-03    2     1000006        25   # BR(~t_2 -> ~t_1 h^0)
DECAY   1000024     9.09290396E-01   # chi^+_1
#    BR                NDA      ID1      ID2
     7.37324967E-09    2    -2000011        12   # BR(chi^+_1 -> ~e^+_R nu_e)
     3.15240102E-04    2    -2000013        14   # BR(chi^+_1 -> ~mu^+_R nu_mu)
     9.00010114E-02    2    -1000015        16   # BR(chi^+_1 -> ~tau^+_1 nu_tau)
     9.04797084E-01    2     1000022        24   # BR(chi^+_1 -> chi^0_1 W^+)
#    BR                NDA      ID1      ID2       ID3
     3.00207173E-10    3     1000022        -1         2   # BR(chi^+_1 -> chi^0_1 d_bar u)
     3.25741161E-10    3     1000022        -3         4   # BR(chi^+_1 -> chi^0_1 s_bar c)
     4.88323937E-03    3     1000022        -5         6   # BR(chi^+_1 -> chi^0_1 b_bar t)
     7.99943120E-07    3     1000022       -11        12   # BR(chi^+_1 -> chi^0_1 e^+ nu_e)
     8.03536625E-07    3     1000022       -13        14   # BR(chi^+_1 -> chi^0_1 mu^+ nu_mu)
     1.81322021E-06    3     1000022       -15        16   # BR(chi^+_1 -> chi^0_1 tau^+ nu_tau)
DECAY   1000037     2.34840021E+01   # chi^+_2
#    BR                NDA      ID1      ID2
     6.39260964E-02    2    -1000011        12   # BR(chi^+_2 -> ~e^+_L nu_e)
     5.30099294E-10    2    -2000013        14   # BR(chi^+_2 -> ~mu^+_R nu_mu)
     6.39270789E-02    2    -1000013        14   # BR(chi^+_2 -> ~mu^+_L nu_mu)
     1.62145416E-07    2    -1000015        16   # BR(chi^+_2 -> ~tau^+_1 nu_tau)
     6.42041934E-02    2    -2000015        16   # BR(chi^+_2 -> ~tau^+_2 nu_tau)
     6.40750492E-02    2     1000012       -11   # BR(chi^+_2 -> ~nu_e e^+)
     6.40760874E-02    2     1000014       -13   # BR(chi^+_2 -> ~nu_mu mu^+)
     6.43688624E-02    2     1000016       -15   # BR(chi^+_2 -> ~nu_tau tau^+)
     9.40916462E-06    2     1000022        24   # BR(chi^+_2 -> chi^0_1 W^+)
     1.50896348E-01    2     1000023        24   # BR(chi^+_2 -> chi^0_2 W^+)
     1.49185327E-01    2     1000025        24   # BR(chi^+_2 -> chi^0_3 W^+)
     1.55806772E-01    2     1000024        23   # BR(chi^+_2 -> chi^+_1 Z)
     1.55094481E-01    2     1000024        25   # BR(chi^+_2 -> chi^+_1 h^0)
#    BR                NDA      ID1      ID2       ID3
     9.86473568E-10    3     1000024         2        -2   # BR(chi^+_2 -> chi^+_1 u u_bar)
     9.90154706E-10    3     1000024         4        -4   # BR(chi^+_2 -> chi^+_1 c c_bar)
     1.19666083E-03    3     1000024         6        -6   # BR(chi^+_2 -> chi^+_1 t t_bar)
     1.64748875E-09    3     1000024         1        -1   # BR(chi^+_2 -> chi^+_1 d d_bar)
     1.68702827E-09    3     1000024         3        -3   # BR(chi^+_2 -> chi^+_1 s s_bar)
     1.09446994E-07    3     1000024         5        -5   # BR(chi^+_2 -> chi^+_1 b b_bar)
     6.03474127E-11    3     1000024        13       -13   # BR(chi^+_2 -> chi^+_1 mu^- mu^+)
     1.70702102E-08    3     1000024        15       -15   # BR(chi^+_2 -> chi^+_1 tau^- tau^+)
     6.54793624E-08    3     1000022        -1         2   # BR(chi^+_2 -> chi^0_1 d_bar u)
     6.54792665E-08    3     1000022        -3         4   # BR(chi^+_2 -> chi^0_1 s_bar c)
     3.57666303E-07    3     1000022        -5         6   # BR(chi^+_2 -> chi^0_1 b_bar t)
     9.97323189E-13    3     1000022       -13        14   # BR(chi^+_2 -> chi^0_1 mu^+ nu_mu)
     2.85796301E-10    3     1000022       -15        16   # BR(chi^+_2 -> chi^0_1 tau^+ nu_tau)
     6.97680720E-10    3     1000023        -1         2   # BR(chi^+_2 -> chi^0_2 d_bar u)
     7.14717257E-10    3     1000023        -3         4   # BR(chi^+_2 -> chi^0_2 s_bar c)
     1.63991460E-03    3     1000023        -5         6   # BR(chi^+_2 -> chi^0_2 b_bar t)
     3.03082141E-11    3     1000023       -13        14   # BR(chi^+_2 -> chi^0_2 mu^+ nu_mu)
     8.57333955E-09    3     1000023       -15        16   # BR(chi^+_2 -> chi^0_2 tau^+ nu_tau)
     3.10993455E-11    3     1000025        -1         2   # BR(chi^+_2 -> chi^0_3 d_bar u)
     4.71477877E-11    3     1000025        -3         4   # BR(chi^+_2 -> chi^0_3 s_bar c)
     1.59291779E-03    3     1000025        -5         6   # BR(chi^+_2 -> chi^0_3 b_bar t)
     2.90106919E-11    3     1000025       -13        14   # BR(chi^+_2 -> chi^0_3 mu^+ nu_mu)
     8.20669390E-09    3     1000025       -15        16   # BR(chi^+_2 -> chi^0_3 tau^+ nu_tau)
DECAY   1000022     4.22427927E+00   # chi^0_1
#    BR                NDA      ID1      ID2
     1.65151067E-01    2     2000011       -11   # BR(chi^0_1 -> ~e^-_R e^+)
     1.65151067E-01    2    -2000011        11   # BR(chi^0_1 -> ~e^+_R e^-)
     1.65166984E-01    2     2000013       -13   # BR(chi^0_1 -> ~mu^-_R mu^+)
     1.65166984E-01    2    -2000013        13   # BR(chi^0_1 -> ~mu^+_R mu^-)
     1.69681949E-01    2     1000015       -15   # BR(chi^0_1 -> ~tau^-_1 tau^+)
     1.69681949E-01    2    -1000015        15   # BR(chi^0_1 -> ~tau^+_1 tau^-)
DECAY   1000023     1.05907660E+00   # chi^0_2
#    BR                NDA      ID1      ID2
     1.33013133E-02    2     2000011       -11   # BR(chi^0_2 -> ~e^-_R e^+)
     1.33013133E-02    2    -2000011        11   # BR(chi^0_2 -> ~e^+_R e^-)
     1.34353828E-02    2     2000013       -13   # BR(chi^0_2 -> ~mu^-_R mu^+)
     1.34353828E-02    2    -2000013        13   # BR(chi^0_2 -> ~mu^+_R mu^-)
     5.15869096E-02    2     1000015       -15   # BR(chi^0_2 -> ~tau^-_1 tau^+)
     5.15869096E-02    2    -1000015        15   # BR(chi^0_2 -> ~tau^+_1 tau^-)
     1.40762045E-02    2     1000022        23   # BR(chi^0_2 -> chi^0_1 Z)
     8.29029414E-01    2     1000022        25   # BR(chi^0_2 -> chi^0_1 h^0)
     2.03422803E-07    2     1000022        22   # BR(chi^0_2 -> chi^0_1 photon)
#    BR                NDA      ID1      ID2       ID3
     1.13147394E-09    3     1000022         2        -2   # BR(chi^0_2 -> chi^0_1 u u_bar)
     1.13598656E-09    3     1000022         4        -4   # BR(chi^0_2 -> chi^0_1 c c_bar)
     2.41727249E-04    3     1000022         6        -6   # BR(chi^0_2 -> chi^0_1 t t_bar)
     1.60260077E-10    3     1000022         1        -1   # BR(chi^0_2 -> chi^0_1 d d_bar)
     1.87353717E-10    3     1000022         3        -3   # BR(chi^0_2 -> chi^0_1 s s_bar)
     7.23787741E-08    3     1000022         5        -5   # BR(chi^0_2 -> chi^0_1 b b_bar)
     1.36731914E-06    3     1000022        11       -11   # BR(chi^0_2 -> chi^0_1 e^- e^+)
     1.37001536E-06    3     1000022        13       -13   # BR(chi^0_2 -> chi^0_1 mu^- mu^+)
     2.10977804E-06    3     1000022        15       -15   # BR(chi^0_2 -> chi^0_1 tau^- tau^+)
     3.17544631E-07    3     1000022        12       -12   # BR(chi^0_2 -> chi^0_1 nu_e nu_bar_e)
     1.86075781E-11    3     1000024         1        -2   # BR(chi^0_2 -> chi^+_1 d u_bar)
     1.86075781E-11    3    -1000024        -1         2   # BR(chi^0_2 -> chi^-_1 d_bar u)
     3.22560980E-12    3     1000024         3        -4   # BR(chi^0_2 -> chi^+_1 s c_bar)
     3.22560980E-12    3    -1000024        -3         4   # BR(chi^0_2 -> chi^-_1 s_bar c)
     6.20515219E-12    3     1000024        11       -12   # BR(chi^0_2 -> chi^+_1 e^- nu_bar_e)
     6.20515219E-12    3    -1000024       -11        12   # BR(chi^0_2 -> chi^-_1 e^+ nu_e)
     6.13329438E-12    3     1000024        13       -14   # BR(chi^0_2 -> chi^+_1 mu^- nu_bar_mu)
     6.13329438E-12    3    -1000024       -13        14   # BR(chi^0_2 -> chi^-_1 mu^+ nu_mu)
DECAY   1000025     9.47383950E-01   # chi^0_3
#    BR                NDA      ID1      ID2
     2.36275345E-04    2     2000011       -11   # BR(chi^0_3 -> ~e^-_R e^+)
     2.36275345E-04    2    -2000011        11   # BR(chi^0_3 -> ~e^+_R e^-)
     3.87494645E-04    2     2000013       -13   # BR(chi^0_3 -> ~mu^-_R mu^+)
     3.87494645E-04    2    -2000013        13   # BR(chi^0_3 -> ~mu^+_R mu^-)
     4.34112017E-02    2     1000015       -15   # BR(chi^0_3 -> ~tau^-_1 tau^+)
     4.34112017E-02    2    -1000015        15   # BR(chi^0_3 -> ~tau^+_1 tau^-)
     8.96619427E-01    2     1000022        23   # BR(chi^0_3 -> chi^0_1 Z)
     1.42978222E-02    2     1000022        25   # BR(chi^0_3 -> chi^0_1 h^0)
     4.99077999E-07    2     1000022        22   # BR(chi^0_3 -> chi^0_1 photon)
     1.99494315E-11    2     1000023        22   # BR(chi^0_3 -> chi^0_2 photon)
#    BR                NDA      ID1      ID2       ID3
     6.72962264E-12    3     1000022         2        -2   # BR(chi^0_3 -> chi^0_1 u u_bar)
     1.33386291E-11    3     1000022         4        -4   # BR(chi^0_3 -> chi^0_1 c c_bar)
     1.01125247E-03    3     1000022         6        -6   # BR(chi^0_3 -> chi^0_1 t t_bar)
     1.69734885E-12    3     1000022         1        -1   # BR(chi^0_3 -> chi^0_1 d d_bar)
     3.30336751E-11    3     1000022         3        -3   # BR(chi^0_3 -> chi^0_1 s s_bar)
     8.35553919E-08    3     1000022         5        -5   # BR(chi^0_3 -> chi^0_1 b b_bar)
     5.07616377E-09    3     1000022        11       -11   # BR(chi^0_3 -> chi^0_1 e^- e^+)
     8.33101699E-09    3     1000022        13       -13   # BR(chi^0_3 -> chi^0_1 mu^- mu^+)
     9.16590856E-07    3     1000022        15       -15   # BR(chi^0_3 -> chi^0_1 tau^- tau^+)
     1.97657147E-08    3     1000022        12       -12   # BR(chi^0_3 -> chi^0_1 nu_e nu_bar_e)
     1.40436547E-10    3     1000023         2        -2   # BR(chi^0_3 -> chi^0_2 u u_bar)
     6.10916616E-11    3     1000023         4        -4   # BR(chi^0_3 -> chi^0_2 c c_bar)
     1.82518180E-10    3     1000023         1        -1   # BR(chi^0_3 -> chi^0_2 d d_bar)
     1.81727846E-10    3     1000023         3        -3   # BR(chi^0_3 -> chi^0_2 s s_bar)
     4.20812079E-11    3     1000023        11       -11   # BR(chi^0_3 -> chi^0_2 e^- e^+)
     4.19396267E-11    3     1000023        13       -13   # BR(chi^0_3 -> chi^0_2 mu^- mu^+)
     3.55170737E-12    3     1000023        15       -15   # BR(chi^0_3 -> chi^0_2 tau^- tau^+)
     2.52509336E-10    3     1000023        12       -12   # BR(chi^0_3 -> chi^0_2 nu_e nu_bar_e)
     4.00802864E-09    3     1000024         1        -2   # BR(chi^0_3 -> chi^+_1 d u_bar)
     4.00802864E-09    3    -1000024        -1         2   # BR(chi^0_3 -> chi^-_1 d_bar u)
     3.28827391E-09    3     1000024         3        -4   # BR(chi^0_3 -> chi^+_1 s c_bar)
     3.28827391E-09    3    -1000024        -3         4   # BR(chi^0_3 -> chi^-_1 s_bar c)
     1.33605428E-09    3     1000024        11       -12   # BR(chi^0_3 -> chi^+_1 e^- nu_bar_e)
     1.33605428E-09    3    -1000024       -11        12   # BR(chi^0_3 -> chi^-_1 e^+ nu_e)
     1.33416371E-09    3     1000024        13       -14   # BR(chi^0_3 -> chi^+_1 mu^- nu_bar_mu)
     1.33416371E-09    3    -1000024       -13        14   # BR(chi^0_3 -> chi^-_1 mu^+ nu_mu)
     9.10603768E-10    3     1000024        15       -16   # BR(chi^0_3 -> chi^+_1 tau^- nu_bar_tau)
     9.10603768E-10    3    -1000024       -15        16   # BR(chi^0_3 -> chi^-_1 tau^+ nu_tau)
DECAY   1000035     2.35057697E+01   # chi^0_4
#    BR                NDA      ID1      ID2
     2.50648404E-06    2     2000011       -11   # BR(chi^0_4 -> ~e^-_R e^+)
     2.50648404E-06    2    -2000011        11   # BR(chi^0_4 -> ~e^+_R e^-)
     3.17079994E-02    2     1000011       -11   # BR(chi^0_4 -> ~e^-_L e^+)
     3.17079994E-02    2    -1000011        11   # BR(chi^0_4 -> ~e^+_L e^-)
     2.50609081E-06    2     2000013       -13   # BR(chi^0_4 -> ~mu^-_R mu^+)
     2.50609081E-06    2    -2000013        13   # BR(chi^0_4 -> ~mu^+_R mu^-)
     3.17084954E-02    2     1000013       -13   # BR(chi^0_4 -> ~mu^-_L mu^+)
     3.17084954E-02    2    -1000013        13   # BR(chi^0_4 -> ~mu^+_L mu^-)
     2.40535658E-06    2     1000015       -15   # BR(chi^0_4 -> ~tau^-_1 tau^+)
     2.40535658E-06    2    -1000015        15   # BR(chi^0_4 -> ~tau^+_1 tau^-)
     3.18483908E-02    2     2000015       -15   # BR(chi^0_4 -> ~tau^-_2 tau^+)
     3.18483908E-02    2    -2000015        15   # BR(chi^0_4 -> ~tau^+_2 tau^-)
     3.22216054E-02    2     1000012       -12   # BR(chi^0_4 -> ~nu_e nu_bar_e)
     3.22216054E-02    2    -1000012        12   # BR(chi^0_4 -> ~nu^*_e nu_e)
     3.22221190E-02    2     1000014       -14   # BR(chi^0_4 -> ~nu_mu nu_bar_mu)
     3.22221190E-02    2    -1000014        14   # BR(chi^0_4 -> ~nu^*_mu nu_mu)
     3.23669607E-02    2     1000016       -16   # BR(chi^0_4 -> ~nu_tau nu_bar_tau)
     3.23669607E-02    2    -1000016        16   # BR(chi^0_4 -> ~nu^*_tau nu_tau)
     1.51591464E-01    2     1000024       -24   # BR(chi^0_4 -> chi^+_1 W^-)
     1.51591464E-01    2    -1000024        24   # BR(chi^0_4 -> chi^-_1 W^+)
     2.09438668E-08    2     1000022        23   # BR(chi^0_4 -> chi^0_1 Z)
     2.62855244E-03    2     1000023        23   # BR(chi^0_4 -> chi^0_2 Z)
     1.50385936E-01    2     1000025        23   # BR(chi^0_4 -> chi^0_3 Z)
     1.01622784E-05    2     1000022        25   # BR(chi^0_4 -> chi^0_1 h^0)
     1.52796409E-01    2     1000023        25   # BR(chi^0_4 -> chi^0_2 h^0)
     2.42235369E-03    2     1000025        25   # BR(chi^0_4 -> chi^0_3 h^0)
     9.24210907E-08    2     1000022        22   # BR(chi^0_4 -> chi^0_1 photon)
     2.65737026E-07    2     1000023        22   # BR(chi^0_4 -> chi^0_2 photon)
     4.58702405E-07    2     1000025        22   # BR(chi^0_4 -> chi^0_3 photon)
#    BR                NDA      ID1      ID2       ID3
     3.12672336E-08    3     1000022         2        -2   # BR(chi^0_4 -> chi^0_1 u u_bar)
     3.12667414E-08    3     1000022         4        -4   # BR(chi^0_4 -> chi^0_1 c c_bar)
     1.47716304E-07    3     1000022         6        -6   # BR(chi^0_4 -> chi^0_1 t t_bar)
     3.41548730E-08    3     1000022         1        -1   # BR(chi^0_4 -> chi^0_1 d d_bar)
     3.41554037E-08    3     1000022         3        -3   # BR(chi^0_4 -> chi^0_1 s s_bar)
     4.10253432E-08    3     1000022         5        -5   # BR(chi^0_4 -> chi^0_1 b b_bar)
     1.14482215E-09    3     1000022        11       -11   # BR(chi^0_4 -> chi^0_1 e^- e^+)
     1.14544344E-09    3     1000022        13       -13   # BR(chi^0_4 -> chi^0_1 mu^- mu^+)
     1.32575918E-09    3     1000022        15       -15   # BR(chi^0_4 -> chi^0_1 tau^- tau^+)
     1.25578659E-09    3     1000023         2        -2   # BR(chi^0_4 -> chi^0_2 u u_bar)
     1.25652309E-09    3     1000023         4        -4   # BR(chi^0_4 -> chi^0_2 c c_bar)
     4.00452029E-04    3     1000023         6        -6   # BR(chi^0_4 -> chi^0_2 t t_bar)
     6.79930169E-10    3     1000023         1        -1   # BR(chi^0_4 -> chi^0_2 d d_bar)
     6.99197591E-10    3     1000023         3        -3   # BR(chi^0_4 -> chi^0_2 s s_bar)
     5.30729319E-08    3     1000023         5        -5   # BR(chi^0_4 -> chi^0_2 b b_bar)
     3.34637348E-13    3     1000023        11       -11   # BR(chi^0_4 -> chi^0_2 e^- e^+)
     2.93906832E-11    3     1000023        13       -13   # BR(chi^0_4 -> chi^0_2 mu^- mu^+)
     8.22221799E-09    3     1000023        15       -15   # BR(chi^0_4 -> chi^0_2 tau^- tau^+)
     3.84442483E-12    3     1000025         2        -2   # BR(chi^0_4 -> chi^0_3 u u_bar)
     5.20268304E-12    3     1000025         4        -4   # BR(chi^0_4 -> chi^0_3 c c_bar)
     7.43965015E-04    3     1000025         6        -6   # BR(chi^0_4 -> chi^0_3 t t_bar)
     7.05941055E-12    3     1000025         1        -1   # BR(chi^0_4 -> chi^0_3 d d_bar)
     2.62530732E-11    3     1000025         3        -3   # BR(chi^0_4 -> chi^0_3 s s_bar)
     5.21063984E-08    3     1000025         5        -5   # BR(chi^0_4 -> chi^0_3 b b_bar)
     2.89830555E-11    3     1000025        13       -13   # BR(chi^0_4 -> chi^0_3 mu^- mu^+)
     8.20153332E-09    3     1000025        15       -15   # BR(chi^0_4 -> chi^0_3 tau^- tau^+)
     6.96081526E-10    3     1000024         1        -2   # BR(chi^0_4 -> chi^+_1 d u_bar)
     6.96081526E-10    3    -1000024        -1         2   # BR(chi^0_4 -> chi^-_1 d_bar u)
     7.17519718E-10    3     1000024         3        -4   # BR(chi^0_4 -> chi^+_1 s c_bar)
     7.17519718E-10    3    -1000024        -3         4   # BR(chi^0_4 -> chi^-_1 s_bar c)
     1.63097890E-03    3     1000024         5        -6   # BR(chi^0_4 -> chi^+_1 b t_bar)
     1.63097890E-03    3    -1000024        -5         6   # BR(chi^0_4 -> chi^-_1 b_bar t)
     3.07397485E-11    3     1000024        13       -14   # BR(chi^0_4 -> chi^+_1 mu^- nu_bar_mu)
     3.07397485E-11    3    -1000024       -13        14   # BR(chi^0_4 -> chi^-_1 mu^+ nu_mu)
     8.69221220E-09    3     1000024        15       -16   # BR(chi^0_4 -> chi^+_1 tau^- nu_bar_tau)
     8.69221220E-09    3    -1000024       -15        16   # BR(chi^0_4 -> chi^-_1 tau^+ nu_tau)
DECAY   1000021     3.16826009E+01   # ~g
#    BR                NDA      ID1      ID2
     4.66648494E-02    2     2000002        -2   # BR(~g -> ~u_R u_bar)
     4.66648494E-02    2    -2000002         2   # BR(~g -> ~u^*_R u)
     1.22552595E-02    2     1000002        -2   # BR(~g -> ~u_L u_bar)
     1.22552595E-02    2    -1000002         2   # BR(~g -> ~u^*_L u)
     4.66657517E-02    2     2000004        -4   # BR(~g -> ~c_R c_bar)
     4.66657517E-02    2    -2000004         4   # BR(~g -> ~c^*_R c)
     1.22556051E-02    2     1000004        -4   # BR(~g -> ~c_L c_bar)
     1.22556051E-02    2    -1000004         4   # BR(~g -> ~c^*_L c)
     7.19944621E-07    2     1000006        -4   # BR(~g -> ~t_1 c_bar)
     7.19944621E-07    2    -1000006         4   # BR(~g -> ~t^*_1 c)
     1.32709235E-01    2     1000006        -6   # BR(~g -> ~t_1 t_bar)
     1.32709235E-01    2    -1000006         6   # BR(~g -> ~t^*_1 t)
     3.44964114E-02    2     2000006        -6   # BR(~g -> ~t_2 t_bar)
     3.44964114E-02    2    -2000006         6   # BR(~g -> ~t^*_2 t)
     5.08353713E-02    2     2000001        -1   # BR(~g -> ~d_R d_bar)
     5.08353713E-02    2    -2000001         1   # BR(~g -> ~d^*_R d)
     1.21953776E-02    2     1000001        -1   # BR(~g -> ~d_L d_bar)
     1.21953776E-02    2    -1000001         1   # BR(~g -> ~d^*_L d)
     5.08360026E-02    2     2000003        -3   # BR(~g -> ~s_R s_bar)
     5.08360026E-02    2    -2000003         3   # BR(~g -> ~s^*_R s)
     1.21958321E-02    2     1000003        -3   # BR(~g -> ~s_L s_bar)
     1.21958321E-02    2    -1000003         3   # BR(~g -> ~s^*_L s)
     5.25149925E-02    2     1000005        -5   # BR(~g -> ~b_1 b_bar)
     5.25149925E-02    2    -1000005         5   # BR(~g -> ~b^*_1 b)
     3.63196446E-02    2     2000005        -5   # BR(~g -> ~b_2 b_bar)
     3.63196446E-02    2    -2000005         5   # BR(~g -> ~b^*_2 b)
     1.74389207E-07    2     1000039        21   # BR(~g -> ~G g)
     3.12066906E-06    2     1000022        21   # BR(~g -> chi^0_1 g)
     5.24184692E-05    2     1000023        21   # BR(~g -> chi^0_2 g)
     5.32540559E-05    2     1000025        21   # BR(~g -> chi^0_3 g)
     9.25731819E-07    2     1000035        21   # BR(~g -> chi^0_4 g)
DECAY        25     3.16668479E-03   # h^0
#    BR                NDA      ID1      ID2
     7.43999821E-09    2          11       -11   # BR(h^0 -> e^- e^+)
     3.18080545E-04    2          13       -13   # BR(h^0 -> mu^- mu^+)
     8.97454661E-02    2          15       -15   # BR(h^0 -> tau^- tau^+)
     6.29863889E-07    2           1        -1   # BR(h^0 -> d d_bar)
     2.27380315E-04    2           3        -3   # BR(h^0 -> s s_bar)
     5.79079983E-01    2           5        -5   # BR(h^0 -> b b_bar)
     1.43611904E-07    2           2        -2   # BR(h^0 -> u u_bar)
     3.70536046E-02    2           4        -4   # BR(h^0 -> c c_bar)
     9.17735952E-02    2          21        21   # BR(h^0 -> g g)
     3.31578505E-03    2          22        22   # BR(h^0 -> photon photon)
# writing decays into V V* as 3-body decays
#    BR                NDA      ID1      ID2       ID3
     8.95788279E-03    3          24        11        12   # BR(h^0 -> W^+ e^- nu_e)
     8.95788279E-03    3          24        13        14   # BR(h^0 -> W^+ mu^- nu_mu)
     8.95788279E-03    3          24        15        16   # BR(h^0 -> W^+ tau^- nu_tau)
     3.13525898E-02    3          24         1        -2   # BR(h^0 -> W^+ d u_bar)
     3.13525898E-02    3          24         3        -4   # BR(h^0 -> W^+ s c_bar)
     8.95788279E-03    3         -24       -11       -12   # BR(h^0 -> W^- e^+ nu_bar_e)
     8.95788279E-03    3         -24       -13       -14   # BR(h^0 -> W^- mu^+ nu_bar_mu)
     8.95788279E-03    3         -24       -15       -16   # BR(h^0 -> W^- tau^+ nu_bar_tau)
     3.13525898E-02    3         -24        -1         2   # BR(h^0 -> W^- d_bar u)
     3.13525898E-02    3         -24        -3         4   # BR(h^0 -> W^- s_bar c)
     6.49409674E-04    3          23        11       -11   # BR(h^0 -> Z e^- e^+)
     6.49409674E-04    3          23        13       -13   # BR(h^0 -> Z mu^- mu^+)
     6.53275208E-04    3          23        15       -15   # BR(h^0 -> Z tau^- tau^+)
     3.86553377E-03    3          23        12       -12   # BR(h^0 -> Z nu_e nu_bar_e)
     3.01511634E-03    3          23         1        -1   # BR(h^0 -> Z d d_bar)
     3.01511634E-03    3          23         3        -3   # BR(h^0 -> Z s s_bar)
     2.91847800E-03    3          23         5        -5   # BR(h^0 -> Z b b_bar)
     2.24200959E-03    3          23         2        -2   # BR(h^0 -> Z u u_bar)
     2.31932026E-03    3          23         4        -4   # BR(h^0 -> Z c c_bar)
DECAY        35     4.25680099E+00   # H^0
#    BR                NDA      ID1      ID2
     8.64216440E-09    2          11       -11   # BR(H^0 -> e^- e^+)
     3.69479921E-04    2          13       -13   # BR(H^0 -> mu^- mu^+)
     1.04521472E-01    2          15       -15   # BR(H^0 -> tau^- tau^+)
     5.87657148E-07    2           1        -1   # BR(H^0 -> d d_bar)
     2.12143874E-04    2           3        -3   # BR(H^0 -> s s_bar)
     5.61404724E-01    2           5        -5   # BR(H^0 -> b b_bar)
     1.87399915E-11    2           2        -2   # BR(H^0 -> u u_bar)
     4.83612267E-06    2           4        -4   # BR(H^0 -> c c_bar)
     2.78766388E-01    2           6        -6   # BR(H^0 -> t t_bar)
     1.67780619E-05    2     2000011  -2000011   # BR(H^0 -> ~e^-_R ~e^+_R)
     1.67712037E-05    2     2000013  -2000013   # BR(H^0 -> ~mu^-_R ~mu^+_R)
     1.48829780E-05    2     1000015  -1000015   # BR(H^0 -> ~tau^-_1 ~tau^+_1)
     1.88821838E-02    2          23        23   # BR(H^0 -> Z Z)
     3.52679355E-02    2          24       -24   # BR(H^0 -> W^+ W^-)
     4.40876379E-04    2          25        25   # BR(H^0 -> h^0 h^0)
     7.96966187E-05    2          21        21   # BR(H^0 -> g g)
     1.23579990E-06    2          22        22   # BR(H^0 -> photon photon)
DECAY        36     4.03019914E+00   # A^0
#    BR                NDA      ID1      ID2
     9.12837608E-09    2          11       -11   # BR(A^0 -> e^- e^+)
     3.90267015E-04    2          13       -13   # BR(A^0 -> mu^- mu^+)
     1.10402148E-01    2          15       -15   # BR(A^0 -> tau^- tau^+)
     6.20718242E-07    2           1        -1   # BR(A^0 -> d d_bar)
     2.24079024E-04    2           3        -3   # BR(A^0 -> s s_bar)
     5.92988983E-01    2           5        -5   # BR(A^0 -> b b_bar)
     1.96234919E-11    2           2        -2   # BR(A^0 -> u u_bar)
     5.06411394E-06    2           4        -4   # BR(A^0 -> c c_bar)
     2.95727992E-01    2           6        -6   # BR(A^0 -> t t_bar)
     2.06470281E-04    2          25        23   # BR(A^0 -> h^0 Z)
     5.39234607E-05    2          21        21   # BR(A^0 -> g g)
     4.42353460E-07    2          22        22   # BR(A^0 -> photon photon)
DECAY        37     3.56370611E+00   # H^+
#    BR                NDA      ID1      ID2
     1.03287107E-08    2         -11        12   # BR(H^+ -> e^+ nu_e)
     4.41585126E-04    2         -13        12   # BR(H^+ -> mu^+ nu_e)
     1.24919465E-01    2         -15        12   # BR(H^+ -> tau^+ nu_e)
     6.16855250E-07    2          -1         2   # BR(H^+ -> d_bar u)
     2.27709785E-04    2          -3         4   # BR(H^+ -> s_bar c)
     8.74184604E-01    2          -5         6   # BR(H^+ -> b_bar t)
     2.26008572E-04    2          25        24   # BR(H^+ -> h^0 W^+)
DECAY         6     2.43000000E+00   # top
#    BR                NDA      ID1      ID2
     1.00000000E+00    2           5        24   # BR(t -> b W)
Block HiggsBoundsInputHiggsCouplingsFermions
# ScalarNormEffCoupSq PseudoSNormEffCoupSq NP IP1 IP2 IP2
    1.00860856E+00    0.00000000E+00        3  25   5   5  # h0-b-b eff. coupling^2, normalised to SM
    8.94613859E+01    0.00000000E+00        3  35   5   5  # H0-b-b eff. coupling^2, normalised to SM
    0.00000000E+00    8.94699945E+01        3  36   5   5  # A0-b-b eff. coupling^2, normalised to SM
#
    9.99903783E-01    0.00000000E+00        3  25   6   6  # h0-t-t eff. coupling^2, normalised to SM
    1.12731488E-02    0.00000000E+00        3  35   6   6  # H0-t-t eff. coupling^2, normalised to SM
    0.00000000E+00    1.11769315E-02        3  36   6   6  # A0-t-t eff. coupling^2, normalised to SM
#
    1.00860856E+00    0.00000000E+00        3  25  15  15  # h0-tau-tau eff. coupling^2, normalised to SM
    8.94613859E+01    0.00000000E+00        3  35  15  15  # H0-tau-tau eff. coupling^2, normalised to SM
    0.00000000E+00    8.94699945E+01        3  36  15  15  # A0-tau-tau eff. coupling^2, normalised to SM
#
Block HiggsBoundsInputHiggsCouplingsBosons
    9.99999794E-01        3  25  24  24  # h0-W-W eff. coupling^2, normalised to SM
    2.06196261E-07        3  35  24  24  # H0-W-W eff. coupling^2, normalised to SM
    0.00000000E+00        3  36  24  24  # A0-W-W eff. coupling^2, normalised to SM
#
    9.99999794E-01        3  25  23  23  # h0-Z-Z eff. coupling^2, normalised to SM
    2.06196261E-07        3  35  23  23  # H0-Z-Z eff. coupling^2, normalised to SM
    0.00000000E+00        3  36  23  23  # A0-Z-Z eff. coupling^2, normalised to SM
#
    1.14994472E+00        3  25  21  21  # h0-g-g eff. coupling^2, normalised to SM
    7.40698575E-03        3  35  21  21  # H0-g-g eff. coupling^2, normalised to SM
    1.28469327E-01        3  36  21  21  # A0-g-g eff. coupling^2, normalised to SM
#
    0.00000000E+00        3  25  25  23  # h0-h0-Z eff. coupling^2, normalised to SM
    0.00000000E+00        3  35  25  23  # H0-h0-Z eff. coupling^2, normalised to SM
    2.06196261E-07        3  36  25  23  # A0-h0-Z eff. coupling^2, normalised to SM
    0.00000000E+00        3  35  35  23  # H0-H0-Z eff. coupling^2, normalised to SM
    9.99999794E-01        3  36  35  23  # A0-H0-Z eff. coupling^2, normalised to SM
    0.00000000E+00        3  36  36  23  # A0-A0-Z eff. coupling^2, normalised to SM
#
    0.00000000E+00        4  25  21  21  23  # h0-g-g-Z eff. coupling^2, normalised to SM
    0.00000000E+00        4  35  21  21  23  # H0-g-g-Z eff. coupling^2, normalised to SM
    0.00000000E+00        4  36  21  21  23  # A0-g-g-Z eff. coupling^2, normalised to SM
Block SPhenoLowEnergy  # low energy observables
    1    3.26343177E-04   # BR(b -> s gamma)
    2    1.59025579E-06   # BR(b -> s mu+ mu-)
    3    3.52869014E-05   # BR(b -> s nu nu)
    4    2.06191011E-15   # BR(Bd -> e+ e-)
    5    8.80824583E-11   # BR(Bd -> mu+ mu-)
    6    1.84370149E-08   # BR(Bd -> tau+ tau-)
    7    6.94956209E-14   # BR(Bs -> e+ e-)
    8    2.96885069E-09   # BR(Bs -> mu+ mu-)
    9    6.29641761E-07   # BR(Bs -> tau+ tau-)
   10    9.67284193E-05   # BR(B_u -> tau nu)
   11    9.99317742E-01   # BR(B_u -> tau nu)/BR(B_u -> tau nu)_SM
   12    5.41481898E-01   # |Delta(M_Bd)| [ps^-1] 
   13    1.93476134E+01   # |Delta(M_Bs)| [ps^-1] 
   16    2.15481987E-03   # epsilon_K
   17    2.28163236E-15   # Delta(M_K)
   18    2.48226644E-11   # BR(K^0 -> pi^0 nu nu)
   19    8.29595080E-11   # BR(K^+ -> pi^+ nu nu)
   20    8.09742257E-16   # Delta(g-2)_electron/2
   21    3.46192947E-11   # Delta(g-2)_muon/2
   22    9.81329419E-09   # Delta(g-2)_tau/2
   23    0.00000000E+00   # electric dipole moment of the electron
   24    0.00000000E+00   # electric dipole moment of the muon
   25    0.00000000E+00   # electric dipole moment of the tau
   26    0.00000000E+00   # Br(mu -> e gamma)
   27    0.00000000E+00   # Br(tau -> e gamma)
   28    0.00000000E+00   # Br(tau -> mu gamma)
   29    0.00000000E+00   # Br(mu -> 3 e)
   30    0.00000000E+00   # Br(tau -> 3 e)
   31    0.00000000E+00   # Br(tau -> 3 mu)
   39   -5.30844064E-05   # Delta(rho_parameter)
   40    0.00000000E+00   # BR(Z -> e mu)
   41    0.00000000E+00   # BR(Z -> e tau)
   42    0.00000000E+00   # BR(Z -> mu tau)
Block FWCOEF Q=  1.60000000E+02  # Wilson coefficients at scale Q
#    id        order  M        value         comment
     0305 4422   00   0    -1.88846078E-01   # C7
     0305 4422   00   2    -1.95040261E-01   # C7
     0305 4322   00   2    -1.23662769E-04   # C7'
     0305 6421   00   0    -9.52364069E-02   # C8
     0305 6421   00   2    -1.03582174E-01   # C8
     0305 6321   00   2    -1.65559990E-04   # C8'
 03051111 4133   00   0     1.16082225E+00   # C9 e+e-
 03051111 4133   00   2     1.16101675E+00   # C9 e+e-
 03051111 4233   00   2     5.04074642E-07   # C9' e+e-
 03051111 4137   00   0    -3.98487639E+00   # C10 e+e-
 03051111 4137   00   2    -3.98479406E+00   # C10 e+e-
 03051111 4237   00   2    -1.48067882E-05   # C10' e+e-
 03051313 4133   00   0     1.16082225E+00   # C9 mu+mu-
 03051313 4133   00   2     1.16101672E+00   # C9 mu+mu-
 03051313 4233   00   2     5.04071785E-07   # C9' mu+mu-
 03051313 4137   00   0    -3.98487639E+00   # C10 mu+mu-
 03051313 4137   00   2    -3.98479409E+00   # C10 mu+mu-
 03051313 4237   00   2    -1.48067871E-05   # C10' mu+mu-
 03051212 4137   00   0     1.50573913E+00   # C11 nu_1 nu_1
 03051212 4137   00   2     1.50572066E+00   # C11 nu_1 nu_1
 03051212 4237   00   2     3.57627871E-06   # C11' nu_1 nu_1
 03051414 4137   00   0     1.50573913E+00   # C11 nu_2 nu_2
 03051414 4137   00   2     1.50572066E+00   # C11 nu_2 nu_2
 03051414 4237   00   2     3.57627928E-06   # C11' nu_2 nu_2
 03051616 4137   00   0     1.50573913E+00   # C11 nu_3 nu_3
 03051616 4137   00   2     1.50572066E+00   # C11 nu_3 nu_3
 03051616 4237   00   2     3.57644044E-06   # C11' nu_3 nu_3
Block IMFWCOEF Q=  1.60000000E+02  # Im(Wilson coefficients) at scale Q
#    id        order  M        value         comment
     0305 4422   00   0     3.86002910E-07   # C7
     0305 4422   00   2     1.10608627E-06   # C7
     0305 4322   00   2     1.70889377E-07   # C7'
     0305 6421   00   0     3.30636932E-07   # C8
     0305 6421   00   2     3.70794958E-07   # C8
     0305 6321   00   2     6.47970161E-08   # C8'
 03051111 4133   00   2     4.43643114E-09   # C9 e+e-
 03051111 4233   00   2     2.37379494E-08   # C9' e+e-
 03051111 4137   00   2    -4.26527001E-07   # C10 e+e-
 03051111 4237   00   2    -6.99340734E-07   # C10' e+e-
 03051313 4133   00   2     4.43623848E-09   # C9 mu+mu-
 03051313 4233   00   2     2.37379408E-08   # C9' mu+mu-
 03051313 4137   00   2    -4.26526988E-07   # C10 mu+mu-
 03051313 4237   00   2    -6.99340757E-07   # C10' mu+mu-
 03051212 4137   00   2     1.28073981E-07   # C11 nu_1 nu_1
 03051212 4237   00   2     1.68911547E-07   # C11' nu_1 nu_1
 03051414 4137   00   2     1.28073971E-07   # C11 nu_2 nu_2
 03051414 4237   00   2     1.68911547E-07   # C11' nu_2 nu_2
 03051616 4137   00   2     1.28071340E-07   # C11 nu_3 nu_3
 03051616 4237   00   2     1.68911547E-07   # C11' nu_3 nu_3
