#
#                              ======================
#                              | THE SUSYHIT OUTPUT |
#                              ======================
#
#
#              ------------------------------------------------------
#              |     This is the output of the SUSY-HIT package     |
#              |  created by A.Djouadi, M.Muehlleitner and M.Spira. |
#              |  In case of problems with SUSY-HIT email to        |
#              |           margarete.muehlleitner@kit.edu           |
#              |           michael.spira@psi.ch                     |
#              |           abdelhak.djouadi@cern.ch                 |
#              ------------------------------------------------------
#
#              ------------------------------------------------------
#              |  SUSY Les Houches Accord - MSSM Spectrum + Decays  |
#              |              based on the decay programs           |
#              |                                                    |
#              |                     SDECAY 1.5                     |
#              |                                                    |
#              |  Authors: M.Muhlleitner, A.Djouadi and Y.Mambrini  |
#              |  Ref.:    Comput.Phys.Commun.168(2005)46           |
#              |           [hep-ph/0311167]                         |
#              |                                                    |
#              |                     HDECAY 3.4                     |
#              |                                                    |
#              |  By: A.Djouadi,J.Kalinowski,M.Muhlleitner,M.Spira  |
#              |  Ref.:    Comput.Phys.Commun.108(1998)56           |
#              |           [hep-ph/9704448]                         |
#              |                                                    |
#              |                                                    |
#              |  If not stated otherwise all DRbar couplings and   |
#              |  soft SUSY breaking masses are given at the scale  |
#              |  Q=  0.11038878E+04
#              |                                                    |
#              ------------------------------------------------------
#
#
BLOCK DCINFO  # Decay Program information
     1   SDECAY/HDECAY # decay calculator
     2   1.5  /3.4    # version number
#
BLOCK SPINFO  # Spectrum calculator information
     1    SOFTSUSY    # spectrum calculator                
     2    3.7.3       # version number                     
#
BLOCK MODSEL  # Model selection
     1     0   #  nonUniversal                                     
#
BLOCK SMINPUTS  # Standard Model inputs
         1     1.27934000E+02   # alpha_em^-1(M_Z)^MSbar
         2     1.16639000E-05   # G_F [GeV^-2]
         3     1.17200000E-01   # alpha_S(M_Z)^MSbar
         4     9.11870000E+01   # M_Z pole mass
         5     4.19000000E+00   # mb(mb)^MSbar
         6     1.72500000E+02   # mt pole mass
         7     1.77690000E+00   # mtau pole mass
#
BLOCK MINPAR  # Input parameters - minimal models
         3     2.00000000E+01   # tanb                
#
BLOCK EXTPAR  # Input parameters - non-minimal models
         0    -1.00000000E+00   # Set                 
         1     3.09990000E+02   # M_1(MX)             
         2     2.00000000E+03   # M_2(MX)             
         3     1.80000000E+03   # M_3(MX)             
        11     2.42959179E+03   # At(MX)              
        12     0.00000000E+00   # Ab(MX)              
        13     0.00000000E+00   # Atau(MX)            
        23    -3.24900000E+02   # mu(MX)              
        25     2.00000000E+01   # tan                 
        26     4.00000000E+03   # mA(pole)            
        31     4.00000000E+03   # meL(MX)             
        32     4.00000000E+03   # mmuL(MX)            
        33     4.00000000E+03   # mtauL(MX)           
        34     4.00000000E+03   # meR(MX)             
        35     4.00000000E+03   # mmuR(MX)            
        36     4.00000000E+03   # mtauR(MX)           
        41     4.00000000E+03   # mqL1(MX)            
        42     4.00000000E+03   # mqL2(MX)            
        43     2.19485961E+03   # mqL3(MX)            
        44     4.00000000E+03   # muR(MX)             
        45     4.00000000E+03   # mcR(MX)             
        46     5.59990000E+02   # mtR(MX)             
        47     4.00000000E+03   # mdR(MX)             
        48     4.00000000E+03   # msR(MX)             
        49     4.00000000E+03   # mbR(MX)             
#
BLOCK MASS  # Mass Spectrum
# PDG code           mass       particle
        24     8.04201747E+01   # W+
        25     1.25198573E+02   # h
        35     4.00000826E+03   # H
        36     3.99999658E+03   # A
        37     4.00099656E+03   # H+
         5     4.81337004E+00   # b-quark pole mass calculated from mb(mb)_Msbar
   1000001     4.02006185E+03   # ~d_L
   2000001     4.01800969E+03   # ~d_R
   1000002     4.01941120E+03   # ~u_L
   2000002     4.01852189E+03   # ~u_R
   1000003     4.02006185E+03   # ~s_L
   2000003     4.01800969E+03   # ~s_R
   1000004     4.01941120E+03   # ~c_L
   2000004     4.01852189E+03   # ~c_R
   1000005     2.22016532E+03   # ~b_1
   2000005     4.02270936E+03   # ~b_2
   1000006     6.07120324E+02   # ~t_1
   2000006     2.23033777E+03   # ~t_2
   1000011     4.00315865E+03   # ~e_L
   2000011     4.00366280E+03   # ~e_R
   1000012     4.00204816E+03   # ~nu_eL
   1000013     4.00315865E+03   # ~mu_L
   2000013     4.00366280E+03   # ~mu_R
   1000014     4.00204816E+03   # ~nu_muL
   1000015     4.00443772E+03   # ~tau_1
   2000015     4.00823818E+03   # ~tau_2
   1000016     4.00400562E+03   # ~nu_tauL
   1000021     1.98344666E+03   # ~g
   1000022     2.91777686E+02   # ~chi_10
   1000023    -3.35664549E+02   # ~chi_20
   1000025     3.55633885E+02   # ~chi_30
   1000035     2.06773183E+03   # ~chi_40
   1000024     3.33004084E+02   # ~chi_1+
   1000037     2.06789932E+03   # ~chi_2+
#
BLOCK NMIX  # Neutralino Mixing Matrix
  1  1     7.71414220E-01   # N_11
  1  2    -1.78378818E-02   # N_12
  1  3    -4.79083941E-01   # N_13
  1  4    -4.18426205E-01   # N_14
  2  1    -5.13979858E-02   # N_21
  2  2     2.47534972E-02   # N_22
  2  3    -7.02906279E-01   # N_23
  2  4     7.08991025E-01   # N_24
  3  1     6.34253349E-01   # N_31
  3  2     2.53068799E-02   # N_32
  3  3     5.25719981E-01   # N_33
  3  4     5.66304470E-01   # N_34
  4  1    -1.01909870E-03   # N_41
  4  2     9.99214009E-01   # N_42
  4  3    -4.45428756E-03   # N_43
  4  4    -3.93761931E-02   # N_44
#
BLOCK UMIX  # Chargino Mixing Matrix U
  1  1     6.30478497E-03   # U_11
  1  2     9.99980125E-01   # U_12
  2  1    -9.99980125E-01   # U_21
  2  2     6.30478497E-03   # U_22
#
BLOCK VMIX  # Chargino Mixing Matrix V
  1  1     5.56973981E-02   # V_11
  1  2    -9.98447695E-01   # V_12
  2  1    -9.98447695E-01   # V_21
  2  2    -5.56973981E-02   # V_22
#
BLOCK STOPMIX  # Stop Mixing Matrix
  1  1    -8.06629608E-02   # cos(theta_t)
  1  2     9.96741434E-01   # sin(theta_t)
  2  1    -9.96741434E-01   # -sin(theta_t)
  2  2    -8.06629608E-02   # cos(theta_t)
#
BLOCK SBOTMIX  # Sbottom Mixing Matrix
  1  1     9.99998973E-01   # cos(theta_b)
  1  2    -1.43317792E-03   # sin(theta_b)
  2  1     1.43317792E-03   # -sin(theta_b)
  2  2     9.99998973E-01   # cos(theta_b)
#
BLOCK STAUMIX  # Stau Mixing Matrix
  1  1    -7.05778671E-01   # cos(theta_tau)
  1  2     7.08432402E-01   # sin(theta_tau)
  2  1    -7.08432402E-01   # -sin(theta_tau)
  2  2    -7.05778671E-01   # cos(theta_tau)
#
BLOCK ALPHA  # Higgs mixing
          -5.00258624E-02   # Mixing angle in the neutral Higgs boson sector
#
BLOCK HMIX Q=  1.10388779E+03  # DRbar Higgs Parameters
         1    -3.24900000E+02   # mu(Q)MSSM           
         2     2.00000000E+01   # tan                 
         3     2.44091379E+02   # higgs               
         4     1.62354798E+07   # mA^2(Q)MSSM         
#
BLOCK GAUGE Q=  1.10388779E+03  # The gauge couplings
     1     3.61521392E-01   # gprime(Q) DRbar
     2     6.35314307E-01   # g(Q) DRbar
     3     1.03304944E+00   # g3(Q) DRbar
#
BLOCK AU Q=  1.10388779E+03  # The trilinear couplings
  1  1     0.00000000E+00   # A_u(Q) DRbar
  2  2     9.34475117E-07   # A_c(Q) DRbar
  3  3     2.42959179E+03   # A_t(Q) DRbar
#
BLOCK AD Q=  1.10388779E+03  # The trilinear couplings
  1  1     3.44139690E-07   # A_d(Q) DRbar
  2  2     3.44172273E-07   # A_s(Q) DRbar
  3  3     6.15289732E-07   # A_b(Q) DRbar
#
BLOCK AE Q=  1.10388779E+03  # The trilinear couplings
  1  1     0.00000000E+00   # A_e(Q) DRbar
  2  2     7.63965066E-08   # A_mu(Q) DRbar
  3  3     7.71755047E-08   # A_tau(Q) DRbar
#
BLOCK Yu Q=  1.10388779E+03  # The Yukawa couplings
  1  1     0.00000000E+00   # y_u(Q) DRbar
  2  2     0.00000000E+00   # y_c(Q) DRbar
  3  3     8.69902855E-01   # y_t(Q) DRbar
#
BLOCK Yd Q=  1.10388779E+03  # The Yukawa couplings
  1  1     0.00000000E+00   # y_d(Q) DRbar
  2  2     0.00000000E+00   # y_s(Q) DRbar
  3  3     2.86096313E-01   # y_b(Q) DRbar
#
BLOCK Ye Q=  1.10388779E+03  # The Yukawa couplings
  1  1     0.00000000E+00   # y_e(Q) DRbar
  2  2     0.00000000E+00   # y_mu(Q) DRbar
  3  3     2.03266315E-01   # y_tau(Q) DRbar
#
BLOCK MSOFT Q=  1.10388779E+03  # The soft SUSY breaking masses at the scale Q
         1     3.09990000E+02   # M_1(Q)              
         2     2.00000000E+03   # M_2(Q)              
         3     1.80000000E+03   # M_3(Q)              
        21     1.57729489E+07   # M^2_Hd              
        22    -1.31814436E+05   # M^2_Hu              
        31     4.00000000E+03   # M_eL                
        32     4.00000000E+03   # M_muL               
        33     4.00000000E+03   # M_tauL              
        34     4.00000000E+03   # M_eR                
        35     4.00000000E+03   # M_muR               
        36     4.00000000E+03   # M_tauR              
        41     4.00000000E+03   # M_q1L               
        42     4.00000000E+03   # M_q2L               
        43     2.19485961E+03   # M_q3L               
        44     4.00000000E+03   # M_uR                
        45     4.00000000E+03   # M_cR                
        46     5.59989995E+02   # M_tR                
        47     4.00000000E+03   # M_dR                
        48     4.00000000E+03   # M_sR                
        49     4.00000000E+03   # M_bR                
#
#
#
#                             =================
#                             |The decay table|
#                             =================
#
# - The QCD corrections to the decays gluino -> squark  + quark
#                                     squark -> gaugino + quark_prime
#                                     squark -> squark_prime + Higgs
#                                     squark -> gluino  + quark
#   are included.
#
# - The multi-body decays for the inos, stops and sbottoms are included.
#
# - The loop induced decays for the gluino, neutralinos and stops
#   are included.
#
# - The SUSY decays of the top quark are included.
#
#
#         PDG            Width
DECAY         6     1.40017703E+00   # top decays
#          BR         NDA      ID1       ID2
     1.00000000E+00    2           5        24   # BR(t ->  b    W+)
#
#         PDG            Width
DECAY   1000021     3.43620521E+01   # gluino decays
#          BR         NDA      ID1       ID2
     5.00000000E-01    2     1000006        -6   # BR(~g -> ~t_1  tb)
     5.00000000E-01    2    -1000006         6   # BR(~g -> ~t_1* t )
#
#         PDG            Width
DECAY   1000006     8.00404123E+00   # stop1 decays
#          BR         NDA      ID1       ID2
     8.30852574E-02    2     1000022         6   # BR(~t_1 -> ~chi_10 t )
     1.80019096E-01    2     1000023         6   # BR(~t_1 -> ~chi_20 t )
     1.87203305E-01    2     1000025         6   # BR(~t_1 -> ~chi_30 t )
     5.49692342E-01    2     1000024         5   # BR(~t_1 -> ~chi_1+ b )
#
#         PDG            Width
DECAY   2000006     6.73828926E+01   # stop2 decays
#          BR         NDA      ID1       ID2
     8.99069342E-02    2     1000022         6   # BR(~t_2 -> ~chi_10 t )
     2.30639452E-01    2     1000023         6   # BR(~t_2 -> ~chi_20 t )
     1.39259302E-01    2     1000025         6   # BR(~t_2 -> ~chi_30 t )
     5.19470971E-02    2     1000024         5   # BR(~t_2 -> ~chi_1+ b )
     5.22594041E-03    2     1000037         5   # BR(~t_2 -> ~chi_2+ b )
     9.69443340E-02    2     1000021         6   # BR(~t_2 -> ~g      t )
     2.59277770E-01    2     1000006        25   # BR(~t_2 -> ~t_1    h )
     1.26799170E-01    2     1000006        23   # BR(~t_2 -> ~t_1    Z )
#
#         PDG            Width
DECAY   1000005     6.29188629E+01   # sbottom1 decays
#          BR         NDA      ID1       ID2
     1.49150064E-02    2     1000022         5   # BR(~b_1 -> ~chi_10 b )
     2.43128244E-02    2     1000023         5   # BR(~b_1 -> ~chi_20 b )
     1.45545881E-02    2     1000025         5   # BR(~b_1 -> ~chi_30 b )
     2.54105631E-03    2     1000035         5   # BR(~b_1 -> ~chi_40 b )
     4.81470196E-01    2    -1000024         6   # BR(~b_1 -> ~chi_1- t )
     1.11678306E-01    2     1000021         5   # BR(~b_1 -> ~g      b )
     3.50528023E-01    2     1000006       -24   # BR(~b_1 -> ~t_1    W-)
#
#         PDG            Width
DECAY   2000005     1.64452583E+02   # sbottom2 decays
#          BR         NDA      ID1       ID2
     1.64103963E-02    2     1000022         5   # BR(~b_2 -> ~chi_10 b )
     1.81115834E-02    2     1000023         5   # BR(~b_2 -> ~chi_20 b )
     1.55115658E-02    2     1000025         5   # BR(~b_2 -> ~chi_30 b )
     8.95397207E-07    2     1000035         5   # BR(~b_2 -> ~chi_40 b )
     3.64802684E-02    2    -1000024         6   # BR(~b_2 -> ~chi_1- t )
     1.77370520E-06    2    -1000037         6   # BR(~b_2 -> ~chi_2- t )
     9.13108845E-01    2     1000021         5   # BR(~b_2 -> ~g      b )
     8.04250956E-05    2     1000005        25   # BR(~b_2 -> ~b_1    h )
     1.06054788E-04    2     1000005        23   # BR(~b_2 -> ~b_1    Z )
     3.64313430E-06    2     1000006       -24   # BR(~b_2 -> ~t_1    W-)
     1.84549352E-04    2     2000006       -24   # BR(~b_2 -> ~t_2    W-)
#
#         PDG            Width
DECAY   1000002     1.75883249E+02   # sup_L decays
#          BR         NDA      ID1       ID2
     1.44426830E-03    2     1000022         2   # BR(~u_L -> ~chi_10 u)
     1.96314811E-05    2     1000023         2   # BR(~u_L -> ~chi_20 u)
     1.84588664E-03    2     1000025         2   # BR(~u_L -> ~chi_30 u)
     4.79746113E-02    2     1000035         2   # BR(~u_L -> ~chi_40 u)
     5.41147143E-04    2     1000024         1   # BR(~u_L -> ~chi_1+ d)
     9.58280937E-02    2     1000037         1   # BR(~u_L -> ~chi_2+ d)
     8.52346361E-01    2     1000021         2   # BR(~u_L -> ~g      u)
#
#         PDG            Width
DECAY   2000002     1.58675972E+02   # sup_R decays
#          BR         NDA      ID1       ID2
     3.32124632E-02    2     1000022         2   # BR(~u_R -> ~chi_10 u)
     1.46959132E-04    2     1000023         2   # BR(~u_R -> ~chi_20 u)
     2.23415020E-02    2     1000025         2   # BR(~u_R -> ~chi_30 u)
     3.18377415E-08    2     1000035         2   # BR(~u_R -> ~chi_40 u)
     9.44299044E-01    2     1000021         2   # BR(~u_R -> ~g      u)
#
#         PDG            Width
DECAY   1000001     1.75902193E+02   # sdown_L decays
#          BR         NDA      ID1       ID2
     2.35780705E-03    2     1000022         1   # BR(~d_L -> ~chi_10 d)
     1.03814225E-04    2     1000023         1   # BR(~d_L -> ~chi_20 d)
     7.85726156E-04    2     1000025         1   # BR(~d_L -> ~chi_30 d)
     4.80255174E-02    2     1000035         1   # BR(~d_L -> ~chi_40 d)
     6.93446263E-06    2    -1000024         2   # BR(~d_L -> ~chi_1- u)
     9.61500446E-02    2    -1000037         2   # BR(~d_L -> ~chi_2- u)
     8.52570156E-01    2     1000021         1   # BR(~d_L -> ~g      d)
#
#         PDG            Width
DECAY   2000001     1.52003172E+02   # sdown_R decays
#          BR         NDA      ID1       ID2
     8.66646701E-03    2     1000022         1   # BR(~d_R -> ~chi_10 d)
     3.83475143E-05    2     1000023         1   # BR(~d_R -> ~chi_20 d)
     5.82978882E-03    2     1000025         1   # BR(~d_R -> ~chi_30 d)
     8.30626541E-09    2     1000035         1   # BR(~d_R -> ~chi_40 d)
     9.85465388E-01    2     1000021         1   # BR(~d_R -> ~g      d)
#
#         PDG            Width
DECAY   1000004     1.75883249E+02   # scharm_L decays
#          BR         NDA      ID1       ID2
     1.44426830E-03    2     1000022         4   # BR(~c_L -> ~chi_10 c)
     1.96314811E-05    2     1000023         4   # BR(~c_L -> ~chi_20 c)
     1.84588664E-03    2     1000025         4   # BR(~c_L -> ~chi_30 c)
     4.79746113E-02    2     1000035         4   # BR(~c_L -> ~chi_40 c)
     5.41147143E-04    2     1000024         3   # BR(~c_L -> ~chi_1+ s)
     9.58280937E-02    2     1000037         3   # BR(~c_L -> ~chi_2+ s)
     8.52346361E-01    2     1000021         4   # BR(~c_L -> ~g      c)
#
#         PDG            Width
DECAY   2000004     1.58675972E+02   # scharm_R decays
#          BR         NDA      ID1       ID2
     3.32124632E-02    2     1000022         4   # BR(~c_R -> ~chi_10 c)
     1.46959132E-04    2     1000023         4   # BR(~c_R -> ~chi_20 c)
     2.23415020E-02    2     1000025         4   # BR(~c_R -> ~chi_30 c)
     3.18377415E-08    2     1000035         4   # BR(~c_R -> ~chi_40 c)
     9.44299044E-01    2     1000021         4   # BR(~c_R -> ~g      c)
#
#         PDG            Width
DECAY   1000003     1.75902193E+02   # sstrange_L decays
#          BR         NDA      ID1       ID2
     2.35780705E-03    2     1000022         3   # BR(~s_L -> ~chi_10 s)
     1.03814225E-04    2     1000023         3   # BR(~s_L -> ~chi_20 s)
     7.85726156E-04    2     1000025         3   # BR(~s_L -> ~chi_30 s)
     4.80255174E-02    2     1000035         3   # BR(~s_L -> ~chi_40 s)
     6.93446263E-06    2    -1000024         4   # BR(~s_L -> ~chi_1- c)
     9.61500446E-02    2    -1000037         4   # BR(~s_L -> ~chi_2- c)
     8.52570156E-01    2     1000021         3   # BR(~s_L -> ~g      s)
#
#         PDG            Width
DECAY   2000003     1.52003172E+02   # sstrange_R decays
#          BR         NDA      ID1       ID2
     8.66646701E-03    2     1000022         3   # BR(~s_R -> ~chi_10 s)
     3.83475143E-05    2     1000023         3   # BR(~s_R -> ~chi_20 s)
     5.82978882E-03    2     1000025         3   # BR(~s_R -> ~chi_30 s)
     8.30626541E-09    2     1000035         3   # BR(~s_R -> ~chi_40 s)
     9.85465388E-01    2     1000021         3   # BR(~s_R -> ~g      s)
#
#         PDG            Width
DECAY   1000011     3.10761347E+01   # selectron_L decays
#          BR         NDA      ID1       ID2
     9.07526790E-02    2     1000022        11   # BR(~e_L -> ~chi_10 e-)
     1.02997526E-05    2     1000023        11   # BR(~e_L -> ~chi_20 e-)
     7.59365120E-02    2     1000025        11   # BR(~e_L -> ~chi_30 e-)
     2.77276527E-01    2     1000035        11   # BR(~e_L -> ~chi_40 e-)
     4.05501465E-05    2    -1000024        12   # BR(~e_L -> ~chi_1- nu_e)
     5.55983432E-01    2    -1000037        12   # BR(~e_L -> ~chi_2- nu_e)
#
#         PDG            Width
DECAY   2000011     2.05565486E+01   # selectron_R decays
#          BR         NDA      ID1       ID2
     5.96328010E-01    2     1000022        11   # BR(~e_R -> ~chi_10 e-)
     2.63815757E-03    2     1000023        11   # BR(~e_R -> ~chi_20 e-)
     4.01033267E-01    2     1000025        11   # BR(~e_R -> ~chi_30 e-)
     5.65580749E-07    2     1000035        11   # BR(~e_R -> ~chi_40 e-)
#
#         PDG            Width
DECAY   1000013     3.10761347E+01   # smuon_L decays
#          BR         NDA      ID1       ID2
     9.07526790E-02    2     1000022        13   # BR(~mu_L -> ~chi_10 mu-)
     1.02997526E-05    2     1000023        13   # BR(~mu_L -> ~chi_20 mu-)
     7.59365120E-02    2     1000025        13   # BR(~mu_L -> ~chi_30 mu-)
     2.77276527E-01    2     1000035        13   # BR(~mu_L -> ~chi_40 mu-)
     4.05501465E-05    2    -1000024        14   # BR(~mu_L -> ~chi_1- nu_mu)
     5.55983432E-01    2    -1000037        14   # BR(~mu_L -> ~chi_2- nu_mu)
#
#         PDG            Width
DECAY   2000013     2.05565486E+01   # smuon_R decays
#          BR         NDA      ID1       ID2
     5.96328010E-01    2     1000022        13   # BR(~mu_R -> ~chi_10 mu-)
     2.63815757E-03    2     1000023        13   # BR(~mu_R -> ~chi_20 mu-)
     4.01033267E-01    2     1000025        13   # BR(~mu_R -> ~chi_30 mu-)
     5.65580749E-07    2     1000035        13   # BR(~mu_R -> ~chi_40 mu-)
#
#         PDG            Width
DECAY   1000015     3.07357537E+01   # stau_1 decays
#          BR         NDA      ID1       ID2
     3.21487129E-01    2     1000022        15   # BR(~tau_1 -> ~chi_10  tau-)
     4.42005368E-02    2     1000023        15   # BR(~tau_1 -> ~chi_20  tau-)
     1.60913669E-01    2     1000025        15   # BR(~tau_1 -> ~chi_30  tau-)
     1.39191291E-01    2     1000035        15   # BR(~tau_1 -> ~chi_40  tau-)
     5.51058798E-02    2    -1000024        16   # BR(~tau_1 -> ~chi_1-  nu_tau)
     2.79101494E-01    2    -1000037        16   # BR(~tau_1 -> ~chi_2-  nu_tau)
#
#         PDG            Width
DECAY   2000015     3.07096799E+01   # stau_2 decays
#          BR         NDA      ID1       ID2
     2.18254932E-01    2     1000022        15   # BR(~tau_2 -> ~chi_10  tau-)
     6.20309513E-02    2     1000023        15   # BR(~tau_2 -> ~chi_20  tau-)
     2.42863253E-01    2     1000025        15   # BR(~tau_2 -> ~chi_30  tau-)
     1.41827209E-01    2     1000035        15   # BR(~tau_2 -> ~chi_40  tau-)
     5.06395531E-02    2    -1000024        16   # BR(~tau_2 -> ~chi_1-  nu_tau)
     2.84384102E-01    2    -1000037        16   # BR(~tau_2 -> ~chi_2-  nu_tau)
#
#         PDG            Width
DECAY   1000012     3.10872138E+01   # snu_eL decays
#          BR         NDA      ID1       ID2
     1.06711772E-01    2     1000022        12   # BR(~nu_eL -> ~chi_10 nu_e)
     1.48611550E-03    2     1000023        12   # BR(~nu_eL -> ~chi_20 nu_e)
     5.73011831E-02    2     1000025        12   # BR(~nu_eL -> ~chi_30 nu_e)
     2.77632668E-01    2     1000035        12   # BR(~nu_eL -> ~chi_40 nu_e)
     3.16259098E-03    2     1000024        11   # BR(~nu_eL -> ~chi_1+ e-)
     5.53705671E-01    2     1000037        11   # BR(~nu_eL -> ~chi_2+ e-)
#
#         PDG            Width
DECAY   1000014     3.10872138E+01   # snu_muL decays
#          BR         NDA      ID1       ID2
     1.06711772E-01    2     1000022        14   # BR(~nu_muL -> ~chi_10 nu_mu)
     1.48611550E-03    2     1000023        14   # BR(~nu_muL -> ~chi_20 nu_mu)
     5.73011831E-02    2     1000025        14   # BR(~nu_muL -> ~chi_30 nu_mu)
     2.77632668E-01    2     1000035        14   # BR(~nu_muL -> ~chi_40 nu_mu)
     3.16259098E-03    2     1000024        13   # BR(~nu_muL -> ~chi_1+ mu-)
     5.53705671E-01    2     1000037        13   # BR(~nu_muL -> ~chi_2+ mu-)
#
#         PDG            Width
DECAY   1000016     3.43667036E+01   # snu_tauL decays
#          BR         NDA      ID1       ID2
     9.65768771E-02    2     1000022        16   # BR(~nu_tauL -> ~chi_10 nu_tau)
     1.34497704E-03    2     1000023        16   # BR(~nu_tauL -> ~chi_20 nu_tau)
     5.18592986E-02    2     1000025        16   # BR(~nu_tauL -> ~chi_30 nu_tau)
     2.51440940E-01    2     1000035        16   # BR(~nu_tauL -> ~chi_40 nu_tau)
     9.73080625E-02    2     1000024        15   # BR(~nu_tauL -> ~chi_1+ tau-)
     5.01469845E-01    2     1000037        15   # BR(~nu_tauL -> ~chi_2+ tau-)
#
#         PDG            Width
DECAY   1000024     5.61554401E-05   # chargino1+ decays
#           BR         NDA      ID1       ID2       ID3
     3.33669694E-01    3     1000022         2        -1   # BR(~chi_1+ -> ~chi_10 u    db)
     3.33669694E-01    3     1000022         4        -3   # BR(~chi_1+ -> ~chi_10 c    sb)
     1.11224595E-01    3     1000022       -11        12   # BR(~chi_1+ -> ~chi_10 e+   nu_e)
     1.11224595E-01    3     1000022       -13        14   # BR(~chi_1+ -> ~chi_10 mu+  nu_mu)
     1.10211422E-01    3     1000022       -15        16   # BR(~chi_1+ -> ~chi_10 tau+ nu_tau)
#
#         PDG            Width
DECAY   1000037     1.65910944E+01   # chargino2+ decays
#          BR         NDA      ID1       ID2
     3.40806237E-02    2     1000006        -5   # BR(~chi_2+ -> ~t_1     bb)
     2.46449074E-01    2     1000024        23   # BR(~chi_2+ -> ~chi_1+  Z )
     7.73324215E-02    2     1000022        24   # BR(~chi_2+ -> ~chi_10  W+)
     2.40556700E-01    2     1000023        24   # BR(~chi_2+ -> ~chi_20  W+)
     1.62024077E-01    2     1000025        24   # BR(~chi_2+ -> ~chi_30  W+)
     2.39557104E-01    2     1000024        25   # BR(~chi_2+ -> ~chi_1+  h )
#
#         PDG            Width
DECAY   1000022     0.00000000E+00   # neutralino1 decays
#
#         PDG            Width
DECAY   1000023     6.08315636E-05   # neutralino2 decays
#          BR         NDA      ID1       ID2
     2.49385094E-04    2     1000022        22   # BR(~chi_20 -> ~chi_10 gam)
#           BR         NDA      ID1       ID2       ID3
     1.18560185E-01    3     1000022        -2         2   # BR(~chi_20 -> ~chi_10 ub      u)
     1.53797591E-01    3     1000022        -1         1   # BR(~chi_20 -> ~chi_10 db      d)
     1.18560185E-01    3     1000022        -4         4   # BR(~chi_20 -> ~chi_10 cb      c)
     1.53797591E-01    3     1000022        -3         3   # BR(~chi_20 -> ~chi_10 sb      s)
     1.38072121E-01    3     1000022        -5         5   # BR(~chi_20 -> ~chi_10 bb      b)
     3.52709867E-02    3     1000022       -11        11   # BR(~chi_20 -> ~chi_10 e+      e-)
     3.52709867E-02    3     1000022       -13        13   # BR(~chi_20 -> ~chi_10 mu+     mu-)
     3.48702060E-02    3     1000022       -15        15   # BR(~chi_20 -> ~chi_10 tau+    tau-)
     7.05153964E-02    3     1000022       -12        12   # BR(~chi_20 -> ~chi_10 nu_eb   nu_e)
     7.05153964E-02    3     1000022       -14        14   # BR(~chi_20 -> ~chi_10 nu_mub  nu_mu)
     7.05153944E-02    3     1000022       -16        16   # BR(~chi_20 -> ~chi_10 nu_taub nu_tau)
     8.48482022E-07    3     1000024        -2         1   # BR(~chi_20 -> ~chi_1+ ub      d)
     8.48482022E-07    3    -1000024        -1         2   # BR(~chi_20 -> ~chi_1- db      u)
     8.48482022E-07    3     1000024        -4         3   # BR(~chi_20 -> ~chi_1+ cb      s)
     8.48482022E-07    3    -1000024        -3         4   # BR(~chi_20 -> ~chi_1- sb      c)
     2.82827623E-07    3     1000024       -12        11   # BR(~chi_20 -> ~chi_1+ nu_eb   e-)
     2.82827623E-07    3    -1000024        12       -11   # BR(~chi_20 -> ~chi_1- nu_e    e+)
     2.82827623E-07    3     1000024       -14        13   # BR(~chi_20 -> ~chi_1+ nu_mub  mu-)
     2.82827623E-07    3    -1000024        14       -13   # BR(~chi_20 -> ~chi_1- nu_mu   mu+)
     2.55964047E-08    3     1000024       -16        15   # BR(~chi_20 -> ~chi_1+ nu_taub tau-)
     2.55964047E-08    3    -1000024        16       -15   # BR(~chi_20 -> ~chi_1- nu_tau  tau+)
#
#         PDG            Width
DECAY   1000025     1.14028394E-05   # neutralino3 decays
#          BR         NDA      ID1       ID2
     4.25874909E-02    2     1000022        22   # BR(~chi_30 -> ~chi_10 gam)
     2.75930336E-02    2     1000023        22   # BR(~chi_30 -> ~chi_20 gam)
#           BR         NDA      ID1       ID2       ID3
     1.01606545E-02    3     1000022        -2         2   # BR(~chi_30 -> ~chi_10 ub      u)
     1.30709115E-02    3     1000022        -1         1   # BR(~chi_30 -> ~chi_10 db      d)
     1.01606545E-02    3     1000022        -4         4   # BR(~chi_30 -> ~chi_10 cb      c)
     1.30709115E-02    3     1000022        -3         3   # BR(~chi_30 -> ~chi_10 sb      s)
     1.24952330E-02    3     1000022        -5         5   # BR(~chi_30 -> ~chi_10 bb      b)
     2.91244343E-03    3     1000022       -11        11   # BR(~chi_30 -> ~chi_10 e+      e-)
     2.91244343E-03    3     1000022       -13        13   # BR(~chi_30 -> ~chi_10 mu+     mu-)
     2.90913711E-03    3     1000022       -15        15   # BR(~chi_30 -> ~chi_10 tau+    tau-)
     6.03560212E-03    3     1000022       -12        12   # BR(~chi_30 -> ~chi_10 nu_eb   nu_e)
     6.03560212E-03    3     1000022       -14        14   # BR(~chi_30 -> ~chi_10 nu_mub  nu_mu)
     6.03556741E-03    3     1000022       -16        16   # BR(~chi_30 -> ~chi_10 nu_taub nu_tau)
     1.82354736E-02    3     1000023        -2         2   # BR(~chi_30 -> ~chi_20 ub      u)
     2.36560793E-02    3     1000023        -1         1   # BR(~chi_30 -> ~chi_20 db      d)
     1.82354736E-02    3     1000023        -4         4   # BR(~chi_30 -> ~chi_20 cb      c)
     2.36560793E-02    3     1000023        -3         3   # BR(~chi_30 -> ~chi_20 sb      s)
     1.38185410E-02    3     1000023        -5         5   # BR(~chi_30 -> ~chi_20 bb      b)
     5.42562689E-03    3     1000023       -11        11   # BR(~chi_30 -> ~chi_20 e+      e-)
     5.42562689E-03    3     1000023       -13        13   # BR(~chi_30 -> ~chi_20 mu+     mu-)
     5.18625054E-03    3     1000023       -15        15   # BR(~chi_30 -> ~chi_20 tau+    tau-)
     1.08455320E-02    3     1000023       -12        12   # BR(~chi_30 -> ~chi_20 nu_eb   nu_e)
     1.08455320E-02    3     1000023       -14        14   # BR(~chi_30 -> ~chi_20 nu_mub  nu_mu)
     1.08455322E-02    3     1000023       -16        16   # BR(~chi_30 -> ~chi_20 nu_taub nu_tau)
     1.16696769E-01    3     1000024        -2         1   # BR(~chi_30 -> ~chi_1+ ub      d)
     1.16696769E-01    3    -1000024        -1         2   # BR(~chi_30 -> ~chi_1- db      u)
     1.16696769E-01    3     1000024        -4         3   # BR(~chi_30 -> ~chi_1+ cb      s)
     1.16696769E-01    3    -1000024        -3         4   # BR(~chi_30 -> ~chi_1- sb      c)
     3.88983827E-02    3     1000024       -12        11   # BR(~chi_30 -> ~chi_1+ nu_eb   e-)
     3.88983827E-02    3    -1000024        12       -11   # BR(~chi_30 -> ~chi_1- nu_e    e+)
     3.88983827E-02    3     1000024       -14        13   # BR(~chi_30 -> ~chi_1+ nu_mub  mu-)
     3.88983827E-02    3    -1000024        14       -13   # BR(~chi_30 -> ~chi_1- nu_mu   mu+)
     3.77319810E-02    3     1000024       -16        15   # BR(~chi_30 -> ~chi_1+ nu_taub tau-)
     3.77319810E-02    3    -1000024        16       -15   # BR(~chi_30 -> ~chi_1- nu_tau  tau+)
#
#         PDG            Width
DECAY   1000035     1.65779844E+01   # neutralino4 decays
#          BR         NDA      ID1       ID2
     3.30607766E-02    2     1000022        23   # BR(~chi_40 -> ~chi_10   Z )
     1.51344686E-01    2     1000023        23   # BR(~chi_40 -> ~chi_20   Z )
     6.21659002E-02    2     1000025        23   # BR(~chi_40 -> ~chi_30   Z )
     2.40321429E-01    2     1000024       -24   # BR(~chi_40 -> ~chi_1+   W-)
     2.40321429E-01    2    -1000024        24   # BR(~chi_40 -> ~chi_1-   W+)
     4.48736688E-02    2     1000022        25   # BR(~chi_40 -> ~chi_10   h )
     9.30620265E-02    2     1000023        25   # BR(~chi_40 -> ~chi_20   h )
     1.01133437E-01    2     1000025        25   # BR(~chi_40 -> ~chi_30   h )
     1.68583233E-02    2     1000006        -6   # BR(~chi_40 -> ~t_1      tb)
     1.68583233E-02    2    -1000006         6   # BR(~chi_40 -> ~t_1*     t )
#
#         PDG            Width
DECAY        25     3.99733767E-03   # h decays
#          BR         NDA      ID1       ID2
     5.99929922E-01    2           5        -5   # BR(h -> b       bb     )
     6.50009304E-02    2         -15        15   # BR(h -> tau+    tau-   )
     2.30104338E-04    2         -13        13   # BR(h -> mu+     mu-    )
     4.88245330E-04    2           3        -3   # BR(h -> s       sb     )
     2.12058962E-02    2           4        -4   # BR(h -> c       cb     )
     6.89837213E-02    2          21        21   # BR(h -> g       g      )
     2.36987236E-03    2          22        22   # BR(h -> gam     gam    )
     1.59231578E-03    2          22        23   # BR(h -> Z       gam    )
     2.13358134E-01    2          24       -24   # BR(h -> W+      W-     )
     2.68408582E-02    2          23        23   # BR(h -> Z       Z      )
#
#         PDG            Width
DECAY        35     5.45287872E+01   # H decays
#          BR         NDA      ID1       ID2
     3.53886751E-01    2           5        -5   # BR(H -> b       bb     )
     6.08046084E-02    2         -15        15   # BR(H -> tau+    tau-   )
     2.14990368E-04    2         -13        13   # BR(H -> mu+     mu-    )
     2.54296527E-04    2           3        -3   # BR(H -> s       sb     )
     7.13227053E-08    2           4        -4   # BR(H -> c       cb     )
     7.14802004E-03    2           6        -6   # BR(H -> t       tb     )
     7.90814131E-07    2          21        21   # BR(H -> g       g      )
     6.58238826E-10    2          22        22   # BR(H -> gam     gam    )
     1.83995629E-09    2          23        22   # BR(H -> Z       gam    )
     1.74892477E-06    2          24       -24   # BR(H -> W+      W-     )
     8.73856708E-07    2          23        23   # BR(H -> Z       Z      )
     6.65397912E-06    2          25        25   # BR(H -> h       h      )
     5.14337559E-24    2          36        36   # BR(H -> A       A      )
     6.15596404E-20    2          23        36   # BR(H -> Z       A      )
     1.86838218E-03    2     1000024  -1000024   # BR(H -> ~chi_1+ ~chi_1-)
     1.60440842E-01    2     1000024  -1000037   # BR(H -> ~chi_1+ ~chi_2-)
     1.60440842E-01    2     1000037  -1000024   # BR(H -> ~chi_2+ ~chi_1-)
     2.78269566E-02    2     1000022   1000022   # BR(H -> ~chi_10 ~chi_10)
     7.23044873E-04    2     1000023   1000023   # BR(H -> ~chi_20 ~chi_20)
     1.78838815E-02    2     1000025   1000025   # BR(H -> ~chi_30 ~chi_30)
     2.08886834E-02    2     1000022   1000023   # BR(H -> ~chi_10 ~chi_20)
     1.98121063E-03    2     1000022   1000025   # BR(H -> ~chi_10 ~chi_30)
     3.62168714E-02    2     1000022   1000035   # BR(H -> ~chi_10 ~chi_40)
     1.73722583E-02    2     1000023   1000025   # BR(H -> ~chi_20 ~chi_30)
     8.10372569E-02    2     1000023   1000035   # BR(H -> ~chi_20 ~chi_40)
     4.36913672E-02    2     1000025   1000035   # BR(H -> ~chi_30 ~chi_40)
     3.02813382E-04    2     1000006  -1000006   # BR(H -> ~t_1    ~t_1*  )
     3.50339073E-03    2     1000006  -2000006   # BR(H -> ~t_1    ~t_2*  )
     3.50339073E-03    2     2000006  -1000006   # BR(H -> ~t_2    ~t_1*  )
#
#         PDG            Width
DECAY        36     5.45227545E+01   # A decays
#          BR         NDA      ID1       ID2
     3.53951641E-01    2           5        -5   # BR(A -> b       bb     )
     6.08116170E-02    2         -15        15   # BR(A -> tau+    tau-   )
     2.15014980E-04    2         -13        13   # BR(A -> mu+     mu-    )
     2.54367134E-04    2           3        -3   # BR(A -> s       sb     )
     7.17941076E-08    2           4        -4   # BR(A -> c       cb     )
     7.16275059E-03    2           6        -6   # BR(A -> t       tb     )
     1.47176411E-05    2          21        21   # BR(A -> g       g      )
     5.84467161E-08    2          22        22   # BR(A -> gam     gam    )
     1.61870317E-08    2          23        22   # BR(A -> Z       gam    )
     1.74546990E-06    2          23        25   # BR(A -> Z       h      )
     1.87889055E-03    2     1000024  -1000024   # BR(A -> ~chi_1+ ~chi_1-)
     1.60455680E-01    2     1000024  -1000037   # BR(A -> ~chi_1+ ~chi_2-)
     1.60455680E-01    2     1000037  -1000024   # BR(A -> ~chi_2+ ~chi_1-)
     2.38725883E-02    2     1000022   1000022   # BR(A -> ~chi_10 ~chi_10)
     9.10691172E-04    2     1000023   1000023   # BR(A -> ~chi_20 ~chi_20)
     1.48850459E-02    2     1000025   1000025   # BR(A -> ~chi_30 ~chi_30)
     2.58074026E-02    2     1000022   1000023   # BR(A -> ~chi_10 ~chi_20)
     1.51162004E-03    2     1000022   1000025   # BR(A -> ~chi_10 ~chi_30)
     3.76838972E-02    2     1000022   1000035   # BR(A -> ~chi_10 ~chi_40)
     1.96960248E-02    2     1000023   1000025   # BR(A -> ~chi_20 ~chi_30)
     7.79582760E-02    2     1000023   1000035   # BR(A -> ~chi_20 ~chi_40)
     4.52557176E-02    2     1000025   1000035   # BR(A -> ~chi_30 ~chi_40)
     3.60824324E-03    2     1000006  -2000006   # BR(A -> ~t_1    ~t_2*  )
     3.60824324E-03    2    -1000006   2000006   # BR(A -> ~t_1*   ~t_2   )
#
#         PDG            Width
DECAY        37     5.44862154E+01   # H+ decays
#          BR         NDA      ID1       ID2
     5.65577800E-04    2           4        -5   # BR(H+ -> c       bb     )
     6.08676108E-02    2         -15        16   # BR(H+ -> tau+    nu_tau )
     2.15212960E-04    2         -13        14   # BR(H+ -> mu+     nu_mu  )
     3.61969483E-06    2           2        -5   # BR(H+ -> u       bb     )
     1.21922287E-05    2           2        -3   # BR(H+ -> u       sb     )
     2.50833352E-04    2           4        -3   # BR(H+ -> c       sb     )
     3.60282200E-01    2           6        -5   # BR(H+ -> t       bb     )
     1.74856208E-06    2          24        25   # BR(H+ -> W+      h      )
     2.41497568E-14    2          24        36   # BR(H+ -> W+      A      )
     4.83031680E-02    2     1000024   1000022   # BR(H+ -> ~chi_1+ ~chi_10)
     6.30898922E-06    2     1000024   1000023   # BR(H+ -> ~chi_1+ ~chi_20)
     3.90466864E-02    2     1000024   1000025   # BR(H+ -> ~chi_1+ ~chi_30)
     1.60771283E-01    2     1000024   1000035   # BR(H+ -> ~chi_1+ ~chi_40)
     7.40696443E-02    2     1000037   1000022   # BR(H+ -> ~chi_2+ ~chi_10)
     1.59174907E-01    2     1000037   1000023   # BR(H+ -> ~chi_2+ ~chi_20)
     8.91671907E-02    2     1000037   1000025   # BR(H+ -> ~chi_2+ ~chi_30)
     7.26181572E-03    2     1000006  -1000005   # BR(H+ -> ~t_1    ~b_1*  )
