#
#                              ======================
#                              | THE SUSYHIT OUTPUT |
#                              ======================
#
#
#              ------------------------------------------------------
#              |     This is the output of the SUSY-HIT package     |
#              |  created by A.Djouadi, M.Muehlleitner and M.Spira. |
#              |  In case of problems with SUSY-HIT email to        |
#              |           margarete.muehlleitner@kit.edu           |
#              |           michael.spira@psi.ch                     |
#              |           abdelhak.djouadi@cern.ch                 |
#              ------------------------------------------------------
#
#              ------------------------------------------------------
#              |  SUSY Les Houches Accord - MSSM Spectrum + Decays  |
#              |              based on the decay programs           |
#              |                                                    |
#              |                     SDECAY 1.5                     |
#              |                                                    |
#              |  Authors: M.Muhlleitner, A.Djouadi and Y.Mambrini  |
#              |  Ref.:    Comput.Phys.Commun.168(2005)46           |
#              |           [hep-ph/0311167]                         |
#              |                                                    |
#              |                     HDECAY 3.4                     |
#              |                                                    |
#              |  By: A.Djouadi,J.Kalinowski,M.Muhlleitner,M.Spira  |
#              |  Ref.:    Comput.Phys.Commun.108(1998)56           |
#              |           [hep-ph/9704448]                         |
#              |                                                    |
#              |                                                    |
#              |  If not stated otherwise all DRbar couplings and   |
#              |  soft SUSY breaking masses are given at the scale  |
#              |  Q=  0.15954477E+04
#              |                                                    |
#              ------------------------------------------------------
#
#
BLOCK DCINFO  # Decay Program information
     1   SDECAY/HDECAY # decay calculator
     2   1.5  /3.4    # version number
#
BLOCK SPINFO  # Spectrum calculator information
     1    SOFTSUSY    # spectrum calculator                
     2    3.7.3       # version number                     
#
BLOCK MODSEL  # Model selection
     1     0   #  nonUniversal                                     
#
BLOCK SMINPUTS  # Standard Model inputs
         1     1.27934000E+02   # alpha_em^-1(M_Z)^MSbar
         2     1.16639000E-05   # G_F [GeV^-2]
         3     1.17200000E-01   # alpha_S(M_Z)^MSbar
         4     9.11870000E+01   # M_Z pole mass
         5     4.19000000E+00   # mb(mb)^MSbar
         6     1.72500000E+02   # mt pole mass
         7     1.77690000E+00   # mtau pole mass
#
BLOCK MINPAR  # Input parameters - minimal models
         3     2.00000000E+01   # tanb                
#
BLOCK EXTPAR  # Input parameters - non-minimal models
         0    -1.00000000E+00   # Set                 
         1     9.99000000E+01   # M_1(MX)             
         2     1.99900000E+02   # M_2(MX)             
         3     2.20000000E+03   # M_3(MX)             
        11     3.24338000E+03   # At(MX)              
        12     0.00000000E+00   # Ab(MX)              
        13     0.00000000E+00   # Atau(MX)            
        23     3.00000000E+03   # mu(MX)              
        25     2.00000000E+01   # tan                 
        26     3.00000000E+03   # mA(pole)            
        31     3.00000000E+03   # meL(MX)             
        32     3.00000000E+03   # mmuL(MX)            
        33     3.00000000E+03   # mtauL(MX)           
        34     3.00000000E+03   # meR(MX)             
        35     3.00000000E+03   # mmuR(MX)            
        36     3.00000000E+03   # mtauR(MX)           
        41     3.00000000E+03   # mqL1(MX)            
        42     3.00000000E+03   # mqL2(MX)            
        43     8.49900000E+02   # mqL3(MX)            
        44     3.00000000E+03   # muR(MX)             
        45     3.00000000E+03   # mcR(MX)             
        46     3.00000000E+03   # mtR(MX)             
        47     3.00000000E+03   # mdR(MX)             
        48     3.00000000E+03   # msR(MX)             
        49     3.00000000E+03   # mbR(MX)             
#
BLOCK MASS  # Mass Spectrum
# PDG code           mass       particle
        24     8.03966496E+01   # W+
        25     1.25221497E+02   # h
        35     3.00011370E+03   # H
        36     2.99999984E+03   # A
        37     3.00092572E+03   # H+
         5     4.81337004E+00   # b-quark pole mass calculated from mb(mb)_Msbar
   1000001     3.03892158E+03   # ~d_L
   2000001     3.03374525E+03   # ~d_R
   1000002     3.03800909E+03   # ~u_L
   2000002     3.03486713E+03   # ~u_R
   1000003     3.03892158E+03   # ~s_L
   2000003     3.03374525E+03   # ~s_R
   1000004     3.03800909E+03   # ~c_L
   2000004     3.03486713E+03   # ~c_R
   1000005     9.47799447E+02   # ~b_1
   2000005     3.03281333E+03   # ~b_2
   1000006     9.43677474E+02   # ~t_1
   2000006     3.01674643E+03   # ~t_2
   1000011     3.00637485E+03   # ~e_L
   2000011     3.00204056E+03   # ~e_R
   1000012     3.00497963E+03   # ~nu_eL
   1000013     3.00637485E+03   # ~mu_L
   2000013     3.00204056E+03   # ~mu_R
   1000014     3.00497963E+03   # ~nu_muL
   1000015     2.98578640E+03   # ~tau_1
   2000015     3.02190234E+03   # ~tau_2
   1000016     3.00476464E+03   # ~nu_tauL
   1000021     2.34804499E+03   # ~g
   1000022     1.00202523E+02   # ~chi_10
   1000023     2.15388458E+02   # ~chi_20
   1000025    -2.99597627E+03   # ~chi_30
   1000035     2.99646824E+03   # ~chi_40
   1000024     2.15548306E+02   # ~chi_1+
   1000037     2.99713182E+03   # ~chi_2+
#
BLOCK NMIX  # Neutralino Mixing Matrix
  1  1     9.99888533E-01   # N_11
  1  2    -1.53549923E-03   # N_12
  1  3     1.48003335E-02   # N_13
  1  4    -1.23039160E-03   # N_14
  2  1     1.92614231E-03   # N_21
  2  2     9.99651209E-01   # N_22
  2  3    -2.61632932E-02   # N_23
  2  4     3.03844854E-03   # N_24
  3  1    -9.56722242E-03   # N_31
  3  2     1.63685911E-02   # N_32
  3  3     7.06831013E-01   # N_33
  3  4     7.07128317E-01   # N_34
  4  1    -1.12995452E-02   # N_41
  4  2     2.06681294E-02   # N_42
  4  3     7.06743483E-01   # N_43
  4  4    -7.07077646E-01   # N_44
#
BLOCK UMIX  # Chargino Mixing Matrix U
  1  1     9.99314210E-01   # U_11
  1  2    -3.70284916E-02   # U_12
  2  1     3.70284916E-02   # U_21
  2  2     9.99314210E-01   # U_22
#
BLOCK VMIX  # Chargino Mixing Matrix V
  1  1     9.99990748E-01   # V_11
  1  2    -4.30150339E-03   # V_12
  2  1     4.30150339E-03   # V_21
  2  2     9.99990748E-01   # V_22
#
BLOCK STOPMIX  # Stop Mixing Matrix
  1  1     9.98507385E-01   # cos(theta_t)
  1  2    -5.46168664E-02   # sin(theta_t)
  2  1     5.46168664E-02   # -sin(theta_t)
  2  2     9.98507385E-01   # cos(theta_t)
#
BLOCK SBOTMIX  # Sbottom Mixing Matrix
  1  1     9.99912313E-01   # cos(theta_b)
  1  2     1.32425946E-02   # sin(theta_b)
  2  1    -1.32425946E-02   # -sin(theta_b)
  2  2     9.99912313E-01   # cos(theta_b)
#
BLOCK STAUMIX  # Stau Mixing Matrix
  1  1     7.06913962E-01   # cos(theta_tau)
  1  2     7.07299548E-01   # sin(theta_tau)
  2  1    -7.07299548E-01   # -sin(theta_tau)
  2  2     7.06913962E-01   # cos(theta_tau)
#
BLOCK ALPHA  # Higgs mixing
          -5.01760975E-02   # Mixing angle in the neutral Higgs boson sector
#
BLOCK HMIX Q=  1.59544769E+03  # DRbar Higgs Parameters
         1     3.00000000E+03   # mu(Q)MSSM           
         2     2.00000000E+01   # tan                 
         3     2.44048048E+02   # higgs               
         4     7.57537182E+06   # mA^2(Q)MSSM         
#
BLOCK GAUGE Q=  1.59544769E+03  # The gauge couplings
     1     3.62375538E-01   # gprime(Q) DRbar
     2     6.39982396E-01   # g(Q) DRbar
     3     1.02499131E+00   # g3(Q) DRbar
#
BLOCK AU Q=  1.59544769E+03  # The trilinear couplings
  1  1     2.41876345E-06   # A_u(Q) DRbar
  2  2     2.41879857E-06   # A_c(Q) DRbar
  3  3     3.24338000E+03   # A_t(Q) DRbar
#
BLOCK AD Q=  1.59544769E+03  # The trilinear couplings
  1  1     6.02939645E-07   # A_d(Q) DRbar
  2  2     6.03058845E-07   # A_s(Q) DRbar
  3  3     1.40151248E-06   # A_b(Q) DRbar
#
BLOCK AE Q=  1.59544769E+03  # The trilinear couplings
  1  1     0.00000000E+00   # A_e(Q) DRbar
  2  2     1.32434706E-07   # A_mu(Q) DRbar
  3  3     1.34041204E-07   # A_tau(Q) DRbar
#
BLOCK Yu Q=  1.59544769E+03  # The Yukawa couplings
  1  1     0.00000000E+00   # y_u(Q) DRbar
  2  2     0.00000000E+00   # y_c(Q) DRbar
  3  3     8.51937203E-01   # y_t(Q) DRbar
#
BLOCK Yd Q=  1.59544769E+03  # The Yukawa couplings
  1  1     0.00000000E+00   # y_d(Q) DRbar
  2  2     0.00000000E+00   # y_s(Q) DRbar
  3  3     2.11989072E-01   # y_b(Q) DRbar
#
BLOCK Ye Q=  1.59544769E+03  # The Yukawa couplings
  1  1     0.00000000E+00   # y_e(Q) DRbar
  2  2     0.00000000E+00   # y_mu(Q) DRbar
  3  3     2.05317275E-01   # y_tau(Q) DRbar
#
BLOCK MSOFT Q=  1.59544769E+03  # The soft SUSY breaking masses at the scale Q
         1     9.99000000E+01   # M_1(Q)              
         2     1.99900000E+02   # M_2(Q)              
         3     2.20000000E+03   # M_3(Q)              
        21    -8.21449727E+04   # M^2_Hd              
        22    -9.05241446E+06   # M^2_Hu              
        31     3.00000000E+03   # M_eL                
        32     3.00000000E+03   # M_muL               
        33     3.00000000E+03   # M_tauL              
        34     3.00000000E+03   # M_eR                
        35     3.00000000E+03   # M_muR               
        36     3.00000000E+03   # M_tauR              
        41     3.00000000E+03   # M_q1L               
        42     3.00000000E+03   # M_q2L               
        43     8.49899994E+02   # M_q3L               
        44     3.00000000E+03   # M_uR                
        45     3.00000000E+03   # M_cR                
        46     3.00000000E+03   # M_tR                
        47     3.00000000E+03   # M_dR                
        48     3.00000000E+03   # M_sR                
        49     3.00000000E+03   # M_bR                
#
#
#
#                             =================
#                             |The decay table|
#                             =================
#
# - The QCD corrections to the decays gluino -> squark  + quark
#                                     squark -> gaugino + quark_prime
#                                     squark -> squark_prime + Higgs
#                                     squark -> gluino  + quark
#   are included.
#
# - The multi-body decays for the inos, stops and sbottoms are included.
#
# - The loop induced decays for the gluino, neutralinos and stops
#   are included.
#
# - The SUSY decays of the top quark are included.
#
#
#         PDG            Width
DECAY         6     1.42187025E+00   # top decays
#          BR         NDA      ID1       ID2
     1.00000000E+00    2           5        24   # BR(t ->  b    W+)
#
#         PDG            Width
DECAY   1000021     6.69103768E+01   # gluino decays
#          BR         NDA      ID1       ID2
     2.47716310E-01    2     1000005        -5   # BR(~g -> ~b_1  bb)
     2.47716310E-01    2    -1000005         5   # BR(~g -> ~b_1* b )
     2.52283690E-01    2     1000006        -6   # BR(~g -> ~t_1  tb)
     2.52283690E-01    2    -1000006         6   # BR(~g -> ~t_1* t )
#
#         PDG            Width
DECAY   1000006     1.04995072E+01   # stop1 decays
#          BR         NDA      ID1       ID2
     1.24019567E-02    2     1000022         6   # BR(~t_1 -> ~chi_10 t )
     3.14575167E-01    2     1000023         6   # BR(~t_1 -> ~chi_20 t )
     6.73022877E-01    2     1000024         5   # BR(~t_1 -> ~chi_1+ b )
#
#         PDG            Width
DECAY   2000006     1.13433063E+02   # stop2 decays
#          BR         NDA      ID1       ID2
     5.82123899E-02    2     1000022         6   # BR(~t_2 -> ~chi_10 t )
     3.31678047E-04    2     1000023         6   # BR(~t_2 -> ~chi_20 t )
     0.00000000E+00    2     1000025         6   # BR(~t_2 -> ~chi_30 t )
     6.65836959E-04    2     1000024         5   # BR(~t_2 -> ~chi_1+ b )
     6.84691638E-05    2     1000037         5   # BR(~t_2 -> ~chi_2+ b )
     2.94690881E-01    2     1000021         6   # BR(~t_2 -> ~g      t )
     1.69281096E-01    2     1000006        25   # BR(~t_2 -> ~t_1    h )
     1.60890303E-01    2     1000006        23   # BR(~t_2 -> ~t_1    Z )
     3.15859346E-01    2     1000005        24   # BR(~t_2 -> ~b_1    W+)
#
#         PDG            Width
DECAY   1000005     1.03550690E+01   # sbottom1 decays
#          BR         NDA      ID1       ID2
     1.35869705E-02    2     1000022         5   # BR(~b_1 -> ~chi_10 b )
     3.43655338E-01    2     1000023         5   # BR(~b_1 -> ~chi_20 b )
     6.42757691E-01    2    -1000024         6   # BR(~b_1 -> ~chi_1- t )
#
#         PDG            Width
DECAY   2000005     4.19215560E+01   # sbottom2 decays
#          BR         NDA      ID1       ID2
     3.98508570E-02    2     1000022         5   # BR(~b_2 -> ~chi_10 b )
     3.50431460E-07    2     1000023         5   # BR(~b_2 -> ~chi_20 b )
     1.99117701E-05    2     1000025         5   # BR(~b_2 -> ~chi_30 b )
     1.96279995E-05    2     1000035         5   # BR(~b_2 -> ~chi_40 b )
     2.53169034E-07    2    -1000024         6   # BR(~b_2 -> ~chi_1- t )
     8.31683268E-01    2     1000021         5   # BR(~b_2 -> ~g      b )
     2.82035226E-02    2     1000005        25   # BR(~b_2 -> ~b_1    h )
     4.10875257E-02    2     1000005        23   # BR(~b_2 -> ~b_1    Z )
     5.91346830E-02    2     1000006       -24   # BR(~b_2 -> ~t_1    W-)
#
#         PDG            Width
DECAY   1000002     7.07013408E+01   # sup_L decays
#          BR         NDA      ID1       ID2
     5.82479624E-03    2     1000022         2   # BR(~u_L -> ~chi_10 u)
     1.65089357E-01    2     1000023         2   # BR(~u_L -> ~chi_20 u)
     3.06858850E-08    2     1000025         2   # BR(~u_L -> ~chi_30 u)
     4.85876179E-08    2     1000035         2   # BR(~u_L -> ~chi_40 u)
     3.30158318E-01    2     1000024         1   # BR(~u_L -> ~chi_1+ d)
     5.07240923E-09    2     1000037         1   # BR(~u_L -> ~chi_2+ d)
     4.98927444E-01    2     1000021         2   # BR(~u_L -> ~g      u)
#
#         PDG            Width
DECAY   2000002     4.17126345E+01   # sup_R decays
#          BR         NDA      ID1       ID2
     1.60395712E-01    2     1000022         2   # BR(~u_R -> ~chi_10 u)
     5.91059963E-07    2     1000023         2   # BR(~u_R -> ~chi_20 u)
     1.10141958E-08    2     1000025         2   # BR(~u_R -> ~chi_30 u)
     1.49887399E-08    2     1000035         2   # BR(~u_R -> ~chi_40 u)
     8.39603671E-01    2     1000021         2   # BR(~u_R -> ~g      u)
#
#         PDG            Width
DECAY   1000001     7.07510752E+01   # sdown_L decays
#          BR         NDA      ID1       ID2
     6.01512401E-03    2     1000022         1   # BR(~d_L -> ~chi_10 d)
     1.64785320E-01    2     1000023         1   # BR(~d_L -> ~chi_20 d)
     4.97779734E-08    2     1000025         1   # BR(~d_L -> ~chi_30 d)
     7.66143034E-08    2     1000035         1   # BR(~d_L -> ~chi_40 d)
     3.29583618E-01    2    -1000024         2   # BR(~d_L -> ~chi_1- u)
     3.91949219E-07    2    -1000037         2   # BR(~d_L -> ~chi_2- u)
     4.99615420E-01    2     1000021         1   # BR(~d_L -> ~g      d)
#
#         PDG            Width
DECAY   2000001     3.66039376E+01   # sdown_R decays
#          BR         NDA      ID1       ID2
     4.56779684E-02    2     1000022         1   # BR(~d_R -> ~chi_10 d)
     1.68322897E-07    2     1000023         1   # BR(~d_R -> ~chi_20 d)
     2.96547897E-09    2     1000025         1   # BR(~d_R -> ~chi_30 d)
     4.03259031E-09    2     1000035         1   # BR(~d_R -> ~chi_40 d)
     9.54321856E-01    2     1000021         1   # BR(~d_R -> ~g      d)
#
#         PDG            Width
DECAY   1000004     7.07013408E+01   # scharm_L decays
#          BR         NDA      ID1       ID2
     5.82479624E-03    2     1000022         4   # BR(~c_L -> ~chi_10 c)
     1.65089357E-01    2     1000023         4   # BR(~c_L -> ~chi_20 c)
     3.06858850E-08    2     1000025         4   # BR(~c_L -> ~chi_30 c)
     4.85876179E-08    2     1000035         4   # BR(~c_L -> ~chi_40 c)
     3.30158318E-01    2     1000024         3   # BR(~c_L -> ~chi_1+ s)
     5.07240923E-09    2     1000037         3   # BR(~c_L -> ~chi_2+ s)
     4.98927444E-01    2     1000021         4   # BR(~c_L -> ~g      c)
#
#         PDG            Width
DECAY   2000004     4.17126345E+01   # scharm_R decays
#          BR         NDA      ID1       ID2
     1.60395712E-01    2     1000022         4   # BR(~c_R -> ~chi_10 c)
     5.91059963E-07    2     1000023         4   # BR(~c_R -> ~chi_20 c)
     1.10141958E-08    2     1000025         4   # BR(~c_R -> ~chi_30 c)
     1.49887399E-08    2     1000035         4   # BR(~c_R -> ~chi_40 c)
     8.39603671E-01    2     1000021         4   # BR(~c_R -> ~g      c)
#
#         PDG            Width
DECAY   1000003     7.07510752E+01   # sstrange_L decays
#          BR         NDA      ID1       ID2
     6.01512401E-03    2     1000022         3   # BR(~s_L -> ~chi_10 s)
     1.64785320E-01    2     1000023         3   # BR(~s_L -> ~chi_20 s)
     4.97779734E-08    2     1000025         3   # BR(~s_L -> ~chi_30 s)
     7.66143034E-08    2     1000035         3   # BR(~s_L -> ~chi_40 s)
     3.29583618E-01    2    -1000024         4   # BR(~s_L -> ~chi_1- c)
     3.91949219E-07    2    -1000037         4   # BR(~s_L -> ~chi_2- c)
     4.99615420E-01    2     1000021         3   # BR(~s_L -> ~g      s)
#
#         PDG            Width
DECAY   2000003     3.66039376E+01   # sstrange_R decays
#          BR         NDA      ID1       ID2
     4.56779684E-02    2     1000022         3   # BR(~s_R -> ~chi_10 s)
     1.68322897E-07    2     1000023         3   # BR(~s_R -> ~chi_20 s)
     2.96547897E-09    2     1000025         3   # BR(~s_R -> ~chi_30 s)
     4.03259031E-09    2     1000035         3   # BR(~s_R -> ~chi_40 s)
     9.54321856E-01    2     1000021         3   # BR(~s_R -> ~g      s)
#
#         PDG            Width
DECAY   1000011     4.02495182E+01   # selectron_L decays
#          BR         NDA      ID1       ID2
     9.68008483E-02    2     1000022        11   # BR(~e_L -> ~chi_10 e-)
     3.01642790E-01    2     1000023        11   # BR(~e_L -> ~chi_20 e-)
     1.74049889E-09    2     1000025        11   # BR(~e_L -> ~chi_30 e-)
     2.68262073E-09    2     1000035        11   # BR(~e_L -> ~chi_40 e-)
     6.01556326E-01    2    -1000024        12   # BR(~e_L -> ~chi_1- nu_e)
     3.14547971E-08    2    -1000037        12   # BR(~e_L -> ~chi_2- nu_e)
#
#         PDG            Width
DECAY   2000011     1.56469964E+01   # selectron_R decays
#          BR         NDA      ID1       ID2
     9.99996316E-01    2     1000022        11   # BR(~e_R -> ~chi_10 e-)
     3.68092894E-06    2     1000023        11   # BR(~e_R -> ~chi_20 e-)
     1.49466636E-09    2     1000025        11   # BR(~e_R -> ~chi_30 e-)
     1.76066958E-09    2     1000035        11   # BR(~e_R -> ~chi_40 e-)
#
#         PDG            Width
DECAY   1000013     4.02495182E+01   # smuon_L decays
#          BR         NDA      ID1       ID2
     9.68008483E-02    2     1000022        13   # BR(~mu_L -> ~chi_10 mu-)
     3.01642790E-01    2     1000023        13   # BR(~mu_L -> ~chi_20 mu-)
     1.74049889E-09    2     1000025        13   # BR(~mu_L -> ~chi_30 mu-)
     2.68262073E-09    2     1000035        13   # BR(~mu_L -> ~chi_40 mu-)
     6.01556326E-01    2    -1000024        14   # BR(~mu_L -> ~chi_1- nu_mu)
     3.14547971E-08    2    -1000037        14   # BR(~mu_L -> ~chi_2- nu_mu)
#
#         PDG            Width
DECAY   2000013     1.56469964E+01   # smuon_R decays
#          BR         NDA      ID1       ID2
     9.99996316E-01    2     1000022        13   # BR(~mu_R -> ~chi_10 mu-)
     3.68092894E-06    2     1000023        13   # BR(~mu_R -> ~chi_20 mu-)
     1.49466636E-09    2     1000025        13   # BR(~mu_R -> ~chi_30 mu-)
     1.76066958E-09    2     1000035        13   # BR(~mu_R -> ~chi_40 mu-)
#
#         PDG            Width
DECAY   1000015     2.82375975E+01   # stau_1 decays
#          BR         NDA      ID1       ID2
     3.45848062E-01    2     1000022        15   # BR(~tau_1 -> ~chi_10  tau-)
     2.18473664E-01    2     1000023        15   # BR(~tau_1 -> ~chi_20  tau-)
     4.35678274E-01    2    -1000024        16   # BR(~tau_1 -> ~chi_1-  nu_tau)
#
#         PDG            Width
DECAY   2000015     2.76371341E+01   # stau_2 decays
#          BR         NDA      ID1       ID2
     3.54010747E-01    2     1000022        15   # BR(~tau_2 -> ~chi_10  tau-)
     2.15763606E-01    2     1000023        15   # BR(~tau_2 -> ~chi_20  tau-)
     1.32899343E-05    2     1000025        15   # BR(~tau_2 -> ~chi_30  tau-)
     1.49144316E-05    2     1000035        15   # BR(~tau_2 -> ~chi_40  tau-)
     4.30182262E-01    2    -1000024        16   # BR(~tau_2 -> ~chi_1-  nu_tau)
     1.51808127E-05    2    -1000037        16   # BR(~tau_2 -> ~chi_2-  nu_tau)
#
#         PDG            Width
DECAY   1000012     4.02528949E+01   # snu_eL decays
#          BR         NDA      ID1       ID2
     9.78028842E-02    2     1000022        12   # BR(~nu_eL -> ~chi_10 nu_e)
     3.00161832E-01    2     1000023        12   # BR(~nu_eL -> ~chi_20 nu_e)
     5.16787711E-09    2     1000025        12   # BR(~nu_eL -> ~chi_30 nu_e)
     7.12989992E-09    2     1000035        12   # BR(~nu_eL -> ~chi_40 nu_e)
     6.02035271E-01    2     1000024        11   # BR(~nu_eL -> ~chi_1+ e-)
     3.06259870E-10    2     1000037        11   # BR(~nu_eL -> ~chi_2+ e-)
#
#         PDG            Width
DECAY   1000014     4.02528949E+01   # snu_muL decays
#          BR         NDA      ID1       ID2
     9.78028842E-02    2     1000022        14   # BR(~nu_muL -> ~chi_10 nu_mu)
     3.00161832E-01    2     1000023        14   # BR(~nu_muL -> ~chi_20 nu_mu)
     5.16787711E-09    2     1000025        14   # BR(~nu_muL -> ~chi_30 nu_mu)
     7.12989992E-09    2     1000035        14   # BR(~nu_muL -> ~chi_40 nu_mu)
     6.02035271E-01    2     1000024        13   # BR(~nu_muL -> ~chi_1+ mu-)
     3.06259870E-10    2     1000037        13   # BR(~nu_muL -> ~chi_2+ mu-)
#
#         PDG            Width
DECAY   1000016     4.02533769E+01   # snu_tauL decays
#          BR         NDA      ID1       ID2
     9.77946849E-02    2     1000022        16   # BR(~nu_tauL -> ~chi_10 nu_tau)
     3.00136320E-01    2     1000023        16   # BR(~nu_tauL -> ~chi_20 nu_tau)
     4.92466294E-09    2     1000025        16   # BR(~nu_tauL -> ~chi_30 nu_tau)
     6.77514695E-09    2     1000035        16   # BR(~nu_tauL -> ~chi_40 nu_tau)
     6.02067408E-01    2     1000024        15   # BR(~nu_tauL -> ~chi_1+ tau-)
     1.57524666E-06    2     1000037        15   # BR(~nu_tauL -> ~chi_2+ tau-)
#
#         PDG            Width
DECAY   1000024     7.62071273E-06   # chargino1+ decays
#          BR         NDA      ID1       ID2
     1.00000000E+00    2     1000022        24   # BR(~chi_1+ -> ~chi_10  W+)
#
#         PDG            Width
DECAY   1000037     8.13769622E+01   # chargino2+ decays
#          BR         NDA      ID1       ID2
     4.63492193E-02    2     1000006        -5   # BR(~chi_2+ -> ~t_1     bb)
     7.10743059E-01    2    -1000005         6   # BR(~chi_2+ -> ~b_1*    t )
     3.44722188E-07    2    -1000015        16   # BR(~chi_2+ -> ~tau_1+  nu_tau)
     7.31156032E-02    2     1000024        23   # BR(~chi_2+ -> ~chi_1+  Z )
     2.26397967E-02    2     1000022        24   # BR(~chi_2+ -> ~chi_10  W+)
     7.14288076E-02    2     1000023        24   # BR(~chi_2+ -> ~chi_20  W+)
     7.57231691E-02    2     1000024        25   # BR(~chi_2+ -> ~chi_1+  h )
#
#         PDG            Width
DECAY   1000022     0.00000000E+00   # neutralino1 decays
#
#         PDG            Width
DECAY   1000023     2.76309367E-07   # neutralino2 decays
#          BR         NDA      ID1       ID2
     1.00000000E+00    2     1000022        23   # BR(~chi_20 -> ~chi_10   Z )
#
#         PDG            Width
DECAY   1000025     8.17492708E+01   # neutralino3 decays
#          BR         NDA      ID1       ID2
     1.36167239E-02    2     1000022        23   # BR(~chi_30 -> ~chi_10   Z )
     4.46278701E-02    2     1000023        23   # BR(~chi_30 -> ~chi_20   Z )
     7.09508744E-02    2     1000024       -24   # BR(~chi_30 -> ~chi_1+   W-)
     7.09508744E-02    2    -1000024        24   # BR(~chi_30 -> ~chi_1-   W+)
     1.00683250E-02    2     1000022        25   # BR(~chi_30 -> ~chi_10   h )
     2.86019032E-02    2     1000023        25   # BR(~chi_30 -> ~chi_20   h )
     3.58584223E-01    2     1000006        -6   # BR(~chi_30 -> ~t_1      tb)
     3.58584223E-01    2    -1000006         6   # BR(~chi_30 -> ~t_1*     t )
     2.20072230E-02    2     1000005        -5   # BR(~chi_30 -> ~b_1      bb)
     2.20072230E-02    2    -1000005         5   # BR(~chi_30 -> ~b_1*     b )
     2.68540113E-07    2     1000015       -15   # BR(~chi_30 -> ~tau_1-   tau+)
     2.68540113E-07    2    -1000015        15   # BR(~chi_30 -> ~tau_1+   tau-)
#
#         PDG            Width
DECAY   1000035     8.07253829E+01   # neutralino4 decays
#          BR         NDA      ID1       ID2
     9.88551401E-03    2     1000022        23   # BR(~chi_40 -> ~chi_10   Z )
     2.83652730E-02    2     1000023        23   # BR(~chi_40 -> ~chi_20   Z )
     7.18709906E-02    2     1000024       -24   # BR(~chi_40 -> ~chi_1+   W-)
     7.18709906E-02    2    -1000024        24   # BR(~chi_40 -> ~chi_1-   W+)
     1.42470625E-02    2     1000022        25   # BR(~chi_40 -> ~chi_10   h )
     4.72289221E-02    2     1000023        25   # BR(~chi_40 -> ~chi_20   h )
     3.55957589E-01    2     1000006        -6   # BR(~chi_40 -> ~t_1      tb)
     3.55957589E-01    2    -1000006         6   # BR(~chi_40 -> ~t_1*     t )
     2.23076192E-02    2     1000005        -5   # BR(~chi_40 -> ~b_1      bb)
     2.23076192E-02    2    -1000005         5   # BR(~chi_40 -> ~b_1*     b )
     4.15592880E-07    2     1000015       -15   # BR(~chi_40 -> ~tau_1-   tau+)
     4.15592880E-07    2    -1000015        15   # BR(~chi_40 -> ~tau_1+   tau-)
#
#         PDG            Width
DECAY        25     4.84458205E-03   # h decays
#          BR         NDA      ID1       ID2
     6.68261479E-01    2           5        -5   # BR(h -> b       bb     )
     5.39655007E-02    2         -15        15   # BR(h -> tau+    tau-   )
     1.91038655E-04    2         -13        13   # BR(h -> mu+     mu-    )
     4.05308014E-04    2           3        -3   # BR(h -> s       sb     )
     1.74996194E-02    2           4        -4   # BR(h -> c       cb     )
     5.71074242E-02    2          21        21   # BR(h -> g       g      )
     1.95884584E-03    2          22        22   # BR(h -> gam     gam    )
     1.31542887E-03    2          22        23   # BR(h -> Z       gam    )
     1.77085226E-01    2          24       -24   # BR(h -> W+      W-     )
     2.22101297E-02    2          23        23   # BR(h -> Z       Z      )
#
#         PDG            Width
DECAY        35     1.41165488E+01   # H decays
#          BR         NDA      ID1       ID2
     7.37187010E-01    2           5        -5   # BR(H -> b       bb     )
     1.76158532E-01    2         -15        15   # BR(H -> tau+    tau-   )
     6.22854474E-04    2         -13        13   # BR(H -> mu+     mu-    )
     7.64866052E-04    2           3        -3   # BR(H -> s       sb     )
     2.15778784E-07    2           4        -4   # BR(H -> c       cb     )
     2.15253205E-02    2           6        -6   # BR(H -> t       tb     )
     2.98886749E-05    2          21        21   # BR(H -> g       g      )
     1.47057823E-08    2          22        22   # BR(H -> gam     gam    )
     8.29873601E-09    2          23        22   # BR(H -> Z       gam    )
     2.96228077E-05    2          24       -24   # BR(H -> W+      W-     )
     1.47931349E-05    2          23        23   # BR(H -> Z       Z      )
     7.95350982E-05    2          25        25   # BR(H -> h       h      )
     5.25116335E-24    2          36        36   # BR(H -> A       A      )
     1.61853102E-18    2          23        36   # BR(H -> Z       A      )
     2.36229434E-03    2     1000024  -1000024   # BR(H -> ~chi_1+ ~chi_1-)
     1.11779843E-04    2     1000022   1000022   # BR(H -> ~chi_10 ~chi_10)
     1.17618059E-03    2     1000023   1000023   # BR(H -> ~chi_20 ~chi_20)
     7.26818811E-04    2     1000022   1000023   # BR(H -> ~chi_10 ~chi_20)
     5.92047018E-02    2     1000006  -1000006   # BR(H -> ~t_1    ~t_1*  )
     5.56245225E-06    2     1000005  -1000005   # BR(H -> ~b_1    ~b_1*  )
#
#         PDG            Width
DECAY        36     1.32833705E+01   # A decays
#          BR         NDA      ID1       ID2
     7.83501931E-01    2           5        -5   # BR(A -> b       bb     )
     1.87205037E-01    2         -15        15   # BR(A -> tau+    tau-   )
     6.61911351E-04    2         -13        13   # BR(A -> mu+     mu-    )
     8.12964592E-04    2           3        -3   # BR(A -> s       sb     )
     2.29407084E-07    2           4        -4   # BR(A -> c       cb     )
     2.28722339E-02    2           6        -6   # BR(A -> t       tb     )
     6.73565428E-05    2          21        21   # BR(A -> g       g      )
     3.34209197E-08    2          22        22   # BR(A -> gam     gam    )
     6.63012379E-08    2          23        22   # BR(A -> Z       gam    )
     3.13606982E-05    2          23        25   # BR(A -> Z       h      )
     2.62369647E-03    2     1000024  -1000024   # BR(A -> ~chi_1+ ~chi_1-)
     1.21326468E-04    2     1000022   1000022   # BR(A -> ~chi_10 ~chi_10)
     1.30630309E-03    2     1000023   1000023   # BR(A -> ~chi_20 ~chi_20)
     7.95549606E-04    2     1000022   1000023   # BR(A -> ~chi_10 ~chi_20)
#
#         PDG            Width
DECAY        37     1.03016908E+01   # H+ decays
#          BR         NDA      ID1       ID2
     1.09696780E-03    2           4        -5   # BR(H+ -> c       bb     )
     2.41463406E-01    2         -15        16   # BR(H+ -> tau+    nu_tau )
     8.53755708E-04    2         -13        14   # BR(H+ -> mu+     nu_mu  )
     7.02058296E-06    2           2        -5   # BR(H+ -> u       bb     )
     5.01733981E-05    2           2        -3   # BR(H+ -> u       sb     )
     1.03222814E-03    2           4        -3   # BR(H+ -> c       sb     )
     7.13564251E-01    2           6        -5   # BR(H+ -> t       bb     )
     4.05003879E-05    2          24        25   # BR(H+ -> W+      h      )
     8.69075966E-14    2          24        36   # BR(H+ -> W+      A      )
     2.01407148E-03    2     1000024   1000022   # BR(H+ -> ~chi_1+ ~chi_10)
     7.46717004E-09    2     1000024   1000023   # BR(H+ -> ~chi_1+ ~chi_20)
     3.98776178E-02    2     1000006  -1000005   # BR(H+ -> ~t_1    ~b_1*  )
