#
#                              ======================
#                              | THE SUSYHIT OUTPUT |
#                              ======================
#
#
#              ------------------------------------------------------
#              |     This is the output of the SUSY-HIT package     |
#              |  created by A.Djouadi, M.Muehlleitner and M.Spira. |
#              |  In case of problems with SUSY-HIT email to        |
#              |           margarete.muehlleitner@kit.edu           |
#              |           michael.spira@psi.ch                     |
#              |           abdelhak.djouadi@cern.ch                 |
#              ------------------------------------------------------
#
#              ------------------------------------------------------
#              |  SUSY Les Houches Accord - MSSM Spectrum + Decays  |
#              |              based on the decay programs           |
#              |                                                    |
#              |                     SDECAY 1.5                     |
#              |                                                    |
#              |  Authors: M.Muhlleitner, A.Djouadi and Y.Mambrini  |
#              |  Ref.:    Comput.Phys.Commun.168(2005)46           |
#              |           [hep-ph/0311167]                         |
#              |                                                    |
#              |                     HDECAY 3.4                     |
#              |                                                    |
#              |  By: A.Djouadi,J.Kalinowski,M.Muhlleitner,M.Spira  |
#              |  Ref.:    Comput.Phys.Commun.108(1998)56           |
#              |           [hep-ph/9704448]                         |
#              |                                                    |
#              |                                                    |
#              |  If not stated otherwise all DRbar couplings and   |
#              |  soft SUSY breaking masses are given at the scale  |
#              |  Q=  0.13089082E+04
#              |                                                    |
#              ------------------------------------------------------
#
#
BLOCK DCINFO  # Decay Program information
     1   SDECAY/HDECAY # decay calculator
     2   1.5  /3.4    # version number
#
BLOCK SPINFO  # Spectrum calculator information
     1    SOFTSUSY    # spectrum calculator                
     2    3.7.3       # version number                     
#
BLOCK MODSEL  # Model selection
     1     0   #  nonUniversal                                     
#
BLOCK SMINPUTS  # Standard Model inputs
         1     1.27934000E+02   # alpha_em^-1(M_Z)^MSbar
         2     1.16639000E-05   # G_F [GeV^-2]
         3     1.17200000E-01   # alpha_S(M_Z)^MSbar
         4     9.11870000E+01   # M_Z pole mass
         5     4.19000000E+00   # mb(mb)^MSbar
         6     1.72500000E+02   # mt pole mass
         7     1.77690000E+00   # mtau pole mass
#
BLOCK MINPAR  # Input parameters - minimal models
         3     2.00000000E+01   # tanb                
#
BLOCK EXTPAR  # Input parameters - non-minimal models
         0    -1.00000000E+00   # Set                 
         1     2.09990000E+02   # M_1(MX)             
         2     2.00000000E+03   # M_2(MX)             
         3     1.80000000E+03   # M_3(MX)             
        11     2.64959179E+03   # At(MX)              
        12     0.00000000E+00   # Ab(MX)              
        13     0.00000000E+00   # Atau(MX)            
        23    -2.59900000E+02   # mu(MX)              
        25     2.00000000E+01   # tan                 
        26     4.00000000E+03   # mA(pole)            
        31     4.00000000E+03   # meL(MX)             
        32     4.00000000E+03   # mmuL(MX)            
        33     4.00000000E+03   # mtauL(MX)           
        34     4.00000000E+03   # meR(MX)             
        35     4.00000000E+03   # mmuR(MX)            
        36     4.00000000E+03   # mtauR(MX)           
        41     4.00000000E+03   # mqL1(MX)            
        42     4.00000000E+03   # mqL2(MX)            
        43     8.09900000E+02   # mqL3(MX)            
        44     4.00000000E+03   # muR(MX)             
        45     4.00000000E+03   # mcR(MX)             
        46     2.13485961E+03   # mtR(MX)             
        47     4.00000000E+03   # mdR(MX)             
        48     4.00000000E+03   # msR(MX)             
        49     4.00000000E+03   # mbR(MX)             
#
BLOCK MASS  # Mass Spectrum
# PDG code           mass       particle
        24     8.04162243E+01   # W+
        25     1.25670857E+02   # h
        35     4.00000668E+03   # H
        36     3.99999685E+03   # A
        37     4.00104755E+03   # H+
         5     4.81337004E+00   # b-quark pole mass calculated from mb(mb)_Msbar
   1000001     4.02612061E+03   # ~d_L
   2000001     4.02269134E+03   # ~d_R
   1000002     4.02546665E+03   # ~u_L
   2000002     4.02364200E+03   # ~u_R
   1000003     4.02612061E+03   # ~s_L
   2000003     4.02269134E+03   # ~s_R
   1000004     4.02546665E+03   # ~c_L
   2000004     4.02364200E+03   # ~c_R
   1000005     8.78413221E+02   # ~b_1
   2000005     4.02548204E+03   # ~b_2
   1000006     8.64441032E+02   # ~t_1
   2000006     2.14836848E+03   # ~t_2
   1000011     4.00470398E+03   # ~e_L
   2000011     4.00328560E+03   # ~e_R
   1000012     4.00358820E+03   # ~nu_eL
   1000013     4.00470398E+03   # ~mu_L
   2000013     4.00328560E+03   # ~mu_R
   1000014     4.00358820E+03   # ~nu_muL
   1000015     4.00497679E+03   # ~tau_1
   2000015     4.00727569E+03   # ~tau_2
   1000016     4.00500949E+03   # ~nu_tauL
   1000021     1.98060713E+03   # ~g
   1000022     2.01509316E+02   # ~chi_10
   1000023    -2.70475913E+02   # ~chi_20
   1000025     2.79113693E+02   # ~chi_30
   1000035     2.05224942E+03   # ~chi_40
   1000024     2.67400258E+02   # ~chi_1+
   1000037     2.05241438E+03   # ~chi_2+
#
BLOCK NMIX  # Neutralino Mixing Matrix
  1  1     8.96925420E-01   # N_11
  1  2    -1.05344699E-02   # N_12
  1  3    -3.55373185E-01   # N_13
  1  4    -2.62913893E-01   # N_14
  2  1    -6.92510191E-02   # N_21
  2  2     2.54776695E-02   # N_22
  2  3    -7.00607278E-01   # N_23
  2  4     7.09721513E-01   # N_24
  3  1     4.36724368E-01   # N_31
  3  2     2.78614568E-02   # N_32
  3  3     6.18748342E-01   # N_33
  3  4     6.52415554E-01   # N_34
  4  1    -9.55523034E-04   # N_41
  4  2     9.99231531E-01   # N_42
  4  3    -3.13546714E-03   # N_43
  4  4    -3.90589720E-02   # N_44
#
BLOCK UMIX  # Chargino Mixing Matrix U
  1  1     4.43939041E-03   # U_11
  1  2     9.99990146E-01   # U_12
  2  1    -9.99990146E-01   # U_21
  2  2     4.43939041E-03   # U_22
#
BLOCK VMIX  # Chargino Mixing Matrix V
  1  1     5.52501458E-02   # V_11
  1  2    -9.98472544E-01   # V_12
  2  1    -9.98472544E-01   # V_21
  2  2    -5.52501458E-02   # V_22
#
BLOCK STOPMIX  # Stop Mixing Matrix
  1  1     9.94966489E-01   # cos(theta_t)
  1  2    -1.00208212E-01   # sin(theta_t)
  2  1     1.00208212E-01   # -sin(theta_t)
  2  2     9.94966489E-01   # cos(theta_t)
#
BLOCK SBOTMIX  # Sbottom Mixing Matrix
  1  1     9.99999662E-01   # cos(theta_b)
  1  2    -8.22192122E-04   # sin(theta_b)
  2  1     8.22192122E-04   # -sin(theta_b)
  2  2     9.99999662E-01   # cos(theta_b)
#
BLOCK STAUMIX  # Stau Mixing Matrix
  1  1    -7.05382232E-01   # cos(theta_tau)
  1  2     7.08827135E-01   # sin(theta_tau)
  2  1    -7.08827135E-01   # -sin(theta_tau)
  2  2    -7.05382232E-01   # cos(theta_tau)
#
BLOCK ALPHA  # Higgs mixing
          -5.00292604E-02   # Mixing angle in the neutral Higgs boson sector
#
BLOCK HMIX Q=  1.30890820E+03  # DRbar Higgs Parameters
         1    -2.59900000E+02   # mu(Q)MSSM           
         2     2.00000000E+01   # tan                 
         3     2.43620448E+02   # higgs               
         4     1.61143645E+07   # mA^2(Q)MSSM         
#
BLOCK GAUGE Q=  1.30890820E+03  # The gauge couplings
     1     3.62002665E-01   # gprime(Q) DRbar
     2     6.36522570E-01   # g(Q) DRbar
     3     1.03002628E+00   # g3(Q) DRbar
#
BLOCK AU Q=  1.30890820E+03  # The trilinear couplings
  1  1     1.38663964E-06   # A_u(Q) DRbar
  2  2     1.38665304E-06   # A_c(Q) DRbar
  3  3     2.64959179E+03   # A_t(Q) DRbar
#
BLOCK AD Q=  1.30890820E+03  # The trilinear couplings
  1  1     5.08832450E-07   # A_d(Q) DRbar
  2  2     5.08880113E-07   # A_s(Q) DRbar
  3  3     9.11344553E-07   # A_b(Q) DRbar
#
BLOCK AE Q=  1.30890820E+03  # The trilinear couplings
  1  1     0.00000000E+00   # A_e(Q) DRbar
  2  2     1.10288128E-07   # A_mu(Q) DRbar
  3  3     1.11416796E-07   # A_tau(Q) DRbar
#
BLOCK Yu Q=  1.30890820E+03  # The Yukawa couplings
  1  1     0.00000000E+00   # y_u(Q) DRbar
  2  2     0.00000000E+00   # y_c(Q) DRbar
  3  3     8.66898428E-01   # y_t(Q) DRbar
#
BLOCK Yd Q=  1.30890820E+03  # The Yukawa couplings
  1  1     0.00000000E+00   # y_d(Q) DRbar
  2  2     0.00000000E+00   # y_s(Q) DRbar
  3  3     2.82126135E-01   # y_b(Q) DRbar
#
BLOCK Ye Q=  1.30890820E+03  # The Yukawa couplings
  1  1     0.00000000E+00   # y_e(Q) DRbar
  2  2     0.00000000E+00   # y_mu(Q) DRbar
  3  3     2.03702700E-01   # y_tau(Q) DRbar
#
BLOCK MSOFT Q=  1.30890820E+03  # The soft SUSY breaking masses at the scale Q
         1     2.09990000E+02   # M_1(Q)              
         2     2.00000000E+03   # M_2(Q)              
         3     1.80000000E+03   # M_3(Q)              
        21     1.58229607E+07   # M^2_Hd              
        22    -5.44462034E+04   # M^2_Hu              
        31     4.00000000E+03   # M_eL                
        32     4.00000000E+03   # M_muL               
        33     4.00000000E+03   # M_tauL              
        34     4.00000000E+03   # M_eR                
        35     4.00000000E+03   # M_muR               
        36     4.00000000E+03   # M_tauR              
        41     4.00000000E+03   # M_q1L               
        42     4.00000000E+03   # M_q2L               
        43     8.09899996E+02   # M_q3L               
        44     4.00000000E+03   # M_uR                
        45     4.00000000E+03   # M_cR                
        46     2.13485961E+03   # M_tR                
        47     4.00000000E+03   # M_dR                
        48     4.00000000E+03   # M_sR                
        49     4.00000000E+03   # M_bR                
#
#
#
#                             =================
#                             |The decay table|
#                             =================
#
# - The QCD corrections to the decays gluino -> squark  + quark
#                                     squark -> gaugino + quark_prime
#                                     squark -> squark_prime + Higgs
#                                     squark -> gluino  + quark
#   are included.
#
# - The multi-body decays for the inos, stops and sbottoms are included.
#
# - The loop induced decays for the gluino, neutralinos and stops
#   are included.
#
# - The SUSY decays of the top quark are included.
#
#
#         PDG            Width
DECAY         6     1.40568086E+00   # top decays
#          BR         NDA      ID1       ID2
     1.00000000E+00    2           5        24   # BR(t ->  b    W+)
#
#         PDG            Width
DECAY   1000021     5.48503839E+01   # gluino decays
#          BR         NDA      ID1       ID2
     2.43779428E-01    2     1000005        -5   # BR(~g -> ~b_1  bb)
     2.43779428E-01    2    -1000005         5   # BR(~g -> ~b_1* b )
     2.56220572E-01    2     1000006        -6   # BR(~g -> ~t_1  tb)
     2.56220572E-01    2    -1000006         6   # BR(~g -> ~t_1* t )
#
#         PDG            Width
DECAY   1000006     1.06904487E+01   # stop1 decays
#          BR         NDA      ID1       ID2
     6.74713836E-02    2     1000022         6   # BR(~t_1 -> ~chi_10 t )
     4.35970232E-01    2     1000023         6   # BR(~t_1 -> ~chi_20 t )
     3.92478835E-01    2     1000025         6   # BR(~t_1 -> ~chi_30 t )
     1.04079549E-01    2     1000024         5   # BR(~t_1 -> ~chi_1+ b )
#
#         PDG            Width
DECAY   2000006     1.12312133E+02   # stop2 decays
#          BR         NDA      ID1       ID2
     5.18439903E-02    2     1000022         6   # BR(~t_2 -> ~chi_10 t )
     1.29746136E-01    2     1000023         6   # BR(~t_2 -> ~chi_20 t )
     1.12342669E-01    2     1000025         6   # BR(~t_2 -> ~chi_30 t )
     2.55461067E-01    2     1000024         5   # BR(~t_2 -> ~chi_1+ b )
     3.82668020E-07    2     1000037         5   # BR(~t_2 -> ~chi_2+ b )
     1.68630511E-01    2     1000006        25   # BR(~t_2 -> ~t_1    h )
     8.69830028E-02    2     1000006        23   # BR(~t_2 -> ~t_1    Z )
     1.94992240E-01    2     1000005        24   # BR(~t_2 -> ~b_1    W+)
#
#         PDG            Width
DECAY   1000005     1.10733685E+01   # sbottom1 decays
#          BR         NDA      ID1       ID2
     2.35363124E-02    2     1000022         5   # BR(~b_1 -> ~chi_10 b )
     4.96314296E-02    2     1000023         5   # BR(~b_1 -> ~chi_20 b )
     3.85988263E-02    2     1000025         5   # BR(~b_1 -> ~chi_30 b )
     8.88233432E-01    2    -1000024         6   # BR(~b_1 -> ~chi_1- t )
#
#         PDG            Width
DECAY   2000005     1.66690950E+02   # sbottom2 decays
#          BR         NDA      ID1       ID2
     1.53572604E-02    2     1000022         5   # BR(~b_2 -> ~chi_10 b )
     1.78025952E-02    2     1000023         5   # BR(~b_2 -> ~chi_20 b )
     1.63822049E-02    2     1000025         5   # BR(~b_2 -> ~chi_30 b )
     3.79292214E-07    2     1000035         5   # BR(~b_2 -> ~chi_40 b )
     3.60361768E-02    2    -1000024         6   # BR(~b_2 -> ~chi_1- t )
     7.44463000E-07    2    -1000037         6   # BR(~b_2 -> ~chi_2- t )
     9.14100603E-01    2     1000021         5   # BR(~b_2 -> ~g      b )
     7.15119594E-05    2     1000005        25   # BR(~b_2 -> ~b_1    h )
     9.24565976E-05    2     1000005        23   # BR(~b_2 -> ~b_1    Z )
     1.55656755E-04    2     1000006       -24   # BR(~b_2 -> ~t_1    W-)
     4.10824763E-07    2     2000006       -24   # BR(~b_2 -> ~t_2    W-)
#
#         PDG            Width
DECAY   1000002     1.78821576E+02   # sup_L decays
#          BR         NDA      ID1       ID2
     2.21282519E-03    2     1000022         2   # BR(~u_L -> ~chi_10 u)
     1.32159530E-05    2     1000023         2   # BR(~u_L -> ~chi_20 u)
     1.06042205E-03    2     1000025         2   # BR(~u_L -> ~chi_30 u)
     4.80583400E-02    2     1000035         2   # BR(~u_L -> ~chi_40 u)
     5.29148970E-04    2     1000024         1   # BR(~u_L -> ~chi_1+ d)
     9.59947634E-02    2     1000037         1   # BR(~u_L -> ~chi_2+ d)
     8.52131284E-01    2     1000021         2   # BR(~u_L -> ~g      u)
#
#         PDG            Width
DECAY   2000002     1.61154344E+02   # sup_R decays
#          BR         NDA      ID1       ID2
     4.46267812E-02    2     1000022         2   # BR(~u_R -> ~chi_10 u)
     2.65030961E-04    2     1000023         2   # BR(~u_R -> ~chi_20 u)
     1.05345760E-02    2     1000025         2   # BR(~u_R -> ~chi_30 u)
     2.80191096E-08    2     1000035         2   # BR(~u_R -> ~chi_40 u)
     9.44573584E-01    2     1000021         2   # BR(~u_R -> ~g      u)
#
#         PDG            Width
DECAY   1000001     1.78841855E+02   # sdown_L decays
#          BR         NDA      ID1       ID2
     2.83619519E-03    2     1000022         1   # BR(~d_L -> ~chi_10 d)
     1.29159369E-04    2     1000023         1   # BR(~d_L -> ~chi_20 d)
     2.61332871E-04    2     1000025         1   # BR(~d_L -> ~chi_30 d)
     4.81065176E-02    2     1000035         1   # BR(~d_L -> ~chi_40 d)
     3.41650129E-06    2    -1000024         2   # BR(~d_L -> ~chi_1- u)
     9.63134606E-02    2    -1000037         2   # BR(~d_L -> ~chi_2- u)
     8.52349918E-01    2     1000021         1   # BR(~d_L -> ~g      d)
#
#         PDG            Width
DECAY   2000001     1.54372672E+02   # sdown_R decays
#          BR         NDA      ID1       ID2
     1.16439844E-02    2     1000022         1   # BR(~d_R -> ~chi_10 d)
     6.91515461E-05    2     1000023         1   # BR(~d_R -> ~chi_20 d)
     2.74866764E-03    2     1000025         1   # BR(~d_R -> ~chi_30 d)
     7.30834665E-09    2     1000035         1   # BR(~d_R -> ~chi_40 d)
     9.85538189E-01    2     1000021         1   # BR(~d_R -> ~g      d)
#
#         PDG            Width
DECAY   1000004     1.78821576E+02   # scharm_L decays
#          BR         NDA      ID1       ID2
     2.21282519E-03    2     1000022         4   # BR(~c_L -> ~chi_10 c)
     1.32159530E-05    2     1000023         4   # BR(~c_L -> ~chi_20 c)
     1.06042205E-03    2     1000025         4   # BR(~c_L -> ~chi_30 c)
     4.80583400E-02    2     1000035         4   # BR(~c_L -> ~chi_40 c)
     5.29148970E-04    2     1000024         3   # BR(~c_L -> ~chi_1+ s)
     9.59947634E-02    2     1000037         3   # BR(~c_L -> ~chi_2+ s)
     8.52131284E-01    2     1000021         4   # BR(~c_L -> ~g      c)
#
#         PDG            Width
DECAY   2000004     1.61154344E+02   # scharm_R decays
#          BR         NDA      ID1       ID2
     4.46267812E-02    2     1000022         4   # BR(~c_R -> ~chi_10 c)
     2.65030961E-04    2     1000023         4   # BR(~c_R -> ~chi_20 c)
     1.05345760E-02    2     1000025         4   # BR(~c_R -> ~chi_30 c)
     2.80191096E-08    2     1000035         4   # BR(~c_R -> ~chi_40 c)
     9.44573584E-01    2     1000021         4   # BR(~c_R -> ~g      c)
#
#         PDG            Width
DECAY   1000003     1.78841855E+02   # sstrange_L decays
#          BR         NDA      ID1       ID2
     2.83619519E-03    2     1000022         3   # BR(~s_L -> ~chi_10 s)
     1.29159369E-04    2     1000023         3   # BR(~s_L -> ~chi_20 s)
     2.61332871E-04    2     1000025         3   # BR(~s_L -> ~chi_30 s)
     4.81065176E-02    2     1000035         3   # BR(~s_L -> ~chi_40 s)
     3.41650129E-06    2    -1000024         4   # BR(~s_L -> ~chi_1- c)
     9.63134606E-02    2    -1000037         4   # BR(~s_L -> ~chi_2- c)
     8.52349918E-01    2     1000021         3   # BR(~s_L -> ~g      s)
#
#         PDG            Width
DECAY   2000003     1.54372672E+02   # sstrange_R decays
#          BR         NDA      ID1       ID2
     1.16439844E-02    2     1000022         3   # BR(~s_R -> ~chi_10 s)
     6.91515461E-05    2     1000023         3   # BR(~s_R -> ~chi_20 s)
     2.74866764E-03    2     1000025         3   # BR(~s_R -> ~chi_30 s)
     7.30834665E-09    2     1000035         3   # BR(~s_R -> ~chi_40 s)
     9.85538189E-01    2     1000021         3   # BR(~s_R -> ~g      s)
#
#         PDG            Width
DECAY   1000011     3.15329398E+01   # selectron_L decays
#          BR         NDA      ID1       ID2
     1.27090931E-01    2     1000022        11   # BR(~e_L -> ~chi_10 e-)
     9.80871225E-05    2     1000023        11   # BR(~e_L -> ~chi_20 e-)
     3.86777934E-02    2     1000025        11   # BR(~e_L -> ~chi_30 e-)
     2.77576142E-01    2     1000035        11   # BR(~e_L -> ~chi_40 e-)
     1.99953581E-05    2    -1000024        12   # BR(~e_L -> ~chi_1- nu_e)
     5.56537051E-01    2    -1000037        12   # BR(~e_L -> ~chi_2- nu_e)
#
#         PDG            Width
DECAY   2000011     2.07492205E+01   # selectron_R decays
#          BR         NDA      ID1       ID2
     8.05207075E-01    2     1000022        11   # BR(~e_R -> ~chi_10 e-)
     4.78053793E-03    2     1000023        11   # BR(~e_R -> ~chi_20 e-)
     1.90011888E-01    2     1000025        11   # BR(~e_R -> ~chi_30 e-)
     4.99171950E-07    2     1000035        11   # BR(~e_R -> ~chi_40 e-)
#
#         PDG            Width
DECAY   1000013     3.15329398E+01   # smuon_L decays
#          BR         NDA      ID1       ID2
     1.27090931E-01    2     1000022        13   # BR(~mu_L -> ~chi_10 mu-)
     9.80871225E-05    2     1000023        13   # BR(~mu_L -> ~chi_20 mu-)
     3.86777934E-02    2     1000025        13   # BR(~mu_L -> ~chi_30 mu-)
     2.77576142E-01    2     1000035        13   # BR(~mu_L -> ~chi_40 mu-)
     1.99953581E-05    2    -1000024        14   # BR(~mu_L -> ~chi_1- nu_mu)
     5.56537051E-01    2    -1000037        14   # BR(~mu_L -> ~chi_2- nu_mu)
#
#         PDG            Width
DECAY   2000013     2.07492205E+01   # smuon_R decays
#          BR         NDA      ID1       ID2
     8.05207075E-01    2     1000022        13   # BR(~mu_R -> ~chi_10 mu-)
     4.78053793E-03    2     1000023        13   # BR(~mu_R -> ~chi_20 mu-)
     1.90011888E-01    2     1000025        13   # BR(~mu_R -> ~chi_30 mu-)
     4.99171950E-07    2     1000035        13   # BR(~mu_R -> ~chi_40 mu-)
#
#         PDG            Width
DECAY   1000015     3.10812639E+01   # stau_1 decays
#          BR         NDA      ID1       ID2
     3.90975205E-01    2     1000022        15   # BR(~tau_1 -> ~chi_10  tau-)
     4.28053179E-02    2     1000023        15   # BR(~tau_1 -> ~chi_20  tau-)
     9.18548842E-02    2     1000025        15   # BR(~tau_1 -> ~chi_30  tau-)
     1.39742056E-01    2     1000035        15   # BR(~tau_1 -> ~chi_40  tau-)
     5.44408792E-02    2    -1000024        16   # BR(~tau_1 -> ~chi_1-  nu_tau)
     2.80181657E-01    2    -1000037        16   # BR(~tau_1 -> ~chi_2-  nu_tau)
#
#         PDG            Width
DECAY   2000015     3.10739919E+01   # stau_2 decays
#          BR         NDA      ID1       ID2
     3.02722035E-01    2     1000022        15   # BR(~tau_2 -> ~chi_10  tau-)
     6.40151355E-02    2     1000023        15   # BR(~tau_2 -> ~chi_20  tau-)
     1.55072579E-01    2     1000025        15   # BR(~tau_2 -> ~chi_30  tau-)
     1.42145870E-01    2     1000035        15   # BR(~tau_2 -> ~chi_40  tau-)
     5.10442578E-02    2    -1000024        16   # BR(~tau_2 -> ~chi_1-  nu_tau)
     2.85000123E-01    2    -1000037        16   # BR(~tau_2 -> ~chi_2-  nu_tau)
#
#         PDG            Width
DECAY   1000012     3.15434945E+01   # snu_eL decays
#          BR         NDA      ID1       ID2
     1.37951988E-01    2     1000022        12   # BR(~nu_eL -> ~chi_10 nu_e)
     2.13243305E-03    2     1000023        12   # BR(~nu_eL -> ~chi_20 nu_e)
     2.46320397E-02    2     1000025        12   # BR(~nu_eL -> ~chi_30 nu_e)
     2.77899688E-01    2     1000035        12   # BR(~nu_eL -> ~chi_40 nu_e)
     3.09514383E-03    2     1000024        11   # BR(~nu_eL -> ~chi_1+ e-)
     5.54288708E-01    2     1000037        11   # BR(~nu_eL -> ~chi_2+ e-)
#
#         PDG            Width
DECAY   1000014     3.15434945E+01   # snu_muL decays
#          BR         NDA      ID1       ID2
     1.37951988E-01    2     1000022        14   # BR(~nu_muL -> ~chi_10 nu_mu)
     2.13243305E-03    2     1000023        14   # BR(~nu_muL -> ~chi_20 nu_mu)
     2.46320397E-02    2     1000025        14   # BR(~nu_muL -> ~chi_30 nu_mu)
     2.77899688E-01    2     1000035        14   # BR(~nu_muL -> ~chi_40 nu_mu)
     3.09514383E-03    2     1000024        13   # BR(~nu_muL -> ~chi_1+ mu-)
     5.54288708E-01    2     1000037        13   # BR(~nu_muL -> ~chi_2+ mu-)
#
#         PDG            Width
DECAY   1000016     3.48447702E+01   # snu_tauL decays
#          BR         NDA      ID1       ID2
     1.24926876E-01    2     1000022        16   # BR(~nu_tauL -> ~chi_10 nu_tau)
     1.93109918E-03    2     1000023        16   # BR(~nu_tauL -> ~chi_20 nu_tau)
     2.23064128E-02    2     1000025        16   # BR(~nu_tauL -> ~chi_30 nu_tau)
     2.51787442E-01    2     1000035        16   # BR(~nu_tauL -> ~chi_40 nu_tau)
     9.68421814E-02    2     1000024        15   # BR(~nu_tauL -> ~chi_1+ tau-)
     5.02205989E-01    2     1000037        15   # BR(~nu_tauL -> ~chi_2+ tau-)
#
#         PDG            Width
DECAY   1000024     3.67760825E-04   # chargino1+ decays
#           BR         NDA      ID1       ID2       ID3
     3.33452182E-01    3     1000022         2        -1   # BR(~chi_1+ -> ~chi_10 u    db)
     3.33452182E-01    3     1000022         4        -3   # BR(~chi_1+ -> ~chi_10 c    sb)
     1.11151608E-01    3     1000022       -11        12   # BR(~chi_1+ -> ~chi_10 e+   nu_e)
     1.11151608E-01    3     1000022       -13        14   # BR(~chi_1+ -> ~chi_10 mu+  nu_mu)
     1.10792419E-01    3     1000022       -15        16   # BR(~chi_1+ -> ~chi_10 tau+ nu_tau)
#
#         PDG            Width
DECAY   1000037     5.48030976E+01   # chargino2+ decays
#          BR         NDA      ID1       ID2
     3.62155940E-01    2     1000006        -5   # BR(~chi_2+ -> ~t_1     bb)
     3.48189902E-01    2    -1000005         6   # BR(~chi_2+ -> ~b_1*    t )
     7.35898048E-02    2     1000024        23   # BR(~chi_2+ -> ~chi_1+  Z )
     8.47766309E-03    2     1000022        24   # BR(~chi_2+ -> ~chi_10  W+)
     7.19282719E-02    2     1000023        24   # BR(~chi_2+ -> ~chi_20  W+)
     6.29410521E-02    2     1000025        24   # BR(~chi_2+ -> ~chi_30  W+)
     7.27173659E-02    2     1000024        25   # BR(~chi_2+ -> ~chi_1+  h )
#
#         PDG            Width
DECAY   1000022     0.00000000E+00   # neutralino1 decays
#
#         PDG            Width
DECAY   1000023     3.07523312E-04   # neutralino2 decays
#          BR         NDA      ID1       ID2
     4.54136092E-04    2     1000022        22   # BR(~chi_20 -> ~chi_10 gam)
#           BR         NDA      ID1       ID2       ID3
     1.17492331E-01    3     1000022        -2         2   # BR(~chi_20 -> ~chi_10 ub      u)
     1.52396051E-01    3     1000022        -1         1   # BR(~chi_20 -> ~chi_10 db      d)
     1.17492331E-01    3     1000022        -4         4   # BR(~chi_20 -> ~chi_10 cb      c)
     1.52396051E-01    3     1000022        -3         3   # BR(~chi_20 -> ~chi_10 sb      s)
     1.45594490E-01    3     1000022        -5         5   # BR(~chi_20 -> ~chi_10 bb      b)
     3.49397820E-02    3     1000022       -11        11   # BR(~chi_20 -> ~chi_10 e+      e-)
     3.49397820E-02    3     1000022       -13        13   # BR(~chi_20 -> ~chi_10 mu+     mu-)
     3.47240417E-02    3     1000022       -15        15   # BR(~chi_20 -> ~chi_10 tau+    tau-)
     6.98563713E-02    3     1000022       -12        12   # BR(~chi_20 -> ~chi_10 nu_eb   nu_e)
     6.98563713E-02    3     1000022       -14        14   # BR(~chi_20 -> ~chi_10 nu_mub  nu_mu)
     6.98563689E-02    3     1000022       -16        16   # BR(~chi_20 -> ~chi_10 nu_taub nu_tau)
     3.46869174E-07    3     1000024        -2         1   # BR(~chi_20 -> ~chi_1+ ub      d)
     3.46869174E-07    3    -1000024        -1         2   # BR(~chi_20 -> ~chi_1- db      u)
     3.46869174E-07    3     1000024        -4         3   # BR(~chi_20 -> ~chi_1+ cb      s)
     3.46869174E-07    3    -1000024        -3         4   # BR(~chi_20 -> ~chi_1- sb      c)
     1.15623208E-07    3     1000024       -12        11   # BR(~chi_20 -> ~chi_1+ nu_eb   e-)
     1.15623208E-07    3    -1000024        12       -11   # BR(~chi_20 -> ~chi_1- nu_e    e+)
     1.15623208E-07    3     1000024       -14        13   # BR(~chi_20 -> ~chi_1+ nu_mub  mu-)
     1.15623208E-07    3    -1000024        14       -13   # BR(~chi_20 -> ~chi_1- nu_mu   mu+)
     2.12211298E-08    3     1000024       -16        15   # BR(~chi_20 -> ~chi_1+ nu_taub tau-)
     2.12211298E-08    3    -1000024        16       -15   # BR(~chi_20 -> ~chi_1- nu_tau  tau+)
#
#         PDG            Width
DECAY   1000025     3.94842337E-05   # neutralino3 decays
#          BR         NDA      ID1       ID2
     1.74048441E-03    2     1000022        22   # BR(~chi_30 -> ~chi_10 gam)
     1.86940782E-05    2     1000023        22   # BR(~chi_30 -> ~chi_20 gam)
#           BR         NDA      ID1       ID2       ID3
     1.15944362E-01    3     1000022        -2         2   # BR(~chi_30 -> ~chi_10 ub      u)
     1.50166540E-01    3     1000022        -1         1   # BR(~chi_30 -> ~chi_10 db      d)
     1.15944362E-01    3     1000022        -4         4   # BR(~chi_30 -> ~chi_10 cb      c)
     1.50166540E-01    3     1000022        -3         3   # BR(~chi_30 -> ~chi_10 sb      s)
     1.45755424E-01    3     1000022        -5         5   # BR(~chi_30 -> ~chi_10 bb      b)
     3.42495810E-02    3     1000022       -11        11   # BR(~chi_30 -> ~chi_10 e+      e-)
     3.42495810E-02    3     1000022       -13        13   # BR(~chi_30 -> ~chi_10 mu+     mu-)
     3.41312255E-02    3     1000022       -15        15   # BR(~chi_30 -> ~chi_10 tau+    tau-)
     6.89129675E-02    3     1000022       -12        12   # BR(~chi_30 -> ~chi_10 nu_eb   nu_e)
     6.89129675E-02    3     1000022       -14        14   # BR(~chi_30 -> ~chi_10 nu_mub  nu_mu)
     6.89129186E-02    3     1000022       -16        16   # BR(~chi_30 -> ~chi_10 nu_taub nu_tau)
     1.10325117E-04    3     1000023        -2         2   # BR(~chi_30 -> ~chi_20 ub      u)
     1.43106885E-04    3     1000023        -1         1   # BR(~chi_30 -> ~chi_20 db      d)
     1.10325117E-04    3     1000023        -4         4   # BR(~chi_30 -> ~chi_20 cb      c)
     1.43106885E-04    3     1000023        -3         3   # BR(~chi_30 -> ~chi_20 sb      s)
     3.28147256E-05    3     1000023       -11        11   # BR(~chi_30 -> ~chi_20 e+      e-)
     3.28147256E-05    3     1000023       -13        13   # BR(~chi_30 -> ~chi_20 mu+     mu-)
     2.50003257E-05    3     1000023       -15        15   # BR(~chi_30 -> ~chi_20 tau+    tau-)
     6.55932252E-05    3     1000023       -12        12   # BR(~chi_30 -> ~chi_20 nu_eb   nu_e)
     6.55932252E-05    3     1000023       -14        14   # BR(~chi_30 -> ~chi_20 nu_mub  nu_mu)
     6.55932257E-05    3     1000023       -16        16   # BR(~chi_30 -> ~chi_20 nu_taub nu_tau)
     1.70338632E-03    3     1000024        -2         1   # BR(~chi_30 -> ~chi_1+ ub      d)
     1.70338632E-03    3    -1000024        -1         2   # BR(~chi_30 -> ~chi_1- db      u)
     1.70338632E-03    3     1000024        -4         3   # BR(~chi_30 -> ~chi_1+ cb      s)
     1.70338632E-03    3    -1000024        -3         4   # BR(~chi_30 -> ~chi_1- sb      c)
     5.67790778E-04    3     1000024       -12        11   # BR(~chi_30 -> ~chi_1+ nu_eb   e-)
     5.67790778E-04    3    -1000024        12       -11   # BR(~chi_30 -> ~chi_1- nu_e    e+)
     5.67790778E-04    3     1000024       -14        13   # BR(~chi_30 -> ~chi_1+ nu_mub  mu-)
     5.67790778E-04    3    -1000024        14       -13   # BR(~chi_30 -> ~chi_1- nu_mu   mu+)
     5.07685072E-04    3     1000024       -16        15   # BR(~chi_30 -> ~chi_1+ nu_taub tau-)
     5.07685072E-04    3    -1000024        16       -15   # BR(~chi_30 -> ~chi_1- nu_tau  tau+)
#
#         PDG            Width
DECAY   1000035     5.47916281E+01   # neutralino4 decays
#          BR         NDA      ID1       ID2
     4.12386918E-03    2     1000022        23   # BR(~chi_40 -> ~chi_10   Z )
     4.28976479E-02    2     1000023        23   # BR(~chi_40 -> ~chi_20   Z )
     2.65592568E-02    2     1000025        23   # BR(~chi_40 -> ~chi_30   Z )
     7.17469609E-02    2     1000024       -24   # BR(~chi_40 -> ~chi_1+   W-)
     7.17469609E-02    2    -1000024        24   # BR(~chi_40 -> ~chi_1-   W+)
     4.51312057E-03    2     1000022        25   # BR(~chi_40 -> ~chi_10   h )
     3.04377894E-02    2     1000023        25   # BR(~chi_40 -> ~chi_20   h )
     3.75745505E-02    2     1000025        25   # BR(~chi_40 -> ~chi_30   h )
     1.77119930E-01    2     1000006        -6   # BR(~chi_40 -> ~t_1      tb)
     1.77119930E-01    2    -1000006         6   # BR(~chi_40 -> ~t_1*     t )
     1.78079992E-01    2     1000005        -5   # BR(~chi_40 -> ~b_1      bb)
     1.78079992E-01    2    -1000005         5   # BR(~chi_40 -> ~b_1*     b )
#
#         PDG            Width
DECAY        25     4.05506106E-03   # h decays
#          BR         NDA      ID1       ID2
     5.91796637E-01    2           5        -5   # BR(h -> b       bb     )
     6.43266741E-02    2         -15        15   # BR(h -> tau+    tau-   )
     2.27715401E-04    2         -13        13   # BR(h -> mu+     mu-    )
     4.82821567E-04    2           3        -3   # BR(h -> s       sb     )
     2.09674746E-02    2           4        -4   # BR(h -> c       cb     )
     6.86522399E-02    2          21        21   # BR(h -> g       g      )
     2.37516251E-03    2          22        22   # BR(h -> gam     gam    )
     1.63643237E-03    2          22        23   # BR(h -> Z       gam    )
     2.21481301E-01    2          24       -24   # BR(h -> W+      W-     )
     2.80535415E-02    2          23        23   # BR(h -> Z       Z      )
#
#         PDG            Width
DECAY        35     5.47077493E+01   # H decays
#          BR         NDA      ID1       ID2
     3.48298892E-01    2           5        -5   # BR(H -> b       bb     )
     6.06056574E-02    2         -15        15   # BR(H -> tau+    tau-   )
     2.14286925E-04    2         -13        13   # BR(H -> mu+     mu-    )
     2.53464488E-04    2           3        -3   # BR(H -> s       sb     )
     7.10990169E-08    2           4        -4   # BR(H -> c       cb     )
     7.12560178E-03    2           6        -6   # BR(H -> t       tb     )
     9.52695446E-07    2          21        21   # BR(H -> g       g      )
     7.81880913E-11    2          22        22   # BR(H -> gam     gam    )
     1.82966079E-09    2          23        22   # BR(H -> Z       gam    )
     1.92321878E-06    2          24       -24   # BR(H -> W+      W-     )
     9.60943121E-07    2          23        23   # BR(H -> Z       Z      )
     7.36279739E-06    2          25        25   # BR(H -> h       h      )
     3.58987732E-25    2          36        36   # BR(H -> A       A      )
     1.03921478E-20    2          23        36   # BR(H -> Z       A      )
     1.85417596E-03    2     1000024  -1000024   # BR(H -> ~chi_1+ ~chi_1-)
     1.63609855E-01    2     1000024  -1000037   # BR(H -> ~chi_1+ ~chi_2-)
     1.63609855E-01    2     1000037  -1000024   # BR(H -> ~chi_2+ ~chi_1-)
     1.98861467E-02    2     1000022   1000022   # BR(H -> ~chi_10 ~chi_10)
     1.04048937E-03    2     1000023   1000023   # BR(H -> ~chi_20 ~chi_20)
     1.07842342E-02    2     1000025   1000025   # BR(H -> ~chi_30 ~chi_30)
     2.81862675E-02    2     1000022   1000023   # BR(H -> ~chi_10 ~chi_20)
     1.79464157E-02    2     1000022   1000025   # BR(H -> ~chi_10 ~chi_30)
     2.07227740E-02    2     1000022   1000035   # BR(H -> ~chi_10 ~chi_40)
     9.65635549E-03    2     1000023   1000025   # BR(H -> ~chi_20 ~chi_30)
     8.00338749E-02    2     1000023   1000035   # BR(H -> ~chi_20 ~chi_40)
     6.33462323E-02    2     1000025   1000035   # BR(H -> ~chi_30 ~chi_40)
     1.87444571E-04    2     1000006  -1000006   # BR(H -> ~t_1    ~t_1*  )
     1.31328571E-03    2     1000006  -2000006   # BR(H -> ~t_1    ~t_2*  )
     1.31328571E-03    2     2000006  -1000006   # BR(H -> ~t_2    ~t_1*  )
     1.33518336E-07    2     1000005  -1000005   # BR(H -> ~b_1    ~b_1*  )
#
#         PDG            Width
DECAY        36     5.47034185E+01   # A decays
#          BR         NDA      ID1       ID2
     3.48352178E-01    2           5        -5   # BR(A -> b       bb     )
     6.06107841E-02    2         -15        15   # BR(A -> tau+    tau-   )
     2.14304884E-04    2         -13        13   # BR(A -> mu+     mu-    )
     2.53527073E-04    2           3        -3   # BR(A -> s       sb     )
     7.15570040E-08    2           4        -4   # BR(A -> c       cb     )
     7.13909525E-03    2           6        -6   # BR(A -> t       tb     )
     1.46690341E-05    2          21        21   # BR(A -> g       g      )
     5.33942182E-08    2          22        22   # BR(A -> gam     gam    )
     1.61224799E-08    2          23        22   # BR(A -> Z       gam    )
     1.91931865E-06    2          23        25   # BR(A -> Z       h      )
     1.85800678E-03    2     1000024  -1000024   # BR(A -> ~chi_1+ ~chi_1-)
     1.63624975E-01    2     1000024  -1000037   # BR(A -> ~chi_1+ ~chi_2-)
     1.63624975E-01    2     1000037  -1000024   # BR(A -> ~chi_2+ ~chi_1-)
     1.73254513E-02    2     1000022   1000022   # BR(A -> ~chi_10 ~chi_10)
     1.29843593E-03    2     1000023   1000023   # BR(A -> ~chi_20 ~chi_20)
     8.90503504E-03    2     1000025   1000025   # BR(A -> ~chi_30 ~chi_30)
     3.48990341E-02    2     1000022   1000023   # BR(A -> ~chi_10 ~chi_20)
     1.44453065E-02    2     1000022   1000025   # BR(A -> ~chi_10 ~chi_30)
     2.07889504E-02    2     1000022   1000035   # BR(A -> ~chi_10 ~chi_40)
     1.06318721E-02    2     1000023   1000025   # BR(A -> ~chi_20 ~chi_30)
     8.10124873E-02    2     1000023   1000035   # BR(A -> ~chi_20 ~chi_40)
     6.22637573E-02    2     1000025   1000035   # BR(A -> ~chi_30 ~chi_40)
     1.36754732E-03    2     1000006  -2000006   # BR(A -> ~t_1    ~t_2*  )
     1.36754732E-03    2    -1000006   2000006   # BR(A -> ~t_1*   ~t_2   )
#
#         PDG            Width
DECAY        37     5.47142840E+01   # H+ decays
#          BR         NDA      ID1       ID2
     5.57514662E-04    2           4        -5   # BR(H+ -> c       bb     )
     6.06146655E-02    2         -15        16   # BR(H+ -> tau+    nu_tau )
     2.14318607E-04    2         -13        14   # BR(H+ -> mu+     nu_mu  )
     3.56809078E-06    2           2        -5   # BR(H+ -> u       bb     )
     1.21415425E-05    2           2        -3   # BR(H+ -> u       sb     )
     2.49790574E-04    2           4        -3   # BR(H+ -> c       sb     )
     3.55217071E-01    2           6        -5   # BR(H+ -> t       bb     )
     1.92112224E-06    2          24        25   # BR(H+ -> W+      h      )
     3.07986335E-14    2          24        36   # BR(H+ -> W+      A      )
     6.79140277E-02    2     1000024   1000022   # BR(H+ -> ~chi_1+ ~chi_10)
     1.90688252E-05    2     1000024   1000023   # BR(H+ -> ~chi_1+ ~chi_20)
     2.01567324E-02    2     1000024   1000025   # BR(H+ -> ~chi_1+ ~chi_30)
     1.63806020E-01    2     1000024   1000035   # BR(H+ -> ~chi_1+ ~chi_40)
     4.15609364E-02    2     1000037   1000022   # BR(H+ -> ~chi_2+ ~chi_10)
     1.61125518E-01    2     1000037   1000023   # BR(H+ -> ~chi_2+ ~chi_20)
     1.25781868E-01    2     1000037   1000025   # BR(H+ -> ~chi_2+ ~chi_30)
     9.89186317E-05    2     1000006  -1000005   # BR(H+ -> ~t_1    ~b_1*  )
     2.66592010E-03    2     2000006  -1000005   # BR(H+ -> ~t_2    ~b_1*  )
