#
#                              ======================
#                              | THE SUSYHIT OUTPUT |
#                              ======================
#
#
#              ------------------------------------------------------
#              |     This is the output of the SUSY-HIT package     |
#              |  created by A.Djouadi, M.Muehlleitner and M.Spira. |
#              |  In case of problems with SUSY-HIT email to        |
#              |           margarete.muehlleitner@kit.edu           |
#              |           michael.spira@psi.ch                     |
#              |           abdelhak.djouadi@cern.ch                 |
#              ------------------------------------------------------
#
#              ------------------------------------------------------
#              |  SUSY Les Houches Accord - MSSM Spectrum + Decays  |
#              |              based on the decay programs           |
#              |                                                    |
#              |                     SDECAY 1.5                     |
#              |                                                    |
#              |  Authors: M.Muhlleitner, A.Djouadi and Y.Mambrini  |
#              |  Ref.:    Comput.Phys.Commun.168(2005)46           |
#              |           [hep-ph/0311167]                         |
#              |                                                    |
#              |                     HDECAY 3.4                     |
#              |                                                    |
#              |  By: A.Djouadi,J.Kalinowski,M.Muhlleitner,M.Spira  |
#              |  Ref.:    Comput.Phys.Commun.108(1998)56           |
#              |           [hep-ph/9704448]                         |
#              |                                                    |
#              |                                                    |
#              |  If not stated otherwise all DRbar couplings and   |
#              |  soft SUSY breaking masses are given at the scale  |
#              |  Q=  0.13067900E+04
#              |                                                    |
#              ------------------------------------------------------
#
#
BLOCK DCINFO  # Decay Program information
     1   SDECAY/HDECAY # decay calculator
     2   1.5  /3.4    # version number
#
BLOCK SPINFO  # Spectrum calculator information
     1    SOFTSUSY    # spectrum calculator                
     2    3.7.3       # version number                     
#
BLOCK MODSEL  # Model selection
     1     0   #  nonUniversal                                     
#
BLOCK SMINPUTS  # Standard Model inputs
         1     1.27934000E+02   # alpha_em^-1(M_Z)^MSbar
         2     1.16639000E-05   # G_F [GeV^-2]
         3     1.17200000E-01   # alpha_S(M_Z)^MSbar
         4     9.11870000E+01   # M_Z pole mass
         5     4.19000000E+00   # mb(mb)^MSbar
         6     1.72500000E+02   # mt pole mass
         7     1.77690000E+00   # mtau pole mass
#
BLOCK MINPAR  # Input parameters - minimal models
         3     2.00000000E+01   # tanb                
#
BLOCK EXTPAR  # Input parameters - non-minimal models
         0    -1.00000000E+00   # Set                 
         1     2.59990000E+02   # M_1(MX)             
         2     2.00000000E+03   # M_2(MX)             
         3     1.80000000E+03   # M_3(MX)             
        11     2.62959179E+03   # At(MX)              
        12     0.00000000E+00   # Ab(MX)              
        13     0.00000000E+00   # Atau(MX)            
        23    -2.93900000E+02   # mu(MX)              
        25     2.00000000E+01   # tan                 
        26     4.00000000E+03   # mA(pole)            
        31     4.00000000E+03   # meL(MX)             
        32     4.00000000E+03   # mmuL(MX)            
        33     4.00000000E+03   # mtauL(MX)           
        34     4.00000000E+03   # meR(MX)             
        35     4.00000000E+03   # mmuR(MX)            
        36     4.00000000E+03   # mtauR(MX)           
        41     4.00000000E+03   # mqL1(MX)            
        42     4.00000000E+03   # mqL2(MX)            
        43     2.00485961E+03   # mqL3(MX)            
        44     4.00000000E+03   # muR(MX)             
        45     4.00000000E+03   # mcR(MX)             
        46     8.59990000E+02   # mtR(MX)             
        47     4.00000000E+03   # mdR(MX)             
        48     4.00000000E+03   # msR(MX)             
        49     4.00000000E+03   # mbR(MX)             
#
BLOCK MASS  # Mass Spectrum
# PDG code           mass       particle
        24     8.04192117E+01   # W+
        25     1.25821822E+02   # h
        35     4.00000766E+03   # H
        36     3.99999683E+03   # A
        37     4.00104405E+03   # H+
         5     4.81337004E+00   # b-quark pole mass calculated from mb(mb)_Msbar
   1000001     4.02608083E+03   # ~d_L
   2000001     4.02272862E+03   # ~d_R
   1000002     4.02543242E+03   # ~u_L
   2000002     4.02333688E+03   # ~u_R
   1000003     4.02608083E+03   # ~s_L
   2000003     4.02272862E+03   # ~s_R
   1000004     4.02543242E+03   # ~c_L
   2000004     4.02333688E+03   # ~c_R
   1000005     2.03545342E+03   # ~b_1
   2000005     4.02565129E+03   # ~b_2
   1000006     8.78799544E+02   # ~t_1
   2000006     2.04999209E+03   # ~t_2
   1000011     4.00450919E+03   # ~e_L
   2000011     4.00361525E+03   # ~e_R
   1000012     4.00339948E+03   # ~nu_eL
   1000013     4.00450919E+03   # ~mu_L
   2000013     4.00361525E+03   # ~mu_R
   1000014     4.00339948E+03   # ~nu_muL
   1000015     4.00486761E+03   # ~tau_1
   2000015     4.00752112E+03   # ~tau_2
   1000016     4.00482274E+03   # ~nu_tauL
   1000021     1.99058033E+03   # ~g
   1000022     2.47304229E+02   # ~chi_10
   1000023    -3.04893188E+02   # ~chi_20
   1000025     3.18064496E+02   # ~chi_30
   1000035     2.06377597E+03   # ~chi_40
   1000024     3.02040683E+02   # ~chi_1+
   1000037     2.06395561E+03   # ~chi_2+
#
BLOCK NMIX  # Neutralino Mixing Matrix
  1  1     8.52579066E-01   # N_11
  1  2    -1.36339502E-02   # N_12
  1  3    -4.05159958E-01   # N_13
  1  4    -3.29800637E-01   # N_14
  2  1    -5.88340602E-02   # N_21
  2  2     2.50619290E-02   # N_22
  2  3    -7.02010490E-01   # N_23
  2  4     7.09289592E-01   # N_24
  3  1     5.19274994E-01   # N_31
  3  2     2.71197103E-02   # N_32
  3  3     5.85672362E-01   # N_33
  3  4     6.21776396E-01   # N_34
  4  1    -9.84835099E-04   # N_41
  4  2     9.99224968E-01   # N_42
  4  3    -3.81641626E-03   # N_43
  4  4    -3.91654010E-02   # N_44
#
BLOCK UMIX  # Chargino Mixing Matrix U
  1  1     5.40254570E-03   # U_11
  1  2     9.99985406E-01   # U_12
  2  1    -9.99985406E-01   # U_21
  2  2     5.40254570E-03   # U_22
#
BLOCK VMIX  # Chargino Mixing Matrix V
  1  1     5.53999050E-02   # V_11
  1  2    -9.98464246E-01   # V_12
  2  1    -9.98464246E-01   # V_21
  2  2    -5.53999050E-02   # V_22
#
BLOCK STOPMIX  # Stop Mixing Matrix
  1  1    -1.17852140E-01   # cos(theta_t)
  1  2     9.93031154E-01   # sin(theta_t)
  2  1    -9.93031154E-01   # -sin(theta_t)
  2  2    -1.17852140E-01   # cos(theta_t)
#
BLOCK SBOTMIX  # Sbottom Mixing Matrix
  1  1     9.99999281E-01   # cos(theta_b)
  1  2    -1.19916616E-03   # sin(theta_b)
  2  1     1.19916616E-03   # -sin(theta_b)
  2  2     9.99999281E-01   # cos(theta_b)
#
BLOCK STAUMIX  # Stau Mixing Matrix
  1  1    -7.05713946E-01   # cos(theta_tau)
  1  2     7.08496878E-01   # sin(theta_tau)
  2  1    -7.08496878E-01   # -sin(theta_tau)
  2  2    -7.05713946E-01   # cos(theta_tau)
#
BLOCK ALPHA  # Higgs mixing
          -5.00284132E-02   # Mixing angle in the neutral Higgs boson sector
#
BLOCK HMIX Q=  1.30679004E+03  # DRbar Higgs Parameters
         1    -2.93900000E+02   # mu(Q)MSSM           
         2     2.00000000E+01   # tan                 
         3     2.43594309E+02   # higgs               
         4     1.61060774E+07   # mA^2(Q)MSSM         
#
BLOCK GAUGE Q=  1.30679004E+03  # The gauge couplings
     1     3.62068865E-01   # gprime(Q) DRbar
     2     6.35815331E-01   # g(Q) DRbar
     3     1.02938248E+00   # g3(Q) DRbar
#
BLOCK AU Q=  1.30679004E+03  # The trilinear couplings
  1  1     0.00000000E+00   # A_u(Q) DRbar
  2  2     1.37167871E-06   # A_c(Q) DRbar
  3  3     2.62959179E+03   # A_t(Q) DRbar
#
BLOCK AD Q=  1.30679004E+03  # The trilinear couplings
  1  1     5.03906603E-07   # A_d(Q) DRbar
  2  2     5.03953719E-07   # A_s(Q) DRbar
  3  3     9.02362937E-07   # A_b(Q) DRbar
#
BLOCK AE Q=  1.30679004E+03  # The trilinear couplings
  1  1     0.00000000E+00   # A_e(Q) DRbar
  2  2     1.10565601E-07   # A_mu(Q) DRbar
  3  3     1.11705268E-07   # A_tau(Q) DRbar
#
BLOCK Yu Q=  1.30679004E+03  # The Yukawa couplings
  1  1     0.00000000E+00   # y_u(Q) DRbar
  2  2     0.00000000E+00   # y_c(Q) DRbar
  3  3     8.67546551E-01   # y_t(Q) DRbar
#
BLOCK Yd Q=  1.30679004E+03  # The Yukawa couplings
  1  1     0.00000000E+00   # y_d(Q) DRbar
  2  2     0.00000000E+00   # y_s(Q) DRbar
  3  3     2.84147128E-01   # y_b(Q) DRbar
#
BLOCK Ye Q=  1.30679004E+03  # The Yukawa couplings
  1  1     0.00000000E+00   # y_e(Q) DRbar
  2  2     0.00000000E+00   # y_mu(Q) DRbar
  3  3     2.03609021E-01   # y_tau(Q) DRbar
#
BLOCK MSOFT Q=  1.30679004E+03  # The soft SUSY breaking masses at the scale Q
         1     2.59990000E+02   # M_1(Q)              
         2     2.00000000E+03   # M_2(Q)              
         3     1.80000000E+03   # M_3(Q)              
        21     1.58037296E+07   # M^2_Hd              
        22    -5.64248888E+04   # M^2_Hu              
        31     4.00000000E+03   # M_eL                
        32     4.00000000E+03   # M_muL               
        33     4.00000000E+03   # M_tauL              
        34     4.00000000E+03   # M_eR                
        35     4.00000000E+03   # M_muR               
        36     4.00000000E+03   # M_tauR              
        41     4.00000000E+03   # M_q1L               
        42     4.00000000E+03   # M_q2L               
        43     2.00485961E+03   # M_q3L               
        44     4.00000000E+03   # M_uR                
        45     4.00000000E+03   # M_cR                
        46     8.59989996E+02   # M_tR                
        47     4.00000000E+03   # M_dR                
        48     4.00000000E+03   # M_sR                
        49     4.00000000E+03   # M_bR                
#
#
#
#                             =================
#                             |The decay table|
#                             =================
#
# - The QCD corrections to the decays gluino -> squark  + quark
#                                     squark -> gaugino + quark_prime
#                                     squark -> squark_prime + Higgs
#                                     squark -> gluino  + quark
#   are included.
#
# - The multi-body decays for the inos, stops and sbottoms are included.
#
# - The loop induced decays for the gluino, neutralinos and stops
#   are included.
#
# - The SUSY decays of the top quark are included.
#
#
#         PDG            Width
DECAY         6     1.40242839E+00   # top decays
#          BR         NDA      ID1       ID2
     1.00000000E+00    2           5        24   # BR(t ->  b    W+)
#
#         PDG            Width
DECAY   1000021     2.77785639E+01   # gluino decays
#          BR         NDA      ID1       ID2
     5.00000000E-01    2     1000006        -6   # BR(~g -> ~t_1  tb)
     5.00000000E-01    2    -1000006         6   # BR(~g -> ~t_1* t )
#
#         PDG            Width
DECAY   1000006     2.08015288E+01   # stop1 decays
#          BR         NDA      ID1       ID2
     8.79325201E-02    2     1000022         6   # BR(~t_1 -> ~chi_10 t )
     2.16092952E-01    2     1000023         6   # BR(~t_1 -> ~chi_20 t )
     2.18355576E-01    2     1000025         6   # BR(~t_1 -> ~chi_30 t )
     4.77618952E-01    2     1000024         5   # BR(~t_1 -> ~chi_1+ b )
#
#         PDG            Width
DECAY   2000006     6.45773791E+01   # stop2 decays
#          BR         NDA      ID1       ID2
     5.97117197E-02    2     1000022         6   # BR(~t_2 -> ~chi_10 t )
     2.21063307E-01    2     1000023         6   # BR(~t_2 -> ~chi_20 t )
     1.58411029E-01    2     1000025         6   # BR(~t_2 -> ~chi_30 t )
     5.43388281E-02    2     1000024         5   # BR(~t_2 -> ~chi_1+ b )
     2.98283453E-01    2     1000006        25   # BR(~t_2 -> ~t_1    h )
     2.08191663E-01    2     1000006        23   # BR(~t_2 -> ~t_1    Z )
#
#         PDG            Width
DECAY   1000005     2.89160049E+01   # sbottom1 decays
#          BR         NDA      ID1       ID2
     2.45367682E-02    2     1000022         5   # BR(~b_1 -> ~chi_10 b )
     4.86925399E-02    2     1000023         5   # BR(~b_1 -> ~chi_20 b )
     3.47789326E-02    2     1000025         5   # BR(~b_1 -> ~chi_30 b )
     9.54569911E-01    2    -1000024         6   # BR(~b_1 -> ~chi_1- t )
     1.11823592E-02    2     1000021         5   # BR(~b_1 -> ~g      b )
    -7.37605106E-02    2     1000006       -24   # BR(~b_1 -> ~t_1    W-)
#
#         PDG            Width
DECAY   2000005     1.64283297E+02   # sbottom2 decays
#          BR         NDA      ID1       ID2
     1.59119776E-02    2     1000022         5   # BR(~b_2 -> ~chi_10 b )
     1.81856435E-02    2     1000023         5   # BR(~b_2 -> ~chi_20 b )
     1.62728478E-02    2     1000025         5   # BR(~b_2 -> ~chi_30 b )
     6.49145481E-07    2     1000035         5   # BR(~b_2 -> ~chi_40 b )
     3.67016132E-02    2    -1000024         6   # BR(~b_2 -> ~chi_1- t )
     1.28302944E-06    2    -1000037         6   # BR(~b_2 -> ~chi_2- t )
     9.12595988E-01    2     1000021         5   # BR(~b_2 -> ~g      b )
     7.01480709E-05    2     1000005        25   # BR(~b_2 -> ~b_1    h )
     9.34281028E-05    2     1000005        23   # BR(~b_2 -> ~b_1    Z )
     4.95619141E-06    2     1000006       -24   # BR(~b_2 -> ~t_1    W-)
     1.61464897E-04    2     2000006       -24   # BR(~b_2 -> ~t_2    W-)
#
#         PDG            Width
DECAY   1000002     1.76097127E+02   # sup_L decays
#          BR         NDA      ID1       ID2
     1.93102246E-03    2     1000022         2   # BR(~u_L -> ~chi_10 u)
     1.69092575E-05    2     1000023         2   # BR(~u_L -> ~chi_20 u)
     1.38237678E-03    2     1000025         2   # BR(~u_L -> ~chi_30 u)
     4.83095229E-02    2     1000035         2   # BR(~u_L -> ~chi_40 u)
     5.37772967E-04    2     1000024         1   # BR(~u_L -> ~chi_1+ d)
     9.64962007E-02    2     1000037         1   # BR(~u_L -> ~chi_2+ d)
     8.51326195E-01    2     1000021         2   # BR(~u_L -> ~g      u)
#
#         PDG            Width
DECAY   2000002     1.58646282E+02   # sup_R decays
#          BR         NDA      ID1       ID2
     4.08731511E-02    2     1000022         2   # BR(~u_R -> ~chi_10 u)
     1.93911945E-04    2     1000023         2   # BR(~u_R -> ~chi_20 u)
     1.50910480E-02    2     1000025         2   # BR(~u_R -> ~chi_30 u)
     3.00031991E-08    2     1000035         2   # BR(~u_R -> ~chi_40 u)
     9.43841859E-01    2     1000021         2   # BR(~u_R -> ~g      u)
#
#         PDG            Width
DECAY   1000001     1.76116145E+02   # sdown_L decays
#          BR         NDA      ID1       ID2
     2.70713752E-03    2     1000022         1   # BR(~d_L -> ~chi_10 d)
     1.14978923E-04    2     1000023         1   # BR(~d_L -> ~chi_20 d)
     4.46736037E-04    2     1000025         1   # BR(~d_L -> ~chi_30 d)
     4.83593423E-02    2     1000035         1   # BR(~d_L -> ~chi_40 d)
     5.11450611E-06    2    -1000024         2   # BR(~d_L -> ~chi_1- u)
     9.68177896E-02    2    -1000037         2   # BR(~d_L -> ~chi_2- u)
     8.51548901E-01    2     1000021         1   # BR(~d_L -> ~g      d)
#
#         PDG            Width
DECAY   2000001     1.51911984E+02   # sdown_R decays
#          BR         NDA      ID1       ID2
     1.06695999E-02    2     1000022         1   # BR(~d_R -> ~chi_10 d)
     5.06190613E-05    2     1000023         1   # BR(~d_R -> ~chi_20 d)
     3.93938836E-03    2     1000025         1   # BR(~d_R -> ~chi_30 d)
     7.83043909E-09    2     1000035         1   # BR(~d_R -> ~chi_40 d)
     9.85340385E-01    2     1000021         1   # BR(~d_R -> ~g      d)
#
#         PDG            Width
DECAY   1000004     1.76097127E+02   # scharm_L decays
#          BR         NDA      ID1       ID2
     1.93102246E-03    2     1000022         4   # BR(~c_L -> ~chi_10 c)
     1.69092575E-05    2     1000023         4   # BR(~c_L -> ~chi_20 c)
     1.38237678E-03    2     1000025         4   # BR(~c_L -> ~chi_30 c)
     4.83095229E-02    2     1000035         4   # BR(~c_L -> ~chi_40 c)
     5.37772967E-04    2     1000024         3   # BR(~c_L -> ~chi_1+ s)
     9.64962007E-02    2     1000037         3   # BR(~c_L -> ~chi_2+ s)
     8.51326195E-01    2     1000021         4   # BR(~c_L -> ~g      c)
#
#         PDG            Width
DECAY   2000004     1.58646282E+02   # scharm_R decays
#          BR         NDA      ID1       ID2
     4.08731511E-02    2     1000022         4   # BR(~c_R -> ~chi_10 c)
     1.93911945E-04    2     1000023         4   # BR(~c_R -> ~chi_20 c)
     1.50910480E-02    2     1000025         4   # BR(~c_R -> ~chi_30 c)
     3.00031991E-08    2     1000035         4   # BR(~c_R -> ~chi_40 c)
     9.43841859E-01    2     1000021         4   # BR(~c_R -> ~g      c)
#
#         PDG            Width
DECAY   1000003     1.76116145E+02   # sstrange_L decays
#          BR         NDA      ID1       ID2
     2.70713752E-03    2     1000022         3   # BR(~s_L -> ~chi_10 s)
     1.14978923E-04    2     1000023         3   # BR(~s_L -> ~chi_20 s)
     4.46736037E-04    2     1000025         3   # BR(~s_L -> ~chi_30 s)
     4.83593423E-02    2     1000035         3   # BR(~s_L -> ~chi_40 s)
     5.11450611E-06    2    -1000024         4   # BR(~s_L -> ~chi_1- c)
     9.68177896E-02    2    -1000037         4   # BR(~s_L -> ~chi_2- c)
     8.51548901E-01    2     1000021         3   # BR(~s_L -> ~g      s)
#
#         PDG            Width
DECAY   2000003     1.51911984E+02   # sstrange_R decays
#          BR         NDA      ID1       ID2
     1.06695999E-02    2     1000022         3   # BR(~s_R -> ~chi_10 s)
     5.06190613E-05    2     1000023         3   # BR(~s_R -> ~chi_20 s)
     3.93938836E-03    2     1000025         3   # BR(~s_R -> ~chi_30 s)
     7.83043909E-09    2     1000035         3   # BR(~s_R -> ~chi_40 s)
     9.85340385E-01    2     1000021         3   # BR(~s_R -> ~g      s)
#
#         PDG            Width
DECAY   1000011     3.12470459E+01   # selectron_L decays
#          BR         NDA      ID1       ID2
     1.13876072E-01    2     1000022        11   # BR(~e_L -> ~chi_10 e-)
     3.62986042E-05    2     1000023        11   # BR(~e_L -> ~chi_20 e-)
     5.30318918E-02    2     1000025        11   # BR(~e_L -> ~chi_30 e-)
     2.77209334E-01    2     1000035        11   # BR(~e_L -> ~chi_40 e-)
     2.97422550E-05    2    -1000024        12   # BR(~e_L -> ~chi_1- nu_e)
     5.55816661E-01    2    -1000037        12   # BR(~e_L -> ~chi_2- nu_e)
#
#         PDG            Width
DECAY   2000011     2.06957755E+01   # selectron_R decays
#          BR         NDA      ID1       ID2
     7.27883656E-01    2     1000022        11   # BR(~e_R -> ~chi_10 e-)
     3.45238105E-03    2     1000023        11   # BR(~e_R -> ~chi_20 e-)
     2.68663436E-01    2     1000025        11   # BR(~e_R -> ~chi_30 e-)
     5.27674763E-07    2     1000035        11   # BR(~e_R -> ~chi_40 e-)
#
#         PDG            Width
DECAY   1000013     3.12470459E+01   # smuon_L decays
#          BR         NDA      ID1       ID2
     1.13876072E-01    2     1000022        13   # BR(~mu_L -> ~chi_10 mu-)
     3.62986042E-05    2     1000023        13   # BR(~mu_L -> ~chi_20 mu-)
     5.30318918E-02    2     1000025        13   # BR(~mu_L -> ~chi_30 mu-)
     2.77209334E-01    2     1000035        13   # BR(~mu_L -> ~chi_40 mu-)
     2.97422550E-05    2    -1000024        14   # BR(~mu_L -> ~chi_1- nu_mu)
     5.55816661E-01    2    -1000037        14   # BR(~mu_L -> ~chi_2- nu_mu)
#
#         PDG            Width
DECAY   2000013     2.06957755E+01   # smuon_R decays
#          BR         NDA      ID1       ID2
     7.27883656E-01    2     1000022        13   # BR(~mu_R -> ~chi_10 mu-)
     3.45238105E-03    2     1000023        13   # BR(~mu_R -> ~chi_20 mu-)
     2.68663436E-01    2     1000025        13   # BR(~mu_R -> ~chi_30 mu-)
     5.27674763E-07    2     1000035        13   # BR(~mu_R -> ~chi_40 mu-)
#
#         PDG            Width
DECAY   1000015     3.09059438E+01   # stau_1 decays
#          BR         NDA      ID1       ID2
     3.66852214E-01    2     1000022        15   # BR(~tau_1 -> ~chi_10  tau-)
     4.36467195E-02    2     1000023        15   # BR(~tau_1 -> ~chi_20  tau-)
     1.16578558E-01    2     1000025        15   # BR(~tau_1 -> ~chi_30  tau-)
     1.39128569E-01    2     1000035        15   # BR(~tau_1 -> ~chi_40  tau-)
     5.48345146E-02    2    -1000024        16   # BR(~tau_1 -> ~chi_1-  nu_tau)
     2.78959425E-01    2    -1000037        16   # BR(~tau_1 -> ~chi_2-  nu_tau)
#
#         PDG            Width
DECAY   2000015     3.08800417E+01   # stau_2 decays
#          BR         NDA      ID1       ID2
     2.71098797E-01    2     1000022        15   # BR(~tau_2 -> ~chi_10  tau-)
     6.29202277E-02    2     1000023        15   # BR(~tau_2 -> ~chi_20  tau-)
     1.89686550E-01    2     1000025        15   # BR(~tau_2 -> ~chi_30  tau-)
     1.41550347E-01    2     1000035        15   # BR(~tau_2 -> ~chi_40  tau-)
     5.09308756E-02    2    -1000024        16   # BR(~tau_2 -> ~chi_1-  nu_tau)
     2.83813203E-01    2    -1000037        16   # BR(~tau_2 -> ~chi_2-  nu_tau)
#
#         PDG            Width
DECAY   1000012     3.12579238E+01   # snu_eL decays
#          BR         NDA      ID1       ID2
     1.27337182E-01    2     1000022        12   # BR(~nu_eL -> ~chi_10 nu_e)
     1.74606200E-03    2     1000023        12   # BR(~nu_eL -> ~chi_20 nu_e)
     3.66853817E-02    2     1000025        12   # BR(~nu_eL -> ~chi_30 nu_e)
     2.77547380E-01    2     1000035        12   # BR(~nu_eL -> ~chi_40 nu_e)
     3.12550897E-03    2     1000024        11   # BR(~nu_eL -> ~chi_1+ e-)
     5.53558486E-01    2     1000037        11   # BR(~nu_eL -> ~chi_2+ e-)
#
#         PDG            Width
DECAY   1000014     3.12579238E+01   # snu_muL decays
#          BR         NDA      ID1       ID2
     1.27337182E-01    2     1000022        14   # BR(~nu_muL -> ~chi_10 nu_mu)
     1.74606200E-03    2     1000023        14   # BR(~nu_muL -> ~chi_20 nu_mu)
     3.66853817E-02    2     1000025        14   # BR(~nu_muL -> ~chi_30 nu_mu)
     2.77547380E-01    2     1000035        14   # BR(~nu_muL -> ~chi_40 nu_mu)
     3.12550897E-03    2     1000024        13   # BR(~nu_muL -> ~chi_1+ mu-)
     5.53558486E-01    2     1000037        13   # BR(~nu_muL -> ~chi_2+ mu-)
#
#         PDG            Width
DECAY   1000016     3.45479465E+01   # snu_tauL decays
#          BR         NDA      ID1       ID2
     1.15252369E-01    2     1000022        16   # BR(~nu_tauL -> ~chi_10 nu_tau)
     1.58035816E-03    2     1000023        16   # BR(~nu_tauL -> ~chi_20 nu_tau)
     3.32039096E-02    2     1000025        16   # BR(~nu_tauL -> ~chi_30 nu_tau)
     2.51334881E-01    2     1000035        16   # BR(~nu_tauL -> ~chi_40 nu_tau)
     9.73497835E-02    2     1000024        15   # BR(~nu_tauL -> ~chi_1+ tau-)
     5.01278699E-01    2     1000037        15   # BR(~nu_tauL -> ~chi_2+ tau-)
#
#         PDG            Width
DECAY   1000024     1.71375561E-04   # chargino1+ decays
#           BR         NDA      ID1       ID2       ID3
     3.33518458E-01    3     1000022         2        -1   # BR(~chi_1+ -> ~chi_10 u    db)
     3.33518458E-01    3     1000022         4        -3   # BR(~chi_1+ -> ~chi_10 c    sb)
     1.11174149E-01    3     1000022       -11        12   # BR(~chi_1+ -> ~chi_10 e+   nu_e)
     1.11174149E-01    3     1000022       -13        14   # BR(~chi_1+ -> ~chi_10 mu+  nu_mu)
     1.10614787E-01    3     1000022       -15        16   # BR(~chi_1+ -> ~chi_10 tau+ nu_tau)
#
#         PDG            Width
DECAY   1000037     1.66967842E+01   # chargino2+ decays
#          BR         NDA      ID1       ID2
     4.20792786E-02    2     1000006        -5   # BR(~chi_2+ -> ~t_1     bb)
     3.73828185E-04    2     2000006        -5   # BR(~chi_2+ -> ~t_2     bb)
     2.43966334E-01    2     1000024        23   # BR(~chi_2+ -> ~chi_1+  Z )
     4.59411002E-02    2     1000022        24   # BR(~chi_2+ -> ~chi_10  W+)
     2.38145572E-01    2     1000023        24   # BR(~chi_2+ -> ~chi_20  W+)
     1.90803227E-01    2     1000025        24   # BR(~chi_2+ -> ~chi_30  W+)
     2.38690660E-01    2     1000024        25   # BR(~chi_2+ -> ~chi_1+  h )
#
#         PDG            Width
DECAY   1000022     0.00000000E+00   # neutralino1 decays
#
#         PDG            Width
DECAY   1000023     1.65876372E-04   # neutralino2 decays
#          BR         NDA      ID1       ID2
     3.53597770E-04    2     1000022        22   # BR(~chi_20 -> ~chi_10 gam)
#           BR         NDA      ID1       ID2       ID3
     1.17799250E-01    3     1000022        -2         2   # BR(~chi_20 -> ~chi_10 ub      u)
     1.52826236E-01    3     1000022        -1         1   # BR(~chi_20 -> ~chi_10 db      d)
     1.17799250E-01    3     1000022        -4         4   # BR(~chi_20 -> ~chi_10 cb      c)
     1.52826236E-01    3     1000022        -3         3   # BR(~chi_20 -> ~chi_10 sb      s)
     1.43211328E-01    3     1000022        -5         5   # BR(~chi_20 -> ~chi_10 bb      b)
     3.50573280E-02    3     1000022       -11        11   # BR(~chi_20 -> ~chi_10 e+      e-)
     3.50573280E-02    3     1000022       -13        13   # BR(~chi_20 -> ~chi_10 mu+     mu-)
     3.47846612E-02    3     1000022       -15        15   # BR(~chi_20 -> ~chi_10 tau+    tau-)
     7.00941315E-02    3     1000022       -12        12   # BR(~chi_20 -> ~chi_10 nu_eb   nu_e)
     7.00941315E-02    3     1000022       -14        14   # BR(~chi_20 -> ~chi_10 nu_mub  nu_mu)
     7.00941296E-02    3     1000022       -16        16   # BR(~chi_20 -> ~chi_10 nu_taub nu_tau)
     4.41070926E-07    3     1000024        -2         1   # BR(~chi_20 -> ~chi_1+ ub      d)
     4.41070926E-07    3    -1000024        -1         2   # BR(~chi_20 -> ~chi_1- db      u)
     4.41070926E-07    3     1000024        -4         3   # BR(~chi_20 -> ~chi_1+ cb      s)
     4.41070926E-07    3    -1000024        -3         4   # BR(~chi_20 -> ~chi_1- sb      c)
     1.47023807E-07    3     1000024       -12        11   # BR(~chi_20 -> ~chi_1+ nu_eb   e-)
     1.47023807E-07    3    -1000024        12       -11   # BR(~chi_20 -> ~chi_1- nu_e    e+)
     1.47023807E-07    3     1000024       -14        13   # BR(~chi_20 -> ~chi_1+ nu_mub  mu-)
     1.47023807E-07    3    -1000024        14       -13   # BR(~chi_20 -> ~chi_1- nu_mu   mu+)
     1.94425785E-08    3     1000024       -16        15   # BR(~chi_20 -> ~chi_1+ nu_taub tau-)
     1.94425785E-08    3    -1000024        16       -15   # BR(~chi_20 -> ~chi_1- nu_tau  tau+)
#
#         PDG            Width
DECAY   1000025     1.13607367E-05   # neutralino3 decays
#          BR         NDA      ID1       ID2
     2.14665118E-02    2     1000022        22   # BR(~chi_30 -> ~chi_10 gam)
     2.74766004E-02    2     1000023        22   # BR(~chi_30 -> ~chi_20 gam)
#           BR         NDA      ID1       ID2       ID3
     9.15860148E-02    3     1000022        -2         2   # BR(~chi_30 -> ~chi_10 ub      u)
     1.18455063E-01    3     1000022        -1         1   # BR(~chi_30 -> ~chi_10 db      d)
     9.15860148E-02    3     1000022        -4         4   # BR(~chi_30 -> ~chi_10 cb      c)
     1.18455063E-01    3     1000022        -3         3   # BR(~chi_30 -> ~chi_10 sb      s)
     1.14155380E-01    3     1000022        -5         5   # BR(~chi_30 -> ~chi_10 bb      b)
     2.68835065E-02    3     1000022       -11        11   # BR(~chi_30 -> ~chi_10 e+      e-)
     2.68835065E-02    3     1000022       -13        13   # BR(~chi_30 -> ~chi_10 mu+     mu-)
     2.67956318E-02    3     1000022       -15        15   # BR(~chi_30 -> ~chi_10 tau+    tau-)
     5.44650212E-02    3     1000022       -12        12   # BR(~chi_30 -> ~chi_10 nu_eb   nu_e)
     5.44650212E-02    3     1000022       -14        14   # BR(~chi_30 -> ~chi_10 nu_mub  nu_mu)
     5.44649398E-02    3     1000022       -16        16   # BR(~chi_30 -> ~chi_10 nu_taub nu_tau)
     2.81902345E-03    3     1000023        -2         2   # BR(~chi_30 -> ~chi_20 ub      u)
     3.65739680E-03    3     1000023        -1         1   # BR(~chi_30 -> ~chi_20 db      d)
     2.81902345E-03    3     1000023        -4         4   # BR(~chi_30 -> ~chi_20 cb      c)
     3.65739680E-03    3     1000023        -3         3   # BR(~chi_30 -> ~chi_20 sb      s)
     7.90831888E-04    3     1000023        -5         5   # BR(~chi_30 -> ~chi_20 bb      b)
     8.39076795E-04    3     1000023       -11        11   # BR(~chi_30 -> ~chi_20 e+      e-)
     8.39076795E-04    3     1000023       -13        13   # BR(~chi_30 -> ~chi_20 mu+     mu-)
     7.54875822E-04    3     1000023       -15        15   # BR(~chi_30 -> ~chi_20 tau+    tau-)
     1.67735965E-03    3     1000023       -12        12   # BR(~chi_30 -> ~chi_20 nu_eb   nu_e)
     1.67735965E-03    3     1000023       -14        14   # BR(~chi_30 -> ~chi_20 nu_mub  nu_mu)
     1.67735966E-03    3     1000023       -16        16   # BR(~chi_30 -> ~chi_20 nu_taub nu_tau)
     2.54410058E-02    3     1000024        -2         1   # BR(~chi_30 -> ~chi_1+ ub      d)
     2.54410058E-02    3    -1000024        -1         2   # BR(~chi_30 -> ~chi_1- db      u)
     2.54410058E-02    3     1000024        -4         3   # BR(~chi_30 -> ~chi_1+ cb      s)
     2.54410058E-02    3    -1000024        -3         4   # BR(~chi_30 -> ~chi_1- sb      c)
     8.48024850E-03    3     1000024       -12        11   # BR(~chi_30 -> ~chi_1+ nu_eb   e-)
     8.48024850E-03    3    -1000024        12       -11   # BR(~chi_30 -> ~chi_1- nu_e    e+)
     8.48024850E-03    3     1000024       -14        13   # BR(~chi_30 -> ~chi_1+ nu_mub  mu-)
     8.48024850E-03    3    -1000024        14       -13   # BR(~chi_30 -> ~chi_1- nu_mu   mu+)
     7.98396339E-03    3     1000024       -16        15   # BR(~chi_30 -> ~chi_1+ nu_taub tau-)
     7.98396339E-03    3    -1000024        16       -15   # BR(~chi_30 -> ~chi_1- nu_tau  tau+)
#
#         PDG            Width
DECAY   1000035     1.66994206E+01   # neutralino4 decays
#          BR         NDA      ID1       ID2
     2.08962754E-02    2     1000022        23   # BR(~chi_40 -> ~chi_10   Z )
     1.46088463E-01    2     1000023        23   # BR(~chi_40 -> ~chi_20   Z )
     7.68559966E-02    2     1000025        23   # BR(~chi_40 -> ~chi_30   Z )
     2.37591839E-01    2     1000024       -24   # BR(~chi_40 -> ~chi_1+   W-)
     2.37591839E-01    2    -1000024        24   # BR(~chi_40 -> ~chi_1-   W+)
     2.55876270E-02    2     1000022        25   # BR(~chi_40 -> ~chi_10   h )
     9.60770732E-02    2     1000023        25   # BR(~chi_40 -> ~chi_20   h )
     1.16319001E-01    2     1000025        25   # BR(~chi_40 -> ~chi_30   h )
     2.07024022E-02    2     1000006        -6   # BR(~chi_40 -> ~t_1      tb)
     2.07024022E-02    2    -1000006         6   # BR(~chi_40 -> ~t_1*     t )
     7.93540294E-04    2     1000005        -5   # BR(~chi_40 -> ~b_1      bb)
     7.93540294E-04    2    -1000005         5   # BR(~chi_40 -> ~b_1*     b )
#
#         PDG            Width
DECAY        25     4.08152973E-03   # h decays
#          BR         NDA      ID1       ID2
     5.90301417E-01    2           5        -5   # BR(h -> b       bb     )
     6.39843080E-02    2         -15        15   # BR(h -> tau+    tau-   )
     2.26502781E-04    2         -13        13   # BR(h -> mu+     mu-    )
     4.80138524E-04    2           3        -3   # BR(h -> s       sb     )
     2.08516452E-02    2           4        -4   # BR(h -> c       cb     )
     6.81709073E-02    2          21        21   # BR(h -> g       g      )
     2.37360801E-03    2          22        22   # BR(h -> gam     gam    )
     1.64770169E-03    2          22        23   # BR(h -> Z       gam    )
     2.23569281E-01    2          24       -24   # BR(h -> W+      W-     )
     2.83944900E-02    2          23        23   # BR(h -> Z       Z      )
#
#         PDG            Width
DECAY        35     5.44845370E+01   # H decays
#          BR         NDA      ID1       ID2
     3.51175514E-01    2           5        -5   # BR(H -> b       bb     )
     6.08539667E-02    2         -15        15   # BR(H -> tau+    tau-   )
     2.15164887E-04    2         -13        13   # BR(H -> mu+     mu-    )
     2.54502958E-04    2           3        -3   # BR(H -> s       sb     )
     7.13878948E-08    2           4        -4   # BR(H -> c       cb     )
     7.15455337E-03    2           6        -6   # BR(H -> t       tb     )
     8.67960401E-07    2          21        21   # BR(H -> g       g      )
     4.03334798E-10    2          22        22   # BR(H -> gam     gam    )
     1.83915701E-09    2          23        22   # BR(H -> Z       gam    )
     1.88520163E-06    2          24       -24   # BR(H -> W+      W-     )
     9.41947886E-07    2          23        23   # BR(H -> Z       Z      )
     7.16499557E-06    2          25        25   # BR(H -> h       h      )
     3.26221161E-24    2          36        36   # BR(H -> A       A      )
     4.49838811E-20    2          23        36   # BR(H -> Z       A      )
     1.86109665E-03    2     1000024  -1000024   # BR(H -> ~chi_1+ ~chi_1-)
     1.61971388E-01    2     1000024  -1000037   # BR(H -> ~chi_1+ ~chi_2-)
     1.61971388E-01    2     1000037  -1000024   # BR(H -> ~chi_2+ ~chi_1-)
     2.37956096E-02    2     1000022   1000022   # BR(H -> ~chi_10 ~chi_10)
     8.51337674E-04    2     1000023   1000023   # BR(H -> ~chi_20 ~chi_20)
     1.42760538E-02    2     1000025   1000025   # BR(H -> ~chi_30 ~chi_30)
     2.57049038E-02    2     1000022   1000023   # BR(H -> ~chi_10 ~chi_20)
     1.01970645E-02    2     1000022   1000025   # BR(H -> ~chi_10 ~chi_30)
     2.64185654E-02    2     1000022   1000035   # BR(H -> ~chi_10 ~chi_40)
     1.25010566E-02    2     1000023   1000025   # BR(H -> ~chi_20 ~chi_30)
     8.06499773E-02    2     1000023   1000035   # BR(H -> ~chi_20 ~chi_40)
     5.54042566E-02    2     1000025   1000035   # BR(H -> ~chi_30 ~chi_40)
     3.51578489E-04    2     1000006  -1000006   # BR(H -> ~t_1    ~t_1*  )
     2.19054418E-03    2     1000006  -2000006   # BR(H -> ~t_1    ~t_2*  )
     2.19054418E-03    2     2000006  -1000006   # BR(H -> ~t_2    ~t_1*  )
#
#         PDG            Width
DECAY        36     5.44797865E+01   # A decays
#          BR         NDA      ID1       ID2
     3.51231935E-01    2           5        -5   # BR(A -> b       bb     )
     6.08595828E-02    2         -15        15   # BR(A -> tau+    tau-   )
     2.15184575E-04    2         -13        13   # BR(A -> mu+     mu-    )
     2.54567766E-04    2           3        -3   # BR(A -> s       sb     )
     7.18507353E-08    2           4        -4   # BR(A -> c       cb     )
     7.16840022E-03    2           6        -6   # BR(A -> t       tb     )
     1.47292485E-05    2          21        21   # BR(A -> g       g      )
     5.62002439E-08    2          22        22   # BR(A -> gam     gam    )
     1.61970828E-08    2          23        22   # BR(A -> Z       gam    )
     1.88137921E-06    2          23        25   # BR(A -> Z       h      )
     1.86794820E-03    2     1000024  -1000024   # BR(A -> ~chi_1+ ~chi_1-)
     1.61985417E-01    2     1000024  -1000037   # BR(A -> ~chi_1+ ~chi_2-)
     1.61985417E-01    2     1000037  -1000024   # BR(A -> ~chi_2+ ~chi_1-)
     2.05323241E-02    2     1000022   1000022   # BR(A -> ~chi_10 ~chi_10)
     1.06721721E-03    2     1000023   1000023   # BR(A -> ~chi_20 ~chi_20)
     1.18416278E-02    2     1000025   1000025   # BR(A -> ~chi_30 ~chi_30)
     3.17369809E-02    2     1000022   1000023   # BR(A -> ~chi_10 ~chi_20)
     8.16858576E-03    2     1000022   1000025   # BR(A -> ~chi_10 ~chi_30)
     2.69721912E-02    2     1000022   1000035   # BR(A -> ~chi_10 ~chi_40)
     1.39843199E-02    2     1000023   1000025   # BR(A -> ~chi_20 ~chi_30)
     7.94378751E-02    2     1000023   1000035   # BR(A -> ~chi_20 ~chi_40)
     5.60142278E-02    2     1000025   1000035   # BR(A -> ~chi_30 ~chi_40)
     2.32972181E-03    2     1000006  -2000006   # BR(A -> ~t_1    ~t_2*  )
     2.32972181E-03    2    -1000006   2000006   # BR(A -> ~t_1*   ~t_2   )
#
#         PDG            Width
DECAY        37     5.44346889E+01   # H+ decays
#          BR         NDA      ID1       ID2
     5.61062933E-04    2           4        -5   # BR(H+ -> c       bb     )
     6.09259497E-02    2         -15        16   # BR(H+ -> tau+    nu_tau )
     2.15419232E-04    2         -13        14   # BR(H+ -> mu+     nu_mu  )
     3.59079969E-06    2           2        -5   # BR(H+ -> u       bb     )
     1.22038963E-05    2           2        -3   # BR(H+ -> u       sb     )
     2.51073391E-04    2           4        -3   # BR(H+ -> c       sb     )
     3.57469200E-01    2           6        -5   # BR(H+ -> t       bb     )
     1.88507653E-06    2          24        25   # BR(H+ -> W+      h      )
     3.04468161E-14    2          24        36   # BR(H+ -> W+      A      )
     6.06129821E-02    2     1000024   1000022   # BR(H+ -> ~chi_1+ ~chi_10)
     3.25766108E-06    2     1000024   1000023   # BR(H+ -> ~chi_1+ ~chi_20)
     2.73966231E-02    2     1000024   1000025   # BR(H+ -> ~chi_1+ ~chi_30)
     1.62334188E-01    2     1000024   1000035   # BR(H+ -> ~chi_1+ ~chi_40)
     5.35148530E-02    2     1000037   1000022   # BR(H+ -> ~chi_2+ ~chi_10)
     1.60312178E-01    2     1000037   1000023   # BR(H+ -> ~chi_2+ ~chi_20)
     1.11698252E-01    2     1000037   1000025   # BR(H+ -> ~chi_2+ ~chi_30)
     4.68728207E-03    2     1000006  -1000005   # BR(H+ -> ~t_1    ~b_1*  )
