#
#                              ======================
#                              | THE SUSYHIT OUTPUT |
#                              ======================
#
#
#              ------------------------------------------------------
#              |     This is the output of the SUSY-HIT package     |
#              |  created by A.Djouadi, M.Muehlleitner and M.Spira. |
#              |  In case of problems with SUSY-HIT email to        |
#              |           margarete.muehlleitner@kit.edu           |
#              |           michael.spira@psi.ch                     |
#              |           abdelhak.djouadi@cern.ch                 |
#              ------------------------------------------------------
#
#              ------------------------------------------------------
#              |  SUSY Les Houches Accord - MSSM Spectrum + Decays  |
#              |              based on the decay programs           |
#              |                                                    |
#              |                     SDECAY 1.5                     |
#              |                                                    |
#              |  Authors: M.Muhlleitner, A.Djouadi and Y.Mambrini  |
#              |  Ref.:    Comput.Phys.Commun.168(2005)46           |
#              |           [hep-ph/0311167]                         |
#              |                                                    |
#              |                     HDECAY 3.4                     |
#              |                                                    |
#              |  By: A.Djouadi,J.Kalinowski,M.Muhlleitner,M.Spira  |
#              |  Ref.:    Comput.Phys.Commun.108(1998)56           |
#              |           [hep-ph/9704448]                         |
#              |                                                    |
#              |                                                    |
#              |  If not stated otherwise all DRbar couplings and   |
#              |  soft SUSY breaking masses are given at the scale  |
#              |  Q=  0.13425038E+04
#              |                                                    |
#              ------------------------------------------------------
#
#
BLOCK DCINFO  # Decay Program information
     1   SDECAY/HDECAY # decay calculator
     2   1.5  /3.4    # version number
#
BLOCK SPINFO  # Spectrum calculator information
     1    SOFTSUSY    # spectrum calculator                
     2    3.7.3       # version number                     
#
BLOCK MODSEL  # Model selection
     1     0   #  nonUniversal                                     
#
BLOCK SMINPUTS  # Standard Model inputs
         1     1.27934000E+02   # alpha_em^-1(M_Z)^MSbar
         2     1.16639000E-05   # G_F [GeV^-2]
         3     1.17200000E-01   # alpha_S(M_Z)^MSbar
         4     9.11870000E+01   # M_Z pole mass
         5     4.19000000E+00   # mb(mb)^MSbar
         6     1.72500000E+02   # mt pole mass
         7     1.77690000E+00   # mtau pole mass
#
BLOCK MINPAR  # Input parameters - minimal models
         3     2.00000000E+01   # tanb                
#
BLOCK EXTPAR  # Input parameters - non-minimal models
         0    -1.00000000E+00   # Set                 
         1     1.49900000E+02   # M_1(MX)             
         2     2.99900000E+02   # M_2(MX)             
         3     2.20000000E+03   # M_3(MX)             
        11     2.94338000E+03   # At(MX)              
        12     0.00000000E+00   # Ab(MX)              
        13     0.00000000E+00   # Atau(MX)            
        23     3.00000000E+03   # mu(MX)              
        25     2.00000000E+01   # tan                 
        26     3.00000000E+03   # mA(pole)            
        31     3.00000000E+03   # meL(MX)             
        32     3.00000000E+03   # mmuL(MX)            
        33     3.00000000E+03   # mtauL(MX)           
        34     3.00000000E+03   # meR(MX)             
        35     3.00000000E+03   # mmuR(MX)            
        36     3.00000000E+03   # mtauR(MX)           
        41     3.00000000E+03   # mqL1(MX)            
        42     3.00000000E+03   # mqL2(MX)            
        43     5.99900000E+02   # mqL3(MX)            
        44     3.00000000E+03   # muR(MX)             
        45     3.00000000E+03   # mcR(MX)             
        46     3.00000000E+03   # mtR(MX)             
        47     3.00000000E+03   # mdR(MX)             
        48     3.00000000E+03   # msR(MX)             
        49     3.00000000E+03   # mbR(MX)             
#
BLOCK MASS  # Mass Spectrum
# PDG code           mass       particle
        24     8.03986518E+01   # W+
        25     1.24459452E+02   # h
        35     3.00018113E+03   # H
        36     2.99999964E+03   # A
        37     3.00094469E+03   # H+
         5     4.81337004E+00   # b-quark pole mass calculated from mb(mb)_Msbar
   1000001     3.02916152E+03   # ~d_L
   2000001     3.02394001E+03   # ~d_R
   1000002     3.02824261E+03   # ~u_L
   2000002     3.02564535E+03   # ~u_R
   1000003     3.02916152E+03   # ~s_L
   2000003     3.02394001E+03   # ~s_R
   1000004     3.02824261E+03   # ~c_L
   2000004     3.02564535E+03   # ~c_R
   1000005     6.81649668E+02   # ~b_1
   2000005     3.02332438E+03   # ~b_2
   1000006     6.79412824E+02   # ~t_1
   2000006     3.00998906E+03   # ~t_2
   1000011     3.00659422E+03   # ~e_L
   2000011     3.00143808E+03   # ~e_R
   1000012     3.00519711E+03   # ~nu_eL
   1000013     3.00659422E+03   # ~mu_L
   2000013     3.00143808E+03   # ~mu_R
   1000014     3.00519711E+03   # ~nu_muL
   1000015     2.98586783E+03   # ~tau_1
   2000015     3.02210554E+03   # ~tau_2
   1000016     3.00520306E+03   # ~nu_tauL
   1000021     2.33581779E+03   # ~g
   1000022     1.50968446E+02   # ~chi_10
   1000023     3.20115060E+02   # ~chi_20
   1000025    -3.00008945E+03   # ~chi_30
   1000035     3.00064501E+03   # ~chi_40
   1000024     3.20276763E+02   # ~chi_1+
   1000037     3.00129795E+03   # ~chi_2+
#
BLOCK NMIX  # Neutralino Mixing Matrix
  1  1     9.99888319E-01   # N_11
  1  2    -1.15322294E-03   # N_12
  1  3     1.48268369E-02   # N_13
  1  4    -1.47801471E-03   # N_14
  2  1     1.54960209E-03   # N_21
  2  2     9.99643637E-01   # N_22
  2  3    -2.63582174E-02   # N_23
  2  4     3.92964194E-03   # N_24
  3  1    -9.41782261E-03   # N_31
  3  2     1.58725639E-02   # N_32
  3  3     7.06841627E-01   # N_33
  3  4     7.07131021E-01   # N_34
  4  1    -1.15001257E-02   # N_41
  4  2     2.14320035E-02   # N_42
  4  3     7.06725070E-01   # N_43
  4  4    -7.07070076E-01   # N_44
#
BLOCK UMIX  # Chargino Mixing Matrix U
  1  1     9.99304249E-01   # U_11
  1  2    -3.72963633E-02   # U_12
  2  1     3.72963633E-02   # U_21
  2  2     9.99304249E-01   # U_22
#
BLOCK VMIX  # Chargino Mixing Matrix V
  1  1     9.99984534E-01   # V_11
  1  2    -5.56160747E-03   # V_12
  2  1     5.56160747E-03   # V_21
  2  2     9.99984534E-01   # V_22
#
BLOCK STOPMIX  # Stop Mixing Matrix
  1  1     9.98869901E-01   # cos(theta_t)
  1  2    -4.75281062E-02   # sin(theta_t)
  2  1     4.75281062E-02   # -sin(theta_t)
  2  2     9.98869901E-01   # cos(theta_t)
#
BLOCK SBOTMIX  # Sbottom Mixing Matrix
  1  1     9.99918866E-01   # cos(theta_b)
  1  2     1.27381874E-02   # sin(theta_b)
  2  1    -1.27381874E-02   # -sin(theta_b)
  2  2     9.99918866E-01   # cos(theta_b)
#
BLOCK STAUMIX  # Stau Mixing Matrix
  1  1     7.06917174E-01   # cos(theta_tau)
  1  2     7.07296338E-01   # sin(theta_tau)
  2  1    -7.07296338E-01   # -sin(theta_tau)
  2  2     7.06917174E-01   # cos(theta_tau)
#
BLOCK ALPHA  # Higgs mixing
          -5.01883602E-02   # Mixing angle in the neutral Higgs boson sector
#
BLOCK HMIX Q=  1.34250382E+03  # DRbar Higgs Parameters
         1     3.00000000E+03   # mu(Q)MSSM           
         2     2.00000000E+01   # tan                 
         3     2.44494313E+02   # higgs               
         4     7.04401573E+06   # mA^2(Q)MSSM         
#
BLOCK GAUGE Q=  1.34250382E+03  # The gauge couplings
     1     3.61802061E-01   # gprime(Q) DRbar
     2     6.38799641E-01   # g(Q) DRbar
     3     1.02884491E+00   # g3(Q) DRbar
#
BLOCK AU Q=  1.34250382E+03  # The trilinear couplings
  1  1     1.68350289E-06   # A_u(Q) DRbar
  2  2     1.68352871E-06   # A_c(Q) DRbar
  3  3     2.94338000E+03   # A_t(Q) DRbar
#
BLOCK AD Q=  1.34250382E+03  # The trilinear couplings
  1  1     4.25708407E-07   # A_d(Q) DRbar
  2  2     4.25791780E-07   # A_s(Q) DRbar
  3  3     9.75053955E-07   # A_b(Q) DRbar
#
BLOCK AE Q=  1.34250382E+03  # The trilinear couplings
  1  1     0.00000000E+00   # A_e(Q) DRbar
  2  2     9.24229852E-08   # A_mu(Q) DRbar
  3  3     9.35301677E-08   # A_tau(Q) DRbar
#
BLOCK Yu Q=  1.34250382E+03  # The Yukawa couplings
  1  1     0.00000000E+00   # y_u(Q) DRbar
  2  2     0.00000000E+00   # y_c(Q) DRbar
  3  3     8.54427352E-01   # y_t(Q) DRbar
#
BLOCK Yd Q=  1.34250382E+03  # The Yukawa couplings
  1  1     0.00000000E+00   # y_d(Q) DRbar
  2  2     0.00000000E+00   # y_s(Q) DRbar
  3  3     2.12453697E-01   # y_b(Q) DRbar
#
BLOCK Ye Q=  1.34250382E+03  # The Yukawa couplings
  1  1     0.00000000E+00   # y_e(Q) DRbar
  2  2     0.00000000E+00   # y_mu(Q) DRbar
  3  3     2.05608468E-01   # y_tau(Q) DRbar
#
BLOCK MSOFT Q=  1.34250382E+03  # The soft SUSY breaking masses at the scale Q
         1     1.49900000E+02   # M_1(Q)              
         2     2.99900000E+02   # M_2(Q)              
         3     2.20000000E+03   # M_3(Q)              
        21    -8.59639741E+04   # M^2_Hd              
        22    -9.09704310E+06   # M^2_Hu              
        31     3.00000000E+03   # M_eL                
        32     3.00000000E+03   # M_muL               
        33     3.00000000E+03   # M_tauL              
        34     3.00000000E+03   # M_eR                
        35     3.00000000E+03   # M_muR               
        36     3.00000000E+03   # M_tauR              
        41     3.00000000E+03   # M_q1L               
        42     3.00000000E+03   # M_q2L               
        43     5.99899994E+02   # M_q3L               
        44     3.00000000E+03   # M_uR                
        45     3.00000000E+03   # M_cR                
        46     3.00000000E+03   # M_tR                
        47     3.00000000E+03   # M_dR                
        48     3.00000000E+03   # M_sR                
        49     3.00000000E+03   # M_bR                
#
#
#
#                             =================
#                             |The decay table|
#                             =================
#
# - The QCD corrections to the decays gluino -> squark  + quark
#                                     squark -> gaugino + quark_prime
#                                     squark -> squark_prime + Higgs
#                                     squark -> gluino  + quark
#   are included.
#
# - The multi-body decays for the inos, stops and sbottoms are included.
#
# - The loop induced decays for the gluino, neutralinos and stops
#   are included.
#
# - The SUSY decays of the top quark are included.
#
#
#         PDG            Width
DECAY         6     1.41653122E+00   # top decays
#          BR         NDA      ID1       ID2
     1.00000000E+00    2           5        24   # BR(t ->  b    W+)
#
#         PDG            Width
DECAY   1000021     7.86035395E+01   # gluino decays
#          BR         NDA      ID1       ID2
     2.48250334E-01    2     1000005        -5   # BR(~g -> ~b_1  bb)
     2.48250334E-01    2    -1000005         5   # BR(~g -> ~b_1* b )
     2.51749666E-01    2     1000006        -6   # BR(~g -> ~t_1  tb)
     2.51749666E-01    2    -1000006         6   # BR(~g -> ~t_1* t )
#
#         PDG            Width
DECAY   1000006     4.94969490E+00   # stop1 decays
#          BR         NDA      ID1       ID2
     1.59449259E-02    2     1000022         6   # BR(~t_1 -> ~chi_10 t )
     2.82100896E-01    2     1000023         6   # BR(~t_1 -> ~chi_20 t )
     7.01954178E-01    2     1000024         5   # BR(~t_1 -> ~chi_1+ b )
#
#         PDG            Width
DECAY   2000006     1.04263262E+02   # stop2 decays
#          BR         NDA      ID1       ID2
     6.28586014E-02    2     1000022         6   # BR(~t_2 -> ~chi_10 t )
     2.99117001E-04    2     1000023         6   # BR(~t_2 -> ~chi_20 t )
     0.00000000E+00    2     1000025         6   # BR(~t_2 -> ~chi_30 t )
     6.00614155E-04    2     1000024         5   # BR(~t_2 -> ~chi_1+ b )
     1.30792670E-05    2     1000037         5   # BR(~t_2 -> ~chi_2+ b )
     3.24184871E-01    2     1000021         6   # BR(~t_2 -> ~g      t )
     1.60660234E-01    2     1000006        25   # BR(~t_2 -> ~t_1    h )
     1.51367072E-01    2     1000006        23   # BR(~t_2 -> ~t_1    Z )
     3.00016411E-01    2     1000005        24   # BR(~t_2 -> ~b_1    W+)
#
#         PDG            Width
DECAY   1000005     4.66931696E+00   # sbottom1 decays
#          BR         NDA      ID1       ID2
     2.02309098E-02    2     1000022         5   # BR(~b_1 -> ~chi_10 b )
     3.75430371E-01    2     1000023         5   # BR(~b_1 -> ~chi_20 b )
     6.04338719E-01    2    -1000024         6   # BR(~b_1 -> ~chi_1- t )
#
#         PDG            Width
DECAY   2000005     4.23790563E+01   # sbottom2 decays
#          BR         NDA      ID1       ID2
     3.90689713E-02    2     1000022         5   # BR(~b_2 -> ~chi_10 b )
     1.31850549E-07    2     1000023         5   # BR(~b_2 -> ~chi_20 b )
     7.87609438E-06    2     1000025         5   # BR(~b_2 -> ~chi_30 b )
     7.65110361E-06    2     1000035         5   # BR(~b_2 -> ~chi_40 b )
    -3.01673199E-08    2    -1000024         6   # BR(~b_2 -> ~chi_1- t )
     8.28525800E-01    2     1000021         5   # BR(~b_2 -> ~g      b )
     2.92257216E-02    2     1000005        25   # BR(~b_2 -> ~b_1    h )
     4.22760909E-02    2     1000005        23   # BR(~b_2 -> ~b_1    Z )
     6.08877873E-02    2     1000006       -24   # BR(~b_2 -> ~t_1    W-)
#
#         PDG            Width
DECAY   1000002     7.02686138E+01   # sup_L decays
#          BR         NDA      ID1       ID2
     5.83141900E-03    2     1000022         2   # BR(~u_L -> ~chi_10 u)
     1.62981254E-01    2     1000023         2   # BR(~u_L -> ~chi_20 u)
     1.32732716E-08    2     1000025         2   # BR(~u_L -> ~chi_30 u)
     2.38445299E-08    2     1000035         2   # BR(~u_L -> ~chi_40 u)
     3.25986968E-01    2     1000024         1   # BR(~u_L -> ~chi_1+ d)
     3.79522106E-09    2     1000037         1   # BR(~u_L -> ~chi_2+ d)
     5.05200319E-01    2     1000021         2   # BR(~u_L -> ~g      u)
#
#         PDG            Width
DECAY   2000002     4.19217274E+01   # sup_R decays
#          BR         NDA      ID1       ID2
     1.58180221E-01    2     1000022         2   # BR(~u_R -> ~chi_10 u)
     3.73806209E-07    2     1000023         2   # BR(~u_R -> ~chi_20 u)
     4.69630471E-09    2     1000025         2   # BR(~u_R -> ~chi_30 u)
     6.70939673E-09    2     1000035         2   # BR(~u_R -> ~chi_40 u)
     8.41819394E-01    2     1000021         2   # BR(~u_R -> ~g      u)
#
#         PDG            Width
DECAY   1000001     7.03195898E+01   # sdown_L decays
#          BR         NDA      ID1       ID2
     5.97322403E-03    2     1000022         1   # BR(~d_L -> ~chi_10 d)
     1.62725470E-01    2     1000023         1   # BR(~d_L -> ~chi_20 d)
     2.21352634E-08    2     1000025         1   # BR(~d_L -> ~chi_30 d)
     3.81248300E-08    2     1000035         1   # BR(~d_L -> ~chi_40 d)
     3.25413394E-01    2    -1000024         2   # BR(~d_L -> ~chi_1- u)
     1.81996478E-07    2    -1000037         2   # BR(~d_L -> ~chi_2- u)
     5.05887669E-01    2     1000021         1   # BR(~d_L -> ~g      d)
#
#         PDG            Width
DECAY   2000001     3.68101560E+01   # sdown_R decays
#          BR         NDA      ID1       ID2
     4.50100541E-02    2     1000022         1   # BR(~d_R -> ~chi_10 d)
     1.06364231E-07    2     1000023         1   # BR(~d_R -> ~chi_20 d)
     1.16956445E-09    2     1000025         1   # BR(~d_R -> ~chi_30 d)
     1.66571768E-09    2     1000035         1   # BR(~d_R -> ~chi_40 d)
     9.54989837E-01    2     1000021         1   # BR(~d_R -> ~g      d)
#
#         PDG            Width
DECAY   1000004     7.02686138E+01   # scharm_L decays
#          BR         NDA      ID1       ID2
     5.83141900E-03    2     1000022         4   # BR(~c_L -> ~chi_10 c)
     1.62981254E-01    2     1000023         4   # BR(~c_L -> ~chi_20 c)
     1.32732716E-08    2     1000025         4   # BR(~c_L -> ~chi_30 c)
     2.38445299E-08    2     1000035         4   # BR(~c_L -> ~chi_40 c)
     3.25986968E-01    2     1000024         3   # BR(~c_L -> ~chi_1+ s)
     3.79522106E-09    2     1000037         3   # BR(~c_L -> ~chi_2+ s)
     5.05200319E-01    2     1000021         4   # BR(~c_L -> ~g      c)
#
#         PDG            Width
DECAY   2000004     4.19217274E+01   # scharm_R decays
#          BR         NDA      ID1       ID2
     1.58180221E-01    2     1000022         4   # BR(~c_R -> ~chi_10 c)
     3.73806209E-07    2     1000023         4   # BR(~c_R -> ~chi_20 c)
     4.69630471E-09    2     1000025         4   # BR(~c_R -> ~chi_30 c)
     6.70939673E-09    2     1000035         4   # BR(~c_R -> ~chi_40 c)
     8.41819394E-01    2     1000021         4   # BR(~c_R -> ~g      c)
#
#         PDG            Width
DECAY   1000003     7.03195898E+01   # sstrange_L decays
#          BR         NDA      ID1       ID2
     5.97322403E-03    2     1000022         3   # BR(~s_L -> ~chi_10 s)
     1.62725470E-01    2     1000023         3   # BR(~s_L -> ~chi_20 s)
     2.21352634E-08    2     1000025         3   # BR(~s_L -> ~chi_30 s)
     3.81248300E-08    2     1000035         3   # BR(~s_L -> ~chi_40 s)
     3.25413394E-01    2    -1000024         4   # BR(~s_L -> ~chi_1- c)
     1.81996478E-07    2    -1000037         4   # BR(~s_L -> ~chi_2- c)
     5.05887669E-01    2     1000021         3   # BR(~s_L -> ~g      s)
#
#         PDG            Width
DECAY   2000003     3.68101560E+01   # sstrange_R decays
#          BR         NDA      ID1       ID2
     4.50100541E-02    2     1000022         3   # BR(~s_R -> ~chi_10 s)
     1.06364231E-07    2     1000023         3   # BR(~s_R -> ~chi_20 s)
     1.16956445E-09    2     1000025         3   # BR(~s_R -> ~chi_30 s)
     1.66571768E-09    2     1000035         3   # BR(~s_R -> ~chi_40 s)
     9.54989837E-01    2     1000021         3   # BR(~s_R -> ~g      s)
#
#         PDG            Width
DECAY   1000011     3.96439439E+01   # selectron_L decays
#          BR         NDA      ID1       ID2
     9.78317632E-02    2     1000022        11   # BR(~e_L -> ~chi_10 e-)
     3.01215624E-01    2     1000023        11   # BR(~e_L -> ~chi_20 e-)
     6.38734732E-10    2     1000025        11   # BR(~e_L -> ~chi_30 e-)
     1.07090737E-09    2     1000035        11   # BR(~e_L -> ~chi_40 e-)
     6.00952601E-01    2    -1000024        12   # BR(~e_L -> ~chi_1- nu_e)
     1.06114719E-08    2    -1000037        12   # BR(~e_L -> ~chi_2- nu_e)
#
#         PDG            Width
DECAY   2000011     1.55501770E+01   # selectron_R decays
#          BR         NDA      ID1       ID2
     9.99997641E-01    2     1000022        11   # BR(~e_R -> ~chi_10 e-)
     2.35939026E-06    2     1000023        11   # BR(~e_R -> ~chi_20 e-)
     7.19762079E-11    2     1000025        11   # BR(~e_R -> ~chi_30 e-)
     3.71202538E-11    2     1000035        11   # BR(~e_R -> ~chi_40 e-)
#
#         PDG            Width
DECAY   1000013     3.96439439E+01   # smuon_L decays
#          BR         NDA      ID1       ID2
     9.78317632E-02    2     1000022        13   # BR(~mu_L -> ~chi_10 mu-)
     3.01215624E-01    2     1000023        13   # BR(~mu_L -> ~chi_20 mu-)
     6.38734732E-10    2     1000025        13   # BR(~mu_L -> ~chi_30 mu-)
     1.07090737E-09    2     1000035        13   # BR(~mu_L -> ~chi_40 mu-)
     6.00952601E-01    2    -1000024        14   # BR(~mu_L -> ~chi_1- nu_mu)
     1.06114719E-08    2    -1000037        14   # BR(~mu_L -> ~chi_2- nu_mu)
#
#         PDG            Width
DECAY   2000013     1.55501770E+01   # smuon_R decays
#          BR         NDA      ID1       ID2
     9.99997641E-01    2     1000022        13   # BR(~mu_R -> ~chi_10 mu-)
     2.35939026E-06    2     1000023        13   # BR(~mu_R -> ~chi_20 mu-)
     7.19762079E-11    2     1000025        13   # BR(~mu_R -> ~chi_30 mu-)
     3.71202538E-11    2     1000035        13   # BR(~mu_R -> ~chi_40 mu-)
#
#         PDG            Width
DECAY   1000015     2.78840768E+01   # stau_1 decays
#          BR         NDA      ID1       ID2
     3.48239638E-01    2     1000022        15   # BR(~tau_1 -> ~chi_10  tau-)
     2.17617873E-01    2     1000023        15   # BR(~tau_1 -> ~chi_20  tau-)
     4.34142490E-01    2    -1000024        16   # BR(~tau_1 -> ~chi_1-  nu_tau)
#
#         PDG            Width
DECAY   2000015     2.72903857E+01   # stau_2 decays
#          BR         NDA      ID1       ID2
     3.56486729E-01    2     1000022        15   # BR(~tau_2 -> ~chi_10  tau-)
     2.14878674E-01    2     1000023        15   # BR(~tau_2 -> ~chi_20  tau-)
     9.59031778E-06    2     1000025        15   # BR(~tau_2 -> ~chi_30  tau-)
     1.09422008E-05    2     1000035        15   # BR(~tau_2 -> ~chi_40  tau-)
     4.28603164E-01    2    -1000024        16   # BR(~tau_2 -> ~chi_1-  nu_tau)
     1.09012419E-05    2    -1000037        16   # BR(~tau_2 -> ~chi_2-  nu_tau)
#
#         PDG            Width
DECAY   1000012     3.96470357E+01   # snu_eL decays
#          BR         NDA      ID1       ID2
     9.85779190E-02    2     1000022        12   # BR(~nu_eL -> ~chi_10 nu_e)
     2.99990369E-01    2     1000023        12   # BR(~nu_eL -> ~chi_20 nu_e)
     1.59607706E-09    2     1000025        12   # BR(~nu_eL -> ~chi_30 nu_e)
     2.20187475E-09    2     1000035        12   # BR(~nu_eL -> ~chi_40 nu_e)
     6.01431708E-01    2     1000024        11   # BR(~nu_eL -> ~chi_1+ e-)
     1.28001451E-10    2     1000037        11   # BR(~nu_eL -> ~chi_2+ e-)
#
#         PDG            Width
DECAY   1000014     3.96470357E+01   # snu_muL decays
#          BR         NDA      ID1       ID2
     9.85779190E-02    2     1000022        14   # BR(~nu_muL -> ~chi_10 nu_mu)
     2.99990369E-01    2     1000023        14   # BR(~nu_muL -> ~chi_20 nu_mu)
     1.59607706E-09    2     1000025        14   # BR(~nu_muL -> ~chi_30 nu_mu)
     2.20187475E-09    2     1000035        14   # BR(~nu_muL -> ~chi_40 nu_mu)
     6.01431708E-01    2     1000024        13   # BR(~nu_muL -> ~chi_1+ mu-)
     1.28001451E-10    2     1000037        13   # BR(~nu_muL -> ~chi_2+ mu-)
#
#         PDG            Width
DECAY   1000016     3.96504792E+01   # snu_tauL decays
#          BR         NDA      ID1       ID2
     9.85695549E-02    2     1000022        16   # BR(~nu_tauL -> ~chi_10 nu_tau)
     2.99964937E-01    2     1000023        16   # BR(~nu_tauL -> ~chi_20 nu_tau)
     1.59965255E-09    2     1000025        16   # BR(~nu_tauL -> ~chi_30 nu_tau)
     2.20743414E-09    2     1000035        16   # BR(~nu_tauL -> ~chi_40 nu_tau)
     6.01465116E-01    2     1000024        15   # BR(~nu_tauL -> ~chi_1+ tau-)
     3.88435487E-07    2     1000037        15   # BR(~nu_tauL -> ~chi_2+ tau-)
#
#         PDG            Width
DECAY   1000024     2.60712659E-05   # chargino1+ decays
#          BR         NDA      ID1       ID2
     1.00000000E+00    2     1000022        24   # BR(~chi_1+ -> ~chi_10  W+)
#
#         PDG            Width
DECAY   1000037     8.73311540E+01   # chargino2+ decays
#          BR         NDA      ID1       ID2
     4.67839624E-02    2     1000006        -5   # BR(~chi_2+ -> ~t_1     bb)
     7.25859804E-01    2    -1000005         6   # BR(~chi_2+ -> ~b_1*    t )
     5.93572970E-07    2    -1000015        16   # BR(~chi_2+ -> ~tau_1+  nu_tau)
     6.84520835E-02    2     1000024        23   # BR(~chi_2+ -> ~chi_1+  Z )
     2.12100684E-02    2     1000022        24   # BR(~chi_2+ -> ~chi_10  W+)
     6.68335544E-02    2     1000023        24   # BR(~chi_2+ -> ~chi_20  W+)
     7.08599336E-02    2     1000024        25   # BR(~chi_2+ -> ~chi_1+  h )
#
#         PDG            Width
DECAY   1000022     0.00000000E+00   # neutralino1 decays
#
#         PDG            Width
DECAY   1000023     1.88635361E-05   # neutralino2 decays
#          BR         NDA      ID1       ID2
     4.91352166E-02    2     1000022        23   # BR(~chi_20 -> ~chi_10   Z )
     9.50864783E-01    2     1000022        25   # BR(~chi_20 -> ~chi_10   h )
#
#         PDG            Width
DECAY   1000025     8.75993997E+01   # neutralino3 decays
#          BR         NDA      ID1       ID2
     1.30963694E-02    2     1000022        23   # BR(~chi_30 -> ~chi_10   Z )
     4.39857352E-02    2     1000023        23   # BR(~chi_30 -> ~chi_20   Z )
     6.65097512E-02    2     1000024       -24   # BR(~chi_30 -> ~chi_1+   W-)
     6.65097512E-02    2    -1000024        24   # BR(~chi_30 -> ~chi_1-   W+)
     9.02926057E-03    2     1000022        25   # BR(~chi_30 -> ~chi_10   h )
     2.45229653E-02    2     1000023        25   # BR(~chi_30 -> ~chi_20   h )
     3.65704652E-01    2     1000006        -6   # BR(~chi_30 -> ~t_1      tb)
     3.65704652E-01    2    -1000006         6   # BR(~chi_30 -> ~t_1*     t )
     2.24679093E-02    2     1000005        -5   # BR(~chi_30 -> ~b_1      bb)
     2.24679093E-02    2    -1000005         5   # BR(~chi_30 -> ~b_1*     b )
     5.22482185E-07    2     1000015       -15   # BR(~chi_30 -> ~tau_1-   tau+)
     5.22482185E-07    2    -1000015        15   # BR(~chi_30 -> ~tau_1+   tau-)
#
#         PDG            Width
DECAY   1000035     8.67168004E+01   # neutralino4 decays
#          BR         NDA      ID1       ID2
     8.87287286E-03    2     1000022        23   # BR(~chi_40 -> ~chi_10   Z )
     2.43940593E-02    2     1000023        23   # BR(~chi_40 -> ~chi_20   Z )
     6.72086114E-02    2     1000024       -24   # BR(~chi_40 -> ~chi_1+   W-)
     6.72086114E-02    2    -1000024        24   # BR(~chi_40 -> ~chi_1-   W+)
     1.36379674E-02    2     1000022        25   # BR(~chi_40 -> ~chi_10   h )
     4.64875053E-02    2     1000023        25   # BR(~chi_40 -> ~chi_20   h )
     3.63368419E-01    2     1000006        -6   # BR(~chi_40 -> ~t_1      tb)
     3.63368419E-01    2    -1000006         6   # BR(~chi_40 -> ~t_1*     t )
     2.27260535E-02    2     1000005        -5   # BR(~chi_40 -> ~b_1      bb)
     2.27260535E-02    2    -1000005         5   # BR(~chi_40 -> ~b_1*     b )
     7.14132915E-07    2     1000015       -15   # BR(~chi_40 -> ~tau_1-   tau+)
     7.14132915E-07    2    -1000015        15   # BR(~chi_40 -> ~tau_1+   tau-)
#
#         PDG            Width
DECAY        25     4.81081149E-03   # h decays
#          BR         NDA      ID1       ID2
     6.83520354E-01    2           5        -5   # BR(h -> b       bb     )
     5.40391865E-02    2         -15        15   # BR(h -> tau+    tau-   )
     1.91302335E-04    2         -13        13   # BR(h -> mu+     mu-    )
     4.06347773E-04    2           3        -3   # BR(h -> s       sb     )
     1.75360867E-02    2           4        -4   # BR(h -> c       cb     )
     5.68030099E-02    2          21        21   # BR(h -> g       g      )
     1.91925973E-03    2          22        22   # BR(h -> gam     gam    )
     1.23709188E-03    2          22        23   # BR(h -> Z       gam    )
     1.64021565E-01    2          24       -24   # BR(h -> W+      W-     )
     2.03257961E-02    2          23        23   # BR(h -> Z       Z      )
#
#         PDG            Width
DECAY        35     1.39488908E+01   # H decays
#          BR         NDA      ID1       ID2
     7.43108877E-01    2           5        -5   # BR(H -> b       bb     )
     1.78279649E-01    2         -15        15   # BR(H -> tau+    tau-   )
     6.30354235E-04    2         -13        13   # BR(H -> mu+     mu-    )
     7.74073447E-04    2           3        -3   # BR(H -> s       sb     )
     2.18483251E-07    2           4        -4   # BR(H -> c       cb     )
     2.17951193E-02    2           6        -6   # BR(H -> t       tb     )
     3.20422865E-05    2          21        21   # BR(H -> g       g      )
     3.15667767E-08    2          22        22   # BR(H -> gam     gam    )
     8.36694365E-09    2          23        22   # BR(H -> Z       gam    )
     3.34535271E-05    2          24       -24   # BR(H -> W+      W-     )
     1.67061367E-05    2          23        23   # BR(H -> Z       Z      )
     8.64308899E-05    2          25        25   # BR(H -> h       h      )
    -3.28640620E-23    2          36        36   # BR(H -> A       A      )
     1.54543477E-17    2          23        36   # BR(H -> Z       A      )
     2.32573197E-03    2     1000024  -1000024   # BR(H -> ~chi_1+ ~chi_1-)
     1.12195761E-04    2     1000022   1000022   # BR(H -> ~chi_10 ~chi_10)
     1.15896462E-03    2     1000023   1000023   # BR(H -> ~chi_20 ~chi_20)
     7.24200423E-04    2     1000022   1000023   # BR(H -> ~chi_10 ~chi_20)
     5.09158040E-02    2     1000006  -1000006   # BR(H -> ~t_1    ~t_1*  )
     6.13906471E-06    2     1000005  -1000005   # BR(H -> ~b_1    ~b_1*  )
#
#         PDG            Width
DECAY        36     1.32425463E+01   # A decays
#          BR         NDA      ID1       ID2
     7.82809419E-01    2           5        -5   # BR(A -> b       bb     )
     1.87782143E-01    2         -15        15   # BR(A -> tau+    tau-   )
     6.63951855E-04    2         -13        13   # BR(A -> mu+     mu-    )
     8.15470761E-04    2           3        -3   # BR(A -> s       sb     )
     2.30114290E-07    2           4        -4   # BR(A -> c       cb     )
     2.29427433E-02    2           6        -6   # BR(A -> t       tb     )
     6.75641920E-05    2          21        21   # BR(A -> g       g      )
     3.14240869E-08    2          22        22   # BR(A -> gam     gam    )
     6.65285862E-08    2          23        22   # BR(A -> Z       gam    )
     3.51032764E-05    2          23        25   # BR(A -> Z       h      )
     2.64451847E-03    2     1000024  -1000024   # BR(A -> ~chi_1+ ~chi_1-)
     1.21794553E-04    2     1000022   1000022   # BR(A -> ~chi_10 ~chi_10)
     1.31777760E-03    2     1000023   1000023   # BR(A -> ~chi_20 ~chi_20)
     7.99185893E-04    2     1000022   1000023   # BR(A -> ~chi_10 ~chi_20)
#
#         PDG            Width
DECAY        37     9.99539953E+00   # H+ decays
#          BR         NDA      ID1       ID2
     1.09157705E-03    2           4        -5   # BR(H+ -> c       bb     )
     2.48864197E-01    2         -15        16   # BR(H+ -> tau+    nu_tau )
     8.79923098E-04    2         -13        14   # BR(H+ -> mu+     nu_mu  )
     6.98608211E-06    2           2        -5   # BR(H+ -> u       bb     )
     5.17111573E-05    2           2        -3   # BR(H+ -> u       sb     )
     1.06386479E-03    2           4        -3   # BR(H+ -> c       sb     )
     7.11087522E-01    2           6        -5   # BR(H+ -> t       bb     )
     4.65801583E-05    2          24        25   # BR(H+ -> W+      h      )
     9.92336399E-14    2          24        36   # BR(H+ -> W+      A      )
     2.06355236E-03    2     1000024   1000022   # BR(H+ -> ~chi_1+ ~chi_10)
     4.93688913E-09    2     1000024   1000023   # BR(H+ -> ~chi_1+ ~chi_20)
     3.48440822E-02    2     1000006  -1000005   # BR(H+ -> ~t_1    ~b_1*  )
