#
#                              ======================
#                              | THE SUSYHIT OUTPUT |
#                              ======================
#
#
#              ------------------------------------------------------
#              |     This is the output of the SUSY-HIT package     |
#              |  created by A.Djouadi, M.Muehlleitner and M.Spira. |
#              |  In case of problems with SUSY-HIT email to        |
#              |           margarete.muehlleitner@kit.edu           |
#              |           michael.spira@psi.ch                     |
#              |           abdelhak.djouadi@cern.ch                 |
#              ------------------------------------------------------
#
#              ------------------------------------------------------
#              |  SUSY Les Houches Accord - MSSM Spectrum + Decays  |
#              |              based on the decay programs           |
#              |                                                    |
#              |                     SDECAY 1.5                     |
#              |                                                    |
#              |  Authors: M.Muhlleitner, A.Djouadi and Y.Mambrini  |
#              |  Ref.:    Comput.Phys.Commun.168(2005)46           |
#              |           [hep-ph/0311167]                         |
#              |                                                    |
#              |                     HDECAY 3.4                     |
#              |                                                    |
#              |  By: A.Djouadi,J.Kalinowski,M.Muhlleitner,M.Spira  |
#              |  Ref.:    Comput.Phys.Commun.108(1998)56           |
#              |           [hep-ph/9704448]                         |
#              |                                                    |
#              |                                                    |
#              |  If not stated otherwise all DRbar couplings and   |
#              |  soft SUSY breaking masses are given at the scale  |
#              |  Q=  0.11085788E+04
#              |                                                    |
#              ------------------------------------------------------
#
#
BLOCK DCINFO  # Decay Program information
     1   SDECAY/HDECAY # decay calculator
     2   1.5  /3.4    # version number
#
BLOCK SPINFO  # Spectrum calculator information
     1    SOFTSUSY    # spectrum calculator                
     2    3.7.3       # version number                     
#
BLOCK MODSEL  # Model selection
     1     0   #  nonUniversal                                     
#
BLOCK SMINPUTS  # Standard Model inputs
         1     1.27934000E+02   # alpha_em^-1(M_Z)^MSbar
         2     1.16639000E-05   # G_F [GeV^-2]
         3     1.17200000E-01   # alpha_S(M_Z)^MSbar
         4     9.11870000E+01   # M_Z pole mass
         5     4.19000000E+00   # mb(mb)^MSbar
         6     1.72500000E+02   # mt pole mass
         7     1.77690000E+00   # mtau pole mass
#
BLOCK MINPAR  # Input parameters - minimal models
         3     2.00000000E+01   # tanb                
#
BLOCK EXTPAR  # Input parameters - non-minimal models
         0    -1.00000000E+00   # Set                 
         1     4.09990000E+02   # M_1(MX)             
         2     2.00000000E+03   # M_2(MX)             
         3     1.80000000E+03   # M_3(MX)             
        11     2.25959179E+03   # At(MX)              
        12     0.00000000E+00   # Ab(MX)              
        13     0.00000000E+00   # Atau(MX)            
        23    -4.38900000E+02   # mu(MX)              
        25     2.00000000E+01   # tan                 
        26     4.00000000E+03   # mA(pole)            
        31     4.00000000E+03   # meL(MX)             
        32     4.00000000E+03   # mmuL(MX)            
        33     4.00000000E+03   # mtauL(MX)           
        34     4.00000000E+03   # meR(MX)             
        35     4.00000000E+03   # mmuR(MX)            
        36     4.00000000E+03   # mtauR(MX)           
        41     4.00000000E+03   # mqL1(MX)            
        42     4.00000000E+03   # mqL2(MX)            
        43     5.59900000E+02   # mqL3(MX)            
        44     4.00000000E+03   # muR(MX)             
        45     4.00000000E+03   # mcR(MX)             
        46     2.20485961E+03   # mtR(MX)             
        47     4.00000000E+03   # mdR(MX)             
        48     4.00000000E+03   # msR(MX)             
        49     4.00000000E+03   # mbR(MX)             
#
BLOCK MASS  # Mass Spectrum
# PDG code           mass       particle
        24     8.04169312E+01   # W+
        25     1.24094954E+02   # h
        35     4.00001063E+03   # H
        36     3.99999702E+03   # A
        37     4.00099496E+03   # H+
         5     4.81337004E+00   # b-quark pole mass calculated from mb(mb)_Msbar
   1000001     4.02011642E+03   # ~d_L
   2000001     4.01788535E+03   # ~d_R
   1000002     4.01945416E+03   # ~u_L
   2000002     4.01919133E+03   # ~u_R
   1000003     4.02011642E+03   # ~s_L
   2000003     4.01788535E+03   # ~s_R
   1000004     4.01945416E+03   # ~c_L
   2000004     4.01919133E+03   # ~c_R
   1000005     6.27174829E+02   # ~b_1
   2000005     4.02220447E+03   # ~b_2
   1000006     6.19394588E+02   # ~t_1
   2000006     2.22301094E+03   # ~t_2
   1000011     4.00359330E+03   # ~e_L
   2000011     4.00280211E+03   # ~e_R
   1000012     4.00247107E+03   # ~nu_eL
   1000013     4.00359330E+03   # ~mu_L
   2000013     4.00280211E+03   # ~mu_R
   1000014     4.00247107E+03   # ~nu_muL
   1000015     4.00407288E+03   # ~tau_1
   2000015     4.00810848E+03   # ~tau_2
   1000016     4.00440350E+03   # ~nu_tauL
   1000021     1.97170211E+03   # ~g
   1000022     3.99374677E+02   # ~chi_10
   1000023    -4.49693400E+02   # ~chi_20
   1000025     4.64003784E+02   # ~chi_30
   1000035     2.05488636E+03   # ~chi_40
   1000024     4.47463215E+02   # ~chi_1+
   1000037     2.05505047E+03   # ~chi_2+
#
BLOCK NMIX  # Neutralino Mixing Matrix
  1  1     8.36696033E-01   # N_11
  1  2    -1.64782524E-02   # N_12
  1  3    -4.10439370E-01   # N_13
  1  4    -3.62226089E-01   # N_14
  2  1    -3.84818356E-02   # N_21
  2  2     2.36143314E-02   # N_22
  2  3    -7.04480208E-01   # N_23
  2  4     7.08286064E-01   # N_24
  3  1     5.46312805E-01   # N_31
  3  2     2.89174479E-02   # N_32
  3  3     5.78964497E-01   # N_33
  3  4     6.04571097E-01   # N_34
  4  1    -1.10287964E-03   # N_41
  4  2     9.99166959E-01   # N_42
  4  3    -6.87539762E-03   # N_43
  4  4    -4.02107051E-02   # N_44
#
BLOCK UMIX  # Chargino Mixing Matrix U
  1  1     9.72933825E-03   # U_11
  1  2     9.99952669E-01   # U_12
  2  1    -9.99952669E-01   # U_21
  2  2     9.72933825E-03   # U_22
#
BLOCK VMIX  # Chargino Mixing Matrix V
  1  1     5.68765359E-02   # V_11
  1  2    -9.98381220E-01   # V_12
  2  1    -9.98381220E-01   # V_21
  2  2    -5.68765359E-02   # V_22
#
BLOCK STOPMIX  # Stop Mixing Matrix
  1  1     9.97224978E-01   # cos(theta_t)
  1  2    -7.44469157E-02   # sin(theta_t)
  2  1     7.44469157E-02   # -sin(theta_t)
  2  2     9.97224978E-01   # cos(theta_t)
#
BLOCK SBOTMIX  # Sbottom Mixing Matrix
  1  1     9.99999049E-01   # cos(theta_b)
  1  2    -1.37912983E-03   # sin(theta_b)
  2  1     1.37912983E-03   # -sin(theta_b)
  2  2     9.99999049E-01   # cos(theta_b)
#
BLOCK STAUMIX  # Stau Mixing Matrix
  1  1    -7.06036774E-01   # cos(theta_tau)
  1  2     7.08175172E-01   # sin(theta_tau)
  2  1    -7.08175172E-01   # -sin(theta_tau)
  2  2    -7.06036774E-01   # cos(theta_tau)
#
BLOCK ALPHA  # Higgs mixing
          -5.00218739E-02   # Mixing angle in the neutral Higgs boson sector
#
BLOCK HMIX Q=  1.10857881E+03  # DRbar Higgs Parameters
         1    -4.38900000E+02   # mu(Q)MSSM           
         2     2.00000000E+01   # tan                 
         3     2.44240588E+02   # higgs               
         4     1.62883244E+07   # mA^2(Q)MSSM         
#
BLOCK GAUGE Q=  1.10857881E+03  # The gauge couplings
     1     3.61338097E-01   # gprime(Q) DRbar
     2     6.35775350E-01   # g(Q) DRbar
     3     1.03386217E+00   # g3(Q) DRbar
#
BLOCK AU Q=  1.10857881E+03  # The trilinear couplings
  1  1     0.00000000E+00   # A_u(Q) DRbar
  2  2     9.48779520E-07   # A_c(Q) DRbar
  3  3     2.25959179E+03   # A_t(Q) DRbar
#
BLOCK AD Q=  1.10857881E+03  # The trilinear couplings
  1  1     3.51752092E-07   # A_d(Q) DRbar
  2  2     3.51785266E-07   # A_s(Q) DRbar
  3  3     6.25118000E-07   # A_b(Q) DRbar
#
BLOCK AE Q=  1.10857881E+03  # The trilinear couplings
  1  1     0.00000000E+00   # A_e(Q) DRbar
  2  2     7.78018738E-08   # A_mu(Q) DRbar
  3  3     7.85887466E-08   # A_tau(Q) DRbar
#
BLOCK Yu Q=  1.10857881E+03  # The Yukawa couplings
  1  1     0.00000000E+00   # y_u(Q) DRbar
  2  2     0.00000000E+00   # y_c(Q) DRbar
  3  3     8.67835466E-01   # y_t(Q) DRbar
#
BLOCK Yd Q=  1.10857881E+03  # The Yukawa couplings
  1  1     0.00000000E+00   # y_d(Q) DRbar
  2  2     0.00000000E+00   # y_s(Q) DRbar
  3  3     2.85671000E-01   # y_b(Q) DRbar
#
BLOCK Ye Q=  1.10857881E+03  # The Yukawa couplings
  1  1     0.00000000E+00   # y_e(Q) DRbar
  2  2     0.00000000E+00   # y_mu(Q) DRbar
  3  3     2.02782674E-01   # y_tau(Q) DRbar
#
BLOCK MSOFT Q=  1.10857881E+03  # The soft SUSY breaking masses at the scale Q
         1     4.09990000E+02   # M_1(Q)              
         2     2.00000000E+03   # M_2(Q)              
         3     1.80000000E+03   # M_3(Q)              
        21     1.56893115E+07   # M^2_Hd              
        22    -2.12262134E+05   # M^2_Hu              
        31     4.00000000E+03   # M_eL                
        32     4.00000000E+03   # M_muL               
        33     4.00000000E+03   # M_tauL              
        34     4.00000000E+03   # M_eR                
        35     4.00000000E+03   # M_muR               
        36     4.00000000E+03   # M_tauR              
        41     4.00000000E+03   # M_q1L               
        42     4.00000000E+03   # M_q2L               
        43     5.59899996E+02   # M_q3L               
        44     4.00000000E+03   # M_uR                
        45     4.00000000E+03   # M_cR                
        46     2.20485961E+03   # M_tR                
        47     4.00000000E+03   # M_dR                
        48     4.00000000E+03   # M_sR                
        49     4.00000000E+03   # M_bR                
#
#
#
#                             =================
#                             |The decay table|
#                             =================
#
# - The QCD corrections to the decays gluino -> squark  + quark
#                                     squark -> gaugino + quark_prime
#                                     squark -> squark_prime + Higgs
#                                     squark -> gluino  + quark
#   are included.
#
# - The multi-body decays for the inos, stops and sbottoms are included.
#
# - The loop induced decays for the gluino, neutralinos and stops
#   are included.
#
# - The SUSY decays of the top quark are included.
#
#
#         PDG            Width
DECAY         6     1.40235163E+00   # top decays
#          BR         NDA      ID1       ID2
     1.00000000E+00    2           5        24   # BR(t ->  b    W+)
#
#         PDG            Width
DECAY   1000021     6.72050608E+01   # gluino decays
#          BR         NDA      ID1       ID2
     2.46271857E-01    2     1000005        -5   # BR(~g -> ~b_1  bb)
     2.46271857E-01    2    -1000005         5   # BR(~g -> ~b_1* b )
     2.53728143E-01    2     1000006        -6   # BR(~g -> ~t_1  tb)
     2.53728143E-01    2    -1000006         6   # BR(~g -> ~t_1* t )
#
#         PDG            Width
DECAY   1000006     5.22629725E-01   # stop1 decays
#          BR         NDA      ID1       ID2
     5.67378844E-01    2     1000022         6   # BR(~t_1 -> ~chi_10 t )
     4.32621156E-01    2     1000024         5   # BR(~t_1 -> ~chi_1+ b )
#
#         PDG            Width
DECAY   2000006     1.17541980E+02   # stop2 decays
#          BR         NDA      ID1       ID2
     6.15146844E-02    2     1000022         6   # BR(~t_2 -> ~chi_10 t )
     1.26351903E-01    2     1000023         6   # BR(~t_2 -> ~chi_20 t )
     1.00513752E-01    2     1000025         6   # BR(~t_2 -> ~chi_30 t )
     2.51336393E-01    2     1000024         5   # BR(~t_2 -> ~chi_1+ b )
     1.33165861E-07    2     1000037         5   # BR(~t_2 -> ~chi_2+ b )
     5.81237499E-02    2     1000021         6   # BR(~t_2 -> ~g      t )
     1.28465700E-01    2     1000006        25   # BR(~t_2 -> ~t_1    h )
     8.37734014E-02    2     1000006        23   # BR(~t_2 -> ~t_1    Z )
     1.89920282E-01    2     1000005        24   # BR(~t_2 -> ~b_1    W+)
#
#         PDG            Width
DECAY   1000005     8.23193055E-01   # sbottom1 decays
#          BR         NDA      ID1       ID2
     1.08573439E-01    2     1000022         5   # BR(~b_1 -> ~chi_10 b )
     1.43608313E-01    2     1000023         5   # BR(~b_1 -> ~chi_20 b )
     8.64477462E-02    2     1000025         5   # BR(~b_1 -> ~chi_30 b )
     6.61370501E-01    2    -1000024         6   # BR(~b_1 -> ~chi_1- t )
#
#         PDG            Width
DECAY   2000005     1.66887471E+02   # sbottom2 decays
#          BR         NDA      ID1       ID2
     1.52549444E-02    2     1000022         5   # BR(~b_2 -> ~chi_10 b )
     1.78304560E-02    2     1000023         5   # BR(~b_2 -> ~chi_20 b )
     1.59253403E-02    2     1000025         5   # BR(~b_2 -> ~chi_30 b )
     1.58291775E-06    2     1000035         5   # BR(~b_2 -> ~chi_40 b )
     3.57830140E-02    2    -1000024         6   # BR(~b_2 -> ~chi_1- t )
     3.14162183E-06    2    -1000037         6   # BR(~b_2 -> ~chi_2- t )
     9.14203819E-01    2     1000021         5   # BR(~b_2 -> ~g      b )
     2.13636317E-04    2     1000005        25   # BR(~b_2 -> ~b_1    h )
     2.92130948E-04    2     1000005        23   # BR(~b_2 -> ~b_1    Z )
     4.91268782E-04    2     1000006       -24   # BR(~b_2 -> ~t_1    W-)
     6.65493865E-07    2     2000006       -24   # BR(~b_2 -> ~t_2    W-)
#
#         PDG            Width
DECAY   1000002     1.78586711E+02   # sup_L decays
#          BR         NDA      ID1       ID2
     1.72537039E-03    2     1000022         2   # BR(~u_L -> ~chi_10 u)
     2.26733635E-05    2     1000023         2   # BR(~u_L -> ~chi_20 u)
     1.48950718E-03    2     1000025         2   # BR(~u_L -> ~chi_30 u)
     4.77317521E-02    2     1000035         2   # BR(~u_L -> ~chi_40 u)
     5.50633301E-04    2     1000024         1   # BR(~u_L -> ~chi_1+ d)
     9.53425944E-02    2     1000037         1   # BR(~u_L -> ~chi_2+ d)
     8.53137469E-01    2     1000021         2   # BR(~u_L -> ~g      u)
#
#         PDG            Width
DECAY   2000002     1.61089251E+02   # sup_R decays
#          BR         NDA      ID1       ID2
     3.81151289E-02    2     1000022         2   # BR(~u_R -> ~chi_10 u)
     8.02087642E-05    2     1000023         2   # BR(~u_R -> ~chi_20 u)
     1.61398910E-02    2     1000025         2   # BR(~u_R -> ~chi_30 u)
     3.70323087E-08    2     1000035         2   # BR(~u_R -> ~chi_40 u)
     9.45664734E-01    2     1000021         2   # BR(~u_R -> ~g      u)
#
#         PDG            Width
DECAY   1000001     1.78607658E+02   # sdown_L decays
#          BR         NDA      ID1       ID2
     2.61911154E-03    2     1000022         1   # BR(~d_L -> ~chi_10 d)
     8.12704295E-05    2     1000023         1   # BR(~d_L -> ~chi_20 d)
     4.72541531E-04    2     1000025         1   # BR(~d_L -> ~chi_30 d)
     4.77850823E-02    2     1000035         1   # BR(~d_L -> ~chi_40 d)
     1.61134368E-05    2    -1000024         2   # BR(~d_L -> ~chi_1- u)
     9.56697779E-02    2    -1000037         2   # BR(~d_L -> ~chi_2- u)
     8.53356103E-01    2     1000021         1   # BR(~d_L -> ~g      d)
#
#         PDG            Width
DECAY   2000001     1.54411620E+02   # sdown_R decays
#          BR         NDA      ID1       ID2
     9.93744724E-03    2     1000022         1   # BR(~d_R -> ~chi_10 d)
     2.09121071E-05    2     1000023         1   # BR(~d_R -> ~chi_20 d)
     4.20800373E-03    2     1000025         1   # BR(~d_R -> ~chi_30 d)
     9.65087450E-09    2     1000035         1   # BR(~d_R -> ~chi_40 d)
     9.85833627E-01    2     1000021         1   # BR(~d_R -> ~g      d)
#
#         PDG            Width
DECAY   1000004     1.78586711E+02   # scharm_L decays
#          BR         NDA      ID1       ID2
     1.72537039E-03    2     1000022         4   # BR(~c_L -> ~chi_10 c)
     2.26733635E-05    2     1000023         4   # BR(~c_L -> ~chi_20 c)
     1.48950718E-03    2     1000025         4   # BR(~c_L -> ~chi_30 c)
     4.77317521E-02    2     1000035         4   # BR(~c_L -> ~chi_40 c)
     5.50633301E-04    2     1000024         3   # BR(~c_L -> ~chi_1+ s)
     9.53425944E-02    2     1000037         3   # BR(~c_L -> ~chi_2+ s)
     8.53137469E-01    2     1000021         4   # BR(~c_L -> ~g      c)
#
#         PDG            Width
DECAY   2000004     1.61089251E+02   # scharm_R decays
#          BR         NDA      ID1       ID2
     3.81151289E-02    2     1000022         4   # BR(~c_R -> ~chi_10 c)
     8.02087642E-05    2     1000023         4   # BR(~c_R -> ~chi_20 c)
     1.61398910E-02    2     1000025         4   # BR(~c_R -> ~chi_30 c)
     3.70323087E-08    2     1000035         4   # BR(~c_R -> ~chi_40 c)
     9.45664734E-01    2     1000021         4   # BR(~c_R -> ~g      c)
#
#         PDG            Width
DECAY   1000003     1.78607658E+02   # sstrange_L decays
#          BR         NDA      ID1       ID2
     2.61911154E-03    2     1000022         3   # BR(~s_L -> ~chi_10 s)
     8.12704295E-05    2     1000023         3   # BR(~s_L -> ~chi_20 s)
     4.72541531E-04    2     1000025         3   # BR(~s_L -> ~chi_30 s)
     4.77850823E-02    2     1000035         3   # BR(~s_L -> ~chi_40 s)
     1.61134368E-05    2    -1000024         4   # BR(~s_L -> ~chi_1- c)
     9.56697779E-02    2    -1000037         4   # BR(~s_L -> ~chi_2- c)
     8.53356103E-01    2     1000021         3   # BR(~s_L -> ~g      s)
#
#         PDG            Width
DECAY   2000003     1.54411620E+02   # sstrange_R decays
#          BR         NDA      ID1       ID2
     9.93744724E-03    2     1000022         3   # BR(~s_R -> ~chi_10 s)
     2.09121071E-05    2     1000023         3   # BR(~s_R -> ~chi_20 s)
     4.20800373E-03    2     1000025         3   # BR(~s_R -> ~chi_30 s)
     9.65087450E-09    2     1000035         3   # BR(~s_R -> ~chi_40 s)
     9.85833627E-01    2     1000021         3   # BR(~s_R -> ~g      s)
#
#         PDG            Width
DECAY   1000011     3.13037209E+01   # selectron_L decays
#          BR         NDA      ID1       ID2
     1.06217970E-01    2     1000022        11   # BR(~e_L -> ~chi_10 e-)
     1.52392425E-06    2     1000023        11   # BR(~e_L -> ~chi_20 e-)
     5.76587520E-02    2     1000025        11   # BR(~e_L -> ~chi_30 e-)
     2.78171818E-01    2     1000035        11   # BR(~e_L -> ~chi_40 e-)
     9.49379375E-05    2    -1000024        12   # BR(~e_L -> ~chi_1- nu_e)
     5.57854998E-01    2    -1000037        12   # BR(~e_L -> ~chi_2- nu_e)
#
#         PDG            Width
DECAY   2000011     2.03398085E+01   # selectron_R decays
#          BR         NDA      ID1       ID2
     7.01536652E-01    2     1000022        11   # BR(~e_R -> ~chi_10 e-)
     1.47599184E-03    2     1000023        11   # BR(~e_R -> ~chi_20 e-)
     2.96986682E-01    2     1000025        11   # BR(~e_R -> ~chi_30 e-)
     6.74464155E-07    2     1000035        11   # BR(~e_R -> ~chi_40 e-)
#
#         PDG            Width
DECAY   1000013     3.13037209E+01   # smuon_L decays
#          BR         NDA      ID1       ID2
     1.06217970E-01    2     1000022        13   # BR(~mu_L -> ~chi_10 mu-)
     1.52392425E-06    2     1000023        13   # BR(~mu_L -> ~chi_20 mu-)
     5.76587520E-02    2     1000025        13   # BR(~mu_L -> ~chi_30 mu-)
     2.78171818E-01    2     1000035        13   # BR(~mu_L -> ~chi_40 mu-)
     9.49379375E-05    2    -1000024        14   # BR(~mu_L -> ~chi_1- nu_mu)
     5.57854998E-01    2    -1000037        14   # BR(~mu_L -> ~chi_2- nu_mu)
#
#         PDG            Width
DECAY   2000013     2.03398085E+01   # smuon_R decays
#          BR         NDA      ID1       ID2
     7.01536652E-01    2     1000022        13   # BR(~mu_R -> ~chi_10 mu-)
     1.47599184E-03    2     1000023        13   # BR(~mu_R -> ~chi_20 mu-)
     2.96986682E-01    2     1000025        13   # BR(~mu_R -> ~chi_30 mu-)
     6.74464155E-07    2     1000035        13   # BR(~mu_R -> ~chi_40 mu-)
#
#         PDG            Width
DECAY   1000015     3.06826831E+01   # stau_1 decays
#          BR         NDA      ID1       ID2
     3.51796565E-01    2     1000022        15   # BR(~tau_1 -> ~chi_10  tau-)
     4.47483484E-02    2     1000023        15   # BR(~tau_1 -> ~chi_20  tau-)
     1.25360606E-01    2     1000025        15   # BR(~tau_1 -> ~chi_30  tau-)
     1.40632904E-01    2     1000035        15   # BR(~tau_1 -> ~chi_40  tau-)
     5.54303941E-02    2    -1000024        16   # BR(~tau_1 -> ~chi_1-  nu_tau)
     2.82031182E-01    2    -1000037        16   # BR(~tau_1 -> ~chi_2-  nu_tau)
#
#         PDG            Width
DECAY   2000015     3.06098805E+01   # stau_2 decays
#          BR         NDA      ID1       ID2
     2.57939452E-01    2     1000022        15   # BR(~tau_2 -> ~chi_10  tau-)
     5.97483214E-02    2     1000023        15   # BR(~tau_2 -> ~chi_20  tau-)
     2.00755724E-01    2     1000025        15   # BR(~tau_2 -> ~chi_30  tau-)
     1.43948958E-01    2     1000035        15   # BR(~tau_2 -> ~chi_40  tau-)
     4.89325255E-02    2    -1000024        16   # BR(~tau_2 -> ~chi_1-  nu_tau)
     2.88675019E-01    2    -1000037        16   # BR(~tau_2 -> ~chi_2-  nu_tau)
#
#         PDG            Width
DECAY   1000012     3.13142908E+01   # snu_eL decays
#          BR         NDA      ID1       ID2
     1.21940012E-01    2     1000022        12   # BR(~nu_eL -> ~chi_10 nu_e)
     1.03657048E-03    2     1000023        12   # BR(~nu_eL -> ~chi_20 nu_e)
     3.96578872E-02    2     1000025        12   # BR(~nu_eL -> ~chi_30 nu_e)
     2.78586652E-01    2     1000035        12   # BR(~nu_eL -> ~chi_40 nu_e)
     3.24238760E-03    2     1000024        11   # BR(~nu_eL -> ~chi_1+ e-)
     5.55536490E-01    2     1000037        11   # BR(~nu_eL -> ~chi_2+ e-)
#
#         PDG            Width
DECAY   1000014     3.13142908E+01   # snu_muL decays
#          BR         NDA      ID1       ID2
     1.21940012E-01    2     1000022        14   # BR(~nu_muL -> ~chi_10 nu_mu)
     1.03657048E-03    2     1000023        14   # BR(~nu_muL -> ~chi_20 nu_mu)
     3.96578872E-02    2     1000025        14   # BR(~nu_muL -> ~chi_30 nu_mu)
     2.78586652E-01    2     1000035        14   # BR(~nu_muL -> ~chi_40 nu_mu)
     3.24238760E-03    2     1000024        13   # BR(~nu_muL -> ~chi_1+ mu-)
     5.55536490E-01    2     1000037        13   # BR(~nu_muL -> ~chi_2+ mu-)
#
#         PDG            Width
DECAY   1000016     3.45420706E+01   # snu_tauL decays
#          BR         NDA      ID1       ID2
     1.10600860E-01    2     1000022        16   # BR(~nu_tauL -> ~chi_10 nu_tau)
     9.40185164E-04    2     1000023        16   # BR(~nu_tauL -> ~chi_20 nu_tau)
     3.59703640E-02    2     1000025        16   # BR(~nu_tauL -> ~chi_30 nu_tau)
     2.52850655E-01    2     1000035        16   # BR(~nu_tauL -> ~chi_40 nu_tau)
     9.54195881E-02    2     1000024        15   # BR(~nu_tauL -> ~chi_1+ tau-)
     5.04218348E-01    2     1000037        15   # BR(~nu_tauL -> ~chi_2+ tau-)
#
#         PDG            Width
DECAY   1000024     9.92691981E-05   # chargino1+ decays
#           BR         NDA      ID1       ID2       ID3
     3.33577685E-01    3     1000022         2        -1   # BR(~chi_1+ -> ~chi_10 u    db)
     3.33577685E-01    3     1000022         4        -3   # BR(~chi_1+ -> ~chi_10 c    sb)
     1.11194109E-01    3     1000022       -11        12   # BR(~chi_1+ -> ~chi_10 e+   nu_e)
     1.11194109E-01    3     1000022       -13        14   # BR(~chi_1+ -> ~chi_10 mu+  nu_mu)
     1.10456410E-01    3     1000022       -15        16   # BR(~chi_1+ -> ~chi_10 tau+ nu_tau)
#
#         PDG            Width
DECAY   1000037     6.25316827E+01   # chargino2+ decays
#          BR         NDA      ID1       ID2
     3.80122572E-01    2     1000006        -5   # BR(~chi_2+ -> ~t_1     bb)
     3.69775923E-01    2    -1000005         6   # BR(~chi_2+ -> ~b_1*    t )
     6.36267693E-02    2     1000024        23   # BR(~chi_2+ -> ~chi_1+  Z )
     1.45976864E-02    2     1000022        24   # BR(~chi_2+ -> ~chi_10  W+)
     6.20760069E-02    2     1000023        24   # BR(~chi_2+ -> ~chi_20  W+)
     4.73437862E-02    2     1000025        24   # BR(~chi_2+ -> ~chi_30  W+)
     6.24572565E-02    2     1000024        25   # BR(~chi_2+ -> ~chi_1+  h )
#
#         PDG            Width
DECAY   1000022     0.00000000E+00   # neutralino1 decays
#
#         PDG            Width
DECAY   1000023     9.77922229E-05   # neutralino2 decays
#          BR         NDA      ID1       ID2
     7.87394217E-04    2     1000022        22   # BR(~chi_20 -> ~chi_10 gam)
#           BR         NDA      ID1       ID2       ID3
     1.18043187E-01    3     1000022        -2         2   # BR(~chi_20 -> ~chi_10 ub      u)
     1.53097877E-01    3     1000022        -1         1   # BR(~chi_20 -> ~chi_10 db      d)
     1.18043187E-01    3     1000022        -4         4   # BR(~chi_20 -> ~chi_10 cb      c)
     1.53097877E-01    3     1000022        -3         3   # BR(~chi_20 -> ~chi_10 sb      s)
     1.41506473E-01    3     1000022        -5         5   # BR(~chi_20 -> ~chi_10 bb      b)
     3.50939424E-02    3     1000022       -11        11   # BR(~chi_20 -> ~chi_10 e+      e-)
     3.50939424E-02    3     1000022       -13        13   # BR(~chi_20 -> ~chi_10 mu+     mu-)
     3.47693641E-02    3     1000022       -15        15   # BR(~chi_20 -> ~chi_10 tau+    tau-)
     7.01551938E-02    3     1000022       -12        12   # BR(~chi_20 -> ~chi_10 nu_eb   nu_e)
     7.01551938E-02    3     1000022       -14        14   # BR(~chi_20 -> ~chi_10 nu_mub  nu_mu)
     7.01551918E-02    3     1000022       -16        16   # BR(~chi_20 -> ~chi_10 nu_taub nu_tau)
     2.20268170E-07    3     1000024        -2         1   # BR(~chi_20 -> ~chi_1+ ub      d)
     2.20268170E-07    3    -1000024        -1         2   # BR(~chi_20 -> ~chi_1- db      u)
     2.20268170E-07    3     1000024        -4         3   # BR(~chi_20 -> ~chi_1+ cb      s)
     2.20268170E-07    3    -1000024        -3         4   # BR(~chi_20 -> ~chi_1- sb      c)
     7.34227822E-08    3     1000024       -12        11   # BR(~chi_20 -> ~chi_1+ nu_eb   e-)
     7.34227822E-08    3    -1000024        12       -11   # BR(~chi_20 -> ~chi_1- nu_e    e+)
     7.34227822E-08    3     1000024       -14        13   # BR(~chi_20 -> ~chi_1+ nu_mub  mu-)
     7.34227822E-08    3    -1000024        14       -13   # BR(~chi_20 -> ~chi_1- nu_mu   mu+)
     1.41613005E-09    3     1000024       -16        15   # BR(~chi_20 -> ~chi_1+ nu_taub tau-)
     1.41613005E-09    3    -1000024        16       -15   # BR(~chi_20 -> ~chi_1- nu_tau  tau+)
#
#         PDG            Width
DECAY   1000025     4.81602795E-06   # neutralino3 decays
#          BR         NDA      ID1       ID2
     1.01711256E-01    2     1000022        22   # BR(~chi_30 -> ~chi_10 gam)
     4.01294556E-02    2     1000023        22   # BR(~chi_30 -> ~chi_20 gam)
#           BR         NDA      ID1       ID2       ID3
     4.37398945E-02    3     1000022        -2         2   # BR(~chi_30 -> ~chi_10 ub      u)
     5.63807231E-02    3     1000022        -1         1   # BR(~chi_30 -> ~chi_10 db      d)
     4.37398945E-02    3     1000022        -4         4   # BR(~chi_30 -> ~chi_10 cb      c)
     5.63807231E-02    3     1000022        -3         3   # BR(~chi_30 -> ~chi_10 sb      s)
     5.43564244E-02    3     1000022        -5         5   # BR(~chi_30 -> ~chi_10 bb      b)
     1.26491848E-02    3     1000022       -11        11   # BR(~chi_30 -> ~chi_10 e+      e-)
     1.26491848E-02    3     1000022       -13        13   # BR(~chi_30 -> ~chi_10 mu+     mu-)
     1.26684011E-02    3     1000022       -15        15   # BR(~chi_30 -> ~chi_10 tau+    tau-)
     2.59668223E-02    3     1000022       -12        12   # BR(~chi_30 -> ~chi_10 nu_eb   nu_e)
     2.59668223E-02    3     1000022       -14        14   # BR(~chi_30 -> ~chi_10 nu_mub  nu_mu)
     2.59667158E-02    3     1000022       -16        16   # BR(~chi_30 -> ~chi_10 nu_taub nu_tau)
     9.86002148E-03    3     1000023        -2         2   # BR(~chi_30 -> ~chi_20 ub      u)
     1.27884480E-02    3     1000023        -1         1   # BR(~chi_30 -> ~chi_20 db      d)
     9.86002148E-03    3     1000023        -4         4   # BR(~chi_30 -> ~chi_20 cb      c)
     1.27884480E-02    3     1000023        -3         3   # BR(~chi_30 -> ~chi_20 sb      s)
     3.85547293E-03    3     1000023        -5         5   # BR(~chi_30 -> ~chi_20 bb      b)
     2.93162680E-03    3     1000023       -11        11   # BR(~chi_30 -> ~chi_20 e+      e-)
     2.93162680E-03    3     1000023       -13        13   # BR(~chi_30 -> ~chi_20 mu+     mu-)
     2.68288894E-03    3     1000023       -15        15   # BR(~chi_30 -> ~chi_20 tau+    tau-)
     5.85983024E-03    3     1000023       -12        12   # BR(~chi_30 -> ~chi_20 nu_eb   nu_e)
     5.85983024E-03    3     1000023       -14        14   # BR(~chi_30 -> ~chi_20 nu_mub  nu_mu)
     5.85983031E-03    3     1000023       -16        16   # BR(~chi_30 -> ~chi_20 nu_taub nu_tau)
     6.91593234E-02    3     1000024        -2         1   # BR(~chi_30 -> ~chi_1+ ub      d)
     6.91593234E-02    3    -1000024        -1         2   # BR(~chi_30 -> ~chi_1- db      u)
     6.91593234E-02    3     1000024        -4         3   # BR(~chi_30 -> ~chi_1+ cb      s)
     6.91593234E-02    3    -1000024        -3         4   # BR(~chi_30 -> ~chi_1- sb      c)
     2.30528712E-02    3     1000024       -12        11   # BR(~chi_30 -> ~chi_1+ nu_eb   e-)
     2.30528712E-02    3    -1000024        12       -11   # BR(~chi_30 -> ~chi_1- nu_e    e+)
     2.30528712E-02    3     1000024       -14        13   # BR(~chi_30 -> ~chi_1+ nu_mub  mu-)
     2.30528712E-02    3    -1000024        14       -13   # BR(~chi_30 -> ~chi_1- nu_mu   mu+)
     2.17838371E-02    3     1000024       -16        15   # BR(~chi_30 -> ~chi_1+ nu_taub tau-)
     2.17838371E-02    3    -1000024        16       -15   # BR(~chi_30 -> ~chi_1- nu_tau  tau+)
#
#         PDG            Width
DECAY   1000035     6.25186625E+01   # neutralino4 decays
#          BR         NDA      ID1       ID2
     5.46788491E-03    2     1000022        23   # BR(~chi_40 -> ~chi_10   Z )
     4.24293432E-02    2     1000023        23   # BR(~chi_40 -> ~chi_20   Z )
     1.57281880E-02    2     1000025        23   # BR(~chi_40 -> ~chi_30   Z )
     6.20538406E-02    2     1000024       -24   # BR(~chi_40 -> ~chi_1+   W-)
     6.20538406E-02    2    -1000024        24   # BR(~chi_40 -> ~chi_1-   W+)
     9.31779606E-03    2     1000022        25   # BR(~chi_40 -> ~chi_10   h )
     2.08459033E-02    2     1000023        25   # BR(~chi_40 -> ~chi_20   h )
     3.21363234E-02    2     1000025        25   # BR(~chi_40 -> ~chi_30   h )
     1.86608275E-01    2     1000006        -6   # BR(~chi_40 -> ~t_1      tb)
     1.86608275E-01    2    -1000006         6   # BR(~chi_40 -> ~t_1*     t )
     1.88375165E-01    2     1000005        -5   # BR(~chi_40 -> ~b_1      bb)
     1.88375165E-01    2    -1000005         5   # BR(~chi_40 -> ~b_1*     b )
#
#         PDG            Width
DECAY        25     3.82465500E-03   # h decays
#          BR         NDA      ID1       ID2
     6.13059470E-01    2           5        -5   # BR(h -> b       bb     )
     6.73246811E-02    2         -15        15   # BR(h -> tau+    tau-   )
     2.38335585E-04    2         -13        13   # BR(h -> mu+     mu-    )
     5.06585074E-04    2           3        -3   # BR(h -> s       sb     )
     2.20060042E-02    2           4        -4   # BR(h -> c       cb     )
     7.08546984E-02    2          21        21   # BR(h -> g       g      )
     2.38395456E-03    2          22        22   # BR(h -> gam     gam    )
     1.50621288E-03    2          22        23   # BR(h -> Z       gam    )
     1.97708886E-01    2          24       -24   # BR(h -> W+      W-     )
     2.44111722E-02    2          23        23   # BR(h -> Z       Z      )
#
#         PDG            Width
DECAY        35     5.53591953E+01   # H decays
#          BR         NDA      ID1       ID2
     3.61916799E-01    2           5        -5   # BR(H -> b       bb     )
     5.98925764E-02    2         -15        15   # BR(H -> tau+    tau-   )
     2.11765644E-04    2         -13        13   # BR(H -> mu+     mu-    )
     2.50482217E-04    2           3        -3   # BR(H -> s       sb     )
     7.02416824E-08    2           4        -4   # BR(H -> c       cb     )
     7.03967909E-03    2           6        -6   # BR(H -> t       tb     )
     7.18230870E-07    2          21        21   # BR(H -> g       g      )
     2.09629016E-09    2          22        22   # BR(H -> gam     gam    )
     1.81370407E-09    2          23        22   # BR(H -> Z       gam    )
     1.52502973E-06    2          24       -24   # BR(H -> W+      W-     )
     7.61986576E-07    2          23        23   # BR(H -> Z       Z      )
     6.30188540E-06    2          25        25   # BR(H -> h       h      )
    -1.34444252E-24    2          36        36   # BR(H -> A       A      )
     2.38379149E-20    2          23        36   # BR(H -> Z       A      )
     1.86378529E-03    2     1000024  -1000024   # BR(H -> ~chi_1+ ~chi_1-)
     1.55485095E-01    2     1000024  -1000037   # BR(H -> ~chi_1+ ~chi_2-)
     1.55485095E-01    2     1000037  -1000024   # BR(H -> ~chi_2+ ~chi_1-)
     2.27394805E-02    2     1000022   1000022   # BR(H -> ~chi_10 ~chi_10)
     4.94642943E-04    2     1000023   1000023   # BR(H -> ~chi_20 ~chi_20)
     1.44717376E-02    2     1000025   1000025   # BR(H -> ~chi_30 ~chi_30)
     2.53671910E-02    2     1000022   1000023   # BR(H -> ~chi_10 ~chi_20)
     8.20701089E-03    2     1000022   1000025   # BR(H -> ~chi_10 ~chi_30)
     2.46909111E-02    2     1000022   1000035   # BR(H -> ~chi_10 ~chi_40)
     1.22686528E-02    2     1000023   1000025   # BR(H -> ~chi_20 ~chi_30)
     8.20956550E-02    2     1000023   1000035   # BR(H -> ~chi_20 ~chi_40)
     4.91873633E-02    2     1000025   1000035   # BR(H -> ~chi_30 ~chi_40)
     4.90198812E-04    2     1000006  -1000006   # BR(H -> ~t_1    ~t_1*  )
     8.91617614E-03    2     1000006  -2000006   # BR(H -> ~t_1    ~t_2*  )
     8.91617614E-03    2     2000006  -1000006   # BR(H -> ~t_2    ~t_1*  )
     1.45269772E-07    2     1000005  -1000005   # BR(H -> ~b_1    ~b_1*  )
#
#         PDG            Width
DECAY        36     5.53546610E+01   # A decays
#          BR         NDA      ID1       ID2
     3.61971773E-01    2           5        -5   # BR(A -> b       bb     )
     5.98977064E-02    2         -15        15   # BR(A -> tau+    tau-   )
     2.11783615E-04    2         -13        13   # BR(A -> mu+     mu-    )
     2.50544361E-04    2           3        -3   # BR(A -> s       sb     )
     7.07151450E-08    2           4        -4   # BR(A -> c       cb     )
     7.05510471E-03    2           6        -6   # BR(A -> t       tb     )
     1.44964540E-05    2          21        21   # BR(A -> g       g      )
     6.50502296E-08    2          22        22   # BR(A -> gam     gam    )
     1.59347616E-08    2          23        22   # BR(A -> Z       gam    )
     1.52204963E-06    2          23        25   # BR(A -> Z       h      )
     1.89622533E-03    2     1000024  -1000024   # BR(A -> ~chi_1+ ~chi_1-)
     1.55478917E-01    2     1000024  -1000037   # BR(A -> ~chi_1+ ~chi_2-)
     1.55478917E-01    2     1000037  -1000024   # BR(A -> ~chi_2+ ~chi_1-)
     1.98489319E-02    2     1000022   1000022   # BR(A -> ~chi_10 ~chi_10)
     6.37264113E-04    2     1000023   1000023   # BR(A -> ~chi_20 ~chi_20)
     1.24093168E-02    2     1000025   1000025   # BR(A -> ~chi_30 ~chi_30)
     3.03031082E-02    2     1000022   1000023   # BR(A -> ~chi_10 ~chi_20)
     6.83133454E-03    2     1000022   1000025   # BR(A -> ~chi_10 ~chi_30)
     2.77167644E-02    2     1000022   1000035   # BR(A -> ~chi_10 ~chi_40)
     1.35325624E-02    2     1000023   1000025   # BR(A -> ~chi_20 ~chi_30)
     7.27242339E-02    2     1000023   1000035   # BR(A -> ~chi_20 ~chi_40)
     5.55037600E-02    2     1000025   1000035   # BR(A -> ~chi_30 ~chi_40)
     9.11779123E-03    2     1000006  -2000006   # BR(A -> ~t_1    ~t_2*  )
     9.11779123E-03    2    -1000006   2000006   # BR(A -> ~t_1*   ~t_2   )
#
#         PDG            Width
DECAY        37     5.55965795E+01   # H+ decays
#          BR         NDA      ID1       ID2
     5.83466482E-04    2           4        -5   # BR(H+ -> c       bb     )
     5.96519509E-02    2         -15        16   # BR(H+ -> tau+    nu_tau )
     2.10914684E-04    2         -13        14   # BR(H+ -> mu+     nu_mu  )
     3.73418233E-06    2           2        -5   # BR(H+ -> u       bb     )
     1.19487237E-05    2           2        -3   # BR(H+ -> u       sb     )
     2.45823671E-04    2           4        -3   # BR(H+ -> c       sb     )
     3.71313730E-01    2           6        -5   # BR(H+ -> t       bb     )
     1.51709173E-06    2          24        25   # BR(H+ -> W+      h      )
     2.34260330E-14    2          24        36   # BR(H+ -> W+      A      )
     5.54635805E-02    2     1000024   1000022   # BR(H+ -> ~chi_1+ ~chi_10)
     4.85382781E-05    2     1000024   1000023   # BR(H+ -> ~chi_1+ ~chi_20)
     2.82965602E-02    2     1000024   1000025   # BR(H+ -> ~chi_1+ ~chi_30)
     1.55021281E-01    2     1000024   1000035   # BR(H+ -> ~chi_1+ ~chi_40)
     5.22841259E-02    2     1000037   1000022   # BR(H+ -> ~chi_2+ ~chi_10)
     1.54162333E-01    2     1000037   1000023   # BR(H+ -> ~chi_2+ ~chi_20)
     1.04471764E-01    2     1000037   1000025   # BR(H+ -> ~chi_2+ ~chi_30)
     2.53155085E-04    2     1000006  -1000005   # BR(H+ -> ~t_1    ~b_1*  )
     1.79755765E-02    2     2000006  -1000005   # BR(H+ -> ~t_2    ~b_1*  )
