#
#                              ======================
#                              | THE SUSYHIT OUTPUT |
#                              ======================
#
#
#              ------------------------------------------------------
#              |     This is the output of the SUSY-HIT package     |
#              |  created by A.Djouadi, M.Muehlleitner and M.Spira. |
#              |  In case of problems with SUSY-HIT email to        |
#              |           margarete.muehlleitner@kit.edu           |
#              |           michael.spira@psi.ch                     |
#              |           abdelhak.djouadi@cern.ch                 |
#              ------------------------------------------------------
#
#              ------------------------------------------------------
#              |  SUSY Les Houches Accord - MSSM Spectrum + Decays  |
#              |              based on the decay programs           |
#              |                                                    |
#              |                     SDECAY 1.5                     |
#              |                                                    |
#              |  Authors: M.Muhlleitner, A.Djouadi and Y.Mambrini  |
#              |  Ref.:    Comput.Phys.Commun.168(2005)46           |
#              |           [hep-ph/0311167]                         |
#              |                                                    |
#              |                     HDECAY 3.4                     |
#              |                                                    |
#              |  By: A.Djouadi,J.Kalinowski,M.Muhlleitner,M.Spira  |
#              |  Ref.:    Comput.Phys.Commun.108(1998)56           |
#              |           [hep-ph/9704448]                         |
#              |                                                    |
#              |                                                    |
#              |  If not stated otherwise all DRbar couplings and   |
#              |  soft SUSY breaking masses are given at the scale  |
#              |  Q=  0.10256925E+04
#              |                                                    |
#              ------------------------------------------------------
#
#
BLOCK DCINFO  # Decay Program information
     1   SDECAY/HDECAY # decay calculator
     2   1.5  /3.4    # version number
#
BLOCK SPINFO  # Spectrum calculator information
     1    SOFTSUSY    # spectrum calculator                
     2    3.7.3       # version number                     
#
BLOCK MODSEL  # Model selection
     1     0   #  nonUniversal                                     
#
BLOCK SMINPUTS  # Standard Model inputs
         1     1.27934000E+02   # alpha_em^-1(M_Z)^MSbar
         2     1.16639000E-05   # G_F [GeV^-2]
         3     1.17200000E-01   # alpha_S(M_Z)^MSbar
         4     9.11870000E+01   # M_Z pole mass
         5     4.19000000E+00   # mb(mb)^MSbar
         6     1.72500000E+02   # mt pole mass
         7     1.77690000E+00   # mtau pole mass
#
BLOCK MINPAR  # Input parameters - minimal models
         3     2.00000000E+01   # tanb                
#
BLOCK EXTPAR  # Input parameters - non-minimal models
         0    -1.00000000E+00   # Set                 
         1     9.99000000E+01   # M_1(MX)             
         2     1.99900000E+02   # M_2(MX)             
         3     2.20000000E+03   # M_3(MX)             
        11     2.94338000E+03   # At(MX)              
        12     0.00000000E+00   # Ab(MX)              
        13     0.00000000E+00   # Atau(MX)            
        23     3.00000000E+03   # mu(MX)              
        25     2.00000000E+01   # tan                 
        26     3.00000000E+03   # mA(pole)            
        31     3.00000000E+03   # meL(MX)             
        32     3.00000000E+03   # mmuL(MX)            
        33     3.00000000E+03   # mtauL(MX)           
        34     3.00000000E+03   # meR(MX)             
        35     3.00000000E+03   # mmuR(MX)            
        36     3.00000000E+03   # mtauR(MX)           
        41     3.00000000E+03   # mqL1(MX)            
        42     3.00000000E+03   # mqL2(MX)            
        43     3.49900000E+02   # mqL3(MX)            
        44     3.00000000E+03   # muR(MX)             
        45     3.00000000E+03   # mcR(MX)             
        46     3.00000000E+03   # mtR(MX)             
        47     3.00000000E+03   # mdR(MX)             
        48     3.00000000E+03   # msR(MX)             
        49     3.00000000E+03   # mbR(MX)             
#
BLOCK MASS  # Mass Spectrum
# PDG code           mass       particle
        24     8.03983171E+01   # W+
        25     1.25535235E+02   # h
        35     3.00022752E+03   # H
        36     2.99999996E+03   # A
        37     3.00099718E+03   # H+
         5     4.81337004E+00   # b-quark pole mass calculated from mb(mb)_Msbar
   1000001     3.01372385E+03   # ~d_L
   2000001     3.00832228E+03   # ~d_R
   1000002     3.01279729E+03   # ~u_L
   2000002     3.01085639E+03   # ~u_R
   1000003     3.01372385E+03   # ~s_L
   2000003     3.00832228E+03   # ~s_R
   1000004     3.01279729E+03   # ~c_L
   2000004     3.01085639E+03   # ~c_R
   1000005     3.62578422E+02   # ~b_1
   2000005     3.00799948E+03   # ~b_2
   1000006     3.57006050E+02   # ~t_1
   2000006     2.99188273E+03   # ~t_2
   1000011     3.00701873E+03   # ~e_L
   2000011     3.00060179E+03   # ~e_R
   1000012     3.00561916E+03   # ~nu_eL
   1000013     3.00701873E+03   # ~mu_L
   2000013     3.00060179E+03   # ~mu_R
   1000014     3.00561916E+03   # ~nu_muL
   1000015     2.98610163E+03   # ~tau_1
   2000015     3.02234622E+03   # ~tau_2
   1000016     3.00591720E+03   # ~nu_tauL
   1000021     2.31602064E+03   # ~g
   1000022     1.00988929E+02   # ~chi_10
   1000023     2.14454182E+02   # ~chi_20
   1000025    -3.00594237E+03   # ~chi_30
   1000035     3.00640002E+03   # ~chi_40
   1000024     2.14612717E+02   # ~chi_1+
   1000037     3.00708977E+03   # ~chi_2+
#
BLOCK NMIX  # Neutralino Mixing Matrix
  1  1     9.99888473E-01   # N_11
  1  2    -1.54092146E-03   # N_12
  1  3     1.48038263E-02   # N_13
  1  4    -1.23068178E-03   # N_14
  2  1     1.93293959E-03   # N_21
  2  2     9.99648908E-01   # N_22
  2  3    -2.62494234E-02   # N_23
  2  4     3.04843179E-03   # N_24
  3  1    -9.56929433E-03   # N_31
  3  2     1.64224999E-02   # N_32
  3  3     7.06829621E-01   # N_33
  3  4     7.07128431E-01   # N_34
  4  1    -1.13019751E-02   # N_41
  4  2     2.07361636E-02   # N_42
  4  3     7.06741609E-01   # N_43
  4  4    -7.07077489E-01   # N_44
#
BLOCK UMIX  # Chargino Mixing Matrix U
  1  1     9.99309688E-01   # U_11
  1  2    -3.71503266E-02   # U_12
  2  1     3.71503266E-02   # U_21
  2  2     9.99309688E-01   # U_22
#
BLOCK VMIX  # Chargino Mixing Matrix V
  1  1     9.99990688E-01   # V_11
  1  2    -4.31563739E-03   # V_12
  2  1     4.31563739E-03   # V_21
  2  2     9.99990688E-01   # V_22
#
BLOCK STOPMIX  # Stop Mixing Matrix
  1  1     9.98909537E-01   # cos(theta_t)
  1  2    -4.66876524E-02   # sin(theta_t)
  2  1     4.66876524E-02   # -sin(theta_t)
  2  2     9.98909537E-01   # cos(theta_t)
#
BLOCK SBOTMIX  # Sbottom Mixing Matrix
  1  1     9.99924104E-01   # cos(theta_b)
  1  2     1.23201558E-02   # sin(theta_b)
  2  1    -1.23201558E-02   # -sin(theta_b)
  2  2     9.99924104E-01   # cos(theta_b)
#
BLOCK STAUMIX  # Stau Mixing Matrix
  1  1     7.06883237E-01   # cos(theta_tau)
  1  2     7.07330255E-01   # sin(theta_tau)
  2  1    -7.07330255E-01   # -sin(theta_tau)
  2  2     7.06883237E-01   # cos(theta_tau)
#
BLOCK ALPHA  # Higgs mixing
          -5.01989876E-02   # Mixing angle in the neutral Higgs boson sector
#
BLOCK HMIX Q=  1.02569250E+03  # DRbar Higgs Parameters
         1     3.00000000E+03   # mu(Q)MSSM           
         2     2.00000000E+01   # tan                 
         3     2.45099066E+02   # higgs               
         4     5.92700924E+06   # mA^2(Q)MSSM         
#
BLOCK GAUGE Q=  1.02569250E+03  # The gauge couplings
     1     3.60900337E-01   # gprime(Q) DRbar
     2     6.39337743E-01   # g(Q) DRbar
     3     1.03482037E+00   # g3(Q) DRbar
#
BLOCK AU Q=  1.02569250E+03  # The trilinear couplings
  1  1     0.00000000E+00   # A_u(Q) DRbar
  2  2     9.14982515E-07   # A_c(Q) DRbar
  3  3     2.94338000E+03   # A_t(Q) DRbar
#
BLOCK AD Q=  1.02569250E+03  # The trilinear couplings
  1  1     2.23797506E-07   # A_d(Q) DRbar
  2  2     2.23844128E-07   # A_s(Q) DRbar
  3  3     5.25778752E-07   # A_b(Q) DRbar
#
BLOCK AE Q=  1.02569250E+03  # The trilinear couplings
  1  1     0.00000000E+00   # A_e(Q) DRbar
  2  2     4.91719217E-08   # A_mu(Q) DRbar
  3  3     4.97498297E-08   # A_tau(Q) DRbar
#
BLOCK Yu Q=  1.02569250E+03  # The Yukawa couplings
  1  1     0.00000000E+00   # y_u(Q) DRbar
  2  2     0.00000000E+00   # y_c(Q) DRbar
  3  3     8.60152205E-01   # y_t(Q) DRbar
#
BLOCK Yd Q=  1.02569250E+03  # The Yukawa couplings
  1  1     0.00000000E+00   # y_d(Q) DRbar
  2  2     0.00000000E+00   # y_s(Q) DRbar
  3  3     2.10605351E-01   # y_b(Q) DRbar
#
BLOCK Ye Q=  1.02569250E+03  # The Yukawa couplings
  1  1     0.00000000E+00   # y_e(Q) DRbar
  2  2     0.00000000E+00   # y_mu(Q) DRbar
  3  3     2.04905857E-01   # y_tau(Q) DRbar
#
BLOCK MSOFT Q=  1.02569250E+03  # The soft SUSY breaking masses at the scale Q
         1     9.99000000E+01   # M_1(Q)              
         2     1.99900000E+02   # M_2(Q)              
         3     2.20000000E+03   # M_3(Q)              
        21    -9.56725282E+04   # M^2_Hd              
        22    -9.19249259E+06   # M^2_Hu              
        31     3.00000000E+03   # M_eL                
        32     3.00000000E+03   # M_muL               
        33     3.00000000E+03   # M_tauL              
        34     3.00000000E+03   # M_eR                
        35     3.00000000E+03   # M_muR               
        36     3.00000000E+03   # M_tauR              
        41     3.00000000E+03   # M_q1L               
        42     3.00000000E+03   # M_q2L               
        43     3.49899994E+02   # M_q3L               
        44     3.00000000E+03   # M_uR                
        45     3.00000000E+03   # M_cR                
        46     3.00000000E+03   # M_tR                
        47     3.00000000E+03   # M_dR                
        48     3.00000000E+03   # M_sR                
        49     3.00000000E+03   # M_bR                
#
#
#
#                             =================
#                             |The decay table|
#                             =================
#
# - The QCD corrections to the decays gluino -> squark  + quark
#                                     squark -> gaugino + quark_prime
#                                     squark -> squark_prime + Higgs
#                                     squark -> gluino  + quark
#   are included.
#
# - The multi-body decays for the inos, stops and sbottoms are included.
#
# - The loop induced decays for the gluino, neutralinos and stops
#   are included.
#
# - The SUSY decays of the top quark are included.
#
#
#         PDG            Width
DECAY         6     1.41893349E+00   # top decays
#          BR         NDA      ID1       ID2
     1.00000000E+00    2           5        24   # BR(t ->  b    W+)
#
#         PDG            Width
DECAY   1000021     8.70450694E+01   # gluino decays
#          BR         NDA      ID1       ID2
     2.48242019E-01    2     1000005        -5   # BR(~g -> ~b_1  bb)
     2.48242019E-01    2    -1000005         5   # BR(~g -> ~b_1* b )
     2.51757981E-01    2     1000006        -6   # BR(~g -> ~t_1  tb)
     2.51757981E-01    2    -1000006         6   # BR(~g -> ~t_1* t )
#
#         PDG            Width
DECAY   1000006     1.29340289E+00   # stop1 decays
#          BR         NDA      ID1       ID2
     1.66420474E-02    2     1000022         6   # BR(~t_1 -> ~chi_10 t )
     9.83357953E-01    2     1000024         5   # BR(~t_1 -> ~chi_1+ b )
#
#         PDG            Width
DECAY   2000006     1.08017059E+02   # stop2 decays
#          BR         NDA      ID1       ID2
     6.01173177E-02    2     1000022         6   # BR(~t_2 -> ~chi_10 t )
     2.68625264E-04    2     1000023         6   # BR(~t_2 -> ~chi_20 t )
     0.00000000E+00    2     1000025         6   # BR(~t_2 -> ~chi_30 t )
     5.38959878E-04    2     1000024         5   # BR(~t_2 -> ~chi_1+ b )
     3.14103313E-01    2     1000021         6   # BR(~t_2 -> ~g      t )
     1.66559961E-01    2     1000006        25   # BR(~t_2 -> ~t_1    h )
     1.53239435E-01    2     1000006        23   # BR(~t_2 -> ~t_1    Z )
     3.05172388E-01    2     1000005        24   # BR(~t_2 -> ~b_1    W+)
#
#         PDG            Width
DECAY   1000005     7.18478026E-01   # sbottom1 decays
#          BR         NDA      ID1       ID2
     6.77228975E-02    2     1000022         5   # BR(~b_1 -> ~chi_10 b )
     9.32277103E-01    2     1000023         5   # BR(~b_1 -> ~chi_20 b )
#
#         PDG            Width
DECAY   2000005     4.27752259E+01   # sbottom2 decays
#          BR         NDA      ID1       ID2
     3.83910575E-02    2     1000022         5   # BR(~b_2 -> ~chi_10 b )
     1.94107542E-07    2     1000023         5   # BR(~b_2 -> ~chi_20 b )
    -1.91986229E-08    2    -1000024         6   # BR(~b_2 -> ~chi_1- t )
     8.28623804E-01    2     1000021         5   # BR(~b_2 -> ~g      b )
     2.90749824E-02    2     1000005        25   # BR(~b_2 -> ~b_1    h )
     4.25199125E-02    2     1000005        23   # BR(~b_2 -> ~b_1    Z )
     6.13900683E-02    2     1000006       -24   # BR(~b_2 -> ~t_1    W-)
#
#         PDG            Width
DECAY   1000002     7.08502498E+01   # sup_L decays
#          BR         NDA      ID1       ID2
     5.71185685E-03    2     1000022         2   # BR(~u_L -> ~chi_10 u)
     1.62902998E-01    2     1000023         2   # BR(~u_L -> ~chi_20 u)
     9.09022356E-10    2     1000025         2   # BR(~u_L -> ~chi_30 u)
     1.28656085E-09    2     1000035         2   # BR(~u_L -> ~chi_40 u)
     3.25787211E-01    2     1000024         1   # BR(~u_L -> ~chi_1+ d)
     1.10737091E-10    2     1000037         1   # BR(~u_L -> ~chi_2+ d)
     5.05597931E-01    2     1000021         2   # BR(~u_L -> ~g      u)
#
#         PDG            Width
DECAY   2000002     4.22433963E+01   # sup_R decays
#          BR         NDA      ID1       ID2
     1.55716175E-01    2     1000022         2   # BR(~u_R -> ~chi_10 u)
     5.77876674E-07    2     1000023         2   # BR(~u_R -> ~chi_20 u)
     1.93177478E-10    2     1000025         2   # BR(~u_R -> ~chi_30 u)
     2.22606431E-10    2     1000035         2   # BR(~u_R -> ~chi_40 u)
     8.44283247E-01    2     1000021         2   # BR(~u_R -> ~g      u)
#
#         PDG            Width
DECAY   1000001     7.09014940E+01   # sdown_L decays
#          BR         NDA      ID1       ID2
     5.89969392E-03    2     1000022         1   # BR(~d_L -> ~chi_10 d)
     1.62600938E-01    2     1000023         1   # BR(~d_L -> ~chi_20 d)
     1.80669687E-09    2     1000025         1   # BR(~d_L -> ~chi_30 d)
     2.52638202E-09    2     1000035         1   # BR(~d_L -> ~chi_40 d)
     3.25213329E-01    2    -1000024         2   # BR(~d_L -> ~chi_1- u)
     1.09977578E-08    2    -1000037         2   # BR(~d_L -> ~chi_2- u)
     5.06286024E-01    2     1000021         1   # BR(~d_L -> ~g      d)
#
#         PDG            Width
DECAY   2000001     3.71045741E+01   # sdown_R decays
#          BR         NDA      ID1       ID2
     4.42819878E-02    2     1000022         1   # BR(~d_R -> ~chi_10 d)
     1.64332383E-07    2     1000023         1   # BR(~d_R -> ~chi_20 d)
     1.33342732E-11    2     1000025         1   # BR(~d_R -> ~chi_30 d)
     1.22483397E-11    2     1000035         1   # BR(~d_R -> ~chi_40 d)
     9.55717848E-01    2     1000021         1   # BR(~d_R -> ~g      d)
#
#         PDG            Width
DECAY   1000004     7.08502498E+01   # scharm_L decays
#          BR         NDA      ID1       ID2
     5.71185685E-03    2     1000022         4   # BR(~c_L -> ~chi_10 c)
     1.62902998E-01    2     1000023         4   # BR(~c_L -> ~chi_20 c)
     9.09022356E-10    2     1000025         4   # BR(~c_L -> ~chi_30 c)
     1.28656085E-09    2     1000035         4   # BR(~c_L -> ~chi_40 c)
     3.25787211E-01    2     1000024         3   # BR(~c_L -> ~chi_1+ s)
     1.10737091E-10    2     1000037         3   # BR(~c_L -> ~chi_2+ s)
     5.05597931E-01    2     1000021         4   # BR(~c_L -> ~g      c)
#
#         PDG            Width
DECAY   2000004     4.22433963E+01   # scharm_R decays
#          BR         NDA      ID1       ID2
     1.55716175E-01    2     1000022         4   # BR(~c_R -> ~chi_10 c)
     5.77876674E-07    2     1000023         4   # BR(~c_R -> ~chi_20 c)
     1.93177478E-10    2     1000025         4   # BR(~c_R -> ~chi_30 c)
     2.22606431E-10    2     1000035         4   # BR(~c_R -> ~chi_40 c)
     8.44283247E-01    2     1000021         4   # BR(~c_R -> ~g      c)
#
#         PDG            Width
DECAY   1000003     7.09014940E+01   # sstrange_L decays
#          BR         NDA      ID1       ID2
     5.89969392E-03    2     1000022         3   # BR(~s_L -> ~chi_10 s)
     1.62600938E-01    2     1000023         3   # BR(~s_L -> ~chi_20 s)
     1.80669687E-09    2     1000025         3   # BR(~s_L -> ~chi_30 s)
     2.52638202E-09    2     1000035         3   # BR(~s_L -> ~chi_40 s)
     3.25213329E-01    2    -1000024         4   # BR(~s_L -> ~chi_1- c)
     1.09977578E-08    2    -1000037         4   # BR(~s_L -> ~chi_2- c)
     5.06286024E-01    2     1000021         3   # BR(~s_L -> ~g      s)
#
#         PDG            Width
DECAY   2000003     3.71045741E+01   # sstrange_R decays
#          BR         NDA      ID1       ID2
     4.42819878E-02    2     1000022         3   # BR(~s_R -> ~chi_10 s)
     1.64332383E-07    2     1000023         3   # BR(~s_R -> ~chi_20 s)
     1.33342732E-11    2     1000025         3   # BR(~s_R -> ~chi_30 s)
     1.22483397E-11    2     1000035         3   # BR(~s_R -> ~chi_40 s)
     9.55717848E-01    2     1000021         3   # BR(~s_R -> ~g      s)
#
#         PDG            Width
DECAY   1000011     4.01561279E+01   # selectron_L decays
#          BR         NDA      ID1       ID2
     9.62514687E-02    2     1000022        11   # BR(~e_L -> ~chi_10 e-)
     3.01827332E-01    2     1000023        11   # BR(~e_L -> ~chi_20 e-)
     1.89457787E-11    2     1000025        11   # BR(~e_L -> ~chi_30 e-)
     1.06243634E-11    2     1000035        11   # BR(~e_L -> ~chi_40 e-)
     6.01921200E-01    2    -1000024        12   # BR(~e_L -> ~chi_1- nu_e)
#
#         PDG            Width
DECAY   2000011     1.55118419E+01   # selectron_R decays
#          BR         NDA      ID1       ID2
     9.99996293E-01    2     1000022        11   # BR(~e_R -> ~chi_10 e-)
     3.70738882E-06    2     1000023        11   # BR(~e_R -> ~chi_20 e-)
#
#         PDG            Width
DECAY   1000013     4.01561279E+01   # smuon_L decays
#          BR         NDA      ID1       ID2
     9.62514687E-02    2     1000022        13   # BR(~mu_L -> ~chi_10 mu-)
     3.01827332E-01    2     1000023        13   # BR(~mu_L -> ~chi_20 mu-)
     1.89457787E-11    2     1000025        13   # BR(~mu_L -> ~chi_30 mu-)
     1.06243634E-11    2     1000035        13   # BR(~mu_L -> ~chi_40 mu-)
     6.01921200E-01    2    -1000024        14   # BR(~mu_L -> ~chi_1- nu_mu)
#
#         PDG            Width
DECAY   2000013     1.55118419E+01   # smuon_R decays
#          BR         NDA      ID1       ID2
     9.99996293E-01    2     1000022        13   # BR(~mu_R -> ~chi_10 mu-)
     3.70738882E-06    2     1000023        13   # BR(~mu_R -> ~chi_20 mu-)
#
#         PDG            Width
DECAY   1000015     2.81252380E+01   # stau_1 decays
#          BR         NDA      ID1       ID2
     3.44452063E-01    2     1000022        15   # BR(~tau_1 -> ~chi_10  tau-)
     2.18940714E-01    2     1000023        15   # BR(~tau_1 -> ~chi_20  tau-)
     4.36607223E-01    2    -1000024        16   # BR(~tau_1 -> ~chi_1-  nu_tau)
#
#         PDG            Width
DECAY   2000015     2.75260908E+01   # stau_2 decays
#          BR         NDA      ID1       ID2
     3.52565582E-01    2     1000022        15   # BR(~tau_2 -> ~chi_10  tau-)
     2.16256051E-01    2     1000023        15   # BR(~tau_2 -> ~chi_20  tau-)
     5.09138673E-06    2     1000025        15   # BR(~tau_2 -> ~chi_30  tau-)
     6.08696965E-06    2     1000035        15   # BR(~tau_2 -> ~chi_40  tau-)
     4.31161408E-01    2    -1000024        16   # BR(~tau_2 -> ~chi_1-  nu_tau)
     5.78094798E-06    2    -1000037        16   # BR(~tau_2 -> ~chi_2-  nu_tau)
#
#         PDG            Width
DECAY   1000012     4.01596652E+01   # snu_eL decays
#          BR         NDA      ID1       ID2
     9.72542579E-02    2     1000022        12   # BR(~nu_eL -> ~chi_10 nu_e)
     3.00343227E-01    2     1000023        12   # BR(~nu_eL -> ~chi_20 nu_e)
     6.02402515E-01    2     1000024        11   # BR(~nu_eL -> ~chi_1+ e-)
#
#         PDG            Width
DECAY   1000014     4.01596652E+01   # snu_muL decays
#          BR         NDA      ID1       ID2
     9.72542579E-02    2     1000022        14   # BR(~nu_muL -> ~chi_10 nu_mu)
     3.00343227E-01    2     1000023        14   # BR(~nu_muL -> ~chi_20 nu_mu)
     6.02402515E-01    2     1000024        13   # BR(~nu_muL -> ~chi_1+ mu-)
#
#         PDG            Width
DECAY   1000016     4.01670869E+01   # snu_tauL decays
#          BR         NDA      ID1       ID2
     9.72459737E-02    2     1000022        16   # BR(~nu_tauL -> ~chi_10 nu_tau)
     3.00318118E-01    2     1000023        16   # BR(~nu_tauL -> ~chi_20 nu_tau)
     6.02435908E-01    2     1000024        15   # BR(~nu_tauL -> ~chi_1+ tau-)
#
#         PDG            Width
DECAY   1000024     7.10034942E-06   # chargino1+ decays
#          BR         NDA      ID1       ID2
     1.00000000E+00    2     1000022        24   # BR(~chi_1+ -> ~chi_10  W+)
#
#         PDG            Width
DECAY   1000037     9.18932039E+01   # chargino2+ decays
#          BR         NDA      ID1       ID2
     4.59970822E-02    2     1000006        -5   # BR(~chi_2+ -> ~t_1     bb)
     1.02015343E-04    2     2000006        -5   # BR(~chi_2+ -> ~t_2     bb)
     7.36744212E-01    2    -1000005         6   # BR(~chi_2+ -> ~b_1*    t )
     2.36953729E-12    2     1000012       -11   # BR(~chi_2+ -> ~nu_eL   e+  )
     2.36953729E-12    2     1000014       -13   # BR(~chi_2+ -> ~nu_muL  mu+ )
     4.09932130E-13    2    -1000011        12   # BR(~chi_2+ -> ~e_L+    nu_e)
     4.09932130E-13    2    -1000013        14   # BR(~chi_2+ -> ~mu_L+   nu_mu)
     1.03270636E-06    2    -1000015        16   # BR(~chi_2+ -> ~tau_1+  nu_tau)
     6.56116887E-02    2     1000024        23   # BR(~chi_2+ -> ~chi_1+  Z )
     2.02150743E-02    2     1000022        24   # BR(~chi_2+ -> ~chi_10  W+)
     6.41910781E-02    2     1000023        24   # BR(~chi_2+ -> ~chi_20  W+)
     6.71378164E-02    2     1000024        25   # BR(~chi_2+ -> ~chi_1+  h )
#
#         PDG            Width
DECAY   1000022     0.00000000E+00   # neutralino1 decays
#
#         PDG            Width
DECAY   1000023     2.65585762E-07   # neutralino2 decays
#          BR         NDA      ID1       ID2
     1.00000000E+00    2     1000022        23   # BR(~chi_20 -> ~chi_10   Z )
#
#         PDG            Width
DECAY   1000025     9.22171854E+01   # neutralino3 decays
#          BR         NDA      ID1       ID2
     1.21545908E-02    2     1000022        23   # BR(~chi_30 -> ~chi_10   Z )
     4.00905170E-02    2     1000023        23   # BR(~chi_30 -> ~chi_20   Z )
     6.38295736E-02    2     1000024       -24   # BR(~chi_30 -> ~chi_1+   W-)
     6.38295736E-02    2    -1000024        24   # BR(~chi_30 -> ~chi_1-   W+)
     8.87942988E-03    2     1000022        25   # BR(~chi_30 -> ~chi_10   h )
     2.54192311E-02    2     1000023        25   # BR(~chi_30 -> ~chi_20   h )
     3.70797624E-01    2     1000006        -6   # BR(~chi_30 -> ~t_1      tb)
     3.70797624E-01    2    -1000006         6   # BR(~chi_30 -> ~t_1*     t )
     2.20999221E-02    2     1000005        -5   # BR(~chi_30 -> ~b_1      bb)
     2.20999221E-02    2    -1000005         5   # BR(~chi_30 -> ~b_1*     b )
     9.74848059E-11    2     2000011       -11   # BR(~chi_30 -> ~e_R-     e+)
     9.74848059E-11    2    -2000011        11   # BR(~chi_30 -> ~e_R+     e-)
     9.74848059E-11    2     2000013       -13   # BR(~chi_30 -> ~mu_R-    mu+)
     9.74848059E-11    2    -2000013        13   # BR(~chi_30 -> ~mu_R+    mu-)
     9.95920164E-07    2     1000015       -15   # BR(~chi_30 -> ~tau_1-   tau+)
     9.95920164E-07    2    -1000015        15   # BR(~chi_30 -> ~tau_1+   tau-)
     1.45948968E-12    2     1000012       -12   # BR(~chi_30 -> ~nu_eL    nu_eb)
     1.45948968E-12    2    -1000012        12   # BR(~chi_30 -> ~nu_eL*   nu_e )
     1.45948968E-12    2     1000014       -14   # BR(~chi_30 -> ~nu_muL   nu_mub)
     1.45948968E-12    2    -1000014        14   # BR(~chi_30 -> ~nu_muL*  nu_mu )
     8.85199055E-15    2     1000016       -16   # BR(~chi_30 -> ~nu_tau1  nu_taub)
     8.85199055E-15    2    -1000016        16   # BR(~chi_30 -> ~nu_tau1* nu_tau )
#
#         PDG            Width
DECAY   1000035     9.12777342E+01   # neutralino4 decays
#          BR         NDA      ID1       ID2
     8.80285091E-03    2     1000022        23   # BR(~chi_40 -> ~chi_10   Z )
     2.54199763E-02    2     1000023        23   # BR(~chi_40 -> ~chi_20   Z )
     6.45022955E-02    2     1000024       -24   # BR(~chi_40 -> ~chi_1+   W-)
     6.45022955E-02    2    -1000024        24   # BR(~chi_40 -> ~chi_1-   W+)
     1.25436015E-02    2     1000022        25   # BR(~chi_40 -> ~chi_10   h )
     4.17850827E-02    2     1000023        25   # BR(~chi_40 -> ~chi_20   h )
     3.68871081E-01    2     1000006        -6   # BR(~chi_40 -> ~t_1      tb)
     3.68871081E-01    2    -1000006         6   # BR(~chi_40 -> ~t_1*     t )
     2.23496311E-02    2     1000005        -5   # BR(~chi_40 -> ~b_1      bb)
     2.23496311E-02    2    -1000005         5   # BR(~chi_40 -> ~b_1*     b )
     1.61888004E-10    2     2000011       -11   # BR(~chi_40 -> ~e_R-     e+)
     1.61888004E-10    2    -2000011        11   # BR(~chi_40 -> ~e_R+     e-)
     1.61888004E-10    2     2000013       -13   # BR(~chi_40 -> ~mu_R-    mu+)
     1.61888004E-10    2    -2000013        13   # BR(~chi_40 -> ~mu_R+    mu-)
     1.23682029E-06    2     1000015       -15   # BR(~chi_40 -> ~tau_1-   tau+)
     1.23682029E-06    2    -1000015        15   # BR(~chi_40 -> ~tau_1+   tau-)
     1.32820415E-11    2     1000012       -12   # BR(~chi_40 -> ~nu_eL    nu_eb)
     1.32820415E-11    2    -1000012        12   # BR(~chi_40 -> ~nu_eL*   nu_e )
     1.32820415E-11    2     1000014       -14   # BR(~chi_40 -> ~nu_muL   nu_mub)
     1.32820415E-11    2    -1000014        14   # BR(~chi_40 -> ~nu_muL*  nu_mu )
     5.07846007E-12    2     1000016       -16   # BR(~chi_40 -> ~nu_tau1  nu_taub)
     5.07846007E-12    2    -1000016        16   # BR(~chi_40 -> ~nu_tau1* nu_tau )
#
#         PDG            Width
DECAY        25     5.05194884E-03   # h decays
#          BR         NDA      ID1       ID2
     6.73441338E-01    2           5        -5   # BR(h -> b       bb     )
     5.19276628E-02    2         -15        15   # BR(h -> tau+    tau-   )
     1.83823574E-04    2         -13        13   # BR(h -> mu+     mu-    )
     3.89805954E-04    2           3        -3   # BR(h -> s       sb     )
     1.68151097E-02    2           4        -4   # BR(h -> c       cb     )
     5.62711798E-02    2          21        21   # BR(h -> g       g      )
     1.88784581E-03    2          22        22   # BR(h -> gam     gam    )
     1.29709138E-03    2          22        23   # BR(h -> Z       gam    )
     1.75642212E-01    2          24       -24   # BR(h -> W+      W-     )
     2.21439315E-02    2          23        23   # BR(h -> Z       Z      )
#
#         PDG            Width
DECAY        35     1.38569647E+01   # H decays
#          BR         NDA      ID1       ID2
     7.38709716E-01    2           5        -5   # BR(H -> b       bb     )
     1.79464925E-01    2         -15        15   # BR(H -> tau+    tau-   )
     6.34545089E-04    2         -13        13   # BR(H -> mu+     mu-    )
     7.79218202E-04    2           3        -3   # BR(H -> s       sb     )
     2.20028678E-07    2           4        -4   # BR(H -> c       cb     )
     2.19492931E-02    2           6        -6   # BR(H -> t       tb     )
     3.52365602E-05    2          21        21   # BR(H -> g       g      )
     5.63715954E-08    2          22        22   # BR(H -> gam     gam    )
     8.38591935E-09    2          23        22   # BR(H -> Z       gam    )
     3.68615934E-05    2          24       -24   # BR(H -> W+      W-     )
     1.84080685E-05    2          23        23   # BR(H -> Z       Z      )
     9.05626591E-05    2          25        25   # BR(H -> h       h      )
    -5.16315068E-23    2          36        36   # BR(H -> A       A      )
     4.79423733E-17    2          23        36   # BR(H -> Z       A      )
     2.42325330E-03    2     1000024  -1000024   # BR(H -> ~chi_1+ ~chi_1-)
     1.13905045E-04    2     1000022   1000022   # BR(H -> ~chi_10 ~chi_10)
     1.20652131E-03    2     1000023   1000023   # BR(H -> ~chi_20 ~chi_20)
     7.43007364E-04    2     1000022   1000023   # BR(H -> ~chi_10 ~chi_20)
     5.37878223E-02    2     1000006  -1000006   # BR(H -> ~t_1    ~t_1*  )
     6.43899696E-06    2     1000005  -1000005   # BR(H -> ~b_1    ~b_1*  )
#
#         PDG            Width
DECAY        36     1.31133382E+01   # A decays
#          BR         NDA      ID1       ID2
     7.80658094E-01    2           5        -5   # BR(A -> b       bb     )
     1.89632415E-01    2         -15        15   # BR(A -> tau+    tau-   )
     6.70493965E-04    2         -13        13   # BR(A -> mu+     mu-    )
     8.23505818E-04    2           3        -3   # BR(A -> s       sb     )
     2.32381669E-07    2           4        -4   # BR(A -> c       cb     )
     2.31688045E-02    2           6        -6   # BR(A -> t       tb     )
     6.82299116E-05    2          21        21   # BR(A -> g       g      )
     3.37727904E-08    2          22        22   # BR(A -> gam     gam    )
     6.71802293E-08    2          23        22   # BR(A -> Z       gam    )
     3.87978207E-05    2          23        25   # BR(A -> Z       h      )
     2.67558924E-03    2     1000024  -1000024   # BR(A -> ~chi_1+ ~chi_1-)
     1.22938037E-04    2     1000022   1000022   # BR(A -> ~chi_10 ~chi_10)
     1.33212871E-03    2     1000023   1000023   # BR(A -> ~chi_20 ~chi_20)
     8.08670023E-04    2     1000022   1000023   # BR(A -> ~chi_10 ~chi_20)
#
#         PDG            Width
DECAY        37     9.63820741E+00   # H+ decays
#          BR         NDA      ID1       ID2
     1.06984469E-03    2           4        -5   # BR(H+ -> c       bb     )
     2.58091622E-01    2         -15        16   # BR(H+ -> tau+    nu_tau )
     9.12549023E-04    2         -13        14   # BR(H+ -> mu+     nu_mu  )
     6.84699504E-06    2           2        -5   # BR(H+ -> u       bb     )
     5.36283901E-05    2           2        -3   # BR(H+ -> u       sb     )
     1.10330843E-03    2           4        -3   # BR(H+ -> c       sb     )
     6.98631227E-01    2           6        -5   # BR(H+ -> t       bb     )
     5.28724103E-05    2          24        25   # BR(H+ -> W+      h      )
     1.34629332E-13    2          24        36   # BR(H+ -> W+      A      )
     2.16016082E-03    2     1000024   1000022   # BR(H+ -> ~chi_1+ ~chi_10)
     8.06644610E-09    2     1000024   1000023   # BR(H+ -> ~chi_1+ ~chi_20)
     3.79179324E-02    2     1000006  -1000005   # BR(H+ -> ~t_1    ~b_1*  )
