#
#                              ======================
#                              | THE SUSYHIT OUTPUT |
#                              ======================
#
#
#              ------------------------------------------------------
#              |     This is the output of the SUSY-HIT package     |
#              |  created by A.Djouadi, M.Muehlleitner and M.Spira. |
#              |  In case of problems with SUSY-HIT email to        |
#              |           margarete.muehlleitner@kit.edu           |
#              |           michael.spira@psi.ch                     |
#              |           abdelhak.djouadi@cern.ch                 |
#              ------------------------------------------------------
#
#              ------------------------------------------------------
#              |  SUSY Les Houches Accord - MSSM Spectrum + Decays  |
#              |              based on the decay programs           |
#              |                                                    |
#              |                     SDECAY 1.5                     |
#              |                                                    |
#              |  Authors: M.Muhlleitner, A.Djouadi and Y.Mambrini  |
#              |  Ref.:    Comput.Phys.Commun.168(2005)46           |
#              |           [hep-ph/0311167]                         |
#              |                                                    |
#              |                     HDECAY 3.4                     |
#              |                                                    |
#              |  By: A.Djouadi,J.Kalinowski,M.Muhlleitner,M.Spira  |
#              |  Ref.:    Comput.Phys.Commun.108(1998)56           |
#              |           [hep-ph/9704448]                         |
#              |                                                    |
#              |                                                    |
#              |  If not stated otherwise all DRbar couplings and   |
#              |  soft SUSY breaking masses are given at the scale  |
#              |  Q=  0.15500934E+04
#              |                                                    |
#              ------------------------------------------------------
#
#
BLOCK DCINFO  # Decay Program information
     1   SDECAY/HDECAY # decay calculator
     2   1.5  /3.4    # version number
#
BLOCK SPINFO  # Spectrum calculator information
     1    SOFTSUSY    # spectrum calculator                
     2    3.7.3       # version number                     
#
BLOCK MODSEL  # Model selection
     1     0   #  nonUniversal                                     
#
BLOCK SMINPUTS  # Standard Model inputs
         1     1.27934000E+02   # alpha_em^-1(M_Z)^MSbar
         2     1.16639000E-05   # G_F [GeV^-2]
         3     1.17200000E-01   # alpha_S(M_Z)^MSbar
         4     9.11870000E+01   # M_Z pole mass
         5     4.19000000E+00   # mb(mb)^MSbar
         6     1.72500000E+02   # mt pole mass
         7     1.77690000E+00   # mtau pole mass
#
BLOCK MINPAR  # Input parameters - minimal models
         3     2.00000000E+01   # tanb                
#
BLOCK EXTPAR  # Input parameters - non-minimal models
         0    -1.00000000E+00   # Set                 
         1     1.99900000E+02   # M_1(MX)             
         2     3.99900000E+02   # M_2(MX)             
         3     2.20000000E+03   # M_3(MX)             
        11     2.94338000E+03   # At(MX)              
        12     0.00000000E+00   # Ab(MX)              
        13     0.00000000E+00   # Atau(MX)            
        23     3.00000000E+03   # mu(MX)              
        25     2.00000000E+01   # tan                 
        26     3.00000000E+03   # mA(pole)            
        31     3.00000000E+03   # meL(MX)             
        32     3.00000000E+03   # mmuL(MX)            
        33     3.00000000E+03   # mtauL(MX)           
        34     3.00000000E+03   # meR(MX)             
        35     3.00000000E+03   # mmuR(MX)            
        36     3.00000000E+03   # mtauR(MX)           
        41     3.00000000E+03   # mqL1(MX)            
        42     3.00000000E+03   # mqL2(MX)            
        43     7.99900000E+02   # mqL3(MX)            
        44     3.00000000E+03   # muR(MX)             
        45     3.00000000E+03   # mcR(MX)             
        46     3.00000000E+03   # mtR(MX)             
        47     3.00000000E+03   # mdR(MX)             
        48     3.00000000E+03   # msR(MX)             
        49     3.00000000E+03   # mbR(MX)             
#
BLOCK MASS  # Mass Spectrum
# PDG code           mass       particle
        24     8.03994030E+01   # W+
        25     1.23935417E+02   # h
        35     3.00012051E+03   # H
        36     2.99999984E+03   # A
        37     3.00090704E+03   # H+
         5     4.81337004E+00   # b-quark pole mass calculated from mb(mb)_Msbar
   1000001     3.03724671E+03   # ~d_L
   2000001     3.03211410E+03   # ~d_R
   1000002     3.03633280E+03   # ~u_L
   2000002     3.03334327E+03   # ~u_R
   1000003     3.03724671E+03   # ~s_L
   2000003     3.03211410E+03   # ~s_R
   1000004     3.03633280E+03   # ~c_L
   2000004     3.03334327E+03   # ~c_R
   1000005     8.96342585E+02   # ~b_1
   2000005     3.03123267E+03   # ~b_2
   1000006     8.94765159E+02   # ~t_1
   2000006     3.01782782E+03   # ~t_2
   1000011     3.00636154E+03   # ~e_L
   2000011     3.00192376E+03   # ~e_R
   1000012     3.00496689E+03   # ~nu_eL
   1000013     3.00636154E+03   # ~mu_L
   2000013     3.00192376E+03   # ~mu_R
   1000014     3.00496689E+03   # ~nu_muL
   1000015     2.98570025E+03   # ~tau_1
   2000015     3.02197919E+03   # ~tau_2
   1000016     3.00479244E+03   # ~nu_tauL
   1000021     2.34597934E+03   # ~g
   1000022     2.00918745E+02   # ~chi_10
   1000023     4.24810931E+02   # ~chi_20
   1000025    -2.99689391E+03   # ~chi_30
   1000035     2.99755040E+03   # ~chi_40
   1000024     4.24973742E+02   # ~chi_1+
   1000037     2.99816512E+03   # ~chi_2+
#
BLOCK NMIX  # Neutralino Mixing Matrix
  1  1     9.99887567E-01   # N_11
  1  2    -9.61023689E-04   # N_12
  1  3     1.48642302E-02   # N_13
  1  4    -1.72737199E-03   # N_14
  2  1     1.36397216E-03   # N_21
  2  2     9.99634602E-01   # N_22
  2  3    -2.65603684E-02   # N_23
  2  4     4.83210141E-03   # N_24
  3  1    -9.27159836E-03   # N_31
  3  2     1.53755806E-02   # N_32
  3  3     7.06852245E-01   # N_33
  3  4     7.07133320E-01   # N_34
  4  1    -1.17059713E-02   # N_41
  4  2     2.22110502E-02   # N_42
  4  3     7.06706095E-01   # N_43
  4  4    -7.07061620E-01   # N_44
#
BLOCK UMIX  # Chargino Mixing Matrix U
  1  1     9.99293679E-01   # U_11
  1  2    -3.75784923E-02   # U_12
  2  1     3.75784923E-02   # U_21
  2  2     9.99293679E-01   # U_22
#
BLOCK VMIX  # Chargino Mixing Matrix V
  1  1     9.99976622E-01   # V_11
  1  2    -6.83785899E-03   # V_12
  2  1     6.83785899E-03   # V_21
  2  2     9.99976622E-01   # V_22
#
BLOCK STOPMIX  # Stop Mixing Matrix
  1  1     9.98805969E-01   # cos(theta_t)
  1  2    -4.88532117E-02   # sin(theta_t)
  2  1     4.88532117E-02   # -sin(theta_t)
  2  2     9.98805969E-01   # cos(theta_t)
#
BLOCK SBOTMIX  # Sbottom Mixing Matrix
  1  1     9.99912033E-01   # cos(theta_b)
  1  2     1.32637198E-02   # sin(theta_b)
  2  1    -1.32637198E-02   # -sin(theta_b)
  2  2     9.99912033E-01   # cos(theta_b)
#
BLOCK STAUMIX  # Stau Mixing Matrix
  1  1     7.06938132E-01   # cos(theta_tau)
  1  2     7.07275390E-01   # sin(theta_tau)
  2  1    -7.07275390E-01   # -sin(theta_tau)
  2  2     7.06938132E-01   # cos(theta_tau)
#
BLOCK ALPHA  # Higgs mixing
          -5.01813240E-02   # Mixing angle in the neutral Higgs boson sector
#
BLOCK HMIX Q=  1.55009339E+03  # DRbar Higgs Parameters
         1     3.00000000E+03   # mu(Q)MSSM           
         2     2.00000000E+01   # tan                 
         3     2.44188787E+02   # higgs               
         4     7.56914926E+06   # mA^2(Q)MSSM         
#
BLOCK GAUGE Q=  1.55009339E+03  # The gauge couplings
     1     3.62284665E-01   # gprime(Q) DRbar
     2     6.38334016E-01   # g(Q) DRbar
     3     1.02561832E+00   # g3(Q) DRbar
#
BLOCK AU Q=  1.55009339E+03  # The trilinear couplings
  1  1     2.27179955E-06   # A_u(Q) DRbar
  2  2     2.27183358E-06   # A_c(Q) DRbar
  3  3     2.94338000E+03   # A_t(Q) DRbar
#
BLOCK AD Q=  1.55009339E+03  # The trilinear couplings
  1  1     5.90638257E-07   # A_d(Q) DRbar
  2  2     5.90748682E-07   # A_s(Q) DRbar
  3  3     1.32525569E-06   # A_b(Q) DRbar
#
BLOCK AE Q=  1.55009339E+03  # The trilinear couplings
  1  1     0.00000000E+00   # A_e(Q) DRbar
  2  2     1.26805092E-07   # A_mu(Q) DRbar
  3  3     1.28333932E-07   # A_tau(Q) DRbar
#
BLOCK Yu Q=  1.55009339E+03  # The Yukawa couplings
  1  1     0.00000000E+00   # y_u(Q) DRbar
  2  2     0.00000000E+00   # y_c(Q) DRbar
  3  3     8.51022380E-01   # y_t(Q) DRbar
#
BLOCK Yd Q=  1.55009339E+03  # The Yukawa couplings
  1  1     0.00000000E+00   # y_d(Q) DRbar
  2  2     0.00000000E+00   # y_s(Q) DRbar
  3  3     2.14321422E-01   # y_b(Q) DRbar
#
BLOCK Ye Q=  1.55009339E+03  # The Yukawa couplings
  1  1     0.00000000E+00   # y_e(Q) DRbar
  2  2     0.00000000E+00   # y_mu(Q) DRbar
  3  3     2.06176958E-01   # y_tau(Q) DRbar
#
BLOCK MSOFT Q=  1.55009339E+03  # The soft SUSY breaking masses at the scale Q
         1     1.99900000E+02   # M_1(Q)              
         2     3.99900000E+02   # M_2(Q)              
         3     2.20000000E+03   # M_3(Q)              
        21    -8.35793841E+04   # M^2_Hd              
        22    -9.04788116E+06   # M^2_Hu              
        31     3.00000000E+03   # M_eL                
        32     3.00000000E+03   # M_muL               
        33     3.00000000E+03   # M_tauL              
        34     3.00000000E+03   # M_eR                
        35     3.00000000E+03   # M_muR               
        36     3.00000000E+03   # M_tauR              
        41     3.00000000E+03   # M_q1L               
        42     3.00000000E+03   # M_q2L               
        43     7.99899993E+02   # M_q3L               
        44     3.00000000E+03   # M_uR                
        45     3.00000000E+03   # M_cR                
        46     3.00000000E+03   # M_tR                
        47     3.00000000E+03   # M_dR                
        48     3.00000000E+03   # M_sR                
        49     3.00000000E+03   # M_bR                
#
#
#
#                             =================
#                             |The decay table|
#                             =================
#
# - The QCD corrections to the decays gluino -> squark  + quark
#                                     squark -> gaugino + quark_prime
#                                     squark -> squark_prime + Higgs
#                                     squark -> gluino  + quark
#   are included.
#
# - The multi-body decays for the inos, stops and sbottoms are included.
#
# - The loop induced decays for the gluino, neutralinos and stops
#   are included.
#
# - The SUSY decays of the top quark are included.
#
#
#         PDG            Width
DECAY         6     1.41443384E+00   # top decays
#          BR         NDA      ID1       ID2
     1.00000000E+00    2           5        24   # BR(t ->  b    W+)
#
#         PDG            Width
DECAY   1000021     6.93528554E+01   # gluino decays
#          BR         NDA      ID1       ID2
     2.48209625E-01    2     1000005        -5   # BR(~g -> ~b_1  bb)
     2.48209625E-01    2    -1000005         5   # BR(~g -> ~b_1* b )
     2.51790375E-01    2     1000006        -6   # BR(~g -> ~t_1  tb)
     2.51790375E-01    2    -1000006         6   # BR(~g -> ~t_1* t )
#
#         PDG            Width
DECAY   1000006     6.56354041E+00   # stop1 decays
#          BR         NDA      ID1       ID2
     1.68383649E-02    2     1000022         6   # BR(~t_1 -> ~chi_10 t )
     3.01914524E-01    2     1000023         6   # BR(~t_1 -> ~chi_20 t )
     6.81247111E-01    2     1000024         5   # BR(~t_1 -> ~chi_1+ b )
#
#         PDG            Width
DECAY   2000006     1.00854215E+02   # stop2 decays
#          BR         NDA      ID1       ID2
     6.51174720E-02    2     1000022         6   # BR(~t_2 -> ~chi_10 t )
     3.37092794E-04    2     1000023         6   # BR(~t_2 -> ~chi_20 t )
     0.00000000E+00    2     1000025         6   # BR(~t_2 -> ~chi_30 t )
     6.77122771E-04    2     1000024         5   # BR(~t_2 -> ~chi_1+ b )
     7.70950008E-05    2     1000037         5   # BR(~t_2 -> ~chi_2+ b )
     3.33187224E-01    2     1000021         6   # BR(~t_2 -> ~g      t )
     1.56446739E-01    2     1000006        25   # BR(~t_2 -> ~t_1    h )
     1.49418453E-01    2     1000006        23   # BR(~t_2 -> ~t_1    Z )
     2.94738801E-01    2     1000005        24   # BR(~t_2 -> ~b_1    W+)
#
#         PDG            Width
DECAY   1000005     6.35840435E+00   # sbottom1 decays
#          BR         NDA      ID1       ID2
     1.92502206E-02    2     1000022         5   # BR(~b_1 -> ~chi_10 b )
     3.53751466E-01    2     1000023         5   # BR(~b_1 -> ~chi_20 b )
     6.26998314E-01    2    -1000024         6   # BR(~b_1 -> ~chi_1- t )
#
#         PDG            Width
DECAY   2000005     4.21033012E+01   # sbottom2 decays
#          BR         NDA      ID1       ID2
     3.94067873E-02    2     1000022         5   # BR(~b_2 -> ~chi_10 b )
     1.57515634E-07    2     1000023         5   # BR(~b_2 -> ~chi_20 b )
     1.76220623E-05    2     1000025         5   # BR(~b_2 -> ~chi_30 b )
     1.71891239E-05    2     1000035         5   # BR(~b_2 -> ~chi_40 b )
     6.73004232E-08    2    -1000024         6   # BR(~b_2 -> ~chi_1- t )
     8.29205599E-01    2     1000021         5   # BR(~b_2 -> ~g      b )
     2.89920104E-02    2     1000005        25   # BR(~b_2 -> ~b_1    h )
     4.20045268E-02    2     1000005        23   # BR(~b_2 -> ~b_1    Z )
     6.03560407E-02    2     1000006       -24   # BR(~b_2 -> ~t_1    W-)
#
#         PDG            Width
DECAY   1000002     6.95766287E+01   # sup_L decays
#          BR         NDA      ID1       ID2
     5.91459174E-03    2     1000022         2   # BR(~u_L -> ~chi_10 u)
     1.62160555E-01    2     1000023         2   # BR(~u_L -> ~chi_20 u)
     2.39986277E-08    2     1000025         2   # BR(~u_L -> ~chi_30 u)
     5.00591472E-08    2     1000035         2   # BR(~u_L -> ~chi_40 u)
     3.24366024E-01    2     1000024         1   # BR(~u_L -> ~chi_1+ d)
     1.13493212E-08    2     1000037         1   # BR(~u_L -> ~chi_2+ d)
     5.07558744E-01    2     1000021         2   # BR(~u_L -> ~g      u)
#
#         PDG            Width
DECAY   2000002     4.17185170E+01   # sup_R decays
#          BR         NDA      ID1       ID2
     1.59278194E-01    2     1000022         2   # BR(~u_R -> ~chi_10 u)
     2.87867442E-07    2     1000023         2   # BR(~u_R -> ~chi_20 u)
     9.11946773E-09    2     1000025         2   # BR(~u_R -> ~chi_30 u)
     1.40326325E-08    2     1000035         2   # BR(~u_R -> ~chi_40 u)
     8.40721495E-01    2     1000021         2   # BR(~u_R -> ~g      u)
#
#         PDG            Width
DECAY   1000001     6.96276479E+01   # sdown_L decays
#          BR         NDA      ID1       ID2
     6.03349177E-03    2     1000022         1   # BR(~d_L -> ~chi_10 d)
     1.61928357E-01    2     1000023         1   # BR(~d_L -> ~chi_20 d)
     3.96372075E-08    2     1000025         1   # BR(~d_L -> ~chi_30 d)
     7.80670714E-08    2     1000035         1   # BR(~d_L -> ~chi_40 d)
     3.23793454E-01    2    -1000024         2   # BR(~d_L -> ~chi_1- u)
     3.58528610E-07    2    -1000037         2   # BR(~d_L -> ~chi_2- u)
     5.08244221E-01    2     1000021         1   # BR(~d_L -> ~g      d)
#
#         PDG            Width
DECAY   2000001     3.66353692E+01   # sdown_R decays
#          BR         NDA      ID1       ID2
     4.53253016E-02    2     1000022         1   # BR(~d_R -> ~chi_10 d)
     8.19155364E-08    2     1000023         1   # BR(~d_R -> ~chi_20 d)
     2.42973062E-09    2     1000025         1   # BR(~d_R -> ~chi_30 d)
     3.73408583E-09    2     1000035         1   # BR(~d_R -> ~chi_40 d)
     9.54674610E-01    2     1000021         1   # BR(~d_R -> ~g      d)
#
#         PDG            Width
DECAY   1000004     6.95766287E+01   # scharm_L decays
#          BR         NDA      ID1       ID2
     5.91459174E-03    2     1000022         4   # BR(~c_L -> ~chi_10 c)
     1.62160555E-01    2     1000023         4   # BR(~c_L -> ~chi_20 c)
     2.39986277E-08    2     1000025         4   # BR(~c_L -> ~chi_30 c)
     5.00591472E-08    2     1000035         4   # BR(~c_L -> ~chi_40 c)
     3.24366024E-01    2     1000024         3   # BR(~c_L -> ~chi_1+ s)
     1.13493212E-08    2     1000037         3   # BR(~c_L -> ~chi_2+ s)
     5.07558744E-01    2     1000021         4   # BR(~c_L -> ~g      c)
#
#         PDG            Width
DECAY   2000004     4.17185170E+01   # scharm_R decays
#          BR         NDA      ID1       ID2
     1.59278194E-01    2     1000022         4   # BR(~c_R -> ~chi_10 c)
     2.87867442E-07    2     1000023         4   # BR(~c_R -> ~chi_20 c)
     9.11946773E-09    2     1000025         4   # BR(~c_R -> ~chi_30 c)
     1.40326325E-08    2     1000035         4   # BR(~c_R -> ~chi_40 c)
     8.40721495E-01    2     1000021         4   # BR(~c_R -> ~g      c)
#
#         PDG            Width
DECAY   1000003     6.96276479E+01   # sstrange_L decays
#          BR         NDA      ID1       ID2
     6.03349177E-03    2     1000022         3   # BR(~s_L -> ~chi_10 s)
     1.61928357E-01    2     1000023         3   # BR(~s_L -> ~chi_20 s)
     3.96372075E-08    2     1000025         3   # BR(~s_L -> ~chi_30 s)
     7.80670714E-08    2     1000035         3   # BR(~s_L -> ~chi_40 s)
     3.23793454E-01    2    -1000024         4   # BR(~s_L -> ~chi_1- c)
     3.58528610E-07    2    -1000037         4   # BR(~s_L -> ~chi_2- c)
     5.08244221E-01    2     1000021         3   # BR(~s_L -> ~g      s)
#
#         PDG            Width
DECAY   2000003     3.66353692E+01   # sstrange_R decays
#          BR         NDA      ID1       ID2
     4.53253016E-02    2     1000022         3   # BR(~s_R -> ~chi_10 s)
     8.19155364E-08    2     1000023         3   # BR(~s_R -> ~chi_20 s)
     2.42973062E-09    2     1000025         3   # BR(~s_R -> ~chi_30 s)
     3.73408583E-09    2     1000035         3   # BR(~s_R -> ~chi_40 s)
     9.54674610E-01    2     1000021         3   # BR(~s_R -> ~g      s)
#
#         PDG            Width
DECAY   1000011     3.89625340E+01   # selectron_L decays
#          BR         NDA      ID1       ID2
     9.94800626E-02    2     1000022        11   # BR(~e_L -> ~chi_10 e-)
     3.00626065E-01    2     1000023        11   # BR(~e_L -> ~chi_20 e-)
     1.26498516E-09    2     1000025        11   # BR(~e_L -> ~chi_30 e-)
     2.59649829E-09    2     1000035        11   # BR(~e_L -> ~chi_40 e-)
     5.99893842E-01    2    -1000024        12   # BR(~e_L -> ~chi_1- nu_e)
     2.61902698E-08    2    -1000037        12   # BR(~e_L -> ~chi_2- nu_e)
#
#         PDG            Width
DECAY   2000011     1.55332785E+01   # selectron_R decays
#          BR         NDA      ID1       ID2
     9.99998195E-01    2     1000022        11   # BR(~e_R -> ~chi_10 e-)
     1.80317044E-06    2     1000023        11   # BR(~e_R -> ~chi_20 e-)
     9.72631994E-10    2     1000025        11   # BR(~e_R -> ~chi_30 e-)
     1.17238346E-09    2     1000035        11   # BR(~e_R -> ~chi_40 e-)
#
#         PDG            Width
DECAY   1000013     3.89625340E+01   # smuon_L decays
#          BR         NDA      ID1       ID2
     9.94800626E-02    2     1000022        13   # BR(~mu_L -> ~chi_10 mu-)
     3.00626065E-01    2     1000023        13   # BR(~mu_L -> ~chi_20 mu-)
     1.26498516E-09    2     1000025        13   # BR(~mu_L -> ~chi_30 mu-)
     2.59649829E-09    2     1000035        13   # BR(~mu_L -> ~chi_40 mu-)
     5.99893842E-01    2    -1000024        14   # BR(~mu_L -> ~chi_1- nu_mu)
     2.61902698E-08    2    -1000037        14   # BR(~mu_L -> ~chi_2- nu_mu)
#
#         PDG            Width
DECAY   2000013     1.55332785E+01   # smuon_R decays
#          BR         NDA      ID1       ID2
     9.99998195E-01    2     1000022        13   # BR(~mu_R -> ~chi_10 mu-)
     1.80317044E-06    2     1000023        13   # BR(~mu_R -> ~chi_20 mu-)
     9.72631994E-10    2     1000025        13   # BR(~mu_R -> ~chi_30 mu-)
     1.17238346E-09    2     1000035        13   # BR(~mu_R -> ~chi_40 mu-)
#
#         PDG            Width
DECAY   1000015     2.75290503E+01   # stau_1 decays
#          BR         NDA      ID1       ID2
     3.52302245E-01    2     1000022        15   # BR(~tau_1 -> ~chi_10  tau-)
     2.16234705E-01    2     1000023        15   # BR(~tau_1 -> ~chi_20  tau-)
     4.31463050E-01    2    -1000024        16   # BR(~tau_1 -> ~chi_1-  nu_tau)
#
#         PDG            Width
DECAY   2000015     2.69446528E+01   # stau_2 decays
#          BR         NDA      ID1       ID2
     3.60664063E-01    2     1000022        15   # BR(~tau_2 -> ~chi_10  tau-)
     2.13451363E-01    2     1000023        15   # BR(~tau_2 -> ~chi_20  tau-)
     1.27891936E-05    2     1000025        15   # BR(~tau_2 -> ~chi_30  tau-)
     1.43372386E-05    2     1000035        15   # BR(~tau_2 -> ~chi_40  tau-)
     4.25842906E-01    2    -1000024        16   # BR(~tau_2 -> ~chi_1-  nu_tau)
     1.45411081E-05    2    -1000037        16   # BR(~tau_2 -> ~chi_2-  nu_tau)
#
#         PDG            Width
DECAY   1000012     3.89651656E+01   # snu_eL decays
#          BR         NDA      ID1       ID2
     1.00102164E-01    2     1000022        12   # BR(~nu_eL -> ~chi_10 nu_e)
     2.99525692E-01    2     1000023        12   # BR(~nu_eL -> ~chi_20 nu_e)
     3.83319226E-09    2     1000025        12   # BR(~nu_eL -> ~chi_30 nu_e)
     6.32555388E-09    2     1000035        12   # BR(~nu_eL -> ~chi_40 nu_e)
     6.00372133E-01    2     1000024        11   # BR(~nu_eL -> ~chi_1+ e-)
     5.97682409E-10    2     1000037        11   # BR(~nu_eL -> ~chi_2+ e-)
#
#         PDG            Width
DECAY   1000014     3.89651656E+01   # snu_muL decays
#          BR         NDA      ID1       ID2
     1.00102164E-01    2     1000022        14   # BR(~nu_muL -> ~chi_10 nu_mu)
     2.99525692E-01    2     1000023        14   # BR(~nu_muL -> ~chi_20 nu_mu)
     3.83319226E-09    2     1000025        14   # BR(~nu_muL -> ~chi_30 nu_mu)
     6.32555388E-09    2     1000035        14   # BR(~nu_muL -> ~chi_40 nu_mu)
     6.00372133E-01    2     1000024        13   # BR(~nu_muL -> ~chi_1+ mu-)
     5.97682409E-10    2     1000037        13   # BR(~nu_muL -> ~chi_2+ mu-)
#
#         PDG            Width
DECAY   1000016     3.89661137E+01   # snu_tauL decays
#          BR         NDA      ID1       ID2
     1.00093813E-01    2     1000022        16   # BR(~nu_tauL -> ~chi_10 nu_tau)
     2.99499598E-01    2     1000023        16   # BR(~nu_tauL -> ~chi_20 nu_tau)
     3.66965486E-09    2     1000025        16   # BR(~nu_tauL -> ~chi_30 nu_tau)
     6.03202865E-09    2     1000035        16   # BR(~nu_tauL -> ~chi_40 nu_tau)
     6.00405346E-01    2     1000024        15   # BR(~nu_tauL -> ~chi_1+ tau-)
     1.23234448E-06    2     1000037        15   # BR(~nu_tauL -> ~chi_2+ tau-)
#
#         PDG            Width
DECAY   1000024     5.26379786E-05   # chargino1+ decays
#          BR         NDA      ID1       ID2
     1.00000000E+00    2     1000022        24   # BR(~chi_1+ -> ~chi_10  W+)
#
#         PDG            Width
DECAY   1000037     8.25919290E+01   # chargino2+ decays
#          BR         NDA      ID1       ID2
     4.72390140E-02    2     1000006        -5   # BR(~chi_2+ -> ~t_1     bb)
     7.12838482E-01    2    -1000005         6   # BR(~chi_2+ -> ~b_1*    t )
     4.12209515E-07    2    -1000015        16   # BR(~chi_2+ -> ~tau_1+  nu_tau)
     7.20489231E-02    2     1000024        23   # BR(~chi_2+ -> ~chi_1+  Z )
     2.24122868E-02    2     1000022        24   # BR(~chi_2+ -> ~chi_10  W+)
     7.02600943E-02    2     1000023        24   # BR(~chi_2+ -> ~chi_20  W+)
     7.52007880E-02    2     1000024        25   # BR(~chi_2+ -> ~chi_1+  h )
#
#         PDG            Width
DECAY   1000022     0.00000000E+00   # neutralino1 decays
#
#         PDG            Width
DECAY   1000023     4.25468425E-05   # neutralino2 decays
#          BR         NDA      ID1       ID2
     4.77791699E-02    2     1000022        23   # BR(~chi_20 -> ~chi_10   Z )
     9.52220830E-01    2     1000022        25   # BR(~chi_20 -> ~chi_10   h )
#
#         PDG            Width
DECAY   1000025     8.28090287E+01   # neutralino3 decays
#          BR         NDA      ID1       ID2
     1.42082521E-02    2     1000022        23   # BR(~chi_30 -> ~chi_10   Z )
     4.84911887E-02    2     1000023        23   # BR(~chi_30 -> ~chi_20   Z )
     6.99590019E-02    2     1000024       -24   # BR(~chi_30 -> ~chi_1+   W-)
     6.99590019E-02    2    -1000024        24   # BR(~chi_30 -> ~chi_1-   W+)
     9.20834047E-03    2     1000022        25   # BR(~chi_30 -> ~chi_10   h )
     2.36764456E-02    2     1000023        25   # BR(~chi_30 -> ~chi_20   h )
     3.59601157E-01    2     1000006        -6   # BR(~chi_30 -> ~t_1      tb)
     3.59601157E-01    2    -1000006         6   # BR(~chi_30 -> ~t_1*     t )
     2.26473973E-02    2     1000005        -5   # BR(~chi_30 -> ~b_1      bb)
     2.26473973E-02    2    -1000005         5   # BR(~chi_30 -> ~b_1*     b )
     3.30761777E-07    2     1000015       -15   # BR(~chi_30 -> ~tau_1-   tau+)
     3.30761777E-07    2    -1000015        15   # BR(~chi_30 -> ~tau_1+   tau-)
#
#         PDG            Width
DECAY   1000035     8.19738130E+01   # neutralino4 decays
#          BR         NDA      ID1       ID2
     9.00514053E-03    2     1000022        23   # BR(~chi_40 -> ~chi_10   Z )
     2.35040686E-02    2     1000023        23   # BR(~chi_40 -> ~chi_20   Z )
     7.07009379E-02    2     1000024       -24   # BR(~chi_40 -> ~chi_1+   W-)
     7.07009379E-02    2    -1000024        24   # BR(~chi_40 -> ~chi_1-   W+)
     1.48744061E-02    2     1000022        25   # BR(~chi_40 -> ~chi_10   h )
     5.17570875E-02    2     1000023        25   # BR(~chi_40 -> ~chi_20   h )
     3.56813341E-01    2     1000006        -6   # BR(~chi_40 -> ~t_1      tb)
     3.56813341E-01    2    -1000006         6   # BR(~chi_40 -> ~t_1*     t )
     2.29148704E-02    2     1000005        -5   # BR(~chi_40 -> ~b_1      bb)
     2.29148704E-02    2    -1000005         5   # BR(~chi_40 -> ~b_1*     b )
     4.99073673E-07    2     1000015       -15   # BR(~chi_40 -> ~tau_1-   tau+)
     4.99073673E-07    2    -1000015        15   # BR(~chi_40 -> ~tau_1+   tau-)
#
#         PDG            Width
DECAY        25     4.68397563E-03   # h decays
#          BR         NDA      ID1       ID2
     6.86989956E-01    2           5        -5   # BR(h -> b       bb     )
     5.52527477E-02    2         -15        15   # BR(h -> tau+    tau-   )
     1.95600445E-04    2         -13        13   # BR(h -> mu+     mu-    )
     4.15820934E-04    2           3        -3   # BR(h -> s       sb     )
     1.79499165E-02    2           4        -4   # BR(h -> c       cb     )
     5.74840710E-02    2          21        21   # BR(h -> g       g      )
     1.93794772E-03    2          22        22   # BR(h -> gam     gam    )
     1.21124591E-03    2          22        23   # BR(h -> Z       gam    )
     1.59031223E-01    2          24       -24   # BR(h -> W+      W-     )
     1.95314702E-02    2          23        23   # BR(h -> Z       Z      )
#
#         PDG            Width
DECAY        35     1.40027108E+01   # H decays
#          BR         NDA      ID1       ID2
     7.46639197E-01    2           5        -5   # BR(H -> b       bb     )
     1.77590960E-01    2         -15        15   # BR(H -> tau+    tau-   )
     6.27919197E-04    2         -13        13   # BR(H -> mu+     mu-    )
     7.71085302E-04    2           3        -3   # BR(H -> s       sb     )
     2.17578714E-07    2           4        -4   # BR(H -> c       cb     )
     2.17048762E-02    2           6        -6   # BR(H -> t       tb     )
     2.69039429E-05    2          21        21   # BR(H -> g       g      )
     1.48914514E-08    2          22        22   # BR(H -> gam     gam    )
     8.35821379E-09    2          23        22   # BR(H -> Z       gam    )
     3.13149586E-05    2          24       -24   # BR(H -> W+      W-     )
     1.56381715E-05    2          23        23   # BR(H -> Z       Z      )
     8.26655509E-05    2          25        25   # BR(H -> h       h      )
    -1.16222917E-23    2          36        36   # BR(H -> A       A      )
     1.93485838E-18    2          23        36   # BR(H -> Z       A      )
     2.21754898E-03    2     1000024  -1000024   # BR(H -> ~chi_1+ ~chi_1-)
     1.10728016E-04    2     1000022   1000022   # BR(H -> ~chi_10 ~chi_10)
     1.10553035E-03    2     1000023   1000023   # BR(H -> ~chi_20 ~chi_20)
     7.04868394E-04    2     1000022   1000023   # BR(H -> ~chi_10 ~chi_20)
     4.83647098E-02    2     1000006  -1000006   # BR(H -> ~t_1    ~t_1*  )
     5.81307745E-06    2     1000005  -1000005   # BR(H -> ~b_1    ~b_1*  )
#
#         PDG            Width
DECAY        36     1.33320907E+01   # A decays
#          BR         NDA      ID1       ID2
     7.84271081E-01    2           5        -5   # BR(A -> b       bb     )
     1.86520924E-01    2         -15        15   # BR(A -> tau+    tau-   )
     6.59492493E-04    2         -13        13   # BR(A -> mu+     mu-    )
     8.09993732E-04    2           3        -3   # BR(A -> s       sb     )
     2.28568749E-07    2           4        -4   # BR(A -> c       cb     )
     2.27886507E-02    2           6        -6   # BR(A -> t       tb     )
     6.71103982E-05    2          21        21   # BR(A -> g       g      )
     3.31451820E-08    2          22        22   # BR(A -> gam     gam    )
     6.60903052E-08    2          23        22   # BR(A -> Z       gam    )
     3.27679082E-05    2          23        25   # BR(A -> Z       h      )
     2.62629596E-03    2     1000024  -1000024   # BR(A -> ~chi_1+ ~chi_1-)
     1.21210981E-04    2     1000022   1000022   # BR(A -> ~chi_10 ~chi_10)
     1.30924230E-03    2     1000023   1000023   # BR(A -> ~chi_20 ~chi_20)
     7.92903270E-04    2     1000022   1000023   # BR(A -> ~chi_10 ~chi_20)
#
#         PDG            Width
DECAY        37     1.02394479E+01   # H+ decays
#          BR         NDA      ID1       ID2
     1.10625260E-03    2           4        -5   # BR(H+ -> c       bb     )
     2.42929687E-01    2         -15        16   # BR(H+ -> tau+    nu_tau )
     8.58940120E-04    2         -13        14   # BR(H+ -> mu+     nu_mu  )
     7.08000558E-06    2           2        -5   # BR(H+ -> u       bb     )
     5.04781156E-05    2           2        -3   # BR(H+ -> u       sb     )
     1.03849716E-03    2           4        -3   # BR(H+ -> c       sb     )
     7.19534649E-01    2           6        -5   # BR(H+ -> t       bb     )
     4.27302910E-05    2          24        25   # BR(H+ -> W+      h      )
     7.89645643E-14    2          24        36   # BR(H+ -> W+      A      )
     1.99159556E-03    2     1000024   1000022   # BR(H+ -> ~chi_1+ ~chi_10)
     3.67110294E-09    2     1000024   1000023   # BR(H+ -> ~chi_1+ ~chi_20)
     3.24400864E-02    2     1000006  -1000005   # BR(H+ -> ~t_1    ~b_1*  )
