#
#                              ======================
#                              | THE SUSYHIT OUTPUT |
#                              ======================
#
#
#              ------------------------------------------------------
#              |     This is the output of the SUSY-HIT package     |
#              |  created by A.Djouadi, M.Muehlleitner and M.Spira. |
#              |  In case of problems with SUSY-HIT email to        |
#              |           margarete.muehlleitner@kit.edu           |
#              |           michael.spira@psi.ch                     |
#              |           abdelhak.djouadi@cern.ch                 |
#              ------------------------------------------------------
#
#              ------------------------------------------------------
#              |  SUSY Les Houches Accord - MSSM Spectrum + Decays  |
#              |              based on the decay programs           |
#              |                                                    |
#              |                     SDECAY 1.5                     |
#              |                                                    |
#              |  Authors: M.Muhlleitner, A.Djouadi and Y.Mambrini  |
#              |  Ref.:    Comput.Phys.Commun.168(2005)46           |
#              |           [hep-ph/0311167]                         |
#              |                                                    |
#              |                     HDECAY 3.4                     |
#              |                                                    |
#              |  By: A.Djouadi,J.Kalinowski,M.Muhlleitner,M.Spira  |
#              |  Ref.:    Comput.Phys.Commun.108(1998)56           |
#              |           [hep-ph/9704448]                         |
#              |                                                    |
#              |                                                    |
#              |  If not stated otherwise all DRbar couplings and   |
#              |  soft SUSY breaking masses are given at the scale  |
#              |  Q=  0.90927067E+03
#              |                                                    |
#              ------------------------------------------------------
#
#
BLOCK DCINFO  # Decay Program information
     1   SDECAY/HDECAY # decay calculator
     2   1.5  /3.4    # version number
#
BLOCK SPINFO  # Spectrum calculator information
     1    SOFTSUSY    # spectrum calculator                
     2    3.7.3       # version number                     
#
BLOCK MODSEL  # Model selection
     1     0   #  nonUniversal                                     
#
BLOCK SMINPUTS  # Standard Model inputs
         1     1.27934000E+02   # alpha_em^-1(M_Z)^MSbar
         2     1.16639000E-05   # G_F [GeV^-2]
         3     1.17200000E-01   # alpha_S(M_Z)^MSbar
         4     9.11870000E+01   # M_Z pole mass
         5     4.19000000E+00   # mb(mb)^MSbar
         6     1.72500000E+02   # mt pole mass
         7     1.77690000E+00   # mtau pole mass
#
BLOCK MINPAR  # Input parameters - minimal models
         3     2.00000000E+01   # tanb                
#
BLOCK EXTPAR  # Input parameters - non-minimal models
         0    -1.00000000E+00   # Set                 
         1     3.09990000E+02   # M_1(MX)             
         2     2.00000000E+03   # M_2(MX)             
         3     1.80000000E+03   # M_3(MX)             
        11     2.25959179E+03   # At(MX)              
        12     0.00000000E+00   # Ab(MX)              
        13     0.00000000E+00   # Atau(MX)            
        23    -3.50900000E+02   # mu(MX)              
        25     2.00000000E+01   # tan                 
        26     4.00000000E+03   # mA(pole)            
        31     4.00000000E+03   # meL(MX)             
        32     4.00000000E+03   # mmuL(MX)            
        33     4.00000000E+03   # mtauL(MX)           
        34     4.00000000E+03   # meR(MX)             
        35     4.00000000E+03   # mmuR(MX)            
        36     4.00000000E+03   # mtauR(MX)           
        41     4.00000000E+03   # mqL1(MX)            
        42     4.00000000E+03   # mqL2(MX)            
        43     4.59900000E+02   # mqL3(MX)            
        44     4.00000000E+03   # muR(MX)             
        45     4.00000000E+03   # mcR(MX)             
        46     1.85485961E+03   # mtR(MX)             
        47     4.00000000E+03   # mdR(MX)             
        48     4.00000000E+03   # msR(MX)             
        49     4.00000000E+03   # mbR(MX)             
#
BLOCK MASS  # Mass Spectrum
# PDG code           mass       particle
        24     8.04202792E+01   # W+
        25     1.25518361E+02   # h
        35     4.00000621E+03   # H
        36     3.99999582E+03   # A
        37     4.00098406E+03   # H+
         5     4.81337004E+00   # b-quark pole mass calculated from mb(mb)_Msbar
   1000001     4.01294328E+03   # ~d_L
   2000001     4.01224722E+03   # ~d_R
   1000002     4.01228778E+03   # ~u_L
   2000002     4.01347343E+03   # ~u_R
   1000003     4.01294328E+03   # ~s_L
   2000003     4.01224722E+03   # ~s_R
   1000004     4.01228778E+03   # ~c_L
   2000004     4.01347343E+03   # ~c_R
   1000005     4.79951749E+02   # ~b_1
   2000005     4.01834163E+03   # ~b_2
   1000006     4.55647132E+02   # ~t_1
   2000006     1.87516264E+03   # ~t_2
   1000011     4.00202756E+03   # ~e_L
   2000011     4.00290968E+03   # ~e_R
   1000012     4.00091374E+03   # ~nu_eL
   1000013     4.00202756E+03   # ~mu_L
   2000013     4.00290968E+03   # ~mu_R
   1000014     4.00091374E+03   # ~nu_muL
   1000015     4.00397544E+03   # ~tau_1
   2000015     4.00863702E+03   # ~tau_2
   1000016     4.00347986E+03   # ~nu_tauL
   1000021     1.95665568E+03   # ~g
   1000022     3.01929675E+02   # ~chi_10
   1000023    -3.60620610E+02   # ~chi_20
   1000025     3.72252652E+02   # ~chi_30
   1000035     2.05750489E+03   # ~chi_40
   1000024     3.58395209E+02   # ~chi_1+
   1000037     2.05766877E+03   # ~chi_2+
#
BLOCK NMIX  # Neutralino Mixing Matrix
  1  1     8.75972905E-01   # N_11
  1  2    -1.31469581E-02   # N_12
  1  3    -3.71603019E-01   # N_13
  1  4    -3.07261816E-01   # N_14
  2  1    -4.93599895E-02   # N_21
  2  2     2.45331489E-02   # N_22
  2  3    -7.03277654E-01   # N_23
  2  4     7.08775181E-01   # N_24
  3  1     4.79827064E-01   # N_31
  3  2     2.86580608E-02   # N_32
  3  3     6.06041830E-01   # N_33
  3  4     6.33764944E-01   # N_34
  4  1    -1.02439590E-03   # N_41
  4  2     9.99201680E-01   # N_42
  4  3    -5.00381219E-03   # N_43
  4  4    -3.96221507E-02   # N_44
#
BLOCK UMIX  # Chargino Mixing Matrix U
  1  1     7.08218481E-03   # U_11
  1  2     9.99974921E-01   # U_12
  2  1    -9.99974921E-01   # U_21
  2  2     7.08218481E-03   # U_22
#
BLOCK VMIX  # Chargino Mixing Matrix V
  1  1     5.60456874E-02   # V_11
  1  2    -9.98428205E-01   # V_12
  2  1    -9.98428205E-01   # V_21
  2  2    -5.60456874E-02   # V_22
#
BLOCK STOPMIX  # Stop Mixing Matrix
  1  1     9.94488583E-01   # cos(theta_t)
  1  2    -1.04844925E-01   # sin(theta_t)
  2  1     1.04844925E-01   # -sin(theta_t)
  2  2     9.94488583E-01   # cos(theta_t)
#
BLOCK SBOTMIX  # Sbottom Mixing Matrix
  1  1     9.99999391E-01   # cos(theta_b)
  1  2    -1.10363020E-03   # sin(theta_b)
  2  1     1.10363020E-03   # -sin(theta_b)
  2  2     9.99999391E-01   # cos(theta_b)
#
BLOCK STAUMIX  # Stau Mixing Matrix
  1  1    -7.05640362E-01   # cos(theta_tau)
  1  2     7.08570166E-01   # sin(theta_tau)
  2  1    -7.08570166E-01   # -sin(theta_tau)
  2  2    -7.05640362E-01   # cos(theta_tau)
#
BLOCK ALPHA  # Higgs mixing
          -5.00274619E-02   # Mixing angle in the neutral Higgs boson sector
#
BLOCK HMIX Q=  9.09270673E+02  # DRbar Higgs Parameters
         1    -3.50900000E+02   # mu(Q)MSSM           
         2     2.00000000E+01   # tan                 
         3     2.44528853E+02   # higgs               
         4     1.62990889E+07   # mA^2(Q)MSSM         
#
BLOCK GAUGE Q=  9.09270673E+02  # The gauge couplings
     1     3.60742628E-01   # gprime(Q) DRbar
     2     6.35699834E-01   # g(Q) DRbar
     3     1.03839099E+00   # g3(Q) DRbar
#
BLOCK AU Q=  9.09270673E+02  # The trilinear couplings
  1  1     0.00000000E+00   # A_u(Q) DRbar
  2  2     5.90303505E-07   # A_c(Q) DRbar
  3  3     2.25959179E+03   # A_t(Q) DRbar
#
BLOCK AD Q=  9.09270673E+02  # The trilinear couplings
  1  1     2.17039417E-07   # A_d(Q) DRbar
  2  2     2.17060346E-07   # A_s(Q) DRbar
  3  3     3.88284166E-07   # A_b(Q) DRbar
#
BLOCK AE Q=  9.09270673E+02  # The trilinear couplings
  1  1     0.00000000E+00   # A_e(Q) DRbar
  2  2     4.85135816E-08   # A_mu(Q) DRbar
  3  3     4.90013508E-08   # A_tau(Q) DRbar
#
BLOCK Yu Q=  9.09270673E+02  # The Yukawa couplings
  1  1     0.00000000E+00   # y_u(Q) DRbar
  2  2     0.00000000E+00   # y_c(Q) DRbar
  3  3     8.75778683E-01   # y_t(Q) DRbar
#
BLOCK Yd Q=  9.09270673E+02  # The Yukawa couplings
  1  1     0.00000000E+00   # y_d(Q) DRbar
  2  2     0.00000000E+00   # y_s(Q) DRbar
  3  3     2.87404151E-01   # y_b(Q) DRbar
#
BLOCK Ye Q=  9.09270673E+02  # The Yukawa couplings
  1  1     0.00000000E+00   # y_e(Q) DRbar
  2  2     0.00000000E+00   # y_mu(Q) DRbar
  3  3     2.03023997E-01   # y_tau(Q) DRbar
#
BLOCK MSOFT Q=  9.09270673E+02  # The soft SUSY breaking masses at the scale Q
         1     3.09990000E+02   # M_1(Q)              
         2     2.00000000E+03   # M_2(Q)              
         3     1.80000000E+03   # M_3(Q)              
        21     1.57448852E+07   # M^2_Hd              
        22    -1.30509770E+05   # M^2_Hu              
        31     4.00000000E+03   # M_eL                
        32     4.00000000E+03   # M_muL               
        33     4.00000000E+03   # M_tauL              
        34     4.00000000E+03   # M_eR                
        35     4.00000000E+03   # M_muR               
        36     4.00000000E+03   # M_tauR              
        41     4.00000000E+03   # M_q1L               
        42     4.00000000E+03   # M_q2L               
        43     4.59899997E+02   # M_q3L               
        44     4.00000000E+03   # M_uR                
        45     4.00000000E+03   # M_cR                
        46     1.85485961E+03   # M_tR                
        47     4.00000000E+03   # M_dR                
        48     4.00000000E+03   # M_sR                
        49     4.00000000E+03   # M_bR                
#
#
#
#                             =================
#                             |The decay table|
#                             =================
#
# - The QCD corrections to the decays gluino -> squark  + quark
#                                     squark -> gaugino + quark_prime
#                                     squark -> squark_prime + Higgs
#                                     squark -> gluino  + quark
#   are included.
#
# - The multi-body decays for the inos, stops and sbottoms are included.
#
# - The loop induced decays for the gluino, neutralinos and stops
#   are included.
#
# - The SUSY decays of the top quark are included.
#
#
#         PDG            Width
DECAY         6     1.40187232E+00   # top decays
#          BR         NDA      ID1       ID2
     1.00000000E+00    2           5        24   # BR(t ->  b    W+)
#
#         PDG            Width
DECAY   1000021     7.23197504E+01   # gluino decays
#          BR         NDA      ID1       ID2
     2.44140872E-01    2     1000005        -5   # BR(~g -> ~b_1  bb)
     2.44140872E-01    2    -1000005         5   # BR(~g -> ~b_1* b )
     2.55859128E-01    2     1000006        -6   # BR(~g -> ~t_1  tb)
     2.55859128E-01    2    -1000006         6   # BR(~g -> ~t_1* t )
#
#         PDG            Width
DECAY   1000006     1.09011438E-01   # stop1 decays
#          BR         NDA      ID1       ID2
     1.00000000E+00    2     1000024         5   # BR(~t_1 -> ~chi_1+ b )
#
#         PDG            Width
DECAY   2000006     1.20120919E+02   # stop2 decays
#          BR         NDA      ID1       ID2
     4.69631489E-02    2     1000022         6   # BR(~t_2 -> ~chi_10 t )
     1.06299121E-01    2     1000023         6   # BR(~t_2 -> ~chi_20 t )
     8.81767480E-02    2     1000025         6   # BR(~t_2 -> ~chi_30 t )
     2.10108188E-01    2     1000024         5   # BR(~t_2 -> ~chi_1+ b )
     1.61208107E-01    2     1000006        25   # BR(~t_2 -> ~t_1    h )
     1.28236906E-01    2     1000006        23   # BR(~t_2 -> ~t_1    Z )
     2.59007781E-01    2     1000005        24   # BR(~t_2 -> ~b_1    W+)
#
#         PDG            Width
DECAY   1000005     1.83791355E-01   # sbottom1 decays
#          BR         NDA      ID1       ID2
     3.48451599E-01    2     1000022         5   # BR(~b_1 -> ~chi_10 b )
     4.00680307E-01    2     1000023         5   # BR(~b_1 -> ~chi_20 b )
     2.50868094E-01    2     1000025         5   # BR(~b_1 -> ~chi_30 b )
#
#         PDG            Width
DECAY   2000005     1.66249504E+02   # sbottom2 decays
#          BR         NDA      ID1       ID2
     1.51616406E-02    2     1000022         5   # BR(~b_2 -> ~chi_10 b )
     1.79153729E-02    2     1000023         5   # BR(~b_2 -> ~chi_20 b )
     1.63103467E-02    2     1000025         5   # BR(~b_2 -> ~chi_30 b )
     8.72578806E-07    2     1000035         5   # BR(~b_2 -> ~chi_40 b )
     3.60458290E-02    2    -1000024         6   # BR(~b_2 -> ~chi_1- t )
     1.72651065E-06    2    -1000037         6   # BR(~b_2 -> ~chi_2- t )
     9.13917367E-01    2     1000021         5   # BR(~b_2 -> ~g      b )
     1.39374879E-04    2     1000005        25   # BR(~b_2 -> ~b_1    h )
     1.88905266E-04    2     1000005        23   # BR(~b_2 -> ~b_1    Z )
     3.16953594E-04    2     1000006       -24   # BR(~b_2 -> ~t_1    W-)
     1.61142494E-06    2     2000006       -24   # BR(~b_2 -> ~t_2    W-)
#
#         PDG            Width
DECAY   1000002     1.77535473E+02   # sup_L decays
#          BR         NDA      ID1       ID2
     2.01402953E-03    2     1000022         2   # BR(~u_L -> ~chi_10 u)
     1.98927808E-05    2     1000023         2   # BR(~u_L -> ~chi_20 u)
     1.22725196E-03    2     1000025         2   # BR(~u_L -> ~chi_30 u)
     4.77046249E-02    2     1000035         2   # BR(~u_L -> ~chi_40 u)
     5.41273102E-04    2     1000024         1   # BR(~u_L -> ~chi_1+ d)
     9.52878006E-02    2     1000037         1   # BR(~u_L -> ~chi_2+ d)
     8.53205127E-01    2     1000021         2   # BR(~u_L -> ~g      u)
#
#         PDG            Width
DECAY   2000002     1.60362106E+02   # sup_R decays
#          BR         NDA      ID1       ID2
     4.21024435E-02    2     1000022         2   # BR(~u_R -> ~chi_10 u)
     1.33062217E-04    2     1000023         2   # BR(~u_R -> ~chi_20 u)
     1.25611065E-02    2     1000025         2   # BR(~u_R -> ~chi_30 u)
     3.18141952E-08    2     1000035         2   # BR(~u_R -> ~chi_40 u)
     9.45203356E-01    2     1000021         2   # BR(~u_R -> ~g      u)
#
#         PDG            Width
DECAY   1000001     1.77554690E+02   # sdown_L decays
#          BR         NDA      ID1       ID2
     2.76832117E-03    2     1000022         1   # BR(~d_L -> ~chi_10 d)
     9.88269776E-05    2     1000023         1   # BR(~d_L -> ~chi_20 d)
     3.31934038E-04    2     1000025         1   # BR(~d_L -> ~chi_30 d)
     4.77553862E-02    2     1000035         1   # BR(~d_L -> ~chi_40 d)
     8.64358667E-06    2    -1000024         2   # BR(~d_L -> ~chi_1- u)
     9.56107772E-02    2    -1000037         2   # BR(~d_L -> ~chi_2- u)
     8.53426111E-01    2     1000021         1   # BR(~d_L -> ~g      d)
#
#         PDG            Width
DECAY   2000001     1.53666860E+02   # sdown_R decays
#          BR         NDA      ID1       ID2
     1.09807192E-02    2     1000022         1   # BR(~d_R -> ~chi_10 d)
     3.47037978E-05    2     1000023         1   # BR(~d_R -> ~chi_20 d)
     3.27604512E-03    2     1000025         1   # BR(~d_R -> ~chi_30 d)
     8.29393816E-09    2     1000035         1   # BR(~d_R -> ~chi_40 d)
     9.85708524E-01    2     1000021         1   # BR(~d_R -> ~g      d)
#
#         PDG            Width
DECAY   1000004     1.77535473E+02   # scharm_L decays
#          BR         NDA      ID1       ID2
     2.01402953E-03    2     1000022         4   # BR(~c_L -> ~chi_10 c)
     1.98927808E-05    2     1000023         4   # BR(~c_L -> ~chi_20 c)
     1.22725196E-03    2     1000025         4   # BR(~c_L -> ~chi_30 c)
     4.77046249E-02    2     1000035         4   # BR(~c_L -> ~chi_40 c)
     5.41273102E-04    2     1000024         3   # BR(~c_L -> ~chi_1+ s)
     9.52878006E-02    2     1000037         3   # BR(~c_L -> ~chi_2+ s)
     8.53205127E-01    2     1000021         4   # BR(~c_L -> ~g      c)
#
#         PDG            Width
DECAY   2000004     1.60362106E+02   # scharm_R decays
#          BR         NDA      ID1       ID2
     4.21024435E-02    2     1000022         4   # BR(~c_R -> ~chi_10 c)
     1.33062217E-04    2     1000023         4   # BR(~c_R -> ~chi_20 c)
     1.25611065E-02    2     1000025         4   # BR(~c_R -> ~chi_30 c)
     3.18141952E-08    2     1000035         4   # BR(~c_R -> ~chi_40 c)
     9.45203356E-01    2     1000021         4   # BR(~c_R -> ~g      c)
#
#         PDG            Width
DECAY   1000003     1.77554690E+02   # sstrange_L decays
#          BR         NDA      ID1       ID2
     2.76832117E-03    2     1000022         3   # BR(~s_L -> ~chi_10 s)
     9.88269776E-05    2     1000023         3   # BR(~s_L -> ~chi_20 s)
     3.31934038E-04    2     1000025         3   # BR(~s_L -> ~chi_30 s)
     4.77553862E-02    2     1000035         3   # BR(~s_L -> ~chi_40 s)
     8.64358667E-06    2    -1000024         4   # BR(~s_L -> ~chi_1- c)
     9.56107772E-02    2    -1000037         4   # BR(~s_L -> ~chi_2- c)
     8.53426111E-01    2     1000021         3   # BR(~s_L -> ~g      s)
#
#         PDG            Width
DECAY   2000003     1.53666860E+02   # sstrange_R decays
#          BR         NDA      ID1       ID2
     1.09807192E-02    2     1000022         3   # BR(~s_R -> ~chi_10 s)
     3.47037978E-05    2     1000023         3   # BR(~s_R -> ~chi_20 s)
     3.27604512E-03    2     1000025         3   # BR(~s_R -> ~chi_30 s)
     8.29393816E-09    2     1000035         3   # BR(~s_R -> ~chi_40 s)
     9.85708524E-01    2     1000021         3   # BR(~s_R -> ~g      s)
#
#         PDG            Width
DECAY   1000011     3.12527286E+01   # selectron_L decays
#          BR         NDA      ID1       ID2
     1.19187053E-01    2     1000022        11   # BR(~e_L -> ~chi_10 e-)
     6.12357522E-06    2     1000023        11   # BR(~e_L -> ~chi_20 e-)
     4.58172478E-02    2     1000025        11   # BR(~e_L -> ~chi_30 e-)
     2.77831361E-01    2     1000035        11   # BR(~e_L -> ~chi_40 e-)
     5.08120811E-05    2    -1000024        12   # BR(~e_L -> ~chi_1- nu_e)
     5.57107402E-01    2    -1000037        12   # BR(~e_L -> ~chi_2- nu_e)
#
#         PDG            Width
DECAY   2000011     2.04632724E+01   # selectron_R decays
#          BR         NDA      ID1       ID2
     7.68389343E-01    2     1000022        11   # BR(~e_R -> ~chi_10 e-)
     2.42788180E-03    2     1000023        11   # BR(~e_R -> ~chi_20 e-)
     2.29182200E-01    2     1000025        11   # BR(~e_R -> ~chi_30 e-)
     5.75457034E-07    2     1000035        11   # BR(~e_R -> ~chi_40 e-)
#
#         PDG            Width
DECAY   1000013     3.12527286E+01   # smuon_L decays
#          BR         NDA      ID1       ID2
     1.19187053E-01    2     1000022        13   # BR(~mu_L -> ~chi_10 mu-)
     6.12357522E-06    2     1000023        13   # BR(~mu_L -> ~chi_20 mu-)
     4.58172478E-02    2     1000025        13   # BR(~mu_L -> ~chi_30 mu-)
     2.77831361E-01    2     1000035        13   # BR(~mu_L -> ~chi_40 mu-)
     5.08120811E-05    2    -1000024        14   # BR(~mu_L -> ~chi_1- nu_mu)
     5.57107402E-01    2    -1000037        14   # BR(~mu_L -> ~chi_2- nu_mu)
#
#         PDG            Width
DECAY   2000013     2.04632724E+01   # smuon_R decays
#          BR         NDA      ID1       ID2
     7.68389343E-01    2     1000022        13   # BR(~mu_R -> ~chi_10 mu-)
     2.42788180E-03    2     1000023        13   # BR(~mu_R -> ~chi_20 mu-)
     2.29182200E-01    2     1000025        13   # BR(~mu_R -> ~chi_30 mu-)
     5.75457034E-07    2     1000035        13   # BR(~mu_R -> ~chi_40 mu-)
#
#         PDG            Width
DECAY   1000015     3.07637956E+01   # stau_1 decays
#          BR         NDA      ID1       ID2
     3.75858347E-01    2     1000022        15   # BR(~tau_1 -> ~chi_10  tau-)
     4.41542692E-02    2     1000023        15   # BR(~tau_1 -> ~chi_20  tau-)
     1.03976824E-01    2     1000025        15   # BR(~tau_1 -> ~chi_30  tau-)
     1.40066548E-01    2     1000035        15   # BR(~tau_1 -> ~chi_40  tau-)
     5.50816033E-02    2    -1000024        16   # BR(~tau_1 -> ~chi_1-  nu_tau)
     2.80862409E-01    2    -1000037        16   # BR(~tau_1 -> ~chi_2-  nu_tau)
#
#         PDG            Width
DECAY   2000015     3.07428519E+01   # stau_2 decays
#          BR         NDA      ID1       ID2
     2.86217143E-01    2     1000022        15   # BR(~tau_2 -> ~chi_10  tau-)
     6.14531550E-02    2     1000023        15   # BR(~tau_2 -> ~chi_20  tau-)
     1.72448769E-01    2     1000025        15   # BR(~tau_2 -> ~chi_30  tau-)
     1.43018879E-01    2     1000035        15   # BR(~tau_2 -> ~chi_40  tau-)
     5.00831063E-02    2    -1000024        16   # BR(~tau_2 -> ~chi_1-  nu_tau)
     2.86778948E-01    2    -1000037        16   # BR(~tau_2 -> ~chi_2-  nu_tau)
#
#         PDG            Width
DECAY   1000012     3.12636172E+01   # snu_eL decays
#          BR         NDA      ID1       ID2
     1.32406517E-01    2     1000022        12   # BR(~nu_eL -> ~chi_10 nu_e)
     1.39726525E-03    2     1000023        12   # BR(~nu_eL -> ~chi_20 nu_e)
     3.00080156E-02    2     1000025        12   # BR(~nu_eL -> ~chi_30 nu_e)
     2.78192848E-01    2     1000035        12   # BR(~nu_eL -> ~chi_40 nu_e)
     3.18010010E-03    2     1000024        11   # BR(~nu_eL -> ~chi_1+ e-)
     5.54815254E-01    2     1000037        11   # BR(~nu_eL -> ~chi_2+ e-)
#
#         PDG            Width
DECAY   1000014     3.12636172E+01   # snu_muL decays
#          BR         NDA      ID1       ID2
     1.32406517E-01    2     1000022        14   # BR(~nu_muL -> ~chi_10 nu_mu)
     1.39726525E-03    2     1000023        14   # BR(~nu_muL -> ~chi_20 nu_mu)
     3.00080156E-02    2     1000025        14   # BR(~nu_muL -> ~chi_30 nu_mu)
     2.78192848E-01    2     1000035        14   # BR(~nu_muL -> ~chi_40 nu_mu)
     3.18010010E-03    2     1000024        13   # BR(~nu_muL -> ~chi_1+ mu-)
     5.54815254E-01    2     1000037        13   # BR(~nu_muL -> ~chi_2+ mu-)
#
#         PDG            Width
DECAY   1000016     3.45382621E+01   # snu_tauL decays
#          BR         NDA      ID1       ID2
     1.19931410E-01    2     1000022        16   # BR(~nu_tauL -> ~chi_10 nu_tau)
     1.26562538E-03    2     1000023        16   # BR(~nu_tauL -> ~chi_20 nu_tau)
     2.71809230E-02    2     1000025        16   # BR(~nu_tauL -> ~chi_30 nu_tau)
     2.52210577E-01    2     1000035        16   # BR(~nu_tauL -> ~chi_40 nu_tau)
     9.64131780E-02    2     1000024        15   # BR(~nu_tauL -> ~chi_1+ tau-)
     5.02998287E-01    2     1000037        15   # BR(~nu_tauL -> ~chi_2+ tau-)
#
#         PDG            Width
DECAY   1000024     1.81339194E-04   # chargino1+ decays
#           BR         NDA      ID1       ID2       ID3
     3.33505932E-01    3     1000022         2        -1   # BR(~chi_1+ -> ~chi_10 u    db)
     3.33505932E-01    3     1000022         4        -3   # BR(~chi_1+ -> ~chi_10 c    sb)
     1.11170085E-01    3     1000022       -11        12   # BR(~chi_1+ -> ~chi_10 e+   nu_e)
     1.11170085E-01    3     1000022       -13        14   # BR(~chi_1+ -> ~chi_10 mu+  nu_mu)
     1.10647966E-01    3     1000022       -15        16   # BR(~chi_1+ -> ~chi_10 tau+ nu_tau)
#
#         PDG            Width
DECAY   1000037     6.65239973E+01   # chargino2+ decays
#          BR         NDA      ID1       ID2
     3.86749078E-01    2     1000006        -5   # BR(~chi_2+ -> ~t_1     bb)
     1.06364350E-05    2     2000006        -5   # BR(~chi_2+ -> ~t_2     bb)
     3.74944606E-01    2    -1000005         6   # BR(~chi_2+ -> ~b_1*    t )
     6.06606083E-02    2     1000024        23   # BR(~chi_2+ -> ~chi_1+  Z )
     9.77860215E-03    2     1000022        24   # BR(~chi_2+ -> ~chi_10  W+)
     5.92734272E-02    2     1000023        24   # BR(~chi_2+ -> ~chi_20  W+)
     4.92390734E-02    2     1000025        24   # BR(~chi_2+ -> ~chi_30  W+)
     5.93439691E-02    2     1000024        25   # BR(~chi_2+ -> ~chi_1+  h )
#
#         PDG            Width
DECAY   1000022     0.00000000E+00   # neutralino1 decays
#
#         PDG            Width
DECAY   1000023     1.64336568E-04   # neutralino2 decays
#          BR         NDA      ID1       ID2
     6.08813645E-04    2     1000022        22   # BR(~chi_20 -> ~chi_10 gam)
#           BR         NDA      ID1       ID2       ID3
     1.17704543E-01    3     1000022        -2         2   # BR(~chi_20 -> ~chi_10 ub      u)
     1.52620754E-01    3     1000022        -1         1   # BR(~chi_20 -> ~chi_10 db      d)
     1.17704543E-01    3     1000022        -4         4   # BR(~chi_20 -> ~chi_10 cb      c)
     1.52620754E-01    3     1000022        -3         3   # BR(~chi_20 -> ~chi_10 sb      s)
     1.44448002E-01    3     1000022        -5         5   # BR(~chi_20 -> ~chi_10 bb      b)
     3.49631647E-02    3     1000022       -11        11   # BR(~chi_20 -> ~chi_10 e+      e-)
     3.49631647E-02    3     1000022       -13        13   # BR(~chi_20 -> ~chi_10 mu+     mu-)
     3.46999495E-02    3     1000022       -15        15   # BR(~chi_20 -> ~chi_10 tau+    tau-)
     6.98885412E-02    3     1000022       -12        12   # BR(~chi_20 -> ~chi_10 nu_eb   nu_e)
     6.98885412E-02    3     1000022       -14        14   # BR(~chi_20 -> ~chi_10 nu_mub  nu_mu)
     6.98885378E-02    3     1000022       -16        16   # BR(~chi_20 -> ~chi_10 nu_taub nu_tau)
     1.29261269E-07    3     1000024        -2         1   # BR(~chi_20 -> ~chi_1+ ub      d)
     1.29261269E-07    3    -1000024        -1         2   # BR(~chi_20 -> ~chi_1- db      u)
     1.29261269E-07    3     1000024        -4         3   # BR(~chi_20 -> ~chi_1+ cb      s)
     1.29261269E-07    3    -1000024        -3         4   # BR(~chi_20 -> ~chi_1- sb      c)
     4.30871317E-08    3     1000024       -12        11   # BR(~chi_20 -> ~chi_1+ nu_eb   e-)
     4.30871317E-08    3    -1000024        12       -11   # BR(~chi_20 -> ~chi_1- nu_e    e+)
     4.30871317E-08    3     1000024       -14        13   # BR(~chi_20 -> ~chi_1+ nu_mub  mu-)
     4.30871317E-08    3    -1000024        14       -13   # BR(~chi_20 -> ~chi_1- nu_mu   mu+)
     8.08527263E-10    3     1000024       -16        15   # BR(~chi_20 -> ~chi_1+ nu_taub tau-)
     8.08527263E-10    3    -1000024        16       -15   # BR(~chi_20 -> ~chi_1- nu_tau  tau+)
#
#         PDG            Width
DECAY   1000025     9.47080207E-06   # neutralino3 decays
#          BR         NDA      ID1       ID2
     2.09826543E-02    2     1000022        22   # BR(~chi_30 -> ~chi_10 gam)
     2.62949685E-02    2     1000023        22   # BR(~chi_30 -> ~chi_20 gam)
#           BR         NDA      ID1       ID2       ID3
     9.93638399E-02    3     1000022        -2         2   # BR(~chi_30 -> ~chi_10 ub      u)
     1.28441437E-01    3     1000022        -1         1   # BR(~chi_30 -> ~chi_10 db      d)
     9.93638399E-02    3     1000022        -4         4   # BR(~chi_30 -> ~chi_10 cb      c)
     1.28441437E-01    3     1000022        -3         3   # BR(~chi_30 -> ~chi_10 sb      s)
     1.24973316E-01    3     1000022        -5         5   # BR(~chi_30 -> ~chi_10 bb      b)
     2.91069860E-02    3     1000022       -11        11   # BR(~chi_30 -> ~chi_10 e+      e-)
     2.91069860E-02    3     1000022       -13        13   # BR(~chi_30 -> ~chi_10 mu+     mu-)
     2.90454161E-02    3     1000022       -15        15   # BR(~chi_30 -> ~chi_10 tau+    tau-)
     5.89615649E-02    3     1000022       -12        12   # BR(~chi_30 -> ~chi_10 nu_eb   nu_e)
     5.89615649E-02    3     1000022       -14        14   # BR(~chi_30 -> ~chi_10 nu_mub  nu_mu)
     5.89614066E-02    3     1000022       -16        16   # BR(~chi_30 -> ~chi_10 nu_taub nu_tau)
     1.93781675E-03    3     1000023        -2         2   # BR(~chi_30 -> ~chi_20 ub      u)
     2.51274674E-03    3     1000023        -1         1   # BR(~chi_30 -> ~chi_20 db      d)
     1.93781675E-03    3     1000023        -4         4   # BR(~chi_30 -> ~chi_20 cb      c)
     2.51274674E-03    3     1000023        -3         3   # BR(~chi_30 -> ~chi_20 sb      s)
     2.55712269E-04    3     1000023        -5         5   # BR(~chi_30 -> ~chi_20 bb      b)
     5.75686519E-04    3     1000023       -11        11   # BR(~chi_30 -> ~chi_20 e+      e-)
     5.75686519E-04    3     1000023       -13        13   # BR(~chi_30 -> ~chi_20 mu+     mu-)
     5.01297850E-04    3     1000023       -15        15   # BR(~chi_30 -> ~chi_20 tau+    tau-)
     1.15057032E-03    3     1000023       -12        12   # BR(~chi_30 -> ~chi_20 nu_eb   nu_e)
     1.15057032E-03    3     1000023       -14        14   # BR(~chi_30 -> ~chi_20 nu_mub  nu_mu)
     1.15057033E-03    3     1000023       -16        16   # BR(~chi_30 -> ~chi_20 nu_taub nu_tau)
     1.57574007E-02    3     1000024        -2         1   # BR(~chi_30 -> ~chi_1+ ub      d)
     1.57574007E-02    3    -1000024        -1         2   # BR(~chi_30 -> ~chi_1- db      u)
     1.57574007E-02    3     1000024        -4         3   # BR(~chi_30 -> ~chi_1+ cb      s)
     1.57574007E-02    3    -1000024        -3         4   # BR(~chi_30 -> ~chi_1- sb      c)
     5.25242023E-03    3     1000024       -12        11   # BR(~chi_30 -> ~chi_1+ nu_eb   e-)
     5.25242023E-03    3    -1000024        12       -11   # BR(~chi_30 -> ~chi_1- nu_e    e+)
     5.25242023E-03    3     1000024       -14        13   # BR(~chi_30 -> ~chi_1+ nu_mub  mu-)
     5.25242023E-03    3    -1000024        14       -13   # BR(~chi_30 -> ~chi_1- nu_mu   mu+)
     4.84703880E-03    3     1000024       -16        15   # BR(~chi_30 -> ~chi_1+ nu_taub tau-)
     4.84703880E-03    3    -1000024        16       -15   # BR(~chi_30 -> ~chi_1- nu_tau  tau+)
#
#         PDG            Width
DECAY   1000035     6.65143451E+01   # neutralino4 decays
#          BR         NDA      ID1       ID2
     4.17833169E-03    2     1000022        23   # BR(~chi_40 -> ~chi_10   Z )
     3.79734981E-02    2     1000023        23   # BR(~chi_40 -> ~chi_20   Z )
     1.85019831E-02    2     1000025        23   # BR(~chi_40 -> ~chi_30   Z )
     5.91967577E-02    2     1000024       -24   # BR(~chi_40 -> ~chi_1+   W-)
     5.91967577E-02    2    -1000024        24   # BR(~chi_40 -> ~chi_1-   W+)
     5.71394388E-03    2     1000022        25   # BR(~chi_40 -> ~chi_10   h )
     2.22817081E-02    2     1000023        25   # BR(~chi_40 -> ~chi_20   h )
     3.12110144E-02    2     1000025        25   # BR(~chi_40 -> ~chi_30   h )
     1.90114087E-01    2     1000006        -6   # BR(~chi_40 -> ~t_1      tb)
     1.90114087E-01    2    -1000006         6   # BR(~chi_40 -> ~t_1*     t )
     1.62771422E-06    2     2000006        -6   # BR(~chi_40 -> ~t_2      tb)
     1.62771422E-06    2    -2000006         6   # BR(~chi_40 -> ~t_2*     t )
     1.90757288E-01    2     1000005        -5   # BR(~chi_40 -> ~b_1      bb)
     1.90757288E-01    2    -1000005         5   # BR(~chi_40 -> ~b_1*     b )
#
#         PDG            Width
DECAY        25     4.01161620E-03   # h decays
#          BR         NDA      ID1       ID2
     5.93123827E-01    2           5        -5   # BR(h -> b       bb     )
     6.49395589E-02    2         -15        15   # BR(h -> tau+    tau-   )
     2.29885672E-04    2         -13        13   # BR(h -> mu+     mu-    )
     4.87538793E-04    2           3        -3   # BR(h -> s       sb     )
     2.11738460E-02    2           4        -4   # BR(h -> c       cb     )
     6.80946961E-02    2          21        21   # BR(h -> g       g      )
     2.40217943E-03    2          22        22   # BR(h -> gam     gam    )
     1.63229505E-03    2          22        23   # BR(h -> Z       gam    )
     2.20087777E-01    2          24       -24   # BR(h -> W+      W-     )
     2.78283952E-02    2          23        23   # BR(h -> Z       Z      )
#
#         PDG            Width
DECAY        35     5.58157949E+01   # H decays
#          BR         NDA      ID1       ID2
     3.63592727E-01    2           5        -5   # BR(H -> b       bb     )
     5.94025280E-02    2         -15        15   # BR(H -> tau+    tau-   )
     2.10032951E-04    2         -13        13   # BR(H -> mu+     mu-    )
     2.48432774E-04    2           3        -3   # BR(H -> s       sb     )
     6.96825581E-08    2           4        -4   # BR(H -> c       cb     )
     6.98364311E-03    2           6        -6   # BR(H -> t       tb     )
     4.03257606E-07    2          21        21   # BR(H -> g       g      )
     2.46370646E-09    2          22        22   # BR(H -> gam     gam    )
     1.79630964E-09    2          23        22   # BR(H -> Z       gam    )
     1.79057030E-06    2          24       -24   # BR(H -> W+      W-     )
     8.94665054E-07    2          23        23   # BR(H -> Z       Z      )
     6.92656726E-06    2          25        25   # BR(H -> h       h      )
     1.06260496E-24    2          36        36   # BR(H -> A       A      )
     5.86765619E-20    2          23        36   # BR(H -> Z       A      )
     1.83808890E-03    2     1000024  -1000024   # BR(H -> ~chi_1+ ~chi_1-)
     1.57112248E-01    2     1000024  -1000037   # BR(H -> ~chi_1+ ~chi_2-)
     1.57112248E-01    2     1000037  -1000024   # BR(H -> ~chi_2+ ~chi_1-)
     2.03420314E-02    2     1000022   1000022   # BR(H -> ~chi_10 ~chi_10)
     6.67652076E-04    2     1000023   1000023   # BR(H -> ~chi_20 ~chi_20)
     1.21505834E-02    2     1000025   1000025   # BR(H -> ~chi_30 ~chi_30)
     2.72359637E-02    2     1000022   1000023   # BR(H -> ~chi_10 ~chi_20)
     1.39141249E-02    2     1000022   1000025   # BR(H -> ~chi_10 ~chi_30)
     2.11170858E-02    2     1000022   1000035   # BR(H -> ~chi_10 ~chi_40)
     1.01650739E-02    2     1000023   1000025   # BR(H -> ~chi_20 ~chi_30)
     8.00887387E-02    2     1000023   1000035   # BR(H -> ~chi_20 ~chi_40)
     5.63608811E-02    2     1000025   1000035   # BR(H -> ~chi_30 ~chi_40)
     5.17882894E-04    2     1000006  -1000006   # BR(H -> ~t_1    ~t_1*  )
     5.25371225E-05    2     2000006  -2000006   # BR(H -> ~t_2    ~t_2*  )
     5.43863171E-03    2     1000006  -2000006   # BR(H -> ~t_1    ~t_2*  )
     5.43863171E-03    2     2000006  -1000006   # BR(H -> ~t_2    ~t_1*  )
     1.43927670E-07    2     1000005  -1000005   # BR(H -> ~b_1    ~b_1*  )
#
#         PDG            Width
DECAY        36     5.58147777E+01   # A decays
#          BR         NDA      ID1       ID2
     3.63625140E-01    2           5        -5   # BR(A -> b       bb     )
     5.94039138E-02    2         -15        15   # BR(A -> tau+    tau-   )
     2.10037686E-04    2         -13        13   # BR(A -> mu+     mu-    )
     2.48478898E-04    2           3        -3   # BR(A -> s       sb     )
     7.01321768E-08    2           4        -4   # BR(A -> c       cb     )
     6.99694317E-03    2           6        -6   # BR(A -> t       tb     )
     1.43769522E-05    2          21        21   # BR(A -> g       g      )
     5.90238635E-08    2          22        22   # BR(A -> gam     gam    )
     1.58126155E-08    2          23        22   # BR(A -> Z       gam    )
     1.78684283E-06    2          23        25   # BR(A -> Z       h      )
     1.85175884E-03    2     1000024  -1000024   # BR(A -> ~chi_1+ ~chi_1-)
     1.57110019E-01    2     1000024  -1000037   # BR(A -> ~chi_1+ ~chi_2-)
     1.57110019E-01    2     1000037  -1000024   # BR(A -> ~chi_2+ ~chi_1-)
     1.76403782E-02    2     1000022   1000022   # BR(A -> ~chi_10 ~chi_10)
     8.44481506E-04    2     1000023   1000023   # BR(A -> ~chi_20 ~chi_20)
     1.02080782E-02    2     1000025   1000025   # BR(A -> ~chi_30 ~chi_30)
     3.31366145E-02    2     1000022   1000023   # BR(A -> ~chi_10 ~chi_20)
     1.14043748E-02    2     1000022   1000025   # BR(A -> ~chi_10 ~chi_30)
     2.23637094E-02    2     1000022   1000035   # BR(A -> ~chi_10 ~chi_40)
     1.12484028E-02    2     1000023   1000025   # BR(A -> ~chi_20 ~chi_30)
     7.57880511E-02    2     1000023   1000035   # BR(A -> ~chi_20 ~chi_40)
     5.94262174E-02    2     1000025   1000035   # BR(A -> ~chi_30 ~chi_40)
     5.68353660E-03    2     1000006  -2000006   # BR(A -> ~t_1    ~t_2*  )
     5.68353660E-03    2    -1000006   2000006   # BR(A -> ~t_1*   ~t_2   )
#
#         PDG            Width
DECAY        37     5.59563672E+01   # H+ decays
#          BR         NDA      ID1       ID2
     5.84353309E-04    2           4        -5   # BR(H+ -> c       bb     )
     5.92682399E-02    2         -15        16   # BR(H+ -> tau+    nu_tau )
     2.09557976E-04    2         -13        14   # BR(H+ -> mu+     nu_mu  )
     3.73985802E-06    2           2        -5   # BR(H+ -> u       bb     )
     1.18718677E-05    2           2        -3   # BR(H+ -> u       sb     )
     2.44242495E-04    2           4        -3   # BR(H+ -> c       sb     )
     3.71823146E-01    2           6        -5   # BR(H+ -> t       bb     )
     1.78426665E-06    2          24        25   # BR(H+ -> W+      h      )
     2.21667427E-14    2          24        36   # BR(H+ -> W+      A      )
     6.20566998E-02    2     1000024   1000022   # BR(H+ -> ~chi_1+ ~chi_10)
     1.02271455E-05    2     1000024   1000023   # BR(H+ -> ~chi_1+ ~chi_20)
     2.27987178E-02    2     1000024   1000025   # BR(H+ -> ~chi_1+ ~chi_30)
     1.56919379E-01    2     1000024   1000035   # BR(H+ -> ~chi_1+ ~chi_40)
     4.34408638E-02    2     1000037   1000022   # BR(H+ -> ~chi_2+ ~chi_10)
     1.55535835E-01    2     1000037   1000023   # BR(H+ -> ~chi_2+ ~chi_20)
     1.15707563E-01    2     1000037   1000025   # BR(H+ -> ~chi_2+ ~chi_30)
     2.68241728E-04    2     1000006  -1000005   # BR(H+ -> ~t_1    ~b_1*  )
     1.11155374E-02    2     2000006  -1000005   # BR(H+ -> ~t_2    ~b_1*  )
