#
#                              ======================
#                              | THE SUSYHIT OUTPUT |
#                              ======================
#
#
#              ------------------------------------------------------
#              |     This is the output of the SUSY-HIT package     |
#              |  created by A.Djouadi, M.Muehlleitner and M.Spira. |
#              |  In case of problems with SUSY-HIT email to        |
#              |           margarete.muehlleitner@kit.edu           |
#              |           michael.spira@psi.ch                     |
#              |           abdelhak.djouadi@cern.ch                 |
#              ------------------------------------------------------
#
#              ------------------------------------------------------
#              |  SUSY Les Houches Accord - MSSM Spectrum + Decays  |
#              |              based on the decay programs           |
#              |                                                    |
#              |                     SDECAY 1.5                     |
#              |                                                    |
#              |  Authors: M.Muhlleitner, A.Djouadi and Y.Mambrini  |
#              |  Ref.:    Comput.Phys.Commun.168(2005)46           |
#              |           [hep-ph/0311167]                         |
#              |                                                    |
#              |                     HDECAY 3.4                     |
#              |                                                    |
#              |  By: A.Djouadi,J.Kalinowski,M.Muhlleitner,M.Spira  |
#              |  Ref.:    Comput.Phys.Commun.108(1998)56           |
#              |           [hep-ph/9704448]                         |
#              |                                                    |
#              |                                                    |
#              |  If not stated otherwise all DRbar couplings and   |
#              |  soft SUSY breaking masses are given at the scale  |
#              |  Q=  0.90910851E+03
#              |                                                    |
#              ------------------------------------------------------
#
#
BLOCK DCINFO  # Decay Program information
     1   SDECAY/HDECAY # decay calculator
     2   1.5  /3.4    # version number
#
BLOCK SPINFO  # Spectrum calculator information
     1    SOFTSUSY    # spectrum calculator                
     2    3.7.3       # version number                     
#
BLOCK MODSEL  # Model selection
     1     0   #  nonUniversal                                     
#
BLOCK SMINPUTS  # Standard Model inputs
         1     1.27934000E+02   # alpha_em^-1(M_Z)^MSbar
         2     1.16639000E-05   # G_F [GeV^-2]
         3     1.17200000E-01   # alpha_S(M_Z)^MSbar
         4     9.11870000E+01   # M_Z pole mass
         5     4.19000000E+00   # mb(mb)^MSbar
         6     1.72500000E+02   # mt pole mass
         7     1.77690000E+00   # mtau pole mass
#
BLOCK MINPAR  # Input parameters - minimal models
         3     2.00000000E+01   # tanb                
#
BLOCK EXTPAR  # Input parameters - non-minimal models
         0    -1.00000000E+00   # Set                 
         1     4.09990000E+02   # M_1(MX)             
         2     2.00000000E+03   # M_2(MX)             
         3     1.80000000E+03   # M_3(MX)             
        11     2.25959179E+03   # At(MX)              
        12     0.00000000E+00   # Ab(MX)              
        13     0.00000000E+00   # Atau(MX)            
        23    -4.46900000E+02   # mu(MX)              
        25     2.00000000E+01   # tan                 
        26     4.00000000E+03   # mA(pole)            
        31     4.00000000E+03   # meL(MX)             
        32     4.00000000E+03   # mmuL(MX)            
        33     4.00000000E+03   # mtauL(MX)           
        34     4.00000000E+03   # meR(MX)             
        35     4.00000000E+03   # mmuR(MX)            
        36     4.00000000E+03   # mtauR(MX)           
        41     4.00000000E+03   # mqL1(MX)            
        42     4.00000000E+03   # mqL2(MX)            
        43     4.59900000E+02   # mqL3(MX)            
        44     4.00000000E+03   # muR(MX)             
        45     4.00000000E+03   # mcR(MX)             
        46     1.85485961E+03   # mtR(MX)             
        47     4.00000000E+03   # mdR(MX)             
        48     4.00000000E+03   # msR(MX)             
        49     4.00000000E+03   # mbR(MX)             
#
BLOCK MASS  # Mass Spectrum
# PDG code           mass       particle
        24     8.04208188E+01   # W+
        25     1.25512335E+02   # h
        35     4.00000596E+03   # H
        36     3.99999620E+03   # A
        37     4.00096941E+03   # H+
         5     4.81337004E+00   # b-quark pole mass calculated from mb(mb)_Msbar
   1000001     4.01293125E+03   # ~d_L
   2000001     4.01222879E+03   # ~d_R
   1000002     4.01227617E+03   # ~u_L
   2000002     4.01345640E+03   # ~u_R
   1000003     4.01293125E+03   # ~s_L
   2000003     4.01222879E+03   # ~s_R
   1000004     4.01227617E+03   # ~c_L
   2000004     4.01345640E+03   # ~c_R
   1000005     4.83509954E+02   # ~b_1
   2000005     4.01841441E+03   # ~b_2
   1000006     4.59085551E+02   # ~t_1
   2000006     1.87535839E+03   # ~t_2
   1000011     4.00202145E+03   # ~e_L
   2000011     4.00283145E+03   # ~e_R
   1000012     4.00090841E+03   # ~nu_eL
   1000013     4.00202145E+03   # ~mu_L
   2000013     4.00283145E+03   # ~mu_R
   1000014     4.00090841E+03   # ~nu_muL
   1000015     4.00364860E+03   # ~tau_1
   2000015     4.00885289E+03   # ~tau_2
   1000016     4.00346645E+03   # ~nu_tauL
   1000021     1.95664429E+03   # ~g
   1000022     4.02260426E+02   # ~chi_10
   1000023    -4.56543524E+02   # ~chi_20
   1000025     4.69661837E+02   # ~chi_30
   1000035     2.05748657E+03   # ~chi_40
   1000024     4.54662550E+02   # ~chi_1+
   1000037     2.05765031E+03   # ~chi_2+
#
BLOCK NMIX  # Neutralino Mixing Matrix
  1  1     8.64985687E-01   # N_11
  1  2    -1.50004154E-02   # N_12
  1  3    -3.78328082E-01   # N_13
  1  4    -3.29306257E-01   # N_14
  2  1    -3.81053040E-02   # N_21
  2  2     2.35549570E-02   # N_22
  2  3    -7.04536334E-01   # N_23
  2  4     7.08252571E-01   # N_24
  3  1     5.00346406E-01   # N_31
  3  2     2.99324914E-02   # N_32
  3  3     6.00372072E-01   # N_33
  3  4     6.23145966E-01   # N_34
  4  1    -1.10482725E-03   # N_41
  4  2     9.99161747E-01   # N_42
  4  3    -7.05630217E-03   # N_43
  4  4    -4.03086897E-02   # N_44
#
BLOCK UMIX  # Chargino Mixing Matrix U
  1  1     9.98526739E-03   # U_11
  1  2     9.99950146E-01   # U_12
  2  1    -9.99950146E-01   # U_21
  2  2     9.98526739E-03   # U_22
#
BLOCK VMIX  # Chargino Mixing Matrix V
  1  1     5.70152876E-02   # V_11
  1  2    -9.98373305E-01   # V_12
  2  1    -9.98373305E-01   # V_21
  2  2    -5.70152876E-02   # V_22
#
BLOCK STOPMIX  # Stop Mixing Matrix
  1  1     9.94467162E-01   # cos(theta_t)
  1  2    -1.05047911E-01   # sin(theta_t)
  2  1     1.05047911E-01   # -sin(theta_t)
  2  2     9.94467162E-01   # cos(theta_t)
#
BLOCK SBOTMIX  # Sbottom Mixing Matrix
  1  1     9.99998998E-01   # cos(theta_b)
  1  2    -1.41562671E-03   # sin(theta_b)
  2  1     1.41562671E-03   # -sin(theta_b)
  2  2     9.99998998E-01   # cos(theta_b)
#
BLOCK STAUMIX  # Stau Mixing Matrix
  1  1    -7.05973184E-01   # cos(theta_tau)
  1  2     7.08238564E-01   # sin(theta_tau)
  2  1    -7.08238564E-01   # -sin(theta_tau)
  2  2    -7.05973184E-01   # cos(theta_tau)
#
BLOCK ALPHA  # Higgs mixing
          -5.00256439E-02   # Mixing angle in the neutral Higgs boson sector
#
BLOCK HMIX Q=  9.09108505E+02  # DRbar Higgs Parameters
         1    -4.46900000E+02   # mu(Q)MSSM           
         2     2.00000000E+01   # tan                 
         3     2.44564942E+02   # higgs               
         4     1.63660949E+07   # mA^2(Q)MSSM         
#
BLOCK GAUGE Q=  9.09108505E+02  # The gauge couplings
     1     3.60693579E-01   # gprime(Q) DRbar
     2     6.35433197E-01   # g(Q) DRbar
     3     1.03839323E+00   # g3(Q) DRbar
#
BLOCK AU Q=  9.09108505E+02  # The trilinear couplings
  1  1     0.00000000E+00   # A_u(Q) DRbar
  2  2     5.89950593E-07   # A_c(Q) DRbar
  3  3     2.25959179E+03   # A_t(Q) DRbar
#
BLOCK AD Q=  9.09108505E+02  # The trilinear couplings
  1  1     2.17596929E-07   # A_d(Q) DRbar
  2  2     2.17617833E-07   # A_s(Q) DRbar
  3  3     3.88857446E-07   # A_b(Q) DRbar
#
BLOCK AE Q=  9.09108505E+02  # The trilinear couplings
  1  1     0.00000000E+00   # A_e(Q) DRbar
  2  2     4.90938208E-08   # A_mu(Q) DRbar
  3  3     4.95862179E-08   # A_tau(Q) DRbar
#
BLOCK Yu Q=  9.09108505E+02  # The Yukawa couplings
  1  1     0.00000000E+00   # y_u(Q) DRbar
  2  2     0.00000000E+00   # y_c(Q) DRbar
  3  3     8.75556322E-01   # y_t(Q) DRbar
#
BLOCK Yd Q=  9.09108505E+02  # The Yukawa couplings
  1  1     0.00000000E+00   # y_d(Q) DRbar
  2  2     0.00000000E+00   # y_s(Q) DRbar
  3  3     2.89553914E-01   # y_b(Q) DRbar
#
BLOCK Ye Q=  9.09108505E+02  # The Yukawa couplings
  1  1     0.00000000E+00   # y_e(Q) DRbar
  2  2     0.00000000E+00   # y_mu(Q) DRbar
  3  3     2.02696055E-01   # y_tau(Q) DRbar
#
BLOCK MSOFT Q=  9.09108505E+02  # The soft SUSY breaking masses at the scale Q
         1     4.09990000E+02   # M_1(Q)              
         2     2.00000000E+03   # M_2(Q)              
         3     1.80000000E+03   # M_3(Q)              
        21     1.56691584E+07   # M^2_Hd              
        22    -2.06915492E+05   # M^2_Hu              
        31     4.00000000E+03   # M_eL                
        32     4.00000000E+03   # M_muL               
        33     4.00000000E+03   # M_tauL              
        34     4.00000000E+03   # M_eR                
        35     4.00000000E+03   # M_muR               
        36     4.00000000E+03   # M_tauR              
        41     4.00000000E+03   # M_q1L               
        42     4.00000000E+03   # M_q2L               
        43     4.59899997E+02   # M_q3L               
        44     4.00000000E+03   # M_uR                
        45     4.00000000E+03   # M_cR                
        46     1.85485961E+03   # M_tR                
        47     4.00000000E+03   # M_dR                
        48     4.00000000E+03   # M_sR                
        49     4.00000000E+03   # M_bR                
#
#
#
#                             =================
#                             |The decay table|
#                             =================
#
# - The QCD corrections to the decays gluino -> squark  + quark
#                                     squark -> gaugino + quark_prime
#                                     squark -> squark_prime + Higgs
#                                     squark -> gluino  + quark
#   are included.
#
# - The multi-body decays for the inos, stops and sbottoms are included.
#
# - The loop induced decays for the gluino, neutralinos and stops
#   are included.
#
# - The SUSY decays of the top quark are included.
#
#
#         PDG            Width
DECAY         6     1.40067303E+00   # top decays
#          BR         NDA      ID1       ID2
     1.00000000E+00    2           5        24   # BR(t ->  b    W+)
#
#         PDG            Width
DECAY   1000021     7.21907377E+01   # gluino decays
#          BR         NDA      ID1       ID2
     2.44109838E-01    2     1000005        -5   # BR(~g -> ~b_1  bb)
     2.44109838E-01    2    -1000005         5   # BR(~g -> ~b_1* b )
     2.55890162E-01    2     1000006        -6   # BR(~g -> ~t_1  tb)
     2.55890162E-01    2    -1000006         6   # BR(~g -> ~t_1* t )
#
#         PDG            Width
DECAY   1000006    -5.08356471E-02   # stop1 decays
#          BR         NDA      ID1       ID2
    -8.10560689E-07    2     1000022         4   # BR(~t_1 -> ~chi_10 c )
    -6.24917699E-09    2     1000022         2   # BR(~t_1 -> ~chi_10 u )
#           BR         NDA      ID1       ID2       ID3       ID4
     1.00000082E+00    4     1000022         5   3000001   4000001   # BR(~t_1 -> chi_10 b f fbarprime)
#
#         PDG            Width
DECAY   2000006     1.17743457E+02   # stop2 decays
#          BR         NDA      ID1       ID2
     4.78763675E-02    2     1000022         6   # BR(~t_2 -> ~chi_10 t )
     1.03446590E-01    2     1000023         6   # BR(~t_2 -> ~chi_20 t )
     8.39345084E-02    2     1000025         6   # BR(~t_2 -> ~chi_30 t )
     2.04742436E-01    2     1000024         5   # BR(~t_2 -> ~chi_1+ b )
     1.64859239E-01    2     1000006        25   # BR(~t_2 -> ~t_1    h )
     1.30894146E-01    2     1000006        23   # BR(~t_2 -> ~t_1    Z )
     2.64246714E-01    2     1000005        24   # BR(~t_2 -> ~b_1    W+)
#
#         PDG            Width
DECAY   1000005     2.37523672E-02   # sbottom1 decays
#          BR         NDA      ID1       ID2
     7.57172124E-01    2     1000022         5   # BR(~b_1 -> ~chi_10 b )
     2.06988189E-01    2     1000023         5   # BR(~b_1 -> ~chi_20 b )
     3.58396868E-02    2     1000025         5   # BR(~b_1 -> ~chi_30 b )
#
#         PDG            Width
DECAY   2000005     1.66356628E+02   # sbottom2 decays
#          BR         NDA      ID1       ID2
     1.50192078E-02    2     1000022         5   # BR(~b_2 -> ~chi_10 b )
     1.80373701E-02    2     1000023         5   # BR(~b_2 -> ~chi_20 b )
     1.63424027E-02    2     1000025         5   # BR(~b_2 -> ~chi_30 b )
     1.67321443E-06    2     1000035         5   # BR(~b_2 -> ~chi_40 b )
     3.61841321E-02    2    -1000024         6   # BR(~b_2 -> ~chi_1- t )
     3.32080911E-06    2    -1000037         6   # BR(~b_2 -> ~chi_2- t )
     9.13332452E-01    2     1000021         5   # BR(~b_2 -> ~g      b )
     2.28759932E-04    2     1000005        25   # BR(~b_2 -> ~b_1    h )
     3.16867902E-04    2     1000005        23   # BR(~b_2 -> ~b_1    Z )
     5.31061223E-04    2     1000006       -24   # BR(~b_2 -> ~t_1    W-)
     2.75162726E-06    2     2000006       -24   # BR(~b_2 -> ~t_2    W-)
#
#         PDG            Width
DECAY   1000002     1.77504139E+02   # sup_L decays
#          BR         NDA      ID1       ID2
     1.89529495E-03    2     1000022         2   # BR(~u_L -> ~chi_10 u)
     2.27804931E-05    2     1000023         2   # BR(~u_L -> ~chi_20 u)
     1.32193166E-03    2     1000025         2   # BR(~u_L -> ~chi_30 u)
     4.76680226E-02    2     1000035         2   # BR(~u_L -> ~chi_40 u)
     5.54494180E-04    2     1000024         1   # BR(~u_L -> ~chi_1+ d)
     9.52147508E-02    2     1000037         1   # BR(~u_L -> ~chi_2+ d)
     8.53322725E-01    2     1000021         2   # BR(~u_L -> ~g      u)
#
#         PDG            Width
DECAY   2000002     1.60274867E+02   # sup_R decays
#          BR         NDA      ID1       ID2
     4.07165913E-02    2     1000022         2   # BR(~u_R -> ~chi_10 u)
     7.85702636E-05    2     1000023         2   # BR(~u_R -> ~chi_20 u)
     1.35264230E-02    2     1000025         2   # BR(~u_R -> ~chi_30 u)
     3.70163181E-08    2     1000035         2   # BR(~u_R -> ~chi_40 u)
     9.45678378E-01    2     1000021         2   # BR(~u_R -> ~g      u)
#
#         PDG            Width
DECAY   1000001     1.77523460E+02   # sdown_L decays
#          BR         NDA      ID1       ID2
     2.73760201E-03    2     1000022         1   # BR(~d_L -> ~chi_10 d)
     8.07110887E-05    2     1000023         1   # BR(~d_L -> ~chi_20 d)
     3.56865196E-04    2     1000025         1   # BR(~d_L -> ~chi_30 d)
     4.77216230E-02    2     1000035         1   # BR(~d_L -> ~chi_40 d)
     1.70083517E-05    2    -1000024         2   # BR(~d_L -> ~chi_1- u)
     9.55431702E-02    2    -1000037         2   # BR(~d_L -> ~chi_2- u)
     8.53543020E-01    2     1000021         1   # BR(~d_L -> ~g      d)
#
#         PDG            Width
DECAY   2000001     1.53640186E+02   # sdown_R decays
#          BR         NDA      ID1       ID2
     1.06152823E-02    2     1000022         1   # BR(~d_R -> ~chi_10 d)
     2.04840971E-05    2     1000023         1   # BR(~d_R -> ~chi_20 d)
     3.52647803E-03    2     1000025         1   # BR(~d_R -> ~chi_30 d)
     9.64654446E-09    2     1000035         1   # BR(~d_R -> ~chi_40 d)
     9.85837746E-01    2     1000021         1   # BR(~d_R -> ~g      d)
#
#         PDG            Width
DECAY   1000004     1.77504139E+02   # scharm_L decays
#          BR         NDA      ID1       ID2
     1.89529495E-03    2     1000022         4   # BR(~c_L -> ~chi_10 c)
     2.27804931E-05    2     1000023         4   # BR(~c_L -> ~chi_20 c)
     1.32193166E-03    2     1000025         4   # BR(~c_L -> ~chi_30 c)
     4.76680226E-02    2     1000035         4   # BR(~c_L -> ~chi_40 c)
     5.54494180E-04    2     1000024         3   # BR(~c_L -> ~chi_1+ s)
     9.52147508E-02    2     1000037         3   # BR(~c_L -> ~chi_2+ s)
     8.53322725E-01    2     1000021         4   # BR(~c_L -> ~g      c)
#
#         PDG            Width
DECAY   2000004     1.60274867E+02   # scharm_R decays
#          BR         NDA      ID1       ID2
     4.07165913E-02    2     1000022         4   # BR(~c_R -> ~chi_10 c)
     7.85702636E-05    2     1000023         4   # BR(~c_R -> ~chi_20 c)
     1.35264230E-02    2     1000025         4   # BR(~c_R -> ~chi_30 c)
     3.70163181E-08    2     1000035         4   # BR(~c_R -> ~chi_40 c)
     9.45678378E-01    2     1000021         4   # BR(~c_R -> ~g      c)
#
#         PDG            Width
DECAY   1000003     1.77523460E+02   # sstrange_L decays
#          BR         NDA      ID1       ID2
     2.73760201E-03    2     1000022         3   # BR(~s_L -> ~chi_10 s)
     8.07110887E-05    2     1000023         3   # BR(~s_L -> ~chi_20 s)
     3.56865196E-04    2     1000025         3   # BR(~s_L -> ~chi_30 s)
     4.77216230E-02    2     1000035         3   # BR(~s_L -> ~chi_40 s)
     1.70083517E-05    2    -1000024         4   # BR(~s_L -> ~chi_1- c)
     9.55431702E-02    2    -1000037         4   # BR(~s_L -> ~chi_2- c)
     8.53543020E-01    2     1000021         3   # BR(~s_L -> ~g      s)
#
#         PDG            Width
DECAY   2000003     1.53640186E+02   # sstrange_R decays
#          BR         NDA      ID1       ID2
     1.06152823E-02    2     1000022         3   # BR(~s_R -> ~chi_10 s)
     2.04840971E-05    2     1000023         3   # BR(~s_R -> ~chi_20 s)
     3.52647803E-03    2     1000025         3   # BR(~s_R -> ~chi_30 s)
     9.64654446E-09    2     1000035         3   # BR(~s_R -> ~chi_40 s)
     9.85837746E-01    2     1000021         3   # BR(~s_R -> ~g      s)
#
#         PDG            Width
DECAY   1000011     3.11828816E+01   # selectron_L decays
#          BR         NDA      ID1       ID2
     1.14442620E-01    2     1000022        11   # BR(~e_L -> ~chi_10 e-)
     1.86090939E-06    2     1000023        11   # BR(~e_L -> ~chi_20 e-)
     4.94160252E-02    2     1000025        11   # BR(~e_L -> ~chi_30 e-)
     2.78174884E-01    2     1000035        11   # BR(~e_L -> ~chi_40 e-)
     1.00154116E-04    2    -1000024        12   # BR(~e_L -> ~chi_1- nu_e)
     5.57864456E-01    2    -1000037        12   # BR(~e_L -> ~chi_2- nu_e)
#
#         PDG            Width
DECAY   2000011     2.02665047E+01   # selectron_R decays
#          BR         NDA      ID1       ID2
     7.49595114E-01    2     1000022        11   # BR(~e_R -> ~chi_10 e-)
     1.44618227E-03    2     1000023        11   # BR(~e_R -> ~chi_20 e-)
     2.48958028E-01    2     1000025        11   # BR(~e_R -> ~chi_30 e-)
     6.75661224E-07    2     1000035        11   # BR(~e_R -> ~chi_40 e-)
#
#         PDG            Width
DECAY   1000013     3.11828816E+01   # smuon_L decays
#          BR         NDA      ID1       ID2
     1.14442620E-01    2     1000022        13   # BR(~mu_L -> ~chi_10 mu-)
     1.86090939E-06    2     1000023        13   # BR(~mu_L -> ~chi_20 mu-)
     4.94160252E-02    2     1000025        13   # BR(~mu_L -> ~chi_30 mu-)
     2.78174884E-01    2     1000035        13   # BR(~mu_L -> ~chi_40 mu-)
     1.00154116E-04    2    -1000024        14   # BR(~mu_L -> ~chi_1- nu_mu)
     5.57864456E-01    2    -1000037        14   # BR(~mu_L -> ~chi_2- nu_mu)
#
#         PDG            Width
DECAY   2000013     2.02665047E+01   # smuon_R decays
#          BR         NDA      ID1       ID2
     7.49595114E-01    2     1000022        13   # BR(~mu_R -> ~chi_10 mu-)
     1.44618227E-03    2     1000023        13   # BR(~mu_R -> ~chi_20 mu-)
     2.48958028E-01    2     1000025        13   # BR(~mu_R -> ~chi_30 mu-)
     6.75661224E-07    2     1000035        13   # BR(~mu_R -> ~chi_40 mu-)
#
#         PDG            Width
DECAY   1000015     3.05866349E+01   # stau_1 decays
#          BR         NDA      ID1       ID2
     3.66840381E-01    2     1000022        15   # BR(~tau_1 -> ~chi_10  tau-)
     4.48570284E-02    2     1000023        15   # BR(~tau_1 -> ~chi_20  tau-)
     1.10192379E-01    2     1000025        15   # BR(~tau_1 -> ~chi_30  tau-)
     1.40581099E-01    2     1000035        15   # BR(~tau_1 -> ~chi_40  tau-)
     5.56001282E-02    2    -1000024        16   # BR(~tau_1 -> ~chi_1-  nu_tau)
     2.81928984E-01    2    -1000037        16   # BR(~tau_1 -> ~chi_2-  nu_tau)
#
#         PDG            Width
DECAY   2000015     3.05263792E+01   # stau_2 decays
#          BR         NDA      ID1       ID2
     2.77606082E-01    2     1000022        15   # BR(~tau_2 -> ~chi_10  tau-)
     5.97737338E-02    2     1000023        15   # BR(~tau_2 -> ~chi_20  tau-)
     1.80818597E-01    2     1000025        15   # BR(~tau_2 -> ~chi_30  tau-)
     1.44039719E-01    2     1000035        15   # BR(~tau_2 -> ~chi_40  tau-)
     4.89033013E-02    2    -1000024        16   # BR(~tau_2 -> ~chi_1-  nu_tau)
     2.88858567E-01    2    -1000037        16   # BR(~tau_2 -> ~chi_2-  nu_tau)
#
#         PDG            Width
DECAY   1000012     3.11937111E+01   # snu_eL decays
#          BR         NDA      ID1       ID2
     1.29241013E-01    2     1000022        12   # BR(~nu_eL -> ~chi_10 nu_e)
     1.02454855E-03    2     1000023        12   # BR(~nu_eL -> ~chi_20 nu_e)
     3.23462632E-02    2     1000025        12   # BR(~nu_eL -> ~chi_30 nu_e)
     2.78588387E-01    2     1000035        12   # BR(~nu_eL -> ~chi_40 nu_e)
     3.26327837E-03    2     1000024        11   # BR(~nu_eL -> ~chi_1+ e-)
     5.55536510E-01    2     1000037        11   # BR(~nu_eL -> ~chi_2+ e-)
#
#         PDG            Width
DECAY   1000014     3.11937111E+01   # snu_muL decays
#          BR         NDA      ID1       ID2
     1.29241013E-01    2     1000022        14   # BR(~nu_muL -> ~chi_10 nu_mu)
     1.02454855E-03    2     1000023        14   # BR(~nu_muL -> ~chi_20 nu_mu)
     3.23462632E-02    2     1000025        14   # BR(~nu_muL -> ~chi_30 nu_mu)
     2.78588387E-01    2     1000035        14   # BR(~nu_muL -> ~chi_40 nu_mu)
     3.26327837E-03    2     1000024        13   # BR(~nu_muL -> ~chi_1+ mu-)
     5.55536510E-01    2     1000037        13   # BR(~nu_muL -> ~chi_2+ mu-)
#
#         PDG            Width
DECAY   1000016     3.44260834E+01   # snu_tauL decays
#          BR         NDA      ID1       ID2
     1.17184102E-01    2     1000022        16   # BR(~nu_tauL -> ~chi_10 nu_tau)
     9.28975357E-04    2     1000023        16   # BR(~nu_tauL -> ~chi_20 nu_tau)
     2.93289579E-02    2     1000025        16   # BR(~nu_tauL -> ~chi_30 nu_tau)
     2.52824343E-01    2     1000035        16   # BR(~nu_tauL -> ~chi_40 nu_tau)
     9.55706367E-02    2     1000024        15   # BR(~nu_tauL -> ~chi_1+ tau-)
     5.04162985E-01    2     1000037        15   # BR(~nu_tauL -> ~chi_2+ tau-)
#
#         PDG            Width
DECAY   1000024     1.33826462E-04   # chargino1+ decays
#           BR         NDA      ID1       ID2       ID3
     3.33536776E-01    3     1000022         2        -1   # BR(~chi_1+ -> ~chi_10 u    db)
     3.33536776E-01    3     1000022         4        -3   # BR(~chi_1+ -> ~chi_10 c    sb)
     1.11180515E-01    3     1000022       -11        12   # BR(~chi_1+ -> ~chi_10 e+   nu_e)
     1.11180515E-01    3     1000022       -13        14   # BR(~chi_1+ -> ~chi_10 mu+  nu_mu)
     1.10565418E-01    3     1000022       -15        16   # BR(~chi_1+ -> ~chi_10 tau+ nu_tau)
#
#         PDG            Width
DECAY   1000037     6.62395484E+01   # chargino2+ decays
#          BR         NDA      ID1       ID2
     3.87634001E-01    2     1000006        -5   # BR(~chi_2+ -> ~t_1     bb)
     9.79474919E-06    2     2000006        -5   # BR(~chi_2+ -> ~t_2     bb)
     3.75571811E-01    2    -1000005         6   # BR(~chi_2+ -> ~b_1*    t )
     6.02965864E-02    2     1000024        23   # BR(~chi_2+ -> ~chi_1+  Z )
     1.12484324E-02    2     1000022        24   # BR(~chi_2+ -> ~chi_10  W+)
     5.88672853E-02    2     1000023        24   # BR(~chi_2+ -> ~chi_20  W+)
     4.74551368E-02    2     1000025        24   # BR(~chi_2+ -> ~chi_30  W+)
     5.89169516E-02    2     1000024        25   # BR(~chi_2+ -> ~chi_1+  h )
#
#         PDG            Width
DECAY   1000022     0.00000000E+00   # neutralino1 decays
#
#         PDG            Width
DECAY   1000023     1.23356293E-04   # neutralino2 decays
#          BR         NDA      ID1       ID2
     8.26151933E-04    2     1000022        22   # BR(~chi_20 -> ~chi_10 gam)
#           BR         NDA      ID1       ID2       ID3
     1.17581048E-01    3     1000022        -2         2   # BR(~chi_20 -> ~chi_10 ub      u)
     1.52468441E-01    3     1000022        -1         1   # BR(~chi_20 -> ~chi_10 db      d)
     1.17581048E-01    3     1000022        -4         4   # BR(~chi_20 -> ~chi_10 cb      c)
     1.52468441E-01    3     1000022        -3         3   # BR(~chi_20 -> ~chi_10 sb      s)
     1.45084731E-01    3     1000022        -5         5   # BR(~chi_20 -> ~chi_10 bb      b)
     3.49327834E-02    3     1000022       -11        11   # BR(~chi_20 -> ~chi_10 e+      e-)
     3.49327834E-02    3     1000022       -13        13   # BR(~chi_20 -> ~chi_10 mu+     mu-)
     3.46422885E-02    3     1000022       -15        15   # BR(~chi_20 -> ~chi_10 tau+    tau-)
     6.98272967E-02    3     1000022       -12        12   # BR(~chi_20 -> ~chi_10 nu_eb   nu_e)
     6.98272967E-02    3     1000022       -14        14   # BR(~chi_20 -> ~chi_10 nu_mub  nu_mu)
     6.98272938E-02    3     1000022       -16        16   # BR(~chi_20 -> ~chi_10 nu_taub nu_tau)
     7.44357692E-08    3     1000024        -2         1   # BR(~chi_20 -> ~chi_1+ ub      d)
     7.44357692E-08    3    -1000024        -1         2   # BR(~chi_20 -> ~chi_1- db      u)
     7.44357692E-08    3     1000024        -4         3   # BR(~chi_20 -> ~chi_1+ cb      s)
     7.44357692E-08    3    -1000024        -3         4   # BR(~chi_20 -> ~chi_1- sb      c)
     2.48119429E-08    3     1000024       -12        11   # BR(~chi_20 -> ~chi_1+ nu_eb   e-)
     2.48119429E-08    3    -1000024        12       -11   # BR(~chi_20 -> ~chi_1- nu_e    e+)
     2.48119429E-08    3     1000024       -14        13   # BR(~chi_20 -> ~chi_1+ nu_mub  mu-)
     2.48119429E-08    3    -1000024        14       -13   # BR(~chi_20 -> ~chi_1- nu_mu   mu+)
     6.01079549E-12    3     1000024       -16        15   # BR(~chi_20 -> ~chi_1+ nu_taub tau-)
     6.01079549E-12    3    -1000024        16       -15   # BR(~chi_20 -> ~chi_1- nu_tau  tau+)
#
#         PDG            Width
DECAY   1000025     5.53041318E-06   # neutralino3 decays
#          BR         NDA      ID1       ID2
     5.17177468E-02    2     1000022        22   # BR(~chi_30 -> ~chi_10 gam)
     3.83565013E-02    2     1000023        22   # BR(~chi_30 -> ~chi_20 gam)
#           BR         NDA      ID1       ID2       ID3
     6.98530480E-02    3     1000022        -2         2   # BR(~chi_30 -> ~chi_10 ub      u)
     9.01521397E-02    3     1000022        -1         1   # BR(~chi_30 -> ~chi_10 db      d)
     6.98530480E-02    3     1000022        -4         4   # BR(~chi_30 -> ~chi_10 cb      c)
     9.01521397E-02    3     1000022        -3         3   # BR(~chi_30 -> ~chi_10 sb      s)
     1.25098179E-01    3     1000022        -5         5   # BR(~chi_30 -> ~chi_10 bb      b)
     2.03166749E-02    3     1000022       -11        11   # BR(~chi_30 -> ~chi_10 e+      e-)
     2.03166749E-02    3     1000022       -13        13   # BR(~chi_30 -> ~chi_10 mu+     mu-)
     2.03377963E-02    3     1000022       -15        15   # BR(~chi_30 -> ~chi_10 tau+    tau-)
     4.14448770E-02    3     1000022       -12        12   # BR(~chi_30 -> ~chi_10 nu_eb   nu_e)
     4.14448770E-02    3     1000022       -14        14   # BR(~chi_30 -> ~chi_10 nu_mub  nu_mu)
     4.14447070E-02    3     1000022       -16        16   # BR(~chi_30 -> ~chi_10 nu_taub nu_tau)
     5.93741738E-03    3     1000023        -2         2   # BR(~chi_30 -> ~chi_20 ub      u)
     7.69931750E-03    3     1000023        -1         1   # BR(~chi_30 -> ~chi_20 db      d)
     5.93741738E-03    3     1000023        -4         4   # BR(~chi_30 -> ~chi_20 cb      c)
     7.69931750E-03    3     1000023        -3         3   # BR(~chi_30 -> ~chi_20 sb      s)
     1.84077468E-03    3     1000023        -5         5   # BR(~chi_30 -> ~chi_20 bb      b)
     1.76414300E-03    3     1000023       -11        11   # BR(~chi_30 -> ~chi_20 e+      e-)
     1.76414300E-03    3     1000023       -13        13   # BR(~chi_30 -> ~chi_20 mu+     mu-)
     1.58571954E-03    3     1000023       -15        15   # BR(~chi_30 -> ~chi_20 tau+    tau-)
     3.52592715E-03    3     1000023       -12        12   # BR(~chi_30 -> ~chi_20 nu_eb   nu_e)
     3.52592715E-03    3     1000023       -14        14   # BR(~chi_30 -> ~chi_20 nu_mub  nu_mu)
     3.52592720E-03    3     1000023       -16        16   # BR(~chi_30 -> ~chi_20 nu_taub nu_tau)
     3.94083988E-02    3     1000024        -2         1   # BR(~chi_30 -> ~chi_1+ ub      d)
     3.94083988E-02    3    -1000024        -1         2   # BR(~chi_30 -> ~chi_1- db      u)
     3.94083988E-02    3     1000024        -4         3   # BR(~chi_30 -> ~chi_1+ cb      s)
     3.94083988E-02    3    -1000024        -3         4   # BR(~chi_30 -> ~chi_1- sb      c)
     1.31360147E-02    3     1000024       -12        11   # BR(~chi_30 -> ~chi_1+ nu_eb   e-)
     1.31360147E-02    3    -1000024        12       -11   # BR(~chi_30 -> ~chi_1- nu_e    e+)
     1.31360147E-02    3     1000024       -14        13   # BR(~chi_30 -> ~chi_1+ nu_mub  mu-)
     1.31360147E-02    3    -1000024        14       -13   # BR(~chi_30 -> ~chi_1- nu_mu   mu+)
     1.22639528E-02    3     1000024       -16        15   # BR(~chi_30 -> ~chi_1+ nu_taub tau-)
     1.22639528E-02    3    -1000024        16       -15   # BR(~chi_30 -> ~chi_1- nu_tau  tau+)
#
#         PDG            Width
DECAY   1000035     6.62303592E+01   # neutralino4 decays
#          BR         NDA      ID1       ID2
     4.21168617E-03    2     1000022        23   # BR(~chi_40 -> ~chi_10   Z )
     4.04357469E-02    2     1000023        23   # BR(~chi_40 -> ~chi_20   Z )
     1.56422964E-02    2     1000025        23   # BR(~chi_40 -> ~chi_30   Z )
     5.88329344E-02    2     1000024       -24   # BR(~chi_40 -> ~chi_1+   W-)
     5.88329344E-02    2    -1000024        24   # BR(~chi_40 -> ~chi_1-   W+)
     7.14945377E-03    2     1000022        25   # BR(~chi_40 -> ~chi_10   h )
     1.94936088E-02    2     1000023        25   # BR(~chi_40 -> ~chi_20   h )
     3.21497496E-02    2     1000025        25   # BR(~chi_40 -> ~chi_30   h )
     1.90498904E-01    2     1000006        -6   # BR(~chi_40 -> ~t_1      tb)
     1.90498904E-01    2    -1000006         6   # BR(~chi_40 -> ~t_1*     t )
     1.43694168E-06    2     2000006        -6   # BR(~chi_40 -> ~t_2      tb)
     1.43694168E-06    2    -2000006         6   # BR(~chi_40 -> ~t_2*     t )
     1.91125453E-01    2     1000005        -5   # BR(~chi_40 -> ~b_1      bb)
     1.91125453E-01    2    -1000005         5   # BR(~chi_40 -> ~b_1*     b )
#
#         PDG            Width
DECAY        25     3.99571269E-03   # h decays
#          BR         NDA      ID1       ID2
     5.91707170E-01    2           5        -5   # BR(h -> b       bb     )
     6.51901558E-02    2         -15        15   # BR(h -> tau+    tau-   )
     2.30772810E-04    2         -13        13   # BR(h -> mu+     mu-    )
     4.89425261E-04    2           3        -3   # BR(h -> s       sb     )
     2.12573034E-02    2           4        -4   # BR(h -> c       cb     )
     6.83548344E-02    2          21        21   # BR(h -> g       g      )
     2.41152528E-03    2          22        22   # BR(h -> gam     gam    )
     1.63795083E-03    2          22        23   # BR(h -> Z       gam    )
     2.20802522E-01    2          24       -24   # BR(h -> W+      W-     )
     2.79183405E-02    2          23        23   # BR(h -> Z       Z      )
#
#         PDG            Width
DECAY        35     5.63885057E+01   # H decays
#          BR         NDA      ID1       ID2
     3.71187300E-01    2           5        -5   # BR(H -> b       bb     )
     5.87992123E-02    2         -15        15   # BR(H -> tau+    tau-   )
     2.07899773E-04    2         -13        13   # BR(H -> mu+     mu-    )
     2.45909593E-04    2           3        -3   # BR(H -> s       sb     )
     6.89698135E-08    2           4        -4   # BR(H -> c       cb     )
     6.91221125E-03    2           6        -6   # BR(H -> t       tb     )
     2.22453158E-07    2          21        21   # BR(H -> g       g      )
     6.00229789E-09    2          22        22   # BR(H -> gam     gam    )
     1.77955562E-09    2          23        22   # BR(H -> Z       gam    )
     1.68030456E-06    2          24       -24   # BR(H -> W+      W-     )
     8.39570398E-07    2          23        23   # BR(H -> Z       Z      )
     6.61523445E-06    2          25        25   # BR(H -> h       h      )
     2.06830122E-24    2          36        36   # BR(H -> A       A      )
     3.66294226E-20    2          23        36   # BR(H -> Z       A      )
     1.83489781E-03    2     1000024  -1000024   # BR(H -> ~chi_1+ ~chi_1-)
     1.52084192E-01    2     1000024  -1000037   # BR(H -> ~chi_1+ ~chi_2-)
     1.52084192E-01    2     1000037  -1000024   # BR(H -> ~chi_2+ ~chi_1-)
     2.00526105E-02    2     1000022   1000022   # BR(H -> ~chi_10 ~chi_10)
     4.78752765E-04    2     1000023   1000023   # BR(H -> ~chi_20 ~chi_20)
     1.24125237E-02    2     1000025   1000025   # BR(H -> ~chi_30 ~chi_30)
     2.67512649E-02    2     1000022   1000023   # BR(H -> ~chi_10 ~chi_20)
     1.20424034E-02    2     1000022   1000025   # BR(H -> ~chi_10 ~chi_30)
     2.04350717E-02    2     1000022   1000035   # BR(H -> ~chi_10 ~chi_40)
     1.01782818E-02    2     1000023   1000025   # BR(H -> ~chi_20 ~chi_30)
     8.05443278E-02    2     1000023   1000035   # BR(H -> ~chi_20 ~chi_40)
     5.15393428E-02    2     1000025   1000035   # BR(H -> ~chi_30 ~chi_40)
     8.89167355E-04    2     1000006  -1000006   # BR(H -> ~t_1    ~t_1*  )
     1.32262743E-04    2     2000006  -2000006   # BR(H -> ~t_2    ~t_2*  )
     1.05892979E-02    2     1000006  -2000006   # BR(H -> ~t_1    ~t_2*  )
     1.05892979E-02    2     2000006  -1000006   # BR(H -> ~t_2    ~t_1*  )
     1.46041180E-07    2     1000005  -1000005   # BR(H -> ~b_1    ~b_1*  )
#
#         PDG            Width
DECAY        36     5.63896062E+01   # A decays
#          BR         NDA      ID1       ID2
     3.71205879E-01    2           5        -5   # BR(A -> b       bb     )
     5.87983633E-02    2         -15        15   # BR(A -> tau+    tau-   )
     2.07896608E-04    2         -13        13   # BR(A -> mu+     mu-    )
     2.45945958E-04    2           3        -3   # BR(A -> s       sb     )
     6.94172640E-08    2           4        -4   # BR(A -> c       cb     )
     6.92561779E-03    2           6        -6   # BR(A -> t       tb     )
     1.42303949E-05    2          21        21   # BR(A -> g       g      )
     6.43131700E-08    2          22        22   # BR(A -> gam     gam    )
     1.56528938E-08    2          23        22   # BR(A -> Z       gam    )
     1.67674468E-06    2          23        25   # BR(A -> Z       h      )
     1.86832138E-03    2     1000024  -1000024   # BR(A -> ~chi_1+ ~chi_1-)
     1.52061708E-01    2     1000024  -1000037   # BR(A -> ~chi_1+ ~chi_2-)
     1.52061708E-01    2     1000037  -1000024   # BR(A -> ~chi_2+ ~chi_1-)
     1.75548581E-02    2     1000022   1000022   # BR(A -> ~chi_10 ~chi_10)
     6.17729549E-04    2     1000023   1000023   # BR(A -> ~chi_20 ~chi_20)
     1.06707729E-02    2     1000025   1000025   # BR(A -> ~chi_30 ~chi_30)
     3.18326985E-02    2     1000022   1000023   # BR(A -> ~chi_10 ~chi_20)
     1.01102961E-02    2     1000022   1000025   # BR(A -> ~chi_10 ~chi_30)
     2.30780025E-02    2     1000022   1000035   # BR(A -> ~chi_10 ~chi_40)
     1.11421224E-02    2     1000023   1000025   # BR(A -> ~chi_20 ~chi_30)
     7.09218317E-02    2     1000023   1000035   # BR(A -> ~chi_20 ~chi_40)
     5.85426957E-02    2     1000025   1000035   # BR(A -> ~chi_30 ~chi_40)
     1.10687477E-02    2     1000006  -2000006   # BR(A -> ~t_1    ~t_2*  )
     1.10687477E-02    2    -1000006   2000006   # BR(A -> ~t_1*   ~t_2   )
#
#         PDG            Width
DECAY        37     5.66480683E+01   # H+ decays
#          BR         NDA      ID1       ID2
     5.98471189E-04    2           4        -5   # BR(H+ -> c       bb     )
     5.85443309E-02    2         -15        16   # BR(H+ -> tau+    nu_tau )
     2.06998411E-04    2         -13        14   # BR(H+ -> mu+     nu_mu  )
     3.83021240E-06    2           2        -5   # BR(H+ -> u       bb     )
     1.17268687E-05    2           2        -3   # BR(H+ -> u       sb     )
     2.41259400E-04    2           4        -3   # BR(H+ -> c       sb     )
     3.80556592E-01    2           6        -5   # BR(H+ -> t       bb     )
     1.67089706E-06    2          24        25   # BR(H+ -> W+      h      )
     2.02812334E-14    2          24        36   # BR(H+ -> W+      A      )
     5.84825668E-02    2     1000024   1000022   # BR(H+ -> ~chi_1+ ~chi_10)
     5.04805747E-05    2     1000024   1000023   # BR(H+ -> ~chi_1+ ~chi_20)
     2.36184270E-02    2     1000024   1000025   # BR(H+ -> ~chi_1+ ~chi_30)
     1.51582773E-01    2     1000024   1000035   # BR(H+ -> ~chi_1+ ~chi_40)
     4.33993975E-02    2     1000037   1000022   # BR(H+ -> ~chi_2+ ~chi_10)
     1.50778700E-01    2     1000037   1000023   # BR(H+ -> ~chi_2+ ~chi_20)
     1.09825194E-01    2     1000037   1000025   # BR(H+ -> ~chi_2+ ~chi_30)
     4.56682664E-04    2     1000006  -1000005   # BR(H+ -> ~t_1    ~b_1*  )
     2.16408990E-02    2     2000006  -1000005   # BR(H+ -> ~t_2    ~b_1*  )
