#
#                              ======================
#                              | THE SUSYHIT OUTPUT |
#                              ======================
#
#
#              ------------------------------------------------------
#              |     This is the output of the SUSY-HIT package     |
#              |  created by A.Djouadi, M.Muehlleitner and M.Spira. |
#              |  In case of problems with SUSY-HIT email to        |
#              |           margarete.muehlleitner@kit.edu           |
#              |           michael.spira@psi.ch                     |
#              |           abdelhak.djouadi@cern.ch                 |
#              ------------------------------------------------------
#
#              ------------------------------------------------------
#              |  SUSY Les Houches Accord - MSSM Spectrum + Decays  |
#              |              based on the decay programs           |
#              |                                                    |
#              |                     SDECAY 1.5                     |
#              |                                                    |
#              |  Authors: M.Muhlleitner, A.Djouadi and Y.Mambrini  |
#              |  Ref.:    Comput.Phys.Commun.168(2005)46           |
#              |           [hep-ph/0311167]                         |
#              |                                                    |
#              |                     HDECAY 3.4                     |
#              |                                                    |
#              |  By: A.Djouadi,J.Kalinowski,M.Muhlleitner,M.Spira  |
#              |  Ref.:    Comput.Phys.Commun.108(1998)56           |
#              |           [hep-ph/9704448]                         |
#              |                                                    |
#              |                                                    |
#              |  If not stated otherwise all DRbar couplings and   |
#              |  soft SUSY breaking masses are given at the scale  |
#              |  Q=  0.12808468E+04
#              |                                                    |
#              ------------------------------------------------------
#
#
BLOCK DCINFO  # Decay Program information
     1   SDECAY/HDECAY # decay calculator
     2   1.5  /3.4    # version number
#
BLOCK SPINFO  # Spectrum calculator information
     1    SOFTSUSY    # spectrum calculator                
     2    3.7.3       # version number                     
#
BLOCK MODSEL  # Model selection
     1     0   #  nonUniversal                                     
#
BLOCK SMINPUTS  # Standard Model inputs
         1     1.27934000E+02   # alpha_em^-1(M_Z)^MSbar
         2     1.16639000E-05   # G_F [GeV^-2]
         3     1.17200000E-01   # alpha_S(M_Z)^MSbar
         4     9.11870000E+01   # M_Z pole mass
         5     4.19000000E+00   # mb(mb)^MSbar
         6     1.72500000E+02   # mt pole mass
         7     1.77690000E+00   # mtau pole mass
#
BLOCK MINPAR  # Input parameters - minimal models
         3     2.00000000E+01   # tanb                
#
BLOCK EXTPAR  # Input parameters - non-minimal models
         0    -1.00000000E+00   # Set                 
         1     2.95990000E+02   # M_1(MX)             
         2     5.91990000E+02   # M_2(MX)             
         3     2.20000000E+03   # M_3(MX)             
        11     2.94338000E+03   # At(MX)              
        12     0.00000000E+00   # Ab(MX)              
        13     0.00000000E+00   # Atau(MX)            
        23    -3.00000000E+03   # mu(MX)              
        25     2.00000000E+01   # tan                 
        26     3.00000000E+03   # mA(pole)            
        31     3.00000000E+03   # meL(MX)             
        32     3.00000000E+03   # mmuL(MX)            
        33     3.00000000E+03   # mtauL(MX)           
        34     3.00000000E+03   # meR(MX)             
        35     3.00000000E+03   # mmuR(MX)            
        36     3.00000000E+03   # mtauR(MX)           
        41     3.00000000E+03   # mqL1(MX)            
        42     3.00000000E+03   # mqL2(MX)            
        43     5.49900000E+02   # mqL3(MX)            
        44     3.00000000E+03   # muR(MX)             
        45     3.00000000E+03   # mcR(MX)             
        46     3.00000000E+03   # mtR(MX)             
        47     3.00000000E+03   # mdR(MX)             
        48     3.00000000E+03   # msR(MX)             
        49     3.00000000E+03   # mbR(MX)             
#
BLOCK MASS  # Mass Spectrum
# PDG code           mass       particle
        24     8.04029299E+01   # W+
        25     1.25863987E+02   # h
        35     3.00017143E+03   # H
        36     2.99999995E+03   # A
        37     3.00109767E+03   # H+
         5     4.81337004E+00   # b-quark pole mass calculated from mb(mb)_Msbar
   1000001     3.02608263E+03   # ~d_L
   2000001     3.02088644E+03   # ~d_R
   1000002     3.02517082E+03   # ~u_L
   2000002     3.02378819E+03   # ~u_R
   1000003     3.02608263E+03   # ~s_L
   2000003     3.02088644E+03   # ~s_R
   1000004     3.02517082E+03   # ~c_L
   2000004     3.02378819E+03   # ~c_R
   1000005     6.35707748E+02   # ~b_1
   2000005     3.02150236E+03   # ~b_2
   1000006     6.32192548E+02   # ~t_1
   2000006     3.02081309E+03   # ~t_2
   1000011     3.00695669E+03   # ~e_L
   2000011     3.00019778E+03   # ~e_R
   1000012     3.00557003E+03   # ~nu_eL
   1000013     3.00695669E+03   # ~mu_L
   2000013     3.00019778E+03   # ~mu_R
   1000014     3.00557003E+03   # ~nu_muL
   1000015     2.98624944E+03   # ~tau_1
   2000015     3.02200891E+03   # ~tau_2
   1000016     3.00595864E+03   # ~nu_tauL
   1000021     2.33245406E+03   # ~g
   1000022     2.99289609E+02   # ~chi_10
   1000023     6.22948066E+02   # ~chi_20
   1000025    -3.00478706E+03   # ~chi_30
   1000035     3.00502733E+03   # ~chi_40
   1000024     6.23105775E+02   # ~chi_1+
   1000037     3.00585213E+03   # ~chi_2+
#
BLOCK NMIX  # Neutralino Mixing Matrix
  1  1     9.99890497E-01   # N_11
  1  2     4.25191581E-06   # N_12
  1  3    -1.47807776E-02   # N_13
  1  4    -7.22851383E-04   # N_14
  2  1     3.93072181E-04   # N_21
  2  2     9.99635962E-01   # N_22
  2  3     2.66840319E-02   # N_23
  2  4     3.96867929E-03   # N_24
  3  1    -9.93776665E-03   # N_31
  3  2     1.60649735E-02   # N_32
  3  3    -7.06847019E-01   # N_33
  3  4     7.07114170E-01   # N_34
  4  1     1.09581115E-02   # N_41
  4  2    -2.16762332E-02   # N_42
  4  3     7.06708415E-01   # N_43
  4  4     7.07087885E-01   # N_44
#
BLOCK UMIX  # Chargino Mixing Matrix U
  1  1     9.99287897E-01   # U_11
  1  2     3.77319406E-02   # U_12
  2  1    -3.77319406E-02   # U_21
  2  2     9.99287897E-01   # U_22
#
BLOCK VMIX  # Chargino Mixing Matrix V
  1  1     9.99984261E-01   # V_11
  1  2    -5.61053194E-03   # V_12
  2  1    -5.61053194E-03   # V_21
  2  2    -9.99984261E-01   # V_22
#
BLOCK STOPMIX  # Stop Mixing Matrix
  1  1     9.98628347E-01   # cos(theta_t)
  1  2    -5.23586150E-02   # sin(theta_t)
  2  1     5.23586150E-02   # -sin(theta_t)
  2  2     9.98628347E-01   # cos(theta_t)
#
BLOCK SBOTMIX  # Sbottom Mixing Matrix
  1  1     9.99728085E-01   # cos(theta_b)
  1  2    -2.33185776E-02   # sin(theta_b)
  2  1     2.33185776E-02   # -sin(theta_b)
  2  2     9.99728085E-01   # cos(theta_b)
#
BLOCK STAUMIX  # Stau Mixing Matrix
  1  1    -7.06936419E-01   # cos(theta_tau)
  1  2     7.07277102E-01   # sin(theta_tau)
  2  1    -7.07277102E-01   # -sin(theta_tau)
  2  2    -7.06936419E-01   # cos(theta_tau)
#
BLOCK ALPHA  # Higgs mixing
          -5.00124174E-02   # Mixing angle in the neutral Higgs boson sector
#
BLOCK HMIX Q=  1.28084678E+03  # DRbar Higgs Parameters
         1    -3.00000000E+03   # mu(Q)MSSM           
         2     2.00000000E+01   # tan                 
         3     2.44391024E+02   # higgs               
         4     1.13863629E+07   # mA^2(Q)MSSM         
#
BLOCK GAUGE Q=  1.28084678E+03  # The gauge couplings
     1     3.61622703E-01   # gprime(Q) DRbar
     2     6.37063229E-01   # g(Q) DRbar
     3     1.02987287E+00   # g3(Q) DRbar
#
BLOCK AU Q=  1.28084678E+03  # The trilinear couplings
  1  1     1.53780924E-06   # A_u(Q) DRbar
  2  2     1.53783198E-06   # A_c(Q) DRbar
  3  3     2.94338000E+03   # A_t(Q) DRbar
#
BLOCK AD Q=  1.28084678E+03  # The trilinear couplings
  1  1     5.52097478E-07   # A_d(Q) DRbar
  2  2     5.52161318E-07   # A_s(Q) DRbar
  3  3     1.12288202E-06   # A_b(Q) DRbar
#
BLOCK AE Q=  1.28084678E+03  # The trilinear couplings
  1  1     2.44805450E-07   # A_e(Q) DRbar
  2  2     2.44817408E-07   # A_mu(Q) DRbar
  3  3     2.48172706E-07   # A_tau(Q) DRbar
#
BLOCK Yu Q=  1.28084678E+03  # The Yukawa couplings
  1  1     0.00000000E+00   # y_u(Q) DRbar
  2  2     0.00000000E+00   # y_c(Q) DRbar
  3  3     8.56619614E-01   # y_t(Q) DRbar
#
BLOCK Yd Q=  1.28084678E+03  # The Yukawa couplings
  1  1     0.00000000E+00   # y_d(Q) DRbar
  2  2     0.00000000E+00   # y_s(Q) DRbar
  3  3     3.91897783E-01   # y_b(Q) DRbar
#
BLOCK Ye Q=  1.28084678E+03  # The Yukawa couplings
  1  1     0.00000000E+00   # y_e(Q) DRbar
  2  2     0.00000000E+00   # y_mu(Q) DRbar
  3  3     2.01545952E-01   # y_tau(Q) DRbar
#
BLOCK MSOFT Q=  1.28084678E+03  # The soft SUSY breaking masses at the scale Q
         1     2.95990000E+02   # M_1(Q)              
         2     5.91990000E+02   # M_2(Q)              
         3     2.20000000E+03   # M_3(Q)              
        21    -5.67892051E+04   # M^2_Hd              
        22    -9.12440893E+06   # M^2_Hu              
        31     3.00000000E+03   # M_eL                
        32     3.00000000E+03   # M_muL               
        33     3.00000000E+03   # M_tauL              
        34     3.00000000E+03   # M_eR                
        35     3.00000000E+03   # M_muR               
        36     3.00000000E+03   # M_tauR              
        41     3.00000000E+03   # M_q1L               
        42     3.00000000E+03   # M_q2L               
        43     5.49899993E+02   # M_q3L               
        44     3.00000000E+03   # M_uR                
        45     3.00000000E+03   # M_cR                
        46     3.00000000E+03   # M_tR                
        47     3.00000000E+03   # M_dR                
        48     3.00000000E+03   # M_sR                
        49     3.00000000E+03   # M_bR                
#
#
#
#                             =================
#                             |The decay table|
#                             =================
#
# - The QCD corrections to the decays gluino -> squark  + quark
#                                     squark -> gaugino + quark_prime
#                                     squark -> squark_prime + Higgs
#                                     squark -> gluino  + quark
#   are included.
#
# - The multi-body decays for the inos, stops and sbottoms are included.
#
# - The loop induced decays for the gluino, neutralinos and stops
#   are included.
#
# - The SUSY decays of the top quark are included.
#
#
#         PDG            Width
DECAY         6     1.40865302E+00   # top decays
#          BR         NDA      ID1       ID2
     1.00000000E+00    2           5        24   # BR(t ->  b    W+)
#
#         PDG            Width
DECAY   1000021     8.02247511E+01   # gluino decays
#          BR         NDA      ID1       ID2
     2.48039526E-01    2     1000005        -5   # BR(~g -> ~b_1  bb)
     2.48039526E-01    2    -1000005         5   # BR(~g -> ~b_1* b )
     2.51960474E-01    2     1000006        -6   # BR(~g -> ~t_1  tb)
     2.51960474E-01    2    -1000006         6   # BR(~g -> ~t_1* t )
#
#         PDG            Width
DECAY   1000006     4.42201138E-02   # stop1 decays
#          BR         NDA      ID1       ID2
     9.03731575E-01    2     1000022         6   # BR(~t_1 -> ~chi_10 t )
     9.62684250E-02    2     1000024         5   # BR(~t_1 -> ~chi_1+ b )
#
#         PDG            Width
DECAY   2000006     1.20874128E+02   # stop2 decays
#          BR         NDA      ID1       ID2
     5.36148139E-02    2     1000022         6   # BR(~t_2 -> ~chi_10 t )
     2.93536902E-04    2     1000023         6   # BR(~t_2 -> ~chi_20 t )
     0.00000000E+00    2     1000025         6   # BR(~t_2 -> ~chi_30 t )
     5.90403955E-04    2     1000024         5   # BR(~t_2 -> ~chi_1+ b )
     3.76272516E-05    2     1000037         5   # BR(~t_2 -> ~chi_2+ b )
     2.89253813E-01    2     1000021         6   # BR(~t_2 -> ~g      t )
     1.72085854E-01    2     1000006        25   # BR(~t_2 -> ~t_1    h )
     1.63213730E-01    2     1000006        23   # BR(~t_2 -> ~t_1    Z )
     3.20910221E-01    2     1000005        24   # BR(~t_2 -> ~b_1    W+)
#
#         PDG            Width
DECAY   1000005     6.37140714E-02   # sbottom1 decays
#          BR         NDA      ID1       ID2
     9.30433111E-01    2     1000022         5   # BR(~b_1 -> ~chi_10 b )
     6.95668885E-02    2     1000023         5   # BR(~b_1 -> ~chi_20 b )
#
#         PDG            Width
DECAY   2000005     5.57557274E+01   # sbottom2 decays
#          BR         NDA      ID1       ID2
     2.92162916E-02    2     1000022         5   # BR(~b_2 -> ~chi_10 b )
     7.27062486E-08    2     1000023         5   # BR(~b_2 -> ~chi_20 b )
     1.07520202E-05    2     1000025         5   # BR(~b_2 -> ~chi_30 b )
     1.01147359E-05    2     1000035         5   # BR(~b_2 -> ~chi_40 b )
    -2.53837757E-08    2    -1000024         6   # BR(~b_2 -> ~chi_1- t )
     6.32028777E-01    2     1000021         5   # BR(~b_2 -> ~g      b )
     7.55416694E-02    2     1000005        25   # BR(~b_2 -> ~b_1    h )
     1.07068767E-01    2     1000005        23   # BR(~b_2 -> ~b_1    Z )
     1.56123581E-01    2     1000006       -24   # BR(~b_2 -> ~t_1    W-)
#
#         PDG            Width
DECAY   1000002     6.80008448E+01   # sup_L decays
#          BR         NDA      ID1       ID2
     6.00588840E-03    2     1000022         2   # BR(~u_L -> ~chi_10 u)
     1.57171032E-01    2     1000023         2   # BR(~u_L -> ~chi_20 u)
     7.37751957E-09    2     1000025         2   # BR(~u_L -> ~chi_30 u)
     1.37683332E-08    2     1000035         2   # BR(~u_L -> ~chi_40 u)
     3.14500564E-01    2     1000024         1   # BR(~u_L -> ~chi_1+ d)
     2.07927501E-09    2     1000037         1   # BR(~u_L -> ~chi_2+ d)
     5.22322492E-01    2     1000021         2   # BR(~u_L -> ~g      u)
#
#         PDG            Width
DECAY   2000002     4.19380054E+01   # sup_R decays
#          BR         NDA      ID1       ID2
     1.55730093E-01    2     1000022         2   # BR(~u_R -> ~chi_10 u)
     2.25559209E-08    2     1000023         2   # BR(~u_R -> ~chi_20 u)
     2.93459188E-09    2     1000025         2   # BR(~u_R -> ~chi_30 u)
     3.48075650E-09    2     1000035         2   # BR(~u_R -> ~chi_40 u)
     8.44269878E-01    2     1000021         2   # BR(~u_R -> ~g      u)
#
#         PDG            Width
DECAY   1000001     6.80530885E+01   # sdown_L decays
#          BR         NDA      ID1       ID2
     6.00266701E-03    2     1000022         1   # BR(~d_L -> ~chi_10 d)
     1.57060485E-01    2     1000023         1   # BR(~d_L -> ~chi_20 d)
     1.28450185E-08    2     1000025         1   # BR(~d_L -> ~chi_30 d)
     2.20064100E-08    2     1000035         1   # BR(~d_L -> ~chi_40 d)
     3.13935223E-01    2    -1000024         2   # BR(~d_L -> ~chi_1- u)
     1.02773341E-07    2    -1000037         2   # BR(~d_L -> ~chi_2- u)
     5.23001487E-01    2     1000021         1   # BR(~d_L -> ~g      d)
#
#         PDG            Width
DECAY   2000001     3.68046042E+01   # sdown_R decays
#          BR         NDA      ID1       ID2
     4.43173241E-02    2     1000022         1   # BR(~d_R -> ~chi_10 d)
     6.41808112E-09    2     1000023         1   # BR(~d_R -> ~chi_20 d)
     6.05805820E-10    2     1000025         1   # BR(~d_R -> ~chi_30 d)
     7.15314373E-10    2     1000035         1   # BR(~d_R -> ~chi_40 d)
     9.55682668E-01    2     1000021         1   # BR(~d_R -> ~g      d)
#
#         PDG            Width
DECAY   1000004     6.80008448E+01   # scharm_L decays
#          BR         NDA      ID1       ID2
     6.00588840E-03    2     1000022         4   # BR(~c_L -> ~chi_10 c)
     1.57171032E-01    2     1000023         4   # BR(~c_L -> ~chi_20 c)
     7.37751957E-09    2     1000025         4   # BR(~c_L -> ~chi_30 c)
     1.37683332E-08    2     1000035         4   # BR(~c_L -> ~chi_40 c)
     3.14500564E-01    2     1000024         3   # BR(~c_L -> ~chi_1+ s)
     2.07927501E-09    2     1000037         3   # BR(~c_L -> ~chi_2+ s)
     5.22322492E-01    2     1000021         4   # BR(~c_L -> ~g      c)
#
#         PDG            Width
DECAY   2000004     4.19380054E+01   # scharm_R decays
#          BR         NDA      ID1       ID2
     1.55730093E-01    2     1000022         4   # BR(~c_R -> ~chi_10 c)
     2.25559209E-08    2     1000023         4   # BR(~c_R -> ~chi_20 c)
     2.93459188E-09    2     1000025         4   # BR(~c_R -> ~chi_30 c)
     3.48075650E-09    2     1000035         4   # BR(~c_R -> ~chi_40 c)
     8.44269878E-01    2     1000021         4   # BR(~c_R -> ~g      c)
#
#         PDG            Width
DECAY   1000003     6.80530885E+01   # sstrange_L decays
#          BR         NDA      ID1       ID2
     6.00266701E-03    2     1000022         3   # BR(~s_L -> ~chi_10 s)
     1.57060485E-01    2     1000023         3   # BR(~s_L -> ~chi_20 s)
     1.28450185E-08    2     1000025         3   # BR(~s_L -> ~chi_30 s)
     2.20064100E-08    2     1000035         3   # BR(~s_L -> ~chi_40 s)
     3.13935223E-01    2    -1000024         4   # BR(~s_L -> ~chi_1- c)
     1.02773341E-07    2    -1000037         4   # BR(~s_L -> ~chi_2- c)
     5.23001487E-01    2     1000021         3   # BR(~s_L -> ~g      s)
#
#         PDG            Width
DECAY   2000003     3.68046042E+01   # sstrange_R decays
#          BR         NDA      ID1       ID2
     4.43173241E-02    2     1000022         3   # BR(~s_R -> ~chi_10 s)
     6.41808112E-09    2     1000023         3   # BR(~s_R -> ~chi_20 s)
     6.05805820E-10    2     1000025         3   # BR(~s_R -> ~chi_30 s)
     7.15314373E-10    2     1000035         3   # BR(~s_R -> ~chi_40 s)
     9.55682668E-01    2     1000021         3   # BR(~s_R -> ~g      s)
#
#         PDG            Width
DECAY   1000011     3.71566061E+01   # selectron_L decays
#          BR         NDA      ID1       ID2
     1.03173056E-01    2     1000022        11   # BR(~e_L -> ~chi_10 e-)
     2.99179180E-01    2     1000023        11   # BR(~e_L -> ~chi_20 e-)
     7.38720611E-11    2     1000025        11   # BR(~e_L -> ~chi_30 e-)
     1.28440591E-10    2     1000035        11   # BR(~e_L -> ~chi_40 e-)
     5.97647764E-01    2    -1000024        12   # BR(~e_L -> ~chi_1- nu_e)
     5.01914062E-10    2    -1000037        12   # BR(~e_L -> ~chi_2- nu_e)
#
#         PDG            Width
DECAY   2000011     1.52981667E+01   # selectron_R decays
#          BR         NDA      ID1       ID2
     9.99999856E-01    2     1000022        11   # BR(~e_R -> ~chi_10 e-)
     1.44360484E-07    2     1000023        11   # BR(~e_R -> ~chi_20 e-)
#
#         PDG            Width
DECAY   1000013     3.71566061E+01   # smuon_L decays
#          BR         NDA      ID1       ID2
     1.03173056E-01    2     1000022        13   # BR(~mu_L -> ~chi_10 mu-)
     2.99179180E-01    2     1000023        13   # BR(~mu_L -> ~chi_20 mu-)
     7.38720611E-11    2     1000025        13   # BR(~mu_L -> ~chi_30 mu-)
     1.28440591E-10    2     1000035        13   # BR(~mu_L -> ~chi_40 mu-)
     5.97647764E-01    2    -1000024        14   # BR(~mu_L -> ~chi_1- nu_mu)
     5.01914062E-10    2    -1000037        14   # BR(~mu_L -> ~chi_2- nu_mu)
#
#         PDG            Width
DECAY   2000013     1.52981667E+01   # smuon_R decays
#          BR         NDA      ID1       ID2
     9.99999856E-01    2     1000022        13   # BR(~mu_R -> ~chi_10 mu-)
     1.44360484E-07    2     1000023        13   # BR(~mu_R -> ~chi_20 mu-)
#
#         PDG            Width
DECAY   1000015     2.64778890E+01   # stau_1 decays
#          BR         NDA      ID1       ID2
     3.61125164E-01    2     1000022        15   # BR(~tau_1 -> ~chi_10  tau-)
     2.13144685E-01    2     1000023        15   # BR(~tau_1 -> ~chi_20  tau-)
     4.25730152E-01    2    -1000024        16   # BR(~tau_1 -> ~chi_1-  nu_tau)
#
#         PDG            Width
DECAY   2000015     2.59587852E+01   # stau_2 decays
#          BR         NDA      ID1       ID2
     3.69332454E-01    2     1000022        15   # BR(~tau_2 -> ~chi_10  tau-)
     2.10406802E-01    2     1000023        15   # BR(~tau_2 -> ~chi_20  tau-)
     7.12511310E-06    2     1000025        15   # BR(~tau_2 -> ~chi_30  tau-)
     5.73052200E-06    2     1000035        15   # BR(~tau_2 -> ~chi_40  tau-)
     4.20241198E-01    2    -1000024        16   # BR(~tau_2 -> ~chi_1-  nu_tau)
     6.69055553E-06    2    -1000037        16   # BR(~tau_2 -> ~chi_2-  nu_tau)
#
#         PDG            Width
DECAY   1000012     3.71575562E+01   # snu_eL decays
#          BR         NDA      ID1       ID2
     1.03117846E-01    2     1000022        12   # BR(~nu_eL -> ~chi_10 nu_e)
     2.98741973E-01    2     1000023        12   # BR(~nu_eL -> ~chi_20 nu_e)
     4.17532127E-11    2     1000025        12   # BR(~nu_eL -> ~chi_30 nu_e)
     3.31353693E-11    2     1000035        12   # BR(~nu_eL -> ~chi_40 nu_e)
     5.98140181E-01    2     1000024        11   # BR(~nu_eL -> ~chi_1+ e-)
#
#         PDG            Width
DECAY   1000014     3.71575562E+01   # snu_muL decays
#          BR         NDA      ID1       ID2
     1.03117846E-01    2     1000022        14   # BR(~nu_muL -> ~chi_10 nu_mu)
     2.98741973E-01    2     1000023        14   # BR(~nu_muL -> ~chi_20 nu_mu)
     4.17532127E-11    2     1000025        14   # BR(~nu_muL -> ~chi_30 nu_mu)
     3.31353693E-11    2     1000035        14   # BR(~nu_muL -> ~chi_40 nu_mu)
     5.98140181E-01    2     1000024        13   # BR(~nu_muL -> ~chi_1+ mu-)
#
#         PDG            Width
DECAY   1000016     3.71664408E+01   # snu_tauL decays
#          BR         NDA      ID1       ID2
     1.03107059E-01    2     1000022        16   # BR(~nu_tauL -> ~chi_10 nu_tau)
     2.98716109E-01    2     1000023        16   # BR(~nu_tauL -> ~chi_20 nu_tau)
     9.34388387E-11    2     1000025        16   # BR(~nu_tauL -> ~chi_30 nu_tau)
     9.75314278E-11    2     1000035        16   # BR(~nu_tauL -> ~chi_40 nu_tau)
     5.98176832E-01    2     1000024        15   # BR(~nu_tauL -> ~chi_1+ tau-)
#
#         PDG            Width
DECAY   1000024     1.04476657E-05   # chargino1+ decays
#          BR         NDA      ID1       ID2
     1.00000000E+00    2     1000022        24   # BR(~chi_1+ -> ~chi_10  W+)
#
#         PDG            Width
DECAY   1000037     9.67312149E+01   # chargino2+ decays
#          BR         NDA      ID1       ID2
     1.41705002E-01    2     1000006        -5   # BR(~chi_2+ -> ~t_1     bb)
     6.66633723E-01    2    -1000005         6   # BR(~chi_2+ -> ~b_1*    t )
     1.39111955E-13    2     1000012       -11   # BR(~chi_2+ -> ~nu_eL   e+  )
     1.39111955E-13    2     1000014       -13   # BR(~chi_2+ -> ~nu_muL  mu+ )
     8.22225808E-07    2    -1000015        16   # BR(~chi_2+ -> ~tau_1+  nu_tau)
     5.73723232E-02    2     1000024        23   # BR(~chi_2+ -> ~chi_1+  Z )
     1.86061027E-02    2     1000022        24   # BR(~chi_2+ -> ~chi_10  W+)
     5.58788722E-02    2     1000023        24   # BR(~chi_2+ -> ~chi_20  W+)
     5.98031540E-02    2     1000024        25   # BR(~chi_2+ -> ~chi_1+  h )
#
#         PDG            Width
DECAY   1000022     0.00000000E+00   # neutralino1 decays
#
#         PDG            Width
DECAY   1000023     1.00647128E-05   # neutralino2 decays
#          BR         NDA      ID1       ID2
     5.89240487E-01    2     1000022        23   # BR(~chi_20 -> ~chi_10   Z )
     4.10759513E-01    2     1000022        25   # BR(~chi_20 -> ~chi_10   h )
#
#         PDG            Width
DECAY   1000025     9.69594018E+01   # neutralino3 decays
#          BR         NDA      ID1       ID2
     1.04621361E-02    2     1000022        23   # BR(~chi_30 -> ~chi_10   Z )
     3.69123180E-02    2     1000023        23   # BR(~chi_30 -> ~chi_20   Z )
     5.57212550E-02    2     1000024       -24   # BR(~chi_30 -> ~chi_1+   W-)
     5.57212550E-02    2    -1000024        24   # BR(~chi_30 -> ~chi_1-   W+)
     8.85957677E-03    2     1000022        25   # BR(~chi_30 -> ~chi_10   h )
     2.05660386E-02    2     1000023        25   # BR(~chi_30 -> ~chi_20   h )
     3.36163370E-01    2     1000006        -6   # BR(~chi_30 -> ~t_1      tb)
     3.36163370E-01    2    -1000006         6   # BR(~chi_30 -> ~t_1*     t )
     6.97143769E-02    2     1000005        -5   # BR(~chi_30 -> ~b_1      bb)
     6.97143769E-02    2    -1000005         5   # BR(~chi_30 -> ~b_1*     b )
     7.41824246E-11    2     2000011       -11   # BR(~chi_30 -> ~e_R-     e+)
     7.41824246E-11    2    -2000011        11   # BR(~chi_30 -> ~e_R+     e-)
     7.41824246E-11    2     2000013       -13   # BR(~chi_30 -> ~mu_R-    mu+)
     7.41824246E-11    2    -2000013        13   # BR(~chi_30 -> ~mu_R+    mu-)
     9.63221559E-07    2     1000015       -15   # BR(~chi_30 -> ~tau_1-   tau+)
     9.63221559E-07    2    -1000015        15   # BR(~chi_30 -> ~tau_1+   tau-)
#
#         PDG            Width
DECAY   1000035     9.59969822E+01   # neutralino4 decays
#          BR         NDA      ID1       ID2
     8.69585533E-03    2     1000022        23   # BR(~chi_40 -> ~chi_10   Z )
     2.05167802E-02    2     1000023        23   # BR(~chi_40 -> ~chi_20   Z )
     5.62985654E-02    2     1000024       -24   # BR(~chi_40 -> ~chi_1+   W-)
     5.62985654E-02    2    -1000024        24   # BR(~chi_40 -> ~chi_1-   W+)
     1.09313796E-02    2     1000022        25   # BR(~chi_40 -> ~chi_10   h )
     3.94881768E-02    2     1000023        25   # BR(~chi_40 -> ~chi_20   h )
     3.33471223E-01    2     1000006        -6   # BR(~chi_40 -> ~t_1      tb)
     3.33471223E-01    2    -1000006         6   # BR(~chi_40 -> ~t_1*     t )
     7.04133080E-02    2     1000005        -5   # BR(~chi_40 -> ~b_1      bb)
     7.04133080E-02    2    -1000005         5   # BR(~chi_40 -> ~b_1*     b )
     1.00874643E-10    2     2000011       -11   # BR(~chi_40 -> ~e_R-     e+)
     1.00874643E-10    2    -2000011        11   # BR(~chi_40 -> ~e_R+     e-)
     1.00874643E-10    2     2000013       -13   # BR(~chi_40 -> ~mu_R-    mu+)
     1.00874643E-10    2    -2000013        13   # BR(~chi_40 -> ~mu_R+    mu-)
     8.07288967E-07    2     1000015       -15   # BR(~chi_40 -> ~tau_1-   tau+)
     8.07288967E-07    2    -1000015        15   # BR(~chi_40 -> ~tau_1+   tau-)
#
#         PDG            Width
DECAY        25     3.71852458E-03   # h decays
#          BR         NDA      ID1       ID2
     5.48014367E-01    2           5        -5   # BR(h -> b       bb     )
     7.02092152E-02    2         -15        15   # BR(h -> tau+    tau-   )
     2.48538591E-04    2         -13        13   # BR(h -> mu+     mu-    )
     5.26819886E-04    2           3        -3   # BR(h -> s       sb     )
     2.28934095E-02    2           4        -4   # BR(h -> c       cb     )
     7.52635001E-02    2          21        21   # BR(h -> g       g      )
     2.60528043E-03    2          22        22   # BR(h -> gam     gam    )
     1.81419448E-03    2          22        23   # BR(h -> Z       gam    )
     2.47096352E-01    2          24       -24   # BR(h -> W+      W-     )
     3.13283228E-02    2          23        23   # BR(h -> Z       Z      )
#
#         PDG            Width
DECAY        35     4.03027280E+01   # H decays
#          BR         NDA      ID1       ID2
     9.07488589E-01    2           5        -5   # BR(H -> b       bb     )
     6.17039915E-02    2         -15        15   # BR(H -> tau+    tau-   )
     2.18170569E-04    2         -13        13   # BR(H -> mu+     mu-    )
     2.67913098E-04    2           3        -3   # BR(H -> s       sb     )
     7.50886670E-08    2           4        -4   # BR(H -> c       cb     )
     7.49058030E-03    2           6        -6   # BR(H -> t       tb     )
     4.95430680E-06    2          21        21   # BR(H -> g       g      )
     5.05072131E-08    2          22        22   # BR(H -> gam     gam    )
     3.07314661E-09    2          23        22   # BR(H -> Z       gam    )
     6.38935994E-07    2          24       -24   # BR(H -> W+      W-     )
     3.19074183E-07    2          23        23   # BR(H -> Z       Z      )
     4.99193674E-06    2          25        25   # BR(H -> h       h      )
    -1.12078503E-24    2          36        36   # BR(H -> A       A      )
     3.87953917E-18    2          23        36   # BR(H -> Z       A      )
     6.85296480E-04    2     1000024  -1000024   # BR(H -> ~chi_1+ ~chi_1-)
     3.72479860E-05    2     1000022   1000022   # BR(H -> ~chi_10 ~chi_10)
     3.42414758E-04    2     1000023   1000023   # BR(H -> ~chi_20 ~chi_20)
     2.29950273E-04    2     1000022   1000023   # BR(H -> ~chi_10 ~chi_20)
     2.15195943E-02    2     1000006  -1000006   # BR(H -> ~t_1    ~t_1*  )
     5.21848911E-06    2     1000005  -1000005   # BR(H -> ~b_1    ~b_1*  )
#
#         PDG            Width
DECAY        36     3.94452250E+01   # A decays
#          BR         NDA      ID1       ID2
     9.27212896E-01    2           5        -5   # BR(A -> b       bb     )
     6.30422052E-02    2         -15        15   # BR(A -> tau+    tau-   )
     2.22901861E-04    2         -13        13   # BR(A -> mu+     mu-    )
     2.73769771E-04    2           3        -3   # BR(A -> s       sb     )
     7.72539489E-08    2           4        -4   # BR(A -> c       cb     )
     7.70233577E-03    2           6        -6   # BR(A -> t       tb     )
     2.26826417E-05    2          21        21   # BR(A -> g       g      )
     6.05768063E-08    2          22        22   # BR(A -> gam     gam    )
     2.23514402E-08    2          23        22   # BR(A -> Z       gam    )
     6.50261971E-07    2          23        25   # BR(A -> Z       h      )
     8.21354343E-04    2     1000024  -1000024   # BR(A -> ~chi_1+ ~chi_1-)
     3.92473458E-05    2     1000022   1000022   # BR(A -> ~chi_10 ~chi_10)
     4.10342723E-04    2     1000023   1000023   # BR(A -> ~chi_20 ~chi_20)
     2.51453713E-04    2     1000022   1000023   # BR(A -> ~chi_10 ~chi_20)
#
#         PDG            Width
DECAY        37     4.31169841E+01   # H+ decays
#          BR         NDA      ID1       ID2
     1.47830080E-03    2           4        -5   # BR(H+ -> c       bb     )
     5.76947561E-02    2         -15        16   # BR(H+ -> tau+    nu_tau )
     2.03994585E-04    2         -13        14   # BR(H+ -> mu+     nu_mu  )
     9.46111358E-06    2           2        -5   # BR(H+ -> u       bb     )
     1.19882367E-05    2           2        -3   # BR(H+ -> u       sb     )
     2.46636579E-04    2           4        -3   # BR(H+ -> c       sb     )
     9.29510495E-01    2           6        -5   # BR(H+ -> t       bb     )
     5.95913136E-07    2          24        25   # BR(H+ -> W+      h      )
     4.86381258E-14    2          24        36   # BR(H+ -> W+      A      )
     4.45030513E-04    2     1000024   1000022   # BR(H+ -> ~chi_1+ ~chi_10)
     6.35285393E-11    2     1000024   1000023   # BR(H+ -> ~chi_1+ ~chi_20)
     1.03987412E-02    2     1000006  -1000005   # BR(H+ -> ~t_1    ~b_1*  )
