#
#                              ======================
#                              | THE SUSYHIT OUTPUT |
#                              ======================
#
#
#              ------------------------------------------------------
#              |     This is the output of the SUSY-HIT package     |
#              |  created by A.Djouadi, M.Muehlleitner and M.Spira. |
#              |  In case of problems with SUSY-HIT email to        |
#              |           margarete.muehlleitner@kit.edu           |
#              |           michael.spira@psi.ch                     |
#              |           abdelhak.djouadi@cern.ch                 |
#              ------------------------------------------------------
#
#              ------------------------------------------------------
#              |  SUSY Les Houches Accord - MSSM Spectrum + Decays  |
#              |              based on the decay programs           |
#              |                                                    |
#              |                     SDECAY 1.5                     |
#              |                                                    |
#              |  Authors: M.Muhlleitner, A.Djouadi and Y.Mambrini  |
#              |  Ref.:    Comput.Phys.Commun.168(2005)46           |
#              |           [hep-ph/0311167]                         |
#              |                                                    |
#              |                     HDECAY 3.4                     |
#              |                                                    |
#              |  By: A.Djouadi,J.Kalinowski,M.Muhlleitner,M.Spira  |
#              |  Ref.:    Comput.Phys.Commun.108(1998)56           |
#              |           [hep-ph/9704448]                         |
#              |                                                    |
#              |                                                    |
#              |  If not stated otherwise all DRbar couplings and   |
#              |  soft SUSY breaking masses are given at the scale  |
#              |  Q=  0.15954492E+04
#              |                                                    |
#              ------------------------------------------------------
#
#
BLOCK DCINFO  # Decay Program information
     1   SDECAY/HDECAY # decay calculator
     2   1.5  /3.4    # version number
#
BLOCK SPINFO  # Spectrum calculator information
     1    SOFTSUSY    # spectrum calculator                
     2    3.7.3       # version number                     
#
BLOCK MODSEL  # Model selection
     1     0   #  nonUniversal                                     
#
BLOCK SMINPUTS  # Standard Model inputs
         1     1.27934000E+02   # alpha_em^-1(M_Z)^MSbar
         2     1.16639000E-05   # G_F [GeV^-2]
         3     1.17200000E-01   # alpha_S(M_Z)^MSbar
         4     9.11870000E+01   # M_Z pole mass
         5     4.19000000E+00   # mb(mb)^MSbar
         6     1.72500000E+02   # mt pole mass
         7     1.77690000E+00   # mtau pole mass
#
BLOCK MINPAR  # Input parameters - minimal models
         3     2.00000000E+01   # tanb                
#
BLOCK EXTPAR  # Input parameters - non-minimal models
         0    -1.00000000E+00   # Set                 
         1     9.99000000E+01   # M_1(MX)             
         2     1.99900000E+02   # M_2(MX)             
         3     2.20000000E+03   # M_3(MX)             
        11     2.94338000E+03   # At(MX)              
        12     0.00000000E+00   # Ab(MX)              
        13     0.00000000E+00   # Atau(MX)            
        23    -3.00000000E+03   # mu(MX)              
        25     2.00000000E+01   # tan                 
        26     3.00000000E+03   # mA(pole)            
        31     3.00000000E+03   # meL(MX)             
        32     3.00000000E+03   # mmuL(MX)            
        33     3.00000000E+03   # mtauL(MX)           
        34     3.00000000E+03   # meR(MX)             
        35     3.00000000E+03   # mmuR(MX)            
        36     3.00000000E+03   # mtauR(MX)           
        41     3.00000000E+03   # mqL1(MX)            
        42     3.00000000E+03   # mqL2(MX)            
        43     8.49900000E+02   # mqL3(MX)            
        44     3.00000000E+03   # muR(MX)             
        45     3.00000000E+03   # mcR(MX)             
        46     3.00000000E+03   # mtR(MX)             
        47     3.00000000E+03   # mdR(MX)             
        48     3.00000000E+03   # msR(MX)             
        49     3.00000000E+03   # mbR(MX)             
#
BLOCK MASS  # Mass Spectrum
# PDG code           mass       particle
        24     8.03947233E+01   # W+
        25     1.25192808E+02   # h
        35     3.00004471E+03   # H
        36     2.99999991E+03   # A
        37     3.00109622E+03   # H+
         5     4.81337004E+00   # b-quark pole mass calculated from mb(mb)_Msbar
   1000001     3.03884056E+03   # ~d_L
   2000001     3.03358599E+03   # ~d_R
   1000002     3.03792500E+03   # ~u_L
   2000002     3.03517803E+03   # ~u_R
   1000003     3.03884056E+03   # ~s_L
   2000003     3.03358599E+03   # ~s_R
   1000004     3.03792500E+03   # ~c_L
   2000004     3.03517803E+03   # ~c_R
   1000005     9.45553425E+02   # ~b_1
   2000005     3.03153741E+03   # ~b_2
   1000006     9.43381214E+02   # ~t_1
   2000006     3.02366561E+03   # ~t_2
   1000011     3.00661163E+03   # ~e_L
   2000011     3.00156492E+03   # ~e_R
   1000012     3.00521375E+03   # ~nu_eL
   1000013     3.00661163E+03   # ~mu_L
   2000013     3.00156492E+03   # ~mu_R
   1000014     3.00521375E+03   # ~nu_muL
   1000015     2.98602161E+03   # ~tau_1
   2000015     3.02189854E+03   # ~tau_2
   1000016     3.00515320E+03   # ~nu_tauL
   1000021     2.34804046E+03   # ~g
   1000022     1.00831387E+02   # ~chi_10
   1000023     2.17413933E+02   # ~chi_20
   1000025    -2.99689843E+03   # ~chi_30
   1000035     2.99697031E+03   # ~chi_40
   1000024     2.17573813E+02   # ~chi_1+
   1000037     2.99787161E+03   # ~chi_2+
#
BLOCK NMIX  # Neutralino Mixing Matrix
  1  1     9.99891845E-01   # N_11
  1  2     7.63989238E-04   # N_12
  1  3    -1.46851496E-02   # N_13
  1  4     2.45439107E-04   # N_14
  2  1    -3.81938015E-04   # N_21
  2  2     9.99661551E-01   # N_22
  2  3     2.60086312E-02   # N_23
  2  4     4.34644088E-04   # N_24
  3  1     1.02209932E-02   # N_31
  3  2    -1.86921284E-02   # N_32
  3  3     7.06779344E-01   # N_33
  3  4     7.07113212E-01   # N_34
  4  1    -1.05680159E-02   # N_41
  4  2     1.80777306E-02   # N_42
  4  3    -7.06803265E-01   # N_43
  4  4     7.07100174E-01   # N_44
#
BLOCK UMIX  # Chargino Mixing Matrix U
  1  1     9.99324075E-01   # U_11
  1  2     3.67613044E-02   # U_12
  2  1    -3.67613044E-02   # U_21
  2  2     9.99324075E-01   # U_22
#
BLOCK VMIX  # Chargino Mixing Matrix V
  1  1     9.99999812E-01   # V_11
  1  2    -6.13092462E-04   # V_12
  2  1    -6.13092462E-04   # V_21
  2  2    -9.99999812E-01   # V_22
#
BLOCK STOPMIX  # Stop Mixing Matrix
  1  1     9.98510023E-01   # cos(theta_t)
  1  2    -5.45686171E-02   # sin(theta_t)
  2  1     5.45686171E-02   # -sin(theta_t)
  2  2     9.98510023E-01   # cos(theta_t)
#
BLOCK SBOTMIX  # Sbottom Mixing Matrix
  1  1     9.99705190E-01   # cos(theta_b)
  1  2    -2.42803025E-02   # sin(theta_b)
  2  1     2.42803025E-02   # -sin(theta_b)
  2  2     9.99705190E-01   # cos(theta_b)
#
BLOCK STAUMIX  # Stau Mixing Matrix
  1  1    -7.06914005E-01   # cos(theta_tau)
  1  2     7.07299505E-01   # sin(theta_tau)
  2  1    -7.07299505E-01   # -sin(theta_tau)
  2  2    -7.06914005E-01   # cos(theta_tau)
#
BLOCK ALPHA  # Higgs mixing
          -5.00172059E-02   # Mixing angle in the neutral Higgs boson sector
#
BLOCK HMIX Q=  1.59544917E+03  # DRbar Higgs Parameters
         1    -3.00000000E+03   # mu(Q)MSSM           
         2     2.00000000E+01   # tan                 
         3     2.43957710E+02   # higgs               
         4     1.03298796E+07   # mA^2(Q)MSSM         
#
BLOCK GAUGE Q=  1.59544917E+03  # The gauge couplings
     1     3.62353383E-01   # gprime(Q) DRbar
     2     6.39831180E-01   # g(Q) DRbar
     3     1.02495313E+00   # g3(Q) DRbar
#
BLOCK AU Q=  1.59544917E+03  # The trilinear couplings
  1  1     2.41845067E-06   # A_u(Q) DRbar
  2  2     2.41848830E-06   # A_c(Q) DRbar
  3  3     2.94338000E+03   # A_t(Q) DRbar
#
BLOCK AD Q=  1.59544917E+03  # The trilinear couplings
  1  1     8.40084140E-07   # A_d(Q) DRbar
  2  2     8.40188321E-07   # A_s(Q) DRbar
  3  3     1.76088045E-06   # A_b(Q) DRbar
#
BLOCK AE Q=  1.59544917E+03  # The trilinear couplings
  1  1     3.90071484E-07   # A_e(Q) DRbar
  2  2     3.90091089E-07   # A_mu(Q) DRbar
  3  3     3.95688826E-07   # A_tau(Q) DRbar
#
BLOCK Yu Q=  1.59544917E+03  # The Yukawa couplings
  1  1     0.00000000E+00   # y_u(Q) DRbar
  2  2     0.00000000E+00   # y_c(Q) DRbar
  3  3     8.51492966E-01   # y_t(Q) DRbar
#
BLOCK Yd Q=  1.59544917E+03  # The Yukawa couplings
  1  1     0.00000000E+00   # y_d(Q) DRbar
  2  2     0.00000000E+00   # y_s(Q) DRbar
  3  3     3.89068637E-01   # y_b(Q) DRbar
#
BLOCK Ye Q=  1.59544917E+03  # The Yukawa couplings
  1  1     0.00000000E+00   # y_e(Q) DRbar
  2  2     0.00000000E+00   # y_mu(Q) DRbar
  3  3     2.03377699E-01   # y_tau(Q) DRbar
#
BLOCK MSOFT Q=  1.59544917E+03  # The soft SUSY breaking masses at the scale Q
         1     9.99000000E+01   # M_1(Q)              
         2     1.99900000E+02   # M_2(Q)              
         3     2.20000000E+03   # M_3(Q)              
        21    -3.64772343E+04   # M^2_Hd              
        22    -9.04660924E+06   # M^2_Hu              
        31     3.00000000E+03   # M_eL                
        32     3.00000000E+03   # M_muL               
        33     3.00000000E+03   # M_tauL              
        34     3.00000000E+03   # M_eR                
        35     3.00000000E+03   # M_muR               
        36     3.00000000E+03   # M_tauR              
        41     3.00000000E+03   # M_q1L               
        42     3.00000000E+03   # M_q2L               
        43     8.49899993E+02   # M_q3L               
        44     3.00000000E+03   # M_uR                
        45     3.00000000E+03   # M_cR                
        46     3.00000000E+03   # M_tR                
        47     3.00000000E+03   # M_dR                
        48     3.00000000E+03   # M_sR                
        49     3.00000000E+03   # M_bR                
#
#
#
#                             =================
#                             |The decay table|
#                             =================
#
# - The QCD corrections to the decays gluino -> squark  + quark
#                                     squark -> gaugino + quark_prime
#                                     squark -> squark_prime + Higgs
#                                     squark -> gluino  + quark
#   are included.
#
# - The multi-body decays for the inos, stops and sbottoms are included.
#
# - The loop induced decays for the gluino, neutralinos and stops
#   are included.
#
# - The SUSY decays of the top quark are included.
#
#
#         PDG            Width
DECAY         6     1.42128368E+00   # top decays
#          BR         NDA      ID1       ID2
     1.00000000E+00    2           5        24   # BR(t ->  b    W+)
#
#         PDG            Width
DECAY   1000021     6.69859912E+01   # gluino decays
#          BR         NDA      ID1       ID2
     2.47951563E-01    2     1000005        -5   # BR(~g -> ~b_1  bb)
     2.47951563E-01    2    -1000005         5   # BR(~g -> ~b_1* b )
     2.52048437E-01    2     1000006        -6   # BR(~g -> ~t_1  tb)
     2.52048437E-01    2    -1000006         6   # BR(~g -> ~t_1* t )
#
#         PDG            Width
DECAY   1000006     1.04808603E+01   # stop1 decays
#          BR         NDA      ID1       ID2
     1.27512929E-02    2     1000022         6   # BR(~t_1 -> ~chi_10 t )
     3.14310583E-01    2     1000023         6   # BR(~t_1 -> ~chi_20 t )
     6.72938124E-01    2     1000024         5   # BR(~t_1 -> ~chi_1+ b )
#
#         PDG            Width
DECAY   2000006     1.14438187E+02   # stop2 decays
#          BR         NDA      ID1       ID2
     5.78169946E-02    2     1000022         6   # BR(~t_2 -> ~chi_10 t )
     2.73667082E-04    2     1000023         6   # BR(~t_2 -> ~chi_20 t )
     0.00000000E+00    2     1000025         6   # BR(~t_2 -> ~chi_30 t )
     5.50661018E-04    2     1000024         5   # BR(~t_2 -> ~chi_1+ b )
     1.18388756E-04    2     1000037         5   # BR(~t_2 -> ~chi_2+ b )
     2.96747630E-01    2     1000021         6   # BR(~t_2 -> ~g      t )
     1.67416122E-01    2     1000006        25   # BR(~t_2 -> ~t_1    h )
     1.61043439E-01    2     1000006        23   # BR(~t_2 -> ~t_1    Z )
     3.16033097E-01    2     1000005        24   # BR(~t_2 -> ~b_1    W+)
#
#         PDG            Width
DECAY   1000005     1.03093631E+01   # sbottom1 decays
#          BR         NDA      ID1       ID2
     1.34355470E-02    2     1000022         5   # BR(~b_1 -> ~chi_10 b )
     3.43947493E-01    2     1000023         5   # BR(~b_1 -> ~chi_20 b )
     6.42616960E-01    2    -1000024         6   # BR(~b_1 -> ~chi_1- t )
#
#         PDG            Width
DECAY   2000005     5.43634338E+01   # sbottom2 decays
#          BR         NDA      ID1       ID2
     3.06771637E-02    2     1000022         5   # BR(~b_2 -> ~chi_10 b )
     2.90728299E-07    2     1000023         5   # BR(~b_2 -> ~chi_20 b )
     4.64622483E-05    2     1000025         5   # BR(~b_2 -> ~chi_30 b )
     4.55857828E-05    2     1000035         5   # BR(~b_2 -> ~chi_40 b )
     5.12676389E-07    2    -1000024         6   # BR(~b_2 -> ~chi_1- t )
     6.39734313E-01    2     1000021         5   # BR(~b_2 -> ~g      b )
     7.27978732E-02    2     1000005        25   # BR(~b_2 -> ~b_1    h )
     1.04564923E-01    2     1000005        23   # BR(~b_2 -> ~b_1    Z )
     1.52132875E-01    2     1000006       -24   # BR(~b_2 -> ~t_1    W-)
#
#         PDG            Width
DECAY   1000002     7.06700406E+01   # sup_L decays
#          BR         NDA      ID1       ID2
     5.97044929E-03    2     1000022         2   # BR(~u_L -> ~chi_10 u)
     1.64910984E-01    2     1000023         2   # BR(~u_L -> ~chi_20 u)
     3.87881351E-08    2     1000025         2   # BR(~u_L -> ~chi_30 u)
     3.55840420E-08    2     1000035         2   # BR(~u_L -> ~chi_40 u)
     3.30088236E-01    2     1000024         1   # BR(~u_L -> ~chi_1+ d)
     9.90495998E-11    2     1000037         1   # BR(~u_L -> ~chi_2+ d)
     4.99030257E-01    2     1000021         2   # BR(~u_L -> ~g      u)
#
#         PDG            Width
DECAY   2000002     4.17358441E+01   # sup_R decays
#          BR         NDA      ID1       ID2
     1.60301987E-01    2     1000022         2   # BR(~u_R -> ~chi_10 u)
     2.32229756E-08    2     1000023         2   # BR(~u_R -> ~chi_20 u)
     1.21804970E-08    2     1000025         2   # BR(~u_R -> ~chi_30 u)
     1.29741917E-08    2     1000035         2   # BR(~u_R -> ~chi_40 u)
     8.39697965E-01    2     1000021         2   # BR(~u_R -> ~g      u)
#
#         PDG            Width
DECAY   1000001     7.07200361E+01   # sdown_L decays
#          BR         NDA      ID1       ID2
     5.87223911E-03    2     1000022         1   # BR(~d_L -> ~chi_10 d)
     1.64894001E-01    2     1000023         1   # BR(~d_L -> ~chi_20 d)
     6.12116680E-08    2     1000025         1   # BR(~d_L -> ~chi_30 d)
     5.78036937E-08    2     1000035         1   # BR(~d_L -> ~chi_40 d)
     3.29513257E-01    2    -1000024         2   # BR(~d_L -> ~chi_1- u)
     3.71713878E-07    2    -1000037         2   # BR(~d_L -> ~chi_2- u)
     4.99720012E-01    2     1000021         1   # BR(~d_L -> ~g      d)
#
#         PDG            Width
DECAY   2000001     3.65892631E+01   # sdown_R decays
#          BR         NDA      ID1       ID2
     4.56876868E-02    2     1000022         1   # BR(~d_R -> ~chi_10 d)
     6.61873043E-09    2     1000023         1   # BR(~d_R -> ~chi_20 d)
     3.19992999E-09    2     1000025         1   # BR(~d_R -> ~chi_30 d)
     3.40789717E-09    2     1000035         1   # BR(~d_R -> ~chi_40 d)
     9.54312300E-01    2     1000021         1   # BR(~d_R -> ~g      d)
#
#         PDG            Width
DECAY   1000004     7.06700406E+01   # scharm_L decays
#          BR         NDA      ID1       ID2
     5.97044929E-03    2     1000022         4   # BR(~c_L -> ~chi_10 c)
     1.64910984E-01    2     1000023         4   # BR(~c_L -> ~chi_20 c)
     3.87881351E-08    2     1000025         4   # BR(~c_L -> ~chi_30 c)
     3.55840420E-08    2     1000035         4   # BR(~c_L -> ~chi_40 c)
     3.30088236E-01    2     1000024         3   # BR(~c_L -> ~chi_1+ s)
     9.90495998E-11    2     1000037         3   # BR(~c_L -> ~chi_2+ s)
     4.99030257E-01    2     1000021         4   # BR(~c_L -> ~g      c)
#
#         PDG            Width
DECAY   2000004     4.17358441E+01   # scharm_R decays
#          BR         NDA      ID1       ID2
     1.60301987E-01    2     1000022         4   # BR(~c_R -> ~chi_10 c)
     2.32229756E-08    2     1000023         4   # BR(~c_R -> ~chi_20 c)
     1.21804970E-08    2     1000025         4   # BR(~c_R -> ~chi_30 c)
     1.29741917E-08    2     1000035         4   # BR(~c_R -> ~chi_40 c)
     8.39697965E-01    2     1000021         4   # BR(~c_R -> ~g      c)
#
#         PDG            Width
DECAY   1000003     7.07200361E+01   # sstrange_L decays
#          BR         NDA      ID1       ID2
     5.87223911E-03    2     1000022         3   # BR(~s_L -> ~chi_10 s)
     1.64894001E-01    2     1000023         3   # BR(~s_L -> ~chi_20 s)
     6.12116680E-08    2     1000025         3   # BR(~s_L -> ~chi_30 s)
     5.78036937E-08    2     1000035         3   # BR(~s_L -> ~chi_40 s)
     3.29513257E-01    2    -1000024         4   # BR(~s_L -> ~chi_1- c)
     3.71713878E-07    2    -1000037         4   # BR(~s_L -> ~chi_2- c)
     4.99720012E-01    2     1000021         3   # BR(~s_L -> ~g      s)
#
#         PDG            Width
DECAY   2000003     3.65892631E+01   # sstrange_R decays
#          BR         NDA      ID1       ID2
     4.56876868E-02    2     1000022         3   # BR(~s_R -> ~chi_10 s)
     6.61873043E-09    2     1000023         3   # BR(~s_R -> ~chi_20 s)
     3.19992999E-09    2     1000025         3   # BR(~s_R -> ~chi_30 s)
     3.40789717E-09    2     1000035         3   # BR(~s_R -> ~chi_40 s)
     9.54312300E-01    2     1000021         3   # BR(~s_R -> ~g      s)
#
#         PDG            Width
DECAY   1000011     4.02287744E+01   # selectron_L decays
#          BR         NDA      ID1       ID2
     9.76348825E-02    2     1000022        11   # BR(~e_L -> ~chi_10 e-)
     3.00840093E-01    2     1000023        11   # BR(~e_L -> ~chi_20 e-)
     2.10875629E-09    2     1000025        11   # BR(~e_L -> ~chi_30 e-)
     1.82477164E-09    2     1000035        11   # BR(~e_L -> ~chi_40 e-)
     6.01524993E-01    2    -1000024        12   # BR(~e_L -> ~chi_1- nu_e)
     2.77236302E-08    2    -1000037        12   # BR(~e_L -> ~chi_2- nu_e)
#
#         PDG            Width
DECAY   2000011     1.56422022E+01   # selectron_R decays
#          BR         NDA      ID1       ID2
     9.99999853E-01    2     1000022        11   # BR(~e_R -> ~chi_10 e-)
     1.44707570E-07    2     1000023        11   # BR(~e_R -> ~chi_20 e-)
     1.01095206E-09    2     1000025        11   # BR(~e_R -> ~chi_30 e-)
     1.04775155E-09    2     1000035        11   # BR(~e_R -> ~chi_40 e-)
#
#         PDG            Width
DECAY   1000013     4.02287744E+01   # smuon_L decays
#          BR         NDA      ID1       ID2
     9.76348825E-02    2     1000022        13   # BR(~mu_L -> ~chi_10 mu-)
     3.00840093E-01    2     1000023        13   # BR(~mu_L -> ~chi_20 mu-)
     2.10875629E-09    2     1000025        13   # BR(~mu_L -> ~chi_30 mu-)
     1.82477164E-09    2     1000035        13   # BR(~mu_L -> ~chi_40 mu-)
     6.01524993E-01    2    -1000024        14   # BR(~mu_L -> ~chi_1- nu_mu)
     2.77236302E-08    2    -1000037        14   # BR(~mu_L -> ~chi_2- nu_mu)
#
#         PDG            Width
DECAY   2000013     1.56422022E+01   # smuon_R decays
#          BR         NDA      ID1       ID2
     9.99999853E-01    2     1000022        13   # BR(~mu_R -> ~chi_10 mu-)
     1.44707570E-07    2     1000023        13   # BR(~mu_R -> ~chi_20 mu-)
     1.01095206E-09    2     1000025        13   # BR(~mu_R -> ~chi_30 mu-)
     1.04775155E-09    2     1000035        13   # BR(~mu_R -> ~chi_40 mu-)
#
#         PDG            Width
DECAY   1000015     2.82181362E+01   # stau_1 decays
#          BR         NDA      ID1       ID2
     3.46566111E-01    2     1000022        15   # BR(~tau_1 -> ~chi_10  tau-)
     2.17871327E-01    2     1000023        15   # BR(~tau_1 -> ~chi_20  tau-)
     4.35562562E-01    2    -1000024        16   # BR(~tau_1 -> ~chi_1-  nu_tau)
#
#         PDG            Width
DECAY   2000015     2.76323483E+01   # stau_2 decays
#          BR         NDA      ID1       ID2
     3.54656938E-01    2     1000022        15   # BR(~tau_2 -> ~chi_10  tau-)
     2.15155260E-01    2     1000023        15   # BR(~tau_2 -> ~chi_20  tau-)
     1.40597902E-05    2     1000025        15   # BR(~tau_2 -> ~chi_30  tau-)
     1.21137667E-05    2     1000035        15   # BR(~tau_2 -> ~chi_40  tau-)
     4.30147602E-01    2    -1000024        16   # BR(~tau_2 -> ~chi_1-  nu_tau)
     1.40264937E-05    2    -1000037        16   # BR(~tau_2 -> ~chi_2-  nu_tau)
#
#         PDG            Width
DECAY   1000012     4.02317721E+01   # snu_eL decays
#          BR         NDA      ID1       ID2
     9.70568111E-02    2     1000022        12   # BR(~nu_eL -> ~chi_10 nu_e)
     3.00935221E-01    2     1000023        12   # BR(~nu_eL -> ~chi_20 nu_e)
     5.56729344E-09    2     1000025        12   # BR(~nu_eL -> ~chi_30 nu_e)
     5.28639007E-09    2     1000035        12   # BR(~nu_eL -> ~chi_40 nu_e)
     6.02007957E-01    2     1000024        11   # BR(~nu_eL -> ~chi_1+ e-)
     5.44643085E-12    2     1000037        11   # BR(~nu_eL -> ~chi_2+ e-)
#
#         PDG            Width
DECAY   1000014     4.02317721E+01   # snu_muL decays
#          BR         NDA      ID1       ID2
     9.70568111E-02    2     1000022        14   # BR(~nu_muL -> ~chi_10 nu_mu)
     3.00935221E-01    2     1000023        14   # BR(~nu_muL -> ~chi_20 nu_mu)
     5.56729344E-09    2     1000025        14   # BR(~nu_muL -> ~chi_30 nu_mu)
     5.28639007E-09    2     1000035        14   # BR(~nu_muL -> ~chi_40 nu_mu)
     6.02007957E-01    2     1000024        13   # BR(~nu_muL -> ~chi_1+ mu-)
     5.44643085E-12    2     1000037        13   # BR(~nu_muL -> ~chi_2+ mu-)
#
#         PDG            Width
DECAY   1000016     4.02343402E+01   # snu_tauL decays
#          BR         NDA      ID1       ID2
     9.70486518E-02    2     1000022        16   # BR(~nu_tauL -> ~chi_10 nu_tau)
     3.00909822E-01    2     1000023        16   # BR(~nu_tauL -> ~chi_20 nu_tau)
     5.48638020E-09    2     1000025        16   # BR(~nu_tauL -> ~chi_30 nu_tau)
     5.20889299E-09    2     1000035        16   # BR(~nu_tauL -> ~chi_40 nu_tau)
     6.02040122E-01    2     1000024        15   # BR(~nu_tauL -> ~chi_1+ tau-)
     1.39307663E-06    2     1000037        15   # BR(~nu_tauL -> ~chi_2+ tau-)
#
#         PDG            Width
DECAY   1000024     1.15175619E-06   # chargino1+ decays
#          BR         NDA      ID1       ID2
     1.00000000E+00    2     1000022        24   # BR(~chi_1+ -> ~chi_10  W+)
#
#         PDG            Width
DECAY   1000037     8.94190044E+01   # chargino2+ decays
#          BR         NDA      ID1       ID2
     1.37179796E-01    2     1000006        -5   # BR(~chi_2+ -> ~t_1     bb)
     6.47568773E-01    2    -1000005         6   # BR(~chi_2+ -> ~b_1*    t )
     3.35500544E-07    2    -1000015        16   # BR(~chi_2+ -> ~tau_1+  nu_tau)
     6.47373089E-02    2     1000024        23   # BR(~chi_2+ -> ~chi_1+  Z )
     2.04889202E-02    2     1000022        24   # BR(~chi_2+ -> ~chi_10  W+)
     6.30764452E-02    2     1000023        24   # BR(~chi_2+ -> ~chi_20  W+)
     6.69484210E-02    2     1000024        25   # BR(~chi_2+ -> ~chi_1+  h )
#
#         PDG            Width
DECAY   1000022     0.00000000E+00   # neutralino1 decays
#
#         PDG            Width
DECAY   1000023     2.85816194E-07   # neutralino2 decays
#          BR         NDA      ID1       ID2
     1.00000000E+00    2     1000022        23   # BR(~chi_20 -> ~chi_10   Z )
#
#         PDG            Width
DECAY   1000025     8.94268482E+01   # neutralino3 decays
#          BR         NDA      ID1       ID2
     1.08010529E-02    2     1000022        23   # BR(~chi_30 -> ~chi_10   Z )
     3.12896337E-02    2     1000023        23   # BR(~chi_30 -> ~chi_20   Z )
     6.31129466E-02    2     1000024       -24   # BR(~chi_30 -> ~chi_1+   W-)
     6.31129466E-02    2    -1000024        24   # BR(~chi_30 -> ~chi_1-   W+)
     9.12937121E-03    2     1000022        25   # BR(~chi_30 -> ~chi_10   h )
     2.61741399E-02    2     1000023        25   # BR(~chi_30 -> ~chi_20   h )
     3.30493308E-01    2     1000006        -6   # BR(~chi_30 -> ~t_1      tb)
     3.30493308E-01    2    -1000006         6   # BR(~chi_30 -> ~t_1*     t )
     6.76962632E-02    2     1000005        -5   # BR(~chi_30 -> ~b_1      bb)
     6.76962632E-02    2    -1000005         5   # BR(~chi_30 -> ~b_1*     b )
     3.83767862E-07    2     1000015       -15   # BR(~chi_30 -> ~tau_1-   tau+)
     3.83767862E-07    2    -1000015        15   # BR(~chi_30 -> ~tau_1+   tau-)
#
#         PDG            Width
DECAY   1000035     8.97841775E+01   # neutralino4 decays
#          BR         NDA      ID1       ID2
     1.00671753E-02    2     1000022        23   # BR(~chi_40 -> ~chi_10   Z )
     3.33525888E-02    2     1000023        23   # BR(~chi_40 -> ~chi_20   Z )
     6.28574010E-02    2     1000024       -24   # BR(~chi_40 -> ~chi_1+   W-)
     6.28574010E-02    2    -1000024        24   # BR(~chi_40 -> ~chi_1-   W+)
     1.27106108E-02    2     1000022        25   # BR(~chi_40 -> ~chi_10   h )
     4.26134988E-02    2     1000023        25   # BR(~chi_40 -> ~chi_20   h )
     3.20330852E-01    2     1000006        -6   # BR(~chi_40 -> ~t_1      tb)
     3.20330852E-01    2    -1000006         6   # BR(~chi_40 -> ~t_1*     t )
     6.74395313E-02    2     1000005        -5   # BR(~chi_40 -> ~b_1      bb)
     6.74395313E-02    2    -1000005         5   # BR(~chi_40 -> ~b_1*     b )
     2.79161612E-07    2     1000015       -15   # BR(~chi_40 -> ~tau_1-   tau+)
     2.79161612E-07    2    -1000015        15   # BR(~chi_40 -> ~tau_1+   tau-)
#
#         PDG            Width
DECAY        25     3.65923280E-03   # h decays
#          BR         NDA      ID1       ID2
     5.62207562E-01    2           5        -5   # BR(h -> b       bb     )
     7.09790419E-02    2         -15        15   # BR(h -> tau+    tau-   )
     2.51266977E-04    2         -13        13   # BR(h -> mu+     mu-    )
     5.33156315E-04    2           3        -3   # BR(h -> s       sb     )
     2.31644347E-02    2           4        -4   # BR(h -> c       cb     )
     7.54549435E-02    2          21        21   # BR(h -> g       g      )
     2.58703392E-03    2          22        22   # BR(h -> gam     gam    )
     1.73696123E-03    2          22        23   # BR(h -> Z       gam    )
     2.33785762E-01    2          24       -24   # BR(h -> W+      W-     )
     2.92998369E-02    2          23        23   # BR(h -> Z       Z      )
#
#         PDG            Width
DECAY        35     3.59112391E+01   # H decays
#          BR         NDA      ID1       ID2
     8.97652376E-01    2           5        -5   # BR(H -> b       bb     )
     6.92466484E-02    2         -15        15   # BR(H -> tau+    tau-   )
     2.44839601E-04    2         -13        13   # BR(H -> mu+     mu-    )
     3.00664305E-04    2           3        -3   # BR(H -> s       sb     )
     8.42840921E-08    2           4        -4   # BR(H -> c       cb     )
     8.40787562E-03    2           6        -6   # BR(H -> t       tb     )
     1.08093020E-05    2          21        21   # BR(H -> g       g      )
     5.91302751E-08    2          22        22   # BR(H -> gam     gam    )
     3.43580536E-09    2          23        22   # BR(H -> Z       gam    )
     8.49719229E-07    2          24       -24   # BR(H -> W+      W-     )
     4.24335465E-07    2          23        23   # BR(H -> Z       Z      )
     5.76490696E-06    2          25        25   # BR(H -> h       h      )
    -1.76872427E-24    2          36        36   # BR(H -> A       A      )
     6.99942840E-20    2          23        36   # BR(H -> Z       A      )
     9.26976572E-04    2     1000024  -1000024   # BR(H -> ~chi_1+ ~chi_1-)
     4.31805536E-05    2     1000022   1000022   # BR(H -> ~chi_10 ~chi_10)
     4.63904096E-04    2     1000023   1000023   # BR(H -> ~chi_20 ~chi_20)
     2.83716790E-04    2     1000022   1000023   # BR(H -> ~chi_10 ~chi_20)
     2.24064710E-02    2     1000006  -1000006   # BR(H -> ~t_1    ~t_1*  )
     5.35210964E-06    2     1000005  -1000005   # BR(H -> ~b_1    ~b_1*  )
#
#         PDG            Width
DECAY        36     3.51106971E+01   # A decays
#          BR         NDA      ID1       ID2
     9.18151434E-01    2           5        -5   # BR(A -> b       bb     )
     7.08249663E-02    2         -15        15   # BR(A -> tau+    tau-   )
     2.50419806E-04    2         -13        13   # BR(A -> mu+     mu-    )
     3.07567522E-04    2           3        -3   # BR(A -> s       sb     )
     8.67911952E-08    2           4        -4   # BR(A -> c       cb     )
     8.65321367E-03    2           6        -6   # BR(A -> t       tb     )
     2.54828865E-05    2          21        21   # BR(A -> g       g      )
     6.02656580E-08    2          22        22   # BR(A -> gam     gam    )
     2.50753073E-08    2          23        22   # BR(A -> Z       gam    )
     8.65838068E-07    2          23        25   # BR(A -> Z       h      )
     9.65253984E-04    2     1000024  -1000024   # BR(A -> ~chi_1+ ~chi_1-)
     4.45137893E-05    2     1000022   1000022   # BR(A -> ~chi_10 ~chi_10)
     4.83040357E-04    2     1000023   1000023   # BR(A -> ~chi_20 ~chi_20)
     2.93069293E-04    2     1000022   1000023   # BR(A -> ~chi_10 ~chi_20)
#
#         PDG            Width
DECAY        37     3.83357305E+01   # H+ decays
#          BR         NDA      ID1       ID2
     1.46444908E-03    2           4        -5   # BR(H+ -> c       bb     )
     6.48904467E-02    2         -15        16   # BR(H+ -> tau+    nu_tau )
     2.29436792E-04    2         -13        14   # BR(H+ -> mu+     nu_mu  )
     9.37246256E-06    2           2        -5   # BR(H+ -> u       bb     )
     1.34834106E-05    2           2        -3   # BR(H+ -> u       sb     )
     2.77397114E-04    2           4        -3   # BR(H+ -> c       sb     )
     9.21728767E-01    2           6        -5   # BR(H+ -> t       bb     )
     7.94365674E-07    2          24        25   # BR(H+ -> W+      h      )
     5.43538952E-14    2          24        36   # BR(H+ -> W+      A      )
     5.35276332E-04    2     1000024   1000022   # BR(H+ -> ~chi_1+ ~chi_10)
     7.84136091E-11    2     1000024   1000023   # BR(H+ -> ~chi_1+ ~chi_20)
     1.08505770E-02    2     1000006  -1000005   # BR(H+ -> ~t_1    ~b_1*  )
