#
#                              ======================
#                              | THE SUSYHIT OUTPUT |
#                              ======================
#
#
#              ------------------------------------------------------
#              |     This is the output of the SUSY-HIT package     |
#              |  created by A.Djouadi, M.Muehlleitner and M.Spira. |
#              |  In case of problems with SUSY-HIT email to        |
#              |           margarete.muehlleitner@kit.edu           |
#              |           michael.spira@psi.ch                     |
#              |           abdelhak.djouadi@cern.ch                 |
#              ------------------------------------------------------
#
#              ------------------------------------------------------
#              |  SUSY Les Houches Accord - MSSM Spectrum + Decays  |
#              |              based on the decay programs           |
#              |                                                    |
#              |                     SDECAY 1.5                     |
#              |                                                    |
#              |  Authors: M.Muhlleitner, A.Djouadi and Y.Mambrini  |
#              |  Ref.:    Comput.Phys.Commun.168(2005)46           |
#              |           [hep-ph/0311167]                         |
#              |                                                    |
#              |                     HDECAY 3.4                     |
#              |                                                    |
#              |  By: A.Djouadi,J.Kalinowski,M.Muhlleitner,M.Spira  |
#              |  Ref.:    Comput.Phys.Commun.108(1998)56           |
#              |           [hep-ph/9704448]                         |
#              |                                                    |
#              |                                                    |
#              |  If not stated otherwise all DRbar couplings and   |
#              |  soft SUSY breaking masses are given at the scale  |
#              |  Q=  0.11565935E+04
#              |                                                    |
#              ------------------------------------------------------
#
#
BLOCK DCINFO  # Decay Program information
     1   SDECAY/HDECAY # decay calculator
     2   1.5  /3.4    # version number
#
BLOCK SPINFO  # Spectrum calculator information
     1    SOFTSUSY    # spectrum calculator                
     2    3.7.3       # version number                     
#
BLOCK MODSEL  # Model selection
     1     0   #  nonUniversal                                     
#
BLOCK SMINPUTS  # Standard Model inputs
         1     1.27934000E+02   # alpha_em^-1(M_Z)^MSbar
         2     1.16639000E-05   # G_F [GeV^-2]
         3     1.17200000E-01   # alpha_S(M_Z)^MSbar
         4     9.11870000E+01   # M_Z pole mass
         5     4.19000000E+00   # mb(mb)^MSbar
         6     1.72500000E+02   # mt pole mass
         7     1.77690000E+00   # mtau pole mass
#
BLOCK MINPAR  # Input parameters - minimal models
         3     2.00000000E+01   # tanb                
#
BLOCK EXTPAR  # Input parameters - non-minimal models
         0    -1.00000000E+00   # Set                 
         1     2.38990000E+02   # M_1(MX)             
         2     4.77990000E+02   # M_2(MX)             
         3     2.20000000E+03   # M_3(MX)             
        11     2.94338000E+03   # At(MX)              
        12     0.00000000E+00   # Ab(MX)              
        13     0.00000000E+00   # Atau(MX)            
        23    -3.00000000E+03   # mu(MX)              
        25     2.00000000E+01   # tan                 
        26     3.00000000E+03   # mA(pole)            
        31     3.00000000E+03   # meL(MX)             
        32     3.00000000E+03   # mmuL(MX)            
        33     3.00000000E+03   # mtauL(MX)           
        34     3.00000000E+03   # meR(MX)             
        35     3.00000000E+03   # mmuR(MX)            
        36     3.00000000E+03   # mtauR(MX)           
        41     3.00000000E+03   # mqL1(MX)            
        42     3.00000000E+03   # mqL2(MX)            
        43     4.49900000E+02   # mqL3(MX)            
        44     3.00000000E+03   # muR(MX)             
        45     3.00000000E+03   # mcR(MX)             
        46     3.00000000E+03   # mtR(MX)             
        47     3.00000000E+03   # mdR(MX)             
        48     3.00000000E+03   # msR(MX)             
        49     3.00000000E+03   # mbR(MX)             
#
BLOCK MASS  # Mass Spectrum
# PDG code           mass       particle
        24     8.04019310E+01   # W+
        25     1.26296311E+02   # h
        35     3.00020482E+03   # H
        36     3.00000003E+03   # A
        37     3.00110296E+03   # H+
         5     4.81337004E+00   # b-quark pole mass calculated from mb(mb)_Msbar
   1000001     3.02022035E+03   # ~d_L
   2000001     3.01487173E+03   # ~d_R
   1000002     3.01930515E+03   # ~u_L
   2000002     3.01844124E+03   # ~u_R
   1000003     3.02022035E+03   # ~s_L
   2000003     3.01487173E+03   # ~s_R
   1000004     3.01930515E+03   # ~c_L
   2000004     3.01844124E+03   # ~c_R
   1000005     5.19889582E+02   # ~b_1
   2000005     3.01678667E+03   # ~b_2
   1000006     5.15400506E+02   # ~t_1
   2000006     3.01925498E+03   # ~t_2
   1000011     3.00732088E+03   # ~e_L
   2000011     2.99953224E+03   # ~e_R
   1000012     3.00593277E+03   # ~nu_eL
   1000013     3.00732088E+03   # ~mu_L
   2000013     2.99953224E+03   # ~mu_R
   1000014     3.00593277E+03   # ~nu_muL
   1000015     2.98632038E+03   # ~tau_1
   2000015     3.02230583E+03   # ~tau_2
   1000016     3.00654200E+03   # ~nu_tauL
   1000021     2.32504709E+03   # ~g
   1000022     2.42147031E+02   # ~chi_10
   1000023     5.05612283E+02   # ~chi_20
   1000025    -3.00841184E+03   # ~chi_30
   1000035     3.00854597E+03   # ~chi_40
   1000024     5.05766372E+02   # ~chi_1+
   1000037     3.00941489E+03   # ~chi_2+
#
BLOCK NMIX  # Neutralino Mixing Matrix
  1  1     9.99891247E-01   # N_11
  1  2     9.70695180E-05   # N_12
  1  3    -1.47408288E-02   # N_13
  1  4    -4.39075744E-04   # N_14
  2  1     2.93457284E-04   # N_21
  2  2     9.99647139E-01   # N_22
  2  3     2.64017413E-02   # N_23
  2  4     2.90857879E-03   # N_24
  3  1    -1.01115757E-02   # N_31
  3  2     1.66138258E-02   # N_32
  3  3    -7.06835322E-01   # N_33
  3  4     7.07110716E-01   # N_34
  4  1     1.07314568E-02   # N_41
  4  2    -2.07260528E-02   # N_42
  4  3     7.06731550E-01   # N_43
  4  4     7.07096728E-01   # N_44
#
BLOCK UMIX  # Chargino Mixing Matrix U
  1  1     9.99302961E-01   # U_11
  1  2     3.73308508E-02   # U_12
  2  1    -3.73308508E-02   # U_21
  2  2     9.99302961E-01   # U_22
#
BLOCK VMIX  # Chargino Mixing Matrix V
  1  1     9.99991548E-01   # V_11
  1  2    -4.11132437E-03   # V_12
  2  1    -4.11132437E-03   # V_21
  2  2    -9.99991548E-01   # V_22
#
BLOCK STOPMIX  # Stop Mixing Matrix
  1  1     9.98649883E-01   # cos(theta_t)
  1  2    -5.19462336E-02   # sin(theta_t)
  2  1     5.19462336E-02   # -sin(theta_t)
  2  2     9.98649883E-01   # cos(theta_t)
#
BLOCK SBOTMIX  # Sbottom Mixing Matrix
  1  1     9.99724116E-01   # cos(theta_b)
  1  2    -2.34881223E-02   # sin(theta_b)
  2  1     2.34881223E-02   # -sin(theta_b)
  2  2     9.99724116E-01   # cos(theta_b)
#
BLOCK STAUMIX  # Stau Mixing Matrix
  1  1    -7.06922099E-01   # cos(theta_tau)
  1  2     7.07291415E-01   # sin(theta_tau)
  2  1    -7.07291415E-01   # -sin(theta_tau)
  2  2    -7.06922099E-01   # cos(theta_tau)
#
BLOCK ALPHA  # Higgs mixing
          -5.00155635E-02   # Mixing angle in the neutral Higgs boson sector
#
BLOCK HMIX Q=  1.15659354E+03  # DRbar Higgs Parameters
         1    -3.00000000E+03   # mu(Q)MSSM           
         2     2.00000000E+01   # tan                 
         3     2.44600636E+02   # higgs               
         4     1.18253628E+07   # mA^2(Q)MSSM         
#
BLOCK GAUGE Q=  1.15659354E+03  # The gauge couplings
     1     3.61283039E-01   # gprime(Q) DRbar
     2     6.37389950E-01   # g(Q) DRbar
     3     1.03214793E+00   # g3(Q) DRbar
#
BLOCK AU Q=  1.15659354E+03  # The trilinear couplings
  1  1     0.00000000E+00   # A_u(Q) DRbar
  2  2     1.22380449E-06   # A_c(Q) DRbar
  3  3     2.94338000E+03   # A_t(Q) DRbar
#
BLOCK AD Q=  1.15659354E+03  # The trilinear couplings
  1  1     4.38566427E-07   # A_d(Q) DRbar
  2  2     4.38617999E-07   # A_s(Q) DRbar
  3  3     9.01094414E-07   # A_b(Q) DRbar
#
BLOCK AE Q=  1.15659354E+03  # The trilinear couplings
  1  1     2.01529366E-07   # A_e(Q) DRbar
  2  2     2.01539256E-07   # A_mu(Q) DRbar
  3  3     2.04327455E-07   # A_tau(Q) DRbar
#
BLOCK Yu Q=  1.15659354E+03  # The Yukawa couplings
  1  1     0.00000000E+00   # y_u(Q) DRbar
  2  2     0.00000000E+00   # y_c(Q) DRbar
  3  3     8.58849221E-01   # y_t(Q) DRbar
#
BLOCK Yd Q=  1.15659354E+03  # The Yukawa couplings
  1  1     0.00000000E+00   # y_d(Q) DRbar
  2  2     0.00000000E+00   # y_s(Q) DRbar
  3  3     3.98948603E-01   # y_b(Q) DRbar
#
BLOCK Ye Q=  1.15659354E+03  # The Yukawa couplings
  1  1     0.00000000E+00   # y_e(Q) DRbar
  2  2     0.00000000E+00   # y_mu(Q) DRbar
  3  3     2.01929597E-01   # y_tau(Q) DRbar
#
BLOCK MSOFT Q=  1.15659354E+03  # The soft SUSY breaking masses at the scale Q
         1     2.38990000E+02   # M_1(Q)              
         2     4.77990000E+02   # M_2(Q)              
         3     2.20000000E+03   # M_3(Q)              
        21    -6.84156361E+04   # M^2_Hd              
        22    -9.16390468E+06   # M^2_Hu              
        31     3.00000000E+03   # M_eL                
        32     3.00000000E+03   # M_muL               
        33     3.00000000E+03   # M_tauL              
        34     3.00000000E+03   # M_eR                
        35     3.00000000E+03   # M_muR               
        36     3.00000000E+03   # M_tauR              
        41     3.00000000E+03   # M_q1L               
        42     3.00000000E+03   # M_q2L               
        43     4.49899993E+02   # M_q3L               
        44     3.00000000E+03   # M_uR                
        45     3.00000000E+03   # M_cR                
        46     3.00000000E+03   # M_tR                
        47     3.00000000E+03   # M_dR                
        48     3.00000000E+03   # M_sR                
        49     3.00000000E+03   # M_bR                
#
#
#
#                             =================
#                             |The decay table|
#                             =================
#
# - The QCD corrections to the decays gluino -> squark  + quark
#                                     squark -> gaugino + quark_prime
#                                     squark -> squark_prime + Higgs
#                                     squark -> gluino  + quark
#   are included.
#
# - The multi-body decays for the inos, stops and sbottoms are included.
#
# - The loop induced decays for the gluino, neutralinos and stops
#   are included.
#
# - The SUSY decays of the top quark are included.
#
#
#         PDG            Width
DECAY         6     1.41014213E+00   # top decays
#          BR         NDA      ID1       ID2
     1.00000000E+00    2           5        24   # BR(t ->  b    W+)
#
#         PDG            Width
DECAY   1000021     8.36590003E+01   # gluino decays
#          BR         NDA      ID1       ID2
     2.48053128E-01    2     1000005        -5   # BR(~g -> ~b_1  bb)
     2.48053128E-01    2    -1000005         5   # BR(~g -> ~b_1* b )
     2.51946872E-01    2     1000006        -6   # BR(~g -> ~t_1  tb)
     2.51946872E-01    2    -1000006         6   # BR(~g -> ~t_1* t )
#
#         PDG            Width
DECAY   1000006     3.29214359E-02   # stop1 decays
#          BR         NDA      ID1       ID2
     8.19444308E-01    2     1000022         6   # BR(~t_1 -> ~chi_10 t )
     1.80555692E-01    2     1000024         5   # BR(~t_1 -> ~chi_1+ b )
#
#         PDG            Width
DECAY   2000006     1.23451193E+02   # stop2 decays
#          BR         NDA      ID1       ID2
     5.26971883E-02    2     1000022         6   # BR(~t_2 -> ~chi_10 t )
     2.72618186E-04    2     1000023         6   # BR(~t_2 -> ~chi_20 t )
     0.00000000E+00    2     1000025         6   # BR(~t_2 -> ~chi_30 t )
     5.48280142E-04    2     1000024         5   # BR(~t_2 -> ~chi_1+ b )
     1.51811479E-05    2     1000037         5   # BR(~t_2 -> ~chi_2+ b )
     2.86850496E-01    2     1000021         6   # BR(~t_2 -> ~g      t )
     1.72786992E-01    2     1000006        25   # BR(~t_2 -> ~t_1    h )
     1.64023374E-01    2     1000006        23   # BR(~t_2 -> ~t_1    Z )
     3.22805870E-01    2     1000005        24   # BR(~t_2 -> ~b_1    W+)
#
#         PDG            Width
DECAY   1000005     5.62212222E-02   # sbottom1 decays
#          BR         NDA      ID1       ID2
     8.79033439E-01    2     1000022         5   # BR(~b_1 -> ~chi_10 b )
     1.20966561E-01    2     1000023         5   # BR(~b_1 -> ~chi_20 b )
#
#         PDG            Width
DECAY   2000005     5.69154101E+01   # sbottom2 decays
#          BR         NDA      ID1       ID2
     2.86993925E-02    2     1000022         5   # BR(~b_2 -> ~chi_10 b )
     6.14683675E-08    2     1000023         5   # BR(~b_2 -> ~chi_20 b )
     2.47517190E-06    2     1000025         5   # BR(~b_2 -> ~chi_30 b )
     2.22724262E-06    2     1000035         5   # BR(~b_2 -> ~chi_40 b )
    -3.72529283E-08    2    -1000024         6   # BR(~b_2 -> ~chi_1- t )
     6.22694064E-01    2     1000021         5   # BR(~b_2 -> ~g      b )
     7.74550514E-02    2     1000005        25   # BR(~b_2 -> ~b_1    h )
     1.10204050E-01    2     1000005        23   # BR(~b_2 -> ~b_1    Z )
     1.60942715E-01    2     1000006       -24   # BR(~b_2 -> ~t_1    W-)
#
#         PDG            Width
DECAY   1000002     6.90235727E+01   # sup_L decays
#          BR         NDA      ID1       ID2
     5.93654862E-03    2     1000022         2   # BR(~u_L -> ~chi_10 u)
     1.59222856E-01    2     1000023         2   # BR(~u_L -> ~chi_20 u)
     2.30972236E-09    2     1000025         2   # BR(~u_L -> ~chi_30 u)
     3.64619019E-09    2     1000035         2   # BR(~u_L -> ~chi_40 u)
     3.18618954E-01    2     1000024         1   # BR(~u_L -> ~chi_1+ d)
     2.99123776E-10    2     1000037         1   # BR(~u_L -> ~chi_2+ d)
     5.16221635E-01    2     1000021         2   # BR(~u_L -> ~g      u)
#
#         PDG            Width
DECAY   2000002     4.21093498E+01   # sup_R decays
#          BR         NDA      ID1       ID2
     1.55487615E-01    2     1000022         2   # BR(~u_R -> ~chi_10 u)
     1.28408240E-08    2     1000023         2   # BR(~u_R -> ~chi_20 u)
     8.70636492E-10    2     1000025         2   # BR(~u_R -> ~chi_30 u)
     9.55222428E-10    2     1000035         2   # BR(~u_R -> ~chi_40 u)
     8.44512370E-01    2     1000021         2   # BR(~u_R -> ~g      u)
#
#         PDG            Width
DECAY   1000001     6.90753046E+01   # sdown_L decays
#          BR         NDA      ID1       ID2
     5.92181344E-03    2     1000022         1   # BR(~d_L -> ~chi_10 d)
     1.59123315E-01    2     1000023         1   # BR(~d_L -> ~chi_20 d)
     4.28662045E-09    2     1000025         1   # BR(~d_L -> ~chi_30 d)
     6.32491157E-09    2     1000035         1   # BR(~d_L -> ~chi_40 d)
     3.18051955E-01    2    -1000024         2   # BR(~d_L -> ~chi_1- u)
     2.92805295E-08    2    -1000037         2   # BR(~d_L -> ~chi_2- u)
     5.16902877E-01    2     1000021         1   # BR(~d_L -> ~g      d)
#
#         PDG            Width
DECAY   2000001     3.69094926E+01   # sdown_R decays
#          BR         NDA      ID1       ID2
     4.42929824E-02    2     1000022         1   # BR(~d_R -> ~chi_10 d)
     3.65752331E-09    2     1000023         1   # BR(~d_R -> ~chi_20 d)
     1.05312100E-10    2     1000025         1   # BR(~d_R -> ~chi_30 d)
     1.13856472E-10    2     1000035         1   # BR(~d_R -> ~chi_40 d)
     9.55707014E-01    2     1000021         1   # BR(~d_R -> ~g      d)
#
#         PDG            Width
DECAY   1000004     6.90235727E+01   # scharm_L decays
#          BR         NDA      ID1       ID2
     5.93654862E-03    2     1000022         4   # BR(~c_L -> ~chi_10 c)
     1.59222856E-01    2     1000023         4   # BR(~c_L -> ~chi_20 c)
     2.30972236E-09    2     1000025         4   # BR(~c_L -> ~chi_30 c)
     3.64619019E-09    2     1000035         4   # BR(~c_L -> ~chi_40 c)
     3.18618954E-01    2     1000024         3   # BR(~c_L -> ~chi_1+ s)
     2.99123776E-10    2     1000037         3   # BR(~c_L -> ~chi_2+ s)
     5.16221635E-01    2     1000021         4   # BR(~c_L -> ~g      c)
#
#         PDG            Width
DECAY   2000004     4.21093498E+01   # scharm_R decays
#          BR         NDA      ID1       ID2
     1.55487615E-01    2     1000022         4   # BR(~c_R -> ~chi_10 c)
     1.28408240E-08    2     1000023         4   # BR(~c_R -> ~chi_20 c)
     8.70636492E-10    2     1000025         4   # BR(~c_R -> ~chi_30 c)
     9.55222428E-10    2     1000035         4   # BR(~c_R -> ~chi_40 c)
     8.44512370E-01    2     1000021         4   # BR(~c_R -> ~g      c)
#
#         PDG            Width
DECAY   1000003     6.90753046E+01   # sstrange_L decays
#          BR         NDA      ID1       ID2
     5.92181344E-03    2     1000022         3   # BR(~s_L -> ~chi_10 s)
     1.59123315E-01    2     1000023         3   # BR(~s_L -> ~chi_20 s)
     4.28662045E-09    2     1000025         3   # BR(~s_L -> ~chi_30 s)
     6.32491157E-09    2     1000035         3   # BR(~s_L -> ~chi_40 s)
     3.18051955E-01    2    -1000024         4   # BR(~s_L -> ~chi_1- c)
     2.92805295E-08    2    -1000037         4   # BR(~s_L -> ~chi_2- c)
     5.16902877E-01    2     1000021         3   # BR(~s_L -> ~g      s)
#
#         PDG            Width
DECAY   2000003     3.69094926E+01   # sstrange_R decays
#          BR         NDA      ID1       ID2
     4.42929824E-02    2     1000022         3   # BR(~s_R -> ~chi_10 s)
     3.65752331E-09    2     1000023         3   # BR(~s_R -> ~chi_20 s)
     1.05312100E-10    2     1000025         3   # BR(~s_R -> ~chi_30 s)
     1.13856472E-10    2     1000035         3   # BR(~s_R -> ~chi_40 s)
     9.55707014E-01    2     1000021         3   # BR(~s_R -> ~g      s)
#
#         PDG            Width
DECAY   1000011     3.82450438E+01   # selectron_L decays
#          BR         NDA      ID1       ID2
     1.00786995E-01    2     1000022        11   # BR(~e_L -> ~chi_10 e-)
     2.99948910E-01    2     1000023        11   # BR(~e_L -> ~chi_20 e-)
     5.99264095E-01    2    -1000024        12   # BR(~e_L -> ~chi_1- nu_e)
#
#         PDG            Width
DECAY   2000011     1.53721716E+01   # selectron_R decays
#          BR         NDA      ID1       ID2
     9.99999918E-01    2     1000022        11   # BR(~e_R -> ~chi_10 e-)
     8.23808232E-08    2     1000023        11   # BR(~e_R -> ~chi_20 e-)
#
#         PDG            Width
DECAY   1000013     3.82450438E+01   # smuon_L decays
#          BR         NDA      ID1       ID2
     1.00786995E-01    2     1000022        13   # BR(~mu_L -> ~chi_10 mu-)
     2.99948910E-01    2     1000023        13   # BR(~mu_L -> ~chi_20 mu-)
     5.99264095E-01    2    -1000024        14   # BR(~mu_L -> ~chi_1- nu_mu)
#
#         PDG            Width
DECAY   2000013     1.53721716E+01   # smuon_R decays
#          BR         NDA      ID1       ID2
     9.99999918E-01    2     1000022        13   # BR(~mu_R -> ~chi_10 mu-)
     8.23808232E-08    2     1000023        13   # BR(~mu_R -> ~chi_20 mu-)
#
#         PDG            Width
DECAY   1000015     2.70713391E+01   # stau_1 decays
#          BR         NDA      ID1       ID2
     3.55068294E-01    2     1000022        15   # BR(~tau_1 -> ~chi_10  tau-)
     2.15146798E-01    2     1000023        15   # BR(~tau_1 -> ~chi_20  tau-)
     4.29784908E-01    2    -1000024        16   # BR(~tau_1 -> ~chi_1-  nu_tau)
#
#         PDG            Width
DECAY   2000015     2.65305037E+01   # stau_2 decays
#          BR         NDA      ID1       ID2
     3.63212909E-01    2     1000022        15   # BR(~tau_2 -> ~chi_10  tau-)
     2.12430924E-01    2     1000023        15   # BR(~tau_2 -> ~chi_20  tau-)
     4.65662487E-06    2     1000025        15   # BR(~tau_2 -> ~chi_30  tau-)
     3.57528829E-06    2     1000035        15   # BR(~tau_2 -> ~chi_40  tau-)
     4.24343758E-01    2    -1000024        16   # BR(~tau_2 -> ~chi_1-  nu_tau)
     4.17662373E-06    2    -1000037        16   # BR(~tau_2 -> ~chi_2-  nu_tau)
#
#         PDG            Width
DECAY   1000012     3.82468087E+01   # snu_eL decays
#          BR         NDA      ID1       ID2
     1.00665622E-01    2     1000022        12   # BR(~nu_eL -> ~chi_10 nu_e)
     2.99581052E-01    2     1000023        12   # BR(~nu_eL -> ~chi_20 nu_e)
     5.99753326E-01    2     1000024        11   # BR(~nu_eL -> ~chi_1+ e-)
#
#         PDG            Width
DECAY   1000014     3.82468087E+01   # snu_muL decays
#          BR         NDA      ID1       ID2
     1.00665622E-01    2     1000022        14   # BR(~nu_muL -> ~chi_10 nu_mu)
     2.99581052E-01    2     1000023        14   # BR(~nu_muL -> ~chi_20 nu_mu)
     5.99753326E-01    2     1000024        13   # BR(~nu_muL -> ~chi_1+ mu-)
#
#         PDG            Width
DECAY   1000016     3.82586963E+01   # snu_tauL decays
#          BR         NDA      ID1       ID2
     1.00655273E-01    2     1000022        16   # BR(~nu_tauL -> ~chi_10 nu_tau)
     2.99555735E-01    2     1000023        16   # BR(~nu_tauL -> ~chi_20 nu_tau)
     5.99788992E-01    2     1000024        15   # BR(~nu_tauL -> ~chi_1+ tau-)
#
#         PDG            Width
DECAY   1000024     3.71986828E-06   # chargino1+ decays
#          BR         NDA      ID1       ID2
     1.00000000E+00    2     1000022        24   # BR(~chi_1+ -> ~chi_10  W+)
#
#         PDG            Width
DECAY   1000037     9.96016338E+01   # chargino2+ decays
#          BR         NDA      ID1       ID2
     1.45623384E-01    2     1000006        -5   # BR(~chi_2+ -> ~t_1     bb)
     6.65346213E-01    2    -1000005         6   # BR(~chi_2+ -> ~b_1*    t )
     1.10400320E-11    2     1000012       -11   # BR(~chi_2+ -> ~nu_eL   e+  )
     1.10400320E-11    2     1000014       -13   # BR(~chi_2+ -> ~nu_muL  mu+ )
     3.55962976E-08    2     1000016       -15   # BR(~chi_2+ -> ~nu_tau1 tau+)
     3.29316181E-10    2    -1000011        12   # BR(~chi_2+ -> ~e_L+    nu_e)
     3.29316181E-10    2    -1000013        14   # BR(~chi_2+ -> ~mu_L+   nu_mu)
     1.11368054E-06    2    -1000015        16   # BR(~chi_2+ -> ~tau_1+  nu_tau)
     5.67688056E-02    2     1000024        23   # BR(~chi_2+ -> ~chi_1+  Z )
     1.82297875E-02    2     1000022        24   # BR(~chi_2+ -> ~chi_10  W+)
     5.53239413E-02    2     1000023        24   # BR(~chi_2+ -> ~chi_20  W+)
     5.87067186E-02    2     1000024        25   # BR(~chi_2+ -> ~chi_1+  h )
#
#         PDG            Width
DECAY   1000022     0.00000000E+00   # neutralino1 decays
#
#         PDG            Width
DECAY   1000023     3.77063858E-06   # neutralino2 decays
#          BR         NDA      ID1       ID2
     8.61903770E-01    2     1000022        23   # BR(~chi_20 -> ~chi_10   Z )
     1.38096230E-01    2     1000022        25   # BR(~chi_20 -> ~chi_10   h )
#
#         PDG            Width
DECAY   1000025     9.98638077E+01   # neutralino3 decays
#          BR         NDA      ID1       ID2
     9.87946348E-03    2     1000022        23   # BR(~chi_30 -> ~chi_10   Z )
     3.44481862E-02    2     1000023        23   # BR(~chi_30 -> ~chi_20   Z )
     5.51630741E-02    2     1000024       -24   # BR(~chi_30 -> ~chi_1+   W-)
     5.51630741E-02    2    -1000024        24   # BR(~chi_30 -> ~chi_1-   W+)
     8.99369277E-03    2     1000022        25   # BR(~chi_30 -> ~chi_10   h )
     2.23918600E-02    2     1000023        25   # BR(~chi_30 -> ~chi_20   h )
     3.35275388E-01    2     1000006        -6   # BR(~chi_30 -> ~t_1      tb)
     3.35275388E-01    2    -1000006         6   # BR(~chi_30 -> ~t_1*     t )
     7.17036259E-02    2     1000005        -5   # BR(~chi_30 -> ~b_1      bb)
     7.17036259E-02    2    -1000005         5   # BR(~chi_30 -> ~b_1*     b )
     3.79058492E-12    2     1000011       -11   # BR(~chi_30 -> ~e_L-     e+)
     3.79058492E-12    2    -1000011        11   # BR(~chi_30 -> ~e_L+     e-)
     2.77895521E-10    2     2000011       -11   # BR(~chi_30 -> ~e_R-     e+)
     2.77895521E-10    2    -2000011        11   # BR(~chi_30 -> ~e_R+     e-)
     3.79058492E-12    2     1000013       -13   # BR(~chi_30 -> ~mu_L-    mu+)
     3.79058492E-12    2    -1000013        13   # BR(~chi_30 -> ~mu_L+    mu-)
     2.77895521E-10    2     2000013       -13   # BR(~chi_30 -> ~mu_R-    mu+)
     2.77895521E-10    2    -2000013        13   # BR(~chi_30 -> ~mu_R+    mu-)
     1.31046509E-06    2     1000015       -15   # BR(~chi_30 -> ~tau_1-   tau+)
     1.31046509E-06    2    -1000015        15   # BR(~chi_30 -> ~tau_1+   tau-)
     8.24868133E-11    2     1000012       -12   # BR(~chi_30 -> ~nu_eL    nu_eb)
     8.24868133E-11    2    -1000012        12   # BR(~chi_30 -> ~nu_eL*   nu_e )
     8.24868133E-11    2     1000014       -14   # BR(~chi_30 -> ~nu_muL   nu_mub)
     8.24868133E-11    2    -1000014        14   # BR(~chi_30 -> ~nu_muL*  nu_mu )
     4.69357561E-11    2     1000016       -16   # BR(~chi_30 -> ~nu_tau1  nu_taub)
     4.69357561E-11    2    -1000016        16   # BR(~chi_30 -> ~nu_tau1* nu_tau )
#
#         PDG            Width
DECAY   1000035     9.88679244E+01   # neutralino4 decays
#          BR         NDA      ID1       ID2
     8.86388928E-03    2     1000022        23   # BR(~chi_40 -> ~chi_10   Z )
     2.23901474E-02    2     1000023        23   # BR(~chi_40 -> ~chi_20   Z )
     5.57318825E-02    2     1000024       -24   # BR(~chi_40 -> ~chi_1+   W-)
     5.57318825E-02    2    -1000024        24   # BR(~chi_40 -> ~chi_1-   W+)
     1.02732943E-02    2     1000022        25   # BR(~chi_40 -> ~chi_10   h )
     3.65305356E-02    2     1000023        25   # BR(~chi_40 -> ~chi_20   h )
     3.32813519E-01    2     1000006        -6   # BR(~chi_40 -> ~t_1      tb)
     3.32813519E-01    2    -1000006         6   # BR(~chi_40 -> ~t_1*     t )
     7.24245414E-02    2     1000005        -5   # BR(~chi_40 -> ~b_1      bb)
     7.24245414E-02    2    -1000005         5   # BR(~chi_40 -> ~b_1*     b )
     8.74107440E-12    2     1000011       -11   # BR(~chi_40 -> ~e_L-     e+)
     8.74107440E-12    2    -1000011        11   # BR(~chi_40 -> ~e_L+     e-)
     3.25759828E-10    2     2000011       -11   # BR(~chi_40 -> ~e_R-     e+)
     3.25759828E-10    2    -2000011        11   # BR(~chi_40 -> ~e_R+     e-)
     8.74107440E-12    2     1000013       -13   # BR(~chi_40 -> ~mu_L-    mu+)
     8.74107440E-12    2    -1000013        13   # BR(~chi_40 -> ~mu_L+    mu-)
     3.25759828E-10    2     2000013       -13   # BR(~chi_40 -> ~mu_R-    mu+)
     3.25759828E-10    2    -2000013        13   # BR(~chi_40 -> ~mu_R+    mu-)
     1.12325213E-06    2     1000015       -15   # BR(~chi_40 -> ~tau_1-   tau+)
     1.12325213E-06    2    -1000015        15   # BR(~chi_40 -> ~tau_1+   tau-)
     1.33245276E-10    2     1000012       -12   # BR(~chi_40 -> ~nu_eL    nu_eb)
     1.33245276E-10    2    -1000012        12   # BR(~chi_40 -> ~nu_eL*   nu_e )
     1.33245276E-10    2     1000014       -14   # BR(~chi_40 -> ~nu_muL   nu_mub)
     1.33245276E-10    2    -1000014        14   # BR(~chi_40 -> ~nu_muL*  nu_mu )
     7.83748875E-11    2     1000016       -16   # BR(~chi_40 -> ~nu_tau1  nu_taub)
     7.83748875E-11    2    -1000016        16   # BR(~chi_40 -> ~nu_tau1* nu_tau )
#
#         PDG            Width
DECAY        25     3.78478481E-03   # h decays
#          BR         NDA      ID1       ID2
     5.41668724E-01    2           5        -5   # BR(h -> b       bb     )
     6.92262662E-02    2         -15        15   # BR(h -> tau+    tau-   )
     2.45056983E-04    2         -13        13   # BR(h -> mu+     mu-    )
     5.19092950E-04    2           3        -3   # BR(h -> s       sb     )
     2.25547893E-02    2           4        -4   # BR(h -> c       cb     )
     7.45167914E-02    2          21        21   # BR(h -> g       g      )
     2.59757550E-03    2          22        22   # BR(h -> gam     gam    )
     1.85082223E-03    2          22        23   # BR(h -> Z       gam    )
     2.54368280E-01    2          24       -24   # BR(h -> W+      W-     )
     3.24526012E-02    2          23        23   # BR(h -> Z       Z      )
#
#         PDG            Width
DECAY        35     4.24127492E+01   # H decays
#          BR         NDA      ID1       ID2
     9.11591251E-01    2           5        -5   # BR(H -> b       bb     )
     5.86348710E-02    2         -15        15   # BR(H -> tau+    tau-   )
     2.07318892E-04    2         -13        13   # BR(H -> mu+     mu-    )
     2.54586879E-04    2           3        -3   # BR(H -> s       sb     )
     7.13626883E-08    2           4        -4   # BR(H -> c       cb     )
     7.11889157E-03    2           6        -6   # BR(H -> t       tb     )
     3.48515013E-06    2          21        21   # BR(H -> g       g      )
     4.03050966E-08    2          22        22   # BR(H -> gam     gam    )
     2.91760569E-09    2          23        22   # BR(H -> Z       gam    )
     6.79949168E-07    2          24       -24   # BR(H -> W+      W-     )
     3.39555465E-07    2          23        23   # BR(H -> Z       Z      )
     4.82799901E-06    2          25        25   # BR(H -> h       h      )
     6.01541703E-25    2          36        36   # BR(H -> A       A      )
     9.38720506E-18    2          23        36   # BR(H -> Z       A      )
     7.03948325E-04    2     1000024  -1000024   # BR(H -> ~chi_1+ ~chi_1-)
     3.58851867E-05    2     1000022   1000022   # BR(H -> ~chi_10 ~chi_10)
     3.51795400E-04    2     1000023   1000023   # BR(H -> ~chi_20 ~chi_20)
     2.27097391E-04    2     1000022   1000023   # BR(H -> ~chi_10 ~chi_20)
     2.08597122E-02    2     1000006  -1000006   # BR(H -> ~t_1    ~t_1*  )
     5.19467273E-06    2     1000005  -1000005   # BR(H -> ~b_1    ~b_1*  )
#
#         PDG            Width
DECAY        36     4.15346114E+01   # A decays
#          BR         NDA      ID1       ID2
     9.30851098E-01    2           5        -5   # BR(A -> b       bb     )
     5.98708873E-02    2         -15        15   # BR(A -> tau+    tau-   )
     2.11688854E-04    2         -13        13   # BR(A -> mu+     mu-    )
     2.59997870E-04    2           3        -3   # BR(A -> s       sb     )
     7.33677135E-08    2           4        -4   # BR(A -> c       cb     )
     7.31487221E-03    2           6        -6   # BR(A -> t       tb     )
     2.15415979E-05    2          21        21   # BR(A -> g       g      )
     5.74950468E-08    2          22        22   # BR(A -> gam     gam    )
     2.12234046E-08    2          23        22   # BR(A -> Z       gam    )
     6.91549559E-07    2          23        25   # BR(A -> Z       h      )
     7.93299714E-04    2     1000024  -1000024   # BR(A -> ~chi_1+ ~chi_1-)
     3.73982329E-05    2     1000022   1000022   # BR(A -> ~chi_10 ~chi_10)
     3.96408712E-04    2     1000023   1000023   # BR(A -> ~chi_20 ~chi_20)
     2.41964160E-04    2     1000022   1000023   # BR(A -> ~chi_10 ~chi_20)
#
#         PDG            Width
DECAY        37     4.52192482E+01   # H+ decays
#          BR         NDA      ID1       ID2
     1.48360479E-03    2           4        -5   # BR(H+ -> c       bb     )
     5.50125967E-02    2         -15        16   # BR(H+ -> tau+    nu_tau )
     1.94511124E-04    2         -13        14   # BR(H+ -> mu+     nu_mu  )
     9.49505906E-06    2           2        -5   # BR(H+ -> u       bb     )
     1.14309155E-05    2           2        -3   # BR(H+ -> u       sb     )
     2.35170689E-04    2           4        -3   # BR(H+ -> c       sb     )
     9.32498985E-01    2           6        -5   # BR(H+ -> t       bb     )
     6.36298619E-07    2          24        25   # BR(H+ -> W+      h      )
     4.74882234E-14    2          24        36   # BR(H+ -> W+      A      )
     4.35393701E-04    2     1000024   1000022   # BR(H+ -> ~chi_1+ ~chi_10)
     3.51687604E-11    2     1000024   1000023   # BR(H+ -> ~chi_1+ ~chi_20)
     1.01181761E-02    2     1000006  -1000005   # BR(H+ -> ~t_1    ~b_1*  )
