#
#                              ======================
#                              | THE SUSYHIT OUTPUT |
#                              ======================
#
#
#              ------------------------------------------------------
#              |     This is the output of the SUSY-HIT package     |
#              |  created by A.Djouadi, M.Muehlleitner and M.Spira. |
#              |  In case of problems with SUSY-HIT email to        |
#              |           margarete.muehlleitner@kit.edu           |
#              |           michael.spira@psi.ch                     |
#              |           abdelhak.djouadi@cern.ch                 |
#              ------------------------------------------------------
#
#              ------------------------------------------------------
#              |  SUSY Les Houches Accord - MSSM Spectrum + Decays  |
#              |              based on the decay programs           |
#              |                                                    |
#              |                     SDECAY 1.5                     |
#              |                                                    |
#              |  Authors: M.Muhlleitner, A.Djouadi and Y.Mambrini  |
#              |  Ref.:    Comput.Phys.Commun.168(2005)46           |
#              |           [hep-ph/0311167]                         |
#              |                                                    |
#              |                     HDECAY 3.4                     |
#              |                                                    |
#              |  By: A.Djouadi,J.Kalinowski,M.Muhlleitner,M.Spira  |
#              |  Ref.:    Comput.Phys.Commun.108(1998)56           |
#              |           [hep-ph/9704448]                         |
#              |                                                    |
#              |                                                    |
#              |  If not stated otherwise all DRbar couplings and   |
#              |  soft SUSY breaking masses are given at the scale  |
#              |  Q=  0.14468849E+04
#              |                                                    |
#              ------------------------------------------------------
#
#
BLOCK DCINFO  # Decay Program information
     1   SDECAY/HDECAY # decay calculator
     2   1.5  /3.4    # version number
#
BLOCK SPINFO  # Spectrum calculator information
     1    SOFTSUSY    # spectrum calculator                
     2    3.7.3       # version number                     
#
BLOCK MODSEL  # Model selection
     1     0   #  nonUniversal                                     
#
BLOCK SMINPUTS  # Standard Model inputs
         1     1.27934000E+02   # alpha_em^-1(M_Z)^MSbar
         2     1.16639000E-05   # G_F [GeV^-2]
         3     1.17200000E-01   # alpha_S(M_Z)^MSbar
         4     9.11870000E+01   # M_Z pole mass
         5     4.19000000E+00   # mb(mb)^MSbar
         6     1.72500000E+02   # mt pole mass
         7     1.77690000E+00   # mtau pole mass
#
BLOCK MINPAR  # Input parameters - minimal models
         3     2.00000000E+01   # tanb                
#
BLOCK EXTPAR  # Input parameters - non-minimal models
         0    -1.00000000E+00   # Set                 
         1     3.75990000E+02   # M_1(MX)             
         2     7.51990000E+02   # M_2(MX)             
         3     2.20000000E+03   # M_3(MX)             
        11     2.94338000E+03   # At(MX)              
        12     0.00000000E+00   # Ab(MX)              
        13     0.00000000E+00   # Atau(MX)            
        23    -3.00000000E+03   # mu(MX)              
        25     2.00000000E+01   # tan                 
        26     3.00000000E+03   # mA(pole)            
        31     3.00000000E+03   # meL(MX)             
        32     3.00000000E+03   # mmuL(MX)            
        33     3.00000000E+03   # mtauL(MX)           
        34     3.00000000E+03   # meR(MX)             
        35     3.00000000E+03   # mmuR(MX)            
        36     3.00000000E+03   # mtauR(MX)           
        41     3.00000000E+03   # mqL1(MX)            
        42     3.00000000E+03   # mqL2(MX)            
        43     6.99900000E+02   # mqL3(MX)            
        44     3.00000000E+03   # muR(MX)             
        45     3.00000000E+03   # mcR(MX)             
        46     3.00000000E+03   # mtR(MX)             
        47     3.00000000E+03   # mdR(MX)             
        48     3.00000000E+03   # msR(MX)             
        49     3.00000000E+03   # mbR(MX)             
#
BLOCK MASS  # Mass Spectrum
# PDG code           mass       particle
        24     8.04039863E+01   # W+
        25     1.25346574E+02   # h
        35     3.00011731E+03   # H
        36     2.99999994E+03   # A
        37     3.00109186E+03   # H+
         5     4.81337004E+00   # b-quark pole mass calculated from mb(mb)_Msbar
   1000001     3.03306488E+03   # ~d_L
   2000001     3.02797013E+03   # ~d_R
   1000002     3.03215714E+03   # ~u_L
   2000002     3.03013240E+03   # ~u_R
   1000003     3.03306488E+03   # ~s_L
   2000003     3.02797013E+03   # ~s_R
   1000004     3.03215714E+03   # ~c_L
   2000004     3.03013240E+03   # ~c_R
   1000005     7.98143574E+02   # ~b_1
   2000005     3.02717417E+03   # ~b_2
   1000006     7.95387170E+02   # ~t_1
   2000006     3.02260131E+03   # ~t_2
   1000011     3.00662170E+03   # ~e_L
   2000011     3.00094485E+03   # ~e_R
   1000012     3.00523683E+03   # ~nu_eL
   1000013     3.00662170E+03   # ~mu_L
   2000013     3.00094485E+03   # ~mu_R
   1000014     3.00523683E+03   # ~nu_muL
   1000015     2.98619435E+03   # ~tau_1
   2000015     3.02172219E+03   # ~tau_2
   1000016     3.00537661E+03   # ~nu_tauL
   1000021     2.34107551E+03   # ~g
   1000022     3.79280089E+02   # ~chi_10
   1000023     7.86776617E+02   # ~chi_20
   1000025    -3.00039651E+03   # ~chi_30
   1000035     3.00079389E+03   # ~chi_40
   1000024     7.86936862E+02   # ~chi_1+
   1000037     3.00155860E+03   # ~chi_2+
#
BLOCK NMIX  # Neutralino Mixing Matrix
  1  1     9.99889021E-01   # N_11
  1  2    -7.91226342E-05   # N_12
  1  3    -1.48550135E-02   # N_13
  1  4    -1.12600015E-03   # N_14
  2  1     4.90113147E-04   # N_21
  2  2     9.99613330E-01   # N_22
  2  3     2.72457429E-02   # N_23
  2  4     5.53360326E-03   # N_24
  3  1    -9.70408845E-03   # N_31
  3  2     1.53567572E-02   # N_32
  3  3    -7.06861825E-01   # N_33
  3  4     7.07118350E-01   # N_34
  4  1     1.12931846E-02   # N_41
  4  2    -2.31809238E-02   # N_42
  4  3     7.06670615E-01   # N_43
  4  4     7.07072663E-01   # N_44
#
BLOCK UMIX  # Chargino Mixing Matrix U
  1  1     9.99257522E-01   # U_11
  1  2     3.85279777E-02   # U_12
  2  1    -3.85279777E-02   # U_21
  2  2     9.99257522E-01   # U_22
#
BLOCK VMIX  # Chargino Mixing Matrix V
  1  1     9.99969394E-01   # V_11
  1  2    -7.82370446E-03   # V_12
  2  1    -7.82370446E-03   # V_21
  2  2    -9.99969394E-01   # V_22
#
BLOCK STOPMIX  # Stop Mixing Matrix
  1  1     9.98579891E-01   # cos(theta_t)
  1  2    -5.32747716E-02   # sin(theta_t)
  2  1     5.32747716E-02   # -sin(theta_t)
  2  2     9.98579891E-01   # cos(theta_t)
#
BLOCK SBOTMIX  # Sbottom Mixing Matrix
  1  1     9.99729392E-01   # cos(theta_b)
  1  2    -2.32624756E-02   # sin(theta_b)
  2  1     2.32624756E-02   # -sin(theta_b)
  2  2     9.99729392E-01   # cos(theta_b)
#
BLOCK STAUMIX  # Stau Mixing Matrix
  1  1    -7.06953146E-01   # cos(theta_tau)
  1  2     7.07260383E-01   # sin(theta_tau)
  2  1    -7.07260383E-01   # -sin(theta_tau)
  2  2    -7.06953146E-01   # cos(theta_tau)
#
BLOCK ALPHA  # Higgs mixing
          -5.00112202E-02   # Mixing angle in the neutral Higgs boson sector
#
BLOCK HMIX Q=  1.44688493E+03  # DRbar Higgs Parameters
         1    -3.00000000E+03   # mu(Q)MSSM           
         2     2.00000000E+01   # tan                 
         3     2.44154948E+02   # higgs               
         4     1.08871826E+07   # mA^2(Q)MSSM         
#
BLOCK GAUGE Q=  1.44688493E+03  # The gauge couplings
     1     3.62029052E-01   # gprime(Q) DRbar
     2     6.36697594E-01   # g(Q) DRbar
     3     1.02713837E+00   # g3(Q) DRbar
#
BLOCK AU Q=  1.44688493E+03  # The trilinear couplings
  1  1     1.99647131E-06   # A_u(Q) DRbar
  2  2     1.99650006E-06   # A_c(Q) DRbar
  3  3     2.94338000E+03   # A_t(Q) DRbar
#
BLOCK AD Q=  1.44688493E+03  # The trilinear couplings
  1  1     7.19981790E-07   # A_d(Q) DRbar
  2  2     7.20062713E-07   # A_s(Q) DRbar
  3  3     1.44302571E-06   # A_b(Q) DRbar
#
BLOCK AE Q=  1.44688493E+03  # The trilinear couplings
  1  1     3.03808838E-07   # A_e(Q) DRbar
  2  2     3.03823544E-07   # A_mu(Q) DRbar
  3  3     3.07927713E-07   # A_tau(Q) DRbar
#
BLOCK Yu Q=  1.44688493E+03  # The Yukawa couplings
  1  1     0.00000000E+00   # y_u(Q) DRbar
  2  2     0.00000000E+00   # y_c(Q) DRbar
  3  3     8.53773110E-01   # y_t(Q) DRbar
#
BLOCK Yd Q=  1.44688493E+03  # The Yukawa couplings
  1  1     0.00000000E+00   # y_d(Q) DRbar
  2  2     0.00000000E+00   # y_s(Q) DRbar
  3  3     3.82894347E-01   # y_b(Q) DRbar
#
BLOCK Ye Q=  1.44688493E+03  # The Yukawa couplings
  1  1     0.00000000E+00   # y_e(Q) DRbar
  2  2     0.00000000E+00   # y_mu(Q) DRbar
  3  3     2.01038071E-01   # y_tau(Q) DRbar
#
BLOCK MSOFT Q=  1.44688493E+03  # The soft SUSY breaking masses at the scale Q
         1     3.75990000E+02   # M_1(Q)              
         2     7.51990000E+02   # M_2(Q)              
         3     2.20000000E+03   # M_3(Q)              
        21    -4.69344495E+04   # M^2_Hd              
        22    -9.07844755E+06   # M^2_Hu              
        31     3.00000000E+03   # M_eL                
        32     3.00000000E+03   # M_muL               
        33     3.00000000E+03   # M_tauL              
        34     3.00000000E+03   # M_eR                
        35     3.00000000E+03   # M_muR               
        36     3.00000000E+03   # M_tauR              
        41     3.00000000E+03   # M_q1L               
        42     3.00000000E+03   # M_q2L               
        43     6.99899993E+02   # M_q3L               
        44     3.00000000E+03   # M_uR                
        45     3.00000000E+03   # M_cR                
        46     3.00000000E+03   # M_tR                
        47     3.00000000E+03   # M_dR                
        48     3.00000000E+03   # M_sR                
        49     3.00000000E+03   # M_bR                
#
#
#
#                             =================
#                             |The decay table|
#                             =================
#
# - The QCD corrections to the decays gluino -> squark  + quark
#                                     squark -> gaugino + quark_prime
#                                     squark -> squark_prime + Higgs
#                                     squark -> gluino  + quark
#   are included.
#
# - The multi-body decays for the inos, stops and sbottoms are included.
#
# - The loop induced decays for the gluino, neutralinos and stops
#   are included.
#
# - The SUSY decays of the top quark are included.
#
#
#         PDG            Width
DECAY         6     1.40699022E+00   # top decays
#          BR         NDA      ID1       ID2
     1.00000000E+00    2           5        24   # BR(t ->  b    W+)
#
#         PDG            Width
DECAY   1000021     7.39308420E+01   # gluino decays
#          BR         NDA      ID1       ID2
     2.47995726E-01    2     1000005        -5   # BR(~g -> ~b_1  bb)
     2.47995726E-01    2    -1000005         5   # BR(~g -> ~b_1* b )
     2.52004274E-01    2     1000006        -6   # BR(~g -> ~t_1  tb)
     2.52004274E-01    2    -1000006         6   # BR(~g -> ~t_1* t )
#
#         PDG            Width
DECAY   1000006     5.96661316E-02   # stop1 decays
#          BR         NDA      ID1       ID2
     9.52027636E-01    2     1000022         6   # BR(~t_1 -> ~chi_10 t )
     4.79723639E-02    2     1000024         5   # BR(~t_1 -> ~chi_1+ b )
#
#         PDG            Width
DECAY   2000006     1.17136449E+02   # stop2 decays
#          BR         NDA      ID1       ID2
     5.48608290E-02    2     1000022         6   # BR(~t_2 -> ~chi_10 t )
     3.25636153E-04    2     1000023         6   # BR(~t_2 -> ~chi_20 t )
     0.00000000E+00    2     1000025         6   # BR(~t_2 -> ~chi_30 t )
     6.55151429E-04    2     1000024         5   # BR(~t_2 -> ~chi_1+ b )
     7.71459644E-05    2     1000037         5   # BR(~t_2 -> ~chi_2+ b )
     2.93924544E-01    2     1000021         6   # BR(~t_2 -> ~g      t )
     1.70589658E-01    2     1000006        25   # BR(~t_2 -> ~t_1    h )
     1.61903208E-01    2     1000006        23   # BR(~t_2 -> ~t_1    Z )
     3.17663827E-01    2     1000005        24   # BR(~t_2 -> ~b_1    W+)
#
#         PDG            Width
DECAY   1000005     7.58236753E-02   # sbottom1 decays
#          BR         NDA      ID1       ID2
     9.63360356E-01    2     1000022         5   # BR(~b_1 -> ~chi_10 b )
     3.66396442E-02    2     1000023         5   # BR(~b_1 -> ~chi_20 b )
#
#         PDG            Width
DECAY   2000005     5.42409312E+01   # sbottom2 decays
#          BR         NDA      ID1       ID2
     2.98220257E-02    2     1000022         5   # BR(~b_2 -> ~chi_10 b )
     8.38442079E-08    2     1000023         5   # BR(~b_2 -> ~chi_20 b )
     2.70713768E-05    2     1000025         5   # BR(~b_2 -> ~chi_30 b )
     2.57838312E-05    2     1000035         5   # BR(~b_2 -> ~chi_40 b )
    -8.47670773E-09    2    -1000024         6   # BR(~b_2 -> ~chi_1- t )
     6.45322171E-01    2     1000021         5   # BR(~b_2 -> ~g      b )
     7.25704229E-02    2     1000005        25   # BR(~b_2 -> ~b_1    h )
     1.02752376E-01    2     1000005        23   # BR(~b_2 -> ~b_1    Z )
     1.49480074E-01    2     1000006       -24   # BR(~b_2 -> ~t_1    W-)
#
#         PDG            Width
DECAY   1000002     6.62869615E+01   # sup_L decays
#          BR         NDA      ID1       ID2
     6.11573476E-03    2     1000022         2   # BR(~u_L -> ~chi_10 u)
     1.53316995E-01    2     1000023         2   # BR(~u_L -> ~chi_20 u)
     1.62291625E-08    2     1000025         2   # BR(~u_L -> ~chi_30 u)
     3.83692560E-08    2     1000035         2   # BR(~u_L -> ~chi_40 u)
     3.06777720E-01    2     1000024         1   # BR(~u_L -> ~chi_1+ d)
     1.01130492E-08    2     1000037         1   # BR(~u_L -> ~chi_2+ d)
     5.33789485E-01    2     1000021         2   # BR(~u_L -> ~g      u)
#
#         PDG            Width
DECAY   2000002     4.17072517E+01   # sup_R decays
#          BR         NDA      ID1       ID2
     1.55536318E-01    2     1000022         2   # BR(~u_R -> ~chi_10 u)
     3.36335132E-08    2     1000023         2   # BR(~u_R -> ~chi_20 u)
     6.72627682E-09    2     1000025         2   # BR(~u_R -> ~chi_30 u)
     8.87430146E-09    2     1000035         2   # BR(~u_R -> ~chi_40 u)
     8.44463632E-01    2     1000021         2   # BR(~u_R -> ~g      u)
#
#         PDG            Width
DECAY   1000001     6.63401768E+01   # sdown_L decays
#          BR         NDA      ID1       ID2
     6.12303912E-03    2     1000022         1   # BR(~d_L -> ~chi_10 d)
     1.53197186E-01    2     1000023         1   # BR(~d_L -> ~chi_20 d)
     2.77127222E-08    2     1000025         1   # BR(~d_L -> ~chi_30 d)
     5.86766624E-08    2     1000035         1   # BR(~d_L -> ~chi_40 d)
     3.06215514E-01    2    -1000024         2   # BR(~d_L -> ~chi_1- u)
     2.59313180E-07    2    -1000037         2   # BR(~d_L -> ~chi_2- u)
     5.34463915E-01    2     1000021         1   # BR(~d_L -> ~g      d)
#
#         PDG            Width
DECAY   2000001     3.66668474E+01   # sdown_R decays
#          BR         NDA      ID1       ID2
     4.41948891E-02    2     1000022         1   # BR(~d_R -> ~chi_10 d)
     9.55528365E-09    2     1000023         1   # BR(~d_R -> ~chi_20 d)
     1.65261021E-09    2     1000025         1   # BR(~d_R -> ~chi_30 d)
     2.17584394E-09    2     1000035         1   # BR(~d_R -> ~chi_40 d)
     9.55805098E-01    2     1000021         1   # BR(~d_R -> ~g      d)
#
#         PDG            Width
DECAY   1000004     6.62869615E+01   # scharm_L decays
#          BR         NDA      ID1       ID2
     6.11573476E-03    2     1000022         4   # BR(~c_L -> ~chi_10 c)
     1.53316995E-01    2     1000023         4   # BR(~c_L -> ~chi_20 c)
     1.62291625E-08    2     1000025         4   # BR(~c_L -> ~chi_30 c)
     3.83692560E-08    2     1000035         4   # BR(~c_L -> ~chi_40 c)
     3.06777720E-01    2     1000024         3   # BR(~c_L -> ~chi_1+ s)
     1.01130492E-08    2     1000037         3   # BR(~c_L -> ~chi_2+ s)
     5.33789485E-01    2     1000021         4   # BR(~c_L -> ~g      c)
#
#         PDG            Width
DECAY   2000004     4.17072517E+01   # scharm_R decays
#          BR         NDA      ID1       ID2
     1.55536318E-01    2     1000022         4   # BR(~c_R -> ~chi_10 c)
     3.36335132E-08    2     1000023         4   # BR(~c_R -> ~chi_20 c)
     6.72627682E-09    2     1000025         4   # BR(~c_R -> ~chi_30 c)
     8.87430146E-09    2     1000035         4   # BR(~c_R -> ~chi_40 c)
     8.44463632E-01    2     1000021         4   # BR(~c_R -> ~g      c)
#
#         PDG            Width
DECAY   1000003     6.63401768E+01   # sstrange_L decays
#          BR         NDA      ID1       ID2
     6.12303912E-03    2     1000022         3   # BR(~s_L -> ~chi_10 s)
     1.53197186E-01    2     1000023         3   # BR(~s_L -> ~chi_20 s)
     2.77127222E-08    2     1000025         3   # BR(~s_L -> ~chi_30 s)
     5.86766624E-08    2     1000035         3   # BR(~s_L -> ~chi_40 s)
     3.06215514E-01    2    -1000024         4   # BR(~s_L -> ~chi_1- c)
     2.59313180E-07    2    -1000037         4   # BR(~s_L -> ~chi_2- c)
     5.34463915E-01    2     1000021         3   # BR(~s_L -> ~g      s)
#
#         PDG            Width
DECAY   2000003     3.66668474E+01   # sstrange_R decays
#          BR         NDA      ID1       ID2
     4.41948891E-02    2     1000022         3   # BR(~s_R -> ~chi_10 s)
     9.55528365E-09    2     1000023         3   # BR(~s_R -> ~chi_20 s)
     1.65261021E-09    2     1000025         3   # BR(~s_R -> ~chi_30 s)
     2.17584394E-09    2     1000035         3   # BR(~s_R -> ~chi_40 s)
     9.55805098E-01    2     1000021         3   # BR(~s_R -> ~g      s)
#
#         PDG            Width
DECAY   1000011     3.53206057E+01   # selectron_L decays
#          BR         NDA      ID1       ID2
     1.07420459E-01    2     1000022        11   # BR(~e_L -> ~chi_10 e-)
     2.97790258E-01    2     1000023        11   # BR(~e_L -> ~chi_20 e-)
     5.68623020E-10    2     1000025        11   # BR(~e_L -> ~chi_30 e-)
     1.44615184E-09    2     1000035        11   # BR(~e_L -> ~chi_40 e-)
     5.94789270E-01    2    -1000024        12   # BR(~e_L -> ~chi_1- nu_e)
     1.15399362E-08    2    -1000037        12   # BR(~e_L -> ~chi_2- nu_e)
#
#         PDG            Width
DECAY   2000011     1.51503321E+01   # selectron_R decays
#          BR         NDA      ID1       ID2
     9.99999785E-01    2     1000022        11   # BR(~e_R -> ~chi_10 e-)
     2.15189362E-07    2     1000023        11   # BR(~e_R -> ~chi_20 e-)
     1.29884342E-11    2     1000025        11   # BR(~e_R -> ~chi_30 e-)
     1.33340350E-12    2     1000035        11   # BR(~e_R -> ~chi_40 e-)
#
#         PDG            Width
DECAY   1000013     3.53206057E+01   # smuon_L decays
#          BR         NDA      ID1       ID2
     1.07420459E-01    2     1000022        13   # BR(~mu_L -> ~chi_10 mu-)
     2.97790258E-01    2     1000023        13   # BR(~mu_L -> ~chi_20 mu-)
     5.68623020E-10    2     1000025        13   # BR(~mu_L -> ~chi_30 mu-)
     1.44615184E-09    2     1000035        13   # BR(~mu_L -> ~chi_40 mu-)
     5.94789270E-01    2    -1000024        14   # BR(~mu_L -> ~chi_1- nu_mu)
     1.15399362E-08    2    -1000037        14   # BR(~mu_L -> ~chi_2- nu_mu)
#
#         PDG            Width
DECAY   2000013     1.51503321E+01   # smuon_R decays
#          BR         NDA      ID1       ID2
     9.99999785E-01    2     1000022        13   # BR(~mu_R -> ~chi_10 mu-)
     2.15189362E-07    2     1000023        13   # BR(~mu_R -> ~chi_20 mu-)
     1.29884342E-11    2     1000025        13   # BR(~mu_R -> ~chi_30 mu-)
     1.33340350E-12    2     1000035        13   # BR(~mu_R -> ~chi_40 mu-)
#
#         PDG            Width
DECAY   1000015     2.54658036E+01   # stau_1 decays
#          BR         NDA      ID1       ID2
     3.71660611E-01    2     1000022        15   # BR(~tau_1 -> ~chi_10  tau-)
     2.09649755E-01    2     1000023        15   # BR(~tau_1 -> ~chi_20  tau-)
     4.18689634E-01    2    -1000024        16   # BR(~tau_1 -> ~chi_1-  nu_tau)
#
#         PDG            Width
DECAY   2000015     2.49831939E+01   # stau_2 decays
#          BR         NDA      ID1       ID2
     3.79970643E-01    2     1000022        15   # BR(~tau_2 -> ~chi_10  tau-)
     2.06874979E-01    2     1000023        15   # BR(~tau_2 -> ~chi_20  tau-)
     1.10719276E-05    2     1000025        15   # BR(~tau_2 -> ~chi_30  tau-)
     9.25101106E-06    2     1000035        15   # BR(~tau_2 -> ~chi_40  tau-)
     4.13123243E-01    2    -1000024        16   # BR(~tau_2 -> ~chi_1-  nu_tau)
     1.08124903E-05    2    -1000037        16   # BR(~tau_2 -> ~chi_2-  nu_tau)
#
#         PDG            Width
DECAY   1000012     3.53202728E+01   # snu_eL decays
#          BR         NDA      ID1       ID2
     1.07428577E-01    2     1000022        12   # BR(~nu_eL -> ~chi_10 nu_e)
     2.97283857E-01    2     1000023        12   # BR(~nu_eL -> ~chi_20 nu_e)
     1.54883874E-09    2     1000025        12   # BR(~nu_eL -> ~chi_30 nu_e)
     2.62465773E-09    2     1000035        12   # BR(~nu_eL -> ~chi_40 nu_e)
     5.95287562E-01    2     1000024        11   # BR(~nu_eL -> ~chi_1+ e-)
     2.51376529E-10    2     1000037        11   # BR(~nu_eL -> ~chi_2+ e-)
#
#         PDG            Width
DECAY   1000014     3.53202728E+01   # snu_muL decays
#          BR         NDA      ID1       ID2
     1.07428577E-01    2     1000022        14   # BR(~nu_muL -> ~chi_10 nu_mu)
     2.97283857E-01    2     1000023        14   # BR(~nu_muL -> ~chi_20 nu_mu)
     1.54883874E-09    2     1000025        14   # BR(~nu_muL -> ~chi_30 nu_mu)
     2.62465773E-09    2     1000035        14   # BR(~nu_muL -> ~chi_40 nu_mu)
     5.95287562E-01    2     1000024        13   # BR(~nu_muL -> ~chi_1+ mu-)
     2.51376529E-10    2     1000037        13   # BR(~nu_muL -> ~chi_2+ mu-)
#
#         PDG            Width
DECAY   1000016     3.53256374E+01   # snu_tauL decays
#          BR         NDA      ID1       ID2
     1.07417582E-01    2     1000022        16   # BR(~nu_tauL -> ~chi_10 nu_tau)
     2.97256605E-01    2     1000023        16   # BR(~nu_tauL -> ~chi_20 nu_tau)
     1.63918451E-09    2     1000025        16   # BR(~nu_tauL -> ~chi_30 nu_tau)
     2.79172146E-09    2     1000035        16   # BR(~nu_tauL -> ~chi_40 nu_tau)
     5.95325427E-01    2     1000024        15   # BR(~nu_tauL -> ~chi_1+ tau-)
     3.80982414E-07    2     1000037        15   # BR(~nu_tauL -> ~chi_2+ tau-)
#
#         PDG            Width
DECAY   1000024     3.25871861E-05   # chargino1+ decays
#          BR         NDA      ID1       ID2
     1.00000000E+00    2     1000022        24   # BR(~chi_1+ -> ~chi_10  W+)
#
#         PDG            Width
DECAY   1000037     9.20254524E+01   # chargino2+ decays
#          BR         NDA      ID1       ID2
     1.36431556E-01    2     1000006        -5   # BR(~chi_2+ -> ~t_1     bb)
     6.66447157E-01    2    -1000005         6   # BR(~chi_2+ -> ~b_1*    t )
     5.26385989E-07    2    -1000015        16   # BR(~chi_2+ -> ~tau_1+  nu_tau)
     5.87285081E-02    2     1000024        23   # BR(~chi_2+ -> ~chi_1+  Z )
     1.93394079E-02    2     1000022        24   # BR(~chi_2+ -> ~chi_10  W+)
     5.71596625E-02    2     1000023        24   # BR(~chi_2+ -> ~chi_20  W+)
     6.18931822E-02    2     1000024        25   # BR(~chi_2+ -> ~chi_1+  h )
#
#         PDG            Width
DECAY   1000022     0.00000000E+00   # neutralino1 decays
#
#         PDG            Width
DECAY   1000023     3.08369491E-05   # neutralino2 decays
#          BR         NDA      ID1       ID2
     3.86727964E-01    2     1000022        23   # BR(~chi_20 -> ~chi_10   Z )
     6.13272036E-01    2     1000022        25   # BR(~chi_20 -> ~chi_10   h )
#
#         PDG            Width
DECAY   1000025     9.22064642E+01   # neutralino3 decays
#          BR         NDA      ID1       ID2
     1.14210064E-02    2     1000022        23   # BR(~chi_30 -> ~chi_10   Z )
     4.06896286E-02    2     1000023        23   # BR(~chi_30 -> ~chi_20   Z )
     5.70076213E-02    2     1000024       -24   # BR(~chi_30 -> ~chi_1+   W-)
     5.70076213E-02    2    -1000024        24   # BR(~chi_30 -> ~chi_1-   W+)
     8.72467313E-03    2     1000022        25   # BR(~chi_30 -> ~chi_10   h )
     1.81703003E-02    2     1000023        25   # BR(~chi_30 -> ~chi_20   h )
     3.36471956E-01    2     1000006        -6   # BR(~chi_30 -> ~t_1      tb)
     3.36471956E-01    2    -1000006         6   # BR(~chi_30 -> ~t_1*     t )
     6.70170093E-02    2     1000005        -5   # BR(~chi_30 -> ~b_1      bb)
     6.70170093E-02    2    -1000005         5   # BR(~chi_30 -> ~b_1*     b )
     6.08681729E-07    2     1000015       -15   # BR(~chi_30 -> ~tau_1-   tau+)
     6.08681729E-07    2    -1000015        15   # BR(~chi_30 -> ~tau_1+   tau-)
#
#         PDG            Width
DECAY   1000035     9.12942522E+01   # neutralino4 decays
#          BR         NDA      ID1       ID2
     8.52315565E-03    2     1000022        23   # BR(~chi_40 -> ~chi_10   Z )
     1.80818881E-02    2     1000023        23   # BR(~chi_40 -> ~chi_20   Z )
     5.76051002E-02    2     1000024       -24   # BR(~chi_40 -> ~chi_1+   W-)
     5.76051002E-02    2    -1000024        24   # BR(~chi_40 -> ~chi_1-   W+)
     1.20007191E-02    2     1000022        25   # BR(~chi_40 -> ~chi_10   h )
     4.40316745E-02    2     1000023        25   # BR(~chi_40 -> ~chi_20   h )
     3.33385214E-01    2     1000006        -6   # BR(~chi_40 -> ~t_1      tb)
     3.33385214E-01    2    -1000006         6   # BR(~chi_40 -> ~t_1*     t )
     6.76904745E-02    2     1000005        -5   # BR(~chi_40 -> ~b_1      bb)
     6.76904745E-02    2    -1000005         5   # BR(~chi_40 -> ~b_1*     b )
     4.92264181E-07    2     1000015       -15   # BR(~chi_40 -> ~tau_1-   tau+)
     4.92264181E-07    2    -1000015        15   # BR(~chi_40 -> ~tau_1+   tau-)
#
#         PDG            Width
DECAY        25     3.64474223E-03   # h decays
#          BR         NDA      ID1       ID2
     5.55909510E-01    2           5        -5   # BR(h -> b       bb     )
     7.13319120E-02    2         -15        15   # BR(h -> tau+    tau-   )
     2.52515396E-04    2         -13        13   # BR(h -> mu+     mu-    )
     5.35678946E-04    2           3        -3   # BR(h -> s       sb     )
     2.32795325E-02    2           4        -4   # BR(h -> c       cb     )
     7.59858674E-02    2          21        21   # BR(h -> g       g      )
     2.61200234E-03    2          22        22   # BR(h -> gam     gam    )
     1.76844926E-03    2          22        23   # BR(h -> Z       gam    )
     2.38340117E-01    2          24       -24   # BR(h -> W+      W-     )
     2.99844151E-02    2          23        23   # BR(h -> Z       Z      )
#
#         PDG            Width
DECAY        35     3.76644458E+01   # H decays
#          BR         NDA      ID1       ID2
     9.01954695E-01    2           5        -5   # BR(H -> b       bb     )
     6.60249891E-02    2         -15        15   # BR(H -> tau+    tau-   )
     2.33448584E-04    2         -13        13   # BR(H -> mu+     mu-    )
     2.86675159E-04    2           3        -3   # BR(H -> s       sb     )
     8.03433026E-08    2           4        -4   # BR(H -> c       cb     )
     8.01476102E-03    2           6        -6   # BR(H -> t       tb     )
     7.66898543E-06    2          21        21   # BR(H -> g       g      )
     6.61167747E-08    2          22        22   # BR(H -> gam     gam    )
     3.28932283E-09    2          23        22   # BR(H -> Z       gam    )
     6.53688561E-07    2          24       -24   # BR(H -> W+      W-     )
     3.26441397E-07    2          23        23   # BR(H -> Z       Z      )
     5.36291324E-06    2          25        25   # BR(H -> h       h      )
    -3.57618059E-24    2          36        36   # BR(H -> A       A      )
     7.67296944E-19    2          23        36   # BR(H -> Z       A      )
     6.30153415E-04    2     1000024  -1000024   # BR(H -> ~chi_1+ ~chi_1-)
     3.88627450E-05    2     1000022   1000022   # BR(H -> ~chi_10 ~chi_10)
     3.14820054E-04    2     1000023   1000023   # BR(H -> ~chi_20 ~chi_20)
     2.29308803E-04    2     1000022   1000023   # BR(H -> ~chi_10 ~chi_20)
     2.22529244E-02    2     1000006  -1000006   # BR(H -> ~t_1    ~t_1*  )
     5.20001032E-06    2     1000005  -1000005   # BR(H -> ~b_1    ~b_1*  )
#
#         PDG            Width
DECAY        36     3.68415076E+01   # A decays
#          BR         NDA      ID1       ID2
     9.22113659E-01    2           5        -5   # BR(A -> b       bb     )
     6.74976168E-02    2         -15        15   # BR(A -> tau+    tau-   )
     2.38655110E-04    2         -13        13   # BR(A -> mu+     mu-    )
     2.93118032E-04    2           3        -3   # BR(A -> s       sb     )
     8.27137538E-08    2           4        -4   # BR(A -> c       cb     )
     8.24668658E-03    2           6        -6   # BR(A -> t       tb     )
     2.42857028E-05    2          21        21   # BR(A -> g       g      )
     6.30170022E-08    2          22        22   # BR(A -> gam     gam    )
     2.39354500E-08    2          23        22   # BR(A -> Z       gam    )
     6.65730702E-07    2          23        25   # BR(A -> Z       h      )
     8.53436980E-04    2     1000024  -1000024   # BR(A -> ~chi_1+ ~chi_1-)
     4.18038279E-05    2     1000022   1000022   # BR(A -> ~chi_10 ~chi_10)
     4.26289730E-04    2     1000023   1000023   # BR(A -> ~chi_20 ~chi_20)
     2.63612540E-04    2     1000022   1000023   # BR(A -> ~chi_10 ~chi_20)
#
#         PDG            Width
DECAY        37     4.04551124E+01   # H+ decays
#          BR         NDA      ID1       ID2
     1.47094736E-03    2           4        -5   # BR(H+ -> c       bb     )
     6.14908454E-02    2         -15        16   # BR(H+ -> tau+    nu_tau )
     2.17416631E-04    2         -13        14   # BR(H+ -> mu+     nu_mu  )
     9.41405154E-06    2           2        -5   # BR(H+ -> u       bb     )
     1.27770190E-05    2           2        -3   # BR(H+ -> u       sb     )
     2.62864368E-04    2           4        -3   # BR(H+ -> c       sb     )
     9.25376552E-01    2           6        -5   # BR(H+ -> t       bb     )
     6.07307336E-07    2          24        25   # BR(H+ -> W+      h      )
     5.04831868E-14    2          24        36   # BR(H+ -> W+      A      )
     4.53526839E-04    2     1000024   1000022   # BR(H+ -> ~chi_1+ ~chi_10)
     9.70361808E-11    2     1000024   1000023   # BR(H+ -> ~chi_1+ ~chi_20)
     1.07050487E-02    2     1000006  -1000005   # BR(H+ -> ~t_1    ~b_1*  )
