#
#                              ======================
#                              | THE SUSYHIT OUTPUT |
#                              ======================
#
#
#              ------------------------------------------------------
#              |     This is the output of the SUSY-HIT package     |
#              |  created by A.Djouadi, M.Muehlleitner and M.Spira. |
#              |  In case of problems with SUSY-HIT email to        |
#              |           margarete.muehlleitner@kit.edu           |
#              |           michael.spira@psi.ch                     |
#              |           abdelhak.djouadi@cern.ch                 |
#              ------------------------------------------------------
#
#              ------------------------------------------------------
#              |  SUSY Les Houches Accord - MSSM Spectrum + Decays  |
#              |              based on the decay programs           |
#              |                                                    |
#              |                     SDECAY 1.5                     |
#              |                                                    |
#              |  Authors: M.Muhlleitner, A.Djouadi and Y.Mambrini  |
#              |  Ref.:    Comput.Phys.Commun.168(2005)46           |
#              |           [hep-ph/0311167]                         |
#              |                                                    |
#              |                     HDECAY 3.4                     |
#              |                                                    |
#              |  By: A.Djouadi,J.Kalinowski,M.Muhlleitner,M.Spira  |
#              |  Ref.:    Comput.Phys.Commun.108(1998)56           |
#              |           [hep-ph/9704448]                         |
#              |                                                    |
#              |                                                    |
#              |  If not stated otherwise all DRbar couplings and   |
#              |  soft SUSY breaking masses are given at the scale  |
#              |  Q=  0.17311841E+04
#              |                                                    |
#              ------------------------------------------------------
#
#
BLOCK DCINFO  # Decay Program information
     1   SDECAY/HDECAY # decay calculator
     2   1.5  /3.4    # version number
#
BLOCK SPINFO  # Spectrum calculator information
     1    SOFTSUSY    # spectrum calculator                
     2    3.7.3       # version number                     
#
BLOCK MODSEL  # Model selection
     1     0   #  nonUniversal                                     
#
BLOCK SMINPUTS  # Standard Model inputs
         1     1.27934000E+02   # alpha_em^-1(M_Z)^MSbar
         2     1.16639000E-05   # G_F [GeV^-2]
         3     1.17200000E-01   # alpha_S(M_Z)^MSbar
         4     9.11870000E+01   # M_Z pole mass
         5     4.19000000E+00   # mb(mb)^MSbar
         6     1.72500000E+02   # mt pole mass
         7     1.77690000E+00   # mtau pole mass
#
BLOCK MINPAR  # Input parameters - minimal models
         3     2.00000000E+01   # tanb                
#
BLOCK EXTPAR  # Input parameters - non-minimal models
         0    -1.00000000E+00   # Set                 
         1     4.99000000E+01   # M_1(MX)             
         2     9.99000000E+01   # M_2(MX)             
         3     2.20000000E+03   # M_3(MX)             
        11     2.94338000E+03   # At(MX)              
        12     0.00000000E+00   # Ab(MX)              
        13     0.00000000E+00   # Atau(MX)            
        23    -3.00000000E+03   # mu(MX)              
        25     2.00000000E+01   # tan                 
        26     3.00000000E+03   # mA(pole)            
        31     3.00000000E+03   # meL(MX)             
        32     3.00000000E+03   # mmuL(MX)            
        33     3.00000000E+03   # mtauL(MX)           
        34     3.00000000E+03   # meR(MX)             
        35     3.00000000E+03   # mmuR(MX)            
        36     3.00000000E+03   # mtauR(MX)           
        41     3.00000000E+03   # mqL1(MX)            
        42     3.00000000E+03   # mqL2(MX)            
        43     9.99900000E+02   # mqL3(MX)            
        44     3.00000000E+03   # muR(MX)             
        45     3.00000000E+03   # mcR(MX)             
        46     3.00000000E+03   # mtR(MX)             
        47     3.00000000E+03   # mdR(MX)             
        48     3.00000000E+03   # msR(MX)             
        49     3.00000000E+03   # mbR(MX)             
#
BLOCK MASS  # Mass Spectrum
# PDG code           mass       particle
        24     8.03971789E+01   # W+
        25     1.24997923E+02   # h
        35     2.99998263E+03   # H
        36     2.99999995E+03   # A
        37     3.00109736E+03   # H+
         5     4.81337004E+00   # b-quark pole mass calculated from mb(mb)_Msbar
   1000001     3.04342454E+03   # ~d_L
   2000001     3.03820624E+03   # ~d_R
   1000002     3.04250476E+03   # ~u_L
   2000002     3.03938237E+03   # ~u_R
   1000003     3.04342454E+03   # ~s_L
   2000003     3.03820624E+03   # ~s_R
   1000004     3.04250476E+03   # ~c_L
   2000004     3.03938237E+03   # ~c_R
   1000005     1.09757545E+03   # ~b_1
   2000005     3.03525446E+03   # ~b_2
   1000006     1.09558778E+03   # ~t_1
   2000006     3.02478893E+03   # ~t_2
   1000011     3.00644568E+03   # ~e_L
   2000011     3.00198973E+03   # ~e_R
   1000012     3.00504001E+03   # ~nu_eL
   1000013     3.00644568E+03   # ~mu_L
   2000013     3.00198973E+03   # ~mu_R
   1000014     3.00504001E+03   # ~nu_muL
   1000015     2.98589712E+03   # ~tau_1
   2000015     3.02181581E+03   # ~tau_2
   1000016     3.00482555E+03   # ~nu_tauL
   1000021     2.35418434E+03   # ~g
   1000022     5.04455225E+01   # ~chi_10
   1000023     1.10643699E+02   # ~chi_20
   1000025    -2.99402467E+03   # ~chi_30
   1000035     2.99416810E+03   # ~chi_40
   1000024     1.10795501E+02   # ~chi_1+
   1000037     2.99504184E+03   # ~chi_2+
#
BLOCK NMIX  # Neutralino Mixing Matrix
  1  1     9.99890626E-01   # N_11
  1  2     1.91203965E-03   # N_12
  1  3    -1.46574205E-02   # N_13
  1  4     4.89212919E-04   # N_14
  2  1    -1.52955808E-03   # N_21
  2  2     9.99659449E-01   # N_22
  2  3     2.60472257E-02   # N_23
  2  4    -4.34534302E-04   # N_24
  3  1     1.00495227E-02   # N_31
  3  2    -1.80935148E-02   # N_32
  3  3     7.06792789E-01   # N_33
  3  4     7.07117801E-01   # N_34
  4  1    -1.07425671E-02   # N_41
  4  2     1.87070886E-02   # N_42
  4  3    -7.06788975E-01   # N_43
  4  4     7.07095458E-01   # N_44
#
BLOCK UMIX  # Chargino Mixing Matrix U
  1  1     9.99322942E-01   # U_11
  1  2     3.67920921E-02   # U_12
  2  1    -3.67920921E-02   # U_21
  2  2     9.99322942E-01   # U_22
#
BLOCK VMIX  # Chargino Mixing Matrix V
  1  1     9.99999811E-01   # V_11
  1  2     6.15036086E-04   # V_12
  2  1     6.15036086E-04   # V_21
  2  2    -9.99999811E-01   # V_22
#
BLOCK STOPMIX  # Stop Mixing Matrix
  1  1     9.98415644E-01   # cos(theta_t)
  1  2    -5.62690129E-02   # sin(theta_t)
  2  1     5.62690129E-02   # -sin(theta_t)
  2  2     9.98415644E-01   # cos(theta_t)
#
BLOCK SBOTMIX  # Sbottom Mixing Matrix
  1  1     9.99690199E-01   # cos(theta_b)
  1  2    -2.48898779E-02   # sin(theta_b)
  2  1     2.48898779E-02   # -sin(theta_b)
  2  2     9.99690199E-01   # cos(theta_b)
#
BLOCK STAUMIX  # Stau Mixing Matrix
  1  1    -7.06890297E-01   # cos(theta_tau)
  1  2     7.07323199E-01   # sin(theta_tau)
  2  1    -7.07323199E-01   # -sin(theta_tau)
  2  2    -7.06890297E-01   # cos(theta_tau)
#
BLOCK ALPHA  # Higgs mixing
          -5.00210773E-02   # Mixing angle in the neutral Higgs boson sector
#
BLOCK HMIX Q=  1.73118409E+03  # DRbar Higgs Parameters
         1    -3.00000000E+03   # mu(Q)MSSM           
         2     2.00000000E+01   # tan                 
         3     2.43835137E+02   # higgs               
         4     1.00390625E+07   # mA^2(Q)MSSM         
#
BLOCK GAUGE Q=  1.73118409E+03  # The gauge couplings
     1     3.62590054E-01   # gprime(Q) DRbar
     2     6.41760224E-01   # g(Q) DRbar
     3     1.02310013E+00   # g3(Q) DRbar
#
BLOCK AU Q=  1.73118409E+03  # The trilinear couplings
  1  1     2.83705503E-06   # A_u(Q) DRbar
  2  2     2.83709962E-06   # A_c(Q) DRbar
  3  3     2.94338000E+03   # A_t(Q) DRbar
#
BLOCK AD Q=  1.73118409E+03  # The trilinear couplings
  1  1     9.76053330E-07   # A_d(Q) DRbar
  2  2     9.76176246E-07   # A_s(Q) DRbar
  3  3     2.05697701E-06   # A_b(Q) DRbar
#
BLOCK AE Q=  1.73118409E+03  # The trilinear couplings
  1  1     4.53132070E-07   # A_e(Q) DRbar
  2  2     4.53154931E-07   # A_mu(Q) DRbar
  3  3     4.59714937E-07   # A_tau(Q) DRbar
#
BLOCK Yu Q=  1.73118409E+03  # The Yukawa couplings
  1  1     0.00000000E+00   # y_u(Q) DRbar
  2  2     0.00000000E+00   # y_c(Q) DRbar
  3  3     8.49269244E-01   # y_t(Q) DRbar
#
BLOCK Yd Q=  1.73118409E+03  # The Yukawa couplings
  1  1     0.00000000E+00   # y_d(Q) DRbar
  2  2     0.00000000E+00   # y_s(Q) DRbar
  3  3     3.85673340E-01   # y_b(Q) DRbar
#
BLOCK Ye Q=  1.73118409E+03  # The Yukawa couplings
  1  1     0.00000000E+00   # y_e(Q) DRbar
  2  2     0.00000000E+00   # y_mu(Q) DRbar
  3  3     2.03901527E-01   # y_tau(Q) DRbar
#
BLOCK MSOFT Q=  1.73118409E+03  # The soft SUSY breaking masses at the scale Q
         1     4.99000000E+01   # M_1(Q)              
         2     9.99000000E+01   # M_2(Q)              
         3     2.20000000E+03   # M_3(Q)              
        21    -3.19080135E+04   # M^2_Hd              
        22    -9.01752543E+06   # M^2_Hu              
        31     3.00000000E+03   # M_eL                
        32     3.00000000E+03   # M_muL               
        33     3.00000000E+03   # M_tauL              
        34     3.00000000E+03   # M_eR                
        35     3.00000000E+03   # M_muR               
        36     3.00000000E+03   # M_tauR              
        41     3.00000000E+03   # M_q1L               
        42     3.00000000E+03   # M_q2L               
        43     9.99899993E+02   # M_q3L               
        44     3.00000000E+03   # M_uR                
        45     3.00000000E+03   # M_cR                
        46     3.00000000E+03   # M_tR                
        47     3.00000000E+03   # M_dR                
        48     3.00000000E+03   # M_sR                
        49     3.00000000E+03   # M_bR                
#
#
#
#                             =================
#                             |The decay table|
#                             =================
#
# - The QCD corrections to the decays gluino -> squark  + quark
#                                     squark -> gaugino + quark_prime
#                                     squark -> squark_prime + Higgs
#                                     squark -> gluino  + quark
#   are included.
#
# - The multi-body decays for the inos, stops and sbottoms are included.
#
# - The loop induced decays for the gluino, neutralinos and stops
#   are included.
#
# - The SUSY decays of the top quark are included.
#
#
#         PDG            Width
DECAY         6     1.42975737E+00   # top decays
#          BR         NDA      ID1       ID2
     1.00000000E+00    2           5        24   # BR(t ->  b    W+)
#
#         PDG            Width
DECAY   1000021     5.88094812E+01   # gluino decays
#          BR         NDA      ID1       ID2
     2.47864010E-01    2     1000005        -5   # BR(~g -> ~b_1  bb)
     2.47864010E-01    2    -1000005         5   # BR(~g -> ~b_1* b )
     2.52135990E-01    2     1000006        -6   # BR(~g -> ~t_1  tb)
     2.52135990E-01    2    -1000006         6   # BR(~g -> ~t_1* t )
#
#         PDG            Width
DECAY   1000006     1.33568588E+01   # stop1 decays
#          BR         NDA      ID1       ID2
     1.22663478E-02    2     1000022         6   # BR(~t_1 -> ~chi_10 t )
     3.19283608E-01    2     1000023         6   # BR(~t_1 -> ~chi_20 t )
     6.68450044E-01    2     1000024         5   # BR(~t_1 -> ~chi_1+ b )
#
#         PDG            Width
DECAY   2000006     1.10964717E+02   # stop2 decays
#          BR         NDA      ID1       ID2
     5.97934603E-02    2     1000022         6   # BR(~t_2 -> ~chi_10 t )
     2.81452069E-04    2     1000023         6   # BR(~t_2 -> ~chi_20 t )
     0.00000000E+00    2     1000025         6   # BR(~t_2 -> ~chi_30 t )
     5.66635688E-04    2     1000024         5   # BR(~t_2 -> ~chi_1+ b )
     1.61721451E-04    2     1000037         5   # BR(~t_2 -> ~chi_2+ b )
     3.02261046E-01    2     1000021         6   # BR(~t_2 -> ~g      t )
     1.64261894E-01    2     1000006        25   # BR(~t_2 -> ~t_1    h )
     1.59745443E-01    2     1000006        23   # BR(~t_2 -> ~t_1    Z )
     3.12928347E-01    2     1000005        24   # BR(~t_2 -> ~b_1    W+)
#
#         PDG            Width
DECAY   1000005     1.32173712E+01   # sbottom1 decays
#          BR         NDA      ID1       ID2
     1.21609242E-02    2     1000022         5   # BR(~b_1 -> ~chi_10 b )
     3.39379386E-01    2     1000023         5   # BR(~b_1 -> ~chi_20 b )
     6.48459690E-01    2    -1000024         6   # BR(~b_1 -> ~chi_1- t )
#
#         PDG            Width
DECAY   2000005     5.33832061E+01   # sbottom2 decays
#          BR         NDA      ID1       ID2
     3.13598327E-02    2     1000022         5   # BR(~b_2 -> ~chi_10 b )
     8.66345176E-07    2     1000023         5   # BR(~b_2 -> ~chi_20 b )
     6.56494271E-05    2     1000025         5   # BR(~b_2 -> ~chi_30 b )
     6.43832319E-05    2     1000035         5   # BR(~b_2 -> ~chi_40 b )
     1.74972057E-06    2    -1000024         6   # BR(~b_2 -> ~chi_1- t )
     6.47062254E-01    2     1000021         5   # BR(~b_2 -> ~g      b )
     7.03154070E-02    2     1000005        25   # BR(~b_2 -> ~b_1    h )
     1.02375799E-01    2     1000005        23   # BR(~b_2 -> ~b_1    Z )
     1.48754058E-01    2     1000006       -24   # BR(~b_2 -> ~t_1    W-)
#
#         PDG            Width
DECAY   1000002     7.10104128E+01   # sup_L decays
#          BR         NDA      ID1       ID2
     6.03955681E-03    2     1000022         2   # BR(~u_L -> ~chi_10 u)
     1.66435435E-01    2     1000023         2   # BR(~u_L -> ~chi_20 u)
     5.00663592E-08    2     1000025         2   # BR(~u_L -> ~chi_30 u)
     5.27922608E-08    2     1000035         2   # BR(~u_L -> ~chi_40 u)
     3.33287629E-01    2     1000024         1   # BR(~u_L -> ~chi_1+ d)
     1.38497038E-10    2     1000037         1   # BR(~u_L -> ~chi_2+ d)
     4.94237276E-01    2     1000021         2   # BR(~u_L -> ~g      u)
#
#         PDG            Width
DECAY   2000002     4.15628460E+01   # sup_R decays
#          BR         NDA      ID1       ID2
     1.61624720E-01    2     1000022         2   # BR(~u_R -> ~chi_10 u)
     3.77610096E-07    2     1000023         2   # BR(~u_R -> ~chi_20 u)
     1.64316506E-08    2     1000025         2   # BR(~u_R -> ~chi_30 u)
     1.86611208E-08    2     1000035         2   # BR(~u_R -> ~chi_40 u)
     8.38374867E-01    2     1000021         2   # BR(~u_R -> ~g      u)
#
#         PDG            Width
DECAY   1000001     7.10601410E+01   # sdown_L decays
#          BR         NDA      ID1       ID2
     5.79691451E-03    2     1000022         1   # BR(~d_L -> ~chi_10 d)
     1.66562793E-01    2     1000023         1   # BR(~d_L -> ~chi_20 d)
     7.89453297E-08    2     1000025         1   # BR(~d_L -> ~chi_30 d)
     8.44556225E-08    2     1000035         1   # BR(~d_L -> ~chi_40 d)
     3.32707573E-01    2    -1000024         2   # BR(~d_L -> ~chi_1- u)
     5.13908754E-07    2    -1000037         2   # BR(~d_L -> ~chi_2- u)
     4.94932042E-01    2     1000021         1   # BR(~d_L -> ~g      d)
#
#         PDG            Width
DECAY   2000001     3.64296400E+01   # sdown_R decays
#          BR         NDA      ID1       ID2
     4.60813434E-02    2     1000022         1   # BR(~d_R -> ~chi_10 d)
     1.07661479E-07    2     1000023         1   # BR(~d_R -> ~chi_20 d)
     4.45545076E-09    2     1000025         1   # BR(~d_R -> ~chi_30 d)
     5.05913776E-09    2     1000035         1   # BR(~d_R -> ~chi_40 d)
     9.53918539E-01    2     1000021         1   # BR(~d_R -> ~g      d)
#
#         PDG            Width
DECAY   1000004     7.10104128E+01   # scharm_L decays
#          BR         NDA      ID1       ID2
     6.03955681E-03    2     1000022         4   # BR(~c_L -> ~chi_10 c)
     1.66435435E-01    2     1000023         4   # BR(~c_L -> ~chi_20 c)
     5.00663592E-08    2     1000025         4   # BR(~c_L -> ~chi_30 c)
     5.27922608E-08    2     1000035         4   # BR(~c_L -> ~chi_40 c)
     3.33287629E-01    2     1000024         3   # BR(~c_L -> ~chi_1+ s)
     1.38497038E-10    2     1000037         3   # BR(~c_L -> ~chi_2+ s)
     4.94237276E-01    2     1000021         4   # BR(~c_L -> ~g      c)
#
#         PDG            Width
DECAY   2000004     4.15628460E+01   # scharm_R decays
#          BR         NDA      ID1       ID2
     1.61624720E-01    2     1000022         4   # BR(~c_R -> ~chi_10 c)
     3.77610096E-07    2     1000023         4   # BR(~c_R -> ~chi_20 c)
     1.64316506E-08    2     1000025         4   # BR(~c_R -> ~chi_30 c)
     1.86611208E-08    2     1000035         4   # BR(~c_R -> ~chi_40 c)
     8.38374867E-01    2     1000021         4   # BR(~c_R -> ~g      c)
#
#         PDG            Width
DECAY   1000003     7.10601410E+01   # sstrange_L decays
#          BR         NDA      ID1       ID2
     5.79691451E-03    2     1000022         3   # BR(~s_L -> ~chi_10 s)
     1.66562793E-01    2     1000023         3   # BR(~s_L -> ~chi_20 s)
     7.89453297E-08    2     1000025         3   # BR(~s_L -> ~chi_30 s)
     8.44556225E-08    2     1000035         3   # BR(~s_L -> ~chi_40 s)
     3.32707573E-01    2    -1000024         4   # BR(~s_L -> ~chi_1- c)
     5.13908754E-07    2    -1000037         4   # BR(~s_L -> ~chi_2- c)
     4.94932042E-01    2     1000021         3   # BR(~s_L -> ~g      s)
#
#         PDG            Width
DECAY   2000003     3.64296400E+01   # sstrange_R decays
#          BR         NDA      ID1       ID2
     4.60813434E-02    2     1000022         3   # BR(~s_R -> ~chi_10 s)
     1.07661479E-07    2     1000023         3   # BR(~s_R -> ~chi_20 s)
     4.45545076E-09    2     1000025         3   # BR(~s_R -> ~chi_30 s)
     5.05913776E-09    2     1000035         3   # BR(~s_R -> ~chi_40 s)
     9.53918539E-01    2     1000021         3   # BR(~s_R -> ~g      s)
#
#         PDG            Width
DECAY   1000011     4.07427747E+01   # selectron_L decays
#          BR         NDA      ID1       ID2
     9.70800344E-02    2     1000022        11   # BR(~e_L -> ~chi_10 e-)
     3.00762878E-01    2     1000023        11   # BR(~e_L -> ~chi_20 e-)
     3.16851090E-09    2     1000025        11   # BR(~e_L -> ~chi_30 e-)
     3.20761369E-09    2     1000035        11   # BR(~e_L -> ~chi_40 e-)
     6.02157034E-01    2    -1000024        12   # BR(~e_L -> ~chi_1- nu_e)
     4.69238960E-08    2    -1000037        12   # BR(~e_L -> ~chi_2- nu_e)
#
#         PDG            Width
DECAY   2000011     1.56914047E+01   # selectron_R decays
#          BR         NDA      ID1       ID2
     9.99997659E-01    2     1000022        11   # BR(~e_R -> ~chi_10 e-)
     2.33501957E-06    2     1000023        11   # BR(~e_R -> ~chi_20 e-)
     2.83855159E-09    2     1000025        11   # BR(~e_R -> ~chi_30 e-)
     3.12794625E-09    2     1000035        11   # BR(~e_R -> ~chi_40 e-)
#
#         PDG            Width
DECAY   1000013     4.07427747E+01   # smuon_L decays
#          BR         NDA      ID1       ID2
     9.70800344E-02    2     1000022        13   # BR(~mu_L -> ~chi_10 mu-)
     3.00762878E-01    2     1000023        13   # BR(~mu_L -> ~chi_20 mu-)
     3.16851090E-09    2     1000025        13   # BR(~mu_L -> ~chi_30 mu-)
     3.20761369E-09    2     1000035        13   # BR(~mu_L -> ~chi_40 mu-)
     6.02157034E-01    2    -1000024        14   # BR(~mu_L -> ~chi_1- nu_mu)
     4.69238960E-08    2    -1000037        14   # BR(~mu_L -> ~chi_2- nu_mu)
#
#         PDG            Width
DECAY   2000013     1.56914047E+01   # smuon_R decays
#          BR         NDA      ID1       ID2
     9.99997659E-01    2     1000022        13   # BR(~mu_R -> ~chi_10 mu-)
     2.33501957E-06    2     1000023        13   # BR(~mu_R -> ~chi_20 mu-)
     2.83855159E-09    2     1000025        13   # BR(~mu_R -> ~chi_30 mu-)
     3.12794625E-09    2     1000035        13   # BR(~mu_R -> ~chi_40 mu-)
#
#         PDG            Width
DECAY   1000015     2.85043407E+01   # stau_1 decays
#          BR         NDA      ID1       ID2
     3.44402847E-01    2     1000022        15   # BR(~tau_1 -> ~chi_10  tau-)
     2.18411250E-01    2     1000023        15   # BR(~tau_1 -> ~chi_20  tau-)
     4.37185903E-01    2    -1000024        16   # BR(~tau_1 -> ~chi_1-  nu_tau)
#
#         PDG            Width
DECAY   2000015     2.79078601E+01   # stau_2 decays
#          BR         NDA      ID1       ID2
     3.52464279E-01    2     1000022        15   # BR(~tau_2 -> ~chi_10  tau-)
     2.15686683E-01    2     1000023        15   # BR(~tau_2 -> ~chi_20  tau-)
     1.71334018E-05    2     1000025        15   # BR(~tau_2 -> ~chi_30  tau-)
     1.49682325E-05    2     1000035        15   # BR(~tau_2 -> ~chi_40  tau-)
     4.31799614E-01    2    -1000024        16   # BR(~tau_2 -> ~chi_1-  nu_tau)
     1.73224784E-05    2    -1000037        16   # BR(~tau_2 -> ~chi_2-  nu_tau)
#
#         PDG            Width
DECAY   1000012     4.07461228E+01   # snu_eL decays
#          BR         NDA      ID1       ID2
     9.57218997E-02    2     1000022        12   # BR(~nu_eL -> ~chi_10 nu_e)
     3.01638034E-01    2     1000023        12   # BR(~nu_eL -> ~chi_20 nu_e)
     9.14285883E-09    2     1000025        12   # BR(~nu_eL -> ~chi_30 nu_e)
     9.67587814E-09    2     1000035        12   # BR(~nu_eL -> ~chi_40 nu_e)
     6.02640047E-01    2     1000024        11   # BR(~nu_eL -> ~chi_1+ e-)
     1.00877718E-11    2     1000037        11   # BR(~nu_eL -> ~chi_2+ e-)
#
#         PDG            Width
DECAY   1000014     4.07461228E+01   # snu_muL decays
#          BR         NDA      ID1       ID2
     9.57218997E-02    2     1000022        14   # BR(~nu_muL -> ~chi_10 nu_mu)
     3.01638034E-01    2     1000023        14   # BR(~nu_muL -> ~chi_20 nu_mu)
     9.14285883E-09    2     1000025        14   # BR(~nu_muL -> ~chi_30 nu_mu)
     9.67587814E-09    2     1000035        14   # BR(~nu_muL -> ~chi_40 nu_mu)
     6.02640047E-01    2     1000024        13   # BR(~nu_muL -> ~chi_1+ mu-)
     1.00877718E-11    2     1000037        13   # BR(~nu_muL -> ~chi_2+ mu-)
#
#         PDG            Width
DECAY   1000016     4.07466665E+01   # snu_tauL decays
#          BR         NDA      ID1       ID2
     9.57137835E-02    2     1000022        16   # BR(~nu_tauL -> ~chi_10 nu_tau)
     3.01612366E-01    2     1000023        16   # BR(~nu_tauL -> ~chi_20 nu_tau)
     8.79145226E-09    2     1000025        16   # BR(~nu_tauL -> ~chi_30 nu_tau)
     9.29911119E-09    2     1000035        16   # BR(~nu_tauL -> ~chi_40 nu_tau)
     6.02671299E-01    2     1000024        15   # BR(~nu_tauL -> ~chi_1+ tau-)
     2.53351331E-06    2     1000037        15   # BR(~nu_tauL -> ~chi_2+ tau-)
#
#         PDG            Width
DECAY   1000024     7.69115642E-09   # chargino1+ decays
#           BR         NDA      ID1       ID2       ID3
     3.39897775E-01    3     1000022         2        -1   # BR(~chi_1+ -> ~chi_10 u    db)
     1.71198594E-08    3     1000023         2        -1   # BR(~chi_1+ -> ~chi_20 u    db)
     3.39897775E-01    3     1000022         4        -3   # BR(~chi_1+ -> ~chi_10 c    sb)
     1.71198594E-08    3     1000023         4        -3   # BR(~chi_1+ -> ~chi_20 c    sb)
     1.06888004E-01    3     1000022       -11        12   # BR(~chi_1+ -> ~chi_10 e+   nu_e)
     5.70671929E-09    3     1000023       -11        12   # BR(~chi_1+ -> ~chi_20 e+   nu_e)
     1.06888004E-01    3     1000022       -13        14   # BR(~chi_1+ -> ~chi_10 mu+  nu_mu)
     5.70671929E-09    3     1000023       -13        14   # BR(~chi_1+ -> ~chi_20 mu+  nu_mu)
     1.06428397E-01    3     1000022       -15        16   # BR(~chi_1+ -> ~chi_10 tau+ nu_tau)
#
#         PDG            Width
DECAY   1000037     8.45678164E+01   # chargino2+ decays
#          BR         NDA      ID1       ID2
     1.33183503E-01    2     1000006        -5   # BR(~chi_2+ -> ~t_1     bb)
     6.36016567E-01    2    -1000005         6   # BR(~chi_2+ -> ~b_1*    t )
     2.12690686E-07    2    -1000015        16   # BR(~chi_2+ -> ~tau_1+  nu_tau)
     6.95183743E-02    2     1000024        23   # BR(~chi_2+ -> ~chi_1+  Z )
     2.19006384E-02    2     1000022        24   # BR(~chi_2+ -> ~chi_10  W+)
     6.77193280E-02    2     1000023        24   # BR(~chi_2+ -> ~chi_20  W+)
     7.16613760E-02    2     1000024        25   # BR(~chi_2+ -> ~chi_1+  h )
#
#         PDG            Width
DECAY   1000022     0.00000000E+00   # neutralino1 decays
#
#         PDG            Width
DECAY   1000023     5.47123371E-10   # neutralino2 decays
#          BR         NDA      ID1       ID2
     1.33285306E-02    2     1000022        22   # BR(~chi_20 -> ~chi_10 gam)
#           BR         NDA      ID1       ID2       ID3
     7.76466402E-02    3     1000022        -2         2   # BR(~chi_20 -> ~chi_10 ub      u)
     9.65754203E-02    3     1000022        -1         1   # BR(~chi_20 -> ~chi_10 db      d)
     7.76466402E-02    3     1000022        -4         4   # BR(~chi_20 -> ~chi_10 cb      c)
     9.65754203E-02    3     1000022        -3         3   # BR(~chi_20 -> ~chi_10 sb      s)
     6.07775130E-01    3     1000022        -5         5   # BR(~chi_20 -> ~chi_10 bb      b)
     8.61595803E-03    3     1000022       -11        11   # BR(~chi_20 -> ~chi_10 e+      e-)
     8.61595803E-03    3     1000022       -13        13   # BR(~chi_20 -> ~chi_10 mu+     mu-)
     8.59695616E-03    3     1000022       -15        15   # BR(~chi_20 -> ~chi_10 tau+    tau-)
     1.54149780E-03    3     1000022       -12        12   # BR(~chi_20 -> ~chi_10 nu_eb   nu_e)
     1.54149780E-03    3     1000022       -14        14   # BR(~chi_20 -> ~chi_10 nu_mub  nu_mu)
     1.54035080E-03    3     1000022       -16        16   # BR(~chi_20 -> ~chi_10 nu_taub nu_tau)
#
#         PDG            Width
DECAY   1000025     8.49861027E+01   # neutralino3 decays
#          BR         NDA      ID1       ID2
     1.17517348E-02    2     1000022        23   # BR(~chi_30 -> ~chi_10   Z )
     3.58012106E-02    2     1000023        23   # BR(~chi_30 -> ~chi_20   Z )
     6.75147953E-02    2     1000024       -24   # BR(~chi_30 -> ~chi_1+   W-)
     6.75147953E-02    2    -1000024        24   # BR(~chi_30 -> ~chi_1-   W+)
     9.91559695E-03    2     1000022        25   # BR(~chi_30 -> ~chi_10   h )
     3.00096313E-02    2     1000023        25   # BR(~chi_30 -> ~chi_20   h )
     3.23373984E-01    2     1000006        -6   # BR(~chi_30 -> ~t_1      tb)
     3.23373984E-01    2    -1000006         6   # BR(~chi_30 -> ~t_1*     t )
     6.53718979E-02    2     1000005        -5   # BR(~chi_30 -> ~b_1      bb)
     6.53718979E-02    2    -1000005         5   # BR(~chi_30 -> ~b_1*     b )
     2.35806295E-07    2     1000015       -15   # BR(~chi_30 -> ~tau_1-   tau+)
     2.35806295E-07    2    -1000015        15   # BR(~chi_30 -> ~tau_1+   tau-)
#
#         PDG            Width
DECAY   1000035     8.44288105E+01   # neutralino4 decays
#          BR         NDA      ID1       ID2
     1.03530924E-02    2     1000022        23   # BR(~chi_40 -> ~chi_10   Z )
     3.37283897E-02    2     1000023        23   # BR(~chi_40 -> ~chi_20   Z )
     6.79594415E-02    2     1000024       -24   # BR(~chi_40 -> ~chi_1+   W-)
     6.79594415E-02    2    -1000024        24   # BR(~chi_40 -> ~chi_1-   W+)
     1.30426004E-02    2     1000022        25   # BR(~chi_40 -> ~chi_10   h )
     4.27904456E-02    2     1000023        25   # BR(~chi_40 -> ~chi_20   h )
     3.16267805E-01    2     1000006        -6   # BR(~chi_40 -> ~t_1      tb)
     3.16267805E-01    2    -1000006         6   # BR(~chi_40 -> ~t_1*     t )
     6.58153320E-02    2     1000005        -5   # BR(~chi_40 -> ~b_1      bb)
     6.58153320E-02    2    -1000005         5   # BR(~chi_40 -> ~b_1*     b )
     1.57883715E-07    2     1000015       -15   # BR(~chi_40 -> ~tau_1-   tau+)
     1.57883715E-07    2    -1000015        15   # BR(~chi_40 -> ~tau_1+   tau-)
#
#         PDG            Width
DECAY        25     3.64258710E-03   # h decays
#          BR         NDA      ID1       ID2
     5.66390790E-01    2           5        -5   # BR(h -> b       bb     )
     7.12031449E-02    2         -15        15   # BR(h -> tau+    tau-   )
     2.52061253E-04    2         -13        13   # BR(h -> mu+     mu-    )
     5.35002870E-04    2           3        -3   # BR(h -> s       sb     )
     2.32411230E-02    2           4        -4   # BR(h -> c       cb     )
     7.54857742E-02    2          21        21   # BR(h -> g       g      )
     2.57957745E-03    2          22        22   # BR(h -> gam     gam    )
     1.71495416E-03    2          22        23   # BR(h -> Z       gam    )
     2.29846161E-01    2          24       -24   # BR(h -> W+      W-     )
     2.87259997E-02    2          23        23   # BR(h -> Z       Z      )
     2.54123092E-05    2     1000022   1000022   # BR(h -> ~chi_10 ~chi_10)
#
#         PDG            Width
DECAY        35     3.40884025E+01   # H decays
#          BR         NDA      ID1       ID2
     8.93755031E-01    2           5        -5   # BR(H -> b       bb     )
     7.29479924E-02    2         -15        15   # BR(H -> tau+    tau-   )
     2.57926669E-04    2         -13        13   # BR(H -> mu+     mu-    )
     3.16736160E-04    2           3        -3   # BR(H -> s       sb     )
     8.88032221E-08    2           4        -4   # BR(H -> c       cb     )
     8.85868362E-03    2           6        -6   # BR(H -> t       tb     )
     1.49109636E-05    2          21        21   # BR(H -> g       g      )
     8.08579147E-08    2          22        22   # BR(H -> gam     gam    )
     3.61635546E-09    2          23        22   # BR(H -> Z       gam    )
     1.01682658E-06    2          24       -24   # BR(H -> W+      W-     )
     5.07786168E-07    2          23        23   # BR(H -> Z       Z      )
     6.28940853E-06    2          25        25   # BR(H -> h       h      )
     9.98328986E-04    2     1000024  -1000024   # BR(H -> ~chi_1+ ~chi_1-)
     4.52675140E-05    2     1000022   1000022   # BR(H -> ~chi_10 ~chi_10)
     5.00856972E-04    2     1000023   1000023   # BR(H -> ~chi_20 ~chi_20)
     3.01486703E-04    2     1000022   1000023   # BR(H -> ~chi_10 ~chi_20)
     2.19896419E-02    2     1000006  -1000006   # BR(H -> ~t_1    ~t_1*  )
     5.14970799E-06    2     1000005  -1000005   # BR(H -> ~b_1    ~b_1*  )
#
#         PDG            Width
DECAY        36     3.33428523E+01   # A decays
#          BR         NDA      ID1       ID2
     9.13788762E-01    2           5        -5   # BR(A -> b       bb     )
     7.45801214E-02    2         -15        15   # BR(A -> tau+    tau-   )
     2.63697118E-04    2         -13        13   # BR(A -> mu+     mu-    )
     3.23874818E-04    2           3        -3   # BR(A -> s       sb     )
     9.13928830E-08    2           4        -4   # BR(A -> c       cb     )
     9.11200892E-03    2           6        -6   # BR(A -> t       tb     )
     2.68339942E-05    2          21        21   # BR(A -> g       g      )
     5.50536402E-08    2          22        22   # BR(A -> gam     gam    )
     2.64159843E-08    2          23        22   # BR(A -> Z       gam    )
     1.03575095E-06    2          23        25   # BR(A -> Z       h      )
     1.02969995E-03    2     1000024  -1000024   # BR(A -> ~chi_1+ ~chi_1-)
     4.66431766E-05    2     1000022   1000022   # BR(A -> ~chi_10 ~chi_10)
     5.16585536E-04    2     1000023   1000023   # BR(A -> ~chi_20 ~chi_20)
     3.10564305E-04    2     1000022   1000023   # BR(A -> ~chi_10 ~chi_20)
#
#         PDG            Width
DECAY        37     3.64048200E+01   # H+ decays
#          BR         NDA      ID1       ID2
     1.45851695E-03    2           4        -5   # BR(H+ -> c       bb     )
     6.83322599E-02    2         -15        16   # BR(H+ -> tau+    nu_tau )
     2.41606204E-04    2         -13        14   # BR(H+ -> mu+     nu_mu  )
     9.33449693E-06    2           2        -5   # BR(H+ -> u       bb     )
     1.41985750E-05    2           2        -3   # BR(H+ -> u       sb     )
     2.92110344E-04    2           4        -3   # BR(H+ -> c       sb     )
     9.18439368E-01    2           6        -5   # BR(H+ -> t       bb     )
     9.50271490E-07    2          24        25   # BR(H+ -> W+      h      )
     5.75242169E-14    2          24        36   # BR(H+ -> W+      A      )
     5.69574110E-04    2     1000024   1000022   # BR(H+ -> ~chi_1+ ~chi_10)
     1.33174275E-09    2     1000024   1000023   # BR(H+ -> ~chi_1+ ~chi_20)
     1.06420798E-02    2     1000006  -1000005   # BR(H+ -> ~t_1    ~b_1*  )
