#
#                              ======================
#                              | THE SUSYHIT OUTPUT |
#                              ======================
#
#
#              ------------------------------------------------------
#              |     This is the output of the SUSY-HIT package     |
#              |  created by A.Djouadi, M.Muehlleitner and M.Spira. |
#              |  In case of problems with SUSY-HIT email to        |
#              |           margarete.muehlleitner@kit.edu           |
#              |           michael.spira@psi.ch                     |
#              |           abdelhak.djouadi@cern.ch                 |
#              ------------------------------------------------------
#
#              ------------------------------------------------------
#              |  SUSY Les Houches Accord - MSSM Spectrum + Decays  |
#              |              based on the decay programs           |
#              |                                                    |
#              |                     SDECAY 1.5                     |
#              |                                                    |
#              |  Authors: M.Muhlleitner, A.Djouadi and Y.Mambrini  |
#              |  Ref.:    Comput.Phys.Commun.168(2005)46           |
#              |           [hep-ph/0311167]                         |
#              |                                                    |
#              |                     HDECAY 3.4                     |
#              |                                                    |
#              |  By: A.Djouadi,J.Kalinowski,M.Muhlleitner,M.Spira  |
#              |  Ref.:    Comput.Phys.Commun.108(1998)56           |
#              |           [hep-ph/9704448]                         |
#              |                                                    |
#              |                                                    |
#              |  If not stated otherwise all DRbar couplings and   |
#              |  soft SUSY breaking masses are given at the scale  |
#              |  Q=  0.14000186E+04
#              |                                                    |
#              ------------------------------------------------------
#
#
BLOCK DCINFO  # Decay Program information
     1   SDECAY/HDECAY # decay calculator
     2   1.5  /3.4    # version number
#
BLOCK SPINFO  # Spectrum calculator information
     1    SOFTSUSY    # spectrum calculator                
     2    3.7.3       # version number                     
#
BLOCK MODSEL  # Model selection
     1     0   #  nonUniversal                                     
#
BLOCK SMINPUTS  # Standard Model inputs
         1     1.27934000E+02   # alpha_em^-1(M_Z)^MSbar
         2     1.16639000E-05   # G_F [GeV^-2]
         3     1.17200000E-01   # alpha_S(M_Z)^MSbar
         4     9.11870000E+01   # M_Z pole mass
         5     4.19000000E+00   # mb(mb)^MSbar
         6     1.72500000E+02   # mt pole mass
         7     1.77690000E+00   # mtau pole mass
#
BLOCK MINPAR  # Input parameters - minimal models
         3     2.00000000E+01   # tanb                
#
BLOCK EXTPAR  # Input parameters - non-minimal models
         0    -1.00000000E+00   # Set                 
         1     1.59990000E+02   # M_1(MX)             
         2     2.00000000E+03   # M_2(MX)             
         3     1.80000000E+03   # M_3(MX)             
        11     2.64959179E+03   # At(MX)              
        12     0.00000000E+00   # Ab(MX)              
        13     0.00000000E+00   # Atau(MX)            
        23    -1.85990000E+02   # mu(MX)              
        25     2.00000000E+01   # tan                 
        26     4.00000000E+03   # mA(pole)            
        31     4.00000000E+03   # meL(MX)             
        32     4.00000000E+03   # mmuL(MX)            
        33     4.00000000E+03   # mtauL(MX)           
        34     4.00000000E+03   # meR(MX)             
        35     4.00000000E+03   # mmuR(MX)            
        36     4.00000000E+03   # mtauR(MX)           
        41     4.00000000E+03   # mqL1(MX)            
        42     4.00000000E+03   # mqL2(MX)            
        43     1.05990000E+03   # mqL3(MX)            
        44     4.00000000E+03   # muR(MX)             
        45     4.00000000E+03   # mcR(MX)             
        46     1.86485961E+03   # mtR(MX)             
        47     4.00000000E+03   # mdR(MX)             
        48     4.00000000E+03   # msR(MX)             
        49     4.00000000E+03   # mbR(MX)             
#
BLOCK MASS  # Mass Spectrum
# PDG code           mass       particle
        24     8.04157084E+01   # W+
        25     1.25664771E+02   # h
        35     4.00000418E+03   # H
        36     3.99999685E+03   # A
        37     4.00108145E+03   # H+
         5     4.81337004E+00   # b-quark pole mass calculated from mb(mb)_Msbar
   1000001     4.02854350E+03   # ~d_L
   2000001     4.02464088E+03   # ~d_R
   1000002     4.02789091E+03   # ~u_L
   2000002     4.02534351E+03   # ~u_R
   1000003     4.02854350E+03   # ~s_L
   2000003     4.02464088E+03   # ~s_R
   1000004     4.02789091E+03   # ~c_L
   2000004     4.02534351E+03   # ~c_R
   1000005     1.11944531E+03   # ~b_1
   2000005     4.02679792E+03   # ~b_2
   1000006     1.09670962E+03   # ~t_1
   2000006     1.88112664E+03   # ~t_2
   1000011     4.00510274E+03   # ~e_L
   2000011     4.00355606E+03   # ~e_R
   1000012     4.00398737E+03   # ~nu_eL
   1000013     4.00510274E+03   # ~mu_L
   2000013     4.00355606E+03   # ~mu_R
   1000014     4.00398737E+03   # ~nu_muL
   1000015     4.00530569E+03   # ~tau_1
   2000015     4.00698904E+03   # ~tau_2
   1000016     4.00519866E+03   # ~nu_tauL
   1000021     1.98340030E+03   # ~g
   1000022     1.45699339E+02   # ~chi_10
   1000023    -1.96258185E+02   # ~chi_20
   1000025     2.09893365E+02   # ~chi_30
   1000035     2.05160795E+03   # ~chi_40
   1000024     1.92413615E+02   # ~chi_1+
   1000037     2.05177230E+03   # ~chi_2+
#
BLOCK NMIX  # Neutralino Mixing Matrix
  1  1     8.15768880E-01   # N_11
  1  2    -1.34343378E-02   # N_12
  1  3    -4.63640683E-01   # N_13
  1  4    -3.45511173E-01   # N_14
  2  1    -9.37473792E-02   # N_21
  2  2     2.63733720E-02   # N_22
  2  3    -6.95919718E-01   # N_23
  2  4     7.11485502E-01   # N_24
  3  1     5.70729102E-01   # N_31
  3  2     2.51539811E-02   # N_32
  3  3     5.48388797E-01   # N_33
  3  4     6.10659723E-01   # N_34
  4  1    -9.25057930E-04   # N_41
  4  2     9.99245336E-01   # N_42
  4  3    -1.67037793E-03   # N_43
  4  4    -3.87957865E-02   # N_44
#
BLOCK UMIX  # Chargino Mixing Matrix U
  1  1     2.36694811E-03   # U_11
  1  2     9.99997199E-01   # U_12
  2  1    -9.99997199E-01   # U_21
  2  2     2.36694811E-03   # U_22
#
BLOCK VMIX  # Chargino Mixing Matrix V
  1  1     5.48782747E-02   # V_11
  1  2    -9.98493052E-01   # V_12
  2  1    -9.98493052E-01   # V_21
  2  2    -5.48782747E-02   # V_22
#
BLOCK STOPMIX  # Stop Mixing Matrix
  1  1     9.86895262E-01   # cos(theta_t)
  1  2    -1.61362145E-01   # sin(theta_t)
  2  1     1.61362145E-01   # -sin(theta_t)
  2  2     9.86895262E-01   # cos(theta_t)
#
BLOCK SBOTMIX  # Sbottom Mixing Matrix
  1  1     9.99999818E-01   # cos(theta_b)
  1  2    -6.03324098E-04   # sin(theta_b)
  2  1     6.03324098E-04   # -sin(theta_b)
  2  2     9.99999818E-01   # cos(theta_b)
#
BLOCK STAUMIX  # Stau Mixing Matrix
  1  1    -7.04744860E-01   # cos(theta_tau)
  1  2     7.09460839E-01   # sin(theta_tau)
  2  1    -7.09460839E-01   # -sin(theta_tau)
  2  2    -7.04744860E-01   # cos(theta_tau)
#
BLOCK ALPHA  # Higgs mixing
          -5.00311569E-02   # Mixing angle in the neutral Higgs boson sector
#
BLOCK HMIX Q=  1.40001865E+03  # DRbar Higgs Parameters
         1    -1.85990000E+02   # mu(Q)MSSM           
         2     2.00000000E+01   # tan                 
         3     2.43411240E+02   # higgs               
         4     1.60517954E+07   # mA^2(Q)MSSM         
#
BLOCK GAUGE Q=  1.40001865E+03  # The gauge couplings
     1     3.62309208E-01   # gprime(Q) DRbar
     2     6.36878112E-01   # g(Q) DRbar
     3     1.02835896E+00   # g3(Q) DRbar
#
BLOCK AU Q=  1.40001865E+03  # The trilinear couplings
  1  1     1.59920156E-06   # A_u(Q) DRbar
  2  2     1.59921727E-06   # A_c(Q) DRbar
  3  3     2.64959179E+03   # A_t(Q) DRbar
#
BLOCK AD Q=  1.40001865E+03  # The trilinear couplings
  1  1     5.86870419E-07   # A_d(Q) DRbar
  2  2     5.86924847E-07   # A_s(Q) DRbar
  3  3     1.04964422E-06   # A_b(Q) DRbar
#
BLOCK AE Q=  1.40001865E+03  # The trilinear couplings
  1  1     0.00000000E+00   # A_e(Q) DRbar
  2  2     1.26040909E-07   # A_mu(Q) DRbar
  3  3     1.27343059E-07   # A_tau(Q) DRbar
#
BLOCK Yu Q=  1.40001865E+03  # The Yukawa couplings
  1  1     0.00000000E+00   # y_u(Q) DRbar
  2  2     0.00000000E+00   # y_c(Q) DRbar
  3  3     8.65830973E-01   # y_t(Q) DRbar
#
BLOCK Yd Q=  1.40001865E+03  # The Yukawa couplings
  1  1     0.00000000E+00   # y_d(Q) DRbar
  2  2     0.00000000E+00   # y_s(Q) DRbar
  3  3     2.80366443E-01   # y_b(Q) DRbar
#
BLOCK Ye Q=  1.40001865E+03  # The Yukawa couplings
  1  1     0.00000000E+00   # y_e(Q) DRbar
  2  2     0.00000000E+00   # y_mu(Q) DRbar
  3  3     2.04063938E-01   # y_tau(Q) DRbar
#
BLOCK MSOFT Q=  1.40001865E+03  # The soft SUSY breaking masses at the scale Q
         1     1.59990000E+02   # M_1(Q)              
         2     2.00000000E+03   # M_2(Q)              
         3     1.80000000E+03   # M_3(Q)              
        21     1.58602515E+07   # M^2_Hd              
        22     2.01129249E+04   # M^2_Hu              
        31     4.00000000E+03   # M_eL                
        32     4.00000000E+03   # M_muL               
        33     4.00000000E+03   # M_tauL              
        34     4.00000000E+03   # M_eR                
        35     4.00000000E+03   # M_muR               
        36     4.00000000E+03   # M_tauR              
        41     4.00000000E+03   # M_q1L               
        42     4.00000000E+03   # M_q2L               
        43     1.05990000E+03   # M_q3L               
        44     4.00000000E+03   # M_uR                
        45     4.00000000E+03   # M_cR                
        46     1.86485961E+03   # M_tR                
        47     4.00000000E+03   # M_dR                
        48     4.00000000E+03   # M_sR                
        49     4.00000000E+03   # M_bR                
#
#
#
#                             =================
#                             |The decay table|
#                             =================
#
# - The QCD corrections to the decays gluino -> squark  + quark
#                                     squark -> gaugino + quark_prime
#                                     squark -> squark_prime + Higgs
#                                     squark -> gluino  + quark
#   are included.
#
# - The multi-body decays for the inos, stops and sbottoms are included.
#
# - The loop induced decays for the gluino, neutralinos and stops
#   are included.
#
# - The SUSY decays of the top quark are included.
#
#
#         PDG            Width
DECAY         6     1.40727425E+00   # top decays
#          BR         NDA      ID1       ID2
     1.00000000E+00    2           5        24   # BR(t ->  b    W+)
#
#         PDG            Width
DECAY   1000021     4.03418749E+01   # gluino decays
#          BR         NDA      ID1       ID2
     2.37661887E-01    2     1000005        -5   # BR(~g -> ~b_1  bb)
     2.37661887E-01    2    -1000005         5   # BR(~g -> ~b_1* b )
     2.62338113E-01    2     1000006        -6   # BR(~g -> ~t_1  tb)
     2.62338113E-01    2    -1000006         6   # BR(~g -> ~t_1* t )
#
#         PDG            Width
DECAY   1000006     1.62662462E+01   # stop1 decays
#          BR         NDA      ID1       ID2
     9.49582852E-02    2     1000022         6   # BR(~t_1 -> ~chi_10 t )
     4.35771243E-01    2     1000023         6   # BR(~t_1 -> ~chi_20 t )
     3.63171239E-01    2     1000025         6   # BR(~t_1 -> ~chi_30 t )
     1.06099232E-01    2     1000024         5   # BR(~t_1 -> ~chi_1+ b )
#
#         PDG            Width
DECAY   2000006     1.09464177E+02   # stop2 decays
#          BR         NDA      ID1       ID2
     5.90865465E-02    2     1000022         6   # BR(~t_2 -> ~chi_10 t )
     1.25015522E-01    2     1000023         6   # BR(~t_2 -> ~chi_20 t )
     9.49206840E-02    2     1000025         6   # BR(~t_2 -> ~chi_30 t )
     2.40640533E-01    2     1000024         5   # BR(~t_2 -> ~chi_1+ b )
     1.49965735E-01    2     1000006        25   # BR(~t_2 -> ~t_1    h )
     1.13808933E-01    2     1000006        23   # BR(~t_2 -> ~t_1    Z )
     2.16562046E-01    2     1000005        24   # BR(~t_2 -> ~b_1    W+)
#
#         PDG            Width
DECAY   1000005     1.66181305E+01   # sbottom1 decays
#          BR         NDA      ID1       ID2
     2.86945777E-02    2     1000022         5   # BR(~b_1 -> ~chi_10 b )
     4.68115925E-02    2     1000023         5   # BR(~b_1 -> ~chi_20 b )
     3.02068499E-02    2     1000025         5   # BR(~b_1 -> ~chi_30 b )
     8.94286980E-01    2    -1000024         6   # BR(~b_1 -> ~chi_1- t )
#
#         PDG            Width
DECAY   2000005     1.65499116E+02   # sbottom2 decays
#          BR         NDA      ID1       ID2
     1.68301727E-02    2     1000022         5   # BR(~b_2 -> ~chi_10 b )
     1.76898728E-02    2     1000023         5   # BR(~b_2 -> ~chi_20 b )
     1.53189333E-02    2     1000025         5   # BR(~b_2 -> ~chi_30 b )
     1.34960830E-07    2     1000035         5   # BR(~b_2 -> ~chi_40 b )
     3.61799389E-02    2    -1000024         6   # BR(~b_2 -> ~chi_1- t )
     2.57336613E-07    2    -1000037         6   # BR(~b_2 -> ~chi_2- t )
     9.13828370E-01    2     1000021         5   # BR(~b_2 -> ~g      b )
     3.50320665E-05    2     1000005        25   # BR(~b_2 -> ~b_1    h )
     4.35468704E-05    2     1000005        23   # BR(~b_2 -> ~b_1    Z )
     7.26756826E-05    2     1000006       -24   # BR(~b_2 -> ~t_1    W-)
     1.06583365E-06    2     2000006       -24   # BR(~b_2 -> ~t_2    W-)
#
#         PDG            Width
DECAY   1000002     1.77857451E+02   # sup_L decays
#          BR         NDA      ID1       ID2
     1.75204974E-03    2     1000022         2   # BR(~u_L -> ~chi_10 u)
     6.47590827E-06    2     1000023         2   # BR(~u_L -> ~chi_20 u)
     1.55807329E-03    2     1000025         2   # BR(~u_L -> ~chi_30 u)
     4.84702835E-02    2     1000035         2   # BR(~u_L -> ~chi_40 u)
     5.27940504E-04    2     1000024         1   # BR(~u_L -> ~chi_1+ d)
     9.68178603E-02    2     1000037         1   # BR(~u_L -> ~chi_2+ d)
     8.50867317E-01    2     1000021         2   # BR(~u_L -> ~g      u)
#
#         PDG            Width
DECAY   2000002     1.60086302E+02   # sup_R decays
#          BR         NDA      ID1       ID2
     3.73262522E-02    2     1000022         2   # BR(~u_R -> ~chi_10 u)
     4.91991649E-04    2     1000023         2   # BR(~u_R -> ~chi_20 u)
     1.82232131E-02    2     1000025         2   # BR(~u_R -> ~chi_30 u)
     2.65218350E-08    2     1000035         2   # BR(~u_R -> ~chi_40 u)
     9.43958517E-01    2     1000021         2   # BR(~u_R -> ~g      u)
#
#         PDG            Width
DECAY   1000001     1.77877207E+02   # sdown_L decays
#          BR         NDA      ID1       ID2
     2.48208902E-03    2     1000022         1   # BR(~d_L -> ~chi_10 d)
     1.70834369E-04    2     1000023         1   # BR(~d_L -> ~chi_20 d)
     6.04422313E-04    2     1000025         1   # BR(~d_L -> ~chi_30 d)
     4.85177969E-02    2     1000035         1   # BR(~d_L -> ~chi_40 d)
     9.82167647E-07    2    -1000024         2   # BR(~d_L -> ~chi_1- u)
     9.71367406E-02    2    -1000037         2   # BR(~d_L -> ~chi_2- u)
     8.51087135E-01    2     1000021         1   # BR(~d_L -> ~g      d)
#
#         PDG            Width
DECAY   2000001     1.53297088E+02   # sdown_R decays
#          BR         NDA      ID1       ID2
     9.74309672E-03    2     1000022         1   # BR(~d_R -> ~chi_10 d)
     1.28422189E-04    2     1000023         1   # BR(~d_R -> ~chi_20 d)
     4.75671572E-03    2     1000025         1   # BR(~d_R -> ~chi_30 d)
     6.92120542E-09    2     1000035         1   # BR(~d_R -> ~chi_40 d)
     9.85371758E-01    2     1000021         1   # BR(~d_R -> ~g      d)
#
#         PDG            Width
DECAY   1000004     1.77857451E+02   # scharm_L decays
#          BR         NDA      ID1       ID2
     1.75204974E-03    2     1000022         4   # BR(~c_L -> ~chi_10 c)
     6.47590827E-06    2     1000023         4   # BR(~c_L -> ~chi_20 c)
     1.55807329E-03    2     1000025         4   # BR(~c_L -> ~chi_30 c)
     4.84702835E-02    2     1000035         4   # BR(~c_L -> ~chi_40 c)
     5.27940504E-04    2     1000024         3   # BR(~c_L -> ~chi_1+ s)
     9.68178603E-02    2     1000037         3   # BR(~c_L -> ~chi_2+ s)
     8.50867317E-01    2     1000021         4   # BR(~c_L -> ~g      c)
#
#         PDG            Width
DECAY   2000004     1.60086302E+02   # scharm_R decays
#          BR         NDA      ID1       ID2
     3.73262522E-02    2     1000022         4   # BR(~c_R -> ~chi_10 c)
     4.91991649E-04    2     1000023         4   # BR(~c_R -> ~chi_20 c)
     1.82232131E-02    2     1000025         4   # BR(~c_R -> ~chi_30 c)
     2.65218350E-08    2     1000035         4   # BR(~c_R -> ~chi_40 c)
     9.43958517E-01    2     1000021         4   # BR(~c_R -> ~g      c)
#
#         PDG            Width
DECAY   1000003     1.77877207E+02   # sstrange_L decays
#          BR         NDA      ID1       ID2
     2.48208902E-03    2     1000022         3   # BR(~s_L -> ~chi_10 s)
     1.70834369E-04    2     1000023         3   # BR(~s_L -> ~chi_20 s)
     6.04422313E-04    2     1000025         3   # BR(~s_L -> ~chi_30 s)
     4.85177969E-02    2     1000035         3   # BR(~s_L -> ~chi_40 s)
     9.82167647E-07    2    -1000024         4   # BR(~s_L -> ~chi_1- c)
     9.71367406E-02    2    -1000037         4   # BR(~s_L -> ~chi_2- c)
     8.51087135E-01    2     1000021         3   # BR(~s_L -> ~g      s)
#
#         PDG            Width
DECAY   2000003     1.53297088E+02   # sstrange_R decays
#          BR         NDA      ID1       ID2
     9.74309672E-03    2     1000022         3   # BR(~s_R -> ~chi_10 s)
     1.28422189E-04    2     1000023         3   # BR(~s_R -> ~chi_20 s)
     4.75671572E-03    2     1000025         3   # BR(~s_R -> ~chi_30 s)
     6.92120542E-09    2     1000035         3   # BR(~s_R -> ~chi_40 s)
     9.85371758E-01    2     1000021         3   # BR(~s_R -> ~g      s)
#
#         PDG            Width
DECAY   1000011     3.16019305E+01   # selectron_L decays
#          BR         NDA      ID1       ID2
     1.03568453E-01    2     1000022        11   # BR(~e_L -> ~chi_10 e-)
     3.69826265E-04    2     1000023        11   # BR(~e_L -> ~chi_20 e-)
     6.22362522E-02    2     1000025        11   # BR(~e_L -> ~chi_30 e-)
     2.77487274E-01    2     1000035        11   # BR(~e_L -> ~chi_40 e-)
     5.70312977E-06    2    -1000024        12   # BR(~e_L -> ~chi_1- nu_e)
     5.56332491E-01    2    -1000037        12   # BR(~e_L -> ~chi_2- nu_e)
#
#         PDG            Width
DECAY   2000011     2.08354020E+01   # selectron_R decays
#          BR         NDA      ID1       ID2
     6.66110147E-01    2     1000022        11   # BR(~e_R -> ~chi_10 e-)
     8.77791571E-03    2     1000023        11   # BR(~e_R -> ~chi_20 e-)
     3.25111471E-01    2     1000025        11   # BR(~e_R -> ~chi_30 e-)
     4.66987738E-07    2     1000035        11   # BR(~e_R -> ~chi_40 e-)
#
#         PDG            Width
DECAY   1000013     3.16019305E+01   # smuon_L decays
#          BR         NDA      ID1       ID2
     1.03568453E-01    2     1000022        13   # BR(~mu_L -> ~chi_10 mu-)
     3.69826265E-04    2     1000023        13   # BR(~mu_L -> ~chi_20 mu-)
     6.22362522E-02    2     1000025        13   # BR(~mu_L -> ~chi_30 mu-)
     2.77487274E-01    2     1000035        13   # BR(~mu_L -> ~chi_40 mu-)
     5.70312977E-06    2    -1000024        14   # BR(~mu_L -> ~chi_1- nu_mu)
     5.56332491E-01    2    -1000037        14   # BR(~mu_L -> ~chi_2- nu_mu)
#
#         PDG            Width
DECAY   2000013     2.08354020E+01   # smuon_R decays
#          BR         NDA      ID1       ID2
     6.66110147E-01    2     1000022        13   # BR(~mu_R -> ~chi_10 mu-)
     8.77791571E-03    2     1000023        13   # BR(~mu_R -> ~chi_20 mu-)
     3.25111471E-01    2     1000025        13   # BR(~mu_R -> ~chi_30 mu-)
     4.66987738E-07    2     1000035        13   # BR(~mu_R -> ~chi_40 mu-)
#
#         PDG            Width
DECAY   1000015     3.11751763E+01   # stau_1 decays
#          BR         NDA      ID1       ID2
     3.50999479E-01    2     1000022        15   # BR(~tau_1 -> ~chi_10  tau-)
     4.14729087E-02    2     1000023        15   # BR(~tau_1 -> ~chi_20  tau-)
     1.34207217E-01    2     1000025        15   # BR(~tau_1 -> ~chi_30  tau-)
     1.39508886E-01    2     1000035        15   # BR(~tau_1 -> ~chi_40  tau-)
     5.41112427E-02    2    -1000024        16   # BR(~tau_1 -> ~chi_1-  nu_tau)
     2.79700266E-01    2    -1000037        16   # BR(~tau_1 -> ~chi_2-  nu_tau)
#
#         PDG            Width
DECAY   2000015     3.12049986E+01   # stau_2 decays
#          BR         NDA      ID1       ID2
     2.44882082E-01    2     1000022        15   # BR(~tau_2 -> ~chi_10  tau-)
     6.73369816E-02    2     1000023        15   # BR(~tau_2 -> ~chi_20  tau-)
     2.09813809E-01    2     1000025        15   # BR(~tau_2 -> ~chi_30  tau-)
     1.41820321E-01    2     1000035        15   # BR(~tau_2 -> ~chi_40  tau-)
     5.18118828E-02    2    -1000024        16   # BR(~tau_2 -> ~chi_1-  nu_tau)
     2.84334923E-01    2    -1000037        16   # BR(~tau_2 -> ~chi_2-  nu_tau)
#
#         PDG            Width
DECAY   1000012     3.16124305E+01   # snu_eL decays
#          BR         NDA      ID1       ID2
     1.16215583E-01    2     1000022        12   # BR(~nu_eL -> ~chi_10 nu_e)
     3.23091740E-03    2     1000023        12   # BR(~nu_eL -> ~chi_20 nu_e)
     4.55954197E-02    2     1000025        12   # BR(~nu_eL -> ~chi_30 nu_e)
     2.77792504E-01    2     1000035        12   # BR(~nu_eL -> ~chi_40 nu_e)
     3.06386992E-03    2     1000024        11   # BR(~nu_eL -> ~chi_1+ e-)
     5.54101706E-01    2     1000037        11   # BR(~nu_eL -> ~chi_2+ e-)
#
#         PDG            Width
DECAY   1000014     3.16124305E+01   # snu_muL decays
#          BR         NDA      ID1       ID2
     1.16215583E-01    2     1000022        14   # BR(~nu_muL -> ~chi_10 nu_mu)
     3.23091740E-03    2     1000023        14   # BR(~nu_muL -> ~chi_20 nu_mu)
     4.55954197E-02    2     1000025        14   # BR(~nu_muL -> ~chi_30 nu_mu)
     2.77792504E-01    2     1000035        14   # BR(~nu_muL -> ~chi_40 nu_mu)
     3.06386992E-03    2     1000024        13   # BR(~nu_muL -> ~chi_1+ mu-)
     5.54101706E-01    2     1000037        13   # BR(~nu_muL -> ~chi_2+ mu-)
#
#         PDG            Width
DECAY   1000016     3.49361262E+01   # snu_tauL decays
#          BR         NDA      ID1       ID2
     1.05191237E-01    2     1000022        16   # BR(~nu_tauL -> ~chi_10 nu_tau)
     2.92443264E-03    2     1000023        16   # BR(~nu_tauL -> ~chi_20 nu_tau)
     4.12702564E-02    2     1000025        16   # BR(~nu_tauL -> ~chi_30 nu_tau)
     2.51548666E-01    2     1000035        16   # BR(~nu_tauL -> ~chi_40 nu_tau)
     9.73117444E-02    2     1000024        15   # BR(~nu_tauL -> ~chi_1+ tau-)
     5.01753663E-01    2     1000037        15   # BR(~nu_tauL -> ~chi_2+ tau-)
#
#         PDG            Width
DECAY   1000024     7.95927983E-05   # chargino1+ decays
#           BR         NDA      ID1       ID2       ID3
     3.33593479E-01    3     1000022         2        -1   # BR(~chi_1+ -> ~chi_10 u    db)
     3.33593479E-01    3     1000022         4        -3   # BR(~chi_1+ -> ~chi_10 c    sb)
     1.11198877E-01    3     1000022       -11        12   # BR(~chi_1+ -> ~chi_10 e+   nu_e)
     1.11198877E-01    3     1000022       -13        14   # BR(~chi_1+ -> ~chi_10 mu+  nu_mu)
     1.10415287E-01    3     1000022       -15        16   # BR(~chi_1+ -> ~chi_10 tau+ nu_tau)
#
#         PDG            Width
DECAY   1000037     4.55021679E+01   # chargino2+ decays
#          BR         NDA      ID1       ID2
     3.33754993E-01    2     1000006        -5   # BR(~chi_2+ -> ~t_1     bb)
     1.32194295E-04    2     2000006        -5   # BR(~chi_2+ -> ~t_2     bb)
     3.14639256E-01    2    -1000005         6   # BR(~chi_2+ -> ~b_1*    t )
     8.92796314E-02    2     1000024        23   # BR(~chi_2+ -> ~chi_1+  Z )
     1.86916693E-02    2     1000022        24   # BR(~chi_2+ -> ~chi_10  W+)
     8.75525006E-02    2     1000023        24   # BR(~chi_2+ -> ~chi_20  W+)
     6.76301070E-02    2     1000025        24   # BR(~chi_2+ -> ~chi_30  W+)
     8.83196482E-02    2     1000024        25   # BR(~chi_2+ -> ~chi_1+  h )
#
#         PDG            Width
DECAY   1000022     0.00000000E+00   # neutralino1 decays
#
#         PDG            Width
DECAY   1000023     8.69660659E-05   # neutralino2 decays
#          BR         NDA      ID1       ID2
     1.12410054E-03    2     1000022        22   # BR(~chi_20 -> ~chi_10 gam)
#           BR         NDA      ID1       ID2       ID3
     1.18054977E-01    3     1000022        -2         2   # BR(~chi_20 -> ~chi_10 ub      u)
     1.53132220E-01    3     1000022        -1         1   # BR(~chi_20 -> ~chi_10 db      d)
     1.18054977E-01    3     1000022        -4         4   # BR(~chi_20 -> ~chi_10 cb      c)
     1.53132220E-01    3     1000022        -3         3   # BR(~chi_20 -> ~chi_10 sb      s)
     1.40872122E-01    3     1000022        -5         5   # BR(~chi_20 -> ~chi_10 bb      b)
     3.51120195E-02    3     1000022       -11        11   # BR(~chi_20 -> ~chi_10 e+      e-)
     3.51120195E-02    3     1000022       -13        13   # BR(~chi_20 -> ~chi_10 mu+     mu-)
     3.47759410E-02    3     1000022       -15        15   # BR(~chi_20 -> ~chi_10 tau+    tau-)
     7.02029449E-02    3     1000022       -12        12   # BR(~chi_20 -> ~chi_10 nu_eb   nu_e)
     7.02029449E-02    3     1000022       -14        14   # BR(~chi_20 -> ~chi_10 nu_mub  nu_mu)
     7.02029429E-02    3     1000022       -16        16   # BR(~chi_20 -> ~chi_10 nu_taub nu_tau)
     3.69359037E-06    3     1000024        -2         1   # BR(~chi_20 -> ~chi_1+ ub      d)
     3.69359037E-06    3    -1000024        -1         2   # BR(~chi_20 -> ~chi_1- db      u)
     3.69359037E-06    3     1000024        -4         3   # BR(~chi_20 -> ~chi_1+ cb      s)
     3.69359037E-06    3    -1000024        -3         4   # BR(~chi_20 -> ~chi_1- sb      c)
     1.23119889E-06    3     1000024       -12        11   # BR(~chi_20 -> ~chi_1+ nu_eb   e-)
     1.23119889E-06    3    -1000024        12       -11   # BR(~chi_20 -> ~chi_1- nu_e    e+)
     1.23119889E-06    3     1000024       -14        13   # BR(~chi_20 -> ~chi_1+ nu_mub  mu-)
     1.23119889E-06    3    -1000024        14       -13   # BR(~chi_20 -> ~chi_1- nu_mu   mu+)
     4.35627059E-07    3     1000024       -16        15   # BR(~chi_20 -> ~chi_1+ nu_taub tau-)
     4.35627059E-07    3    -1000024        16       -15   # BR(~chi_20 -> ~chi_1- nu_tau  tau+)
#
#         PDG            Width
DECAY   1000025     1.03095154E-05   # neutralino3 decays
#          BR         NDA      ID1       ID2
     2.64735231E-02    2     1000022        22   # BR(~chi_30 -> ~chi_10 gam)
     5.80685417E-02    2     1000023        22   # BR(~chi_30 -> ~chi_20 gam)
#           BR         NDA      ID1       ID2       ID3
     7.78948307E-02    3     1000022        -2         2   # BR(~chi_30 -> ~chi_10 ub      u)
     1.00770466E-01    3     1000022        -1         1   # BR(~chi_30 -> ~chi_10 db      d)
     7.78948307E-02    3     1000022        -4         4   # BR(~chi_30 -> ~chi_10 cb      c)
     1.00770466E-01    3     1000022        -3         3   # BR(~chi_30 -> ~chi_10 sb      s)
     9.55255913E-02    3     1000022        -5         5   # BR(~chi_30 -> ~chi_10 bb      b)
     2.28923080E-02    3     1000022       -11        11   # BR(~chi_30 -> ~chi_10 e+      e-)
     2.28923080E-02    3     1000022       -13        13   # BR(~chi_30 -> ~chi_10 mu+     mu-)
     2.27265505E-02    3     1000022       -15        15   # BR(~chi_30 -> ~chi_10 tau+    tau-)
     4.62999436E-02    3     1000022       -12        12   # BR(~chi_30 -> ~chi_10 nu_eb   nu_e)
     4.62999436E-02    3     1000022       -14        14   # BR(~chi_30 -> ~chi_10 nu_mub  nu_mu)
     4.62998913E-02    3     1000022       -16        16   # BR(~chi_30 -> ~chi_10 nu_taub nu_tau)
     3.29119948E-03    3     1000023        -2         2   # BR(~chi_30 -> ~chi_20 ub      u)
     4.26937700E-03    3     1000023        -1         1   # BR(~chi_30 -> ~chi_20 db      d)
     3.29119948E-03    3     1000023        -4         4   # BR(~chi_30 -> ~chi_20 cb      c)
     4.26937700E-03    3     1000023        -3         3   # BR(~chi_30 -> ~chi_20 sb      s)
     1.06979372E-03    3     1000023        -5         5   # BR(~chi_30 -> ~chi_20 bb      b)
     9.79121497E-04    3     1000023       -11        11   # BR(~chi_30 -> ~chi_20 e+      e-)
     9.79121497E-04    3     1000023       -13        13   # BR(~chi_30 -> ~chi_20 mu+     mu-)
     8.87334609E-04    3     1000023       -15        15   # BR(~chi_30 -> ~chi_20 tau+    tau-)
     1.95710641E-03    3     1000023       -12        12   # BR(~chi_30 -> ~chi_20 nu_eb   nu_e)
     1.95710641E-03    3     1000023       -14        14   # BR(~chi_30 -> ~chi_20 nu_mub  nu_mu)
     1.95710643E-03    3     1000023       -16        16   # BR(~chi_30 -> ~chi_20 nu_taub nu_tau)
     3.85931267E-02    3     1000024        -2         1   # BR(~chi_30 -> ~chi_1+ ub      d)
     3.85931267E-02    3    -1000024        -1         2   # BR(~chi_30 -> ~chi_1- db      u)
     3.85931267E-02    3     1000024        -4         3   # BR(~chi_30 -> ~chi_1+ cb      s)
     3.85931267E-02    3    -1000024        -3         4   # BR(~chi_30 -> ~chi_1- sb      c)
     1.28642100E-02    3     1000024       -12        11   # BR(~chi_30 -> ~chi_1+ nu_eb   e-)
     1.28642100E-02    3    -1000024        12       -11   # BR(~chi_30 -> ~chi_1- nu_e    e+)
     1.28642100E-02    3     1000024       -14        13   # BR(~chi_30 -> ~chi_1+ nu_mub  mu-)
     1.28642100E-02    3    -1000024        14       -13   # BR(~chi_30 -> ~chi_1- nu_mu   mu+)
     1.22268075E-02    3     1000024       -16        15   # BR(~chi_30 -> ~chi_1+ nu_taub tau-)
     1.22268075E-02    3    -1000024        16       -15   # BR(~chi_30 -> ~chi_1- nu_tau  tau+)
#
#         PDG            Width
DECAY   1000035     4.54874420E+01   # neutralino4 decays
#          BR         NDA      ID1       ID2
     9.58630963E-03    2     1000022        23   # BR(~chi_40 -> ~chi_10   Z )
     4.90142417E-02    2     1000023        23   # BR(~chi_40 -> ~chi_20   Z )
     3.06770761E-02    2     1000025        23   # BR(~chi_40 -> ~chi_30   Z )
     8.70409428E-02    2     1000024       -24   # BR(~chi_40 -> ~chi_1+   W-)
     8.70409428E-02    2    -1000024        24   # BR(~chi_40 -> ~chi_1-   W+)
     9.48872723E-03    2     1000022        25   # BR(~chi_40 -> ~chi_10   h )
     4.02680065E-02    2     1000023        25   # BR(~chi_40 -> ~chi_20   h )
     3.83218441E-02    2     1000025        25   # BR(~chi_40 -> ~chi_30   h )
     1.62114865E-01    2     1000006        -6   # BR(~chi_40 -> ~t_1      tb)
     1.62114865E-01    2    -1000006         6   # BR(~chi_40 -> ~t_1*     t )
     1.62166090E-01    2     1000005        -5   # BR(~chi_40 -> ~b_1      bb)
     1.62166090E-01    2    -1000005         5   # BR(~chi_40 -> ~b_1*     b )
#
#         PDG            Width
DECAY        25     4.06680972E-03   # h decays
#          BR         NDA      ID1       ID2
     5.93216488E-01    2           5        -5   # BR(h -> b       bb     )
     6.41425848E-02    2         -15        15   # BR(h -> tau+    tau-   )
     2.27063754E-04    2         -13        13   # BR(h -> mu+     mu-    )
     4.81443952E-04    2           3        -3   # BR(h -> s       sb     )
     2.09060824E-02    2           4        -4   # BR(h -> c       cb     )
     6.83641525E-02    2          21        21   # BR(h -> g       g      )
     2.36725171E-03    2          22        22   # BR(h -> gam     gam    )
     1.63080154E-03    2          22        23   # BR(h -> Z       gam    )
     2.20712616E-01    2          24       -24   # BR(h -> W+      W-     )
     2.79515156E-02    2          23        23   # BR(h -> Z       Z      )
#
#         PDG            Width
DECAY        35     5.44766623E+01   # H decays
#          BR         NDA      ID1       ID2
     3.41627372E-01    2           5        -5   # BR(H -> b       bb     )
     6.08626936E-02    2         -15        15   # BR(H -> tau+    tau-   )
     2.15195743E-04    2         -13        13   # BR(H -> mu+     mu-    )
     2.54539481E-04    2           3        -3   # BR(H -> s       sb     )
     7.14059849E-08    2           4        -4   # BR(H -> c       cb     )
     7.15636631E-03    2           6        -6   # BR(H -> t       tb     )
     1.09070619E-06    2          21        21   # BR(H -> g       g      )
     7.73710019E-11    2          22        22   # BR(H -> gam     gam    )
     1.83583975E-09    2          23        22   # BR(H -> Z       gam    )
     2.03613258E-06    2          24       -24   # BR(H -> W+      W-     )
     1.01736087E-06    2          23        23   # BR(H -> Z       Z      )
     7.67996227E-06    2          25        25   # BR(H -> h       h      )
     7.62450192E-25    2          36        36   # BR(H -> A       A      )
     2.73160048E-20    2          23        36   # BR(H -> Z       A      )
     1.85440666E-03    2     1000024  -1000024   # BR(H -> ~chi_1+ ~chi_1-)
     1.66150455E-01    2     1000024  -1000037   # BR(H -> ~chi_1+ ~chi_2-)
     1.66150455E-01    2     1000037  -1000024   # BR(H -> ~chi_2+ ~chi_1-)
     2.88341324E-02    2     1000022   1000022   # BR(H -> ~chi_10 ~chi_10)
     1.56320388E-03    2     1000023   1000023   # BR(H -> ~chi_20 ~chi_20)
     1.60667169E-02    2     1000025   1000025   # BR(H -> ~chi_30 ~chi_30)
     2.09416963E-02    2     1000022   1000023   # BR(H -> ~chi_10 ~chi_20)
     4.84789960E-03    2     1000022   1000025   # BR(H -> ~chi_10 ~chi_30)
     3.66160398E-02    2     1000022   1000035   # BR(H -> ~chi_10 ~chi_40)
     1.62389912E-02    2     1000023   1000025   # BR(H -> ~chi_20 ~chi_30)
     7.79738434E-02    2     1000023   1000035   # BR(H -> ~chi_20 ~chi_40)
     5.20625088E-02    2     1000025   1000035   # BR(H -> ~chi_30 ~chi_40)
     1.08492169E-04    2     1000006  -1000006   # BR(H -> ~t_1    ~t_1*  )
     8.03681329E-08    2     2000006  -2000006   # BR(H -> ~t_2    ~t_2*  )
     2.31446205E-04    2     1000006  -2000006   # BR(H -> ~t_1    ~t_2*  )
     2.31446205E-04    2     2000006  -1000006   # BR(H -> ~t_2    ~t_1*  )
     1.22366153E-07    2     1000005  -1000005   # BR(H -> ~b_1    ~b_1*  )
#
#         PDG            Width
DECAY        36     5.44723177E+01   # A decays
#          BR         NDA      ID1       ID2
     3.41680462E-01    2           5        -5   # BR(A -> b       bb     )
     6.08679276E-02    2         -15        15   # BR(A -> tau+    tau-   )
     2.15214080E-04    2         -13        13   # BR(A -> mu+     mu-    )
     2.54602671E-04    2           3        -3   # BR(A -> s       sb     )
     7.18605872E-08    2           4        -4   # BR(A -> c       cb     )
     7.16938312E-03    2           6        -6   # BR(A -> t       tb     )
     1.47312680E-05    2          21        21   # BR(A -> g       g      )
     4.69726882E-08    2          22        22   # BR(A -> gam     gam    )
     1.61894257E-08    2          23        22   # BR(A -> Z       gam    )
     2.03200901E-06    2          23        25   # BR(A -> Z       h      )
     1.85582497E-03    2     1000024  -1000024   # BR(A -> ~chi_1+ ~chi_1-)
     1.66167421E-01    2     1000024  -1000037   # BR(A -> ~chi_1+ ~chi_2-)
     1.66167421E-01    2     1000037  -1000024   # BR(A -> ~chi_2+ ~chi_1-)
     2.49718637E-02    2     1000022   1000022   # BR(A -> ~chi_10 ~chi_10)
     1.93732401E-03    2     1000023   1000023   # BR(A -> ~chi_20 ~chi_20)
     1.29982532E-02    2     1000025   1000025   # BR(A -> ~chi_30 ~chi_30)
     2.67047573E-02    2     1000022   1000023   # BR(A -> ~chi_10 ~chi_20)
     3.59980142E-03    2     1000022   1000025   # BR(A -> ~chi_10 ~chi_30)
     3.51751441E-02    2     1000022   1000035   # BR(A -> ~chi_10 ~chi_40)
     1.82850903E-02    2     1000023   1000025   # BR(A -> ~chi_20 ~chi_30)
     8.33554215E-02    2     1000023   1000035   # BR(A -> ~chi_20 ~chi_40)
     4.80645810E-02    2     1000025   1000035   # BR(A -> ~chi_30 ~chi_40)
     2.56303868E-04    2     1000006  -2000006   # BR(A -> ~t_1    ~t_2*  )
     2.56303868E-04    2    -1000006   2000006   # BR(A -> ~t_1*   ~t_2   )
#
#         PDG            Width
DECAY        37     5.43923216E+01   # H+ decays
#          BR         NDA      ID1       ID2
     5.45078946E-04    2           4        -5   # BR(H+ -> c       bb     )
     6.09739762E-02    2         -15        16   # BR(H+ -> tau+    nu_tau )
     2.15589042E-04    2         -13        14   # BR(H+ -> mu+     nu_mu  )
     3.48850224E-06    2           2        -5   # BR(H+ -> u       bb     )
     1.22135020E-05    2           2        -3   # BR(H+ -> u       sb     )
     2.51271012E-04    2           4        -3   # BR(H+ -> c       sb     )
     3.47491979E-01    2           6        -5   # BR(H+ -> t       bb     )
     2.03736637E-06    2          24        25   # BR(H+ -> W+      h      )
     3.63105926E-14    2          24        36   # BR(H+ -> W+      A      )
     5.57813510E-02    2     1000024   1000022   # BR(H+ -> ~chi_1+ ~chi_10)
     1.46558637E-04    2     1000024   1000023   # BR(H+ -> ~chi_1+ ~chi_20)
     3.33031299E-02    2     1000024   1000025   # BR(H+ -> ~chi_1+ ~chi_30)
     1.66628879E-01    2     1000024   1000035   # BR(H+ -> ~chi_1+ ~chi_40)
     7.19861723E-02    2     1000037   1000022   # BR(H+ -> ~chi_2+ ~chi_10)
     1.61716840E-01    2     1000037   1000023   # BR(H+ -> ~chi_2+ ~chi_20)
     1.00408816E-01    2     1000037   1000025   # BR(H+ -> ~chi_2+ ~chi_30)
     5.79388790E-05    2     1000006  -1000005   # BR(H+ -> ~t_1    ~b_1*  )
     4.74680279E-04    2     2000006  -1000005   # BR(H+ -> ~t_2    ~b_1*  )
