#
#                              ======================
#                              | THE SUSYHIT OUTPUT |
#                              ======================
#
#
#              ------------------------------------------------------
#              |     This is the output of the SUSY-HIT package     |
#              |  created by A.Djouadi, M.Muehlleitner and M.Spira. |
#              |  In case of problems with SUSY-HIT email to        |
#              |           margarete.muehlleitner@kit.edu           |
#              |           michael.spira@psi.ch                     |
#              |           abdelhak.djouadi@cern.ch                 |
#              ------------------------------------------------------
#
#              ------------------------------------------------------
#              |  SUSY Les Houches Accord - MSSM Spectrum + Decays  |
#              |              based on the decay programs           |
#              |                                                    |
#              |                     SDECAY 1.5                     |
#              |                                                    |
#              |  Authors: M.Muhlleitner, A.Djouadi and Y.Mambrini  |
#              |  Ref.:    Comput.Phys.Commun.168(2005)46           |
#              |           [hep-ph/0311167]                         |
#              |                                                    |
#              |                     HDECAY 3.4                     |
#              |                                                    |
#              |  By: A.Djouadi,J.Kalinowski,M.Muhlleitner,M.Spira  |
#              |  Ref.:    Comput.Phys.Commun.108(1998)56           |
#              |           [hep-ph/9704448]                         |
#              |                                                    |
#              |                                                    |
#              |  If not stated otherwise all DRbar couplings and   |
#              |  soft SUSY breaking masses are given at the scale  |
#              |  Q=  0.11983341E+04
#              |                                                    |
#              ------------------------------------------------------
#
#
BLOCK DCINFO  # Decay Program information
     1   SDECAY/HDECAY # decay calculator
     2   1.5  /3.4    # version number
#
BLOCK SPINFO  # Spectrum calculator information
     1    SOFTSUSY    # spectrum calculator                
     2    3.7.3       # version number                     
#
BLOCK MODSEL  # Model selection
     1     0   #  nonUniversal                                     
#
BLOCK SMINPUTS  # Standard Model inputs
         1     1.27934000E+02   # alpha_em^-1(M_Z)^MSbar
         2     1.16639000E-05   # G_F [GeV^-2]
         3     1.17200000E-01   # alpha_S(M_Z)^MSbar
         4     9.11870000E+01   # M_Z pole mass
         5     4.19000000E+00   # mb(mb)^MSbar
         6     1.72500000E+02   # mt pole mass
         7     1.77690000E+00   # mtau pole mass
#
BLOCK MINPAR  # Input parameters - minimal models
         3     2.00000000E+01   # tanb                
#
BLOCK EXTPAR  # Input parameters - non-minimal models
         0    -1.00000000E+00   # Set                 
         1     5.59990000E+02   # M_1(MX)             
         2     2.00000000E+03   # M_2(MX)             
         3     1.80000000E+03   # M_3(MX)             
        11     2.64959179E+03   # At(MX)              
        12     0.00000000E+00   # Ab(MX)              
        13     0.00000000E+00   # Atau(MX)            
        23    -5.71990000E+02   # mu(MX)              
        25     2.00000000E+01   # tan                 
        26     4.00000000E+03   # mA(pole)            
        31     4.00000000E+03   # meL(MX)             
        32     4.00000000E+03   # mmuL(MX)            
        33     4.00000000E+03   # mtauL(MX)           
        34     4.00000000E+03   # meR(MX)             
        35     4.00000000E+03   # mmuR(MX)            
        36     4.00000000E+03   # mtauR(MX)           
        41     4.00000000E+03   # mqL1(MX)            
        42     4.00000000E+03   # mqL2(MX)            
        43     7.09990000E+02   # mqL3(MX)            
        44     4.00000000E+03   # muR(MX)             
        45     4.00000000E+03   # mcR(MX)             
        46     2.05485961E+03   # mtR(MX)             
        47     4.00000000E+03   # mdR(MX)             
        48     4.00000000E+03   # msR(MX)             
        49     4.00000000E+03   # mbR(MX)             
#
BLOCK MASS  # Mass Spectrum
# PDG code           mass       particle
        24     8.04196665E+01   # W+
        25     1.26123241E+02   # h
        35     4.00001137E+03   # H
        36     3.99999752E+03   # A
        37     4.00098753E+03   # H+
         5     4.81337004E+00   # b-quark pole mass calculated from mb(mb)_Msbar
   1000001     4.02294543E+03   # ~d_L
   2000001     4.02016832E+03   # ~d_R
   1000002     4.02229474E+03   # ~u_L
   2000002     4.02117124E+03   # ~u_R
   1000003     4.02294543E+03   # ~s_L
   2000003     4.02016832E+03   # ~s_R
   1000004     4.02229474E+03   # ~c_L
   2000004     4.02117124E+03   # ~c_R
   1000005     7.78423479E+02   # ~b_1
   2000005     4.02388093E+03   # ~b_2
   1000006     7.60415777E+02   # ~t_1
   2000006     2.07067198E+03   # ~t_2
   1000011     4.00402713E+03   # ~e_L
   2000011     4.00301826E+03   # ~e_R
   1000012     4.00291668E+03   # ~nu_eL
   1000013     4.00402713E+03   # ~mu_L
   2000013     4.00301826E+03   # ~mu_R
   1000014     4.00291668E+03   # ~nu_muL
   1000015     4.00349630E+03   # ~tau_1
   2000015     4.00857021E+03   # ~tau_2
   1000016     4.00459312E+03   # ~nu_tauL
   1000021     1.97460388E+03   # ~g
   1000022     5.44635587E+02   # ~chi_10
   1000023    -5.83350446E+02   # ~chi_20
   1000025     6.03906851E+02   # ~chi_30
   1000035     2.05338187E+03   # ~chi_40
   1000024     5.81402532E+02   # ~chi_1+
   1000037     2.05354609E+03   # ~chi_2+
#
BLOCK NMIX  # Neutralino Mixing Matrix
  1  1     7.59169842E-01   # N_11
  1  2    -2.21586110E-02   # N_12
  1  3    -4.76339080E-01   # N_13
  1  4    -4.43025086E-01   # N_14
  2  1    -2.88509071E-02   # N_21
  2  2     2.23449694E-02   # N_22
  2  3    -7.05391515E-01   # N_23
  2  4     7.07877912E-01   # N_24
  3  1     6.50251654E-01   # N_31
  3  2     2.87820538E-02   # N_32
  3  3     5.24810194E-01   # N_33
  3  4     5.48560517E-01   # N_34
  4  1    -1.24989335E-03   # N_41
  4  2     9.99090232E-01   # N_42
  4  3    -9.90718906E-03   # N_43
  4  4    -4.14607488E-02   # N_44
#
BLOCK UMIX  # Chargino Mixing Matrix U
  1  1     1.40171098E-02   # U_11
  1  2     9.99901755E-01   # U_12
  2  1    -9.99901755E-01   # U_21
  2  2     1.40171098E-02   # U_22
#
BLOCK VMIX  # Chargino Mixing Matrix V
  1  1     5.86416110E-02   # V_11
  1  2    -9.98279100E-01   # V_12
  2  1    -9.98279100E-01   # V_21
  2  2    -5.86416110E-02   # V_22
#
BLOCK STOPMIX  # Stop Mixing Matrix
  1  1     9.94364457E-01   # cos(theta_t)
  1  2    -1.06015691E-01   # sin(theta_t)
  2  1     1.06015691E-01   # -sin(theta_t)
  2  2     9.94364457E-01   # cos(theta_t)
#
BLOCK SBOTMIX  # Sbottom Mixing Matrix
  1  1     9.99998298E-01   # cos(theta_b)
  1  2    -1.84499244E-03   # sin(theta_b)
  2  1     1.84499244E-03   # -sin(theta_b)
  2  2     9.99998298E-01   # cos(theta_b)
#
BLOCK STAUMIX  # Stau Mixing Matrix
  1  1    -7.06336394E-01   # cos(theta_tau)
  1  2     7.07876330E-01   # sin(theta_tau)
  2  1    -7.07876330E-01   # -sin(theta_tau)
  2  2    -7.06336394E-01   # cos(theta_tau)
#
BLOCK ALPHA  # Higgs mixing
          -5.00239750E-02   # Mixing angle in the neutral Higgs boson sector
#
BLOCK HMIX Q=  1.19833410E+03  # DRbar Higgs Parameters
         1    -5.71990000E+02   # mu(Q)MSSM           
         2     2.00000000E+01   # tan                 
         3     2.43881533E+02   # higgs               
         4     1.62840435E+07   # mA^2(Q)MSSM         
#
BLOCK GAUGE Q=  1.19833410E+03  # The gauge couplings
     1     3.61551984E-01   # gprime(Q) DRbar
     2     6.35540866E-01   # g(Q) DRbar
     3     1.03206317E+00   # g3(Q) DRbar
#
BLOCK AU Q=  1.19833410E+03  # The trilinear couplings
  1  1     0.00000000E+00   # A_u(Q) DRbar
  2  2     1.14377362E-06   # A_c(Q) DRbar
  3  3     2.64959179E+03   # A_t(Q) DRbar
#
BLOCK AD Q=  1.19833410E+03  # The trilinear couplings
  1  1     4.22921305E-07   # A_d(Q) DRbar
  2  2     4.22960371E-07   # A_s(Q) DRbar
  3  3     7.56271128E-07   # A_b(Q) DRbar
#
BLOCK AE Q=  1.19833410E+03  # The trilinear couplings
  1  1     0.00000000E+00   # A_e(Q) DRbar
  2  2     9.49480024E-08   # A_mu(Q) DRbar
  3  3     9.59068098E-08   # A_tau(Q) DRbar
#
BLOCK Yu Q=  1.19833410E+03  # The Yukawa couplings
  1  1     0.00000000E+00   # y_u(Q) DRbar
  2  2     0.00000000E+00   # y_c(Q) DRbar
  3  3     8.69638127E-01   # y_t(Q) DRbar
#
BLOCK Yd Q=  1.19833410E+03  # The Yukawa couplings
  1  1     0.00000000E+00   # y_d(Q) DRbar
  2  2     0.00000000E+00   # y_s(Q) DRbar
  3  3     2.90161565E-01   # y_b(Q) DRbar
#
BLOCK Ye Q=  1.19833410E+03  # The Yukawa couplings
  1  1     0.00000000E+00   # y_e(Q) DRbar
  2  2     0.00000000E+00   # y_mu(Q) DRbar
  3  3     2.02616387E-01   # y_tau(Q) DRbar
#
BLOCK MSOFT Q=  1.19833410E+03  # The soft SUSY breaking masses at the scale Q
         1     5.59990000E+02   # M_1(Q)              
         2     2.00000000E+03   # M_2(Q)              
         3     1.80000000E+03   # M_3(Q)              
        21     1.55613449E+07   # M^2_Hd              
        22    -3.24395065E+05   # M^2_Hu              
        31     4.00000000E+03   # M_eL                
        32     4.00000000E+03   # M_muL               
        33     4.00000000E+03   # M_tauL              
        34     4.00000000E+03   # M_eR                
        35     4.00000000E+03   # M_muR               
        36     4.00000000E+03   # M_tauR              
        41     4.00000000E+03   # M_q1L               
        42     4.00000000E+03   # M_q2L               
        43     7.09989997E+02   # M_q3L               
        44     4.00000000E+03   # M_uR                
        45     4.00000000E+03   # M_cR                
        46     2.05485961E+03   # M_tR                
        47     4.00000000E+03   # M_dR                
        48     4.00000000E+03   # M_sR                
        49     4.00000000E+03   # M_bR                
#
#
#
#                             =================
#                             |The decay table|
#                             =================
#
# - The QCD corrections to the decays gluino -> squark  + quark
#                                     squark -> gaugino + quark_prime
#                                     squark -> squark_prime + Higgs
#                                     squark -> gluino  + quark
#   are included.
#
# - The multi-body decays for the inos, stops and sbottoms are included.
#
# - The loop induced decays for the gluino, neutralinos and stops
#   are included.
#
# - The SUSY decays of the top quark are included.
#
#
#         PDG            Width
DECAY         6     1.40119802E+00   # top decays
#          BR         NDA      ID1       ID2
     1.00000000E+00    2           5        24   # BR(t ->  b    W+)
#
#         PDG            Width
DECAY   1000021     6.02651398E+01   # gluino decays
#          BR         NDA      ID1       ID2
     2.43411128E-01    2     1000005        -5   # BR(~g -> ~b_1  bb)
     2.43411128E-01    2    -1000005         5   # BR(~g -> ~b_1* b )
     2.56588872E-01    2     1000006        -6   # BR(~g -> ~t_1  tb)
     2.56588872E-01    2    -1000006         6   # BR(~g -> ~t_1* t )
#
#         PDG            Width
DECAY   1000006     7.48086015E-01   # stop1 decays
#          BR         NDA      ID1       ID2
     4.88790624E-01    2     1000022         6   # BR(~t_1 -> ~chi_10 t )
     2.18632831E-01    2     1000023         6   # BR(~t_1 -> ~chi_20 t )
     2.92576544E-01    2     1000024         5   # BR(~t_1 -> ~chi_1+ b )
#
#         PDG            Width
DECAY   2000006     1.19570980E+02   # stop2 decays
#          BR         NDA      ID1       ID2
     6.22566729E-02    2     1000022         6   # BR(~t_2 -> ~chi_10 t )
     1.06722594E-01    2     1000023         6   # BR(~t_2 -> ~chi_20 t )
     7.38180405E-02    2     1000025         6   # BR(~t_2 -> ~chi_30 t )
     2.11303933E-01    2     1000024         5   # BR(~t_2 -> ~chi_1+ b )
     1.98093014E-08    2     1000037         5   # BR(~t_2 -> ~chi_2+ b )
     1.74930457E-01    2     1000006        25   # BR(~t_2 -> ~t_1    h )
     1.21261206E-01    2     1000006        23   # BR(~t_2 -> ~t_1    Z )
     2.49707077E-01    2     1000005        24   # BR(~t_2 -> ~b_1    W+)
#
#         PDG            Width
DECAY   1000005     1.27243920E+00   # sbottom1 decays
#          BR         NDA      ID1       ID2
     7.87246673E-02    2     1000022         5   # BR(~b_1 -> ~chi_10 b )
     9.65096557E-02    2     1000023         5   # BR(~b_1 -> ~chi_20 b )
     4.68740245E-02    2     1000025         5   # BR(~b_1 -> ~chi_30 b )
     7.77891652E-01    2    -1000024         6   # BR(~b_1 -> ~chi_1- t )
#
#         PDG            Width
DECAY   2000005     1.67075329E+02   # sbottom2 decays
#          BR         NDA      ID1       ID2
     1.57640062E-02    2     1000022         5   # BR(~b_2 -> ~chi_10 b )
     1.82168921E-02    2     1000023         5   # BR(~b_2 -> ~chi_20 b )
     1.54992719E-02    2     1000025         5   # BR(~b_2 -> ~chi_30 b )
     3.28590083E-06    2     1000035         5   # BR(~b_2 -> ~chi_40 b )
     3.64749843E-02    2    -1000024         6   # BR(~b_2 -> ~chi_1- t )
     6.53229179E-06    2    -1000037         6   # BR(~b_2 -> ~chi_2- t )
     9.12288585E-01    2     1000021         5   # BR(~b_2 -> ~g      b )
     3.69847558E-04    2     1000005        25   # BR(~b_2 -> ~b_1    h )
     5.12831129E-04    2     1000005        23   # BR(~b_2 -> ~b_1    Z )
     8.59952609E-04    2     1000006       -24   # BR(~b_2 -> ~t_1    W-)
     3.81120835E-06    2     2000006       -24   # BR(~b_2 -> ~t_2    W-)
#
#         PDG            Width
DECAY   1000002     1.78577372E+02   # sup_L decays
#          BR         NDA      ID1       ID2
     1.24803341E-03    2     1000022         2   # BR(~u_L -> ~chi_10 u)
     2.38236016E-05    2     1000023         2   # BR(~u_L -> ~chi_20 u)
     1.92954005E-03    2     1000025         2   # BR(~u_L -> ~chi_30 u)
     4.78241953E-02    2     1000035         2   # BR(~u_L -> ~chi_40 u)
     5.75619972E-04    2     1000024         1   # BR(~u_L -> ~chi_1+ d)
     9.55277755E-02    2     1000037         1   # BR(~u_L -> ~chi_2+ d)
     8.52871012E-01    2     1000021         2   # BR(~u_L -> ~g      u)
#
#         PDG            Width
DECAY   2000002     1.60816733E+02   # sup_R decays
#          BR         NDA      ID1       ID2
     3.09661456E-02    2     1000022         2   # BR(~u_R -> ~chi_10 u)
     4.44820333E-05    2     1000023         2   # BR(~u_R -> ~chi_20 u)
     2.25275548E-02    2     1000025         2   # BR(~u_R -> ~chi_30 u)
     4.78107182E-08    2     1000035         2   # BR(~u_R -> ~chi_40 u)
     9.46461770E-01    2     1000021         2   # BR(~u_R -> ~g      u)
#
#         PDG            Width
DECAY   1000001     1.78597608E+02   # sdown_L decays
#          BR         NDA      ID1       ID2
     2.32158041E-03    2     1000022         1   # BR(~d_L -> ~chi_10 d)
     6.47423084E-05    2     1000023         1   # BR(~d_L -> ~chi_20 d)
     7.45382339E-04    2     1000025         1   # BR(~d_L -> ~chi_30 d)
     4.78828175E-02    2     1000035         1   # BR(~d_L -> ~chi_40 d)
     3.28903986E-05    2    -1000024         2   # BR(~d_L -> ~chi_1- u)
     9.58650493E-02    2    -1000037         2   # BR(~d_L -> ~chi_2- u)
     8.53087538E-01    2     1000021         1   # BR(~d_L -> ~g      d)
#
#         PDG            Width
DECAY   2000001     1.54272547E+02   # sdown_R decays
#          BR         NDA      ID1       ID2
     8.06773482E-03    2     1000022         1   # BR(~d_R -> ~chi_10 d)
     1.15890519E-05    2     1000023         1   # BR(~d_R -> ~chi_20 d)
     5.86916966E-03    2     1000025         1   # BR(~d_R -> ~chi_30 d)
     1.24522224E-08    2     1000035         1   # BR(~d_R -> ~chi_40 d)
     9.86051494E-01    2     1000021         1   # BR(~d_R -> ~g      d)
#
#         PDG            Width
DECAY   1000004     1.78577372E+02   # scharm_L decays
#          BR         NDA      ID1       ID2
     1.24803341E-03    2     1000022         4   # BR(~c_L -> ~chi_10 c)
     2.38236016E-05    2     1000023         4   # BR(~c_L -> ~chi_20 c)
     1.92954005E-03    2     1000025         4   # BR(~c_L -> ~chi_30 c)
     4.78241953E-02    2     1000035         4   # BR(~c_L -> ~chi_40 c)
     5.75619972E-04    2     1000024         3   # BR(~c_L -> ~chi_1+ s)
     9.55277755E-02    2     1000037         3   # BR(~c_L -> ~chi_2+ s)
     8.52871012E-01    2     1000021         4   # BR(~c_L -> ~g      c)
#
#         PDG            Width
DECAY   2000004     1.60816733E+02   # scharm_R decays
#          BR         NDA      ID1       ID2
     3.09661456E-02    2     1000022         4   # BR(~c_R -> ~chi_10 c)
     4.44820333E-05    2     1000023         4   # BR(~c_R -> ~chi_20 c)
     2.25275548E-02    2     1000025         4   # BR(~c_R -> ~chi_30 c)
     4.78107182E-08    2     1000035         4   # BR(~c_R -> ~chi_40 c)
     9.46461770E-01    2     1000021         4   # BR(~c_R -> ~g      c)
#
#         PDG            Width
DECAY   1000003     1.78597608E+02   # sstrange_L decays
#          BR         NDA      ID1       ID2
     2.32158041E-03    2     1000022         3   # BR(~s_L -> ~chi_10 s)
     6.47423084E-05    2     1000023         3   # BR(~s_L -> ~chi_20 s)
     7.45382339E-04    2     1000025         3   # BR(~s_L -> ~chi_30 s)
     4.78828175E-02    2     1000035         3   # BR(~s_L -> ~chi_40 s)
     3.28903986E-05    2    -1000024         4   # BR(~s_L -> ~chi_1- c)
     9.58650493E-02    2    -1000037         4   # BR(~s_L -> ~chi_2- c)
     8.53087538E-01    2     1000021         3   # BR(~s_L -> ~g      s)
#
#         PDG            Width
DECAY   2000003     1.54272547E+02   # sstrange_R decays
#          BR         NDA      ID1       ID2
     8.06773482E-03    2     1000022         3   # BR(~s_R -> ~chi_10 s)
     1.15890519E-05    2     1000023         3   # BR(~s_R -> ~chi_20 s)
     5.86916966E-03    2     1000025         3   # BR(~s_R -> ~chi_30 s)
     1.24522224E-08    2     1000035         3   # BR(~s_R -> ~chi_40 s)
     9.86051494E-01    2     1000021         3   # BR(~s_R -> ~g      s)
#
#         PDG            Width
DECAY   1000011     3.12316589E+01   # selectron_L decays
#          BR         NDA      ID1       ID2
     8.33013017E-02    2     1000022        11   # BR(~e_L -> ~chi_10 e-)
     1.73643552E-05    2     1000023        11   # BR(~e_L -> ~chi_20 e-)
     7.81989165E-02    2     1000025        11   # BR(~e_L -> ~chi_30 e-)
     2.78883261E-01    2     1000035        11   # BR(~e_L -> ~chi_40 e-)
     1.93966432E-04    2    -1000024        12   # BR(~e_L -> ~chi_1- nu_e)
     5.59405190E-01    2    -1000037        12   # BR(~e_L -> ~chi_2- nu_e)
#
#         PDG            Width
DECAY   2000011     1.99833535E+01   # selectron_R decays
#          BR         NDA      ID1       ID2
     5.78454683E-01    2     1000022        11   # BR(~e_R -> ~chi_10 e-)
     8.30797671E-04    2     1000023        11   # BR(~e_R -> ~chi_20 e-)
     4.20713635E-01    2     1000025        11   # BR(~e_R -> ~chi_30 e-)
     8.83797630E-07    2     1000035        11   # BR(~e_R -> ~chi_40 e-)
#
#         PDG            Width
DECAY   1000013     3.12316589E+01   # smuon_L decays
#          BR         NDA      ID1       ID2
     8.33013017E-02    2     1000022        13   # BR(~mu_L -> ~chi_10 mu-)
     1.73643552E-05    2     1000023        13   # BR(~mu_L -> ~chi_20 mu-)
     7.81989165E-02    2     1000025        13   # BR(~mu_L -> ~chi_30 mu-)
     2.78883261E-01    2     1000035        13   # BR(~mu_L -> ~chi_40 mu-)
     1.93966432E-04    2    -1000024        14   # BR(~mu_L -> ~chi_1- nu_mu)
     5.59405190E-01    2    -1000037        14   # BR(~mu_L -> ~chi_2- nu_mu)
#
#         PDG            Width
DECAY   2000013     1.99833535E+01   # smuon_R decays
#          BR         NDA      ID1       ID2
     5.78454683E-01    2     1000022        13   # BR(~mu_R -> ~chi_10 mu-)
     8.30797671E-04    2     1000023        13   # BR(~mu_R -> ~chi_20 mu-)
     4.20713635E-01    2     1000025        13   # BR(~mu_R -> ~chi_30 mu-)
     8.83797630E-07    2     1000035        13   # BR(~mu_R -> ~chi_40 mu-)
#
#         PDG            Width
DECAY   1000015     3.03959415E+01   # stau_1 decays
#          BR         NDA      ID1       ID2
     3.06492941E-01    2     1000022        15   # BR(~tau_1 -> ~chi_10  tau-)
     4.53048146E-02    2     1000023        15   # BR(~tau_1 -> ~chi_20  tau-)
     1.66175420E-01    2     1000025        15   # BR(~tau_1 -> ~chi_30  tau-)
     1.41639392E-01    2     1000035        15   # BR(~tau_1 -> ~chi_40  tau-)
     5.62750311E-02    2    -1000024        16   # BR(~tau_1 -> ~chi_1-  nu_tau)
     2.84112402E-01    2    -1000037        16   # BR(~tau_1 -> ~chi_2-  nu_tau)
#
#         PDG            Width
DECAY   2000015     3.02767514E+01   # stau_2 decays
#          BR         NDA      ID1       ID2
     2.07565116E-01    2     1000022        15   # BR(~tau_2 -> ~chi_10  tau-)
     5.81226458E-02    2     1000023        15   # BR(~tau_2 -> ~chi_20  tau-)
     2.48687032E-01    2     1000025        15   # BR(~tau_2 -> ~chi_30  tau-)
     1.45847134E-01    2     1000035        15   # BR(~tau_2 -> ~chi_40  tau-)
     4.72372882E-02    2    -1000024        16   # BR(~tau_2 -> ~chi_1-  nu_tau)
     2.92540785E-01    2    -1000037        16   # BR(~tau_2 -> ~chi_2-  nu_tau)
#
#         PDG            Width
DECAY   1000012     3.12421952E+01   # snu_eL decays
#          BR         NDA      ID1       ID2
     1.02231189E-01    2     1000022        12   # BR(~nu_eL -> ~chi_10 nu_e)
     7.40794316E-04    2     1000023        12   # BR(~nu_eL -> ~chi_20 nu_e)
     5.72118473E-02    2     1000025        12   # BR(~nu_eL -> ~chi_30 nu_e)
     2.79395777E-01    2     1000035        12   # BR(~nu_eL -> ~chi_40 nu_e)
     3.39268924E-03    2     1000024        11   # BR(~nu_eL -> ~chi_1+ e-)
     5.57027703E-01    2     1000037        11   # BR(~nu_eL -> ~chi_2+ e-)
#
#         PDG            Width
DECAY   1000014     3.12421952E+01   # snu_muL decays
#          BR         NDA      ID1       ID2
     1.02231189E-01    2     1000022        14   # BR(~nu_muL -> ~chi_10 nu_mu)
     7.40794316E-04    2     1000023        14   # BR(~nu_muL -> ~chi_20 nu_mu)
     5.72118473E-02    2     1000025        14   # BR(~nu_muL -> ~chi_30 nu_mu)
     2.79395777E-01    2     1000035        14   # BR(~nu_muL -> ~chi_40 nu_mu)
     3.39268924E-03    2     1000024        13   # BR(~nu_muL -> ~chi_1+ mu-)
     5.57027703E-01    2     1000037        13   # BR(~nu_muL -> ~chi_2+ mu-)
#
#         PDG            Width
DECAY   1000016     3.44051131E+01   # snu_tauL decays
#          BR         NDA      ID1       ID2
     9.28747212E-02    2     1000022        16   # BR(~nu_tauL -> ~chi_10 nu_tau)
     6.72998066E-04    2     1000023        16   # BR(~nu_tauL -> ~chi_20 nu_tau)
     5.19760538E-02    2     1000025        16   # BR(~nu_tauL -> ~chi_30 nu_tau)
     2.53968495E-01    2     1000035        16   # BR(~nu_tauL -> ~chi_40 nu_tau)
     9.41670228E-02    2     1000024        15   # BR(~nu_tauL -> ~chi_1+ tau-)
     5.06340710E-01    2     1000037        15   # BR(~nu_tauL -> ~chi_2+ tau-)
#
#         PDG            Width
DECAY   1000024     3.48668308E-05   # chargino1+ decays
#           BR         NDA      ID1       ID2       ID3
     3.33757270E-01    3     1000022         2        -1   # BR(~chi_1+ -> ~chi_10 u    db)
     3.33757270E-01    3     1000022         4        -3   # BR(~chi_1+ -> ~chi_10 c    sb)
     1.11253802E-01    3     1000022       -11        12   # BR(~chi_1+ -> ~chi_10 e+   nu_e)
     1.11253802E-01    3     1000022       -13        14   # BR(~chi_1+ -> ~chi_10 mu+  nu_mu)
     1.09977857E-01    3     1000022       -15        16   # BR(~chi_1+ -> ~chi_10 tau+ nu_tau)
#
#         PDG            Width
DECAY   1000037     5.77031511E+01   # chargino2+ decays
#          BR         NDA      ID1       ID2
     3.74512109E-01    2     1000006        -5   # BR(~chi_2+ -> ~t_1     bb)
     3.59862256E-01    2    -1000005         6   # BR(~chi_2+ -> ~b_1*    t )
     6.75494116E-02    2     1000024        23   # BR(~chi_2+ -> ~chi_1+  Z )
     2.37975924E-02    2     1000022        24   # BR(~chi_2+ -> ~chi_10  W+)
     6.58347095E-02    2     1000023        24   # BR(~chi_2+ -> ~chi_20  W+)
     4.19928628E-02    2     1000025        24   # BR(~chi_2+ -> ~chi_30  W+)
     6.64510584E-02    2     1000024        25   # BR(~chi_2+ -> ~chi_1+  h )
#
#         PDG            Width
DECAY   1000022     0.00000000E+00   # neutralino1 decays
#
#         PDG            Width
DECAY   1000023     3.64237958E-05   # neutralino2 decays
#          BR         NDA      ID1       ID2
     1.15348866E-03    2     1000022        22   # BR(~chi_20 -> ~chi_10 gam)
#           BR         NDA      ID1       ID2       ID3
     1.18877425E-01    3     1000022        -2         2   # BR(~chi_20 -> ~chi_10 ub      u)
     1.54204007E-01    3     1000022        -1         1   # BR(~chi_20 -> ~chi_10 db      d)
     1.18877425E-01    3     1000022        -4         4   # BR(~chi_20 -> ~chi_10 cb      c)
     1.54204007E-01    3     1000022        -3         3   # BR(~chi_20 -> ~chi_10 sb      s)
     1.35004102E-01    3     1000022        -5         5   # BR(~chi_20 -> ~chi_10 bb      b)
     3.53614414E-02    3     1000022       -11        11   # BR(~chi_20 -> ~chi_10 e+      e-)
     3.53614414E-02    3     1000022       -13        13   # BR(~chi_20 -> ~chi_10 mu+     mu-)
     3.48783153E-02    3     1000022       -15        15   # BR(~chi_20 -> ~chi_10 tau+    tau-)
     7.06922477E-02    3     1000022       -12        12   # BR(~chi_20 -> ~chi_10 nu_eb   nu_e)
     7.06922477E-02    3     1000022       -14        14   # BR(~chi_20 -> ~chi_10 nu_mub  nu_mu)
     7.06922465E-02    3     1000022       -16        16   # BR(~chi_20 -> ~chi_10 nu_taub nu_tau)
     3.00927617E-07    3     1000024        -2         1   # BR(~chi_20 -> ~chi_1+ ub      d)
     3.00927617E-07    3    -1000024        -1         2   # BR(~chi_20 -> ~chi_1- db      u)
     3.00927617E-07    3     1000024        -4         3   # BR(~chi_20 -> ~chi_1+ cb      s)
     3.00927617E-07    3    -1000024        -3         4   # BR(~chi_20 -> ~chi_1- sb      c)
     1.00309272E-07    3     1000024       -12        11   # BR(~chi_20 -> ~chi_1+ nu_eb   e-)
     1.00309272E-07    3    -1000024        12       -11   # BR(~chi_20 -> ~chi_1- nu_e    e+)
     1.00309272E-07    3     1000024       -14        13   # BR(~chi_20 -> ~chi_1+ nu_mub  mu-)
     1.00309272E-07    3    -1000024        14       -13   # BR(~chi_20 -> ~chi_1- nu_mu   mu+)
     1.17835970E-10    3     1000024       -16        15   # BR(~chi_20 -> ~chi_1+ nu_taub tau-)
     1.17835970E-10    3    -1000024        16       -15   # BR(~chi_20 -> ~chi_1- nu_tau  tau+)
#
#         PDG            Width
DECAY   1000025     1.09568761E-05   # neutralino3 decays
#          BR         NDA      ID1       ID2
     8.38187954E-02    2     1000022        22   # BR(~chi_30 -> ~chi_10 gam)
     1.50527428E-02    2     1000023        22   # BR(~chi_30 -> ~chi_20 gam)
#           BR         NDA      ID1       ID2       ID3
     1.64655134E-03    3     1000022        -2         2   # BR(~chi_30 -> ~chi_10 ub      u)
     2.09465878E-03    3     1000022        -1         1   # BR(~chi_30 -> ~chi_10 db      d)
     1.64655134E-03    3     1000022        -4         4   # BR(~chi_30 -> ~chi_10 cb      c)
     2.09465878E-03    3     1000022        -3         3   # BR(~chi_30 -> ~chi_10 sb      s)
     2.19371604E-03    3     1000022        -5         5   # BR(~chi_30 -> ~chi_10 bb      b)
     4.48967715E-04    3     1000022       -11        11   # BR(~chi_30 -> ~chi_10 e+      e-)
     4.48967715E-04    3     1000022       -13        13   # BR(~chi_30 -> ~chi_10 mu+     mu-)
     4.55151129E-04    3     1000022       -15        15   # BR(~chi_30 -> ~chi_10 tau+    tau-)
     9.76287949E-04    3     1000022       -12        12   # BR(~chi_30 -> ~chi_10 nu_eb   nu_e)
     9.76287949E-04    3     1000022       -14        14   # BR(~chi_30 -> ~chi_10 nu_mub  nu_mu)
     9.76276623E-04    3     1000022       -16        16   # BR(~chi_30 -> ~chi_10 nu_taub nu_tau)
     2.20235227E-02    3     1000023        -2         2   # BR(~chi_30 -> ~chi_20 ub      u)
     2.85687714E-02    3     1000023        -1         1   # BR(~chi_30 -> ~chi_20 db      d)
     2.20235227E-02    3     1000023        -4         4   # BR(~chi_30 -> ~chi_20 cb      c)
     2.85687714E-02    3     1000023        -3         3   # BR(~chi_30 -> ~chi_20 sb      s)
     1.73755338E-02    3     1000023        -5         5   # BR(~chi_30 -> ~chi_20 bb      b)
     6.55154343E-03    3     1000023       -11        11   # BR(~chi_30 -> ~chi_20 e+      e-)
     6.55154343E-03    3     1000023       -13        13   # BR(~chi_30 -> ~chi_20 mu+     mu-)
     6.27857557E-03    3     1000023       -15        15   # BR(~chi_30 -> ~chi_20 tau+    tau-)
     1.30962868E-02    3     1000023       -12        12   # BR(~chi_30 -> ~chi_20 nu_eb   nu_e)
     1.30962868E-02    3     1000023       -14        14   # BR(~chi_30 -> ~chi_20 nu_mub  nu_mu)
     1.30962870E-02    3     1000023       -16        16   # BR(~chi_30 -> ~chi_20 nu_taub nu_tau)
     1.18723452E-01    3     1000024        -2         1   # BR(~chi_30 -> ~chi_1+ ub      d)
     1.18723452E-01    3    -1000024        -1         2   # BR(~chi_30 -> ~chi_1- db      u)
     1.18723452E-01    3     1000024        -4         3   # BR(~chi_30 -> ~chi_1+ cb      s)
     1.18723452E-01    3    -1000024        -3         4   # BR(~chi_30 -> ~chi_1- sb      c)
     3.95739721E-02    3     1000024       -12        11   # BR(~chi_30 -> ~chi_1+ nu_eb   e-)
     3.95739721E-02    3    -1000024        12       -11   # BR(~chi_30 -> ~chi_1- nu_e    e+)
     3.95739721E-02    3     1000024       -14        13   # BR(~chi_30 -> ~chi_1+ nu_mub  mu-)
     3.95739721E-02    3    -1000024        14       -13   # BR(~chi_30 -> ~chi_1- nu_mu   mu+)
     3.83750221E-02    3     1000024       -16        15   # BR(~chi_30 -> ~chi_1+ nu_taub tau-)
     3.83750221E-02    3    -1000024        16       -15   # BR(~chi_30 -> ~chi_1- nu_tau  tau+)
#
#         PDG            Width
DECAY   1000035     5.76898467E+01   # neutralino4 decays
#          BR         NDA      ID1       ID2
     7.20923137E-03    2     1000022        23   # BR(~chi_40 -> ~chi_10   Z )
     4.90351319E-02    2     1000023        23   # BR(~chi_40 -> ~chi_20   Z )
     1.13075478E-02    2     1000025        23   # BR(~chi_40 -> ~chi_30   Z )
     6.58460399E-02    2     1000024       -24   # BR(~chi_40 -> ~chi_1+   W-)
     6.58460399E-02    2    -1000024        24   # BR(~chi_40 -> ~chi_1-   W+)
     1.69057924E-02    2     1000022        25   # BR(~chi_40 -> ~chi_10   h )
     1.82503199E-02    2     1000023        25   # BR(~chi_40 -> ~chi_20   h )
     3.11423744E-02    2     1000025        25   # BR(~chi_40 -> ~chi_30   h )
     1.83336597E-01    2     1000006        -6   # BR(~chi_40 -> ~t_1      tb)
     1.83336597E-01    2    -1000006         6   # BR(~chi_40 -> ~t_1*     t )
     1.83892164E-01    2     1000005        -5   # BR(~chi_40 -> ~b_1      bb)
     1.83892164E-01    2    -1000005         5   # BR(~chi_40 -> ~b_1*     b )
#
#         PDG            Width
DECAY        25     4.06942983E-03   # h decays
#          BR         NDA      ID1       ID2
     5.79946025E-01    2           5        -5   # BR(h -> b       bb     )
     6.43172576E-02    2         -15        15   # BR(h -> tau+    tau-   )
     2.27680116E-04    2         -13        13   # BR(h -> mu+     mu-    )
     4.82410810E-04    2           3        -3   # BR(h -> s       sb     )
     2.09539802E-02    2           4        -4   # BR(h -> c       cb     )
     6.87903819E-02    2          21        21   # BR(h -> g       g      )
     2.40776965E-03    2          22        22   # BR(h -> gam     gam    )
     1.69673179E-03    2          22        23   # BR(h -> Z       gam    )
     2.31626356E-01    2          24       -24   # BR(h -> W+      W-     )
     2.95514070E-02    2          23        23   # BR(h -> Z       Z      )
#
#         PDG            Width
DECAY        35     5.61071688E+01   # H decays
#          BR         NDA      ID1       ID2
     3.74880659E-01    2           5        -5   # BR(H -> b       bb     )
     5.90941376E-02    2         -15        15   # BR(H -> tau+    tau-   )
     2.08942557E-04    2         -13        13   # BR(H -> mu+     mu-    )
     2.47142986E-04    2           3        -3   # BR(H -> s       sb     )
     6.93111081E-08    2           4        -4   # BR(H -> c       cb     )
     6.94641618E-03    2           6        -6   # BR(H -> t       tb     )
     7.34423699E-07    2          21        21   # BR(H -> g       g      )
     6.85906336E-09    2          22        22   # BR(H -> gam     gam    )
     1.78919466E-09    2          23        22   # BR(H -> Z       gam    )
     1.60595825E-06    2          24       -24   # BR(H -> W+      W-     )
     8.02422933E-07    2          23        23   # BR(H -> Z       Z      )
     6.60811244E-06    2          25        25   # BR(H -> h       h      )
    -5.73388386E-24    2          36        36   # BR(H -> A       A      )
     2.97131550E-21    2          23        36   # BR(H -> Z       A      )
     1.86189200E-03    2     1000024  -1000024   # BR(H -> ~chi_1+ ~chi_1-)
     1.47761701E-01    2     1000024  -1000037   # BR(H -> ~chi_1+ ~chi_2-)
     1.47761701E-01    2     1000037  -1000024   # BR(H -> ~chi_2+ ~chi_1-)
     2.44780188E-02    2     1000022   1000022   # BR(H -> ~chi_10 ~chi_10)
     3.38220792E-04    2     1000023   1000023   # BR(H -> ~chi_20 ~chi_20)
     1.62128165E-02    2     1000025   1000025   # BR(H -> ~chi_30 ~chi_30)
     2.07783052E-02    2     1000022   1000023   # BR(H -> ~chi_10 ~chi_20)
     1.59010988E-03    2     1000022   1000025   # BR(H -> ~chi_10 ~chi_30)
     2.99021591E-02    2     1000022   1000035   # BR(H -> ~chi_10 ~chi_40)
     1.58407979E-02    2     1000023   1000025   # BR(H -> ~chi_20 ~chi_30)
     8.20254677E-02    2     1000023   1000035   # BR(H -> ~chi_20 ~chi_40)
     3.63130540E-02    2     1000025   1000035   # BR(H -> ~chi_30 ~chi_40)
     1.37774799E-03    2     1000006  -1000006   # BR(H -> ~t_1    ~t_1*  )
     1.61853676E-02    2     1000006  -2000006   # BR(H -> ~t_1    ~t_2*  )
     1.61853676E-02    2     2000006  -1000006   # BR(H -> ~t_2    ~t_1*  )
     1.45429909E-07    2     1000005  -1000005   # BR(H -> ~b_1    ~b_1*  )
#
#         PDG            Width
DECAY        36     5.61136851E+01   # A decays
#          BR         NDA      ID1       ID2
     3.74862680E-01    2           5        -5   # BR(A -> b       bb     )
     5.90875049E-02    2         -15        15   # BR(A -> tau+    tau-   )
     2.08918941E-04    2         -13        13   # BR(A -> mu+     mu-    )
     2.47155389E-04    2           3        -3   # BR(A -> s       sb     )
     6.97586212E-08    2           4        -4   # BR(A -> c       cb     )
     6.95967430E-03    2           6        -6   # BR(A -> t       tb     )
     1.43003664E-05    2          21        21   # BR(A -> g       g      )
     7.13034689E-08    2          22        22   # BR(A -> gam     gam    )
     1.57267068E-08    2          23        22   # BR(A -> Z       gam    )
     1.60234971E-06    2          23        25   # BR(A -> Z       h      )
     1.93868594E-03    2     1000024  -1000024   # BR(A -> ~chi_1+ ~chi_1-)
     1.47693151E-01    2     1000024  -1000037   # BR(A -> ~chi_1+ ~chi_2-)
     1.47693151E-01    2     1000037  -1000024   # BR(A -> ~chi_2+ ~chi_1-)
     2.19430122E-02    2     1000022   1000022   # BR(A -> ~chi_10 ~chi_10)
     4.51922263E-04    2     1000023   1000023   # BR(A -> ~chi_20 ~chi_20)
     1.44677138E-02    2     1000025   1000025   # BR(A -> ~chi_30 ~chi_30)
     2.39659511E-02    2     1000022   1000023   # BR(A -> ~chi_10 ~chi_20)
     1.33890823E-03    2     1000022   1000025   # BR(A -> ~chi_10 ~chi_30)
     3.70354853E-02    2     1000022   1000035   # BR(A -> ~chi_10 ~chi_40)
     1.70816609E-02    2     1000023   1000025   # BR(A -> ~chi_20 ~chi_30)
     6.55219534E-02    2     1000023   1000035   # BR(A -> ~chi_20 ~chi_40)
     4.56192358E-02    2     1000025   1000035   # BR(A -> ~chi_30 ~chi_40)
     1.69335881E-02    2     1000006  -2000006   # BR(A -> ~t_1    ~t_2*  )
     1.69335881E-02    2    -1000006   2000006   # BR(A -> ~t_1*   ~t_2   )
#
#         PDG            Width
DECAY        37     5.64834880E+01   # H+ decays
#          BR         NDA      ID1       ID2
     6.06139064E-04    2           4        -5   # BR(H+ -> c       bb     )
     5.87151819E-02    2         -15        16   # BR(H+ -> tau+    nu_tau )
     2.07602498E-04    2         -13        14   # BR(H+ -> mu+     nu_mu  )
     3.87928677E-06    2           2        -5   # BR(H+ -> u       bb     )
     1.17610848E-05    2           2        -3   # BR(H+ -> u       sb     )
     2.41963334E-04    2           4        -3   # BR(H+ -> c       sb     )
     3.85365346E-01    2           6        -5   # BR(H+ -> t       bb     )
     1.59359846E-06    2          24        25   # BR(H+ -> W+      h      )
     2.21564377E-14    2          24        36   # BR(H+ -> W+      A      )
     4.26268562E-02    2     1000024   1000022   # BR(H+ -> ~chi_1+ ~chi_10)
     1.20619961E-04    2     1000024   1000023   # BR(H+ -> ~chi_1+ ~chi_20)
     3.65922006E-02    2     1000024   1000025   # BR(H+ -> ~chi_1+ ~chi_30)
     1.46968599E-01    2     1000024   1000035   # BR(H+ -> ~chi_1+ ~chi_40)
     6.66701230E-02    2     1000037   1000022   # BR(H+ -> ~chi_2+ ~chi_10)
     1.46519533E-01    2     1000037   1000023   # BR(H+ -> ~chi_2+ ~chi_20)
     8.16303723E-02    2     1000037   1000025   # BR(H+ -> ~chi_2+ ~chi_30)
     7.03057482E-04    2     1000006  -1000005   # BR(H+ -> ~t_1    ~b_1*  )
     3.30151722E-02    2     2000006  -1000005   # BR(H+ -> ~t_2    ~b_1*  )
