#  ISAJET SUSY parameters in SUSY Les Houches Accord 2 format
#  Created by ISALHA 2.0 Last revision: H Baer 27 May 2014
Block SPINFO   # Program information
     1   ISASUGRA/ISASUSY from ISAJET   # Spectrum Calculator
     2   7.87   18-JUL-2017 13:55:55    # Version number
Block MODSEL   # Model selection
     1    13   # Non-universal supergravity model                  
Block SMINPUTS   # Standard Model inputs
     1     1.28000000E+02   # alpha_em^(-1)
     2     1.16570000E-05   # G_Fermi
     3     1.19999997E-01   # alpha_s(M_Z)
     4     9.11699982E+01   # m_{Z}(pole)
     5     4.19999981E+00   # m_{b}(m_{b})
     6     1.72500000E+02   # m_{top}(pole)
     7     1.77699995E+00   # m_{tau}(pole)
Block MINPAR   # SUSY breaking input parameters
     1     5.00000000E+03   # m_0
     2     1.20000000E+03   # m_{1/2}
     3     1.50000000E+01   # tan(beta)
     4     1.00000000E+00   # sign(mu)
     5    -8.00000000E+03   # A_0
Block EXTPAR   # Non-universal SUSY breaking parameters
     0     1.59607266E+16   # Input scale
    21     2.67610950E+06   # Down type Higgs mass squared
    22     4.16014880E+07   #  Up  type Higgs mass squared
Block MASS   # Scalar and gaugino mass spectrum
#  PDG code   mass                 particle
         6     1.72500000E+02   #  top            
        24     8.04229965E+01   #  W^+
        25     1.24907715E+02   #  h^0            
        35     1.00666748E+03   #  H^0            
        36     1.00000000E+03   #  A^0            
        37     1.00322870E+03   #  H^+            
   1000001     5.44097754E+03   #  dnl            
   1000002     5.44038281E+03   #  upl            
   1000003     5.44097754E+03   #  stl            
   1000004     5.44038281E+03   #  chl            
   1000005     3.91662109E+03   #  b1             
   1000006     1.83079065E+03   #  t1             
   1000011     5.14829541E+03   #  el-            
   1000012     5.15278271E+03   #  nuel           
   1000013     5.14829541E+03   #  mul-           
   1000014     5.15278271E+03   #  numl           
   1000015     4.65420752E+03   #  tau1           
   1000016     5.07793994E+03   #  nutl           
   1000021     2.83236548E+03   #  glss           
   1000022     1.27822311E+02   #  z1ss           
   1000023    -1.37408417E+02   #  z2ss           
   1000024     1.37320221E+02   #  w1ss           
   1000025     5.38327393E+02   #  z3ss           
   1000035     1.03063220E+03   #  z4ss           
   1000037     1.01681360E+03   #  w2ss           
   1000039     1.00000002E+20   #  gvss
   2000001     5.38471680E+03   #  dnr            
   2000002     5.56438818E+03   #  upr            
   2000003     5.38471680E+03   #  str            
   2000004     5.56438818E+03   #  chr            
   2000005     5.20560254E+03   #  b2             
   2000006     3.89307324E+03   #  t2             
   2000011     4.81863477E+03   #  er-            
   2000013     4.81863477E+03   #  mur-           
   2000015     5.07190283E+03   #  tau2           
Block ALPHA   # Effective Higgs mixing parameter
         -6.81325421E-02   # alpha
Block STOPMIX   # stop mixing matrix
  1  1     5.71513474E-02   # O_{11}
  1  2     9.98365521E-01   # O_{12}
  2  1    -9.98365521E-01   # O_{21}
  2  2     5.71513474E-02   # O_{22}
Block SBOTMIX   # sbottom mixing matrix
  1  1     9.99994278E-01   # O_{11}
  1  2     3.39018973E-03   # O_{12}
  2  1    -3.39018973E-03   # O_{21}
  2  2     9.99994278E-01   # O_{22}
Block STAUMIX   # stau mixing matrix
  1  1     7.52604473E-03   # O_{11}
  1  2     9.99971688E-01   # O_{12}
  2  1    -9.99971688E-01   # O_{21}
  2  2     7.52604473E-03   # O_{22}
Block NMIX   # neutralino mixing matrix
  1  1     7.63141885E-02   #
  1  2    -6.62251636E-02   #
  1  3     7.17556596E-01   #
  1  4    -6.89132035E-01   #
  2  1    -4.18924913E-02   #
  2  2     4.30358611E-02   #
  2  3     6.95797861E-01   #
  2  4     7.15722144E-01   #
  3  1     9.96156156E-01   #
  3  2     1.65835284E-02   #
  3  3    -2.55341120E-02   #
  3  4     8.21329206E-02   #
  4  1     9.69460607E-03   #
  4  2    -9.96738315E-01   #
  4  3    -1.80585664E-02   #
  4  4     7.80562013E-02   #
Block UMIX   # chargino U mixing matrix
  1  1    -2.36900654E-02   # U_{11}
  1  2     9.99719322E-01   # U_{12}
  2  1    -9.99719322E-01   # U_{21}
  2  2    -2.36900654E-02   # U_{22}
Block VMIX   # chargino V mixing matrix
  1  1    -1.09421216E-01   # V_{11}
  1  2     9.93995488E-01   # V_{12}
  2  1    -9.93995488E-01   # V_{21}
  2  2    -1.09421216E-01   # V_{22}
Block GAUGE Q=  2.65185791E+03   #
     1     3.57524276E-01   # g`
     2     6.52380824E-01   # g_2
     3     1.21931994E+00   # g_3
Block YU Q=  2.65185791E+03   #
  3  3     8.20312977E-01   # y_t
Block YD Q=  2.65185791E+03   #
  3  3     1.90299168E-01   # y_b
Block YE Q=  2.65185791E+03   #
  3  3     1.50465265E-01   # y_tau
Block HMIX Q=  2.65185791E+03   # Higgs mixing parameters
     1     1.30000000E+02   # mu(Q)
     2     1.43442526E+01   # tan(beta)(Q)
     3     2.52297333E+02   # Higgs vev at Q
     4     1.00000000E+06   # m_A^2(Q)
Block MSOFT Q=  2.65185791E+03   # DRbar SUSY breaking parameters
     1     5.33377502E+02   # M_1(Q)          
     2     9.71560974E+02   # M_2(Q)          
     3     2.53227295E+03   # M_3(Q)          
    21     9.54657250E+05   # MHd^2(Q)        
    22    -5.05425156E+04   # MHu^2(Q)        
    31     5.13133008E+03   # MeL(Q)          
    32     5.13133008E+03   # MmuL(Q)         
    33     5.05851563E+03   # MtauL(Q)        
    34     4.81497803E+03   # MeR(Q)          
    35     4.81497803E+03   # MmuR(Q)         
    36     4.65211670E+03   # MtauR(Q)        
    41     5.32233105E+03   # MqL1(Q)         
    42     5.32233105E+03   # MqL2(Q)         
    43     3.83981934E+03   # MqL3(Q)         
    44     5.44605762E+03   # MuR(Q)          
    45     5.44605762E+03   # McR(Q)          
    46     1.83142737E+03   # MtR(Q)          
    47     5.26636768E+03   # MdR(Q)          
    48     5.26636768E+03   # MsR(Q)          
    49     5.14502539E+03   # MbR(Q)          
Block AU Q=  2.65185791E+03   #
  1  1    -4.96029883E+03   # A_u
  2  2    -4.96029883E+03   # A_c
  3  3    -4.96029883E+03   # A_t
Block AD Q=  2.65185791E+03   #
  1  1    -9.59482617E+03   # A_d
  2  2    -9.59482617E+03   # A_s
  3  3    -9.59482617E+03   # A_b
Block AE Q=  2.65185791E+03   #
  1  1    -8.32840918E+03   # A_e
  2  2    -8.32840918E+03   # A_mu
  3  3    -8.32840918E+03   # A_tau
#  ISAJET decay tables in SUSY Les Houches accord format
#  Created by ISALHD. Last revision: C. Balazs, 2005 May 25
Block DCINFO                           # Program information
     1   ISASUGRA from ISAJET          # Spectrum Calculator
     2   7.87   18-JUL-2017 13:55:55   # Version number
#         PDG         Width
DECAY         6  1.46776152E+00   # TP    decays
#          BR          NDA       ID1       ID2       ID3       ID4
      3.33333313E-01    3            2        -1         5             # TP     -->  UP     DB     BT          
      3.33333313E-01    3            4        -3         5             # TP     -->  CH     SB     BT          
      1.11111097E-01    3          -11        12         5             # TP     -->  E+     NUE    BT          
      1.11111097E-01    3          -13        14         5             # TP     -->  MU+    NUM    BT          
      1.11111097E-01    3          -15        16         5             # TP     -->  TAU+   NUT    BT          
#         PDG         Width
DECAY   1000021  1.93530045E+01   # GLSS  decays
#          BR          NDA       ID1       ID2       ID3       ID4
      4.05301392E-07    3      1000024         1        -2             # GLSS   -->  W1SS+  DN     UB          
      4.05301392E-07    3     -1000024         2        -1             # GLSS   -->  W1SS-  UP     DB          
      4.05301392E-07    3      1000024         3        -4             # GLSS   -->  W1SS+  ST     CB          
      4.05301392E-07    3     -1000024         4        -3             # GLSS   -->  W1SS-  CH     SB          
      2.50623241E-04    3      1000024         5        -6             # GLSS   -->  W1SS+  BT     TB          
      2.50623241E-04    3     -1000024         6        -5             # GLSS   -->  W1SS-  TP     BB          
      3.67292887E-05    3      1000037         1        -2             # GLSS   -->  W2SS+  DN     UB          
      3.67292887E-05    3     -1000037         2        -1             # GLSS   -->  W2SS-  UP     DB          
      3.67292887E-05    3      1000037         3        -4             # GLSS   -->  W2SS+  ST     CB          
      3.67292887E-05    3     -1000037         4        -3             # GLSS   -->  W2SS-  CH     SB          
      1.95874061E-04    3      1000037         5        -6             # GLSS   -->  W2SS+  BT     TB          
      1.95874061E-04    3     -1000037         6        -5             # GLSS   -->  W2SS-  TP     BB          
      2.23645907E-06    2      1000022        21                       # GLSS   -->  Z1SS   GL                 
      1.87684179E-07    3      1000022         2        -2             # GLSS   -->  Z1SS   UP     UB          
      2.44937581E-07    3      1000022         1        -1             # GLSS   -->  Z1SS   DN     DB          
      2.44937581E-07    3      1000022         3        -3             # GLSS   -->  Z1SS   ST     SB          
      1.87684179E-07    3      1000022         4        -4             # GLSS   -->  Z1SS   CH     CB          
      2.59833287E-05    3      1000022         5        -5             # GLSS   -->  Z1SS   BT     BB          
      2.22366652E-04    3      1000022         6        -6             # GLSS   -->  Z1SS   TP     TB          
      2.39744372E-06    2      1000023        21                       # GLSS   -->  Z2SS   GL                 
      6.00974488E-08    3      1000023         2        -2             # GLSS   -->  Z2SS   UP     UB          
      8.05822822E-08    3      1000023         1        -1             # GLSS   -->  Z2SS   DN     DB          
      8.05822822E-08    3      1000023         3        -3             # GLSS   -->  Z2SS   ST     SB          
      6.00974488E-08    3      1000023         4        -4             # GLSS   -->  Z2SS   CH     CB          
      2.37776349E-05    3      1000023         5        -5             # GLSS   -->  Z2SS   BT     BB          
      2.39210101E-04    3      1000023         6        -6             # GLSS   -->  Z2SS   TP     TB          
      4.76777551E-08    2      1000025        21                       # GLSS   -->  Z3SS   GL                 
      1.63137356E-05    3      1000025         2        -2             # GLSS   -->  Z3SS   UP     UB          
      5.23572180E-06    3      1000025         1        -1             # GLSS   -->  Z3SS   DN     DB          
      5.23572180E-06    3      1000025         3        -3             # GLSS   -->  Z3SS   ST     SB          
      1.63137356E-05    3      1000025         4        -4             # GLSS   -->  Z3SS   CH     CB          
      9.42837687E-06    3      1000025         5        -5             # GLSS   -->  Z3SS   BT     BB          
      7.99859663E-06    3      1000025         6        -6             # GLSS   -->  Z3SS   TP     TB          
      3.07805017E-08    2      1000035        21                       # GLSS   -->  Z4SS   GL                 
      1.79030449E-05    3      1000035         2        -2             # GLSS   -->  Z4SS   UP     UB          
      1.80213483E-05    3      1000035         1        -1             # GLSS   -->  Z4SS   DN     DB          
      1.80213483E-05    3      1000035         3        -3             # GLSS   -->  Z4SS   ST     SB          
      1.79030449E-05    3      1000035         4        -4             # GLSS   -->  Z4SS   CH     CB          
      9.45344436E-05    3      1000035         5        -5             # GLSS   -->  Z4SS   BT     BB          
      9.73591959E-05    3      1000035         6        -6             # GLSS   -->  Z4SS   TP     TB          
      4.99058485E-01    2     -1000006         6                       # GLSS   -->  TB1    TP                 
      4.99058485E-01    2      1000006        -6                       # GLSS   -->  TP1    TB                 
#         PDG         Width
DECAY   1000002  2.15977570E+02   # UPL   decays
#          BR          NDA       ID1       ID2       ID3       ID4
      2.89083982E-04    2      1000022         2                       # UPL    -->  Z1SS   UP                 
      1.32411093E-04    2      1000023         2                       # UPL    -->  Z2SS   UP                 
      4.12068469E-03    2      1000025         2                       # UPL    -->  Z3SS   UP                 
      9.75665897E-02    2      1000035         2                       # UPL    -->  Z4SS   UP                 
      7.00214922E-01    2      1000021         2                       # UPL    -->  GLSS   UP                 
      2.53578485E-03    2      1000024         1                       # UPL    -->  W1SS+  DN                 
      1.95140541E-01    2      1000037         1                       # UPL    -->  W2SS+  DN                 
#         PDG         Width
DECAY   1000001  2.15983963E+02   # DNL   decays
#          BR          NDA       ID1       ID2       ID3       ID4
      6.81407168E-04    2      1000022         1                       # DNL    -->  Z1SS   DN                 
      2.72342470E-04    2      1000023         1                       # DNL    -->  Z2SS   DN                 
      2.86230934E-03    2      1000025         1                       # DNL    -->  Z3SS   DN                 
      9.82739404E-02    2      1000035         1                       # DNL    -->  Z4SS   DN                 
      7.00377762E-01    2      1000021         1                       # DNL    -->  GLSS   DN                 
      1.18871190E-04    2     -1000024         2                       # DNL    -->  W1SS-  UP                 
      1.97413281E-01    2     -1000037         2                       # DNL    -->  W2SS-  UP                 
#         PDG         Width
DECAY   1000003  2.15983948E+02   # STL   decays
#          BR          NDA       ID1       ID2       ID3       ID4
      6.81407226E-04    2      1000022         3                       # STL    -->  Z1SS   ST                 
      2.72342499E-04    2      1000023         3                       # STL    -->  Z2SS   ST                 
      2.86230957E-03    2      1000025         3                       # STL    -->  Z3SS   ST                 
      9.82739478E-02    2      1000035         3                       # STL    -->  Z4SS   ST                 
      7.00377822E-01    2      1000021         3                       # STL    -->  GLSS   ST                 
      1.18871190E-04    2     -1000024         4                       # STL    -->  W1SS-  CH                 
      1.97413266E-01    2     -1000037         4                       # STL    -->  W2SS-  CH                 
#         PDG         Width
DECAY   1000004  2.15977524E+02   # CHL   decays
#          BR          NDA       ID1       ID2       ID3       ID4
      2.89083982E-04    2      1000022         4                       # CHL    -->  Z1SS   CH                 
      1.32411107E-04    2      1000023         4                       # CHL    -->  Z2SS   CH                 
      4.12068469E-03    2      1000025         4                       # CHL    -->  Z3SS   CH                 
      9.75666046E-02    2      1000035         4                       # CHL    -->  Z4SS   CH                 
      7.00214863E-01    2      1000021         4                       # CHL    -->  GLSS   CH                 
      2.53578532E-03    2      1000024         3                       # CHL    -->  W1SS+  ST                 
      1.95140585E-01    2      1000037         3                       # CHL    -->  W2SS+  ST                 
#         PDG         Width
DECAY   1000005  2.05374588E+02   # BT1   decays
#          BR          NDA       ID1       ID2       ID3       ID4
      7.94052705E-03    2      1000022         5                       # BT1    -->  Z1SS   BT                 
      7.15807080E-03    2      1000023         5                       # BT1    -->  Z2SS   BT                 
      2.13339413E-03    2      1000025         5                       # BT1    -->  Z3SS   BT                 
      6.93358853E-02    2      1000035         5                       # BT1    -->  Z4SS   BT                 
      2.33739093E-01    2      1000021         5                       # BT1    -->  GLSS   BT                 
      2.40593120E-01    2     -1000024         6                       # BT1    -->  W1SS-  TP                 
      1.42390534E-01    2     -1000037         6                       # BT1    -->  W2SS-  TP                 
      2.96056956E-01    2          -24   1000006                       # BT1    -->  W-     TP1                
      6.52380288E-04    2          -37   1000006                       # BT1    -->  H-     TP1                
#         PDG         Width
DECAY   1000006  4.94855957E+01   # TP1   decays
#          BR          NDA       ID1       ID2       ID3       ID4
      2.21645519E-01    2      1000022         6                       # TP1    -->  Z1SS   TP                 
      2.38550767E-01    2      1000023         6                       # TP1    -->  Z2SS   TP                 
      7.08380714E-02    2      1000025         6                       # TP1    -->  Z3SS   TP                 
      4.38173069E-04    2      1000035         6                       # TP1    -->  Z4SS   TP                 
      4.67618078E-01    2      1000024         5                       # TP1    -->  W1SS+  BT                 
      9.09394585E-04    2      1000037         5                       # TP1    -->  W2SS+  BT                 
#         PDG         Width
DECAY   2000002  1.71820709E+02   # UPR   decays
#          BR          NDA       ID1       ID2       ID3       ID4
      4.25902661E-04    2      1000022         2                       # UPR    -->  Z1SS   UP                 
      1.28321903E-04    2      1000023         2                       # UPR    -->  Z2SS   UP                 
      7.12927133E-02    2      1000025         2                       # UPR    -->  Z3SS   UP                 
      6.41648830E-06    2      1000035         2                       # UPR    -->  Z4SS   UP                 
      9.28146720E-01    2      1000021         2                       # UPR    -->  GLSS   UP                 
#         PDG         Width
DECAY   2000001  1.50494553E+02   # DNR   decays
#          BR          NDA       ID1       ID2       ID3       ID4
      1.17630334E-04    2      1000022         1                       # DNR    -->  Z1SS   DN                 
      3.54409240E-05    2      1000023         1                       # DNR    -->  Z2SS   DN                 
      1.96665563E-02    2      1000025         1                       # DNR    -->  Z3SS   DN                 
      1.76376830E-06    2      1000035         1                       # DNR    -->  Z4SS   DN                 
      9.80178595E-01    2      1000021         1                       # DNR    -->  GLSS   DN                 
#         PDG         Width
DECAY   2000003  1.50494553E+02   # STR   decays
#          BR          NDA       ID1       ID2       ID3       ID4
      1.17630334E-04    2      1000022         3                       # STR    -->  Z1SS   ST                 
      3.54409240E-05    2      1000023         3                       # STR    -->  Z2SS   ST                 
      1.96665563E-02    2      1000025         3                       # STR    -->  Z3SS   ST                 
      1.76376830E-06    2      1000035         3                       # STR    -->  Z4SS   ST                 
      9.80178595E-01    2      1000021         3                       # STR    -->  GLSS   ST                 
#         PDG         Width
DECAY   2000004  1.71820663E+02   # CHR   decays
#          BR          NDA       ID1       ID2       ID3       ID4
      4.25902661E-04    2      1000022         4                       # CHR    -->  Z1SS   CH                 
      1.28321917E-04    2      1000023         4                       # CHR    -->  Z2SS   CH                 
      7.12927282E-02    2      1000025         4                       # CHR    -->  Z3SS   CH                 
      6.41648921E-06    2      1000035         4                       # CHR    -->  Z4SS   CH                 
      9.28146660E-01    2      1000021         4                       # CHR    -->  GLSS   CH                 
#         PDG         Width
DECAY   2000005  1.82236237E+02   # BT2   decays
#          BR          NDA       ID1       ID2       ID3       ID4
      1.11730015E-02    2      1000022         5                       # BT2    -->  Z1SS   BT                 
      1.04847755E-02    2      1000023         5                       # BT2    -->  Z2SS   BT                 
      1.56970341E-02    2      1000025         5                       # BT2    -->  Z3SS   BT                 
      1.49490988E-05    2      1000035         5                       # BT2    -->  Z4SS   BT                 
      7.43373275E-01    2      1000021         5                       # BT2    -->  GLSS   BT                 
      2.14996692E-02    2     -1000024         6                       # BT2    -->  W1SS-  TP                 
      2.44915991E-05    2     -1000037         6                       # BT2    -->  W2SS-  TP                 
      1.27130188E-05    2          -24   1000006                       # BT2    -->  W-     TP1                
      4.91124229E-04    2          -24   2000006                       # BT2    -->  W-     TP2                
      2.37805638E-04    2           23   1000005                       # BT2    -->  Z0     BT1                
      5.13303909E-04    2           25   1000005                       # BT2    -->  HL0    BT1                
      4.82522137E-02    2           36   1000005                       # BT2    -->  HA0    BT1                
      4.77431081E-02    2           35   1000005                       # BT2    -->  HH0    BT1                
      4.45382990E-04    2          -37   1000006                       # BT2    -->  H-     TP1                
      1.00037165E-01    2          -37   2000006                       # BT2    -->  H-     TP2                
#         PDG         Width
DECAY   2000006  2.17779221E+02   # TP2   decays
#          BR          NDA       ID1       ID2       ID3       ID4
      2.06343979E-01    2      1000021         6                       # TP2    -->  GLSS   TP                 
      1.36583364E-02    2      1000024         5                       # TP2    -->  W1SS+  BT                 
      1.30693808E-01    2      1000037         5                       # TP2    -->  W2SS+  BT                 
      1.36939123E-01    2           23   1000006                       # TP2    -->  Z0     TP1                
      2.16376528E-01    2           25   1000006                       # TP2    -->  HL0    TP1                
      3.28223512E-04    2           35   1000006                       # TP2    -->  HH0    TP1                
      3.08491581E-04    2           36   1000006                       # TP2    -->  HA0    TP1                
      1.07500508E-01    2      1000022         6                       # TP2    -->  Z1SS   TP                 
      1.16253629E-01    2      1000023         6                       # TP2    -->  Z2SS   TP                 
      5.02154650E-03    2      1000025         6                       # TP2    -->  Z3SS   TP                 
      6.65757954E-02    2      1000035         6                       # TP2    -->  Z4SS   TP                 
#         PDG         Width
DECAY   1000011  6.64222946E+01   # EL-   decays
#          BR          NDA       ID1       ID2       ID3       ID4
      1.92118503E-04    2      1000022        11                       # EL-    -->  Z1SS   E-                 
      1.30459128E-04    2      1000023        11                       # EL-    -->  Z2SS   E-                 
      1.01557545E-01    2      1000025        11                       # EL-    -->  Z3SS   E-                 
      2.95489699E-01    2      1000035        11                       # EL-    -->  Z4SS   E-                 
      3.65684042E-04    2     -1000024        12                       # EL-    -->  W1SS-  NUE                
      6.02264464E-01    2     -1000037        12                       # EL-    -->  W2SS-  NUE                
#         PDG         Width
DECAY   1000013  6.64222946E+01   # MUL-  decays
#          BR          NDA       ID1       ID2       ID3       ID4
      1.92118503E-04    2      1000022        13                       # MUL-   -->  Z1SS   MU-                
      1.30459128E-04    2      1000023        13                       # MUL-   -->  Z2SS   MU-                
      1.01557545E-01    2      1000025        13                       # MUL-   -->  Z3SS   MU-                
      2.95489699E-01    2      1000035        13                       # MUL-   -->  Z4SS   MU-                
      3.65684042E-04    2     -1000024        14                       # MUL-   -->  W1SS-  NUM                
      6.02264464E-01    2     -1000037        14                       # MUL-   -->  W2SS-  NUM                
#         PDG         Width
DECAY   1000015  2.74420547E+01   # TAU1- decays
#          BR          NDA       ID1       ID2       ID3       ID4
      4.65058535E-02    2      1000022        15                       # TAU1-  -->  Z1SS   TAU-               
      4.00864966E-02    2      1000023        15                       # TAU1-  -->  Z2SS   TAU-               
      8.33237052E-01    2      1000025        15                       # TAU1-  -->  Z3SS   TAU-               
      7.39702227E-05    2      1000035        15                       # TAU1-  -->  Z4SS   TAU-               
      8.00919756E-02    2     -1000024        16                       # TAU1-  -->  W1SS-  NUT                
      4.72782676E-06    2     -1000037        16                       # TAU1-  -->  W2SS-  NUT                
#         PDG         Width
DECAY   1000012  6.65066147E+01   # NUEL  decays
#          BR          NDA       ID1       ID2       ID3       ID4
      3.81118921E-03    2      1000022        12                       # NUEL   -->  Z1SS   NUE                
      1.42121443E-03    2      1000023        12                       # NUEL   -->  Z2SS   NUE                
      8.99337605E-02    2      1000025        12                       # NUEL   -->  Z3SS   NUE                
      3.01800162E-01    2      1000035        12                       # NUEL   -->  Z4SS   NUE                
      7.79839279E-03    2      1000024        11                       # NUEL   -->  W1SS+  E-                 
      5.95235229E-01    2      1000037        11                       # NUEL   -->  W2SS+  E-                 
#         PDG         Width
DECAY   1000014  6.65066147E+01   # NUML  decays
#          BR          NDA       ID1       ID2       ID3       ID4
      3.81118921E-03    2      1000022        14                       # NUML   -->  Z1SS   NUM                
      1.42121443E-03    2      1000023        14                       # NUML   -->  Z2SS   NUM                
      8.99337605E-02    2      1000025        14                       # NUML   -->  Z3SS   NUM                
      3.01800162E-01    2      1000035        14                       # NUML   -->  Z4SS   NUM                
      7.79839279E-03    2      1000024        13                       # NUML   -->  W1SS+  MU-                
      5.95235229E-01    2      1000037        13                       # NUML   -->  W2SS+  MU-                
#         PDG         Width
DECAY   1000016  6.78091049E+01   # NUTL  decays
#          BR          NDA       ID1       ID2       ID3       ID4
      3.68355494E-03    2      1000022        16                       # NUTL   -->  Z1SS   NUT                
      1.37361116E-03    2      1000023        16                       # NUTL   -->  Z2SS   NUT                
      8.68681595E-02    2      1000025        16                       # NUTL   -->  Z3SS   NUT                
      2.90982276E-01    2      1000035        16                       # NUTL   -->  Z4SS   NUT                
      4.28590737E-02    2      1000024        15                       # NUTL   -->  W1SS+  TAU-               
      5.73957801E-01    2      1000037        15                       # NUTL   -->  W2SS+  TAU-               
      2.75544182E-04    2           24   1000015                       # NUTL   -->  W+     TAU1-              
#         PDG         Width
DECAY   2000011  2.39050636E+01   # ER-   decays
#          BR          NDA       ID1       ID2       ID3       ID4
      5.96255064E-03    2      1000022        11                       # ER-    -->  Z1SS   E-                 
      1.79638190E-03    2      1000023        11                       # ER-    -->  Z2SS   E-                 
      9.92153287E-01    2      1000025        11                       # ER-    -->  Z3SS   E-                 
      8.77446437E-05    2      1000035        11                       # ER-    -->  Z4SS   E-                 
#         PDG         Width
DECAY   2000013  2.39050636E+01   # MUR-  decays
#          BR          NDA       ID1       ID2       ID3       ID4
      5.96255064E-03    2      1000022        13                       # MUR-   -->  Z1SS   MU-                
      1.79638190E-03    2      1000023        13                       # MUR-   -->  Z2SS   MU-                
      9.92153287E-01    2      1000025        13                       # MUR-   -->  Z3SS   MU-                
      8.77446437E-05    2      1000035        13                       # MUR-   -->  Z4SS   MU-                
#         PDG         Width
DECAY   2000015  6.76896896E+01   # TAU2- decays
#          BR          NDA       ID1       ID2       ID3       ID4
      1.82737187E-02    2      1000022        15                       # TAU2-  -->  Z1SS   TAU-               
      1.73192564E-02    2      1000023        15                       # TAU2-  -->  Z2SS   TAU-               
      9.81700048E-02    2      1000025        15                       # TAU2-  -->  Z3SS   TAU-               
      2.84952432E-01    2      1000035        15                       # TAU2-  -->  Z4SS   TAU-               
      3.02277243E-04    2     -1000024        16                       # TAU2-  -->  W1SS-  NUT                
      5.80801070E-01    2     -1000037        16                       # TAU2-  -->  W2SS-  NUT                
      1.31743844E-04    2           23   1000015                       # TAU2-  -->  Z0     TAU1-              
      4.94385531E-05    2           25   1000015                       # TAU2-  -->  HL0    TAU1-              
#         PDG         Width
DECAY   1000023  6.67823201E-08   # Z2SS  decays
#          BR          NDA       ID1       ID2       ID3       ID4
      2.68887337E-02    2      1000022        22                       # Z2SS   -->  Z1SS   GM                 
      1.36969358E-01    3      1000022         2        -2             # Z2SS   -->  Z1SS   UP     UB          
      1.76622286E-01    3      1000022         1        -1             # Z2SS   -->  Z1SS   DN     DB          
      1.76622286E-01    3      1000022         3        -3             # Z2SS   -->  Z1SS   ST     SB          
      1.36969358E-01    3      1000022         4        -4             # Z2SS   -->  Z1SS   CH     CB          
      4.00666632E-02    3      1000022        11       -11             # Z2SS   -->  Z1SS   E-     E+          
      4.00666632E-02    3      1000022        13       -13             # Z2SS   -->  Z1SS   MU-    MU+         
      2.66331937E-02    3      1000022        15       -15             # Z2SS   -->  Z1SS   TAU-   TAU+        
      7.97205195E-02    3      1000022        12       -12             # Z2SS   -->  Z1SS   NUE    ANUE        
      7.97205195E-02    3      1000022        14       -14             # Z2SS   -->  Z1SS   NUM    ANUM        
      7.97205344E-02    3      1000022        16       -16             # Z2SS   -->  Z1SS   NUT    ANUT        
#         PDG         Width
DECAY   1000025  1.20483708E+00   # Z3SS  decays
#          BR          NDA       ID1       ID2       ID3       ID4
      9.37476372E-08    2      1000022        22                       # Z3SS   -->  Z1SS   GM                 
      7.73835183E-08    2      1000023        22                       # Z3SS   -->  Z2SS   GM                 
      2.61306524E-01    2      1000024       -24                       # Z3SS   -->  W1SS+  W-                 
      2.61306524E-01    2     -1000024        24                       # Z3SS   -->  W1SS-  W+                 
      5.47245480E-02    2      1000022        23                       # Z3SS   -->  Z1SS   Z0                 
      1.93821609E-01    2      1000023        23                       # Z3SS   -->  Z2SS   Z0                 
      8.68353375E-11    3      1000022         2        -2             # Z3SS   -->  Z1SS   UP     UB          
      1.52076927E-11    3      1000022         1        -1             # Z3SS   -->  Z1SS   DN     DB          
      1.52076927E-11    3      1000022         3        -3             # Z3SS   -->  Z1SS   ST     SB          
      8.68353375E-11    3      1000022         4        -4             # Z3SS   -->  Z1SS   CH     CB          
      1.00359375E-06    3      1000022         5        -5             # Z3SS   -->  Z1SS   BT     BB          
      2.48095766E-10    3      1000022        11       -11             # Z3SS   -->  Z1SS   E-     E+          
      2.48095766E-10    3      1000022        13       -13             # Z3SS   -->  Z1SS   MU-    MU+         
      2.14060492E-07    3      1000022        15       -15             # Z3SS   -->  Z1SS   TAU-   TAU+        
      7.28201457E-11    3      1000022        12       -12             # Z3SS   -->  Z1SS   NUE    ANUE        
      7.28201457E-11    3      1000022        14       -14             # Z3SS   -->  Z1SS   NUM    ANUM        
      7.72308884E-11    3      1000022        16       -16             # Z3SS   -->  Z1SS   NUT    ANUT        
      1.27248169E-11    3      1000023         2        -2             # Z3SS   -->  Z2SS   UP     UB          
      2.59037041E-12    3      1000023         1        -1             # Z3SS   -->  Z2SS   DN     DB          
      2.59037041E-12    3      1000023         3        -3             # Z3SS   -->  Z2SS   ST     SB          
      1.27248169E-11    3      1000023         4        -4             # Z3SS   -->  Z2SS   CH     CB          
      9.11023790E-07    3      1000023         5        -5             # Z3SS   -->  Z2SS   BT     BB          
      3.58968584E-11    3      1000023        11       -11             # Z3SS   -->  Z2SS   E-     E+          
      3.58968584E-11    3      1000023        13       -13             # Z3SS   -->  Z2SS   MU-    MU+         
      1.93999398E-07    3      1000023        15       -15             # Z3SS   -->  Z2SS   TAU-   TAU+        
      1.27698459E-11    3      1000023        12       -12             # Z3SS   -->  Z2SS   NUE    ANUE        
      1.27698459E-11    3      1000023        14       -14             # Z3SS   -->  Z2SS   NUM    ANUM        
      1.35439533E-11    3      1000023        16       -16             # Z3SS   -->  Z2SS   NUT    ANUT        
      1.78922176E-01    2      1000022        25                       # Z3SS   -->  Z1SS   HL0                
      4.99160364E-02    2      1000023        25                       # Z3SS   -->  Z2SS   HL0                
#         PDG         Width
DECAY   1000035  8.42374134E+00   # Z4SS  decays
#          BR          NDA       ID1       ID2       ID3       ID4
      1.52238306E-06    2      1000022        22                       # Z4SS   -->  Z1SS   GM                 
      2.47345542E-06    2      1000023        22                       # Z4SS   -->  Z2SS   GM                 
      3.85327903E-09    2      1000025        22                       # Z4SS   -->  Z3SS   GM                 
      2.44404465E-01    2      1000024       -24                       # Z4SS   -->  W1SS+  W-                 
      2.44404465E-01    2     -1000024        24                       # Z4SS   -->  W1SS-  W+                 
      1.02312974E-07    3     -1000037         2        -1             # Z4SS   -->  W2SS-  UP     DB          
      3.41043247E-08    3     -1000037        12       -11             # Z4SS   -->  W2SS-  NUE    E+          
      3.41043247E-08    3     -1000037        14       -13             # Z4SS   -->  W2SS-  NUM    MU+         
      1.02312974E-07    3      1000037         1        -2             # Z4SS   -->  W2SS+  DN     UB          
      3.41043247E-08    3      1000037        11       -12             # Z4SS   -->  W2SS+  E-     ANUE        
      3.41043247E-08    3      1000037        13       -14             # Z4SS   -->  W2SS+  MU-    ANUM        
      1.02312974E-07    3     -1000037         4        -3             # Z4SS   -->  W2SS-  CH     SB          
      3.41043247E-08    3     -1000037        16       -15             # Z4SS   -->  W2SS-  NUT    TAU+        
      1.02312974E-07    3      1000037         3        -4             # Z4SS   -->  W2SS+  ST     CB          
      3.41043247E-08    3      1000037        15       -16             # Z4SS   -->  W2SS+  TAU-   ANUT        
      6.85874149E-02    2      1000022        23                       # Z4SS   -->  Z1SS   Z0                 
      1.88877463E-01    2      1000023        23                       # Z4SS   -->  Z2SS   Z0                 
      6.09374314E-04    2      1000025        23                       # Z4SS   -->  Z3SS   Z0                 
      6.63403998E-10    3      1000022         2        -2             # Z4SS   -->  Z1SS   UP     UB          
      1.57400593E-09    3      1000022         1        -1             # Z4SS   -->  Z1SS   DN     DB          
      1.57400593E-09    3      1000022         3        -3             # Z4SS   -->  Z1SS   ST     SB          
      6.63403998E-10    3      1000022         4        -4             # Z4SS   -->  Z1SS   CH     CB          
      5.67906827E-05    3      1000022         5        -5             # Z4SS   -->  Z1SS   BT     BB          
      5.94463923E-11    3      1000022        11       -11             # Z4SS   -->  Z1SS   E-     E+          
      5.94463923E-11    3      1000022        13       -13             # Z4SS   -->  Z1SS   MU-    MU+         
      1.16685642E-05    3      1000022        15       -15             # Z4SS   -->  Z1SS   TAU-   TAU+        
      1.19881882E-09    3      1000022        12       -12             # Z4SS   -->  Z1SS   NUE    ANUE        
      1.19881882E-09    3      1000022        14       -14             # Z4SS   -->  Z1SS   NUM    ANUM        
      1.27230404E-09    3      1000022        16       -16             # Z4SS   -->  Z1SS   NUT    ANUT        
      1.93607894E-10    3      1000023         2        -2             # Z4SS   -->  Z2SS   UP     UB          
      4.00836309E-10    3      1000023         1        -1             # Z4SS   -->  Z2SS   DN     DB          
      4.00836309E-10    3      1000023         3        -3             # Z4SS   -->  Z2SS   ST     SB          
      1.93607894E-10    3      1000023         4        -4             # Z4SS   -->  Z2SS   CH     CB          
      5.21537586E-05    3      1000023         5        -5             # Z4SS   -->  Z2SS   BT     BB          
      2.57078300E-11    3      1000023        11       -11             # Z4SS   -->  Z2SS   E-     E+          
      2.57078300E-11    3      1000023        13       -13             # Z4SS   -->  Z2SS   MU-    MU+         
      1.07153264E-05    3      1000023        15       -15             # Z4SS   -->  Z2SS   TAU-   TAU+        
      2.84983065E-10    3      1000023        12       -12             # Z4SS   -->  Z2SS   NUE    ANUE        
      2.84983065E-10    3      1000023        14       -14             # Z4SS   -->  Z2SS   NUM    ANUM        
      3.02493253E-10    3      1000023        16       -16             # Z4SS   -->  Z2SS   NUT    ANUT        
      1.78506987E-09    3      1000025         2        -2             # Z4SS   -->  Z3SS   UP     UB          
      1.24745159E-09    3      1000025         1        -1             # Z4SS   -->  Z3SS   DN     DB          
      1.24745159E-09    3      1000025         3        -3             # Z4SS   -->  Z3SS   ST     SB          
      1.78506987E-09    3      1000025         4        -4             # Z4SS   -->  Z3SS   CH     CB          
      9.83047865E-09    3      1000025         5        -5             # Z4SS   -->  Z3SS   BT     BB          
      5.94433125E-09    3      1000025        11       -11             # Z4SS   -->  Z3SS   E-     E+          
      5.94433125E-09    3      1000025        13       -13             # Z4SS   -->  Z3SS   MU-    MU+         
      7.33809991E-09    3      1000025        15       -15             # Z4SS   -->  Z3SS   TAU-   TAU+        
      5.35744427E-09    3      1000025        12       -12             # Z4SS   -->  Z3SS   NUE    ANUE        
      5.35744427E-09    3      1000025        14       -14             # Z4SS   -->  Z3SS   NUM    ANUM        
      5.68859670E-09    3      1000025        16       -16             # Z4SS   -->  Z3SS   NUT    ANUT        
      1.65827259E-01    2      1000022        25                       # Z4SS   -->  Z1SS   HL0                
      8.05683807E-02    2      1000023        25                       # Z4SS   -->  Z2SS   HL0                
      6.58515980E-03    2      1000025        25                       # Z4SS   -->  Z3SS   HL0                
#         PDG         Width
DECAY   1000024  9.09416045E-08   # W1SS+ decays
#          BR          NDA       ID1       ID2       ID3       ID4
      3.33332509E-01    3      1000022         2        -1             # W1SS+  -->  Z1SS   UP     DB          
      3.33332509E-01    3      1000022         4        -3             # W1SS+  -->  Z1SS   CH     SB          
      1.11110978E-01    3      1000022       -11        12             # W1SS+  -->  Z1SS   E+     NUE         
      1.11110978E-01    3      1000022       -13        14             # W1SS+  -->  Z1SS   MU+    NUM         
      1.11112960E-01    3      1000022       -15        16             # W1SS+  -->  Z1SS   TAU+   NUT         
#         PDG         Width
DECAY   1000037  8.28029060E+00   # W2SS+ decays
#          BR          NDA       ID1       ID2       ID3       ID4
      1.42453316E-09    3      1000022         2        -1             # W2SS+  -->  Z1SS   UP     DB          
      1.42453316E-09    3      1000022         4        -3             # W2SS+  -->  Z1SS   CH     SB          
      8.86581863E-10    3      1000022       -11        12             # W2SS+  -->  Z1SS   E+     NUE         
      8.86581863E-10    3      1000022       -13        14             # W2SS+  -->  Z1SS   MU+    NUM         
      1.04335650E-05    3      1000022       -15        16             # W2SS+  -->  Z1SS   TAU+   NUT         
      2.43067220E-01    2      1000022        24                       # W2SS+  -->  Z1SS   W+                 
      8.68900618E-10    3      1000023         2        -1             # W2SS+  -->  Z2SS   UP     DB          
      8.68900618E-10    3      1000023         4        -3             # W2SS+  -->  Z2SS   CH     SB          
      4.16512436E-10    3      1000023       -11        12             # W2SS+  -->  Z2SS   E+     NUE         
      4.16512436E-10    3      1000023       -13        14             # W2SS+  -->  Z2SS   MU+    NUM         
      9.18071146E-06    3      1000023       -15        16             # W2SS+  -->  Z2SS   TAU+   NUT         
      2.45574489E-01    2      1000023        24                       # W2SS+  -->  Z2SS   W+                 
      2.70413159E-09    3      1000025         2        -1             # W2SS+  -->  Z3SS   UP     DB          
      2.70413159E-09    3      1000025         4        -3             # W2SS+  -->  Z3SS   CH     SB          
      1.01336166E-08    3      1000025       -11        12             # W2SS+  -->  Z3SS   E+     NUE         
      1.01336166E-08    3      1000025       -13        14             # W2SS+  -->  Z3SS   MU+    NUM         
      1.16660841E-08    3      1000025       -15        16             # W2SS+  -->  Z3SS   TAU+   NUT         
      1.08098490E-02    2      1000025        24                       # W2SS+  -->  Z3SS   W+                 
      2.44665191E-01    2      1000024        23                       # W2SS+  -->  W1SS+  Z0                 
      4.48042048E-09    3      1000024         1        -1             # W2SS+  -->  W1SS+  DN     DB          
      4.48042048E-09    3      1000024         3        -3             # W2SS+  -->  W1SS+  ST     SB          
      2.12345377E-10    3      1000024         2        -2             # W2SS+  -->  W1SS+  UP     UB          
      2.12345377E-10    3      1000024         4        -4             # W2SS+  -->  W1SS+  CH     CB          
      8.86138871E-11    3      1000024        12       -12             # W2SS+  -->  W1SS+  NUE    ANUE        
      8.86138871E-11    3      1000024        14       -14             # W2SS+  -->  W1SS+  NUM    ANUM        
      1.33674100E-10    3      1000024        16       -16             # W2SS+  -->  W1SS+  NUT    ANUT        
      1.86228433E-09    3      1000024        11       -11             # W2SS+  -->  W1SS+  E-     E+          
      1.86228433E-09    3      1000024        13       -13             # W2SS+  -->  W1SS+  MU-    MU+         
      1.97649630E-09    3      1000024        15       -15             # W2SS+  -->  W1SS+  TAU-   TAU+        
      2.55863696E-01    2      1000024        25                       # W2SS+  -->  W1SS+  HL0                
#         PDG         Width
DECAY        25  3.90453497E-03   # HL0   decays
#          BR          NDA       ID1       ID2       ID3       ID4
      5.69453462E-09    2           11       -11                       # HL0    -->  E-     E+                 
      2.40432491E-04    2           13       -13                       # HL0    -->  MU-    MU+                
      6.87802359E-02    2           15       -15                       # HL0    -->  TAU-   TAU+               
      7.13844793E-06    2            1        -1                       # HL0    -->  DN     DB                 
      2.88429135E-03    2            3        -3                       # HL0    -->  ST     SB                 
      6.17977738E-01    2            5        -5                       # HL0    -->  BT     BB                 
      2.18008222E-06    2            2        -2                       # HL0    -->  UP     UB                 
      4.05252092E-02    2            4        -4                       # HL0    -->  CH     CB                 
      2.67260009E-03    2           22        22                       # HL0    -->  GM     GM                 
      5.26922271E-02    2           21        21                       # HL0    -->  GL     GL                 
      1.07124224E-02    3           24        11       -12             # HL0    -->  W+     E-     ANUE        
      1.07124224E-02    3           24        13       -14             # HL0    -->  W+     MU-    ANUM        
      1.07124224E-02    3           24        15       -16             # HL0    -->  W+     TAU-   ANUT        
      3.21372710E-02    3           24        -2         1             # HL0    -->  W+     UB     DN          
      3.21372710E-02    3           24        -4         3             # HL0    -->  W+     CB     ST          
      1.07124224E-02    3          -24       -11        12             # HL0    -->  W-     E+     NUE         
      1.07124224E-02    3          -24       -13        14             # HL0    -->  W-     MU+    NUM         
      1.07124224E-02    3          -24       -15        16             # HL0    -->  W-     TAU+   NUT         
      3.21372710E-02    3          -24         2        -1             # HL0    -->  W-     UP     DB          
      3.21372710E-02    3          -24         4        -3             # HL0    -->  W-     CH     SB          
      1.46314816E-03    3           23        12       -12             # HL0    -->  Z0     NUE    ANUE        
      1.46314816E-03    3           23        14       -14             # HL0    -->  Z0     NUM    ANUM        
      1.46314816E-03    3           23        16       -16             # HL0    -->  Z0     NUT    ANUT        
      7.36387738E-04    3           23        11       -11             # HL0    -->  Z0     E-     E+          
      7.36387738E-04    3           23        13       -13             # HL0    -->  Z0     MU-    MU+         
      7.36387738E-04    3           23        15       -15             # HL0    -->  Z0     TAU-   TAU+        
      2.52280198E-03    3           23         2        -2             # HL0    -->  Z0     UP     UB          
      2.52280198E-03    3           23         4        -4             # HL0    -->  Z0     CH     CB          
      3.24999052E-03    3           23         1        -1             # HL0    -->  Z0     DN     DB          
      3.24999052E-03    3           23         3        -3             # HL0    -->  Z0     ST     SB          
      3.24999052E-03    3           23         5        -5             # HL0    -->  Z0     BT     BB          
#         PDG         Width
DECAY        35  4.26617765E+00   # HH0   decays
#          BR          NDA       ID1       ID2       ID3       ID4
      9.02050257E-09    2           11       -11                       # HH0    -->  E-     E+                 
      3.80861835E-04    2           13       -13                       # HH0    -->  MU-    MU+                
      1.09082639E-01    2           15       -15                       # HH0    -->  TAU-   TAU+               
      1.10501560E-05    2            1        -1                       # HH0    -->  DN     DB                 
      4.46482189E-03    2            3        -3                       # HH0    -->  ST     SB                 
      6.66082978E-01    2            5        -5                       # HH0    -->  BT     BB                 
      7.31723224E-11    2            2        -2                       # HH0    -->  UP     UB                 
      1.03048512E-06    2            4        -4                       # HH0    -->  CH     CB                 
      4.70082797E-02    2            6        -6                       # HH0    -->  TP     TB                 
      2.35659513E-07    2           22        22                       # HH0    -->  GM     GM                 
      2.20849161E-05    2           21        21                       # HH0    -->  GL     GL                 
      1.83260112E-04    2           24       -24                       # HH0    -->  W+     W-                 
      9.30441165E-05    2           23        23                       # HH0    -->  Z0     Z0                 
      9.41212568E-03    2      1000022   1000022                       # HH0    -->  Z1SS   Z1SS               
      1.25312910E-03    2      1000022   1000023                       # HH0    -->  Z1SS   Z2SS               
      4.76323850E-02    2      1000022   1000025                       # HH0    -->  Z1SS   Z3SS               
      4.25985921E-03    2      1000023   1000023                       # HH0    -->  Z2SS   Z2SS               
      8.89869630E-02    2      1000023   1000025                       # HH0    -->  Z2SS   Z3SS               
      2.04545632E-02    2      1000024  -1000024                       # HH0    -->  W1SS+  W1SS-              
      6.70777983E-04    2           25        25                       # HH0    -->  HL0    HL0                
#         PDG         Width
DECAY        36  4.25706100E+00   # HA0   decays
#          BR          NDA       ID1       ID2       ID3       ID4
      8.98184105E-09    2           11       -11                       # HA0    -->  E-     E+                 
      3.79229517E-04    2           13       -13                       # HA0    -->  MU-    MU+                
      1.08616471E-01    2           15       -15                       # HA0    -->  TAU-   TAU+               
      1.10034016E-05    2            1        -1                       # HA0    -->  DN     DB                 
      4.44593141E-03    2            3        -3                       # HA0    -->  ST     SB                 
      6.63294435E-01    2            5        -5                       # HA0    -->  BT     BB                 
      6.95454735E-11    2            2        -2                       # HA0    -->  UP     UB                 
      9.80179038E-07    2            4        -4                       # HA0    -->  CH     CB                 
      4.96649481E-02    2            6        -6                       # HA0    -->  TP     TB                 
      1.59435899E-07    2           22        22                       # HA0    -->  GM     GM                 
      6.94569317E-05    2           21        21                       # HA0    -->  GL     GL                 
      1.29823266E-02    2      1000022   1000022                       # HA0    -->  Z1SS   Z1SS               
      3.41217703E-04    2      1000022   1000023                       # HA0    -->  Z1SS   Z2SS               
      8.99615213E-02    2      1000022   1000025                       # HA0    -->  Z1SS   Z3SS               
      3.46979406E-03    2      1000023   1000023                       # HA0    -->  Z2SS   Z2SS               
      4.32778522E-02    2      1000023   1000025                       # HA0    -->  Z2SS   Z3SS               
      2.33084038E-02    2      1000024  -1000024                       # HA0    -->  W1SS+  W1SS-              
      1.76105634E-04    2           25        23                       # HA0    -->  HL0    Z0                 
#         PDG         Width
DECAY        37  3.77462101E+00   # H+    decays
#          BR          NDA       ID1       ID2       ID3       ID4
      1.01625295E-08    2           12       -11                       # H+     -->  NUE    E+                 
      4.29080363E-04    2           14       -13                       # H+     -->  NUM    MU+                
      1.22894421E-01    2           16       -15                       # H+     -->  NUT    TAU+               
      1.14433833E-05    2            2        -1                       # H+     -->  UP     DB                 
      4.62467829E-03    2            4        -3                       # H+     -->  CH     SB                 
      6.98652685E-01    2            6        -5                       # H+     -->  TP     BB                 
      3.13207565E-05    2      1000024   1000022                       # H+     -->  W1SS+  Z1SS               
      1.99352577E-03    2      1000024   1000023                       # H+     -->  W1SS+  Z2SS               
      1.71163723E-01    2      1000024   1000025                       # H+     -->  W1SS+  Z3SS               
      1.99180024E-04    2           25        24                       # H+     -->  HL0    W+                 
