#  ISAJET SUSY parameters in SUSY Les Houches Accord 2 format
#  Created by ISALHA 2.0 Last revision: H Baer 27 May 2014
Block SPINFO   # Program information
     1   ISASUGRA/ISASUSY from ISAJET   # Spectrum Calculator
     2   7.87   18-JUL-2017 13:55:55    # Version number
Block MODSEL   # Model selection
     1    13   # Non-universal supergravity model                  
Block SMINPUTS   # Standard Model inputs
     1     1.28000000E+02   # alpha_em^(-1)
     2     1.16570000E-05   # G_Fermi
     3     1.19999997E-01   # alpha_s(M_Z)
     4     9.11699982E+01   # m_{Z}(pole)
     5     4.19999981E+00   # m_{b}(m_{b})
     6     1.72500000E+02   # m_{top}(pole)
     7     1.77699995E+00   # m_{tau}(pole)
Block MINPAR   # SUSY breaking input parameters
     1     5.00000000E+03   # m_0
     2     3.00000000E+03   # m_{1/2}
     3     1.50000000E+01   # tan(beta)
     4     1.00000000E+00   # sign(mu)
     5    -8.00000000E+03   # A_0
Block EXTPAR   # Non-universal SUSY breaking parameters
     0     1.26465978E+16   # Input scale
    21     8.61095234E+04   # Down type Higgs mass squared
    22     5.76996080E+07   #  Up  type Higgs mass squared
Block MASS   # Scalar and gaugino mass spectrum
#  PDG code   mass                 particle
         6     1.72500000E+02   #  top            
        24     8.04229965E+01   #  W^+
        25     1.25391510E+02   #  h^0            
        35     1.00666864E+03   #  H^0            
        36     1.00000000E+03   #  A^0            
        37     1.00322870E+03   #  H^+            
   1000001     7.39557666E+03   #  dnl            
   1000002     7.39513672E+03   #  upl            
   1000003     7.39557666E+03   #  stl            
   1000004     7.39513672E+03   #  chl            
   1000005     5.80996191E+03   #  b1             
   1000006     3.61763745E+03   #  t1             
   1000011     5.48873145E+03   #  el-            
   1000012     5.49039307E+03   #  nuel           
   1000013     5.48873145E+03   #  mul-           
   1000014     5.49039307E+03   #  numl           
   1000015     4.65658545E+03   #  tau1           
   1000016     5.41671289E+03   #  nutl           
   1000021     6.31121240E+03   #  glss           
   1000022     1.01953438E+02   #  z1ss           
   1000023    -1.05550079E+02   #  z2ss           
   1000024     1.08175781E+02   #  w1ss           
   1000025     1.34808923E+03   #  z3ss           
   1000035     2.51236499E+03   #  z4ss           
   1000037     2.48389795E+03   #  w2ss           
   1000039     1.00000002E+20   #  gvss
   2000001     7.17467480E+03   #  dnr            
   2000002     7.38788477E+03   #  upr            
   2000003     7.17467480E+03   #  str            
   2000004     7.38788477E+03   #  chr            
   2000005     6.96603320E+03   #  b2             
   2000006     5.80597363E+03   #  t2             
   2000011     4.83073633E+03   #  er-            
   2000013     4.83073633E+03   #  mur-           
   2000015     5.41284521E+03   #  tau2           
Block ALPHA   # Effective Higgs mixing parameter
         -6.81520104E-02   # alpha
Block STOPMIX   # stop mixing matrix
  1  1     5.33848591E-02   # O_{11}
  1  2     9.98574018E-01   # O_{12}
  2  1    -9.98574018E-01   # O_{21}
  2  2     5.33848591E-02   # O_{22}
Block SBOTMIX   # sbottom mixing matrix
  1  1     9.99990702E-01   # O_{11}
  1  2     4.30940278E-03   # O_{12}
  2  1    -4.30940278E-03   # O_{21}
  2  2     9.99990702E-01   # O_{22}
Block STAUMIX   # stau mixing matrix
  1  1     4.72062640E-03   # O_{11}
  1  2     9.99988854E-01   # O_{12}
  2  1    -9.99988854E-01   # O_{21}
  2  2     4.72062640E-03   # O_{22}
Block NMIX   # neutralino mixing matrix
  1  1    -2.51028109E-02   #
  1  2     2.43438557E-02   #
  1  3    -7.12933421E-01   #
  1  4     7.00359404E-01   #
  2  1     1.90488882E-02   #
  2  2    -1.86081100E-02   #
  2  3    -7.01203644E-01   #
  2  4    -7.12463439E-01   #
  3  1     9.99494731E-01   #
  3  2     5.14691323E-03   #
  3  3    -4.52365354E-03   #
  3  4     3.10408846E-02   #
  4  1    -4.18074429E-03   #
  4  2     9.99517262E-01   #
  4  3     4.33272449E-03   #
  4  4    -3.04817203E-02   #
Block UMIX   # chargino U mixing matrix
  1  1    -5.25558740E-03   # U_{11}
  1  2     9.99986172E-01   # U_{12}
  2  1    -9.99986172E-01   # U_{21}
  2  2    -5.25558740E-03   # U_{22}
Block VMIX   # chargino V mixing matrix
  1  1    -4.41004336E-02   # V_{11}
  1  2     9.99027073E-01   # V_{12}
  2  1    -9.99027073E-01   # V_{21}
  2  2    -4.41004336E-02   # V_{22}
Block GAUGE Q=  4.50346973E+03   #
     1     3.57524186E-01   # g`
     2     6.52380168E-01   # g_2
     3     1.21931255E+00   # g_3
Block YU Q=  4.50346973E+03   #
  3  3     8.03266048E-01   # y_t
Block YD Q=  4.50346973E+03   #
  3  3     1.81754470E-01   # y_b
Block YE Q=  4.50346973E+03   #
  3  3     1.48902476E-01   # y_tau
Block HMIX Q=  4.50346973E+03   # Higgs mixing parameters
     1     1.00000000E+02   # mu(Q)
     2     1.42621832E+01   # tan(beta)(Q)
     3     2.52605408E+02   # Higgs vev at Q
     4     1.00000000E+06   # m_A^2(Q)
Block MSOFT Q=  4.50346973E+03   # DRbar SUSY breaking parameters
     1     1.35152759E+03   # M_1(Q)          
     2     2.42436621E+03   # M_2(Q)          
     3     5.91806104E+03   # M_3(Q)          
    21     9.82900063E+05   # MHd^2(Q)        
    22     8.25053750E+04   # MHu^2(Q)        
    31     5.46593213E+03   # MeL(Q)          
    32     5.46593213E+03   # MmuL(Q)         
    33     5.39427197E+03   # MtauL(Q)        
    34     4.82654492E+03   # MeR(Q)          
    35     4.82654492E+03   # MmuR(Q)         
    36     4.65655859E+03   # MtauR(Q)        
    41     7.09502734E+03   # MqL1(Q)         
    42     7.09502734E+03   # MqL2(Q)         
    43     5.61834424E+03   # MqL3(Q)         
    44     7.08755371E+03   # MuR(Q)          
    45     7.08755371E+03   # McR(Q)          
    46     3.60982495E+03   # MtR(Q)          
    47     6.87106006E+03   # MdR(Q)          
    48     6.87106006E+03   # MsR(Q)          
    49     6.78862793E+03   # MbR(Q)          
Block AU Q=  4.50346973E+03   #
  1  1    -7.75910059E+03   # A_u
  2  2    -7.75910059E+03   # A_c
  3  3    -7.75910059E+03   # A_t
Block AD Q=  4.50346973E+03   #
  1  1    -1.32868633E+04   # A_d
  2  2    -1.32868633E+04   # A_s
  3  3    -1.32868633E+04   # A_b
Block AE Q=  4.50346973E+03   #
  1  1    -9.30326074E+03   # A_e
  2  2    -9.30326074E+03   # A_mu
  3  3    -9.30326074E+03   # A_tau
#  ISAJET decay tables in SUSY Les Houches accord format
#  Created by ISALHD. Last revision: C. Balazs, 2005 May 25
Block DCINFO                           # Program information
     1   ISASUGRA from ISAJET          # Spectrum Calculator
     2   7.87   18-JUL-2017 13:55:55   # Version number
#         PDG         Width
DECAY         6  1.46776152E+00   # TP    decays
#          BR          NDA       ID1       ID2       ID3       ID4
      3.33333313E-01    3            2        -1         5             # TP     -->  UP     DB     BT          
      3.33333313E-01    3            4        -3         5             # TP     -->  CH     SB     BT          
      1.11111097E-01    3          -11        12         5             # TP     -->  E+     NUE    BT          
      1.11111097E-01    3          -13        14         5             # TP     -->  MU+    NUM    BT          
      1.11111097E-01    3          -15        16         5             # TP     -->  TAU+   NUT    BT          
#         PDG         Width
DECAY   1000021  6.03860703E+01   # GLSS  decays
#          BR          NDA       ID1       ID2       ID3       ID4
      5.52521328E-07    3      1000024         1        -2             # GLSS   -->  W1SS+  DN     UB          
      5.52521328E-07    3     -1000024         2        -1             # GLSS   -->  W1SS-  UP     DB          
      5.52521328E-07    3      1000024         3        -4             # GLSS   -->  W1SS+  ST     CB          
      5.52521328E-07    3     -1000024         4        -3             # GLSS   -->  W1SS-  CH     SB          
      3.51449853E-05    3      1000024         5        -6             # GLSS   -->  W1SS+  BT     TB          
      3.51449853E-05    3     -1000024         6        -5             # GLSS   -->  W1SS-  TP     BB          
      3.14131874E-04    3      1000037         1        -2             # GLSS   -->  W2SS+  DN     UB          
      3.14131874E-04    3     -1000037         2        -1             # GLSS   -->  W2SS-  UP     DB          
      3.14131874E-04    3      1000037         3        -4             # GLSS   -->  W2SS+  ST     CB          
      3.14131874E-04    3     -1000037         4        -3             # GLSS   -->  W2SS-  CH     SB          
      6.45879572E-09    3      1000037         5        -6             # GLSS   -->  W2SS+  BT     TB          
      6.45879572E-09    3     -1000037         6        -5             # GLSS   -->  W2SS-  TP     BB          
      2.47591114E-10    2      1000022        21                       # GLSS   -->  Z1SS   GL                 
      2.08015152E-07    3      1000022         2        -2             # GLSS   -->  Z1SS   UP     UB          
      2.68134301E-07    3      1000022         1        -1             # GLSS   -->  Z1SS   DN     DB          
      2.68134301E-07    3      1000022         3        -3             # GLSS   -->  Z1SS   ST     SB          
      2.08015152E-07    3      1000022         4        -4             # GLSS   -->  Z1SS   CH     CB          
      3.58598081E-05    3      1000022         5        -5             # GLSS   -->  Z1SS   BT     BB          
      1.49308205E-10    2      1000023        21                       # GLSS   -->  Z2SS   GL                 
      1.15651616E-07    3      1000023         2        -2             # GLSS   -->  Z2SS   UP     UB          
      1.49299424E-07    3      1000023         1        -1             # GLSS   -->  Z2SS   DN     DB          
      1.49299424E-07    3      1000023         3        -3             # GLSS   -->  Z2SS   ST     SB          
      1.15651616E-07    3      1000023         4        -4             # GLSS   -->  Z2SS   CH     CB          
      3.47532186E-05    3      1000023         5        -5             # GLSS   -->  Z2SS   BT     BB          
      2.58892243E-07    2      1000025        21                       # GLSS   -->  Z3SS   GL                 
      1.52939654E-04    3      1000025         2        -2             # GLSS   -->  Z3SS   UP     UB          
      5.23838971E-05    3      1000025         1        -1             # GLSS   -->  Z3SS   DN     DB          
      5.23838971E-05    3      1000025         3        -3             # GLSS   -->  Z3SS   ST     SB          
      1.52939654E-04    3      1000025         4        -4             # GLSS   -->  Z3SS   CH     CB          
      5.48655771E-05    3      1000025         5        -5             # GLSS   -->  Z3SS   BT     BB          
      1.50522997E-12    2      1000035        21                       # GLSS   -->  Z4SS   GL                 
      1.53917485E-04    3      1000035         2        -2             # GLSS   -->  Z4SS   UP     UB          
      1.54322770E-04    3      1000035         1        -1             # GLSS   -->  Z4SS   DN     DB          
      1.54322770E-04    3      1000035         3        -3             # GLSS   -->  Z4SS   ST     SB          
      1.53917485E-04    3      1000035         4        -4             # GLSS   -->  Z4SS   CH     CB          
      7.50159046E-09    3      1000035         5        -5             # GLSS   -->  Z4SS   BT     BB          
      2.35436186E-02    2     -1000005         5                       # GLSS   -->  BB1    BT                 
      2.35436186E-02    2      1000005        -5                       # GLSS   -->  BT1    BB                 
      4.51785058E-01    2     -1000006         6                       # GLSS   -->  TB1    TP                 
      4.51785058E-01    2      1000006        -6                       # GLSS   -->  TP1    TB                 
      2.34295875E-02    2     -2000006         6                       # GLSS   -->  TB2    TP                 
      2.34295875E-02    2      2000006        -6                       # GLSS   -->  TP2    TB                 
#         PDG         Width
DECAY   1000002  1.02179184E+02   # UPL   decays
#          BR          NDA       ID1       ID2       ID3       ID4
      1.18723910E-04    2      1000022         2                       # UPL    -->  Z1SS   UP                 
      6.96017596E-05    2      1000023         2                       # UPL    -->  Z2SS   UP                 
      1.00916810E-02    2      1000025         2                       # UPL    -->  Z3SS   UP                 
      2.37786382E-01    2      1000035         2                       # UPL    -->  Z4SS   UP                 
      2.72111744E-01    2      1000021         2                       # UPL    -->  GLSS   UP                 
      1.18447444E-03    2      1000024         1                       # UPL    -->  W1SS+  DN                 
      4.78637427E-01    2      1000037         1                       # UPL    -->  W2SS+  DN                 
#         PDG         Width
DECAY   1000001  1.02166679E+02   # DNL   decays
#          BR          NDA       ID1       ID2       ID3       ID4
      2.55148421E-04    2      1000022         1                       # DNL    -->  Z1SS   DN                 
      1.48731822E-04    2      1000023         1                       # DNL    -->  Z2SS   DN                 
      9.01997369E-03    2      1000025         1                       # DNL    -->  Z3SS   DN                 
      2.38567129E-01    2      1000035         1                       # DNL    -->  Z4SS   DN                 
      2.72333533E-01    2      1000021         1                       # DNL    -->  GLSS   DN                 
      1.68252482E-05    2     -1000024         2                       # DNL    -->  W1SS-  UP                 
      4.79658633E-01    2     -1000037         2                       # DNL    -->  W2SS-  UP                 
#         PDG         Width
DECAY   1000003  1.02166672E+02   # STL   decays
#          BR          NDA       ID1       ID2       ID3       ID4
      2.55148450E-04    2      1000022         3                       # STL    -->  Z1SS   ST                 
      1.48731822E-04    2      1000023         3                       # STL    -->  Z2SS   ST                 
      9.01997369E-03    2      1000025         3                       # STL    -->  Z3SS   ST                 
      2.38567144E-01    2      1000035         3                       # STL    -->  Z4SS   ST                 
      2.72333562E-01    2      1000021         3                       # STL    -->  GLSS   ST                 
      1.68252482E-05    2     -1000024         4                       # STL    -->  W1SS-  CH                 
      4.79658633E-01    2     -1000037         4                       # STL    -->  W2SS-  CH                 
#         PDG         Width
DECAY   1000004  1.02179153E+02   # CHL   decays
#          BR          NDA       ID1       ID2       ID3       ID4
      1.18723932E-04    2      1000022         4                       # CHL    -->  Z1SS   CH                 
      6.96017742E-05    2      1000023         4                       # CHL    -->  Z2SS   CH                 
      1.00916848E-02    2      1000025         4                       # CHL    -->  Z3SS   CH                 
      2.37786397E-01    2      1000035         4                       # CHL    -->  Z4SS   CH                 
      2.72111565E-01    2      1000021         4                       # CHL    -->  GLSS   CH                 
      1.18447479E-03    2      1000024         3                       # CHL    -->  W1SS+  ST                 
      4.78637546E-01    2      1000037         3                       # CHL    -->  W2SS+  ST                 
#         PDG         Width
DECAY   1000005  2.08045395E+02   # BT1   decays
#          BR          NDA       ID1       ID2       ID3       ID4
      9.93034057E-03    2      1000022         5                       # BT1    -->  Z1SS   BT                 
      9.54885036E-03    2      1000023         5                       # BT1    -->  Z2SS   BT                 
      3.33268009E-03    2      1000025         5                       # BT1    -->  Z3SS   BT                 
      7.77413100E-02    2      1000035         5                       # BT1    -->  Z4SS   BT                 
      3.39893848E-01    2     -1000024         6                       # BT1    -->  W1SS-  TP                 
      1.57550350E-01    2     -1000037         6                       # BT1    -->  W2SS-  TP                 
      4.00492996E-01    2          -24   1000006                       # BT1    -->  W-     TP1                
      1.50966260E-03    2          -37   1000006                       # BT1    -->  H-     TP1                
#         PDG         Width
DECAY   1000006  9.41648026E+01   # TP1   decays
#          BR          NDA       ID1       ID2       ID3       ID4
      2.29704469E-01    2      1000022         6                       # TP1    -->  Z1SS   TP                 
      2.37631917E-01    2      1000023         6                       # TP1    -->  Z2SS   TP                 
      6.41918406E-02    2      1000025         6                       # TP1    -->  Z3SS   TP                 
      8.80445867E-08    2      1000035         6                       # TP1    -->  Z4SS   TP                 
      4.68471706E-01    2      1000024         5                       # TP1    -->  W1SS+  BT                 
      6.99756786E-09    2      1000037         5                       # TP1    -->  W2SS+  BT                 
#         PDG         Width
DECAY   2000002  4.30955658E+01   # UPR   decays
#          BR          NDA       ID1       ID2       ID3       ID4
      2.44108582E-04    2      1000022         2                       # UPR    -->  Z1SS   UP                 
      1.40561300E-04    2      1000023         2                       # UPR    -->  Z2SS   UP                 
      3.61785799E-01    2      1000025         2                       # UPR    -->  Z3SS   UP                 
      5.29742374E-06    2      1000035         2                       # UPR    -->  Z4SS   UP                 
      6.37824297E-01    2      1000021         2                       # UPR    -->  GLSS   UP                 
#         PDG         Width
DECAY   2000001  2.25265446E+01   # DNR   decays
#          BR          NDA       ID1       ID2       ID3       ID4
      1.13379137E-04    2      1000022         1                       # DNR    -->  Z1SS   DN                 
      6.52852686E-05    2      1000023         1                       # DNR    -->  Z2SS   DN                 
      1.67342141E-01    2      1000025         1                       # DNR    -->  Z3SS   DN                 
      2.42184683E-06    2      1000035         1                       # DNR    -->  Z4SS   DN                 
      8.32476735E-01    2      1000021         1                       # DNR    -->  GLSS   DN                 
#         PDG         Width
DECAY   2000003  2.25265446E+01   # STR   decays
#          BR          NDA       ID1       ID2       ID3       ID4
      1.13379137E-04    2      1000022         3                       # STR    -->  Z1SS   ST                 
      6.52852686E-05    2      1000023         3                       # STR    -->  Z2SS   ST                 
      1.67342141E-01    2      1000025         3                       # STR    -->  Z3SS   ST                 
      2.42184683E-06    2      1000035         3                       # STR    -->  Z4SS   ST                 
      8.32476735E-01    2      1000021         3                       # STR    -->  GLSS   ST                 
#         PDG         Width
DECAY   2000004  4.30955429E+01   # CHR   decays
#          BR          NDA       ID1       ID2       ID3       ID4
      2.44108669E-04    2      1000022         4                       # CHR    -->  Z1SS   CH                 
      1.40561358E-04    2      1000023         4                       # CHR    -->  Z2SS   CH                 
      3.61785948E-01    2      1000025         4                       # CHR    -->  Z3SS   CH                 
      5.29742556E-06    2      1000035         4                       # CHR    -->  Z4SS   CH                 
      6.37824059E-01    2      1000021         4                       # CHR    -->  GLSS   CH                 
#         PDG         Width
DECAY   2000005  5.32080116E+01   # BT2   decays
#          BR          NDA       ID1       ID2       ID3       ID4
      4.60435040E-02    2      1000022         5                       # BT2    -->  Z1SS   BT                 
      4.46111411E-02    2      1000023         5                       # BT2    -->  Z2SS   BT                 
      6.84865266E-02    2      1000025         5                       # BT2    -->  Z3SS   BT                 
      1.63475870E-05    2      1000035         5                       # BT2    -->  Z4SS   BT                 
      2.15183511E-01    2      1000021         5                       # BT2    -->  GLSS   BT                 
      9.04970840E-02    2     -1000024         6                       # BT2    -->  W1SS-  TP                 
      2.84523176E-05    2     -1000037         6                       # BT2    -->  W2SS-  TP                 
      8.51518707E-05    2          -24   1000006                       # BT2    -->  W-     TP1                
      2.16354965E-03    2          -24   2000006                       # BT2    -->  W-     TP2                
      1.08655170E-03    2           23   1000005                       # BT2    -->  Z0     BT1                
      1.51550944E-03    2           25   1000005                       # BT2    -->  HL0    BT1                
      1.32609010E-01    2           36   1000005                       # BT2    -->  HA0    BT1                
      1.29898667E-01    2           35   1000005                       # BT2    -->  HH0    BT1                
      1.93751394E-03    2          -37   1000006                       # BT2    -->  H-     TP1                
      2.65837431E-01    2          -37   2000006                       # BT2    -->  H-     TP2                
#         PDG         Width
DECAY   2000006  2.27195831E+02   # TP2   decays
#          BR          NDA       ID1       ID2       ID3       ID4
      1.77169237E-02    2      1000024         5                       # TP2    -->  W1SS+  BT                 
      1.43718973E-01    2      1000037         5                       # TP2    -->  W2SS+  BT                 
      1.84284821E-01    2           23   1000006                       # TP2    -->  Z0     TP1                
      2.67296016E-01    2           25   1000006                       # TP2    -->  HL0    TP1                
      7.23705627E-04    2           35   1000006                       # TP2    -->  HH0    TP1                
      6.91553170E-04    2           36   1000006                       # TP2    -->  HA0    TP1                
      1.52403042E-01    2      1000022         6                       # TP2    -->  Z1SS   TP                 
      1.57799542E-01    2      1000023         6                       # TP2    -->  Z2SS   TP                 
      4.05906746E-03    2      1000025         6                       # TP2    -->  Z3SS   TP                 
      7.13063478E-02    2      1000035         6                       # TP2    -->  Z4SS   TP                 
#         PDG         Width
DECAY   1000011  4.98527298E+01   # EL-   decays
#          BR          NDA       ID1       ID2       ID3       ID4
      5.15155843E-05    2      1000022        11                       # EL-    -->  Z1SS   E-                 
      3.06729999E-05    2      1000023        11                       # EL-    -->  Z2SS   E-                 
      1.25816867E-01    2      1000025        11                       # EL-    -->  Z3SS   E-                 
      2.87978768E-01    2      1000035        11                       # EL-    -->  Z4SS   E-                 
      2.55817486E-05    2     -1000024        12                       # EL-    -->  W1SS-  NUE                
      5.86096585E-01    2     -1000037        12                       # EL-    -->  W2SS-  NUE                
#         PDG         Width
DECAY   1000013  4.98527298E+01   # MUL-  decays
#          BR          NDA       ID1       ID2       ID3       ID4
      5.15155843E-05    2      1000022        13                       # MUL-   -->  Z1SS   MU-                
      3.06729999E-05    2      1000023        13                       # MUL-   -->  Z2SS   MU-                
      1.25816867E-01    2      1000025        13                       # MUL-   -->  Z3SS   MU-                
      2.87978768E-01    2      1000035        13                       # MUL-   -->  Z4SS   MU-                
      2.55817486E-05    2     -1000024        14                       # MUL-   -->  W1SS-  NUM                
      5.86096585E-01    2     -1000037        14                       # MUL-   -->  W2SS-  NUM                
#         PDG         Width
DECAY   1000015  2.42081547E+01   # TAU1- decays
#          BR          NDA       ID1       ID2       ID3       ID4
      4.60709557E-02    2      1000022        15                       # TAU1-  -->  Z1SS   TAU-               
      4.42047939E-02    2      1000023        15                       # TAU1-  -->  Z2SS   TAU-               
      8.20402801E-01    2      1000025        15                       # TAU1-  -->  Z3SS   TAU-               
      1.29069058E-05    2      1000035        15                       # TAU1-  -->  Z4SS   TAU-               
      8.92984346E-02    2     -1000024        16                       # TAU1-  -->  W1SS-  NUT                
      1.00727020E-05    2     -1000037        16                       # TAU1-  -->  W2SS-  NUT                
#         PDG         Width
DECAY   1000012  4.98654480E+01   # NUEL  decays
#          BR          NDA       ID1       ID2       ID3       ID4
      6.73748611E-04    2      1000022        12                       # NUEL   -->  Z1SS   NUE                
      3.91577021E-04    2      1000023        12                       # NUEL   -->  Z2SS   NUE                
      1.21203944E-01    2      1000025        12                       # NUEL   -->  Z3SS   NUE                
      2.90746242E-01    2      1000035        12                       # NUEL   -->  Z4SS   NUE                
      1.80133386E-03    2      1000024        11                       # NUEL   -->  W1SS+  E-                 
      5.85183084E-01    2      1000037        11                       # NUEL   -->  W2SS+  E-                 
#         PDG         Width
DECAY   1000014  4.98654480E+01   # NUML  decays
#          BR          NDA       ID1       ID2       ID3       ID4
      6.73748611E-04    2      1000022        14                       # NUML   -->  Z1SS   NUM                
      3.91577021E-04    2      1000023        14                       # NUML   -->  Z2SS   NUM                
      1.21203944E-01    2      1000025        14                       # NUML   -->  Z3SS   NUM                
      2.90746242E-01    2      1000035        14                       # NUML   -->  Z4SS   NUM                
      1.80133386E-03    2      1000024        13                       # NUML   -->  W1SS+  MU-                
      5.85183084E-01    2      1000037        13                       # NUML   -->  W2SS+  MU-                
#         PDG         Width
DECAY   1000016  5.11193199E+01   # NUTL  decays
#          BR          NDA       ID1       ID2       ID3       ID4
      6.48390618E-04    2      1000022        16                       # NUTL   -->  Z1SS   NUT                
      3.76838667E-04    2      1000023        16                       # NUTL   -->  Z2SS   NUT                
      1.16234794E-01    2      1000025        16                       # NUTL   -->  Z3SS   NUT                
      2.75763869E-01    2      1000035        16                       # NUTL   -->  Z4SS   NUT                
      5.09291887E-02    2      1000024        15                       # NUTL   -->  W1SS+  TAU-               
      5.55259049E-01    2      1000037        15                       # NUTL   -->  W2SS+  TAU-               
      7.87875557E-04    2           24   1000015                       # NUTL   -->  W+     TAU1-              
#         PDG         Width
DECAY   2000011  2.08959618E+01   # ER-   decays
#          BR          NDA       ID1       ID2       ID3       ID4
      7.40299642E-04    2      1000022        11                       # ER-    -->  Z1SS   E-                 
      4.26259707E-04    2      1000023        11                       # ER-    -->  Z2SS   E-                 
      9.98822510E-01    2      1000025        11                       # ER-    -->  Z3SS   E-                 
      1.09377697E-05    2      1000035        11                       # ER-    -->  Z4SS   E-                 
#         PDG         Width
DECAY   2000013  2.08959618E+01   # MUR-  decays
#          BR          NDA       ID1       ID2       ID3       ID4
      7.40299642E-04    2      1000022        13                       # MUR-   -->  Z1SS   MU-                
      4.26259707E-04    2      1000023        13                       # MUR-   -->  Z2SS   MU-                
      9.98822510E-01    2      1000025        13                       # MUR-   -->  Z3SS   MU-                
      1.09377697E-05    2      1000035        13                       # MUR-   -->  Z4SS   MU-                
#         PDG         Width
DECAY   2000015  5.10507469E+01   # TAU2- decays
#          BR          NDA       ID1       ID2       ID3       ID4
      2.50351615E-02    2      1000022        15                       # TAU2-  -->  Z1SS   TAU-               
      2.42637731E-02    2      1000023        15                       # TAU2-  -->  Z2SS   TAU-               
      1.20737977E-01    2      1000025        15                       # TAU2-  -->  Z3SS   TAU-               
      2.73195475E-01    2      1000035        15                       # TAU2-  -->  Z4SS   TAU-               
      1.53349702E-05    2     -1000024        16                       # TAU2-  -->  W1SS-  NUT                
      5.56244493E-01    2     -1000037        16                       # TAU2-  -->  W2SS-  NUT                
      3.91981070E-04    2           23   1000015                       # TAU2-  -->  Z0     TAU1-              
      1.15778690E-04    2           25   1000015                       # TAU2-  -->  HL0    TAU1-              
#         PDG         Width
DECAY   1000023  5.32882793E-10   # Z2SS  decays
#          BR          NDA       ID1       ID2       ID3       ID4
      1.97120816E-01    2      1000022        22                       # Z2SS   -->  Z1SS   GM                 
      1.35847449E-01    3      1000022         2        -2             # Z2SS   -->  Z1SS   UP     UB          
      1.75176188E-01    3      1000022         1        -1             # Z2SS   -->  Z1SS   DN     DB          
      1.75176188E-01    3      1000022         3        -3             # Z2SS   -->  Z1SS   ST     SB          
      3.97386290E-02    3      1000022        11       -11             # Z2SS   -->  Z1SS   E-     E+          
      3.97386290E-02    3      1000022        13       -13             # Z2SS   -->  Z1SS   MU-    MU+         
      7.90673718E-02    3      1000022        12       -12             # Z2SS   -->  Z1SS   NUE    ANUE        
      7.90673718E-02    3      1000022        14       -14             # Z2SS   -->  Z1SS   NUM    ANUM        
      7.90673718E-02    3      1000022        16       -16             # Z2SS   -->  Z1SS   NUT    ANUT        
#         PDG         Width
DECAY   1000025  3.80448842E+00   # Z3SS  decays
#          BR          NDA       ID1       ID2       ID3       ID4
      7.47035145E-08    2      1000022        22                       # Z3SS   -->  Z1SS   GM                 
      7.46259232E-08    2      1000023        22                       # Z3SS   -->  Z2SS   GM                 
      2.05926135E-01    2      1000024       -24                       # Z3SS   -->  W1SS+  W-                 
      2.05926135E-01    2     -1000024        24                       # Z3SS   -->  W1SS-  W+                 
      4.18574177E-02    2      1000024       -37                       # Z3SS   -->  W1SS+  H-                 
      4.18574177E-02    2     -1000024        37                       # Z3SS   -->  W1SS-  H+                 
      7.16829598E-02    2      1000022        23                       # Z3SS   -->  Z1SS   Z0                 
      1.32986456E-01    2      1000023        23                       # Z3SS   -->  Z2SS   Z0                 
      1.20877655E-10    3      1000022         2        -2             # Z3SS   -->  Z1SS   UP     UB          
      2.42584512E-11    3      1000022         1        -1             # Z3SS   -->  Z1SS   DN     DB          
      2.42584512E-11    3      1000022         3        -3             # Z3SS   -->  Z1SS   ST     SB          
      1.20877655E-10    3      1000022         4        -4             # Z3SS   -->  Z1SS   CH     CB          
      6.17076745E-09    3      1000022         5        -5             # Z3SS   -->  Z1SS   BT     BB          
      1.09915743E-09    3      1000022        11       -11             # Z3SS   -->  Z1SS   E-     E+          
      1.09915743E-09    3      1000022        13       -13             # Z3SS   -->  Z1SS   MU-    MU+         
      1.23789235E-07    3      1000022        15       -15             # Z3SS   -->  Z1SS   TAU-   TAU+        
      2.97780023E-10    3      1000022        12       -12             # Z3SS   -->  Z1SS   NUE    ANUE        
      2.97780023E-10    3      1000022        14       -14             # Z3SS   -->  Z1SS   NUM    ANUM        
      3.14739068E-10    3      1000022        16       -16             # Z3SS   -->  Z1SS   NUT    ANUT        
      5.24947898E-11    3      1000023         2        -2             # Z3SS   -->  Z2SS   UP     UB          
      1.06095870E-11    3      1000023         1        -1             # Z3SS   -->  Z2SS   DN     DB          
      1.06095870E-11    3      1000023         3        -3             # Z3SS   -->  Z2SS   ST     SB          
      5.24947898E-11    3      1000023         4        -4             # Z3SS   -->  Z2SS   CH     CB          
      5.94521365E-09    3      1000023         5        -5             # Z3SS   -->  Z2SS   BT     BB          
      4.78787066E-10    3      1000023        11       -11             # Z3SS   -->  Z2SS   E-     E+          
      4.78787066E-10    3      1000023        13       -13             # Z3SS   -->  Z2SS   MU-    MU+         
      1.18627469E-07    3      1000023        15       -15             # Z3SS   -->  Z2SS   TAU-   TAU+        
      1.30646036E-10    3      1000023        12       -12             # Z3SS   -->  Z2SS   NUE    ANUE        
      1.30646036E-10    3      1000023        14       -14             # Z3SS   -->  Z2SS   NUM    ANUM        
      1.38105055E-10    3      1000023        16       -16             # Z3SS   -->  Z2SS   NUT    ANUT        
      1.38761446E-01    2      1000022        25                       # Z3SS   -->  Z1SS   HL0                
      2.45745108E-02    2      1000022        35                       # Z3SS   -->  Z1SS   HH0                
      1.65620483E-02    2      1000022        36                       # Z3SS   -->  Z1SS   HA0                
      8.00293311E-02    2      1000023        25                       # Z3SS   -->  Z2SS   HL0                
      1.51702175E-02    2      1000023        35                       # Z3SS   -->  Z2SS   HH0                
      2.46655773E-02    2      1000023        36                       # Z3SS   -->  Z2SS   HA0                
#         PDG         Width
DECAY   1000035  3.54909477E+01   # Z4SS  decays
#          BR          NDA       ID1       ID2       ID3       ID4
      4.26040600E-07    2      1000022        22                       # Z4SS   -->  Z1SS   GM                 
      6.44078170E-07    2      1000023        22                       # Z4SS   -->  Z2SS   GM                 
      5.06010900E-10    2      1000025        22                       # Z4SS   -->  Z3SS   GM                 
      1.48377120E-01    2      1000024       -24                       # Z4SS   -->  W1SS+  W-                 
      1.48377120E-01    2     -1000024        24                       # Z4SS   -->  W1SS-  W+                 
      1.03172764E-01    2      1000024       -37                       # Z4SS   -->  W1SS+  H-                 
      1.03172764E-01    2     -1000024        37                       # Z4SS   -->  W1SS-  H+                 
      9.60091143E-07    3     -1000037         2        -1             # Z4SS   -->  W2SS-  UP     DB          
      3.20030381E-07    3     -1000037        12       -11             # Z4SS   -->  W2SS-  NUE    E+          
      3.20030381E-07    3     -1000037        14       -13             # Z4SS   -->  W2SS-  NUM    MU+         
      9.60091143E-07    3      1000037         1        -2             # Z4SS   -->  W2SS+  DN     UB          
      3.20030381E-07    3      1000037        11       -12             # Z4SS   -->  W2SS+  E-     ANUE        
      3.20030381E-07    3      1000037        13       -14             # Z4SS   -->  W2SS+  MU-    ANUM        
      9.60091143E-07    3     -1000037         4        -3             # Z4SS   -->  W2SS-  CH     SB          
      3.20030381E-07    3     -1000037        16       -15             # Z4SS   -->  W2SS-  NUT    TAU+        
      9.60091143E-07    3      1000037         3        -4             # Z4SS   -->  W2SS+  ST     CB          
      3.20030381E-07    3      1000037        15       -16             # Z4SS   -->  W2SS+  TAU-   ANUT        
      4.88879383E-02    2      1000022        23                       # Z4SS   -->  Z1SS   Z0                 
      8.97703990E-02    2      1000023        23                       # Z4SS   -->  Z2SS   Z0                 
      4.60462543E-05    2      1000025        23                       # Z4SS   -->  Z3SS   Z0                 
      6.04685746E-10    3      1000022         2        -2             # Z4SS   -->  Z1SS   UP     UB          
      1.30294064E-09    3      1000022         1        -1             # Z4SS   -->  Z1SS   DN     DB          
      1.30294064E-09    3      1000022         3        -3             # Z4SS   -->  Z1SS   ST     SB          
      6.04685746E-10    3      1000022         4        -4             # Z4SS   -->  Z1SS   CH     CB          
      3.41874312E-07    3      1000022         5        -5             # Z4SS   -->  Z1SS   BT     BB          
      2.05399087E-10    3      1000022        11       -11             # Z4SS   -->  Z1SS   E-     E+          
      2.05399087E-10    3      1000022        13       -13             # Z4SS   -->  Z1SS   MU-    MU+         
      1.02185965E-07    3      1000022        15       -15             # Z4SS   -->  Z1SS   TAU-   TAU+        
      2.70671485E-09    3      1000022        12       -12             # Z4SS   -->  Z1SS   NUE    ANUE        
      2.70671485E-09    3      1000022        14       -14             # Z4SS   -->  Z1SS   NUM    ANUM        
      2.87217428E-09    3      1000022        16       -16             # Z4SS   -->  Z1SS   NUT    ANUT        
      3.03614522E-10    3      1000023         2        -2             # Z4SS   -->  Z2SS   UP     UB          
      6.50498488E-10    3      1000023         1        -1             # Z4SS   -->  Z2SS   DN     DB          
      6.50498488E-10    3      1000023         3        -3             # Z4SS   -->  Z2SS   ST     SB          
      3.03614522E-10    3      1000023         4        -4             # Z4SS   -->  Z2SS   CH     CB          
      3.28599924E-07    3      1000023         5        -5             # Z4SS   -->  Z2SS   BT     BB          
      1.05266004E-10    3      1000023        11       -11             # Z4SS   -->  Z2SS   E-     E+          
      1.05266004E-10    3      1000023        13       -13             # Z4SS   -->  Z2SS   MU-    MU+         
      9.86624684E-08    3      1000023        15       -15             # Z4SS   -->  Z2SS   TAU-   TAU+        
      1.35404843E-09    3      1000023        12       -12             # Z4SS   -->  Z2SS   NUE    ANUE        
      1.35404843E-09    3      1000023        14       -14             # Z4SS   -->  Z2SS   NUM    ANUM        
      1.43727508E-09    3      1000023        16       -16             # Z4SS   -->  Z2SS   NUT    ANUT        
      9.46911172E-09    3      1000025         2        -2             # Z4SS   -->  Z3SS   UP     UB          
      8.48459702E-09    3      1000025         1        -1             # Z4SS   -->  Z3SS   DN     DB          
      8.48459702E-09    3      1000025         3        -3             # Z4SS   -->  Z3SS   ST     SB          
      9.46911172E-09    3      1000025         4        -4             # Z4SS   -->  Z3SS   CH     CB          
      2.45288092E-08    3      1000025         5        -5             # Z4SS   -->  Z3SS   BT     BB          
      1.02241032E-07    3      1000025        11       -11             # Z4SS   -->  Z3SS   E-     E+          
      1.02241032E-07    3      1000025        13       -13             # Z4SS   -->  Z3SS   MU-    MU+         
      1.09007061E-07    3      1000025        15       -15             # Z4SS   -->  Z3SS   TAU-   TAU+        
      9.92368285E-08    3      1000025        12       -12             # Z4SS   -->  Z3SS   NUE    ANUE        
      9.92368285E-08    3      1000025        14       -14             # Z4SS   -->  Z3SS   NUM    ANUM        
      1.05601153E-07    3      1000025        16       -16             # Z4SS   -->  Z3SS   NUT    ANUT        
      8.95530879E-02    2      1000022        25                       # Z4SS   -->  Z1SS   HL0                
      5.08242212E-02    2      1000022        35                       # Z4SS   -->  Z1SS   HH0                
      5.49063534E-02    2      1000022        36                       # Z4SS   -->  Z1SS   HA0                
      5.97503595E-02    2      1000023        25                       # Z4SS   -->  Z2SS   HL0                
      5.30452430E-02    2      1000023        35                       # Z4SS   -->  Z2SS   HH0                
      4.95324507E-02    2      1000023        36                       # Z4SS   -->  Z2SS   HA0                
      5.73905243E-04    2      1000025        25                       # Z4SS   -->  Z3SS   HL0                
      1.48908157E-06    2      1000025        35                       # Z4SS   -->  Z3SS   HH0                
      2.98349590E-07    2      1000025        36                       # Z4SS   -->  Z3SS   HA0                
#         PDG         Width
DECAY   1000024  1.12638050E-08   # W1SS+ decays
#          BR          NDA       ID1       ID2       ID3       ID4
      3.28718662E-01    3      1000022         2        -1             # W1SS+  -->  Z1SS   UP     DB          
      3.28718662E-01    3      1000022         4        -3             # W1SS+  -->  Z1SS   CH     SB          
      1.09572887E-01    3      1000022       -11        12             # W1SS+  -->  Z1SS   E+     NUE         
      1.09572887E-01    3      1000022       -13        14             # W1SS+  -->  Z1SS   MU+    NUM         
      1.09574601E-01    3      1000022       -15        16             # W1SS+  -->  Z1SS   TAU+   NUT         
      4.61416645E-03    3      1000023         2        -1             # W1SS+  -->  Z2SS   UP     DB          
      4.61416645E-03    3      1000023         4        -3             # W1SS+  -->  Z2SS   CH     SB          
      1.53805513E-03    3      1000023       -11        12             # W1SS+  -->  Z2SS   E+     NUE         
      1.53805513E-03    3      1000023       -13        14             # W1SS+  -->  Z2SS   MU+    NUM         
      1.53803313E-03    3      1000023       -15        16             # W1SS+  -->  Z2SS   TAU+   NUT         
#         PDG         Width
DECAY   1000037  3.40925446E+01   # W2SS+ decays
#          BR          NDA       ID1       ID2       ID3       ID4
      1.61554670E-09    3      1000022         2        -1             # W2SS+  -->  Z1SS   UP     DB          
      1.61554670E-09    3      1000022         4        -3             # W2SS+  -->  Z1SS   CH     SB          
      2.54247823E-09    3      1000022       -11        12             # W2SS+  -->  Z1SS   E+     NUE         
      2.54247823E-09    3      1000022       -13        14             # W2SS+  -->  Z1SS   MU+    NUM         
      1.03663837E-07    3      1000022       -15        16             # W2SS+  -->  Z1SS   TAU+   NUT         
      1.38768926E-01    2      1000022        24                       # W2SS+  -->  Z1SS   W+                 
      1.07682601E-01    2      1000022        37                       # W2SS+  -->  Z1SS   H+                 
      1.08943277E-09    3      1000023         2        -1             # W2SS+  -->  Z2SS   UP     DB          
      1.08943277E-09    3      1000023         4        -3             # W2SS+  -->  Z2SS   CH     SB          
      1.59872204E-09    3      1000023       -11        12             # W2SS+  -->  Z2SS   E+     NUE         
      1.59872204E-09    3      1000023       -13        14             # W2SS+  -->  Z2SS   MU+    NUM         
      9.93053106E-08    3      1000023       -15        16             # W2SS+  -->  Z2SS   TAU+   NUT         
      1.34755567E-01    2      1000023        24                       # W2SS+  -->  Z2SS   W+                 
      1.04078270E-01    2      1000023        37                       # W2SS+  -->  Z2SS   H+                 
      1.67028684E-08    3      1000025         2        -1             # W2SS+  -->  Z3SS   UP     DB          
      1.67028684E-08    3      1000025         4        -3             # W2SS+  -->  Z3SS   CH     SB          
      1.87101918E-07    3      1000025       -11        12             # W2SS+  -->  Z3SS   E+     NUE         
      1.87101918E-07    3      1000025       -13        14             # W2SS+  -->  Z3SS   MU+    NUM         
      1.99264719E-07    3      1000025       -15        16             # W2SS+  -->  Z3SS   TAU+   NUT         
      4.46192315E-03    2      1000025        24                       # W2SS+  -->  Z3SS   W+                 
      1.43796262E-06    2      1000025        37                       # W2SS+  -->  Z3SS   H+                 
      1.45041868E-01    2      1000024        23                       # W2SS+  -->  W1SS+  Z0                 
      5.49597257E-09    3      1000024         1        -1             # W2SS+  -->  W1SS+  DN     DB          
      5.49597257E-09    3      1000024         3        -3             # W2SS+  -->  W1SS+  ST     SB          
      7.81855067E-11    3      1000024         2        -2             # W2SS+  -->  W1SS+  UP     UB          
      7.81855067E-11    3      1000024         4        -4             # W2SS+  -->  W1SS+  CH     CB          
      9.33783051E-11    3      1000024        12       -12             # W2SS+  -->  W1SS+  NUE    ANUE        
      9.33783051E-11    3      1000024        14       -14             # W2SS+  -->  W1SS+  NUM    ANUM        
      1.94831845E-10    3      1000024        16       -16             # W2SS+  -->  W1SS+  NUT    ANUT        
      6.55359012E-09    3      1000024        11       -11             # W2SS+  -->  W1SS+  E-     E+          
      6.55359012E-09    3      1000024        13       -13             # W2SS+  -->  W1SS+  MU-    MU+         
      6.95422298E-09    3      1000024        15       -15             # W2SS+  -->  W1SS+  TAU-   TAU+        
      1.54044315E-01    2      1000024        25                       # W2SS+  -->  W1SS+  HL0                
      1.05289787E-01    2      1000024        35                       # W2SS+  -->  W1SS+  HH0                
      1.05874553E-01    2      1000024        36                       # W2SS+  -->  W1SS+  HA0                
#         PDG         Width
DECAY        25  3.96975083E-03   # HL0   decays
#          BR          NDA       ID1       ID2       ID3       ID4
      5.62588598E-09    2           11       -11                       # HL0    -->  E-     E+                 
      2.37534055E-04    2           13       -13                       # HL0    -->  MU-    MU+                
      6.79517165E-02    2           15       -15                       # HL0    -->  TAU-   TAU+               
      7.05199227E-06    2            1        -1                       # HL0    -->  DN     DB                 
      2.84935860E-03    2            3        -3                       # HL0    -->  ST     SB                 
      6.10517919E-01    2            5        -5                       # HL0    -->  BT     BB                 
      2.15244449E-06    2            2        -2                       # HL0    -->  UP     UB                 
      3.99879850E-02    2            4        -4                       # HL0    -->  CH     CB                 
      2.66079791E-03    2           22        22                       # HL0    -->  GM     GM                 
      5.29591143E-02    2           21        21                       # HL0    -->  GL     GL                 
      1.11286175E-02    3           24        11       -12             # HL0    -->  W+     E-     ANUE        
      1.11286175E-02    3           24        13       -14             # HL0    -->  W+     MU-    ANUM        
      1.11286175E-02    3           24        15       -16             # HL0    -->  W+     TAU-   ANUT        
      3.33858542E-02    3           24        -2         1             # HL0    -->  W+     UB     DN          
      3.33858542E-02    3           24        -4         3             # HL0    -->  W+     CB     ST          
      1.11286175E-02    3          -24       -11        12             # HL0    -->  W-     E+     NUE         
      1.11286175E-02    3          -24       -13        14             # HL0    -->  W-     MU+    NUM         
      1.11286175E-02    3          -24       -15        16             # HL0    -->  W-     TAU+   NUT         
      3.33858542E-02    3          -24         2        -1             # HL0    -->  W-     UP     DB          
      3.33858542E-02    3          -24         4        -3             # HL0    -->  W-     CH     SB          
      1.53956225E-03    3           23        12       -12             # HL0    -->  Z0     NUE    ANUE        
      1.53956225E-03    3           23        14       -14             # HL0    -->  Z0     NUM    ANUM        
      1.53956225E-03    3           23        16       -16             # HL0    -->  Z0     NUT    ANUT        
      7.74846179E-04    3           23        11       -11             # HL0    -->  Z0     E-     E+          
      7.74846179E-04    3           23        13       -13             # HL0    -->  Z0     MU-    MU+         
      7.74846179E-04    3           23        15       -15             # HL0    -->  Z0     TAU-   TAU+        
      2.65455735E-03    3           23         2        -2             # HL0    -->  Z0     UP     UB          
      2.65455735E-03    3           23         4        -4             # HL0    -->  Z0     CH     CB          
      3.41972383E-03    3           23         1        -1             # HL0    -->  Z0     DN     DB          
      3.41972383E-03    3           23         3        -3             # HL0    -->  Z0     ST     SB          
      3.41972383E-03    3           23         5        -5             # HL0    -->  Z0     BT     BB          
#         PDG         Width
DECAY        35  3.55451417E+00   # HH0   decays
#          BR          NDA       ID1       ID2       ID3       ID4
      1.08265175E-08    2           11       -11                       # HH0    -->  E-     E+                 
      4.57115035E-04    2           13       -13                       # HH0    -->  MU-    MU+                
      1.30922318E-01    2           15       -15                       # HH0    -->  TAU-   TAU+               
      1.32625319E-05    2            1        -1                       # HH0    -->  DN     DB                 
      5.35873417E-03    2            3        -3                       # HH0    -->  ST     SB                 
      7.98765123E-01    2            5        -5                       # HH0    -->  BT     BB                 
      8.78726605E-11    2            2        -2                       # HH0    -->  UP     UB                 
      1.23750976E-06    2            4        -4                       # HH0    -->  CH     CB                 
      5.64522743E-02    2            6        -6                       # HH0    -->  TP     TB                 
      1.78243525E-07    2           22        22                       # HH0    -->  GM     GM                 
      2.47988464E-05    2           21        21                       # HH0    -->  GL     GL                 
      2.25460884E-04    2           24       -24                       # HH0    -->  W+     W-                 
      1.14470131E-04    2           23        23                       # HH0    -->  Z0     Z0                 
      1.43426890E-03    2      1000022   1000022                       # HH0    -->  Z1SS   Z1SS               
      9.95365190E-05    2      1000022   1000023                       # HH0    -->  Z1SS   Z2SS               
      1.05459883E-03    2      1000023   1000023                       # HH0    -->  Z2SS   Z2SS               
      4.22969088E-03    2      1000024  -1000024                       # HH0    -->  W1SS+  W1SS-              
      8.46859126E-04    2           25        25                       # HH0    -->  HL0    HL0                
#         PDG         Width
DECAY        36  3.54279494E+00   # HA0   decays
#          BR          NDA       ID1       ID2       ID3       ID4
      1.07926779E-08    2           11       -11                       # HA0    -->  E-     E+                 
      4.55686328E-04    2           13       -13                       # HA0    -->  MU-    MU+                
      1.30514726E-01    2           15       -15                       # HA0    -->  TAU-   TAU+               
      1.32218074E-05    2            1        -1                       # HA0    -->  DN     DB                 
      5.34228003E-03    2            3        -3                       # HA0    -->  ST     SB                 
      7.96348155E-01    2            5        -5                       # HA0    -->  BT     BB                 
      8.35665981E-11    2            2        -2                       # HA0    -->  UP     UB                 
      1.17779382E-06    2            4        -4                       # HA0    -->  CH     CB                 
      5.96779436E-02    2            6        -6                       # HA0    -->  TP     TB                 
      3.15387155E-07    2           22        22                       # HA0    -->  GM     GM                 
      7.74674118E-05    2           21        21                       # HA0    -->  GL     GL                 
      1.94414018E-03    2      1000022   1000022                       # HA0    -->  Z1SS   Z1SS               
      8.96093843E-06    2      1000022   1000023                       # HA0    -->  Z1SS   Z2SS               
      8.35523359E-04    2      1000023   1000023                       # HA0    -->  Z2SS   Z2SS               
      4.56353137E-03    2      1000024  -1000024                       # HA0    -->  W1SS+  W1SS-              
      2.16828150E-04    2           25        23                       # HA0    -->  HL0    Z0                 
#         PDG         Width
DECAY        37  3.11971903E+00   # H+    decays
#          BR          NDA       ID1       ID2       ID3       ID4
      1.22958825E-08    2           12       -11                       # H+     -->  NUE    E+                 
      5.19154361E-04    2           14       -13                       # H+     -->  NUM    MU+                
      1.48692831E-01    2           16       -15                       # H+     -->  NUT    TAU+               
      1.38456171E-05    2            2        -1                       # H+     -->  UP     DB                 
      5.59550663E-03    2            4        -3                       # H+     -->  CH     SB                 
      8.44651818E-01    2            6        -5                       # H+     -->  TP     BB                 
      4.11142610E-05    2      1000024   1000022                       # H+     -->  W1SS+  Z1SS               
      2.38807275E-04    2      1000024   1000023                       # H+     -->  W1SS+  Z2SS               
      2.46935902E-04    2           25        24                       # H+     -->  HL0    W+                 
