#  ISAJET SUSY parameters in SUSY Les Houches Accord 2 format
#  Created by ISALHA 2.0 Last revision: H Baer 27 May 2014
Block SPINFO   # Program information
     1   ISASUGRA/ISASUSY from ISAJET   # Spectrum Calculator
     2   7.87   18-JUL-2017 13:55:55    # Version number
Block MODSEL   # Model selection
     1    13   # Non-universal supergravity model                  
Block SMINPUTS   # Standard Model inputs
     1     1.28000000E+02   # alpha_em^(-1)
     2     1.16570000E-05   # G_Fermi
     3     1.19999997E-01   # alpha_s(M_Z)
     4     9.11699982E+01   # m_{Z}(pole)
     5     4.19999981E+00   # m_{b}(m_{b})
     6     1.72500000E+02   # m_{top}(pole)
     7     1.77699995E+00   # m_{tau}(pole)
Block MINPAR   # SUSY breaking input parameters
     1     5.00000000E+03   # m_0
     2     3.00000000E+03   # m_{1/2}
     3     1.50000000E+01   # tan(beta)
     4     1.00000000E+00   # sign(mu)
     5    -8.00000000E+03   # A_0
Block EXTPAR   # Non-universal SUSY breaking parameters
     0     1.24130267E+16   # Input scale
    21     8.01798672E+04   # Down type Higgs mass squared
    22     5.76833800E+07   #  Up  type Higgs mass squared
Block MASS   # Scalar and gaugino mass spectrum
#  PDG code   mass                 particle
         6     1.72500000E+02   #  top            
        24     8.04229965E+01   #  W^+
        25     1.25377678E+02   #  h^0            
        35     1.00666840E+03   #  H^0            
        36     1.00000000E+03   #  A^0            
        37     1.00322870E+03   #  H^+            
   1000001     7.39428760E+03   #  dnl            
   1000002     7.39384863E+03   #  upl            
   1000003     7.39428760E+03   #  stl            
   1000004     7.39384863E+03   #  chl            
   1000005     5.80911816E+03   #  b1             
   1000006     3.61815137E+03   #  t1             
   1000011     5.48810645E+03   #  el-            
   1000012     5.48976660E+03   #  nuel           
   1000013     5.48810645E+03   #  mul-           
   1000014     5.48976660E+03   #  numl           
   1000015     4.65681787E+03   #  tau1           
   1000016     5.41603516E+03   #  nutl           
   1000021     6.30956006E+03   #  glss           
   1000022     1.53644775E+02   #  z1ss           
   1000023    -1.57282349E+02   #  z2ss           
   1000024     1.61704971E+02   #  w1ss           
   1000025     1.34991199E+03   #  z3ss           
   1000035     2.51363208E+03   #  z4ss           
   1000037     2.48506396E+03   #  w2ss           
   1000039     1.00000002E+20   #  gvss
   2000001     7.17361230E+03   #  dnr            
   2000002     7.38648096E+03   #  upr            
   2000003     7.17361230E+03   #  str            
   2000004     7.38648096E+03   #  chr            
   2000005     6.96487402E+03   #  b2             
   2000006     5.80515869E+03   #  t2             
   2000011     4.83106885E+03   #  er-            
   2000013     4.83106885E+03   #  mur-           
   2000015     5.41216748E+03   #  tau2           
Block ALPHA   # Effective Higgs mixing parameter
         -6.81485683E-02   # alpha
Block STOPMIX   # stop mixing matrix
  1  1     5.34312837E-02   # O_{11}
  1  2     9.98571515E-01   # O_{12}
  2  1    -9.98571515E-01   # O_{21}
  2  2     5.34312837E-02   # O_{22}
Block SBOTMIX   # sbottom mixing matrix
  1  1     9.99990821E-01   # O_{11}
  1  2     4.28879960E-03   # O_{12}
  2  1    -4.28879960E-03   # O_{21}
  2  2     9.99990821E-01   # O_{22}
Block STAUMIX   # stau mixing matrix
  1  1     4.89526615E-03   # O_{11}
  1  2     9.99988019E-01   # O_{12}
  2  1    -9.99988019E-01   # O_{21}
  2  2     4.89526615E-03   # O_{22}
Block NMIX   # neutralino mixing matrix
  1  1    -2.62118969E-02   #
  1  2     2.49123387E-02   #
  1  3    -7.10952759E-01   #
  1  4     7.02309549E-01   #
  2  1     1.83376260E-02   #
  2  2    -1.82007868E-02   #
  2  3    -7.03199387E-01   #
  2  4    -7.10523248E-01   #
  3  1     9.99476433E-01   #
  3  2     5.82570583E-03   #
  3  3    -5.71946148E-03   #
  3  4     3.13063897E-02   #
  4  1    -4.83825803E-03   #
  4  2     9.99507129E-01   #
  4  3     4.94873477E-03   #
  4  4    -3.06255892E-02   #
Block UMIX   # chargino U mixing matrix
  1  1    -6.26193546E-03   # U_{11}
  1  2     9.99980390E-01   # U_{12}
  2  1    -9.99980390E-01   # U_{21}
  2  2    -6.26193546E-03   # U_{22}
Block VMIX   # chargino V mixing matrix
  1  1    -4.42321487E-02   # V_{11}
  1  2     9.99021292E-01   # V_{12}
  2  1    -9.99021292E-01   # V_{21}
  2  2    -4.42321487E-02   # V_{22}
Block GAUGE Q=  4.50335938E+03   #
     1     3.57515633E-01   # g`
     2     6.52422488E-01   # g_2
     3     1.21971464E+00   # g_3
Block YU Q=  4.50335938E+03   #
  3  3     8.03144217E-01   # y_t
Block YD Q=  4.50335938E+03   #
  3  3     1.81715682E-01   # y_b
Block YE Q=  4.50335938E+03   #
  3  3     1.48985192E-01   # y_tau
Block HMIX Q=  4.50335938E+03   # Higgs mixing parameters
     1     1.50000000E+02   # mu(Q)
     2     1.42625713E+01   # tan(beta)(Q)
     3     2.52605408E+02   # Higgs vev at Q
     4     1.00000000E+06   # m_A^2(Q)
Block MSOFT Q=  4.50335938E+03   # DRbar SUSY breaking parameters
     1     1.35335266E+03   # M_1(Q)          
     2     2.42564258E+03   # M_2(Q)          
     3     5.91643604E+03   # M_3(Q)          
    21     9.72914313E+05   # MHd^2(Q)        
    22     1.00369953E+05   # MHu^2(Q)        
    31     5.46530371E+03   # MeL(Q)          
    32     5.46530371E+03   # MmuL(Q)         
    33     5.39359375E+03   # MtauL(Q)        
    34     4.82687451E+03   # MeR(Q)          
    35     4.82687451E+03   # MmuR(Q)         
    36     4.65679297E+03   # MtauR(Q)        
    41     7.09382715E+03   # MqL1(Q)         
    42     7.09382715E+03   # MqL2(Q)         
    43     5.61746289E+03   # MqL3(Q)         
    44     7.08623633E+03   # MuR(Q)          
    45     7.08623633E+03   # McR(Q)          
    46     3.61021436E+03   # MtR(Q)          
    47     6.87008838E+03   # MdR(Q)          
    48     6.87008838E+03   # MsR(Q)          
    49     6.78746387E+03   # MbR(Q)          
Block AU Q=  4.50335938E+03   #
  1  1    -7.75783496E+03   # A_u
  2  2    -7.75783496E+03   # A_c
  3  3    -7.75783496E+03   # A_t
Block AD Q=  4.50335938E+03   #
  1  1    -1.32820273E+04   # A_d
  2  2    -1.32820273E+04   # A_s
  3  3    -1.32820273E+04   # A_b
Block AE Q=  4.50335938E+03   #
  1  1    -9.30030176E+03   # A_e
  2  2    -9.30030176E+03   # A_mu
  3  3    -9.30030176E+03   # A_tau
#  ISAJET decay tables in SUSY Les Houches accord format
#  Created by ISALHD. Last revision: C. Balazs, 2005 May 25
Block DCINFO                           # Program information
     1   ISASUGRA from ISAJET          # Spectrum Calculator
     2   7.87   18-JUL-2017 13:55:55   # Version number
#         PDG         Width
DECAY         6  1.46776152E+00   # TP    decays
#          BR          NDA       ID1       ID2       ID3       ID4
      3.33333313E-01    3            2        -1         5             # TP     -->  UP     DB     BT          
      3.33333313E-01    3            4        -3         5             # TP     -->  CH     SB     BT          
      1.11111097E-01    3          -11        12         5             # TP     -->  E+     NUE    BT          
      1.11111097E-01    3          -13        14         5             # TP     -->  MU+    NUM    BT          
      1.11111097E-01    3          -15        16         5             # TP     -->  TAU+   NUT    BT          
#         PDG         Width
DECAY   1000021  6.03121033E+01   # GLSS  decays
#          BR          NDA       ID1       ID2       ID3       ID4
      5.60363219E-07    3      1000024         1        -2             # GLSS   -->  W1SS+  DN     UB          
      5.60363219E-07    3     -1000024         2        -1             # GLSS   -->  W1SS-  UP     DB          
      5.60363219E-07    3      1000024         3        -4             # GLSS   -->  W1SS+  ST     CB          
      5.60363219E-07    3     -1000024         4        -3             # GLSS   -->  W1SS-  CH     SB          
      3.50684932E-05    3      1000024         5        -6             # GLSS   -->  W1SS+  BT     TB          
      3.50684932E-05    3     -1000024         6        -5             # GLSS   -->  W1SS-  TP     BB          
      3.13863013E-04    3      1000037         1        -2             # GLSS   -->  W2SS+  DN     UB          
      3.13863013E-04    3     -1000037         2        -1             # GLSS   -->  W2SS-  UP     DB          
      3.13863013E-04    3      1000037         3        -4             # GLSS   -->  W2SS+  ST     CB          
      3.13863013E-04    3     -1000037         4        -3             # GLSS   -->  W2SS-  CH     SB          
      7.05648695E-09    3      1000037         5        -6             # GLSS   -->  W2SS+  BT     TB          
      7.05648695E-09    3     -1000037         6        -5             # GLSS   -->  W2SS-  TP     BB          
      2.66499989E-10    2      1000022        21                       # GLSS   -->  Z1SS   GL                 
      2.22956317E-07    3      1000022         2        -2             # GLSS   -->  Z1SS   UP     UB          
      2.86279715E-07    3      1000022         1        -1             # GLSS   -->  Z1SS   DN     DB          
      2.86279715E-07    3      1000022         3        -3             # GLSS   -->  Z1SS   ST     SB          
      2.22956317E-07    3      1000022         4        -4             # GLSS   -->  Z1SS   CH     CB          
      3.55916636E-05    3      1000022         5        -5             # GLSS   -->  Z1SS   BT     BB          
      1.39776080E-10    2      1000023        21                       # GLSS   -->  Z2SS   GL                 
      1.08086098E-07    3      1000023         2        -2             # GLSS   -->  Z2SS   UP     UB          
      1.39906845E-07    3      1000023         1        -1             # GLSS   -->  Z2SS   DN     DB          
      1.39906845E-07    3      1000023         3        -3             # GLSS   -->  Z2SS   ST     SB          
      1.08086098E-07    3      1000023         4        -4             # GLSS   -->  Z2SS   CH     CB          
      3.48762551E-05    3      1000023         5        -5             # GLSS   -->  Z2SS   BT     BB          
      2.58509743E-07    2      1000025        21                       # GLSS   -->  Z3SS   GL                 
      1.52987210E-04    3      1000025         2        -2             # GLSS   -->  Z3SS   UP     UB          
      5.22983610E-05    3      1000025         1        -1             # GLSS   -->  Z3SS   DN     DB          
      5.22983610E-05    3      1000025         3        -3             # GLSS   -->  Z3SS   ST     SB          
      1.52987210E-04    3      1000025         4        -4             # GLSS   -->  Z3SS   CH     CB          
      5.48481330E-05    3      1000025         5        -5             # GLSS   -->  Z3SS   BT     BB          
      2.15175816E-12    2      1000035        21                       # GLSS   -->  Z4SS   GL                 
      1.53733272E-04    3      1000035         2        -2             # GLSS   -->  Z4SS   UP     UB          
      1.54212146E-04    3      1000035         1        -1             # GLSS   -->  Z4SS   DN     DB          
      1.54212146E-04    3      1000035         3        -3             # GLSS   -->  Z4SS   ST     SB          
      1.53733272E-04    3      1000035         4        -4             # GLSS   -->  Z4SS   CH     CB          
      8.22442559E-09    3      1000035         5        -5             # GLSS   -->  Z4SS   BT     BB          
      2.35058218E-02    2     -1000005         5                       # GLSS   -->  BB1    BT                 
      2.35058218E-02    2      1000005        -5                       # GLSS   -->  BT1    BB                 
      4.51866269E-01    2     -1000006         6                       # GLSS   -->  TB1    TP                 
      4.51866269E-01    2      1000006        -6                       # GLSS   -->  TP1    TB                 
      2.33871732E-02    2     -2000006         6                       # GLSS   -->  TB2    TP                 
      2.33871732E-02    2      2000006        -6                       # GLSS   -->  TP2    TB                 
#         PDG         Width
DECAY   1000002  1.02164436E+02   # UPL   decays
#          BR          NDA       ID1       ID2       ID3       ID4
      1.23094243E-04    2      1000022         2                       # UPL    -->  Z1SS   UP                 
      6.70390946E-05    2      1000023         2                       # UPL    -->  Z2SS   UP                 
      1.01617863E-02    2      1000025         2                       # UPL    -->  Z3SS   UP                 
      2.37632886E-01    2      1000035         2                       # UPL    -->  Z4SS   UP                 
      2.72363365E-01    2      1000021         2                       # UPL    -->  GLSS   UP                 
      1.19089487E-03    2      1000024         1                       # UPL    -->  W1SS+  DN                 
      4.78460938E-01    2      1000037         1                       # UPL    -->  W2SS+  DN                 
#         PDG         Width
DECAY   1000001  1.02149628E+02   # DNL   decays
#          BR          NDA       ID1       ID2       ID3       ID4
      2.68803298E-04    2      1000022         1                       # DNL    -->  Z1SS   DN                 
      1.41511206E-04    2      1000023         1                       # DNL    -->  Z2SS   DN                 
      8.94901250E-03    2      1000025         1                       # DNL    -->  Z3SS   DN                 
      2.38533467E-01    2      1000035         1                       # DNL    -->  Z4SS   DN                 
      2.72590935E-01    2      1000021         1                       # DNL    -->  GLSS   DN                 
      2.38727971E-05    2     -1000024         2                       # DNL    -->  W1SS-  UP                 
      4.79492456E-01    2     -1000037         2                       # DNL    -->  W2SS-  UP                 
#         PDG         Width
DECAY   1000003  1.02149628E+02   # STL   decays
#          BR          NDA       ID1       ID2       ID3       ID4
      2.68803298E-04    2      1000022         3                       # STL    -->  Z1SS   ST                 
      1.41511206E-04    2      1000023         3                       # STL    -->  Z2SS   ST                 
      8.94901250E-03    2      1000025         3                       # STL    -->  Z3SS   ST                 
      2.38533467E-01    2      1000035         3                       # STL    -->  Z4SS   ST                 
      2.72590935E-01    2      1000021         3                       # STL    -->  GLSS   ST                 
      2.38727953E-05    2     -1000024         4                       # STL    -->  W1SS-  CH                 
      4.79492426E-01    2     -1000037         4                       # STL    -->  W2SS-  CH                 
#         PDG         Width
DECAY   1000004  1.02164406E+02   # CHL   decays
#          BR          NDA       ID1       ID2       ID3       ID4
      1.23094287E-04    2      1000022         4                       # CHL    -->  Z1SS   CH                 
      6.70391091E-05    2      1000023         4                       # CHL    -->  Z2SS   CH                 
      1.01617882E-02    2      1000025         4                       # CHL    -->  Z3SS   CH                 
      2.37632900E-01    2      1000035         4                       # CHL    -->  Z4SS   CH                 
      2.72363216E-01    2      1000021         4                       # CHL    -->  GLSS   CH                 
      1.19089521E-03    2      1000024         3                       # CHL    -->  W1SS+  ST                 
      4.78461057E-01    2      1000037         3                       # CHL    -->  W2SS+  ST                 
#         PDG         Width
DECAY   1000005  2.07859436E+02   # BT1   decays
#          BR          NDA       ID1       ID2       ID3       ID4
      9.87665448E-03    2      1000022         5                       # BT1    -->  Z1SS   BT                 
      9.59562976E-03    2      1000023         5                       # BT1    -->  Z2SS   BT                 
      3.30851297E-03    2      1000025         5                       # BT1    -->  Z3SS   BT                 
      7.77701735E-02    2      1000035         5                       # BT1    -->  Z4SS   BT                 
      3.39760542E-01    2     -1000024         6                       # BT1    -->  W1SS-  TP                 
      1.57583714E-01    2     -1000037         6                       # BT1    -->  W2SS-  TP                 
      4.00934726E-01    2          -24   1000006                       # BT1    -->  W-     TP1                
      1.16998283E-03    2          -37   1000006                       # BT1    -->  H-     TP1                
#         PDG         Width
DECAY   1000006  9.39616013E+01   # TP1   decays
#          BR          NDA       ID1       ID2       ID3       ID4
      2.30968714E-01    2      1000022         6                       # TP1    -->  Z1SS   TP                 
      2.36350566E-01    2      1000023         6                       # TP1    -->  Z2SS   TP                 
      6.42936826E-02    2      1000025         6                       # TP1    -->  Z3SS   TP                 
      8.02341802E-08    2      1000035         6                       # TP1    -->  Z4SS   TP                 
      4.68386948E-01    2      1000024         5                       # TP1    -->  W1SS+  BT                 
      3.18869509E-09    2      1000037         5                       # TP1    -->  W2SS+  BT                 
#         PDG         Width
DECAY   2000002  4.31058273E+01   # UPR   decays
#          BR          NDA       ID1       ID2       ID3       ID4
      2.65912531E-04    2      1000022         2                       # UPR    -->  Z1SS   UP                 
      1.30139815E-04    2      1000023         2                       # UPR    -->  Z2SS   UP                 
      3.61540794E-01    2      1000025         2                       # UPR    -->  Z3SS   UP                 
      7.08911057E-06    2      1000035         2                       # UPR    -->  Z4SS   UP                 
      6.38056099E-01    2      1000021         2                       # UPR    -->  GLSS   UP                 
#         PDG         Width
DECAY   2000001  2.25517883E+01   # DNR   decays
#          BR          NDA       ID1       ID2       ID3       ID4
      1.23398946E-04    2      1000022         1                       # DNR    -->  Z1SS   DN                 
      6.03923327E-05    2      1000023         1                       # DNR    -->  Z2SS   DN                 
      1.67087197E-01    2      1000025         1                       # DNR    -->  Z3SS   DN                 
      3.23823474E-06    2      1000035         1                       # DNR    -->  Z4SS   DN                 
      8.32725763E-01    2      1000021         1                       # DNR    -->  GLSS   DN                 
#         PDG         Width
DECAY   2000003  2.25517883E+01   # STR   decays
#          BR          NDA       ID1       ID2       ID3       ID4
      1.23398946E-04    2      1000022         3                       # STR    -->  Z1SS   ST                 
      6.03923327E-05    2      1000023         3                       # STR    -->  Z2SS   ST                 
      1.67087197E-01    2      1000025         3                       # STR    -->  Z3SS   ST                 
      3.23823474E-06    2      1000035         3                       # STR    -->  Z4SS   ST                 
      8.32725763E-01    2      1000021         3                       # STR    -->  GLSS   ST                 
#         PDG         Width
DECAY   2000004  4.31058044E+01   # CHR   decays
#          BR          NDA       ID1       ID2       ID3       ID4
      2.65912589E-04    2      1000022         4                       # CHR    -->  Z1SS   CH                 
      1.30139873E-04    2      1000023         4                       # CHR    -->  Z2SS   CH                 
      3.61540973E-01    2      1000025         4                       # CHR    -->  Z3SS   CH                 
      7.08911375E-06    2      1000035         4                       # CHR    -->  Z4SS   CH                 
      6.38055861E-01    2      1000021         4                       # CHR    -->  GLSS   CH                 
#         PDG         Width
DECAY   2000005  5.31626740E+01   # BT2   decays
#          BR          NDA       ID1       ID2       ID3       ID4
      4.57768366E-02    2      1000022         5                       # BT2    -->  Z1SS   BT                 
      4.48473915E-02    2      1000023         5                       # BT2    -->  Z2SS   BT                 
      6.85170367E-02    2      1000025         5                       # BT2    -->  Z3SS   BT                 
      1.78707833E-05    2      1000035         5                       # BT2    -->  Z4SS   BT                 
      2.15710878E-01    2      1000021         5                       # BT2    -->  GLSS   BT                 
      9.04617235E-02    2     -1000024         6                       # BT2    -->  W1SS-  TP                 
      3.11333642E-05    2     -1000037         6                       # BT2    -->  W2SS-  TP                 
      8.44583410E-05    2          -24   1000006                       # BT2    -->  W-     TP1                
      2.14288547E-03    2          -24   2000006                       # BT2    -->  W-     TP2                
      1.07624941E-03    2           23   1000005                       # BT2    -->  Z0     BT1                
      1.67004764E-03    2           25   1000005                       # BT2    -->  HL0    BT1                
      1.32460400E-01    2           36   1000005                       # BT2    -->  HA0    BT1                
      1.29745945E-01    2           35   1000005                       # BT2    -->  HH0    BT1                
      1.94401073E-03    2          -37   1000006                       # BT2    -->  H-     TP1                
      2.65513211E-01    2          -37   2000006                       # BT2    -->  H-     TP2                
#         PDG         Width
DECAY   2000006  2.27027802E+02   # TP2   decays
#          BR          NDA       ID1       ID2       ID3       ID4
      1.77034345E-02    2      1000024         5                       # TP2    -->  W1SS+  BT                 
      1.43727437E-01    2      1000037         5                       # TP2    -->  W2SS+  BT                 
      1.84464306E-01    2           23   1000006                       # TP2    -->  Z0     TP1                
      2.67577589E-01    2           25   1000006                       # TP2    -->  HL0    TP1                
      5.64956514E-04    2           35   1000006                       # TP2    -->  HH0    TP1                
      5.35698317E-04    2           36   1000006                       # TP2    -->  HA0    TP1                
      1.53174698E-01    2      1000022         6                       # TP2    -->  Z1SS   TP                 
      1.56867519E-01    2      1000023         6                       # TP2    -->  Z2SS   TP                 
      4.09117341E-03    2      1000025         6                       # TP2    -->  Z3SS   TP                 
      7.12932125E-02    2      1000035         6                       # TP2    -->  Z4SS   TP                 
#         PDG         Width
DECAY   1000011  4.98223267E+01   # EL-   decays
#          BR          NDA       ID1       ID2       ID3       ID4
      5.10954196E-05    2      1000022        11                       # EL-    -->  Z1SS   E-                 
      3.05370631E-05    2      1000023        11                       # EL-    -->  Z2SS   E-                 
      1.26135603E-01    2      1000025        11                       # EL-    -->  Z3SS   E-                 
      2.87718326E-01    2      1000035        11                       # EL-    -->  Z4SS   E-                 
      3.62997307E-05    2     -1000024        12                       # EL-    -->  W1SS-  NUE                
      5.86028218E-01    2     -1000037        12                       # EL-    -->  W2SS-  NUE                
#         PDG         Width
DECAY   1000013  4.98223267E+01   # MUL-  decays
#          BR          NDA       ID1       ID2       ID3       ID4
      5.10954196E-05    2      1000022        13                       # MUL-   -->  Z1SS   MU-                
      3.05370631E-05    2      1000023        13                       # MUL-   -->  Z2SS   MU-                
      1.26135603E-01    2      1000025        13                       # MUL-   -->  Z3SS   MU-                
      2.87718326E-01    2      1000035        13                       # MUL-   -->  Z4SS   MU-                
      3.62997307E-05    2     -1000024        14                       # MUL-   -->  W1SS-  NUM                
      5.86028218E-01    2     -1000037        14                       # MUL-   -->  W2SS-  NUM                
#         PDG         Width
DECAY   1000015  2.41991558E+01   # TAU1- decays
#          BR          NDA       ID1       ID2       ID3       ID4
      4.58917506E-02    2      1000022        15                       # TAU1-  -->  Z1SS   TAU-               
      4.44394089E-02    2      1000023        15                       # TAU1-  -->  Z2SS   TAU-               
      8.20326090E-01    2      1000025        15                       # TAU1-  -->  Z3SS   TAU-               
      1.57190607E-05    2      1000035        15                       # TAU1-  -->  Z4SS   TAU-               
      8.93174037E-02    2     -1000024        16                       # TAU1-  -->  W1SS-  NUT                
      9.71170630E-06    2     -1000037        16                       # TAU1-  -->  W2SS-  NUT                
#         PDG         Width
DECAY   1000012  4.98264465E+01   # NUEL  decays
#          BR          NDA       ID1       ID2       ID3       ID4
      7.15861795E-04    2      1000022        12                       # NUEL   -->  Z1SS   NUE                
      3.70285939E-04    2      1000023        12                       # NUEL   -->  Z2SS   NUE                
      1.20932564E-01    2      1000025        12                       # NUEL   -->  Z3SS   NUE                
      2.90953875E-01    2      1000035        12                       # NUEL   -->  Z4SS   NUE                
      1.81158283E-03    2      1000024        11                       # NUEL   -->  W1SS+  E-                 
      5.85215747E-01    2      1000037        11                       # NUEL   -->  W2SS+  E-                 
#         PDG         Width
DECAY   1000014  4.98264465E+01   # NUML  decays
#          BR          NDA       ID1       ID2       ID3       ID4
      7.15861795E-04    2      1000022        14                       # NUML   -->  Z1SS   NUM                
      3.70285939E-04    2      1000023        14                       # NUML   -->  Z2SS   NUM                
      1.20932564E-01    2      1000025        14                       # NUML   -->  Z3SS   NUM                
      2.90953875E-01    2      1000035        14                       # NUML   -->  Z4SS   NUM                
      1.81158283E-03    2      1000024        13                       # NUML   -->  W1SS+  MU-                
      5.85215747E-01    2      1000037        13                       # NUML   -->  W2SS+  MU-                
#         PDG         Width
DECAY   1000016  5.10819893E+01   # NUTL  decays
#          BR          NDA       ID1       ID2       ID3       ID4
      6.88858912E-04    2      1000022        16                       # NUTL   -->  Z1SS   NUT                
      3.56317643E-04    2      1000023        16                       # NUTL   -->  Z2SS   NUT                
      1.15965642E-01    2      1000025        16                       # NUTL   -->  Z3SS   NUT                
      2.75933772E-01    2      1000035        16                       # NUTL   -->  Z4SS   NUT                
      5.09730279E-02    2      1000024        15                       # NUTL   -->  W1SS+  TAU-               
      5.55237353E-01    2      1000037        15                       # NUTL   -->  W2SS+  TAU-               
      8.44996888E-04    2           24   1000015                       # NUTL   -->  W+     TAU1-              
#         PDG         Width
DECAY   2000011  2.08883762E+01   # ER-   decays
#          BR          NDA       ID1       ID2       ID3       ID4
      8.06594384E-04    2      1000022        11                       # ER-    -->  Z1SS   E-                 
      3.94732109E-04    2      1000023        11                       # ER-    -->  Z2SS   E-                 
      9.98784125E-01    2      1000025        11                       # ER-    -->  Z3SS   E-                 
      1.46455786E-05    2      1000035        11                       # ER-    -->  Z4SS   E-                 
#         PDG         Width
DECAY   2000013  2.08883762E+01   # MUR-  decays
#          BR          NDA       ID1       ID2       ID3       ID4
      8.06594384E-04    2      1000022        13                       # MUR-   -->  Z1SS   MU-                
      3.94732109E-04    2      1000023        13                       # MUR-   -->  Z2SS   MU-                
      9.98784125E-01    2      1000025        13                       # MUR-   -->  Z3SS   MU-                
      1.46455786E-05    2      1000035        13                       # MUR-   -->  Z4SS   MU-                
#         PDG         Width
DECAY   2000015  5.10215034E+01   # TAU2- decays
#          BR          NDA       ID1       ID2       ID3       ID4
      2.49091294E-02    2      1000022        15                       # TAU2-  -->  Z1SS   TAU-               
      2.44167037E-02    2      1000023        15                       # TAU2-  -->  Z2SS   TAU-               
      1.21038243E-01    2      1000025        15                       # TAU2-  -->  Z3SS   TAU-               
      2.72925794E-01    2      1000035        15                       # TAU2-  -->  Z4SS   TAU-               
      2.32877828E-05    2     -1000024        16                       # TAU2-  -->  W1SS-  NUT                
      5.56134522E-01    2     -1000037        16                       # TAU2-  -->  W2SS-  NUT                
      4.20319702E-04    2           23   1000015                       # TAU2-  -->  Z0     TAU1-              
      1.31944078E-04    2           25   1000015                       # TAU2-  -->  HL0    TAU1-              
#         PDG         Width
DECAY   1000023  5.78041504E-10   # Z2SS  decays
#          BR          NDA       ID1       ID2       ID3       ID4
      2.04119459E-01    2      1000022        22                       # Z2SS   -->  Z1SS   GM                 
      1.34663269E-01    3      1000022         2        -2             # Z2SS   -->  Z1SS   UP     UB          
      1.73649192E-01    3      1000022         1        -1             # Z2SS   -->  Z1SS   DN     DB          
      1.73649192E-01    3      1000022         3        -3             # Z2SS   -->  Z1SS   ST     SB          
      3.93922254E-02    3      1000022        11       -11             # Z2SS   -->  Z1SS   E-     E+          
      3.93922254E-02    3      1000022        13       -13             # Z2SS   -->  Z1SS   MU-    MU+         
      7.83781633E-02    3      1000022        12       -12             # Z2SS   -->  Z1SS   NUE    ANUE        
      7.83781633E-02    3      1000022        14       -14             # Z2SS   -->  Z1SS   NUM    ANUM        
      7.83781558E-02    3      1000022        16       -16             # Z2SS   -->  Z1SS   NUT    ANUT        
#         PDG         Width
DECAY   1000025  3.79580235E+00   # Z3SS  decays
#          BR          NDA       ID1       ID2       ID3       ID4
      7.41639212E-08    2      1000022        22                       # Z3SS   -->  Z1SS   GM                 
      7.22252196E-08    2      1000023        22                       # Z3SS   -->  Z2SS   GM                 
      2.08677083E-01    2      1000024       -24                       # Z3SS   -->  W1SS+  W-                 
      2.08677083E-01    2     -1000024        24                       # Z3SS   -->  W1SS-  W+                 
      3.92114259E-02    2      1000024       -37                       # Z3SS   -->  W1SS+  H-                 
      3.92114259E-02    2     -1000024        37                       # Z3SS   -->  W1SS-  H+                 
      6.61901310E-02    2      1000022        23                       # Z3SS   -->  Z1SS   Z0                 
      1.41012222E-01    2      1000023        23                       # Z3SS   -->  Z2SS   Z0                 
      1.31860162E-10    3      1000022         2        -2             # Z3SS   -->  Z1SS   UP     UB          
      2.58112681E-11    3      1000022         1        -1             # Z3SS   -->  Z1SS   DN     DB          
      2.58112681E-11    3      1000022         3        -3             # Z3SS   -->  Z1SS   ST     SB          
      1.31860162E-10    3      1000022         4        -4             # Z3SS   -->  Z1SS   CH     CB          
      5.85852478E-09    3      1000022         5        -5             # Z3SS   -->  Z1SS   BT     BB          
      1.19956889E-09    3      1000022        11       -11             # Z3SS   -->  Z1SS   E-     E+          
      1.19956889E-09    3      1000022        13       -13             # Z3SS   -->  Z1SS   MU-    MU+         
      1.18103287E-07    3      1000022        15       -15             # Z3SS   -->  Z1SS   TAU-   TAU+        
      3.16748017E-10    3      1000022        12       -12             # Z3SS   -->  Z1SS   NUE    ANUE        
      3.16748017E-10    3      1000022        14       -14             # Z3SS   -->  Z1SS   NUM    ANUM        
      3.34808070E-10    3      1000022        16       -16             # Z3SS   -->  Z1SS   NUT    ANUT        
      4.36101710E-11    3      1000023         2        -2             # Z3SS   -->  Z2SS   UP     UB          
      8.89870642E-12    3      1000023         1        -1             # Z3SS   -->  Z2SS   DN     DB          
      8.89870642E-12    3      1000023         3        -3             # Z3SS   -->  Z2SS   ST     SB          
      4.36101710E-11    3      1000023         4        -4             # Z3SS   -->  Z2SS   CH     CB          
      5.69919889E-09    3      1000023         5        -5             # Z3SS   -->  Z2SS   BT     BB          
      3.97297556E-10    3      1000023        11       -11             # Z3SS   -->  Z2SS   E-     E+          
      3.97297556E-10    3      1000023        13       -13             # Z3SS   -->  Z2SS   MU-    MU+         
      1.14042457E-07    3      1000023        15       -15             # Z3SS   -->  Z2SS   TAU-   TAU+        
      1.10196470E-10    3      1000023        12       -12             # Z3SS   -->  Z2SS   NUE    ANUE        
      1.10196470E-10    3      1000023        14       -14             # Z3SS   -->  Z2SS   NUM    ANUM        
      1.16500073E-10    3      1000023        16       -16             # Z3SS   -->  Z2SS   NUT    ANUT        
      1.48604125E-01    2      1000022        25                       # Z3SS   -->  Z1SS   HL0                
      2.62084212E-02    2      1000022        35                       # Z3SS   -->  Z1SS   HH0                
      1.20776109E-02    2      1000022        36                       # Z3SS   -->  Z1SS   HA0                
      7.25329816E-02    2      1000023        25                       # Z3SS   -->  Z2SS   HL0                
      1.09925391E-02    2      1000023        35                       # Z3SS   -->  Z2SS   HH0                
      2.66046114E-02    2      1000023        36                       # Z3SS   -->  Z2SS   HA0                
#         PDG         Width
DECAY   1000035  3.55046806E+01   # Z4SS  decays
#          BR          NDA       ID1       ID2       ID3       ID4
      4.23734406E-07    2      1000022        22                       # Z4SS   -->  Z1SS   GM                 
      6.42919872E-07    2      1000023        22                       # Z4SS   -->  Z2SS   GM                 
      5.10518683E-10    2      1000025        22                       # Z4SS   -->  Z3SS   GM                 
      1.48716554E-01    2      1000024       -24                       # Z4SS   -->  W1SS+  W-                 
      1.48716554E-01    2     -1000024        24                       # Z4SS   -->  W1SS-  W+                 
      1.02343962E-01    2      1000024       -37                       # Z4SS   -->  W1SS+  H-                 
      1.02343962E-01    2     -1000024        37                       # Z4SS   -->  W1SS-  H+                 
      9.81793164E-07    3     -1000037         2        -1             # Z4SS   -->  W2SS-  UP     DB          
      3.27264416E-07    3     -1000037        12       -11             # Z4SS   -->  W2SS-  NUE    E+          
      3.27264416E-07    3     -1000037        14       -13             # Z4SS   -->  W2SS-  NUM    MU+         
      9.81793164E-07    3      1000037         1        -2             # Z4SS   -->  W2SS+  DN     UB          
      3.27264416E-07    3      1000037        11       -12             # Z4SS   -->  W2SS+  E-     ANUE        
      3.27264416E-07    3      1000037        13       -14             # Z4SS   -->  W2SS+  MU-    ANUM        
      9.81793164E-07    3     -1000037         4        -3             # Z4SS   -->  W2SS-  CH     SB          
      3.27264416E-07    3     -1000037        16       -15             # Z4SS   -->  W2SS-  NUT    TAU+        
      9.81793164E-07    3      1000037         3        -4             # Z4SS   -->  W2SS+  ST     CB          
      3.27264416E-07    3      1000037        15       -16             # Z4SS   -->  W2SS+  TAU-   ANUT        
      4.72221859E-02    2      1000022        23                       # Z4SS   -->  Z1SS   Z0                 
      9.28091556E-02    2      1000023        23                       # Z4SS   -->  Z2SS   Z0                 
      4.63911820E-05    2      1000025        23                       # Z4SS   -->  Z3SS   Z0                 
      6.39246100E-10    3      1000022         2        -2             # Z4SS   -->  Z1SS   UP     UB          
      1.40024348E-09    3      1000022         1        -1             # Z4SS   -->  Z1SS   DN     DB          
      1.40024348E-09    3      1000022         3        -3             # Z4SS   -->  Z1SS   ST     SB          
      6.39246100E-10    3      1000022         4        -4             # Z4SS   -->  Z1SS   CH     CB          
      3.35970299E-07    3      1000022         5        -5             # Z4SS   -->  Z1SS   BT     BB          
      2.07516879E-10    3      1000022        11       -11             # Z4SS   -->  Z1SS   E-     E+          
      2.07516879E-10    3      1000022        13       -13             # Z4SS   -->  Z1SS   MU-    MU+         
      1.00304568E-07    3      1000022        15       -15             # Z4SS   -->  Z1SS   TAU-   TAU+        
      2.93282754E-09    3      1000022        12       -12             # Z4SS   -->  Z1SS   NUE    ANUE        
      2.93282754E-09    3      1000022        14       -14             # Z4SS   -->  Z1SS   NUM    ANUM        
      3.11221005E-09    3      1000022        16       -16             # Z4SS   -->  Z1SS   NUT    ANUT        
      2.77769724E-10    3      1000023         2        -2             # Z4SS   -->  Z2SS   UP     UB          
      5.88147586E-10    3      1000023         1        -1             # Z4SS   -->  Z2SS   DN     DB          
      5.88147586E-10    3      1000023         3        -3             # Z4SS   -->  Z2SS   ST     SB          
      2.77769724E-10    3      1000023         4        -4             # Z4SS   -->  Z2SS   CH     CB          
      3.25961309E-07    3      1000023         5        -5             # Z4SS   -->  Z2SS   BT     BB          
      9.96464300E-11    3      1000023        11       -11             # Z4SS   -->  Z2SS   E-     E+          
      9.96464300E-11    3      1000023        13       -13             # Z4SS   -->  Z2SS   MU-    MU+         
      9.78992318E-08    3      1000023        15       -15             # Z4SS   -->  Z2SS   TAU-   TAU+        
      1.21894039E-09    3      1000023        12       -12             # Z4SS   -->  Z2SS   NUE    ANUE        
      1.21894039E-09    3      1000023        14       -14             # Z4SS   -->  Z2SS   NUM    ANUM        
      1.29407640E-09    3      1000023        16       -16             # Z4SS   -->  Z2SS   NUT    ANUT        
      9.52814538E-09    3      1000025         2        -2             # Z4SS   -->  Z3SS   UP     UB          
      8.41540171E-09    3      1000025         1        -1             # Z4SS   -->  Z3SS   DN     DB          
      8.41540171E-09    3      1000025         3        -3             # Z4SS   -->  Z3SS   ST     SB          
      9.52814538E-09    3      1000025         4        -4             # Z4SS   -->  Z3SS   CH     CB          
      2.43314933E-08    3      1000025         5        -5             # Z4SS   -->  Z3SS   BT     BB          
      1.02340628E-07    3      1000025        11       -11             # Z4SS   -->  Z3SS   E-     E+          
      1.02340628E-07    3      1000025        13       -13             # Z4SS   -->  Z3SS   MU-    MU+         
      1.09122169E-07    3      1000025        15       -15             # Z4SS   -->  Z3SS   TAU-   TAU+        
      9.89816940E-08    3      1000025        12       -12             # Z4SS   -->  Z3SS   NUE    ANUE        
      9.89816940E-08    3      1000025        14       -14             # Z4SS   -->  Z3SS   NUM    ANUM        
      1.05336710E-07    3      1000025        16       -16             # Z4SS   -->  Z3SS   NUT    ANUT        
      9.34532210E-02    2      1000022        25                       # Z4SS   -->  Z1SS   HL0                
      5.27417213E-02    2      1000022        35                       # Z4SS   -->  Z1SS   HH0                
      5.17242029E-02    2      1000022        36                       # Z4SS   -->  Z1SS   HA0                
      5.67762107E-02    2      1000023        25                       # Z4SS   -->  Z2SS   HL0                
      5.04498966E-02    2      1000023        35                       # Z4SS   -->  Z2SS   HH0                
      5.20597920E-02    2      1000023        36                       # Z4SS   -->  Z2SS   HA0                
      5.84422785E-04    2      1000025        25                       # Z4SS   -->  Z3SS   HL0                
      2.97866950E-06    2      1000025        35                       # Z4SS   -->  Z3SS   HH0                
      3.94977093E-07    2      1000025        36                       # Z4SS   -->  Z3SS   HA0                
#         PDG         Width
DECAY   1000024  4.31795932E-08   # W1SS+ decays
#          BR          NDA       ID1       ID2       ID3       ID4
      3.17086190E-01    3      1000022         2        -1             # W1SS+  -->  Z1SS   UP     DB          
      3.17086190E-01    3      1000022         4        -3             # W1SS+  -->  Z1SS   CH     SB          
      1.05695434E-01    3      1000022       -11        12             # W1SS+  -->  Z1SS   E+     NUE         
      1.05695434E-01    3      1000022       -13        14             # W1SS+  -->  Z1SS   MU+    NUM         
      1.05697222E-01    3      1000022       -15        16             # W1SS+  -->  Z1SS   TAU+   NUT         
      1.62464716E-02    3      1000023         2        -1             # W1SS+  -->  Z2SS   UP     DB          
      1.62464716E-02    3      1000023         4        -3             # W1SS+  -->  Z2SS   CH     SB          
      5.41549083E-03    3      1000023       -11        12             # W1SS+  -->  Z2SS   E+     NUE         
      5.41549083E-03    3      1000023       -13        14             # W1SS+  -->  Z2SS   MU+    NUM         
      5.41556301E-03    3      1000023       -15        16             # W1SS+  -->  Z2SS   TAU+   NUT         
#         PDG         Width
DECAY   1000037  3.41781311E+01   # W2SS+ decays
#          BR          NDA       ID1       ID2       ID3       ID4
      1.60980362E-09    3      1000022         2        -1             # W2SS+  -->  Z1SS   UP     DB          
      1.60980362E-09    3      1000022         4        -3             # W2SS+  -->  Z1SS   CH     SB          
      2.60463162E-09    3      1000022       -11        12             # W2SS+  -->  Z1SS   E+     NUE         
      2.60463162E-09    3      1000022       -13        14             # W2SS+  -->  Z1SS   MU+    NUM         
      1.01765302E-07    3      1000022       -15        16             # W2SS+  -->  Z1SS   TAU+   NUT         
      1.39286727E-01    2      1000022        24                       # W2SS+  -->  Z1SS   W+                 
      1.06097862E-01    2      1000022        37                       # W2SS+  -->  Z1SS   H+                 
      1.05618025E-09    3      1000023         2        -1             # W2SS+  -->  Z2SS   UP     DB          
      1.05618025E-09    3      1000023         4        -3             # W2SS+  -->  Z2SS   CH     SB          
      1.52189616E-09    3      1000023       -11        12             # W2SS+  -->  Z2SS   E+     NUE         
      1.52189616E-09    3      1000023       -13        14             # W2SS+  -->  Z2SS   MU+    NUM         
      9.83856481E-08    3      1000023       -15        16             # W2SS+  -->  Z2SS   TAU+   NUT         
      1.35857731E-01    2      1000023        24                       # W2SS+  -->  Z2SS   W+                 
      1.03688486E-01    2      1000023        37                       # W2SS+  -->  Z2SS   H+                 
      1.66479754E-08    3      1000025         2        -1             # W2SS+  -->  Z3SS   UP     DB          
      1.66479754E-08    3      1000025         4        -3             # W2SS+  -->  Z3SS   CH     SB          
      1.86470928E-07    3      1000025       -11        12             # W2SS+  -->  Z3SS   E+     NUE         
      1.86470928E-07    3      1000025       -13        14             # W2SS+  -->  Z3SS   MU+    NUM         
      1.98606941E-07    3      1000025       -15        16             # W2SS+  -->  Z3SS   TAU+   NUT         
      5.80305606E-03    2      1000025        24                       # W2SS+  -->  Z3SS   W+                 
      2.90930529E-06    2      1000025        37                       # W2SS+  -->  Z3SS   H+                 
      1.45551533E-01    2      1000024        23                       # W2SS+  -->  W1SS+  Z0                 
      5.43593393E-09    3      1000024         1        -1             # W2SS+  -->  W1SS+  DN     DB          
      5.43593393E-09    3      1000024         3        -3             # W2SS+  -->  W1SS+  ST     SB          
      1.09129081E-10    3      1000024         2        -2             # W2SS+  -->  W1SS+  UP     UB          
      1.09129081E-10    3      1000024         4        -4             # W2SS+  -->  W1SS+  CH     CB          
      1.30383704E-10    3      1000024        12       -12             # W2SS+  -->  W1SS+  NUE    ANUE        
      1.30383704E-10    3      1000024        14       -14             # W2SS+  -->  W1SS+  NUM    ANUM        
      2.71997230E-10    3      1000024        16       -16             # W2SS+  -->  W1SS+  NUT    ANUT        
      6.48443699E-09    3      1000024        11       -11             # W2SS+  -->  W1SS+  E-     E+          
      6.48443699E-09    3      1000024        13       -13             # W2SS+  -->  W1SS+  MU-    MU+         
      6.88144963E-09    3      1000024        15       -15             # W2SS+  -->  W1SS+  TAU-   TAU+        
      1.54600054E-01    2      1000024        25                       # W2SS+  -->  W1SS+  HL0                
      1.04252882E-01    2      1000024        35                       # W2SS+  -->  W1SS+  HH0                
      1.04858011E-01    2      1000024        36                       # W2SS+  -->  W1SS+  HA0                
#         PDG         Width
DECAY        25  3.96768097E-03   # HL0   decays
#          BR          NDA       ID1       ID2       ID3       ID4
      5.62763214E-09    2           11       -11                       # HL0    -->  E-     E+                 
      2.37607790E-04    2           13       -13                       # HL0    -->  MU-    MU+                
      6.79727867E-02    2           15       -15                       # HL0    -->  TAU-   TAU+               
      7.05419234E-06    2            1        -1                       # HL0    -->  DN     DB                 
      2.85024778E-03    2            3        -3                       # HL0    -->  ST     SB                 
      6.10707700E-01    2            5        -5                       # HL0    -->  BT     BB                 
      2.15333398E-06    2            2        -2                       # HL0    -->  UP     UB                 
      4.00051773E-02    2            4        -4                       # HL0    -->  CH     CB                 
      2.65797554E-03    2           22        22                       # HL0    -->  GM     GM                 
      5.29715531E-02    2           21        21                       # HL0    -->  GL     GL                 
      1.11170905E-02    3           24        11       -12             # HL0    -->  W+     E-     ANUE        
      1.11170905E-02    3           24        13       -14             # HL0    -->  W+     MU-    ANUM        
      1.11170905E-02    3           24        15       -16             # HL0    -->  W+     TAU-   ANUT        
      3.33512686E-02    3           24        -2         1             # HL0    -->  W+     UB     DN          
      3.33512686E-02    3           24        -4         3             # HL0    -->  W+     CB     ST          
      1.11170905E-02    3          -24       -11        12             # HL0    -->  W-     E+     NUE         
      1.11170905E-02    3          -24       -13        14             # HL0    -->  W-     MU+    NUM         
      1.11170905E-02    3          -24       -15        16             # HL0    -->  W-     TAU+   NUT         
      3.33512686E-02    3          -24         2        -1             # HL0    -->  W-     UP     DB          
      3.33512686E-02    3          -24         4        -3             # HL0    -->  W-     CH     SB          
      1.53741601E-03    3           23        12       -12             # HL0    -->  Z0     NUE    ANUE        
      1.53741601E-03    3           23        14       -14             # HL0    -->  Z0     NUM    ANUM        
      1.53741601E-03    3           23        16       -16             # HL0    -->  Z0     NUT    ANUT        
      7.73766078E-04    3           23        11       -11             # HL0    -->  Z0     E-     E+          
      7.73766078E-04    3           23        13       -13             # HL0    -->  Z0     MU-    MU+         
      7.73766078E-04    3           23        15       -15             # HL0    -->  Z0     TAU-   TAU+        
      2.65085674E-03    3           23         2        -2             # HL0    -->  Z0     UP     UB          
      2.65085674E-03    3           23         4        -4             # HL0    -->  Z0     CH     CB          
      3.41495685E-03    3           23         1        -1             # HL0    -->  Z0     DN     DB          
      3.41495685E-03    3           23         3        -3             # HL0    -->  Z0     ST     SB          
      3.41495685E-03    3           23         5        -5             # HL0    -->  Z0     BT     BB          
#         PDG         Width
DECAY        35  3.55128789E+00   # HH0   decays
#          BR          NDA       ID1       ID2       ID3       ID4
      1.08363540E-08    2           11       -11                       # HH0    -->  E-     E+                 
      4.57530376E-04    2           13       -13                       # HH0    -->  MU-    MU+                
      1.31041273E-01    2           15       -15                       # HH0    -->  TAU-   TAU+               
      1.32745827E-05    2            1        -1                       # HH0    -->  DN     DB                 
      5.36360312E-03    2            3        -3                       # HH0    -->  ST     SB                 
      7.99107313E-01    2            5        -5                       # HH0    -->  BT     BB                 
      8.79435968E-11    2            2        -2                       # HH0    -->  UP     UB                 
      1.23850884E-06    2            4        -4                       # HH0    -->  CH     CB                 
      5.64978421E-02    2            6        -6                       # HH0    -->  TP     TB                 
      1.87035340E-07    2           22        22                       # HH0    -->  GM     GM                 
      2.48093547E-05    2           21        21                       # HH0    -->  GL     GL                 
      2.24685704E-04    2           24       -24                       # HH0    -->  W+     W-                 
      1.14076553E-04    2           23        23                       # HH0    -->  Z0     Z0                 
      1.39398815E-03    2      1000022   1000022                       # HH0    -->  Z1SS   Z1SS               
      1.31901426E-04    2      1000022   1000023                       # HH0    -->  Z1SS   Z2SS               
      9.20066494E-04    2      1000023   1000023                       # HH0    -->  Z2SS   Z2SS               
      3.87071911E-03    2      1000024  -1000024                       # HH0    -->  W1SS+  W1SS-              
      8.37382569E-04    2           25        25                       # HH0    -->  HL0    HL0                
#         PDG         Width
DECAY        36  3.54108620E+00   # HA0   decays
#          BR          NDA       ID1       ID2       ID3       ID4
      1.07978861E-08    2           11       -11                       # HA0    -->  E-     E+                 
      4.55906207E-04    2           13       -13                       # HA0    -->  MU-    MU+                
      1.30577713E-01    2           15       -15                       # HA0    -->  TAU-   TAU+               
      1.32281875E-05    2            1        -1                       # HA0    -->  DN     DB                 
      5.34485793E-03    2            3        -3                       # HA0    -->  ST     SB                 
      7.96350121E-01    2            5        -5                       # HA0    -->  BT     BB                 
      8.36069200E-11    2            2        -2                       # HA0    -->  UP     UB                 
      1.17836214E-06    2            4        -4                       # HA0    -->  CH     CB                 
      5.97067438E-02    2            6        -6                       # HA0    -->  TP     TB                 
      3.05094233E-07    2           22        22                       # HA0    -->  GM     GM                 
      7.74742439E-05    2           21        21                       # HA0    -->  GL     GL                 
      1.99951185E-03    2      1000022   1000022                       # HA0    -->  Z1SS   Z1SS               
      1.92890129E-05    2      1000022   1000023                       # HA0    -->  Z1SS   Z2SS               
      7.72827188E-04    2      1000023   1000023                       # HA0    -->  Z2SS   Z2SS               
      4.46478231E-03    2      1000024  -1000024                       # HA0    -->  W1SS+  W1SS-              
      2.15993190E-04    2           25        23                       # HA0    -->  HL0    Z0                 
#         PDG         Width
DECAY        37  3.11856484E+00   # H+    decays
#          BR          NDA       ID1       ID2       ID3       ID4
      1.23004327E-08    2           12       -11                       # H+     -->  NUE    E+                 
      5.19346504E-04    2           14       -13                       # H+     -->  NUM    MU+                
      1.48747861E-01    2           16       -15                       # H+     -->  NUT    TAU+               
      1.38507412E-05    2            2        -1                       # H+     -->  UP     DB                 
      5.59757743E-03    2            4        -3                       # H+     -->  CH     SB                 
      8.44587505E-01    2            6        -5                       # H+     -->  TP     BB                 
      2.64152150E-05    2      1000024   1000022                       # H+     -->  W1SS+  Z1SS               
      2.61475652E-04    2      1000024   1000023                       # H+     -->  W1SS+  Z2SS               
      2.45957315E-04    2           25        24                       # H+     -->  HL0    W+                 
