#  ISAJET SUSY parameters in SUSY Les Houches Accord 2 format
#  Created by ISALHA 2.0 Last revision: H Baer 27 May 2014
Block SPINFO   # Program information
     1   ISASUGRA/ISASUSY from ISAJET   # Spectrum Calculator
     2   7.87   18-JUL-2017 13:55:55    # Version number
Block MODSEL   # Model selection
     1    13   # Non-universal supergravity model                  
Block SMINPUTS   # Standard Model inputs
     1     1.28000000E+02   # alpha_em^(-1)
     2     1.16570000E-05   # G_Fermi
     3     1.19999997E-01   # alpha_s(M_Z)
     4     9.11699982E+01   # m_{Z}(pole)
     5     4.19999981E+00   # m_{b}(m_{b})
     6     1.72500000E+02   # m_{top}(pole)
     7     1.77699995E+00   # m_{tau}(pole)
Block MINPAR   # SUSY breaking input parameters
     1     5.00000000E+03   # m_0
     2     1.20000000E+03   # m_{1/2}
     3     1.50000000E+01   # tan(beta)
     4     1.00000000E+00   # sign(mu)
     5    -8.00000000E+03   # A_0
Block EXTPAR   # Non-universal SUSY breaking parameters
     0     1.56812735E+16   # Input scale
    21     2.66185450E+06   # Down type Higgs mass squared
    22     4.15317800E+07   #  Up  type Higgs mass squared
Block MASS   # Scalar and gaugino mass spectrum
#  PDG code   mass                 particle
         6     1.72500000E+02   #  top            
        24     8.04229965E+01   #  W^+
        25     1.24898956E+02   #  h^0            
        35     1.00666669E+03   #  H^0            
        36     1.00000000E+03   #  A^0            
        37     1.00322870E+03   #  H^+            
   1000001     5.44074951E+03   #  dnl            
   1000002     5.44015479E+03   #  upl            
   1000003     5.44074951E+03   #  stl            
   1000004     5.44015479E+03   #  chl            
   1000005     3.91736890E+03   #  b1             
   1000006     1.83500916E+03   #  t1             
   1000011     5.14806348E+03   #  el-            
   1000012     5.15253955E+03   #  nuel           
   1000013     5.14806348E+03   #  mul-           
   1000014     5.15253955E+03   #  numl           
   1000015     4.65461426E+03   #  tau1           
   1000016     5.07762891E+03   #  nutl           
   1000021     2.83183350E+03   #  glss           
   1000022     1.98655685E+02   #  z1ss           
   1000023    -2.08886276E+02   #  z2ss           
   1000024     2.10546097E+02   #  w1ss           
   1000025     5.39416382E+02   #  z3ss           
   1000035     1.03139148E+03   #  z4ss           
   1000037     1.01751465E+03   #  w2ss           
   1000039     1.00000002E+20   #  gvss
   2000001     5.38458105E+03   #  dnr            
   2000002     5.56383154E+03   #  upr            
   2000003     5.38458105E+03   #  str            
   2000004     5.56383203E+03   #  chr            
   2000005     5.20502051E+03   #  b2             
   2000006     3.89392407E+03   #  t2             
   2000011     4.81914697E+03   #  er-            
   2000013     4.81914697E+03   #  mur-           
   2000015     5.07160449E+03   #  tau2           
Block ALPHA   # Effective Higgs mixing parameter
         -6.81236386E-02   # alpha
Block STOPMIX   # stop mixing matrix
  1  1     5.72409667E-02   # O_{11}
  1  2     9.98360395E-01   # O_{12}
  2  1    -9.98360395E-01   # O_{21}
  2  2     5.72409667E-02   # O_{22}
Block SBOTMIX   # sbottom mixing matrix
  1  1     9.99993145E-01   # O_{11}
  1  2     3.69616691E-03   # O_{12}
  2  1    -3.69616691E-03   # O_{21}
  2  2     9.99993145E-01   # O_{22}
Block STAUMIX   # stau mixing matrix
  1  1     8.00048281E-03   # O_{11}
  1  2     9.99967992E-01   # O_{12}
  2  1    -9.99967992E-01   # O_{21}
  2  2     8.00048281E-03   # O_{22}
Block NMIX   # neutralino mixing matrix
  1  1     9.23883468E-02   #
  1  2    -7.18257874E-02   #
  1  3     7.12656140E-01   #
  1  4    -6.91684067E-01   #
  2  1    -3.76669168E-02   #
  2  2     4.02737036E-02   #
  2  3     6.99999928E-01   #
  2  4     7.12010860E-01   #
  3  1     9.94962633E-01   #
  3  2     1.79499649E-02   #
  3  3    -3.94411683E-02   #
  3  4     9.03964341E-02   #
  4  1     9.74134076E-03   #
  4  2    -9.96442020E-01   #
  4  3    -2.37881299E-02   #
  4  4     8.02641734E-02   #
Block UMIX   # chargino U mixing matrix
  1  1    -3.23962830E-02   # U_{11}
  1  2     9.99475121E-01   # U_{12}
  2  1    -9.99475121E-01   # U_{21}
  2  2    -3.23962830E-02   # U_{22}
Block VMIX   # chargino V mixing matrix
  1  1    -1.12506017E-01   # V_{11}
  1  2     9.93651032E-01   # V_{12}
  2  1    -9.93651032E-01   # V_{21}
  2  2    -1.12506017E-01   # V_{22}
Block GAUGE Q=  2.65503369E+03   #
     1     3.57518882E-01   # g`
     2     6.52401567E-01   # g_2
     3     1.21964788E+00   # g_3
Block YU Q=  2.65503369E+03   #
  3  3     8.20198536E-01   # y_t
Block YD Q=  2.65503369E+03   #
  3  3     1.90631136E-01   # y_b
Block YE Q=  2.65503369E+03   #
  3  3     1.50552362E-01   # y_tau
Block HMIX Q=  2.65503369E+03   # Higgs mixing parameters
     1     2.00000000E+02   # mu(Q)
     2     1.43442030E+01   # tan(beta)(Q)
     3     2.52297333E+02   # Higgs vev at Q
     4     1.00000000E+06   # m_A^2(Q)
Block MSOFT Q=  2.65503369E+03   # DRbar SUSY breaking parameters
     1     5.34118347E+02   # M_1(Q)          
     2     9.72085938E+02   # M_2(Q)          
     3     2.53171533E+03   # M_3(Q)          
    21     9.30086625E+05   # MHd^2(Q)        
    22    -8.53768984E+04   # MHu^2(Q)        
    31     5.13109229E+03   # MeL(Q)          
    32     5.13109229E+03   # MmuL(Q)         
    33     5.05821143E+03   # MtauL(Q)        
    34     4.81549023E+03   # MeR(Q)          
    35     4.81549023E+03   # MmuR(Q)         
    36     4.65253174E+03   # MtauR(Q)        
    41     5.32212500E+03   # MqL1(Q)         
    42     5.32212500E+03   # MqL2(Q)         
    43     3.84052661E+03   # MqL3(Q)         
    44     5.44552295E+03   # MuR(Q)          
    45     5.44552295E+03   # McR(Q)          
    46     1.83547839E+03   # MtR(Q)          
    47     5.26625391E+03   # MdR(Q)          
    48     5.26625391E+03   # MsR(Q)          
    49     5.14438428E+03   # MbR(Q)          
Block AU Q=  2.65503369E+03   #
  1  1    -4.95979688E+03   # A_u
  2  2    -4.95979688E+03   # A_c
  3  3    -4.95979688E+03   # A_t
Block AD Q=  2.65503369E+03   #
  1  1    -9.59141113E+03   # A_d
  2  2    -9.59141113E+03   # A_s
  3  3    -9.59141113E+03   # A_b
Block AE Q=  2.65503369E+03   #
  1  1    -8.32637793E+03   # A_e
  2  2    -8.32637793E+03   # A_mu
  3  3    -8.32637793E+03   # A_tau
#  ISAJET decay tables in SUSY Les Houches accord format
#  Created by ISALHD. Last revision: C. Balazs, 2005 May 25
Block DCINFO                           # Program information
     1   ISASUGRA from ISAJET          # Spectrum Calculator
     2   7.87   18-JUL-2017 13:55:55   # Version number
#         PDG         Width
DECAY         6  1.46776152E+00   # TP    decays
#          BR          NDA       ID1       ID2       ID3       ID4
      3.33333313E-01    3            2        -1         5             # TP     -->  UP     DB     BT          
      3.33333313E-01    3            4        -3         5             # TP     -->  CH     SB     BT          
      1.11111097E-01    3          -11        12         5             # TP     -->  E+     NUE    BT          
      1.11111097E-01    3          -13        14         5             # TP     -->  MU+    NUM    BT          
      1.11111097E-01    3          -15        16         5             # TP     -->  TAU+   NUT    BT          
#         PDG         Width
DECAY   1000021  1.92063274E+01   # GLSS  decays
#          BR          NDA       ID1       ID2       ID3       ID4
      4.49523981E-07    3      1000024         1        -2             # GLSS   -->  W1SS+  DN     UB          
      4.49523981E-07    3     -1000024         2        -1             # GLSS   -->  W1SS-  UP     DB          
      4.49523981E-07    3      1000024         3        -4             # GLSS   -->  W1SS+  ST     CB          
      4.49523981E-07    3     -1000024         4        -3             # GLSS   -->  W1SS-  CH     SB          
      2.46453652E-04    3      1000024         5        -6             # GLSS   -->  W1SS+  BT     TB          
      2.46453652E-04    3     -1000024         6        -5             # GLSS   -->  W1SS-  TP     BB          
      3.69046575E-05    3      1000037         1        -2             # GLSS   -->  W2SS+  DN     UB          
      3.69046575E-05    3     -1000037         2        -1             # GLSS   -->  W2SS-  UP     DB          
      3.69046575E-05    3      1000037         3        -4             # GLSS   -->  W2SS+  ST     CB          
      3.69046575E-05    3     -1000037         4        -3             # GLSS   -->  W2SS-  CH     SB          
      1.96803405E-04    3      1000037         5        -6             # GLSS   -->  W2SS+  BT     TB          
      1.96803405E-04    3     -1000037         6        -5             # GLSS   -->  W2SS-  TP     BB          
      2.25938606E-06    2      1000022        21                       # GLSS   -->  Z1SS   GL                 
      2.47230389E-07    3      1000022         2        -2             # GLSS   -->  Z1SS   UP     UB          
      3.13479887E-07    3      1000022         1        -1             # GLSS   -->  Z1SS   DN     DB          
      3.13479887E-07    3      1000022         3        -3             # GLSS   -->  Z1SS   ST     SB          
      2.47230304E-07    3      1000022         4        -4             # GLSS   -->  Z1SS   CH     CB          
      2.56852691E-05    3      1000022         5        -5             # GLSS   -->  Z1SS   BT     BB          
      2.20867849E-04    3      1000022         6        -6             # GLSS   -->  Z1SS   TP     TB          
      2.37127119E-06    2      1000023        21                       # GLSS   -->  Z2SS   GL                 
      4.85625193E-08    3      1000023         2        -2             # GLSS   -->  Z2SS   UP     UB          
      6.53439329E-08    3      1000023         1        -1             # GLSS   -->  Z2SS   DN     DB          
      6.53439329E-08    3      1000023         3        -3             # GLSS   -->  Z2SS   ST     SB          
      4.85625158E-08    3      1000023         4        -4             # GLSS   -->  Z2SS   CH     CB          
      2.37295517E-05    3      1000023         5        -5             # GLSS   -->  Z2SS   BT     BB          
      2.32735023E-04    3      1000023         6        -6             # GLSS   -->  Z2SS   TP     TB          
      4.06516811E-08    2      1000025        21                       # GLSS   -->  Z3SS   GL                 
      1.63943168E-05    3      1000025         2        -2             # GLSS   -->  Z3SS   UP     UB          
      5.23995959E-06    3      1000025         1        -1             # GLSS   -->  Z3SS   DN     DB          
      5.23995959E-06    3      1000025         3        -3             # GLSS   -->  Z3SS   ST     SB          
      1.63943114E-05    3      1000025         4        -4             # GLSS   -->  Z3SS   CH     CB          
      9.42510906E-06    3      1000025         5        -5             # GLSS   -->  Z3SS   BT     BB          
      8.59789452E-06    3      1000025         6        -6             # GLSS   -->  Z3SS   TP     TB          
      3.23041185E-08    2      1000035        21                       # GLSS   -->  Z4SS   GL                 
      1.79859053E-05    3      1000035         2        -2             # GLSS   -->  Z4SS   UP     UB          
      1.81054147E-05    3      1000035         1        -1             # GLSS   -->  Z4SS   DN     DB          
      1.81054147E-05    3      1000035         3        -3             # GLSS   -->  Z4SS   ST     SB          
      1.79859053E-05    3      1000035         4        -4             # GLSS   -->  Z4SS   CH     CB          
      9.48579618E-05    3      1000035         5        -5             # GLSS   -->  Z4SS   BT     BB          
      9.79318720E-05    3      1000035         6        -6             # GLSS   -->  Z4SS   TP     TB          
      4.99064356E-01    2     -1000006         6                       # GLSS   -->  TB1    TP                 
      4.99064356E-01    2      1000006        -6                       # GLSS   -->  TP1    TB                 
#         PDG         Width
DECAY   1000002  2.15996597E+02   # UPL   decays
#          BR          NDA       ID1       ID2       ID3       ID4
      3.18680599E-04    2      1000022         2                       # UPL    -->  Z1SS   UP                 
      1.17728538E-04    2      1000023         2                       # UPL    -->  Z2SS   UP                 
      4.16745199E-03    2      1000025         2                       # UPL    -->  Z3SS   UP                 
      9.74828228E-02    2      1000035         2                       # UPL    -->  Z4SS   UP                 
      7.00278163E-01    2      1000021         2                       # UPL    -->  GLSS   UP                 
      2.67581409E-03    2      1000024         1                       # UPL    -->  W1SS+  DN                 
      1.94959298E-01    2      1000037         1                       # UPL    -->  W2SS+  DN                 
#         PDG         Width
DECAY   1000001  2.16003418E+02   # DNL   decays
#          BR          NDA       ID1       ID2       ID3       ID4
      8.32927995E-04    2      1000022         1                       # DNL    -->  Z1SS   DN                 
      2.35258020E-04    2      1000023         1                       # DNL    -->  Z2SS   DN                 
      2.80728051E-03    2      1000025         1                       # DNL    -->  Z3SS   DN                 
      9.81929675E-02    2      1000035         1                       # DNL    -->  Z4SS   DN                 
      7.00439751E-01    2      1000021         1                       # DNL    -->  GLSS   DN                 
      2.21885493E-04    2     -1000024         2                       # DNL    -->  W1SS-  UP                 
      1.97269931E-01    2     -1000037         2                       # DNL    -->  W2SS-  UP                 
#         PDG         Width
DECAY   1000003  2.16003418E+02   # STL   decays
#          BR          NDA       ID1       ID2       ID3       ID4
      8.32927995E-04    2      1000022         3                       # STL    -->  Z1SS   ST                 
      2.35258020E-04    2      1000023         3                       # STL    -->  Z2SS   ST                 
      2.80728051E-03    2      1000025         3                       # STL    -->  Z3SS   ST                 
      9.81929675E-02    2      1000035         3                       # STL    -->  Z4SS   ST                 
      7.00439751E-01    2      1000021         3                       # STL    -->  GLSS   ST                 
      2.21885435E-04    2     -1000024         4                       # STL    -->  W1SS-  CH                 
      1.97269917E-01    2     -1000037         4                       # STL    -->  W2SS-  CH                 
#         PDG         Width
DECAY   1000004  2.15996582E+02   # CHL   decays
#          BR          NDA       ID1       ID2       ID3       ID4
      3.18680628E-04    2      1000022         4                       # CHL    -->  Z1SS   CH                 
      1.17728545E-04    2      1000023         4                       # CHL    -->  Z2SS   CH                 
      4.16745199E-03    2      1000025         4                       # CHL    -->  Z3SS   CH                 
      9.74828228E-02    2      1000035         4                       # CHL    -->  Z4SS   CH                 
      7.00278163E-01    2      1000021         4                       # CHL    -->  GLSS   CH                 
      2.67581432E-03    2      1000024         3                       # CHL    -->  W1SS+  ST                 
      1.94959313E-01    2      1000037         3                       # CHL    -->  W2SS+  ST                 
#         PDG         Width
DECAY   1000005  2.05224960E+02   # BT1   decays
#          BR          NDA       ID1       ID2       ID3       ID4
      7.96787441E-03    2      1000022         5                       # BT1    -->  Z1SS   BT                 
      7.22225290E-03    2      1000023         5                       # BT1    -->  Z2SS   BT                 
      2.10521976E-03    2      1000025         5                       # BT1    -->  Z3SS   BT                 
      6.93499595E-02    2      1000035         5                       # BT1    -->  Z4SS   BT                 
      2.34339252E-01    2      1000021         5                       # BT1    -->  GLSS   BT                 
      2.39822432E-01    2     -1000024         6                       # BT1    -->  W1SS-  TP                 
      1.42600194E-01    2     -1000037         6                       # BT1    -->  W2SS-  TP                 
      2.96316326E-01    2          -24   1000006                       # BT1    -->  W-     TP1                
      2.76484963E-04    2          -37   1000006                       # BT1    -->  H-     TP1                
#         PDG         Width
DECAY   1000006  4.88978653E+01   # TP1   decays
#          BR          NDA       ID1       ID2       ID3       ID4
      2.23368779E-01    2      1000022         6                       # TP1    -->  Z1SS   TP                 
      2.35980108E-01    2      1000023         6                       # TP1    -->  Z2SS   TP                 
      7.23108053E-02    2      1000025         6                       # TP1    -->  Z3SS   TP                 
      4.88874211E-04    2      1000035         6                       # TP1    -->  Z4SS   TP                 
      4.66836363E-01    2      1000024         5                       # TP1    -->  W1SS+  BT                 
      1.01512088E-03    2      1000037         5                       # TP1    -->  W2SS+  BT                 
#         PDG         Width
DECAY   2000002  1.71823868E+02   # UPR   decays
#          BR          NDA       ID1       ID2       ID3       ID4
      6.23208238E-04    2      1000022         2                       # UPR    -->  Z1SS   UP                 
      1.03562321E-04    2      1000023         2                       # UPR    -->  Z2SS   UP                 
      7.11078271E-02    2      1000025         2                       # UPR    -->  Z3SS   UP                 
      6.47696379E-06    2      1000035         2                       # UPR    -->  Z4SS   UP                 
      9.28158939E-01    2      1000021         2                       # UPR    -->  GLSS   UP                 
#         PDG         Width
DECAY   2000001  1.50527618E+02   # DNR   decays
#          BR          NDA       ID1       ID2       ID3       ID4
      1.72085143E-04    2      1000022         1                       # DNR    -->  Z1SS   DN                 
      2.85959159E-05    2      1000023         1                       # DNR    -->  Z2SS   DN                 
      1.96130276E-02    2      1000025         1                       # DNR    -->  Z3SS   DN                 
      1.78017183E-06    2      1000035         1                       # DNR    -->  Z4SS   DN                 
      9.80184555E-01    2      1000021         1                       # DNR    -->  GLSS   DN                 
#         PDG         Width
DECAY   2000003  1.50527618E+02   # STR   decays
#          BR          NDA       ID1       ID2       ID3       ID4
      1.72085143E-04    2      1000022         3                       # STR    -->  Z1SS   ST                 
      2.85959159E-05    2      1000023         3                       # STR    -->  Z2SS   ST                 
      1.96130276E-02    2      1000025         3                       # STR    -->  Z3SS   ST                 
      1.78017183E-06    2      1000035         3                       # STR    -->  Z4SS   ST                 
      9.80184555E-01    2      1000021         3                       # STR    -->  GLSS   ST                 
#         PDG         Width
DECAY   2000004  1.71823837E+02   # CHR   decays
#          BR          NDA       ID1       ID2       ID3       ID4
      6.23208354E-04    2      1000022         4                       # CHR    -->  Z1SS   CH                 
      1.03562328E-04    2      1000023         4                       # CHR    -->  Z2SS   CH                 
      7.11078495E-02    2      1000025         4                       # CHR    -->  Z3SS   CH                 
      6.47696424E-06    2      1000035         4                       # CHR    -->  Z4SS   CH                 
      9.28158939E-01    2      1000021         4                       # CHR    -->  GLSS   CH                 
#         PDG         Width
DECAY   2000005  1.82152344E+02   # BT2   decays
#          BR          NDA       ID1       ID2       ID3       ID4
      1.10823242E-02    2      1000022         5                       # BT2    -->  Z1SS   BT                 
      1.06270323E-02    2      1000023         5                       # BT2    -->  Z2SS   BT                 
      1.56859104E-02    2      1000025         5                       # BT2    -->  Z3SS   BT                 
      2.25560580E-05    2      1000035         5                       # BT2    -->  Z4SS   BT                 
      7.43734241E-01    2      1000021         5                       # BT2    -->  GLSS   BT                 
      2.15265024E-02    2     -1000024         6                       # BT2    -->  W1SS-  TP                 
      4.00768913E-05    2     -1000037         6                       # BT2    -->  W2SS-  TP                 
      1.51296208E-05    2          -24   1000006                       # BT2    -->  W-     TP1                
      5.82368113E-04    2          -24   2000006                       # BT2    -->  W-     TP2                
      2.82029156E-04    2           23   1000005                       # BT2    -->  Z0     BT1                
      6.08367380E-04    2           25   1000005                       # BT2    -->  HL0    BT1                
      4.80850898E-02    2           36   1000005                       # BT2    -->  HA0    BT1                
      4.75738049E-02    2           35   1000005                       # BT2    -->  HH0    BT1                
      4.47308325E-04    2          -37   1000006                       # BT2    -->  H-     TP1                
      9.96872261E-02    2          -37   2000006                       # BT2    -->  H-     TP2                
#         PDG         Width
DECAY   2000006  2.17653244E+02   # TP2   decays
#          BR          NDA       ID1       ID2       ID3       ID4
      2.06890345E-01    2      1000021         6                       # TP2    -->  GLSS   TP                 
      1.36994533E-02    2      1000024         5                       # TP2    -->  W1SS+  BT                 
      1.30754873E-01    2      1000037         5                       # TP2    -->  W2SS+  BT                 
      1.37047425E-01    2           23   1000006                       # TP2    -->  Z0     TP1                
      2.16560066E-01    2           25   1000006                       # TP2    -->  HL0    TP1                
      1.44558158E-04    2           35   1000006                       # TP2    -->  HH0    TP1                
      1.30581248E-04    2           36   1000006                       # TP2    -->  HA0    TP1                
      1.07896820E-01    2      1000022         6                       # TP2    -->  Z1SS   TP                 
      1.14758432E-01    2      1000023         6                       # TP2    -->  Z2SS   TP                 
      5.42752910E-03    2      1000025         6                       # TP2    -->  Z3SS   TP                 
      6.66899607E-02    2      1000035         6                       # TP2    -->  Z4SS   TP                 
#         PDG         Width
DECAY   1000011  6.64135284E+01   # EL-   decays
#          BR          NDA       ID1       ID2       ID3       ID4
      1.44109916E-04    2      1000022        11                       # EL-    -->  Z1SS   E-                 
      1.24566679E-04    2      1000023        11                       # EL-    -->  Z2SS   E-                 
      1.01813085E-01    2      1000025        11                       # EL-    -->  Z3SS   E-                 
      2.95284867E-01    2      1000035        11                       # EL-    -->  Z4SS   E-                 
      6.82599144E-04    2     -1000024        12                       # EL-    -->  W1SS-  NUE                
      6.01950824E-01    2     -1000037        12                       # EL-    -->  W2SS-  NUE                
#         PDG         Width
DECAY   1000013  6.64135284E+01   # MUL-  decays
#          BR          NDA       ID1       ID2       ID3       ID4
      1.44109916E-04    2      1000022        13                       # MUL-   -->  Z1SS   MU-                
      1.24566679E-04    2      1000023        13                       # MUL-   -->  Z2SS   MU-                
      1.01813085E-01    2      1000025        13                       # MUL-   -->  Z3SS   MU-                
      2.95284867E-01    2      1000035        13                       # MUL-   -->  Z4SS   MU-                
      6.82599144E-04    2     -1000024        14                       # MUL-   -->  W1SS-  NUM                
      6.01950824E-01    2     -1000037        14                       # MUL-   -->  W2SS-  NUM                
#         PDG         Width
DECAY   1000015  2.74382229E+01   # TAU1- decays
#          BR          NDA       ID1       ID2       ID3       ID4
      4.82891016E-02    2      1000022        15                       # TAU1-  -->  Z1SS   TAU-               
      4.02300768E-02    2      1000023        15                       # TAU1-  -->  Z2SS   TAU-               
      8.31379592E-01    2      1000025        15                       # TAU1-  -->  Z3SS   TAU-               
      7.31515102E-05    2      1000035        15                       # TAU1-  -->  Z4SS   TAU-               
      8.00279975E-02    2     -1000024        16                       # TAU1-  -->  W1SS-  NUT                
      1.29351250E-07    2     -1000037        16                       # TAU1-  -->  W2SS-  NUT                
#         PDG         Width
DECAY   1000012  6.64979019E+01   # NUEL  decays
#          BR          NDA       ID1       ID2       ID3       ID4
      4.88815876E-03    2      1000022        12                       # NUEL   -->  Z1SS   NUE                
      1.20869838E-03    2      1000023        12                       # NUEL   -->  Z2SS   NUE                
      8.92492458E-02    2      1000025        12                       # NUEL   -->  Z3SS   NUE                
      3.01623076E-01    2      1000035        12                       # NUEL   -->  Z4SS   NUE                
      8.22915975E-03    2      1000024        11                       # NUEL   -->  W1SS+  E-                 
      5.94801664E-01    2      1000037        11                       # NUEL   -->  W2SS+  E-                 
#         PDG         Width
DECAY   1000014  6.64979019E+01   # NUML  decays
#          BR          NDA       ID1       ID2       ID3       ID4
      4.88815876E-03    2      1000022        14                       # NUML   -->  Z1SS   NUM                
      1.20869838E-03    2      1000023        14                       # NUML   -->  Z2SS   NUM                
      8.92492458E-02    2      1000025        14                       # NUML   -->  Z3SS   NUM                
      3.01623076E-01    2      1000035        14                       # NUML   -->  Z4SS   NUM                
      8.22915975E-03    2      1000024        13                       # NUML   -->  W1SS+  MU-                
      5.94801664E-01    2      1000037        13                       # NUML   -->  W2SS+  MU-                
#         PDG         Width
DECAY   1000016  6.77994003E+01   # NUTL  decays
#          BR          NDA       ID1       ID2       ID3       ID4
      4.72420314E-03    2      1000022        16                       # NUTL   -->  Z1SS   NUT                
      1.16814615E-03    2      1000023        16                       # NUTL   -->  Z2SS   NUT                
      8.62065107E-02    2      1000025        16                       # NUTL   -->  Z3SS   NUT                
      2.90809095E-01    2      1000035        16                       # NUTL   -->  Z4SS   NUT                
      4.32307087E-02    2      1000024        15                       # NUTL   -->  W1SS+  TAU-               
      5.73551416E-01    2      1000037        15                       # NUTL   -->  W2SS+  TAU-               
      3.09851428E-04    2           24   1000015                       # NUTL   -->  W+     TAU1-              
#         PDG         Width
DECAY   2000011  2.39061852E+01   # ER-   decays
#          BR          NDA       ID1       ID2       ID3       ID4
      8.72199610E-03    2      1000022        11                       # ER-    -->  Z1SS   E-                 
      1.44925702E-03    2      1000023        11                       # ER-    -->  Z2SS   E-                 
      9.89740133E-01    2      1000025        11                       # ER-    -->  Z3SS   E-                 
      8.85872214E-05    2      1000035        11                       # ER-    -->  Z4SS   E-                 
#         PDG         Width
DECAY   2000013  2.39061852E+01   # MUR-  decays
#          BR          NDA       ID1       ID2       ID3       ID4
      8.72199610E-03    2      1000022        13                       # MUR-   -->  Z1SS   MU-                
      1.44925702E-03    2      1000023        13                       # MUR-   -->  Z2SS   MU-                
      9.89740133E-01    2      1000025        13                       # MUR-   -->  Z3SS   MU-                
      8.85872214E-05    2      1000035        13                       # MUR-   -->  Z4SS   MU-                
#         PDG         Width
DECAY   2000015  6.76792450E+01   # TAU2- decays
#          BR          NDA       ID1       ID2       ID3       ID4
      1.79452933E-02    2      1000022        15                       # TAU2-  -->  Z1SS   TAU-               
      1.75079629E-02    2      1000023        15                       # TAU2-  -->  Z2SS   TAU-               
      9.84639153E-02    2      1000025        15                       # TAU2-  -->  Z3SS   TAU-               
      2.84772038E-01    2      1000035        15                       # TAU2-  -->  Z4SS   TAU-               
      5.84815862E-04    2     -1000024        16                       # TAU2-  -->  W1SS-  NUT                
      5.80518126E-01    2     -1000037        16                       # TAU2-  -->  W2SS-  NUT                
      1.48140170E-04    2           23   1000015                       # TAU2-  -->  Z0     TAU1-              
      5.97229155E-05    2           25   1000015                       # TAU2-  -->  HL0    TAU1-              
#         PDG         Width
DECAY   1000023  9.50625747E-08   # Z2SS  decays
#          BR          NDA       ID1       ID2       ID3       ID4
      2.28519365E-02    2      1000022        22                       # Z2SS   -->  Z1SS   GM                 
      1.37358993E-01    3      1000022         2        -2             # Z2SS   -->  Z1SS   UP     UB          
      1.77124724E-01    3      1000022         1        -1             # Z2SS   -->  Z1SS   DN     DB          
      1.77124724E-01    3      1000022         3        -3             # Z2SS   -->  Z1SS   ST     SB          
      1.37358993E-01    3      1000022         4        -4             # Z2SS   -->  Z1SS   CH     CB          
      4.01806422E-02    3      1000022        11       -11             # Z2SS   -->  Z1SS   E-     E+          
      4.01806422E-02    3      1000022        13       -13             # Z2SS   -->  Z1SS   MU-    MU+         
      2.79773641E-02    3      1000022        15       -15             # Z2SS   -->  Z1SS   TAU-   TAU+        
      7.99473152E-02    3      1000022        12       -12             # Z2SS   -->  Z1SS   NUE    ANUE        
      7.99473152E-02    3      1000022        14       -14             # Z2SS   -->  Z1SS   NUM    ANUM        
      7.99473301E-02    3      1000022        16       -16             # Z2SS   -->  Z1SS   NUT    ANUT        
#         PDG         Width
DECAY   1000025  1.15657520E+00   # Z3SS  decays
#          BR          NDA       ID1       ID2       ID3       ID4
      7.73942261E-08    2      1000022        22                       # Z3SS   -->  Z1SS   GM                 
      5.47489662E-08    2      1000023        22                       # Z3SS   -->  Z2SS   GM                 
      2.59751469E-01    2      1000024       -24                       # Z3SS   -->  W1SS+  W-                 
      2.59751469E-01    2     -1000024        24                       # Z3SS   -->  W1SS-  W+                 
      3.68421637E-02    2      1000022        23                       # Z3SS   -->  Z1SS   Z0                 
      2.10986987E-01    2      1000023        23                       # Z3SS   -->  Z2SS   Z0                 
      7.94910457E-11    3      1000022         2        -2             # Z3SS   -->  Z1SS   UP     UB          
      1.25759637E-11    3      1000022         1        -1             # Z3SS   -->  Z1SS   DN     DB          
      1.25759637E-11    3      1000022         3        -3             # Z3SS   -->  Z1SS   ST     SB          
      7.94910249E-11    3      1000022         4        -4             # Z3SS   -->  Z1SS   CH     CB          
      5.39684834E-07    3      1000022         5        -5             # Z3SS   -->  Z1SS   BT     BB          
      2.28760594E-10    3      1000022        11       -11             # Z3SS   -->  Z1SS   E-     E+          
      2.28760594E-10    3      1000022        13       -13             # Z3SS   -->  Z1SS   MU-    MU+         
      1.15217986E-07    3      1000022        15       -15             # Z3SS   -->  Z1SS   TAU-   TAU+        
      5.90525545E-11    3      1000022        12       -12             # Z3SS   -->  Z1SS   NUE    ANUE        
      5.90525545E-11    3      1000022        14       -14             # Z3SS   -->  Z1SS   NUM    ANUM        
      6.26356883E-11    3      1000022        16       -16             # Z3SS   -->  Z1SS   NUT    ANUT        
      5.30150576E-12    3      1000023         2        -2             # Z3SS   -->  Z2SS   UP     UB          
      1.10522659E-12    3      1000023         1        -1             # Z3SS   -->  Z2SS   DN     DB          
      1.10522659E-12    3      1000023         3        -3             # Z3SS   -->  Z2SS   ST     SB          
      5.30150359E-12    3      1000023         4        -4             # Z3SS   -->  Z2SS   CH     CB          
      4.93513710E-07    3      1000023         5        -5             # Z3SS   -->  Z2SS   BT     BB          
      1.48840280E-11    3      1000023        11       -11             # Z3SS   -->  Z2SS   E-     E+          
      1.48840280E-11    3      1000023        13       -13             # Z3SS   -->  Z2SS   MU-    MU+         
      1.05036506E-07    3      1000023        15       -15             # Z3SS   -->  Z2SS   TAU-   TAU+        
      5.51456754E-12    3      1000023        12       -12             # Z3SS   -->  Z2SS   NUE    ANUE        
      5.51456754E-12    3      1000023        14       -14             # Z3SS   -->  Z2SS   NUM    ANUM        
      5.84942901E-12    3      1000023        16       -16             # Z3SS   -->  Z2SS   NUT    ANUT        
      2.03512922E-01    2      1000022        25                       # Z3SS   -->  Z1SS   HL0                
      2.91535892E-02    2      1000023        25                       # Z3SS   -->  Z2SS   HL0                
#         PDG         Width
DECAY   1000035  8.55352592E+00   # Z4SS  decays
#          BR          NDA       ID1       ID2       ID3       ID4
      1.41817316E-06    2      1000022        22                       # Z4SS   -->  Z1SS   GM                 
      2.34886375E-06    2      1000023        22                       # Z4SS   -->  Z2SS   GM                 
      8.91275320E-09    2      1000025        22                       # Z4SS   -->  Z3SS   GM                 
      2.44561672E-01    2      1000024       -24                       # Z4SS   -->  W1SS+  W-                 
      2.44561672E-01    2     -1000024        24                       # Z4SS   -->  W1SS-  W+                 
      1.02798495E-07    3     -1000037         2        -1             # Z4SS   -->  W2SS-  UP     DB          
      3.42661650E-08    3     -1000037        12       -11             # Z4SS   -->  W2SS-  NUE    E+          
      3.42661650E-08    3     -1000037        14       -13             # Z4SS   -->  W2SS-  NUM    MU+         
      1.02798495E-07    3      1000037         1        -2             # Z4SS   -->  W2SS+  DN     UB          
      3.42661650E-08    3      1000037        11       -12             # Z4SS   -->  W2SS+  E-     ANUE        
      3.42661650E-08    3      1000037        13       -14             # Z4SS   -->  W2SS+  MU-    ANUM        
      1.02798495E-07    3     -1000037         4        -3             # Z4SS   -->  W2SS-  CH     SB          
      3.42661650E-08    3     -1000037        16       -15             # Z4SS   -->  W2SS-  NUT    TAU+        
      1.02798495E-07    3      1000037         3        -4             # Z4SS   -->  W2SS+  ST     CB          
      3.42661650E-08    3      1000037        15       -16             # Z4SS   -->  W2SS+  TAU-   ANUT        
      5.66825271E-02    2      1000022        23                       # Z4SS   -->  Z1SS   Z0                 
      2.01016873E-01    2      1000023        23                       # Z4SS   -->  Z2SS   Z0                 
      6.76135882E-04    2      1000025        23                       # Z4SS   -->  Z3SS   Z0                 
      6.57628896E-10    3      1000022         2        -2             # Z4SS   -->  Z1SS   UP     UB          
      1.73016335E-09    3      1000022         1        -1             # Z4SS   -->  Z1SS   DN     DB          
      1.73016335E-09    3      1000022         3        -3             # Z4SS   -->  Z1SS   ST     SB          
      6.57628896E-10    3      1000022         4        -4             # Z4SS   -->  Z1SS   CH     CB          
      3.52712013E-05    3      1000022         5        -5             # Z4SS   -->  Z1SS   BT     BB          
      4.01714842E-11    3      1000022        11       -11             # Z4SS   -->  Z1SS   E-     E+          
      4.01714842E-11    3      1000022        13       -13             # Z4SS   -->  Z1SS   MU-    MU+         
      7.20891376E-06    3      1000022        15       -15             # Z4SS   -->  Z1SS   TAU-   TAU+        
      1.38292233E-09    3      1000022        12       -12             # Z4SS   -->  Z1SS   NUE    ANUE        
      1.38292233E-09    3      1000022        14       -14             # Z4SS   -->  Z1SS   NUM    ANUM        
      1.46784507E-09    3      1000022        16       -16             # Z4SS   -->  Z1SS   NUT    ANUT        
      1.30318131E-10    3      1000023         2        -2             # Z4SS   -->  Z2SS   UP     UB          
      2.62142891E-10    3      1000023         1        -1             # Z4SS   -->  Z2SS   DN     DB          
      2.62142891E-10    3      1000023         3        -3             # Z4SS   -->  Z2SS   ST     SB          
      1.30318131E-10    3      1000023         4        -4             # Z4SS   -->  Z2SS   CH     CB          
      3.32433483E-05    3      1000023         5        -5             # Z4SS   -->  Z2SS   BT     BB          
      1.85849097E-11    3      1000023        11       -11             # Z4SS   -->  Z2SS   E-     E+          
      1.85849097E-11    3      1000023        13       -13             # Z4SS   -->  Z2SS   MU-    MU+         
      6.79523419E-06    3      1000023        15       -15             # Z4SS   -->  Z2SS   TAU-   TAU+        
      1.83546164E-10    3      1000023        12       -12             # Z4SS   -->  Z2SS   NUE    ANUE        
      1.83546164E-10    3      1000023        14       -14             # Z4SS   -->  Z2SS   NUM    ANUM        
      1.94849331E-10    3      1000023        16       -16             # Z4SS   -->  Z2SS   NUT    ANUT        
      1.77457793E-09    3      1000025         2        -2             # Z4SS   -->  Z3SS   UP     UB          
      1.20267984E-09    3      1000025         1        -1             # Z4SS   -->  Z3SS   DN     DB          
      1.20267984E-09    3      1000025         3        -3             # Z4SS   -->  Z3SS   ST     SB          
      1.77457793E-09    3      1000025         4        -4             # Z4SS   -->  Z3SS   CH     CB          
      1.70619234E-08    3      1000025         5        -5             # Z4SS   -->  Z3SS   BT     BB          
      5.85652860E-09    3      1000025        11       -11             # Z4SS   -->  Z3SS   E-     E+          
      5.85652860E-09    3      1000025        13       -13             # Z4SS   -->  Z3SS   MU-    MU+         
      8.75230377E-09    3      1000025        15       -15             # Z4SS   -->  Z3SS   TAU-   TAU+        
      5.22560528E-09    3      1000025        12       -12             # Z4SS   -->  Z3SS   NUE    ANUE        
      5.22560528E-09    3      1000025        14       -14             # Z4SS   -->  Z3SS   NUM    ANUM        
      5.54894886E-09    3      1000025        16       -16             # Z4SS   -->  Z3SS   NUT    ANUT        
      1.80249706E-01    2      1000022        25                       # Z4SS   -->  Z1SS   HL0                
      6.45585284E-02    2      1000023        25                       # Z4SS   -->  Z2SS   HL0                
      7.60575105E-03    2      1000025        25                       # Z4SS   -->  Z3SS   HL0                
#         PDG         Width
DECAY   1000024  2.86141699E-07   # W1SS+ decays
#          BR          NDA       ID1       ID2       ID3       ID4
      3.33322078E-01    3      1000022         2        -1             # W1SS+  -->  Z1SS   UP     DB          
      3.33322078E-01    3      1000022         4        -3             # W1SS+  -->  Z1SS   CH     SB          
      1.11107521E-01    3      1000022       -11        12             # W1SS+  -->  Z1SS   E+     NUE         
      1.11107521E-01    3      1000022       -13        14             # W1SS+  -->  Z1SS   MU+    NUM         
      1.11109458E-01    3      1000022       -15        16             # W1SS+  -->  Z1SS   TAU+   NUT         
      1.88491376E-05    3      1000023         2        -1             # W1SS+  -->  Z2SS   UP     DB          
      6.28304042E-06    3      1000023       -11        12             # W1SS+  -->  Z2SS   E+     NUE         
      6.28304042E-06    3      1000023       -13        14             # W1SS+  -->  Z2SS   MU+    NUM         
#         PDG         Width
DECAY   1000037  8.39263439E+00   # W2SS+ decays
#          BR          NDA       ID1       ID2       ID3       ID4
      1.31161670E-09    3      1000022         2        -1             # W2SS+  -->  Z1SS   UP     DB          
      1.31161670E-09    3      1000022         4        -3             # W2SS+  -->  Z1SS   CH     SB          
      9.32932842E-10    3      1000022       -11        12             # W2SS+  -->  Z1SS   E+     NUE         
      9.32932842E-10    3      1000022       -13        14             # W2SS+  -->  Z1SS   MU+    NUM         
      6.60094338E-06    3      1000022       -15        16             # W2SS+  -->  Z1SS   TAU+   NUT         
      2.41989493E-01    2      1000022        24                       # W2SS+  -->  Z1SS   W+                 
      6.69571509E-10    3      1000023         2        -1             # W2SS+  -->  Z2SS   UP     DB          
      6.69571509E-10    3      1000023         4        -3             # W2SS+  -->  Z2SS   CH     SB          
      3.11875498E-10    3      1000023       -11        12             # W2SS+  -->  Z2SS   E+     NUE         
      3.11875498E-10    3      1000023       -13        14             # W2SS+  -->  Z2SS   MU+    NUM         
      5.93600498E-06    3      1000023       -15        16             # W2SS+  -->  Z2SS   TAU+   NUT         
      2.46150136E-01    2      1000023        24                       # W2SS+  -->  Z2SS   W+                 
      2.65553624E-09    3      1000025         2        -1             # W2SS+  -->  Z3SS   UP     DB          
      2.65553624E-09    3      1000025         4        -3             # W2SS+  -->  Z3SS   CH     SB          
      9.94809835E-09    3      1000025       -11        12             # W2SS+  -->  Z3SS   E+     NUE         
      9.94809835E-09    3      1000025       -13        14             # W2SS+  -->  Z3SS   MU+    NUM         
      1.28601263E-08    3      1000025       -15        16             # W2SS+  -->  Z3SS   TAU+   NUT         
      1.18295308E-02    2      1000025        24                       # W2SS+  -->  Z3SS   W+                 
      2.44338214E-01    2      1000024        23                       # W2SS+  -->  W1SS+  Z0                 
      3.92454558E-09    3      1000024         1        -1             # W2SS+  -->  W1SS+  DN     DB          
      3.92454558E-09    3      1000024         3        -3             # W2SS+  -->  W1SS+  ST     SB          
      3.29087646E-10    3      1000024         2        -2             # W2SS+  -->  W1SS+  UP     UB          
      3.29087646E-10    3      1000024         4        -4             # W2SS+  -->  W1SS+  CH     CB          
      1.37359929E-10    3      1000024        12       -12             # W2SS+  -->  W1SS+  NUE    ANUE        
      1.37359929E-10    3      1000024        14       -14             # W2SS+  -->  W1SS+  NUM    ANUM        
      2.07181258E-10    3      1000024        16       -16             # W2SS+  -->  W1SS+  NUT    ANUT        
      1.63157998E-09    3      1000024        11       -11             # W2SS+  -->  W1SS+  E-     E+          
      1.63157998E-09    3      1000024        13       -13             # W2SS+  -->  W1SS+  MU-    MU+         
      1.73183778E-09    3      1000024        15       -15             # W2SS+  -->  W1SS+  TAU-   TAU+        
      2.55680054E-01    2      1000024        25                       # W2SS+  -->  W1SS+  HL0                
#         PDG         Width
DECAY        25  3.90270120E-03   # HL0   decays
#          BR          NDA       ID1       ID2       ID3       ID4
      5.69532288E-09    2           11       -11                       # HL0    -->  E-     E+                 
      2.40465801E-04    2           13       -13                       # HL0    -->  MU-    MU+                
      6.87897503E-02    2           15       -15                       # HL0    -->  TAU-   TAU+               
      7.13944428E-06    2            1        -1                       # HL0    -->  DN     DB                 
      2.88469368E-03    2            3        -3                       # HL0    -->  ST     SB                 
      6.18063509E-01    2            5        -5                       # HL0    -->  BT     BB                 
      2.18095852E-06    2            2        -2                       # HL0    -->  UP     UB                 
      4.05419283E-02    2            4        -4                       # HL0    -->  CH     CB                 
      2.66713789E-03    2           22        22                       # HL0    -->  GM     GM                 
      5.27025983E-02    2           21        21                       # HL0    -->  GL     GL                 
      1.07068121E-02    3           24        11       -12             # HL0    -->  W+     E-     ANUE        
      1.07068121E-02    3           24        13       -14             # HL0    -->  W+     MU-    ANUM        
      1.07068121E-02    3           24        15       -16             # HL0    -->  W+     TAU-   ANUT        
      3.21204364E-02    3           24        -2         1             # HL0    -->  W+     UB     DN          
      3.21204364E-02    3           24        -4         3             # HL0    -->  W+     CB     ST          
      1.07068121E-02    3          -24       -11        12             # HL0    -->  W-     E+     NUE         
      1.07068121E-02    3          -24       -13        14             # HL0    -->  W-     MU+    NUM         
      1.07068121E-02    3          -24       -15        16             # HL0    -->  W-     TAU+   NUT         
      3.21204364E-02    3          -24         2        -1             # HL0    -->  W-     UP     DB          
      3.21204364E-02    3          -24         4        -3             # HL0    -->  W-     CH     SB          
      1.46203651E-03    3           23        12       -12             # HL0    -->  Z0     NUE    ANUE        
      1.46203651E-03    3           23        14       -14             # HL0    -->  Z0     NUM    ANUM        
      1.46203651E-03    3           23        16       -16             # HL0    -->  Z0     NUT    ANUT        
      7.35828304E-04    3           23        11       -11             # HL0    -->  Z0     E-     E+          
      7.35828304E-04    3           23        13       -13             # HL0    -->  Z0     MU-    MU+         
      7.35828304E-04    3           23        15       -15             # HL0    -->  Z0     TAU-   TAU+        
      2.52088509E-03    3           23         2        -2             # HL0    -->  Z0     UP     UB          
      2.52088509E-03    3           23         4        -4             # HL0    -->  Z0     CH     CB          
      3.24752135E-03    3           23         1        -1             # HL0    -->  Z0     DN     DB          
      3.24752135E-03    3           23         3        -3             # HL0    -->  Z0     ST     SB          
      3.24752135E-03    3           23         5        -5             # HL0    -->  Z0     BT     BB          
#         PDG         Width
DECAY        35  4.20355940E+00   # HH0   decays
#          BR          NDA       ID1       ID2       ID3       ID4
      9.15487952E-09    2           11       -11                       # HH0    -->  E-     E+                 
      3.86535510E-04    2           13       -13                       # HH0    -->  MU-    MU+                
      1.10707626E-01    2           15       -15                       # HH0    -->  TAU-   TAU+               
      1.12147691E-05    2            1        -1                       # HH0    -->  DN     DB                 
      4.53133415E-03    2            3        -3                       # HH0    -->  ST     SB                 
      6.76004350E-01    2            5        -5                       # HH0    -->  BT     BB                 
      7.42428827E-11    2            2        -2                       # HH0    -->  UP     UB                 
      1.04556193E-06    2            4        -4                       # HH0    -->  CH     CB                 
      4.76960391E-02    2            6        -6                       # HH0    -->  TP     TB                 
      2.82866239E-07    2           22        22                       # HH0    -->  GM     GM                 
      2.23843272E-05    2           21        21                       # HH0    -->  GL     GL                 
      1.83878481E-04    2           24       -24                       # HH0    -->  W+     W-                 
      9.33580741E-05    2           23        23                       # HH0    -->  Z0     Z0                 
      1.03619779E-02    2      1000022   1000022                       # HH0    -->  Z1SS   Z1SS               
      2.40489002E-03    2      1000022   1000023                       # HH0    -->  Z1SS   Z2SS               
      3.59330699E-02    2      1000022   1000025                       # HH0    -->  Z1SS   Z3SS               
      3.14887683E-03    2      1000023   1000023                       # HH0    -->  Z2SS   Z2SS               
      8.95742774E-02    2      1000023   1000025                       # HH0    -->  Z2SS   Z3SS               
      1.82790663E-02    2      1000024  -1000024                       # HH0    -->  W1SS+  W1SS-              
      6.59773301E-04    2           25        25                       # HH0    -->  HL0    HL0                
#         PDG         Width
DECAY        36  4.20891762E+00   # HA0   decays
#          BR          NDA       ID1       ID2       ID3       ID4
      9.08457931E-09    2           11       -11                       # HA0    -->  E-     E+                 
      3.83567298E-04    2           13       -13                       # HA0    -->  MU-    MU+                
      1.09858871E-01    2           15       -15                       # HA0    -->  TAU-   TAU+               
      1.11292638E-05    2            1        -1                       # HA0    -->  DN     DB                 
      4.49678581E-03    2            3        -3                       # HA0    -->  ST     SB                 
      6.70880377E-01    2            5        -5                       # HA0    -->  BT     BB                 
      7.03409622E-11    2            2        -2                       # HA0    -->  UP     UB                 
      9.91390834E-07    2            4        -4                       # HA0    -->  CH     CB                 
      5.02330400E-02    2            6        -6                       # HA0    -->  TP     TB                 
      1.15887062E-07    2           22        22                       # HA0    -->  GM     GM                 
      7.03297992E-05    2           21        21                       # HA0    -->  GL     GL                 
      1.58150010E-02    2      1000022   1000022                       # HA0    -->  Z1SS   Z1SS               
      8.62921472E-04    2      1000022   1000023                       # HA0    -->  Z1SS   Z2SS               
      8.74282718E-02    2      1000022   1000025                       # HA0    -->  Z1SS   Z3SS               
      2.86431541E-03    2      1000023   1000023                       # HA0    -->  Z2SS   Z2SS               
      3.32002677E-02    2      1000023   1000025                       # HA0    -->  Z2SS   Z3SS               
      2.37179808E-02    2      1000024  -1000024                       # HA0    -->  W1SS+  W1SS-              
      1.76099435E-04    2           25        23                       # HA0    -->  HL0    Z0                 
#         PDG         Width
DECAY        37  3.71497941E+00   # H+    decays
#          BR          NDA       ID1       ID2       ID3       ID4
      1.03256825E-08    2           12       -11                       # H+     -->  NUE    E+                 
      4.35968948E-04    2           14       -13                       # H+     -->  NUM    MU+                
      1.24867409E-01    2           16       -15                       # H+     -->  NUT    TAU+               
      1.16270994E-05    2            2        -1                       # H+     -->  UP     DB                 
      4.69892472E-03    2            4        -3                       # H+     -->  CH     SB                 
      7.09867954E-01    2            6        -5                       # H+     -->  TP     BB                 
      1.73072083E-04    2      1000024   1000022                       # H+     -->  W1SS+  Z1SS               
      2.59581232E-03    2      1000024   1000023                       # H+     -->  W1SS+  Z2SS               
      1.57149136E-01    2      1000024   1000025                       # H+     -->  W1SS+  Z3SS               
      2.00081966E-04    2           25        24                       # H+     -->  HL0    W+                 
