#  ISAJET SUSY parameters in SUSY Les Houches Accord 2 format
#  Created by ISALHA 2.0 Last revision: C. Balazs 21 Apr 2009
Block SPINFO   # Program information
     1   ISASUGRA from ISAJET          # Spectrum Calculator
     2   7.80   29-OCT-2009 12:50:36   # Version number
Block MODSEL   # Model selection
     1     3   # Minimal anomaly mediated (AMSB) model             
Block SMINPUTS   # Standard Model inputs
     1     1.27836266E+02   # alpha_em^(-1)
     2     1.16570000E-05   # G_Fermi
     3     1.17200002E-01   # alpha_s(M_Z)
     4     9.11699982E+01   # m_{Z}(pole)
     5     4.19999981E+00   # m_{b}(m_{b})
     6     1.72500000E+02   # m_{top}(pole)
     7     1.77699995E+00   # m_{tau}(pole)
Block MINPAR   # SUSY breaking input parameters
     1     5.00000000E+03   # m_0
     2     3.15600000E+05   # m_{3/2}
     3     5.00000000E+00   # tan(beta)
     4     1.00000000E+00   # sign(mu)
Block EXTPAR   # Non-universal SUSY breaking parameters
     0     8.23659515E+15   # Input scale
Block MASS   # Scalar and gaugino mass spectrum
#  PDG code   mass                 particle
         5     4.80000000E+00   # b-quark pole mass calculated from mb(mb)_Msbar
         6     1.72500000E+02   # t-quark pole mass (not read by ME)
        15     1.77682000E+00   # tau pole mass (not read by ME)
        23     9.11876000E+01   # Z pole mass (not read by ME)
        24     8.04229965E+01   #  W^+
        25     1.17354164E+02   #  h^0            
        35     6.99664014E+03   #  H^0            
        36     6.95080322E+03   #  A^0            
        37     6.99698096E+03   #  H^+            
   1000001     7.43424219E+03   #  dnl            
   1000002     7.43383691E+03   #  upl            
   1000003     7.43424219E+03   #  stl            
   1000004     7.43383691E+03   #  chl            
   1000005     6.38580225E+03   #  b1             
   1000006     5.10177637E+03   #  t1             
   1000011     4.83639551E+03   #  el-            
   1000012     4.83417090E+03   #  nuel           
   1000013     4.83639551E+03   #  mul-           
   1000014     4.83417090E+03   #  numl           
   1000015     4.78479004E+03   #  tau1           
   1000016     4.82647363E+03   #  nutl           
   1000021     6.08901953E+03   #  glss           
   1000022     8.99637451E+02   #  z1ss           
   1000023     2.93977783E+03   #  z2ss           
   1000024     8.99811523E+02   #  w1ss           
   1000025    -4.83659033E+03   #  z3ss           
   1000035     4.83768994E+03   #  z4ss           
   1000037     4.84269434E+03   #  w2ss           
   2000001     7.51731982E+03   #  dnr            
   2000002     7.47251123E+03   #  upr            
   2000003     7.51731982E+03   #  str            
   2000004     7.47251123E+03   #  chr            
   2000005     7.46611328E+03   #  b2             
   2000006     6.42913818E+03   #  t2             
   2000011     4.79959424E+03   #  er-            
   2000013     4.79959424E+03   #  mur-           
   2000015     4.82940039E+03   #  tau2           
Block ALPHA   # Effective Higgs mixing parameter
         -1.97487682E-01   # alpha
Block STOPMIX   # stop mixing matrix
  1  1     3.37194204E-02   # O_{11}
  1  2    -9.99431312E-01   # O_{12}
  2  1     9.99431312E-01   # O_{21}
  2  2     3.37194204E-02   # O_{22}
Block SBOTMIX   # sbottom mixing matrix
  1  1     9.99994576E-01   # O_{11}
  1  2     3.29314591E-03   # O_{12}
  2  1    -3.29314591E-03   # O_{21}
  2  2     9.99994576E-01   # O_{22}
Block STAUMIX   # stau mixing matrix
  1  1     1.09570205E-01   # O_{11}
  1  2     9.93979037E-01   # O_{12}
  2  1    -9.93979037E-01   # O_{21}
  2  2     1.09570205E-01   # O_{22}
Block NMIX   # neutralino mixing matrix
  1  1    -4.57831920E-04   #
  1  2     9.99860287E-01   #
  1  3    -1.61287375E-02   #
  1  4     4.38266480E-03   #
  2  1     9.99867082E-01   #
  2  2     7.16161914E-04   #
  2  3     1.35696828E-02   #
  2  4    -8.99714231E-03   #
  3  1    -3.23826075E-03   #
  3  2     8.30396079E-03   #
  3  3     7.07020402E-01   #
  3  4     7.07136452E-01   #
  4  1     1.59656387E-02   #
  4  2    -1.44941881E-02   #
  4  3    -7.06878304E-01   #
  4  4     7.07006156E-01   #
Block UMIX   # chargino U mixing matrix
  1  1    -9.99719143E-01   # U_{11}
  1  2     2.37000883E-02   # U_{12}
  2  1    -2.37000883E-02   # U_{21}
  2  2    -9.99719143E-01   # U_{22}
Block VMIX   # chargino V mixing matrix
  1  1    -9.99957621E-01   # V_{11}
  1  2     9.20382421E-03   # V_{12}
  2  1    -9.20382421E-03   # V_{21}
  2  2    -9.99957621E-01   # V_{22}
Block GAUGE Q=  5.48045508E+03   #
     1     3.57524961E-01   # g`
     2     6.52378559E-01   # g_2
     3     1.21928000E+00   # g_3
Block YU Q=  5.48045508E+03   #
  3  3     8.23119998E-01   # y_t
Block YD Q=  5.48045508E+03   #
  3  3     6.35310709E-02   # y_b
Block YE Q=  5.48045508E+03   #
  3  3     5.14397696E-02   # y_tau
Block HMIX Q=  5.48045508E+03   # Higgs mixing parameters
     1     4.81782959E+03   # mu(Q)
     2     5.00000000E+00   # tan(beta)(M_GUT)
     3     2.52354950E+02   # Higgs vev at Q
     4     4.83136640E+07   # m_A^2(Q)
Block MSOFT Q=  5.48045508E+03   # DRbar SUSY breaking parameters
     1     2.95579150E+03   # M_1(Q)          
     2     8.41653870E+02   # M_2(Q)          
     3    -5.65189209E+03   # M_3(Q)          
    21     3.23374943E+04   # mH1^2(Q)            
    22    -1.28800134E+05   # mH2^2(Q)            
    31     4.81790625E+03   # MeL(Q)          
    32     4.81790625E+03   # MmuL(Q)         
    33     4.81044385E+03   # MtauL(Q)        
    34     4.79075244E+03   # MeR(Q)          
    35     4.79075244E+03   # MmuR(Q)         
    36     4.77534766E+03   # MtauR(Q)        
    41     7.14897070E+03   # MqL1(Q)         
    42     7.14897070E+03   # MqL2(Q)         
    43     6.12747900E+03   # MqL3(Q)         
    44     7.18815186E+03   # MuR(Q)          
    45     7.18815186E+03   # McR(Q)          
    46     4.90175293E+03   # MtR(Q)          
    47     7.23354053E+03   # MdR(Q)          
    48     7.23354053E+03   # MsR(Q)          
    49     7.25165283E+03   # MbR(Q)          
Block AU Q=  5.48045508E+03   #
  1  1     4.84650195E+03   # A_u
  2  2     4.84650195E+03   # A_c
  3  3     4.84650195E+03   # A_t
Block AD Q=  5.48045508E+03   #
  1  1     1.14812666E+04   # A_d
  2  2     1.14812666E+04   # A_s
  3  3     1.14812666E+04   # A_b
Block AE Q=  5.48045508E+03   #
  1  1     3.27781519E+03   # A_e
  2  2     3.27781519E+03   # A_mu
  3  3     3.27781519E+03   # A_tau
#
#  ISAJET decay tables in SUSY Les Houches accord format
#  Created by ISALHD. Last revision: C. Balazs, 2005 May 25
Block DCINFO                           # Program information
     1   ISASUGRA from ISAJET          # Spectrum Calculator
     2   7.80   29-OCT-2009 12:50:36   # Version number
#         PDG         Width
DECAY        23     2.49520000E+00   # Z width (SM calculation)
DECAY        24     2.08500000E+00   # W width (SM calculation)
#
#         PDG            Width  
DECAY         6  1.14680779E+00   # TP    decays
#          BR          NDA       ID1       ID2       ID3       ID4
      3.33333343E-01    3            2        -1         5             # TP     -->  UP     DB     BT          
      3.33333343E-01    3            4        -3         5             # TP     -->  CH     SB     BT          
      1.11111112E-01    3          -11        12         5             # TP     -->  E+     NUE    BT          
      1.11111112E-01    3          -13        14         5             # TP     -->  MU+    NUM    BT          
      1.11111112E-01    3          -15        16         5             # TP     -->  TAU+   NUT    BT          
#         PDG         Width
DECAY   1000021  1.05258570E+01   # GLSS  decays
#          BR          NDA       ID1       ID2       ID3       ID4
      1.71355437E-03    3      1000024         1        -2             # GLSS   -->  W1SS+  DN     UB          
      1.71355437E-03    3     -1000024         2        -1             # GLSS   -->  W1SS-  UP     DB          
      1.71355437E-03    3      1000024         3        -4             # GLSS   -->  W1SS+  ST     CB          
      1.71355437E-03    3     -1000024         4        -3             # GLSS   -->  W1SS-  CH     SB          
      5.54809812E-03    3      1000024         5        -6             # GLSS   -->  W1SS+  BT     TB          
      5.54809812E-03    3     -1000024         6        -5             # GLSS   -->  W1SS-  TP     BB          
      4.06589828E-09    3      1000037         1        -2             # GLSS   -->  W2SS+  DN     UB          
      4.06589828E-09    3     -1000037         2        -1             # GLSS   -->  W2SS-  UP     DB          
      4.06589828E-09    3      1000037         3        -4             # GLSS   -->  W2SS+  ST     CB          
      4.06589828E-09    3     -1000037         4        -3             # GLSS   -->  W2SS-  CH     SB          
      8.94147524E-05    3      1000037         5        -6             # GLSS   -->  W2SS+  BT     TB          
      8.94147524E-05    3     -1000037         6        -5             # GLSS   -->  W2SS-  TP     BB          
      3.81998966E-08    2      1000022        21                       # GLSS   -->  Z1SS   GL                 
      8.56894767E-04    3      1000022         2        -2             # GLSS   -->  Z1SS   UP     UB          
      8.56876431E-04    3      1000022         1        -1             # GLSS   -->  Z1SS   DN     DB          
      8.56876431E-04    3      1000022         3        -3             # GLSS   -->  Z1SS   ST     SB          
      8.56894767E-04    3      1000022         4        -4             # GLSS   -->  Z1SS   CH     CB          
      2.91648298E-03    3      1000022         5        -5             # GLSS   -->  Z1SS   BT     BB          
      2.63107615E-03    3      1000022         6        -6             # GLSS   -->  Z1SS   TP     TB          
      5.33192315E-06    2      1000023        21                       # GLSS   -->  Z2SS   GL                 
      1.01647616E-04    3      1000023         2        -2             # GLSS   -->  Z2SS   UP     UB          
      2.89579148E-05    3      1000023         1        -1             # GLSS   -->  Z2SS   DN     DB          
      2.89579148E-05    3      1000023         3        -3             # GLSS   -->  Z2SS   ST     SB          
      1.01647616E-04    3      1000023         4        -4             # GLSS   -->  Z2SS   CH     CB          
      5.14921012E-05    3      1000023         5        -5             # GLSS   -->  Z2SS   BT     BB          
      2.53669132E-05    3      1000023         6        -6             # GLSS   -->  Z2SS   TP     TB          
      1.33947583E-06    2      1000025        21                       # GLSS   -->  Z3SS   GL                 
      9.04464392E-10    3      1000025         2        -2             # GLSS   -->  Z3SS   UP     UB          
      1.12161858E-09    3      1000025         1        -1             # GLSS   -->  Z3SS   DN     DB          
      1.12161858E-09    3      1000025         3        -3             # GLSS   -->  Z3SS   ST     SB          
      9.04464392E-10    3      1000025         4        -4             # GLSS   -->  Z3SS   CH     CB          
      9.46759542E-07    3      1000025         5        -5             # GLSS   -->  Z3SS   BT     BB          
      7.11930406E-05    3      1000025         6        -6             # GLSS   -->  Z3SS   TP     TB          
      1.69522855E-06    2      1000035        21                       # GLSS   -->  Z4SS   GL                 
      1.30707289E-09    3      1000035         2        -2             # GLSS   -->  Z4SS   UP     UB          
      1.65240055E-09    3      1000035         1        -1             # GLSS   -->  Z4SS   DN     DB          
      1.65240055E-09    3      1000035         3        -3             # GLSS   -->  Z4SS   ST     SB          
      1.30707289E-09    3      1000035         4        -4             # GLSS   -->  Z4SS   CH     CB          
      9.48945740E-07    3      1000035         5        -5             # GLSS   -->  Z4SS   BT     BB          
      6.20777500E-05    3      1000035         6        -6             # GLSS   -->  Z4SS   TP     TB          
      4.86207008E-01    2     -1000006         6                       # GLSS   -->  TB1    TP                 
      4.86207008E-01    2      1000006        -6                       # GLSS   -->  TP1    TB                 
#         PDG         Width
DECAY   1000002  1.32877792E+02   # UPL   decays
#          BR          NDA       ID1       ID2       ID3       ID4
      2.28540614E-01    2      1000022         2                       # UPL    -->  Z1SS   UP                 
      5.66782290E-03    2      1000023         2                       # UPL    -->  Z2SS   UP                 
      4.65642506E-06    2      1000025         2                       # UPL    -->  Z3SS   UP                 
      1.04756464E-05    2      1000035         2                       # UPL    -->  Z4SS   UP                 
      3.08521628E-01    2      1000021         2                       # UPL    -->  GLSS   UP                 
      4.57241595E-01    2      1000024         1                       # UPL    -->  W1SS+  DN                 
      1.32196901E-05    2      1000037         1                       # UPL    -->  W2SS+  DN                 
#         PDG         Width
DECAY   1000001  1.32884796E+02   # DNL   decays
#          BR          NDA       ID1       ID2       ID3       ID4
      2.28618458E-01    2      1000022         1                       # DNL    -->  Z1SS   DN                 
      5.58011327E-03    2      1000023         1                       # DNL    -->  Z2SS   DN                 
      6.20078299E-06    2      1000025         1                       # DNL    -->  Z3SS   DN                 
      2.37521726E-05    2      1000035         1                       # DNL    -->  Z4SS   DN                 
      3.08657885E-01    2      1000021         1                       # DNL    -->  GLSS   DN                 
      4.57025886E-01    2     -1000024         2                       # DNL    -->  W1SS-  UP                 
      8.76708364E-05    2     -1000037         2                       # DNL    -->  W2SS-  UP                 
#         PDG         Width
DECAY   1000003  1.32884796E+02   # STL   decays
#          BR          NDA       ID1       ID2       ID3       ID4
      2.28618458E-01    2      1000022         3                       # STL    -->  Z1SS   ST                 
      5.58011327E-03    2      1000023         3                       # STL    -->  Z2SS   ST                 
      6.20078299E-06    2      1000025         3                       # STL    -->  Z3SS   ST                 
      2.37521726E-05    2      1000035         3                       # STL    -->  Z4SS   ST                 
      3.08657885E-01    2      1000021         3                       # STL    -->  GLSS   ST                 
      4.57025856E-01    2     -1000024         4                       # STL    -->  W1SS-  CH                 
      8.76708073E-05    2     -1000037         4                       # STL    -->  W2SS-  CH                 
#         PDG         Width
DECAY   1000004  1.32877762E+02   # CHL   decays
#          BR          NDA       ID1       ID2       ID3       ID4
      2.28540629E-01    2      1000022         4                       # CHL    -->  Z1SS   CH                 
      5.66782337E-03    2      1000023         4                       # CHL    -->  Z2SS   CH                 
      4.65642552E-06    2      1000025         4                       # CHL    -->  Z3SS   CH                 
      1.04756455E-05    2      1000035         4                       # CHL    -->  Z4SS   CH                 
      3.08521509E-01    2      1000021         4                       # CHL    -->  GLSS   CH                 
      4.57241714E-01    2      1000024         3                       # CHL    -->  W1SS+  ST                 
      1.32196928E-05    2      1000037         3                       # CHL    -->  W2SS+  ST                 
#         PDG         Width
DECAY   1000005  1.04386230E+02   # BT1   decays
#          BR          NDA       ID1       ID2       ID3       ID4
      2.47358263E-01    2      1000022         5                       # BT1    -->  Z1SS   BT                 
      5.32618817E-03    2      1000023         5                       # BT1    -->  Z2SS   BT                 
      4.75966604E-04    2      1000025         5                       # BT1    -->  Z3SS   BT                 
      4.85941884E-04    2      1000035         5                       # BT1    -->  Z4SS   BT                 
      2.60082800E-02    2      1000021         5                       # BT1    -->  GLSS   BT                 
      4.93710488E-01    2     -1000024         6                       # BT1    -->  W1SS-  TP                 
      1.39792442E-01    2     -1000037         6                       # BT1    -->  W2SS-  TP                 
      8.68424103E-02    2          -24   1000006                       # BT1    -->  W-     TP1                
#         PDG         Width
DECAY   1000006  6.26048040E+00   # TP1   decays
#          BR          NDA       ID1       ID2       ID3       ID4
      2.18858360E-03    2      1000022         6                       # TP1    -->  Z1SS   TP                 
      8.13280582E-01    2      1000023         6                       # TP1    -->  Z2SS   TP                 
      3.82278077E-02    2      1000025         6                       # TP1    -->  Z3SS   TP                 
      4.16581854E-02    2      1000035         6                       # TP1    -->  Z4SS   TP                 
      3.23595689E-03    2      1000024         5                       # TP1    -->  W1SS+  BT                 
      1.01408899E-01    2      1000037         5                       # TP1    -->  W2SS+  BT                 
#         PDG         Width
DECAY   2000002  5.50091820E+01   # UPR   decays
#          BR          NDA       ID1       ID2       ID3       ID4
      6.25140899E-08    2      1000022         2                       # UPR    -->  Z1SS   UP                 
      2.19320223E-01    2      1000023         2                       # UPR    -->  Z2SS   UP                 
      1.08723236E-06    2      1000025         2                       # UPR    -->  Z3SS   UP                 
      2.64111040E-05    2      1000035         2                       # UPR    -->  Z4SS   UP                 
      7.80652225E-01    2      1000021         2                       # UPR    -->  GLSS   UP                 
#         PDG         Width
DECAY   2000001  4.82785835E+01   # DNR   decays
#          BR          NDA       ID1       ID2       ID3       ID4
      1.79203656E-08    2      1000022         1                       # DNR    -->  Z1SS   DN                 
      6.31225035E-02    2      1000023         1                       # DNR    -->  Z2SS   DN                 
      3.16921017E-07    2      1000025         1                       # DNR    -->  Z3SS   DN                 
      7.69876533E-06    2      1000035         1                       # DNR    -->  Z4SS   DN                 
      9.36869502E-01    2      1000021         1                       # DNR    -->  GLSS   DN                 
#         PDG         Width
DECAY   2000003  4.82785835E+01   # STR   decays
#          BR          NDA       ID1       ID2       ID3       ID4
      1.79203656E-08    2      1000022         3                       # STR    -->  Z1SS   ST                 
      6.31225035E-02    2      1000023         3                       # STR    -->  Z2SS   ST                 
      3.16921017E-07    2      1000025         3                       # STR    -->  Z3SS   ST                 
      7.69876533E-06    2      1000035         3                       # STR    -->  Z4SS   ST                 
      9.36869502E-01    2      1000021         3                       # STR    -->  GLSS   ST                 
#         PDG         Width
DECAY   2000004  5.50091553E+01   # CHR   decays
#          BR          NDA       ID1       ID2       ID3       ID4
      6.25141112E-08    2      1000022         4                       # CHR    -->  Z1SS   CH                 
      2.19320282E-01    2      1000023         4                       # CHR    -->  Z2SS   CH                 
      1.08723259E-06    2      1000025         4                       # CHR    -->  Z3SS   CH                 
      2.64111077E-05    2      1000035         4                       # CHR    -->  Z4SS   CH                 
      7.80652165E-01    2      1000021         4                       # CHR    -->  GLSS   CH                 
#         PDG         Width
DECAY   2000005  4.61849594E+01   # BT2   decays
#          BR          NDA       ID1       ID2       ID3       ID4
      6.78187121E-07    2      1000022         5                       # BT2    -->  Z1SS   BT                 
      6.52066618E-02    2      1000023         5                       # BT2    -->  Z2SS   BT                 
      2.31671683E-03    2      1000025         5                       # BT2    -->  Z3SS   BT                 
      2.32430873E-03    2      1000035         5                       # BT2    -->  Z4SS   BT                 
      9.22804713E-01    2      1000021         5                       # BT2    -->  GLSS   BT                 
      1.09460427E-06    2     -1000024         6                       # BT2    -->  W1SS-  TP                 
      4.63064993E-03    2     -1000037         6                       # BT2    -->  W2SS-  TP                 
      1.09341217E-05    2          -24   1000006                       # BT2    -->  W-     TP1                
      1.08729559E-03    2          -24   2000006                       # BT2    -->  W-     TP2                
      6.16653706E-04    2           23   1000005                       # BT2    -->  Z0     BT1                
      1.00036140E-03    2           25   1000005                       # BT2    -->  HL0    BT1                
#         PDG         Width
DECAY   2000006  1.10208382E+02   # TP2   decays
#          BR          NDA       ID1       ID2       ID3       ID4
      2.63954587E-02    2      1000021         6                       # TP2    -->  GLSS   TP                 
      4.71844614E-01    2      1000024         5                       # TP2    -->  W1SS+  BT                 
      1.02100300E-03    2      1000037         5                       # TP2    -->  W2SS+  BT                 
      4.55143228E-02    2           23   1000006                       # TP2    -->  Z0     TP1                
      7.56496936E-02    2           25   1000006                       # TP2    -->  HL0    TP1                
      2.35414058E-01    2      1000022         6                       # TP2    -->  Z1SS   TP                 
      5.46693197E-03    2      1000023         6                       # TP2    -->  Z2SS   TP                 
      6.98776096E-02    2      1000025         6                       # TP2    -->  Z3SS   TP                 
      6.88163042E-02    2      1000035         6                       # TP2    -->  Z4SS   TP                 
#         PDG         Width
DECAY   1000011  5.93339233E+01   # EL-   decays
#          BR          NDA       ID1       ID2       ID3       ID4
      3.19524646E-01    2      1000022        11                       # EL-    -->  Z1SS   E-                 
      4.13026139E-02    2      1000023        11                       # EL-    -->  Z2SS   E-                 
      6.39172792E-01    2     -1000024        12                       # EL-    -->  W1SS-  NUE                
      5.74544354E-16    3      1000015        11       -15             # EL-    -->  TAU1-  E-     TAU+        
      1.25905889E-17    3     -1000015        11        15             # EL-    -->  TAU1+  E-     TAU-        
#         PDG         Width
DECAY   1000013  5.93339233E+01   # MUL-  decays
#          BR          NDA       ID1       ID2       ID3       ID4
      3.19524646E-01    2      1000022        13                       # MUL-   -->  Z1SS   MU-                
      4.13026139E-02    2      1000023        13                       # MUL-   -->  Z2SS   MU-                
      6.39172792E-01    2     -1000024        14                       # MUL-   -->  W1SS-  NUM                
      5.74544354E-16    3      1000015        13       -15             # MUL-   -->  TAU1-  MU-    TAU+        
      1.25905889E-17    3     -1000015        13        15             # MUL-   -->  TAU1+  MU-    TAU-        
#         PDG         Width
DECAY   1000015  1.00439701E+01   # TAU1- decays
#          BR          NDA       ID1       ID2       ID3       ID4
      2.31462196E-02    2      1000022        15                       # TAU1-  -->  Z1SS   TAU-               
      9.30494487E-01    2      1000023        15                       # TAU1-  -->  Z2SS   TAU-               
      4.63593528E-02    2     -1000024        16                       # TAU1-  -->  W1SS-  NUT                
#         PDG         Width
DECAY   1000012  5.93246918E+01   # NUEL  decays
#          BR          NDA       ID1       ID2       ID3       ID4
      3.19728017E-01    2      1000022        12                       # NUEL   -->  Z1SS   NUE                
      4.10310403E-02    2      1000023        12                       # NUEL   -->  Z2SS   NUE                
      6.39240921E-01    2      1000024        11                       # NUEL   -->  W1SS+  E-                 
      2.39925343E-15    3      1000015        12       -15             # NUEL   -->  TAU1-  NUE    TAU+        
      3.21991899E-16    3     -1000015        12        15             # NUEL   -->  TAU1+  NUE    TAU-        
      2.68460380E-15    3     -1000015        11        16             # NUEL   -->  TAU1+  E-     NUT         
#         PDG         Width
DECAY   1000014  5.93246918E+01   # NUML  decays
#          BR          NDA       ID1       ID2       ID3       ID4
      3.19728017E-01    2      1000022        14                       # NUML   -->  Z1SS   NUM                
      4.10310403E-02    2      1000023        14                       # NUML   -->  Z2SS   NUM                
      6.39240921E-01    2      1000024        13                       # NUML   -->  W1SS+  MU-                
      2.39925343E-15    3      1000015        14       -15             # NUML   -->  TAU1-  NUM    TAU+        
      3.21991899E-16    3     -1000015        14        15             # NUML   -->  TAU1+  NUM    TAU-        
      2.78491198E-15    3     -1000015        13        16             # NUML   -->  TAU1+  MU-    NUT         
#         PDG         Width
DECAY   1000016  5.92082291E+01   # NUTL  decays
#          BR          NDA       ID1       ID2       ID3       ID4
      3.19773585E-01    2      1000022        16                       # NUTL   -->  Z1SS   NUT                
      4.08926532E-02    2      1000023        16                       # NUTL   -->  Z2SS   NUT                
      6.39333785E-01    2      1000024        15                       # NUTL   -->  W1SS+  TAU-               
      9.92773351E-15    3     -1000015        16        15             # NUTL   -->  TAU1+  NUT    TAU-        
      8.59793570E-09    3      1000015        16       -15             # NUTL   -->  TAU1-  NUT    TAU+        
      8.59793570E-09    3      1000015        12       -11             # NUTL   -->  TAU1-  NUE    E+          
      8.59793570E-09    3      1000015        14       -13             # NUTL   -->  TAU1-  NUM    MU+         
      2.57938098E-08    3      1000015         2        -1             # NUTL   -->  TAU1-  UP     DB          
      2.57938098E-08    3      1000015         4        -3             # NUTL   -->  TAU1-  CH     SB          
#         PDG         Width
DECAY   2000011  9.52843380E+00   # ER-   decays
#          BR          NDA       ID1       ID2       ID3       ID4
      4.99951739E-07    2      1000022        11                       # ER-    -->  Z1SS   E-                 
      9.99999523E-01    2      1000023        11                       # ER-    -->  Z2SS   E-                 
      1.33993230E-18    3      1000015        11       -15             # ER-    -->  TAU1-  E-     TAU+        
      3.07083213E-18    3     -1000015        11        15             # ER-    -->  TAU1+  E-     TAU-        
      1.09332422E-23    3      1000015        12       -16             # ER-    -->  TAU1-  NUE    ANUT        
#         PDG         Width
DECAY   2000013  9.52843380E+00   # MUR-  decays
#          BR          NDA       ID1       ID2       ID3       ID4
      4.99951739E-07    2      1000022        13                       # MUR-   -->  Z1SS   MU-                
      9.99999523E-01    2      1000023        13                       # MUR-   -->  Z2SS   MU-                
      1.33993230E-18    3      1000015        13       -15             # MUR-   -->  TAU1-  MU-    TAU+        
      3.07083213E-18    3     -1000015        13        15             # MUR-   -->  TAU1+  MU-    TAU-        
      4.65358785E-19    3      1000015        14       -16             # MUR-   -->  TAU1-  NUM    ANUT        
#         PDG         Width
DECAY   2000015  5.86079865E+01   # TAU2- decays
#          BR          NDA       ID1       ID2       ID3       ID4
      3.18940341E-01    2      1000022        15                       # TAU2-  -->  Z1SS   TAU-               
      4.30674441E-02    2      1000023        15                       # TAU2-  -->  Z2SS   TAU-               
      6.37992203E-01    2     -1000024        16                       # TAU2-  -->  W1SS-  NUT                
#         PDG         Width
DECAY   1000023  1.93805024E-02   # Z2SS  decays
#          BR          NDA       ID1       ID2       ID3       ID4
      3.00200190E-06    2      1000022        22                       # Z2SS   -->  Z1SS   GM                 
      4.25551295E-01    2      1000024       -24                       # Z2SS   -->  W1SS+  W-                 
      4.25551295E-01    2     -1000024        24                       # Z2SS   -->  W1SS-  W+                 
      1.03825843E-02    2      1000022        23                       # Z2SS   -->  Z1SS   Z0                 
      1.43167752E-04    3      1000022         2        -2             # Z2SS   -->  Z1SS   UP     UB          
      1.40960168E-04    3      1000022         1        -1             # Z2SS   -->  Z1SS   DN     DB          
      1.40960168E-04    3      1000022         3        -3             # Z2SS   -->  Z1SS   ST     SB          
      1.43167752E-04    3      1000022         4        -4             # Z2SS   -->  Z1SS   CH     CB          
      2.74657737E-04    3      1000022         5        -5             # Z2SS   -->  Z1SS   BT     BB          
      3.03022517E-03    3      1000022        11       -11             # Z2SS   -->  Z1SS   E-     E+          
      3.03022517E-03    3      1000022        13       -13             # Z2SS   -->  Z1SS   MU-    MU+         
      3.05388146E-03    3      1000022        15       -15             # Z2SS   -->  Z1SS   TAU-   TAU+        
      3.02432920E-03    3      1000022        12       -12             # Z2SS   -->  Z1SS   NUE    ANUE        
      3.02432920E-03    3      1000022        14       -14             # Z2SS   -->  Z1SS   NUM    ANUM        
      3.04810680E-03    3      1000022        16       -16             # Z2SS   -->  Z1SS   NUT    ANUT        
      1.19457588E-01    2      1000022        25                       # Z2SS   -->  Z1SS   HL0                
#         PDG         Width
DECAY   1000025  3.52528610E+01   # Z3SS  decays
#          BR          NDA       ID1       ID2       ID3       ID4
      2.00072776E-08    2      1000022        22                       # Z3SS   -->  Z1SS   GM                 
      6.23064622E-08    2      1000023        22                       # Z3SS   -->  Z2SS   GM                 
      3.36586207E-01    2      1000024       -24                       # Z3SS   -->  W1SS+  W-                 
      3.36586207E-01    2     -1000024        24                       # Z3SS   -->  W1SS-  W+                 
      2.00154155E-01    2      1000022        23                       # Z3SS   -->  Z1SS   Z0                 
      6.73213452E-02    2      1000023        23                       # Z3SS   -->  Z2SS   Z0                 
      1.85429927E-09    3      1000022         2        -2             # Z3SS   -->  Z1SS   UP     UB          
      2.46903209E-09    3      1000022         1        -1             # Z3SS   -->  Z1SS   DN     DB          
      2.46903209E-09    3      1000022         3        -3             # Z3SS   -->  Z1SS   ST     SB          
      1.85429927E-09    3      1000022         4        -4             # Z3SS   -->  Z1SS   CH     CB          
      1.91024674E-06    3      1000022         5        -5             # Z3SS   -->  Z1SS   BT     BB          
      8.27955233E-08    3      1000022        15       -15             # Z3SS   -->  Z1SS   TAU-   TAU+        
      1.09760161E-11    3      1000023         2        -2             # Z3SS   -->  Z2SS   UP     UB          
      6.24101682E-12    3      1000023         1        -1             # Z3SS   -->  Z2SS   DN     DB          
      6.24101682E-12    3      1000023         3        -3             # Z3SS   -->  Z2SS   ST     SB          
      1.09760161E-11    3      1000023         4        -4             # Z3SS   -->  Z2SS   CH     CB          
      1.99395807E-08    3      1000023         5        -5             # Z3SS   -->  Z2SS   BT     BB          
      1.20403054E-09    3      1000023        15       -15             # Z3SS   -->  Z2SS   TAU-   TAU+        
      5.67663051E-02    2      1000022        25                       # Z3SS   -->  Z1SS   HL0                
      2.58196169E-03    2      1000023        25                       # Z3SS   -->  Z2SS   HL0                
      7.97218262E-14    2      1000011       -11                       # Z3SS   -->  EL-    E+                 
      7.97218262E-14    2     -1000011        11                       # Z3SS   -->  EL+    E-                 
      6.71458603E-14    2      1000013       -13                       # Z3SS   -->  MUL-   MU+                
      6.71458603E-14    2     -1000013        13                       # Z3SS   -->  MUL+   MU-                
      8.49775306E-10    2      2000011       -11                       # Z3SS   -->  ER-    E+                 
      8.49775306E-10    2     -2000011        11                       # Z3SS   -->  ER+    E-                 
      8.49771975E-10    2      2000013       -13                       # Z3SS   -->  MUR-   MU+                
      8.49771975E-10    2     -2000013        13                       # Z3SS   -->  MUR+   MU-                
      8.41848930E-07    2      1000015       -15                       # Z3SS   -->  TAU1-  TAU+               
      8.41848930E-07    2     -1000015        15                       # Z3SS   -->  TAU1+  TAU-               
      1.84294215E-08    2      2000015       -15                       # Z3SS   -->  TAU2-  TAU+               
      1.84294215E-08    2     -2000015        15                       # Z3SS   -->  TAU2+  TAU-               
      2.93747249E-11    2      1000012       -12                       # Z3SS   -->  NUEL   ANUE               
      2.93747249E-11    2     -1000012        12                       # Z3SS   -->  ANUEL  NUE                
      2.93747249E-11    2      1000014       -14                       # Z3SS   -->  NUML   ANUM               
      2.93747249E-11    2     -1000014        14                       # Z3SS   -->  ANUML  NUM                
      5.12767995E-10    2      1000016       -16                       # Z3SS   -->  NUTL   ANUT               
      5.12767995E-10    2     -1000016        16                       # Z3SS   -->  ANUTL  NUT                
#         PDG         Width
DECAY   1000035  2.93202286E+01   # Z4SS  decays
#          BR          NDA       ID1       ID2       ID3       ID4
      1.80805948E-08    2      1000022        22                       # Z4SS   -->  Z1SS   GM                 
      8.42661123E-08    2      1000023        22                       # Z4SS   -->  Z2SS   GM                 
      1.39026546E-15    2      1000025        22                       # Z4SS   -->  Z3SS   GM                 
      2.37036139E-01    2      1000024       -24                       # Z4SS   -->  W1SS+  W-                 
      2.37036139E-01    2     -1000024        24                       # Z4SS   -->  W1SS-  W+                 
      7.89967626E-02    2      1000022        23                       # Z4SS   -->  Z1SS   Z0                 
      3.34566273E-03    2      1000023        23                       # Z4SS   -->  Z2SS   Z0                 
      8.32267588E-09    3      1000022         2        -2             # Z4SS   -->  Z1SS   UP     UB          
      1.88687288E-08    3      1000022         1        -1             # Z4SS   -->  Z1SS   DN     DB          
      1.88687288E-08    3      1000022         3        -3             # Z4SS   -->  Z1SS   ST     SB          
      8.32267588E-09    3      1000022         4        -4             # Z4SS   -->  Z1SS   CH     CB          
      2.32469597E-06    3      1000022         5        -5             # Z4SS   -->  Z1SS   BT     BB          
      9.87189210E-08    3      1000022        15       -15             # Z4SS   -->  Z1SS   TAU-   TAU+        
      5.45718692E-10    3      1000023         2        -2             # Z4SS   -->  Z2SS   UP     UB          
      1.03618211E-10    3      1000023         1        -1             # Z4SS   -->  Z2SS   DN     DB          
      1.03618211E-10    3      1000023         3        -3             # Z4SS   -->  Z2SS   ST     SB          
      5.45718692E-10    3      1000023         4        -4             # Z4SS   -->  Z2SS   CH     CB          
      2.38705020E-08    3      1000023         5        -5             # Z4SS   -->  Z2SS   BT     BB          
      1.41446932E-09    3      1000023        15       -15             # Z4SS   -->  Z2SS   TAU-   TAU+        
      6.41921488E-22    3      1000025         1        -1             # Z4SS   -->  Z3SS   DN     DB          
      3.25959891E-01    2      1000022        25                       # Z4SS   -->  Z1SS   HL0                
      1.17620774E-01    2      1000023        25                       # Z4SS   -->  Z2SS   HL0                
      3.25168885E-12    2      1000011       -11                       # Z4SS   -->  EL-    E+                 
      3.25168885E-12    2     -1000011        11                       # Z4SS   -->  EL+    E-                 
      3.24097585E-12    2      1000013       -13                       # Z4SS   -->  MUL-   MU+                
      3.24097585E-12    2     -1000013        13                       # Z4SS   -->  MUL+   MU-                
      2.63222741E-08    2      2000011       -11                       # Z4SS   -->  ER-    E+                 
      2.63222741E-08    2     -2000011        11                       # Z4SS   -->  ER+    E-                 
      2.63221747E-08    2      2000013       -13                       # Z4SS   -->  MUR-   MU+                
      2.63221747E-08    2     -2000013        13                       # Z4SS   -->  MUR+   MU-                
      1.06154675E-06    2      1000015       -15                       # Z4SS   -->  TAU1-  TAU+               
      1.06154675E-06    2     -1000015        15                       # Z4SS   -->  TAU1+  TAU-               
      2.60460720E-08    2      2000015       -15                       # Z4SS   -->  TAU2-  TAU+               
      2.60460720E-08    2     -2000015        15                       # Z4SS   -->  TAU2+  TAU-               
      3.97687661E-10    2      1000012       -12                       # Z4SS   -->  NUEL   ANUE               
      3.97687661E-10    2     -1000012        12                       # Z4SS   -->  ANUEL  NUE                
      3.97687661E-10    2      1000014       -14                       # Z4SS   -->  NUML   ANUM               
      3.97687661E-10    2     -1000014        14                       # Z4SS   -->  ANUML  NUM                
      4.03358813E-09    2      1000016       -16                       # Z4SS   -->  NUTL   ANUT               
      4.03358813E-09    2     -1000016        16                       # Z4SS   -->  ANUTL  NUT                
#         PDG         Width
DECAY   1000024  4.61124144E-15   # W1SS+ decays
#          BR          NDA       ID1       ID2       ID3       ID4
      1.00000000E+00    2      1000022         0                       # W1SS+  -->  Z1SS   PI+                
#         PDG         Width
DECAY   1000037  3.74445763E+01   # W2SS+ decays
#          BR          NDA       ID1       ID2       ID3       ID4
      2.11834017E-08    3      1000022         2        -1             # W2SS+  -->  Z1SS   UP     DB          
      2.11834017E-08    3      1000022         4        -3             # W2SS+  -->  Z1SS   CH     SB          
      7.70301867E-08    3      1000022       -15        16             # W2SS+  -->  Z1SS   TAU+   NUT         
      3.34653735E-01    2      1000022        24                       # W2SS+  -->  Z1SS   W+                 
      1.10548702E-10    3      1000023         2        -1             # W2SS+  -->  Z2SS   UP     DB          
      1.10548702E-10    3      1000023         4        -3             # W2SS+  -->  Z2SS   CH     SB          
      1.12559528E-09    3      1000023       -15        16             # W2SS+  -->  Z2SS   TAU+   NUT         
      6.59053251E-02    2      1000023        24                       # W2SS+  -->  Z2SS   W+                 
      1.01126406E-10    3      1000025         2        -1             # W2SS+  -->  Z3SS   UP     DB          
      1.01126406E-10    3      1000025         4        -3             # W2SS+  -->  Z3SS   CH     SB          
      3.37087996E-11    3      1000025       -11        12             # W2SS+  -->  Z3SS   E+     NUE         
      3.37087996E-11    3      1000025       -13        14             # W2SS+  -->  Z3SS   MU+    NUM         
      3.37087996E-11    3      1000025       -15        16             # W2SS+  -->  Z3SS   TAU+   NUT         
      3.30517176E-11    3      1000035         2        -1             # W2SS+  -->  Z4SS   UP     DB          
      3.30517176E-11    3      1000035         4        -3             # W2SS+  -->  Z4SS   CH     SB          
      1.10172383E-11    3      1000035       -11        12             # W2SS+  -->  Z4SS   E+     NUE         
      1.10172383E-11    3      1000035       -13        14             # W2SS+  -->  Z4SS   MU+    NUM         
      1.10172383E-11    3      1000035       -15        16             # W2SS+  -->  Z4SS   TAU+   NUT         
      5.70421599E-10    2      1000012       -11                       # W2SS+  -->  NUEL   E+                 
      5.70378411E-10    2      1000014       -13                       # W2SS+  -->  NUML   MU+                
      1.58291499E-07    2      1000016       -15                       # W2SS+  -->  NUTL   TAU+               
      2.06650919E-09    2     -1000011        12                       # W2SS+  -->  EL+    NUE                
      2.06650919E-09    2     -1000013        14                       # W2SS+  -->  MUL+   NUM                
      1.88480249E-06    2     -1000015        16                       # W2SS+  -->  TAU1+  NUT                
      1.72558181E-08    2     -2000015        16                       # W2SS+  -->  TAU2+  NUT                
      2.90633708E-01    2      1000024        23                       # W2SS+  -->  W1SS+  Z0                 
      6.66220767E-09    3      1000024         1        -1             # W2SS+  -->  W1SS+  DN     DB          
      6.66220767E-09    3      1000024         3        -3             # W2SS+  -->  W1SS+  ST     SB          
      4.41422543E-08    3      1000024         2        -2             # W2SS+  -->  W1SS+  UP     UB          
      4.41422543E-08    3      1000024         4        -4             # W2SS+  -->  W1SS+  CH     CB          
      3.08804929E-01    2      1000024        25                       # W2SS+  -->  W1SS+  HL0                
#         PDG         Width
DECAY        25  4.21644654E-03   # HL0   decays
#          BR          NDA       ID1       ID2       ID3       ID4
      4.73418682E-09    2           11       -11                       # HL0    -->  E-     E+                 
      1.99884962E-04    2           13       -13                       # HL0    -->  MU-    MU+                
      5.71716502E-02    2           15       -15                       # HL0    -->  TAU-   TAU+               
      5.94009362E-06    2            1        -1                       # HL0    -->  DN     DB                 
      2.40009557E-03    2            3        -3                       # HL0    -->  ST     SB                 
      7.84545124E-01    2            5        -5                       # HL0    -->  BT     BB                 
      1.89881553E-06    2            2        -2                       # HL0    -->  UP     UB                 
      3.56341749E-02    2            4        -4                       # HL0    -->  CH     CB                 
      1.91097020E-03    2           22        22                       # HL0    -->  GM     GM                 
      4.07737568E-02    2           21        21                       # HL0    -->  GL     GL                 
      3.96454614E-03    3           24        11       -12             # HL0    -->  W+     E-     ANUE        
      3.96454614E-03    3           24        13       -14             # HL0    -->  W+     MU-    ANUM        
      3.96454614E-03    3           24        15       -16             # HL0    -->  W+     TAU-   ANUT        
      1.18936375E-02    3           24        -2         1             # HL0    -->  W+     UB     DN          
      1.18936375E-02    3           24        -4         3             # HL0    -->  W+     CB     ST          
      3.96454614E-03    3          -24       -11        12             # HL0    -->  W-     E+     NUE         
      3.96454614E-03    3          -24       -13        14             # HL0    -->  W-     MU+    NUM         
      3.96454614E-03    3          -24       -15        16             # HL0    -->  W-     TAU+   NUT         
      1.18936375E-02    3          -24         2        -1             # HL0    -->  W-     UP     DB          
      1.18936375E-02    3          -24         4        -3             # HL0    -->  W-     CH     SB          
      4.09971661E-04    3           23        12       -12             # HL0    -->  Z0     NUE    ANUE        
      4.09971661E-04    3           23        14       -14             # HL0    -->  Z0     NUM    ANUM        
      4.09971661E-04    3           23        16       -16             # HL0    -->  Z0     NUT    ANUT        
      2.06334618E-04    3           23        11       -11             # HL0    -->  Z0     E-     E+          
      2.06334618E-04    3           23        13       -13             # HL0    -->  Z0     MU-    MU+         
      2.06334618E-04    3           23        15       -15             # HL0    -->  Z0     TAU-   TAU+        
      7.06884894E-04    3           23         2        -2             # HL0    -->  Z0     UP     UB          
      7.06884894E-04    3           23         4        -4             # HL0    -->  Z0     CH     CB          
      9.10641917E-04    3           23         1        -1             # HL0    -->  Z0     DN     DB          
      9.10641917E-04    3           23         3        -3             # HL0    -->  Z0     ST     SB          
      9.10641917E-04    3           23         5        -5             # HL0    -->  Z0     BT     BB          
#         PDG         Width
DECAY        35  3.71733627E+01   # HH0   decays
#          BR          NDA       ID1       ID2       ID3       ID4
      7.99604494E-10    2           11       -11                       # HH0    -->  E-     E+                 
      3.37607453E-05    2           13       -13                       # HH0    -->  MU-    MU+                
      9.66959167E-03    2           15       -15                       # HH0    -->  TAU-   TAU+               
      9.66394055E-07    2            1        -1                       # HH0    -->  DN     DB                 
      3.90472153E-04    2            3        -3                       # HH0    -->  ST     SB                 
      4.77231778E-02    2            5        -5                       # HH0    -->  BT     BB                 
      4.95218588E-10    2            2        -2                       # HH0    -->  UP     UB                 
      5.66145673E-06    2            4        -4                       # HH0    -->  CH     CB                 
      2.97513604E-01    2            6        -6                       # HH0    -->  TP     TB                 
      2.81534824E-07    2           22        22                       # HH0    -->  GM     GM                 
      2.36392880E-05    2           21        21                       # HH0    -->  GL     GL                 
      2.54462811E-05    2           24       -24                       # HH0    -->  W+     W-                 
      1.30583094E-05    2           23        23                       # HH0    -->  Z0     Z0                 
      3.19901825E-04    2      1000022   1000022                       # HH0    -->  Z1SS   Z1SS               
      1.72703047E-04    2      1000022   1000023                       # HH0    -->  Z1SS   Z2SS               
      1.77378476E-01    2      1000022   1000025                       # HH0    -->  Z1SS   Z3SS               
      3.77007388E-02    2      1000022   1000035                       # HH0    -->  Z1SS   Z4SS               
      1.01246242E-05    2      1000023   1000023                       # HH0    -->  Z2SS   Z2SS               
      6.56869961E-04    2      1000024  -1000024                       # HH0    -->  W1SS+  W1SS-              
      2.14125589E-01    2      1000024  -1000037                       # HH0    -->  W1SS+  W2SS-              
      2.14125589E-01    2     -1000024   1000037                       # HH0    -->  W1SS-  W2SS+              
      1.10384877E-04    2           25        25                       # HH0    -->  HL0    HL0                
#         PDG         Width
DECAY        36  3.63178482E+01   # HA0   decays
#          BR          NDA       ID1       ID2       ID3       ID4
      8.13108358E-10    2           11       -11                       # HA0    -->  E-     E+                 
      3.43309039E-05    2           13       -13                       # HA0    -->  MU-    MU+                
      9.83289536E-03    2           15       -15                       # HA0    -->  TAU-   TAU+               
      9.82753363E-07    2            1        -1                       # HA0    -->  DN     DB                 
      3.97081778E-04    2            3        -3                       # HA0    -->  ST     SB                 
      4.85310368E-02    2            5        -5                       # HA0    -->  BT     BB                 
      5.03117548E-10    2            2        -2                       # HA0    -->  UP     UB                 
      5.75549484E-06    2            4        -4                       # HA0    -->  CH     CB                 
      3.02958220E-01    2            6        -6                       # HA0    -->  TP     TB                 
      1.89730514E-07    2           22        22                       # HA0    -->  GM     GM                 
      2.73140795E-05    2           21        21                       # HA0    -->  GL     GL                 
      4.32839559E-04    2      1000022   1000022                       # HA0    -->  Z1SS   Z1SS               
      3.44265689E-04    2      1000022   1000023                       # HA0    -->  Z1SS   Z2SS               
      3.67707536E-02    2      1000022   1000025                       # HA0    -->  Z1SS   Z3SS               
      1.75936580E-01    2      1000022   1000035                       # HA0    -->  Z1SS   Z4SS               
      5.87934628E-05    2      1000023   1000023                       # HA0    -->  Z2SS   Z2SS               
      9.76058131E-04    2      1000024  -1000024                       # HA0    -->  W1SS+  W1SS-              
      2.11833552E-01    2      1000024  -1000037                       # HA0    -->  W1SS+  W2SS-              
      2.11833552E-01    2     -1000024   1000037                       # HA0    -->  W1SS-  W2SS+              
      2.58592718E-05    2           25        23                       # HA0    -->  HL0    Z0                 
#         PDG         Width
DECAY        37  3.63016777E+01   # H+    decays
#          BR          NDA       ID1       ID2       ID3       ID4
      8.18874857E-10    2           12       -11                       # H+     -->  NUE    E+                 
      3.45743756E-05    2           14       -13                       # H+     -->  NUM    MU+                
      9.90262907E-03    2           16       -15                       # H+     -->  NUT    TAU+               
      9.22549475E-07    2            2        -1                       # H+     -->  UP     DB                 
      3.77962569E-04    2            4        -3                       # H+     -->  CH     SB                 
      3.29355687E-01    2            6        -5                       # H+     -->  TP     BB                 
      8.63909065E-07    2      1000024   1000022                       # H+     -->  W1SS+  Z1SS               
      5.44626964E-04    2      1000024   1000023                       # H+     -->  W1SS+  Z2SS               
      2.20356092E-01    2      1000024   1000025                       # H+     -->  W1SS+  Z3SS               
      2.20072791E-01    2      1000024   1000035                       # H+     -->  W1SS+  Z4SS               
      2.19327718E-01    2      1000037   1000022                       # H+     -->  W2SS+  Z1SS               
      2.60494398E-05    2           25        24                       # H+     -->  HL0    W+                 
