#  ISAJET SUSY parameters in SUSY Les Houches Accord 2 format
#  Created by ISALHA 2.0 Last revision: C. Balazs 21 Apr 2009
Block SPINFO   # Program information
     1   ISASUGRA from ISAJET          # Spectrum Calculator
     2   7.80   29-OCT-2009 12:50:36   # Version number
Block MODSEL   # Model selection
     1     3   # Minimal anomaly mediated (AMSB) model             
Block SMINPUTS   # Standard Model inputs
     1     1.27836258E+02   # alpha_em^(-1)
     2     1.16570000E-05   # G_Fermi
     3     1.17200002E-01   # alpha_s(M_Z)
     4     9.11699982E+01   # m_{Z}(pole)
     5     4.19999981E+00   # m_{b}(m_{b})
     6     1.72500000E+02   # m_{top}(pole)
     7     1.77699995E+00   # m_{tau}(pole)
Block MINPAR   # SUSY breaking input parameters
     1     5.00000000E+03   # m_0
     2     6.80000000E+04   # m_{3/2}
     3     5.00000000E+00   # tan(beta)
     4     1.00000000E+00   # sign(mu)
Block EXTPAR   # Non-universal SUSY breaking parameters
     0     8.56622691E+15   # Input scale
Block MASS   # Scalar and gaugino mass spectrum
#  PDG code   mass                 particle
         5     4.80000000E+00   # b-quark pole mass calculated from mb(mb)_Msbar
         6     1.72500000E+02   # t-quark pole mass (not read by ME)
        15     1.77682000E+00   # tau pole mass (not read by ME)
        23     9.11876000E+01   # Z pole mass (not read by ME)
        24     8.04229965E+01   #  W^+
        25     1.15178123E+02   #  h^0            
        35     5.27589160E+03   #  H^0            
        36     5.24126953E+03   #  A^0            
        37     5.27635400E+03   #  H^+            
   1000001     5.11919482E+03   #  dnl            
   1000002     5.11860449E+03   #  upl            
   1000003     5.11919482E+03   #  stl            
   1000004     5.11860498E+03   #  chl            
   1000005     4.21811963E+03   #  b1             
   1000006     3.03275586E+03   #  t1             
   1000011     4.98496875E+03   #  el-            
   1000012     4.98633594E+03   #  nuel           
   1000013     4.98496875E+03   #  mul-           
   1000014     4.98633594E+03   #  numl           
   1000015     4.97374658E+03   #  tau1           
   1000016     4.98050439E+03   #  nutl           
   1000021     1.62966492E+03   #  glss           
   1000022     1.99544052E+02   #  z1ss           
   1000023     6.31858887E+02   #  z2ss           
   1000024     1.99715668E+02   #  w1ss           
   1000025    -1.35873462E+03   #  z3ss           
   1000035     1.36262952E+03   #  z4ss           
   1000037     1.36377026E+03   #  w2ss           
   2000001     5.14541357E+03   #  dnr            
   2000002     5.13948535E+03   #  upr            
   2000003     5.14541357E+03   #  str            
   2000004     5.13948535E+03   #  chr            
   2000005     5.12586670E+03   #  b2             
   2000006     4.23425488E+03   #  t2             
   2000011     4.98652441E+03   #  er-            
   2000013     4.98652441E+03   #  mur-           
   2000015     4.97876416E+03   #  tau2           
Block ALPHA   # Effective Higgs mixing parameter
         -1.97547287E-01   # alpha
Block STOPMIX   # stop mixing matrix
  1  1     9.95519757E-03   # O_{11}
  1  2    -9.99950469E-01   # O_{12}
  2  1     9.99950469E-01   # O_{21}
  2  2     9.95519757E-03   # O_{22}
Block SBOTMIX   # sbottom mixing matrix
  1  1     9.99997973E-01   # O_{11}
  1  2     2.02168105E-03   # O_{12}
  2  1    -2.02168105E-03   # O_{21}
  2  2     9.99997973E-01   # O_{22}
Block STAUMIX   # stau mixing matrix
  1  1     3.71963143E-01   # O_{11}
  1  2     9.28247511E-01   # O_{12}
  2  1    -9.28247511E-01   # O_{21}
  2  2     3.71963143E-01   # O_{22}
Block NMIX   # neutralino mixing matrix
  1  1     1.50987273E-03   #
  1  2    -9.98071909E-01   #
  1  3     5.87757193E-02   #
  1  4    -1.98875591E-02   #
  2  1    -9.98799026E-01   #
  2  2    -4.47721221E-03   #
  2  3    -4.19296026E-02   #
  2  4     2.49440484E-02   #
  3  1     1.21008605E-02   #
  3  2    -2.74712574E-02   #
  3  3    -7.06163764E-01   #
  3  4    -7.07412004E-01   #
  4  1     4.74513732E-02   #
  4  2    -5.54766878E-02   #
  4  3    -7.04357982E-01   #
  4  4     7.06081212E-01   #
Block UMIX   # chargino U mixing matrix
  1  1    -9.96648550E-01   # U_{11}
  1  2     8.18029344E-02   # U_{12}
  2  1    -8.18029344E-02   # U_{21}
  2  2    -9.96648550E-01   # U_{22}
Block VMIX   # chargino V mixing matrix
  1  1    -9.99574780E-01   # V_{11}
  1  2     2.91581973E-02   # V_{12}
  2  1    -2.91581973E-02   # V_{21}
  2  2    -9.99574780E-01   # V_{22}
Block GAUGE Q=  3.56136621E+03   #
     1     3.57524991E-01   # g`
     2     6.52378619E-01   # g_2
     3     1.21928012E+00   # g_3
Block YU Q=  3.56136621E+03   #
  3  3     8.42460811E-01   # y_t
Block YD Q=  3.56136621E+03   #
  3  3     6.43128231E-02   # y_b
Block YE Q=  3.56136621E+03   #
  3  3     5.15264086E-02   # y_tau
Block HMIX Q=  3.56136621E+03   # Higgs mixing parameters
     1     1.33768884E+03   # mu(Q)
     2     5.00000000E+00   # tan(beta)(M_GUT)
     3     2.52212280E+02   # Higgs vev at Q
     4     2.74709060E+07   # m_A^2(Q)
Block MSOFT Q=  3.56136621E+03   # DRbar SUSY breaking parameters
     1     6.34460876E+02   # M_1(Q)          
     2     1.85375626E+02   # M_2(Q)          
     3    -1.37822815E+03   # M_3(Q)          
    21     3.23374943E+04   # mH1^2(Q)            
    22    -1.28800134E+05   # mH2^2(Q)            
    31     4.96821240E+03   # MeL(Q)          
    32     4.96821240E+03   # MmuL(Q)         
    33     4.96255713E+03   # MtauL(Q)        
    34     4.98141650E+03   # MeR(Q)          
    35     4.98141650E+03   # MmuR(Q)         
    36     4.97043604E+03   # MtauR(Q)        
    41     5.03823975E+03   # MqL1(Q)         
    42     5.03823975E+03   # MqL2(Q)         
    43     4.15887256E+03   # MqL3(Q)         
    44     5.05877637E+03   # MuR(Q)          
    45     5.05877637E+03   # McR(Q)          
    46     3.04970386E+03   # MtR(Q)          
    47     5.06447266E+03   # MdR(Q)          
    48     5.06447266E+03   # MsR(Q)          
    49     5.05609229E+03   # MbR(Q)          
Block AU Q=  3.56136621E+03   #
  1  1     1.09936206E+03   # A_u
  2  2     1.09936206E+03   # A_c
  3  3     1.09936206E+03   # A_t
Block AD Q=  3.56136621E+03   #
  1  1     2.60176050E+03   # A_d
  2  2     2.60176050E+03   # A_s
  3  3     2.60176050E+03   # A_b
Block AE Q=  3.56136621E+03   #
  1  1     7.14527954E+02   # A_e
  2  2     7.14527954E+02   # A_mu
  3  3     7.14527954E+02   # A_tau
#
#  ISAJET decay tables in SUSY Les Houches accord format
#  Created by ISALHD. Last revision: C. Balazs, 2005 May 25
Block DCINFO                           # Program information
     1   ISASUGRA from ISAJET          # Spectrum Calculator
     2   7.80   29-OCT-2009 12:50:36   # Version number
#         PDG         Width
DECAY        23     2.49520000E+00   # Z width (SM calculation)
DECAY        24     2.08500000E+00   # W width (SM calculation)
#
#         PDG            Width  
DECAY         6  1.14680779E+00   # TP    decays
#          BR          NDA       ID1       ID2       ID3       ID4
      3.33333343E-01    3            2        -1         5             # TP     -->  UP     DB     BT          
      3.33333343E-01    3            4        -3         5             # TP     -->  CH     SB     BT          
      1.11111112E-01    3          -11        12         5             # TP     -->  E+     NUE    BT          
      1.11111112E-01    3          -13        14         5             # TP     -->  MU+    NUM    BT          
      1.11111112E-01    3          -15        16         5             # TP     -->  TAU+   NUT    BT          
#         PDG         Width
DECAY   1000021  8.39480606E-04   # GLSS  decays
#          BR          NDA       ID1       ID2       ID3       ID4
      7.56292492E-02    3      1000024         1        -2             # GLSS   -->  W1SS+  DN     UB          
      7.56292492E-02    3     -1000024         2        -1             # GLSS   -->  W1SS-  UP     DB          
      7.56292343E-02    3      1000024         3        -4             # GLSS   -->  W1SS+  ST     CB          
      7.56292343E-02    3     -1000024         4        -3             # GLSS   -->  W1SS-  CH     SB          
      1.60049096E-01    3      1000024         5        -6             # GLSS   -->  W1SS+  BT     TB          
      1.60049096E-01    3     -1000024         6        -5             # GLSS   -->  W1SS-  TP     BB          
      3.45398831E-07    3      1000037         1        -2             # GLSS   -->  W2SS+  DN     UB          
      3.45398831E-07    3     -1000037         2        -1             # GLSS   -->  W2SS-  UP     DB          
      3.45398831E-07    3      1000037         3        -4             # GLSS   -->  W2SS+  ST     CB          
      3.45398831E-07    3     -1000037         4        -3             # GLSS   -->  W2SS-  CH     SB          
      2.15289692E-04    3      1000037         5        -6             # GLSS   -->  W2SS+  BT     TB          
      2.15289692E-04    3     -1000037         6        -5             # GLSS   -->  W2SS-  TP     BB          
      1.94145377E-05    2      1000022        21                       # GLSS   -->  Z1SS   GL                 
      3.78131941E-02    3      1000022         2        -2             # GLSS   -->  Z1SS   UP     UB          
      3.78367826E-02    3      1000022         1        -1             # GLSS   -->  Z1SS   DN     DB          
      3.78367826E-02    3      1000022         3        -3             # GLSS   -->  Z1SS   ST     SB          
      3.78131717E-02    3      1000022         4        -4             # GLSS   -->  Z1SS   CH     CB          
      8.60611498E-02    3      1000022         5        -5             # GLSS   -->  Z1SS   BT     BB          
      7.37912059E-02    3      1000022         6        -6             # GLSS   -->  Z1SS   TP     TB          
      8.38194159E-04    2      1000023        21                       # GLSS   -->  Z2SS   GL                 
      6.12524338E-03    3      1000023         2        -2             # GLSS   -->  Z2SS   UP     UB          
      1.77581282E-03    3      1000023         1        -1             # GLSS   -->  Z2SS   DN     DB          
      1.77581282E-03    3      1000023         3        -3             # GLSS   -->  Z2SS   ST     SB          
      6.12524338E-03    3      1000023         4        -4             # GLSS   -->  Z2SS   CH     CB          
      2.25635269E-03    3      1000023         5        -5             # GLSS   -->  Z2SS   BT     BB          
      4.43442538E-02    3      1000023         6        -6             # GLSS   -->  Z2SS   TP     TB          
      1.31117203E-03    2      1000025        21                       # GLSS   -->  Z3SS   GL                 
      7.80045823E-08    3      1000025         2        -2             # GLSS   -->  Z3SS   UP     UB          
      9.82009993E-08    3      1000025         1        -1             # GLSS   -->  Z3SS   DN     DB          
      9.82009993E-08    3      1000025         3        -3             # GLSS   -->  Z3SS   ST     SB          
      7.80045610E-08    3      1000025         4        -4             # GLSS   -->  Z3SS   CH     CB          
      3.77504489E-06    3      1000025         5        -5             # GLSS   -->  Z3SS   BT     BB          
      1.22091174E-03    2      1000035        21                       # GLSS   -->  Z4SS   GL                 
      1.15922049E-07    3      1000035         2        -2             # GLSS   -->  Z4SS   UP     UB          
      1.51443800E-07    3      1000035         1        -1             # GLSS   -->  Z4SS   DN     DB          
      1.51443800E-07    3      1000035         3        -3             # GLSS   -->  Z4SS   ST     SB          
      1.15922006E-07    3      1000035         4        -4             # GLSS   -->  Z4SS   CH     CB          
      3.74466185E-06    3      1000035         5        -5             # GLSS   -->  Z4SS   BT     BB          
#         PDG         Width
DECAY   1000002  2.82521423E+02   # UPL   decays
#          BR          NDA       ID1       ID2       ID3       ID4
      7.56962150E-02    2      1000022         2                       # UPL    -->  Z1SS   UP                 
      2.59902910E-03    2      1000023         2                       # UPL    -->  Z2SS   UP                 
      4.20257420E-05    2      1000025         2                       # UPL    -->  Z3SS   UP                 
      1.44094636E-04    2      1000035         2                       # UPL    -->  Z4SS   UP                 
      7.69474626E-01    2      1000021         2                       # UPL    -->  GLSS   UP                 
      1.51932105E-01    2      1000024         1                       # UPL    -->  W1SS+  DN                 
      1.11919842E-04    2      1000037         1                       # UPL    -->  W2SS+  DN                 
#         PDG         Width
DECAY   1000001  2.82525116E+02   # DNL   decays
#          BR          NDA       ID1       ID2       ID3       ID4
      7.57879838E-02    2      1000022         1                       # DNL    -->  Z1SS   DN                 
      2.35692644E-03    2      1000023         1                       # DNL    -->  Z2SS   DN                 
      5.80861742E-05    2      1000025         1                       # DNL    -->  Z3SS   DN                 
      2.71139084E-04    2      1000035         1                       # DNL    -->  Z4SS   DN                 
      7.69585490E-01    2      1000021         1                       # DNL    -->  GLSS   DN                 
      1.51059404E-01    2     -1000024         2                       # DNL    -->  W1SS-  UP                 
      8.81014857E-04    2     -1000037         2                       # DNL    -->  W2SS-  UP                 
#         PDG         Width
DECAY   1000003  2.82525116E+02   # STL   decays
#          BR          NDA       ID1       ID2       ID3       ID4
      7.57879838E-02    2      1000022         3                       # STL    -->  Z1SS   ST                 
      2.35692644E-03    2      1000023         3                       # STL    -->  Z2SS   ST                 
      5.80861742E-05    2      1000025         3                       # STL    -->  Z3SS   ST                 
      2.71139084E-04    2      1000035         3                       # STL    -->  Z4SS   ST                 
      7.69585490E-01    2      1000021         3                       # STL    -->  GLSS   ST                 
      1.51059374E-01    2     -1000024         4                       # STL    -->  W1SS-  CH                 
      8.81014799E-04    2     -1000037         4                       # STL    -->  W2SS-  CH                 
#         PDG         Width
DECAY   1000004  2.82521423E+02   # CHL   decays
#          BR          NDA       ID1       ID2       ID3       ID4
      7.56962150E-02    2      1000022         4                       # CHL    -->  Z1SS   CH                 
      2.59902910E-03    2      1000023         4                       # CHL    -->  Z2SS   CH                 
      4.20257456E-05    2      1000025         4                       # CHL    -->  Z3SS   CH                 
      1.44094636E-04    2      1000035         4                       # CHL    -->  Z4SS   CH                 
      7.69474566E-01    2      1000021         4                       # CHL    -->  GLSS   CH                 
      1.51932120E-01    2      1000024         3                       # CHL    -->  W1SS+  ST                 
      1.11919871E-04    2      1000037         3                       # CHL    -->  W2SS+  ST                 
#         PDG         Width
DECAY   1000005  2.62938232E+02   # BT1   decays
#          BR          NDA       ID1       ID2       ID3       ID4
      6.70097023E-02    2      1000022         5                       # BT1    -->  Z1SS   BT                 
      2.05947482E-03    2      1000023         5                       # BT1    -->  Z2SS   BT                 
      6.05305366E-04    2      1000025         5                       # BT1    -->  Z3SS   BT                 
      7.76788802E-04    2      1000035         5                       # BT1    -->  Z4SS   BT                 
      6.21194601E-01    2      1000021         5                       # BT1    -->  GLSS   BT                 
      1.33248314E-01    2     -1000024         6                       # BT1    -->  W1SS-  TP                 
      1.73045278E-01    2     -1000037         6                       # BT1    -->  W2SS-  TP                 
      2.06053397E-03    2          -24   1000006                       # BT1    -->  W-     TP1                
#         PDG         Width
DECAY   1000006  1.41493851E+02   # TP1   decays
#          BR          NDA       ID1       ID2       ID3       ID4
      5.91135859E-01    2      1000021         6                       # TP1    -->  GLSS   TP                 
      5.81019158E-05    2      1000022         6                       # TP1    -->  Z1SS   TP                 
      4.38992828E-02    2      1000023         6                       # TP1    -->  Z2SS   TP                 
      9.09000933E-02    2      1000025         6                       # TP1    -->  Z3SS   TP                 
      9.09945890E-02    2      1000035         6                       # TP1    -->  Z4SS   TP                 
      1.28973727E-04    2      1000024         5                       # TP1    -->  W1SS+  BT                 
      1.82883099E-01    2      1000037         5                       # TP1    -->  W2SS+  BT                 
#         PDG         Width
DECAY   2000002  2.29867798E+02   # UPR   decays
#          BR          NDA       ID1       ID2       ID3       ID4
      1.14875668E-07    2      1000022         2                       # UPR    -->  Z1SS   UP                 
      4.89086062E-02    2      1000023         2                       # UPR    -->  Z2SS   UP                 
      6.40260350E-06    2      1000025         2                       # UPR    -->  Z3SS   UP                 
      9.83664431E-05    2      1000035         2                       # UPR    -->  Z4SS   UP                 
      9.50986564E-01    2      1000021         2                       # UPR    -->  GLSS   UP                 
#         PDG         Width
DECAY   2000001  2.21763962E+02   # DNR   decays
#          BR          NDA       ID1       ID2       ID3       ID4
      2.98029299E-08    2      1000022         1                       # DNR    -->  Z1SS   DN                 
      1.26894787E-02    2      1000023         1                       # DNR    -->  Z2SS   DN                 
      1.66163159E-06    2      1000025         1                       # DNR    -->  Z3SS   DN                 
      2.55285395E-05    2      1000035         1                       # DNR    -->  Z4SS   DN                 
      9.87283349E-01    2      1000021         1                       # DNR    -->  GLSS   DN                 
#         PDG         Width
DECAY   2000003  2.21763962E+02   # STR   decays
#          BR          NDA       ID1       ID2       ID3       ID4
      2.98029299E-08    2      1000022         3                       # STR    -->  Z1SS   ST                 
      1.26894787E-02    2      1000023         3                       # STR    -->  Z2SS   ST                 
      1.66163159E-06    2      1000025         3                       # STR    -->  Z3SS   ST                 
      2.55285395E-05    2      1000035         3                       # STR    -->  Z4SS   ST                 
      9.87283349E-01    2      1000021         3                       # STR    -->  GLSS   ST                 
#         PDG         Width
DECAY   2000004  2.29867783E+02   # CHR   decays
#          BR          NDA       ID1       ID2       ID3       ID4
      1.14875668E-07    2      1000022         4                       # CHR    -->  Z1SS   CH                 
      4.89086024E-02    2      1000023         4                       # CHR    -->  Z2SS   CH                 
      6.40260350E-06    2      1000025         4                       # CHR    -->  Z3SS   CH                 
      9.83664286E-05    2      1000035         4                       # CHR    -->  Z4SS   CH                 
      9.50986505E-01    2      1000021         4                       # CHR    -->  GLSS   CH                 
#         PDG         Width
DECAY   2000005  2.21418030E+02   # BT2   decays
#          BR          NDA       ID1       ID2       ID3       ID4
      4.04174398E-06    2      1000022         5                       # BT2    -->  Z1SS   BT                 
      1.26600787E-02    2      1000023         5                       # BT2    -->  Z2SS   BT                 
      8.70173448E-04    2      1000025         5                       # BT2    -->  Z3SS   BT                 
      8.90622439E-04    2      1000035         5                       # BT2    -->  Z4SS   BT                 
      9.83720958E-01    2      1000021         5                       # BT2    -->  GLSS   BT                 
      7.68901646E-06    2     -1000024         6                       # BT2    -->  W1SS-  TP                 
      1.72968803E-03    2     -1000037         6                       # BT2    -->  W2SS-  TP                 
      4.39200853E-08    2          -24   1000006                       # BT2    -->  W-     TP1                
      5.12060287E-05    2          -24   2000006                       # BT2    -->  W-     TP2                
      2.71550089E-05    2           23   1000005                       # BT2    -->  Z0     BT1                
      3.83283696E-05    2           25   1000005                       # BT2    -->  HL0    BT1                
#         PDG         Width
DECAY   2000006  2.64119629E+02   # TP2   decays
#          BR          NDA       ID1       ID2       ID3       ID4
      6.18933678E-01    2      1000021         6                       # TP2    -->  GLSS   TP                 
      1.34343863E-01    2      1000024         5                       # TP2    -->  W1SS+  BT                 
      1.14194176E-03    2      1000037         5                       # TP2    -->  W2SS+  BT                 
      1.07501727E-03    2           23   1000006                       # TP2    -->  Z0     TP1                
      2.90209078E-03    2           25   1000006                       # TP2    -->  HL0    TP1                
      6.67706951E-02    2      1000022         6                       # TP2    -->  Z1SS   TP                 
      2.43639410E-03    2      1000023         6                       # TP2    -->  Z2SS   TP                 
      8.64608660E-02    2      1000025         6                       # TP2    -->  Z3SS   TP                 
      8.59355330E-02    2      1000035         6                       # TP2    -->  Z4SS   TP                 
#         PDG         Width
DECAY   1000011  6.88389587E+01   # EL-   decays
#          BR          NDA       ID1       ID2       ID3       ID4
      3.02168071E-01    2      1000022        11                       # EL-    -->  Z1SS   E-                 
      9.03878659E-02    2      1000023        11                       # EL-    -->  Z2SS   E-                 
      1.13230868E-04    2      1000025        11                       # EL-    -->  Z3SS   E-                 
      2.25515469E-04    2      1000035        11                       # EL-    -->  Z4SS   E-                 
      6.03613615E-01    2     -1000024        12                       # EL-    -->  W1SS-  NUE                
      3.49170715E-03    2     -1000037        12                       # EL-    -->  W2SS-  NUE                
#         PDG         Width
DECAY   1000013  6.88389587E+01   # MUL-  decays
#          BR          NDA       ID1       ID2       ID3       ID4
      3.02168071E-01    2      1000022        13                       # MUL-   -->  Z1SS   MU-                
      9.03878659E-02    2      1000023        13                       # MUL-   -->  Z2SS   MU-                
      1.13230868E-04    2      1000025        13                       # MUL-   -->  Z3SS   MU-                
      2.25515469E-04    2      1000035        13                       # MUL-   -->  Z4SS   MU-                
      6.03613615E-01    2     -1000024        14                       # MUL-   -->  W1SS-  NUM                
      3.49170715E-03    2     -1000037        14                       # MUL-   -->  W2SS-  NUM                
#         PDG         Width
DECAY   1000015  3.10849171E+01   # TAU1- decays
#          BR          NDA       ID1       ID2       ID3       ID4
      9.55395103E-02    2      1000022        15                       # TAU1-  -->  Z1SS   TAU-               
      7.06000030E-01    2      1000023        15                       # TAU1-  -->  Z2SS   TAU-               
      2.83010444E-03    2      1000025        15                       # TAU1-  -->  Z3SS   TAU-               
      2.57756282E-03    2      1000035        15                       # TAU1-  -->  Z4SS   TAU-               
      1.90731585E-01    2     -1000024        16                       # TAU1-  -->  W1SS-  NUT                
      2.32131081E-03    2     -1000037        16                       # TAU1-  -->  W2SS-  NUT                
#         PDG         Width
DECAY   1000012  6.88792953E+01   # NUEL  decays
#          BR          NDA       ID1       ID2       ID3       ID4
      3.03080738E-01    2      1000022        12                       # NUEL   -->  Z1SS   NUE                
      8.74609649E-02    2      1000023        12                       # NUEL   -->  Z2SS   NUE                
      3.04062938E-04    2      1000025        12                       # NUEL   -->  Z3SS   NUE                
      1.73545303E-03    2      1000035        12                       # NUEL   -->  Z4SS   NUE                
      6.06975257E-01    2      1000024        11                       # NUEL   -->  W1SS+  E-                 
      4.43531695E-04    2      1000037        11                       # NUEL   -->  W2SS+  E-                 
#         PDG         Width
DECAY   1000014  6.88792953E+01   # NUML  decays
#          BR          NDA       ID1       ID2       ID3       ID4
      3.03080738E-01    2      1000022        14                       # NUML   -->  Z1SS   NUM                
      8.74609649E-02    2      1000023        14                       # NUML   -->  Z2SS   NUM                
      3.04062938E-04    2      1000025        14                       # NUML   -->  Z3SS   NUM                
      1.73545303E-03    2      1000035        14                       # NUML   -->  Z4SS   NUM                
      6.06975257E-01    2      1000024        13                       # NUML   -->  W1SS+  MU-                
      4.43531695E-04    2      1000037        13                       # NUML   -->  W2SS+  MU-                
#         PDG         Width
DECAY   1000016  6.90357895E+01   # NUTL  decays
#          BR          NDA       ID1       ID2       ID3       ID4
      3.02037746E-01    2      1000022        16                       # NUTL   -->  Z1SS   NUT                
      8.71539935E-02    2      1000023        16                       # NUTL   -->  Z2SS   NUT                
      3.02904984E-04    2      1000025        16                       # NUTL   -->  Z3SS   NUT                
      1.72883982E-03    2      1000035        16                       # NUTL   -->  Z4SS   NUT                
      6.04912937E-01    2      1000024        15                       # NUTL   -->  W1SS+  TAU-               
      3.86356190E-03    2      1000037        15                       # NUTL   -->  W2SS+  TAU-               
      7.42374998E-12    3      1000015        16       -15             # NUTL   -->  TAU1-  NUT    TAU+        
      7.42374998E-12    3      1000015        12       -11             # NUTL   -->  TAU1-  NUE    E+          
      7.42374998E-12    3      1000015        14       -13             # NUTL   -->  TAU1-  NUM    MU+         
      2.22712491E-11    3      1000015         2        -1             # NUTL   -->  TAU1-  UP     DB          
      2.22712491E-11    3      1000015         4        -3             # NUTL   -->  TAU1-  CH     SB          
#         PDG         Width
DECAY   2000011  2.45480404E+01   # ER-   decays
#          BR          NDA       ID1       ID2       ID3       ID4
      2.34784011E-06    2      1000022        11                       # ER-    -->  Z1SS   E-                 
      9.97876108E-01    2      1000023        11                       # ER-    -->  Z2SS   E-                 
      1.29659267E-04    2      1000025        11                       # ER-    -->  Z3SS   E-                 
      1.99190457E-03    2      1000035        11                       # ER-    -->  Z4SS   E-                 
#         PDG         Width
DECAY   2000013  2.45480404E+01   # MUR-  decays
#          BR          NDA       ID1       ID2       ID3       ID4
      2.34784011E-06    2      1000022        13                       # MUR-   -->  Z1SS   MU-                
      9.97876108E-01    2      1000023        13                       # MUR-   -->  Z2SS   MU-                
      1.29659267E-04    2      1000025        13                       # MUR-   -->  Z3SS   MU-                
      1.99190457E-03    2      1000035        13                       # MUR-   -->  Z4SS   MU-                
#         PDG         Width
DECAY   2000015  6.28556137E+01   # TAU2- decays
#          BR          NDA       ID1       ID2       ID3       ID4
      2.83252090E-01    2      1000022        15                       # TAU2-  -->  Z1SS   TAU-               
      1.38422564E-01    2      1000023        15                       # TAU2-  -->  Z2SS   TAU-               
      2.54810741E-03    2      1000025        15                       # TAU2-  -->  Z3SS   TAU-               
      3.50010651E-03    2      1000035        15                       # TAU2-  -->  Z4SS   TAU-               
      5.65852940E-01    2     -1000024        16                       # TAU2-  -->  W1SS-  NUT                
      6.42411085E-03    2     -1000037        16                       # TAU2-  -->  W2SS-  NUT                
#         PDG         Width
DECAY   1000023  9.61203314E-03   # Z2SS  decays
#          BR          NDA       ID1       ID2       ID3       ID4
      9.90631648E-08    2      1000022        22                       # Z2SS   -->  Z1SS   GM                 
      2.39348158E-01    2      1000024       -24                       # Z2SS   -->  W1SS+  W-                 
      2.39348158E-01    2     -1000024        24                       # Z2SS   -->  W1SS-  W+                 
      2.55702883E-02    2      1000022        23                       # Z2SS   -->  Z1SS   Z0                 
      5.10553434E-07    3      1000022         2        -2             # Z2SS   -->  Z1SS   UP     UB          
      4.63234215E-07    3      1000022         1        -1             # Z2SS   -->  Z1SS   DN     DB          
      4.63234215E-07    3      1000022         3        -3             # Z2SS   -->  Z1SS   ST     SB          
      5.10553150E-07    3      1000022         4        -4             # Z2SS   -->  Z1SS   CH     CB          
      1.01434534E-06    3      1000022         5        -5             # Z2SS   -->  Z1SS   BT     BB          
      1.64828862E-06    3      1000022        11       -11             # Z2SS   -->  Z1SS   E-     E+          
      1.64828862E-06    3      1000022        13       -13             # Z2SS   -->  Z1SS   MU-    MU+         
      1.65835274E-06    3      1000022        15       -15             # Z2SS   -->  Z1SS   TAU-   TAU+        
      1.59891226E-06    3      1000022        12       -12             # Z2SS   -->  Z1SS   NUE    ANUE        
      1.59891226E-06    3      1000022        14       -14             # Z2SS   -->  Z1SS   NUM    ANUM        
      1.60647119E-06    3      1000022        16       -16             # Z2SS   -->  Z1SS   NUT    ANUT        
      4.95720446E-01    2      1000022        25                       # Z2SS   -->  Z1SS   HL0                
#         PDG         Width
DECAY   1000025  9.87660789E+00   # Z3SS  decays
#          BR          NDA       ID1       ID2       ID3       ID4
      5.42179748E-07    2      1000022        22                       # Z3SS   -->  Z1SS   GM                 
      4.92845516E-08    2      1000023        22                       # Z3SS   -->  Z2SS   GM                 
      3.01167428E-01    2      1000024       -24                       # Z3SS   -->  W1SS+  W-                 
      3.01167428E-01    2     -1000024        24                       # Z3SS   -->  W1SS-  W+                 
      2.41226256E-01    2      1000022        23                       # Z3SS   -->  Z1SS   Z0                 
      8.81777778E-02    2      1000023        23                       # Z3SS   -->  Z2SS   Z0                 
      4.23627605E-10    3      1000022         2        -2             # Z3SS   -->  Z1SS   UP     UB          
      5.85809179E-10    3      1000022         1        -1             # Z3SS   -->  Z1SS   DN     DB          
      5.85809179E-10    3      1000022         3        -3             # Z3SS   -->  Z1SS   ST     SB          
      4.23627328E-10    3      1000022         4        -4             # Z3SS   -->  Z1SS   CH     CB          
      3.82955037E-08    3      1000022         5        -5             # Z3SS   -->  Z1SS   BT     BB          
      1.06966380E-10    3      1000022        11       -11             # Z3SS   -->  Z1SS   E-     E+          
      1.06966380E-10    3      1000022        13       -13             # Z3SS   -->  Z1SS   MU-    MU+         
      5.20847410E-09    3      1000022        15       -15             # Z3SS   -->  Z1SS   TAU-   TAU+        
      2.87934315E-10    3      1000022        12       -12             # Z3SS   -->  Z1SS   NUE    ANUE        
      2.87934315E-10    3      1000022        14       -14             # Z3SS   -->  Z1SS   NUM    ANUM        
      2.89333862E-10    3      1000022        16       -16             # Z3SS   -->  Z1SS   NUT    ANUT        
      7.79627665E-12    3      1000023         2        -2             # Z3SS   -->  Z2SS   UP     UB          
      3.74330515E-12    3      1000023         1        -1             # Z3SS   -->  Z2SS   DN     DB          
      3.74330515E-12    3      1000023         3        -3             # Z3SS   -->  Z2SS   ST     SB          
      7.79627578E-12    3      1000023         4        -4             # Z3SS   -->  Z2SS   CH     CB          
      1.15895749E-09    3      1000023         5        -5             # Z3SS   -->  Z2SS   BT     BB          
      1.57251382E-11    3      1000023        11       -11             # Z3SS   -->  Z2SS   E-     E+          
      1.57251382E-11    3      1000023        13       -13             # Z3SS   -->  Z2SS   MU-    MU+         
      1.34321265E-09    3      1000023        15       -15             # Z3SS   -->  Z2SS   TAU-   TAU+        
      1.56796312E-11    3      1000023        12       -12             # Z3SS   -->  Z2SS   NUE    ANUE        
      1.56796312E-11    3      1000023        14       -14             # Z3SS   -->  Z2SS   NUM    ANUM        
      1.57566894E-11    3      1000023        16       -16             # Z3SS   -->  Z2SS   NUT    ANUT        
      6.25183135E-02    2      1000022        25                       # Z3SS   -->  Z1SS   HL0                
      5.74230868E-03    2      1000023        25                       # Z3SS   -->  Z2SS   HL0                
#         PDG         Width
DECAY   1000035  9.89565468E+00   # Z4SS  decays
#          BR          NDA       ID1       ID2       ID3       ID4
      1.07194118E-07    2      1000022        22                       # Z4SS   -->  Z1SS   GM                 
      2.77258416E-09    2      1000023        22                       # Z4SS   -->  Z2SS   GM                 
      2.64198038E-12    2      1000025        22                       # Z4SS   -->  Z3SS   GM                 
      2.93123752E-01    2      1000024       -24                       # Z4SS   -->  W1SS+  W-                 
      2.93123752E-01    2     -1000024        24                       # Z4SS   -->  W1SS-  W+                 
      5.93525693E-02    2      1000022        23                       # Z4SS   -->  Z1SS   Z0                 
      5.90936793E-03    2      1000023        23                       # Z4SS   -->  Z2SS   Z0                 
      2.36456965E-09    3      1000022         2        -2             # Z4SS   -->  Z1SS   UP     UB          
      4.45155157E-09    3      1000022         1        -1             # Z4SS   -->  Z1SS   DN     DB          
      4.45155157E-09    3      1000022         3        -3             # Z4SS   -->  Z1SS   ST     SB          
      2.36456876E-09    3      1000022         4        -4             # Z4SS   -->  Z1SS   CH     CB          
      4.69277417E-08    3      1000022         5        -5             # Z4SS   -->  Z1SS   BT     BB          
      3.46678602E-10    3      1000022        11       -11             # Z4SS   -->  Z1SS   E-     E+          
      3.46678602E-10    3      1000022        13       -13             # Z4SS   -->  Z1SS   MU-    MU+         
      5.43599654E-09    3      1000022        15       -15             # Z4SS   -->  Z1SS   TAU-   TAU+        
      2.67429634E-09    3      1000022        12       -12             # Z4SS   -->  Z1SS   NUE    ANUE        
      2.67429634E-09    3      1000022        14       -14             # Z4SS   -->  Z1SS   NUM    ANUM        
      2.68724065E-09    3      1000022        16       -16             # Z4SS   -->  Z1SS   NUT    ANUT        
      2.28262104E-10    3      1000023         2        -2             # Z4SS   -->  Z2SS   UP     UB          
      5.46058511E-11    3      1000023         1        -1             # Z4SS   -->  Z2SS   DN     DB          
      5.46058511E-11    3      1000023         3        -3             # Z4SS   -->  Z2SS   ST     SB          
      2.28262076E-10    3      1000023         4        -4             # Z4SS   -->  Z2SS   CH     CB          
      1.24223443E-09    3      1000023         5        -5             # Z4SS   -->  Z2SS   BT     BB          
      4.21326085E-10    3      1000023        11       -11             # Z4SS   -->  Z2SS   E-     E+          
      4.21326085E-10    3      1000023        13       -13             # Z4SS   -->  Z2SS   MU-    MU+         
      1.76794190E-09    3      1000023        15       -15             # Z4SS   -->  Z2SS   TAU-   TAU+        
      2.34424063E-10    3      1000023        12       -12             # Z4SS   -->  Z2SS   NUE    ANUE        
      2.34424063E-10    3      1000023        14       -14             # Z4SS   -->  Z2SS   NUM    ANUM        
      2.35572062E-10    3      1000023        16       -16             # Z4SS   -->  Z2SS   NUT    ANUT        
      1.18831360E-11    3      1000025         2        -2             # Z4SS   -->  Z3SS   UP     UB          
      1.53234109E-11    3      1000025         1        -1             # Z4SS   -->  Z3SS   DN     DB          
      1.53234109E-11    3      1000025         3        -3             # Z4SS   -->  Z3SS   ST     SB          
      1.18831360E-11    3      1000025         4        -4             # Z4SS   -->  Z3SS   CH     CB          
      3.47610677E-12    3      1000025        11       -11             # Z4SS   -->  Z3SS   E-     E+          
      3.47610677E-12    3      1000025        13       -13             # Z4SS   -->  Z3SS   MU-    MU+         
      6.91634423E-12    3      1000025        12       -12             # Z4SS   -->  Z3SS   NUE    ANUE        
      6.91634423E-12    3      1000025        14       -14             # Z4SS   -->  Z3SS   NUM    ANUM        
      6.91634423E-12    3      1000025        16       -16             # Z4SS   -->  Z3SS   NUT    ANUT        
      2.51696467E-01    2      1000022        25                       # Z4SS   -->  Z1SS   HL0                
      9.67940018E-02    2      1000023        25                       # Z4SS   -->  Z2SS   HL0                
#         PDG         Width
DECAY   1000024  4.38577270E-15   # W1SS+ decays
#          BR          NDA       ID1       ID2       ID3       ID4
      9.76562262E-01    2      1000022         0                       # W1SS+  -->  Z1SS   PI+                
      1.17188850E-02    3      1000022       -11        12             # W1SS+  -->  Z1SS   E+     NUE         
      1.17188850E-02    3      1000022       -13        14             # W1SS+  -->  Z1SS   MU+    NUM         
#         PDG         Width
DECAY   1000037  9.83952999E+00   # W2SS+ decays
#          BR          NDA       ID1       ID2       ID3       ID4
      5.70743719E-09    3      1000022         2        -1             # W2SS+  -->  Z1SS   UP     DB          
      5.70743719E-09    3      1000022         4        -3             # W2SS+  -->  Z1SS   CH     SB          
      2.11903273E-09    3      1000022       -11        12             # W2SS+  -->  Z1SS   E+     NUE         
      2.11903273E-09    3      1000022       -13        14             # W2SS+  -->  Z1SS   MU+    NUM         
      7.32261851E-09    3      1000022       -15        16             # W2SS+  -->  Z1SS   TAU+   NUT         
      2.89345264E-01    2      1000022        24                       # W2SS+  -->  Z1SS   W+                 
      7.04643358E-11    3      1000023         2        -1             # W2SS+  -->  Z2SS   UP     DB          
      7.04643288E-11    3      1000023         4        -3             # W2SS+  -->  Z2SS   CH     SB          
      2.45645587E-10    3      1000023       -11        12             # W2SS+  -->  Z2SS   E+     NUE         
      2.45645587E-10    3      1000023       -13        14             # W2SS+  -->  Z2SS   MU+    NUM         
      1.60129376E-09    3      1000023       -15        16             # W2SS+  -->  Z2SS   TAU+   NUT         
      9.70013216E-02    2      1000023        24                       # W2SS+  -->  Z2SS   W+                 
      1.40214812E-10    3      1000025         2        -1             # W2SS+  -->  Z3SS   UP     DB          
      1.40214812E-10    3      1000025         4        -3             # W2SS+  -->  Z3SS   CH     SB          
      4.67382556E-11    3      1000025       -11        12             # W2SS+  -->  Z3SS   E+     NUE         
      4.67382556E-11    3      1000025       -13        14             # W2SS+  -->  Z3SS   MU+    NUM         
      4.67383389E-11    3      1000025       -15        16             # W2SS+  -->  Z3SS   TAU+   NUT         
      8.70719919E-14    3      1000035         2        -1             # W2SS+  -->  Z4SS   UP     DB          
      2.90239871E-14    3      1000035       -11        12             # W2SS+  -->  Z4SS   E+     NUE         
      2.90239871E-14    3      1000035       -13        14             # W2SS+  -->  Z4SS   MU+    NUM         
      2.97708571E-01    2      1000024        23                       # W2SS+  -->  W1SS+  Z0                 
      1.51182089E-09    3      1000024         1        -1             # W2SS+  -->  W1SS+  DN     DB          
      1.51182045E-09    3      1000024         3        -3             # W2SS+  -->  W1SS+  ST     SB          
      1.18239800E-08    3      1000024         2        -2             # W2SS+  -->  W1SS+  UP     UB          
      1.18239800E-08    3      1000024         4        -4             # W2SS+  -->  W1SS+  CH     CB          
      4.39841186E-09    3      1000024        12       -12             # W2SS+  -->  W1SS+  NUE    ANUE        
      4.39841186E-09    3      1000024        14       -14             # W2SS+  -->  W1SS+  NUM    ANUM        
      4.43958070E-09    3      1000024        16       -16             # W2SS+  -->  W1SS+  NUT    ANUT        
      5.61479307E-10    3      1000024        11       -11             # W2SS+  -->  W1SS+  E-     E+          
      5.61479307E-10    3      1000024        13       -13             # W2SS+  -->  W1SS+  MU-    MU+         
      5.64201741E-10    3      1000024        15       -15             # W2SS+  -->  W1SS+  TAU-   TAU+        
      3.15944791E-01    2      1000024        25                       # W2SS+  -->  W1SS+  HL0                
#         PDG         Width
DECAY        25  4.06413805E-03   # HL0   decays
#          BR          NDA       ID1       ID2       ID3       ID4
      4.82340523E-09    2           11       -11                       # HL0    -->  E-     E+                 
      2.03651842E-04    2           13       -13                       # HL0    -->  MU-    MU+                
      5.82460165E-02    2           15       -15                       # HL0    -->  TAU-   TAU+               
      6.05373907E-06    2            1        -1                       # HL0    -->  DN     DB                 
      2.44601397E-03    2            3        -3                       # HL0    -->  ST     SB                 
      8.01677585E-01    2            5        -5                       # HL0    -->  BT     BB                 
      1.93394499E-06    2            2        -2                       # HL0    -->  UP     UB                 
      3.63977626E-02    2            4        -4                       # HL0    -->  CH     CB                 
      1.85953302E-03    2           22        22                       # HL0    -->  GM     GM                 
      3.97709794E-02    2           21        21                       # HL0    -->  GL     GL                 
      3.06979031E-03    3           24        11       -12             # HL0    -->  W+     E-     ANUE        
      3.06979031E-03    3           24        13       -14             # HL0    -->  W+     MU-    ANUM        
      3.06979031E-03    3           24        15       -16             # HL0    -->  W+     TAU-   ANUT        
      9.20937117E-03    3           24        -2         1             # HL0    -->  W+     UB     DN          
      9.20937117E-03    3           24        -4         3             # HL0    -->  W+     CB     ST          
      3.06979031E-03    3          -24       -11        12             # HL0    -->  W-     E+     NUE         
      3.06979031E-03    3          -24       -13        14             # HL0    -->  W-     MU+    NUM         
      3.06979031E-03    3          -24       -15        16             # HL0    -->  W-     TAU+   NUT         
      9.20937117E-03    3          -24         2        -1             # HL0    -->  W-     UP     DB          
      9.20937117E-03    3          -24         4        -3             # HL0    -->  W-     CH     SB          
      2.82745605E-04    3           23        12       -12             # HL0    -->  Z0     NUE    ANUE        
      2.82745605E-04    3           23        14       -14             # HL0    -->  Z0     NUM    ANUM        
      2.82745605E-04    3           23        16       -16             # HL0    -->  Z0     NUT    ANUT        
      1.42303019E-04    3           23        11       -11             # HL0    -->  Z0     E-     E+          
      1.42303019E-04    3           23        13       -13             # HL0    -->  Z0     MU-    MU+         
      1.42303019E-04    3           23        15       -15             # HL0    -->  Z0     TAU-   TAU+        
      4.87518031E-04    3           23         2        -2             # HL0    -->  Z0     UP     UB          
      4.87518031E-04    3           23         4        -4             # HL0    -->  Z0     CH     CB          
      6.28043315E-04    3           23         1        -1             # HL0    -->  Z0     DN     DB          
      6.28043315E-04    3           23         3        -3             # HL0    -->  Z0     ST     SB          
      6.28043315E-04    3           23         5        -5             # HL0    -->  Z0     BT     BB          
#         PDG         Width
DECAY        35  7.43649292E+01   # HH0   decays
#          BR          NDA       ID1       ID2       ID3       ID4
      3.01394160E-10    2           11       -11                       # HH0    -->  E-     E+                 
      1.27254052E-05    2           13       -13                       # HH0    -->  MU-    MU+                
      3.64474882E-03    2           15       -15                       # HH0    -->  TAU-   TAU+               
      3.64877849E-07    2            1        -1                       # HH0    -->  DN     DB                 
      1.47429077E-04    2            3        -3                       # HH0    -->  ST     SB                 
      1.82169452E-02    2            5        -5                       # HH0    -->  BT     BB                 
      1.87093258E-10    2            2        -2                       # HH0    -->  UP     UB                 
      2.19984418E-06    2            4        -4                       # HH0    -->  CH     CB                 
      1.15389854E-01    2            6        -6                       # HH0    -->  TP     TB                 
      1.41835656E-07    2           22        22                       # HH0    -->  GM     GM                 
      1.36038743E-05    2           21        21                       # HH0    -->  GL     GL                 
      1.47806022E-05    2           24       -24                       # HH0    -->  W+     W-                 
      7.58368469E-06    2           23        23                       # HH0    -->  Z0     Z0                 
      1.70569099E-03    2      1000022   1000022                       # HH0    -->  Z1SS   Z1SS               
      1.22714229E-03    2      1000022   1000023                       # HH0    -->  Z1SS   Z2SS               
      1.81842744E-01    2      1000022   1000025                       # HH0    -->  Z1SS   Z3SS               
      7.59743825E-02    2      1000022   1000035                       # HH0    -->  Z1SS   Z4SS               
      2.12573708E-04    2      1000023   1000023                       # HH0    -->  Z2SS   Z2SS               
      5.47505133E-02    2      1000023   1000025                       # HH0    -->  Z2SS   Z3SS               
      2.07905956E-02    2      1000023   1000035                       # HH0    -->  Z2SS   Z4SS               
      3.02615517E-04    2      1000025   1000025                       # HH0    -->  Z3SS   Z3SS               
      1.92019739E-03    2      1000025   1000035                       # HH0    -->  Z3SS   Z4SS               
      7.60166324E-04    2      1000035   1000035                       # HH0    -->  Z4SS   Z4SS               
      3.28426110E-03    2      1000024  -1000024                       # HH0    -->  W1SS+  W1SS-              
      5.80388551E-05    2      1000037  -1000037                       # HH0    -->  W2SS+  W2SS-              
      2.59832054E-01    2      1000024  -1000037                       # HH0    -->  W1SS+  W2SS-              
      2.59832054E-01    2     -1000024   1000037                       # HH0    -->  W1SS-  W2SS+              
      5.65470873E-05    2           25        25                       # HH0    -->  HL0    HL0                
#         PDG         Width
DECAY        36  7.37777939E+01   # HA0   decays
#          BR          NDA       ID1       ID2       ID3       ID4
      3.01817460E-10    2           11       -11                       # HA0    -->  E-     E+                 
      1.27432786E-05    2           13       -13                       # HA0    -->  MU-    MU+                
      3.64986924E-03    2           15       -15                       # HA0    -->  TAU-   TAU+               
      3.65405157E-07    2            1        -1                       # HA0    -->  DN     DB                 
      1.47642088E-04    2            3        -3                       # HA0    -->  ST     SB                 
      1.82432923E-02    2            5        -5                       # HA0    -->  BT     BB                 
      1.87068194E-10    2            2        -2                       # HA0    -->  UP     UB                 
      2.20100969E-06    2            4        -4                       # HA0    -->  CH     CB                 
      1.15798593E-01    2            6        -6                       # HA0    -->  TP     TB                 
      1.75910216E-07    2           22        22                       # HA0    -->  GM     GM                 
      1.56306396E-05    2           21        21                       # HA0    -->  GL     GL                 
      2.25306978E-03    2      1000022   1000022                       # HA0    -->  Z1SS   Z1SS               
      1.84524409E-03    2      1000022   1000023                       # HA0    -->  Z1SS   Z2SS               
      7.70654753E-02    2      1000022   1000025                       # HA0    -->  Z1SS   Z3SS               
      1.79333657E-01    2      1000022   1000035                       # HA0    -->  Z1SS   Z4SS               
      3.64225794E-04    2      1000023   1000023                       # HA0    -->  Z2SS   Z2SS               
      2.10882761E-02    2      1000023   1000025                       # HA0    -->  Z2SS   Z3SS               
      5.38216643E-02    2      1000023   1000035                       # HA0    -->  Z2SS   Z4SS               
      1.82562813E-04    2      1000025   1000025                       # HA0    -->  Z3SS   Z3SS               
      1.00711826E-03    2      1000025   1000035                       # HA0    -->  Z3SS   Z4SS               
      2.33614282E-03    2      1000035   1000035                       # HA0    -->  Z4SS   Z4SS               
      4.39811917E-03    2      1000024  -1000024                       # HA0    -->  W1SS+  W1SS-              
      1.01279246E-03    2      1000037  -1000037                       # HA0    -->  W2SS+  W2SS-              
      2.58703172E-01    2      1000024  -1000037                       # HA0    -->  W1SS+  W2SS-              
      2.58703172E-01    2     -1000024   1000037                       # HA0    -->  W1SS-  W2SS+              
      1.47854043E-05    2           25        23                       # HA0    -->  HL0    Z0                 
#         PDG         Width
DECAY        37  7.36581268E+01   # H+    decays
#          BR          NDA       ID1       ID2       ID3       ID4
      3.04331421E-10    2           12       -11                       # H+     -->  NUE    E+                 
      1.28494221E-05    2           14       -13                       # H+     -->  NUM    MU+                
      3.68027063E-03    2           16       -15                       # H+     -->  NUT    TAU+               
      3.42861682E-07    2            2        -1                       # H+     -->  UP     DB                 
      1.40525342E-04    2            4        -3                       # H+     -->  CH     SB                 
      1.25473201E-01    2            6        -5                       # H+     -->  TP     BB                 
      4.71999442E-07    2      1000024   1000022                       # H+     -->  W1SS+  Z1SS               
      3.09456931E-03    2      1000024   1000023                       # H+     -->  W1SS+  Z2SS               
      2.62588054E-01    2      1000024   1000025                       # H+     -->  W1SS+  Z3SS               
      2.61442423E-01    2      1000024   1000035                       # H+     -->  W1SS+  Z4SS               
      2.64135927E-01    2      1000037   1000022                       # H+     -->  W2SS+  Z1SS               
      7.79695064E-02    2      1000037   1000023                       # H+     -->  W2SS+  Z2SS               
      8.61409062E-04    2      1000037   1000025                       # H+     -->  W2SS+  Z3SS               
      5.85599628E-04    2      1000037   1000035                       # H+     -->  W2SS+  Z4SS               
      1.49154084E-05    2           25        24                       # H+     -->  HL0    W+                 
