#  ISAJET SUSY parameters in SUSY Les Houches Accord 2 format
#  Created by ISALHA 2.0 Last revision: C. Balazs 21 Apr 2009
Block SPINFO   # Program information
     1    ISASUSY from ISAJET          # Spectrum Calculator
     2   7.80   29-OCT-2009 12:50:36   # Version number
Block MODSEL   # Model selection
     1     0   # general MSSM-24 model                             
BLOCK SMINPUTS  # Standard Model inputs
     1     1.27934000E+02   # alpha_em^-1(M_Z)^MSbar
     2     1.16637000E-05   # G_F [GeV^-2]
     3     1.18000000E-01   # alpha_S(M_Z)^MSbar
     4     9.11876000E+01   # M_Z pole mass
     5     4.25000000E+00   # mb(mb)^MSbar
     6     1.72500000E+02   # mt pole mass
     7     1.77682000E+00   # mtau pole mass
#
Block MINPAR   # SUSY breaking input parameters.
     3     1.00000000E+01   # tan(beta)
     4     2.50000000E+03   # mu
Block MSOFT   # Non-universal SUSY breaking parameters 
     1     0.00000000E+00   # M_1(Q)          
     2     2.50000000E+03   # M_2(Q)          
     3     2.50000000E+03   # M_3(Q)          
    11     0.00000000E+00   #     At          
    12     0.00000000E+00   #     Ab          
    13     2.50000000E+04   #   Atau          
    23     2.50000000E+03   #    MUE          
    25     1.00000000E+01   #    TB           
    26     2.50000000E+03   #    MA0          
    31     2.50000000E+03   # MeL(Q)          
    32     2.50000000E+03   # MmuL(Q)         
    33     1.20000000E+02   # MtauL(Q)        
    34     2.50000000E+03   # MeR(Q)          
    35     2.50000000E+03   # MmuR(Q)         
    36     1.20000000E+02   # MtauR(Q)        
    41     2.50000000E+03   # MqL1(Q)         
    42     2.50000000E+03   # MqL2(Q)         
    43     2.50000000E+03   # MqL3(Q)         
    44     2.50000000E+03   # MuR(Q)          
    45     2.50000000E+03   # McR(Q)          
    46     2.50000000E+03   # MtR(Q)          
    47     2.50000000E+03   # MdR(Q)          
    48     2.50000000E+03   # MsR(Q)          
    49     2.50000000E+03   # MbR(Q)          
Block MASS   # Scalar and gaugino mass spectrum
#  PDG code   mass                 particle
         5     4.80000000E+00   # b-quark pole mass calculated from mb(mb)_Msbar
         6     1.72500000E+02   # t-quark pole mass (not read by ME)
        15     1.77682000E+00   # tau pole mass (not read by ME)
        23     9.11876000E+01   # Z pole mass (not read by ME)
        24     8.03990000E+01   # W+
        25     1.13288651E+02   #  h^0            
        35     2.51651904E+03   #  H^0            
        36     2.50000000E+03   #  A^0            
        37     2.51772192E+03   #  H^+            
   1000001     2.50068872E+03   #  dnl            
   1000002     2.49943726E+03   #  upl            
   1000003     2.50068872E+03   #  stl            
   1000004     2.49943726E+03   #  chl            
   1000005     2.48715918E+03   #  b1             
   1000006     2.49648804E+03   #  t1             
   1000011     2.50043677E+03   #  el-            
   1000012     2.50000000E+03   #  nuel
   1000013     2.50043677E+03   #  mul-           
   1000014     2.50000000E+03   #  numl
   1000015     1.27321022E+02   #  tau1           
   1000016     2.50000000E+03   #  nutl
   1000021     2.50000000E+03   #  glss           
   1000022     0.50000000E+00   #  z1ss           
   1000023     2.43825439E+03   #  z2ss           
   1000024     2.43827466E+03   #  w1ss           
   1000025    -2.50083228E+03   #  z3ss           
   1000035     2.56273218E+03   #  z4ss           
   1000037     2.56276270E+03   #  w2ss           
   2000001     2.50012598E+03   #  dnr            
   2000002     2.49974805E+03   #  upr            
   2000003     2.50012598E+03   #  str            
   2000004     2.49974829E+03   #  chr            
   2000005     2.51358838E+03   #  b2             
   2000006     2.51009106E+03   #  t2             
   2000011     2.50037793E+03   #  er-            
   2000013     2.50037793E+03   #  mur-           
   2000015     1.29109039E+02   #  tau2           
Block ALPHA   # Effective Higgs mixing parameter
         -9.99947041E-02   # alpha
Block STOPMIX   # stop mixing matrix
  1  1     7.15110242E-01   # O_{11}
  1  2     6.99011683E-01   # O_{12}
  2  1    -6.99011683E-01   # O_{21}
  2  2     7.15110242E-01   # O_{22}
Block SBOTMIX   # sbottom mixing matrix
  1  1     6.99534595E-01   # O_{11}
  1  2     7.14598715E-01   # O_{12}
  2  1    -7.14598715E-01   # O_{21}
  2  2     6.99534595E-01   # O_{22}
Block STAUMIX   # stau mixing matrix
  1  1     5.03818192E-05   # O_{11}
  1  2    -1.00000000E+00   # O_{12}
  2  1     1.00000000E+00   # O_{21}
  2  2     5.03818192E-05   # O_{22}
Block NMIX   # neutralino mixing matrix
  1  1     9.99843597E-01   #
  1  2    -1.12593385E-04   #
  1  3     1.75938867E-02   #
  1  4    -1.75829756E-03   #
  2  1     9.83927678E-03   #
  2  2     7.06924856E-01   #
  2  3    -5.05169690E-01   #
  2  4     4.94938433E-01   #
  3  1    -1.11939572E-02   #
  3  2     1.01850284E-02   #
  3  3     7.06882298E-01   #
  3  4     7.07169652E-01   #
  4  1     9.51484405E-03   #
  4  2    -7.07215250E-01   #
  4  3    -4.94784892E-01   #
  4  4     5.04919827E-01   #
Block UMIX   # chargino U mixing matrix
  1  1    -6.99869037E-01   # U_{11}
  1  2     7.14271188E-01   # U_{12}
  2  1    -7.14271188E-01   # U_{21}
  2  2    -6.99869037E-01   # U_{22}
Block VMIX   # chargino V mixing matrix
  1  1    -7.14271009E-01   # V_{11}
  1  2     6.99869215E-01   # V_{12}
  2  1    -6.99869215E-01   # V_{21}
  2  2    -7.14271009E-01   # V_{22}
Block HMIX Q=  9.11699982E+01   # Higgs mixing parameters
     1     2.50000000E+03   # mu(Q)
     2     1.00000000E+01   # tan(beta)
Block AU   #
  3  3     0.00000000E+00   # A_t
Block AD   #
  3  3     0.00000000E+00   # A_b
Block AE   #
  3  3     2.50000000E+04   # A_tau
BLOCK YU Q=  4.67034192E+02  # The Yukawa couplings
  3  3     8.92844550E-01   # y_t(Q) DRbar
#
BLOCK YD Q=  4.67034192E+02  # The Yukawa couplings
  3  3     1.38840206E-01   # y_b(Q) DRbar
#
BLOCK YE Q=  4.67034192E+02  # The Yukawa couplings
  3  3     1.00890810E-01   # y_tau(Q) DRbar
#
#  ISAJET decay tables in SUSY Les Houches accord format 
#  Created by ISALHD. Last revision: C. Balazs, 2005 May 25
#  isajet_helpers.f
Block DCINFO                           # Program information
     1   ISASUGRA from ISAJET          # Spectrum Calculator
     2   7.80   29-OCT-2009 12:50:36   # Version number
#         PDG         Width
DECAY         6  1.14680767E+00   # TP    decays
#          BR          NDA       ID1       ID2       ID3       ID4
      3.33333343E-01    3            2        -1         5             # TP     -->  UP     DB     BT          
      3.33333343E-01    3            4        -3         5             # TP     -->  CH     SB     BT          
      1.11111112E-01    3          -11        12         5             # TP     -->  E+     NUE    BT          
      1.11111112E-01    3          -13        14         5             # TP     -->  MU+    NUM    BT          
      1.11111112E-01    3          -15        16         5             # TP     -->  TAU+   NUT    BT          
#         PDG         Width
DECAY   1000021  3.04471161E-02   # GLSS  decays
#          BR          NDA       ID1       ID2       ID3       ID4
      3.65571141E-05    3      1000024         1        -2             # GLSS   -->  W1SS+  DN     UB          
      3.65571141E-05    3     -1000024         2        -1             # GLSS   -->  W1SS-  UP     DB          
      3.65571141E-05    3      1000024         3        -4             # GLSS   -->  W1SS+  ST     CB          
      3.65571141E-05    3     -1000024         4        -3             # GLSS   -->  W1SS-  CH     SB          
      1.46568485E-03    2      1000022        21                       # GLSS   -->  Z1SS   GL                 
      1.93291456E-01    3      1000022         1        -1             # GLSS   -->  Z1SS   DN     DB          
      1.93291456E-01    3      1000022         3        -3             # GLSS   -->  Z1SS   ST     SB          
      9.19014513E-02    3      1000022         5        -5             # GLSS   -->  Z1SS   BT     BB          
      4.17426735E-01    3      1000022         6        -6             # GLSS   -->  Z1SS   TP     TB          
      4.76928399E-05    3      1000023         1        -1             # GLSS   -->  Z2SS   DN     DB          
      4.76928399E-05    3      1000023         3        -3             # GLSS   -->  Z2SS   ST     SB          
      1.75087072E-04    2     -1000002         2                       # GLSS   -->  UBL    UP                 
      1.75087072E-04    2      1000002        -2                       # GLSS   -->  UPL    UB                 
      3.50903101E-05    2     -2000002         2                       # GLSS   -->  UBR    UP                 
      3.50903101E-05    2      2000002        -2                       # GLSS   -->  UPR    UB                 
      5.09806126E-02    2     -1000005         5                       # GLSS   -->  BB1    BT                 
      5.09806126E-02    2      1000005        -5                       # GLSS   -->  BT1    BB                 
#         PDG         Width
DECAY   1000002  3.90034944E-01   # UPL   decays
#          BR          NDA       ID1       ID2       ID3       ID4
      9.03993189E-01    2      1000022         2                       # UPL    -->  Z1SS   UP                 
      3.16845775E-02    2      1000023         2                       # UPL    -->  Z2SS   UP                 
      6.43222556E-02    2      1000024         1                       # UPL    -->  W1SS+  DN                 
#         PDG         Width
DECAY   1000001  3.91459286E-01   # DNL   decays
#          BR          NDA       ID1       ID2       ID3       ID4
      9.03373420E-01    2      1000022         1                       # DNL    -->  Z1SS   DN                 
      3.25080082E-02    2      1000023         1                       # DNL    -->  Z2SS   DN                 
      1.08755063E-04    2      1000021         1                       # DNL    -->  GLSS   DN                 
      6.40098229E-02    2     -1000024         2                       # DNL    -->  W1SS-  UP                 
#         PDG         Width
DECAY   1000003  3.91453266E-01   # STL   decays
#          BR          NDA       ID1       ID2       ID3       ID4
      9.03387368E-01    2      1000022         3                       # STL    -->  Z1SS   ST                 
      3.25085111E-02    2      1000023         3                       # STL    -->  Z2SS   ST                 
      1.08756736E-04    2      1000021         3                       # STL    -->  GLSS   ST                 
      6.39953911E-02    2     -1000024         4                       # STL    -->  W1SS-  CH                 
#         PDG         Width
DECAY   1000004  3.90031964E-01   # CHL   decays
#          BR          NDA       ID1       ID2       ID3       ID4
      9.03999627E-01    2      1000022         4                       # CHL    -->  Z1SS   CH                 
      3.16771381E-02    2      1000023         4                       # CHL    -->  Z2SS   CH                 
      6.43232465E-02    2      1000024         3                       # CHL    -->  W1SS+  ST                 
#         PDG         Width
DECAY   1000005  9.29335654E-01   # BT1   decays
#          BR          NDA       ID1       ID2       ID3       ID4
      9.93645906E-01    2      1000022         5                       # BT1    -->  Z1SS   BT                 
      6.35408144E-03    2      1000023         5                       # BT1    -->  Z2SS   BT                 
#         PDG         Width
DECAY   1000006  2.97935390E+00   # TP1   decays
#          BR          NDA       ID1       ID2       ID3       ID4
      9.82073784E-01    2      1000022         6                       # TP1    -->  Z1SS   TP                 
      1.79262292E-02    2      1000024         5                       # TP1    -->  W1SS+  BT                 
#         PDG         Width
DECAY   2000002  5.64906883E+00   # UPR   decays
#          BR          NDA       ID1       ID2       ID3       ID4
      1.00000000E+00    2      1000022         2                       # UPR    -->  Z1SS   UP                 
#         PDG         Width
DECAY   2000001  1.41248202E+00   # DNR   decays
#          BR          NDA       ID1       ID2       ID3       ID4
      1.00000000E+00    2      1000022         1                       # DNR    -->  Z1SS   DN                 
#         PDG         Width
DECAY   2000003  1.41248202E+00   # STR   decays
#          BR          NDA       ID1       ID2       ID3       ID4
      1.00000000E+00    2      1000022         3                       # STR    -->  Z1SS   ST                 
#         PDG         Width
DECAY   2000004  5.64906645E+00   # CHR   decays
#          BR          NDA       ID1       ID2       ID3       ID4
      1.00000000E+00    2      1000022         4                       # CHR    -->  Z1SS   CH                 
#         PDG         Width
DECAY   2000005  8.58518064E-01   # BT2   decays
#          BR          NDA       ID1       ID2       ID3       ID4
      9.81925964E-01    2      1000022         5                       # BT2    -->  Z1SS   BT                 
      6.79698400E-03    2      1000023         5                       # BT2    -->  Z2SS   BT                 
      4.13017187E-05    2      1000025         5                       # BT2    -->  Z3SS   BT                 
      1.12357764E-02    2      1000021         5                       # BT2    -->  GLSS   BT                 
#         PDG         Width
DECAY   2000006  3.02946806E+00   # TP2   decays
#          BR          NDA       ID1       ID2       ID3       ID4
      5.71736833E-04    2      1000024         5                       # TP2    -->  W1SS+  BT                 
      9.99428272E-01    2      1000022         6                       # TP2    -->  Z1SS   TP                 
#         PDG         Width
DECAY   1000011  3.21496153E+00   # EL-   decays
#          BR          NDA       ID1       ID2       ID3       ID4
      9.88259256E-01    2      1000022        11                       # EL-    -->  Z1SS   E-                 
      4.00791597E-03    2      1000023        11                       # EL-    -->  Z2SS   E-                 
      7.73280161E-03    2     -1000024        12                       # EL-    -->  W1SS-  NUE                
#         PDG         Width
DECAY   1000013  3.21496153E+00   # MUL-  decays
#          BR          NDA       ID1       ID2       ID3       ID4
      9.88259315E-01    2      1000022        13                       # MUL-   -->  Z1SS   MU-                
      4.00790991E-03    2      1000023        13                       # MUL-   -->  Z2SS   MU-                
      7.73280161E-03    2     -1000024        14                       # MUL-   -->  W1SS-  NUM                
#         PDG         Width
DECAY   1000015  6.47139430E-01   # TAU1- decays
#          BR          NDA       ID1       ID2       ID3       ID4
      1.00000000E+00    2      1000022        15                       # TAU1-  -->  Z1SS   TAU-               
#         PDG         Width
DECAY   1000012  3.21525240E+00   # NUEL  decays
#          BR          NDA       ID1       ID2       ID3       ID4
      9.88485098E-01    2      1000022        12                       # NUEL   -->  Z1SS   NUE                
      3.73559236E-03    2      1000023        12                       # NUEL   -->  Z2SS   NUE                
      7.74022052E-03    2      1000024        11                       # NUEL   -->  W1SS+  E-                 
      3.90574787E-05    3     -1000015        11        16             # NUEL   -->  TAU1+  E-     NUT         
#         PDG         Width
DECAY   1000014  3.21525216E+00   # NUML  decays
#          BR          NDA       ID1       ID2       ID3       ID4
      9.88485157E-01    2      1000022        14                       # NUML   -->  Z1SS   NUM                
      3.73559236E-03    2      1000023        14                       # NUML   -->  Z2SS   NUM                
      7.74020981E-03    2      1000024        13                       # NUML   -->  W1SS+  MU-                
      3.90587811E-05    3     -1000015        13        16             # NUML   -->  TAU1+  MU-    NUT         
#         PDG         Width
DECAY   1000016  1.29226476E-01   # NUTL  decays
#          BR          NDA       ID1       ID2       ID3       ID4
      1.00000000E+00    2      1000022        16                       # NUTL   -->  Z1SS   NUT                
#         PDG         Width
DECAY   2000011  1.27136040E+01   # ER-   decays
#          BR          NDA       ID1       ID2       ID3       ID4
      1.00000000E+00    2      1000022        11                       # ER-    -->  Z1SS   E-                 
#         PDG         Width
DECAY   2000013  1.27136040E+01   # MUR-  decays
#          BR          NDA       ID1       ID2       ID3       ID4
      1.00000000E+00    2      1000022        13                       # MUR-   -->  Z1SS   MU-                
#         PDG         Width
DECAY   2000015  1.63997442E-01   # TAU2- decays
#          BR          NDA       ID1       ID2       ID3       ID4
      1.00000000E+00    2      1000022        15                       # TAU2-  -->  Z1SS   TAU-               
#         PDG         Width
DECAY   1000023  1.12373428E+01   # Z2SS  decays
#          BR          NDA       ID1       ID2       ID3       ID4
      2.73390152E-02    2      1000022        23                       # Z2SS   -->  Z1SS   Z0                 
      1.98772614E-05    3      1000022         2        -2             # Z2SS   -->  Z1SS   UP     UB          
      1.95695065E-05    3      1000022         1        -1             # Z2SS   -->  Z1SS   DN     DB          
      1.95695065E-05    3      1000022         3        -3             # Z2SS   -->  Z1SS   ST     SB          
      1.98772359E-05    3      1000022         4        -4             # Z2SS   -->  Z1SS   CH     CB          
      4.44513280E-05    3      1000022         5        -5             # Z2SS   -->  Z1SS   BT     BB          
      5.99420928E-05    3      1000022        11       -11             # Z2SS   -->  Z1SS   E-     E+          
      5.99420928E-05    3      1000022        13       -13             # Z2SS   -->  Z1SS   MU-    MU+         
      5.84984045E-05    3      1000022        12       -12             # Z2SS   -->  Z1SS   NUE    ANUE        
      5.84984045E-05    3      1000022        14       -14             # Z2SS   -->  Z1SS   NUM    ANUM        
      4.11526859E-02    2      1000022        25                       # Z2SS   -->  Z1SS   HL0                
      5.56750922E-03    2      1000015       -15                       # Z2SS   -->  TAU1-  TAU+               
      5.56750922E-03    2     -1000015        15                       # Z2SS   -->  TAU1+  TAU-               
      2.36049339E-01    2      2000015       -15                       # Z2SS   -->  TAU2-  TAU+               
      2.36049339E-01    2     -2000015        15                       # Z2SS   -->  TAU2+  TAU-               
      2.23957196E-01    2      1000016       -16                       # Z2SS   -->  NUTL   ANUT               
      2.23957196E-01    2     -1000016        16                       # Z2SS   -->  ANUTL  NUT                
#         PDG         Width
DECAY   1000025  2.10606813E+00   # Z3SS  decays
#          BR          NDA       ID1       ID2       ID3       ID4
      1.51467626E-04    3     -1000024         2        -1             # Z3SS   -->  W1SS-  UP     DB          
      5.04892087E-05    3     -1000024        12       -11             # Z3SS   -->  W1SS-  NUE    E+          
      5.04892087E-05    3     -1000024        14       -13             # Z3SS   -->  W1SS-  NUM    MU+         
      1.51467611E-04    3      1000024         1        -2             # Z3SS   -->  W1SS+  DN     UB          
      5.04892087E-05    3      1000024        11       -12             # Z3SS   -->  W1SS+  E-     ANUE        
      5.04892087E-05    3      1000024        13       -14             # Z3SS   -->  W1SS+  MU-    ANUM        
      1.51467611E-04    3     -1000024         4        -3             # Z3SS   -->  W1SS-  CH     SB          
      5.04892087E-05    3     -1000024        16       -15             # Z3SS   -->  W1SS-  NUT    TAU+        
      1.51467611E-04    3      1000024         3        -4             # Z3SS   -->  W1SS+  ST     CB          
      5.04892087E-05    3      1000024        15       -16             # Z3SS   -->  W1SS+  TAU-   ANUT        
      4.58231986E-01    2      1000022        23                       # Z3SS   -->  Z1SS   Z0                 
      1.43893398E-04    3      1000022         5        -5             # Z3SS   -->  Z1SS   BT     BB          
      1.21411631E-05    3      1000022        15       -15             # Z3SS   -->  Z1SS   TAU-   TAU+        
      3.89154229E-05    3      1000023         2        -2             # Z3SS   -->  Z2SS   UP     UB          
      5.01817012E-05    3      1000023         1        -1             # Z3SS   -->  Z2SS   DN     DB          
      5.01817012E-05    3      1000023         3        -3             # Z3SS   -->  Z2SS   ST     SB          
      3.89154229E-05    3      1000023         4        -4             # Z3SS   -->  Z2SS   CH     CB          
      4.71053536E-05    3      1000023         5        -5             # Z3SS   -->  Z2SS   BT     BB          
      1.13836932E-05    3      1000023        11       -11             # Z3SS   -->  Z2SS   E-     E+          
      1.13836932E-05    3      1000023        13       -13             # Z3SS   -->  Z2SS   MU-    MU+         
      1.12677262E-05    3      1000023        15       -15             # Z3SS   -->  Z2SS   TAU-   TAU+        
      2.26499706E-05    3      1000023        12       -12             # Z3SS   -->  Z2SS   NUE    ANUE        
      2.26499706E-05    3      1000023        14       -14             # Z3SS   -->  Z2SS   NUM    ANUM        
      2.26499706E-05    3      1000023        16       -16             # Z3SS   -->  Z2SS   NUT    ANUT        
      3.01496804E-01    2      1000022        25                       # Z3SS   -->  Z1SS   HL0                
      2.66949155E-05    2      1000005        -5                       # Z3SS   -->  BT1    BB                 
      2.66949155E-05    2     -1000005         5                       # Z3SS   -->  BB1    BT                 
      5.95515110E-02    2      1000015       -15                       # Z3SS   -->  TAU1-  TAU+               
      5.95515110E-02    2     -1000015        15                       # Z3SS   -->  TAU1+  TAU-               
      5.91964759E-02    2      2000015       -15                       # Z3SS   -->  TAU2-  TAU+               
      5.91964759E-02    2     -2000015        15                       # Z3SS   -->  TAU2+  TAU-               
      6.64861465E-04    2      1000016       -16                       # Z3SS   -->  NUTL   ANUT               
      6.64861465E-04    2     -1000016        16                       # Z3SS   -->  ANUTL  NUT                
#         PDG         Width
DECAY   1000035  1.30988398E+01   # Z4SS  decays
#          BR          NDA       ID1       ID2       ID3       ID4
      3.96696404E-02    2      1000024       -24                       # Z4SS   -->  W1SS+  W-                 
      3.96696404E-02    2     -1000024        24                       # Z4SS   -->  W1SS-  W+                 
      2.58903094E-02    2      1000022        23                       # Z4SS   -->  Z1SS   Z0                 
      3.71072069E-02    2      1000022        25                       # Z4SS   -->  Z1SS   HL0                
      2.78624611E-05    2      1000022        35                       # Z4SS   -->  Z1SS   HH0                
      7.87569370E-05    2      1000022        36                       # Z4SS   -->  Z1SS   HA0                
      1.46336737E-03    2      1000002        -2                       # Z4SS   -->  UPL    UB                 
      1.46336737E-03    2     -1000002         2                       # Z4SS   -->  UBL    UP                 
      1.42070593E-03    2      1000001        -1                       # Z4SS   -->  DNL    DB                 
      1.42070593E-03    2     -1000001         1                       # Z4SS   -->  DBL    DN                 
      1.42069883E-03    2      1000003        -3                       # Z4SS   -->  STL    SB                 
      1.42069883E-03    2     -1000003         3                       # Z4SS   -->  SBL    ST                 
      1.46302907E-03    2      1000004        -4                       # Z4SS   -->  CHL    CB                 
      1.46302907E-03    2     -1000004         4                       # Z4SS   -->  CBL    CH                 
      6.26807974E-04    2      1000005        -5                       # Z4SS   -->  BT1    BB                 
      6.26807974E-04    2     -1000005         5                       # Z4SS   -->  BB1    BT                 
      6.81950303E-04    2      2000005        -5                       # Z4SS   -->  BT2    BB                 
      6.81950303E-04    2     -2000005         5                       # Z4SS   -->  BB2    BT                 
      4.68031067E-04    2      1000011       -11                       # Z4SS   -->  EL-    E+                 
      4.68031067E-04    2     -1000011        11                       # Z4SS   -->  EL+    E-                 
      4.68030456E-04    2      1000013       -13                       # Z4SS   -->  MUL-   MU+                
      4.68030456E-04    2     -1000013        13                       # Z4SS   -->  MUL+   MU-                
      4.82375594E-03    2      1000015       -15                       # Z4SS   -->  TAU1-  TAU+               
      4.82375594E-03    2     -1000015        15                       # Z4SS   -->  TAU1+  TAU-               
      2.06581011E-01    2      2000015       -15                       # Z4SS   -->  TAU2-  TAU+               
      2.06581011E-01    2     -2000015        15                       # Z4SS   -->  TAU2+  TAU-               
      5.01402013E-04    2      1000012       -12                       # Z4SS   -->  NUEL   ANUE               
      5.01402013E-04    2     -1000012        12                       # Z4SS   -->  ANUEL  NUE                
      5.01402013E-04    2      1000014       -14                       # Z4SS   -->  NUML   ANUM               
      5.01402013E-04    2     -1000014        14                       # Z4SS   -->  ANUML  NUM                
      2.08358079E-01    2      1000016       -16                       # Z4SS   -->  NUTL   ANUT               
      2.08358079E-01    2     -1000016        16                       # Z4SS   -->  ANUTL  NUT                
#         PDG         Width
DECAY   1000024  1.12380428E+01   # W1SS+ decays
#          BR          NDA       ID1       ID2       ID3       ID4
      3.94349991E-05    3      1000022         2        -1             # W1SS+  -->  Z1SS   UP     DB          
      3.94349772E-05    3      1000022         4        -3             # W1SS+  -->  Z1SS   CH     SB          
      1.18460193E-04    3      1000022       -11        12             # W1SS+  -->  Z1SS   E+     NUE         
      1.18460193E-04    3      1000022       -13        14             # W1SS+  -->  Z1SS   MU+    NUM         
      6.82263151E-02    2      1000022        24                       # W1SS+  -->  Z1SS   W+                 
      4.75588590E-01    2      1000016       -15                       # W1SS+  -->  NUTL   TAU+               
      1.10268025E-02    2     -1000015        16                       # W1SS+  -->  TAU1+  NUT                
      4.44842488E-01    2     -2000015        16                       # W1SS+  -->  TAU2+  NUT                
#         PDG         Width
DECAY   1000037  1.29779568E+01   # W2SS+ decays
#          BR          NDA       ID1       ID2       ID3       ID4
      6.33654743E-02    2      1000022        24                       # W2SS+  -->  Z1SS   W+                 
      6.79998921E-05    2      1000022        37                       # W2SS+  -->  Z1SS   H+                 
      4.00227197E-02    2      1000023        24                       # W2SS+  -->  Z2SS   W+                 
      2.31140948E-05    3      1000025         2        -1             # W2SS+  -->  Z3SS   UP     DB          
      2.31140948E-05    3      1000025         4        -3             # W2SS+  -->  Z3SS   CH     SB          
      2.90992483E-03    2      1000002        -1                       # W2SS+  -->  UPL    DB                 
      2.91374559E-03    2     -1000001         2                       # W2SS+  -->  DBL    UP                 
      2.90988619E-03    2      1000004        -3                       # W2SS+  -->  CHL    SB                 
      3.03022098E-03    2     -1000003         4                       # W2SS+  -->  SBL    CH                 
      1.65288337E-04    2      1000006        -5                       # W2SS+  -->  TP1    BB                 
      4.96062590E-03    2      2000006        -5                       # W2SS+  -->  TP2    BB                 
      9.77618387E-04    2      1000012       -11                       # W2SS+  -->  NUEL   E+                 
      9.77617223E-04    2      1000014       -13                       # W2SS+  -->  NUML   MU+                
      4.15365189E-01    2      1000016       -15                       # W2SS+  -->  NUTL   TAU+               
      9.79051692E-04    2     -1000011        12                       # W2SS+  -->  EL+    NUE                
      9.79051692E-04    2     -1000013        14                       # W2SS+  -->  MUL+   NUM                
      9.65317059E-03    2     -1000015        16                       # W2SS+  -->  TAU1+  NUT                
      4.21927363E-01    2     -2000015        16                       # W2SS+  -->  TAU2+  NUT                
      2.87488364E-02    2      1000024        23                       # W2SS+  -->  W1SS+  Z0                 
#         PDG         Width
DECAY        25  3.96666350E-03   # HL0   decays
#          BR          NDA       ID1       ID2       ID3       ID4
      2.06262237E-04    2           13       -13                       # HL0    -->  MU-    MU+                
      5.89897819E-02    2           15       -15                       # HL0    -->  TAU-   TAU+               
      2.47798534E-03    2            3        -3                       # HL0    -->  ST     SB                 
      8.14060390E-01    2            5        -5                       # HL0    -->  BT     BB                 
      3.67831141E-02    2            4        -4                       # HL0    -->  CH     CB                 
      1.77561562E-03    2           22        22                       # HL0    -->  GM     GM                 
      3.86058614E-02    2           21        21                       # HL0    -->  GL     GL                 
      2.40715197E-03    3           24        11       -12             # HL0    -->  W+     E-     ANUE        
      2.40715197E-03    3           24        13       -14             # HL0    -->  W+     MU-    ANUM        
      2.40715197E-03    3           24        15       -16             # HL0    -->  W+     TAU-   ANUT        
      7.22145569E-03    3           24        -2         1             # HL0    -->  W+     UB     DN          
      7.22145569E-03    3           24        -4         3             # HL0    -->  W+     CB     ST          
      2.40715197E-03    3          -24       -11        12             # HL0    -->  W-     E+     NUE         
      2.40715197E-03    3          -24       -13        14             # HL0    -->  W-     MU+    NUM         
      2.40715197E-03    3          -24       -15        16             # HL0    -->  W-     TAU+   NUT         
      7.22145569E-03    3          -24         2        -1             # HL0    -->  W-     UP     DB          
      7.22145569E-03    3          -24         4        -3             # HL0    -->  W-     CH     SB          
      1.96924870E-04    3           23        12       -12             # HL0    -->  Z0     NUE    ANUE        
      1.96924870E-04    3           23        14       -14             # HL0    -->  Z0     NUM    ANUM        
      1.96924870E-04    3           23        16       -16             # HL0    -->  Z0     NUT    ANUT        
      9.91103079E-05    3           23        11       -11             # HL0    -->  Z0     E-     E+          
      9.91103079E-05    3           23        13       -13             # HL0    -->  Z0     MU-    MU+         
      9.91103079E-05    3           23        15       -15             # HL0    -->  Z0     TAU-   TAU+        
      3.39543505E-04    3           23         2        -2             # HL0    -->  Z0     UP     UB          
      3.39543505E-04    3           23         4        -4             # HL0    -->  Z0     CH     CB          
      4.37415729E-04    3           23         1        -1             # HL0    -->  Z0     DN     DB          
      4.37415729E-04    3           23         3        -3             # HL0    -->  Z0     ST     SB          
      4.37415729E-04    3           23         5        -5             # HL0    -->  Z0     BT     BB          
      8.92821001E-04    2      1000022   1000022                       # HL0    -->  Z1SS   Z1SS               
#         PDG         Width
DECAY        35  5.81166725E+01   # HH0   decays
#          BR          NDA       ID1       ID2       ID3       ID4
      3.10681608E-05    2           13       -13                       # HH0    -->  MU-    MU+                
      8.89836997E-03    2           15       -15                       # HH0    -->  TAU-   TAU+               
      3.61682934E-04    2            3        -3                       # HH0    -->  ST     SB                 
      8.04415643E-02    2            5        -5                       # HH0    -->  BT     BB                 
      1.89097933E-02    2            6        -6                       # HH0    -->  TP     TB                 
      3.30784715E-05    2      1000022   1000022                       # HH0    -->  Z1SS   Z1SS               
      4.67472673E-05    2      1000022   1000023                       # HH0    -->  Z1SS   Z2SS               
      3.60735212E-05    2           25        25                       # HH0    -->  HL0    HL0                
      4.45620835E-01    2      1000015  -2000015                       # HH0    -->  TAU1-  TAU2+              
      4.45620835E-01    2      2000015  -1000015                       # HH0    -->  TAU2-  TAU1+              
#         PDG         Width
DECAY        36  5.84240494E+01   # HA0   decays
#          BR          NDA       ID1       ID2       ID3       ID4
      3.07033661E-05    2           13       -13                       # HA0    -->  MU-    MU+                
      8.79390538E-03    2           15       -15                       # HA0    -->  TAU-   TAU+               
      3.57452576E-04    2            3        -3                       # HA0    -->  ST     SB                 
      7.95576870E-02    2            5        -5                       # HA0    -->  BT     BB                 
      1.88481342E-02    2            6        -6                       # HA0    -->  TP     TB                 
      3.40256447E-05    2      1000022   1000022                       # HA0    -->  Z1SS   Z1SS               
      4.26385814E-05    2      1000022   1000023                       # HA0    -->  Z1SS   Z2SS               
      4.46167707E-01    2      1000015  -2000015                       # HA0    -->  TAU1-  TAU2+              
      4.46167707E-01    2      2000015  -1000015                       # HA0    -->  TAU2-  TAU1+              
#         PDG         Width
DECAY        37  5.76767197E+01   # H+    decays
#          BR          NDA       ID1       ID2       ID3       ID4
      3.13216588E-05    2           14       -13                       # H+     -->  NUM    MU+                
      8.97099450E-03    2           16       -15                       # H+     -->  NUT    TAU+               
      3.37854639E-04    2            4        -3                       # H+     -->  CH     SB                 
      9.20311958E-02    2            6        -5                       # H+     -->  TP     BB                 
      1.18913042E-04    2      1000024   1000022                       # H+     -->  W1SS+  Z1SS               
      8.98509741E-01    2     -1000015   1000016                       # H+     -->  TAU1+  NUTL               
