#
#                              ======================
#                              | THE SUSYHIT OUTPUT |
#                              ======================
#
#
#              ------------------------------------------------------
#              |     This is the output of the SUSY-HIT package     |
#              |  created by A.Djouadi, M.Muehlleitner and M.Spira. |
#              |  In case of problems with SUSY-HIT email to        |
#              |           margarete.muehlleitner@kit.edu           |
#              |           michael.spira@psi.ch                     |
#              |           abdelhak.djouadi@cern.ch                 |
#              ------------------------------------------------------
#
#              ------------------------------------------------------
#              |  SUSY Les Houches Accord - MSSM Spectrum + Decays  |
#              |              based on the decay programs           |
#              |                                                    |
#              |                     SDECAY 1.5                     |
#              |                                                    |
#              |  Authors: M.Muhlleitner, A.Djouadi and Y.Mambrini  |
#              |  Ref.:    Comput.Phys.Commun.168(2005)46           |
#              |           [hep-ph/0311167]                         |
#              |                                                    |
#              |                     HDECAY 3.4                     |
#              |                                                    |
#              |  By: A.Djouadi,J.Kalinowski,M.Muhlleitner,M.Spira  |
#              |  Ref.:    Comput.Phys.Commun.108(1998)56           |
#              |           [hep-ph/9704448]                         |
#              |                                                    |
#              |                                                    |
#              |  If not stated otherwise all DRbar couplings and   |
#              |  soft SUSY breaking masses are given at the scale  |
#              |  Q=  0.16871613E+04
#              |                                                    |
#              ------------------------------------------------------
#
#
BLOCK DCINFO  # Decay Program information
     1   SDECAY/HDECAY # decay calculator
     2   1.5  /3.4    # version number
#
BLOCK SPINFO  # Spectrum calculator information
     1    SOFTSUSY    # spectrum calculator                
     2    3.7.3       # version number                     
#
BLOCK MODSEL  # Model selection
     1     0   #  nonUniversal                                     
#
BLOCK SMINPUTS  # Standard Model inputs
         1     1.27934000E+02   # alpha_em^-1(M_Z)^MSbar
         2     1.16639000E-05   # G_F [GeV^-2]
         3     1.17200000E-01   # alpha_S(M_Z)^MSbar
         4     9.11870000E+01   # M_Z pole mass
         5     4.19000000E+00   # mb(mb)^MSbar
         6     1.72500000E+02   # mt pole mass
         7     1.77690000E+00   # mtau pole mass
#
BLOCK MINPAR  # Input parameters - minimal models
         3     2.00000000E+01   # tanb                
#
BLOCK EXTPAR  # Input parameters - non-minimal models
         0    -1.00000000E+00   # Set                 
         1     4.99000000E+01   # M_1(MX)             
         2     9.99000000E+01   # M_2(MX)             
         3     2.20000000E+03   # M_3(MX)             
        11     2.94338000E+03   # At(MX)              
        12     0.00000000E+00   # Ab(MX)              
        13     0.00000000E+00   # Atau(MX)            
        23    -3.00000000E+03   # mu(MX)              
        25     2.00000000E+01   # tan                 
        26     3.00000000E+03   # mA(pole)            
        31     3.00000000E+03   # meL(MX)             
        32     3.00000000E+03   # mmuL(MX)            
        33     3.00000000E+03   # mtauL(MX)           
        34     3.00000000E+03   # meR(MX)             
        35     3.00000000E+03   # mmuR(MX)            
        36     3.00000000E+03   # mtauR(MX)           
        41     3.00000000E+03   # mqL1(MX)            
        42     3.00000000E+03   # mqL2(MX)            
        43     9.49900000E+02   # mqL3(MX)            
        44     3.00000000E+03   # muR(MX)             
        45     3.00000000E+03   # mcR(MX)             
        46     3.00000000E+03   # mtR(MX)             
        47     3.00000000E+03   # mdR(MX)             
        48     3.00000000E+03   # msR(MX)             
        49     3.00000000E+03   # mbR(MX)             
#
BLOCK MASS  # Mass Spectrum
# PDG code           mass       particle
        24     8.03974184E+01   # W+
        25     1.25093713E+02   # h
        35     3.00000243E+03   # H
        36     2.99999996E+03   # A
        37     3.00109944E+03   # H+
         5     4.81337004E+00   # b-quark pole mass calculated from mb(mb)_Msbar
   1000001     3.04199544E+03   # ~d_L
   2000001     3.03675465E+03   # ~d_R
   1000002     3.04107507E+03   # ~u_L
   2000002     3.03805759E+03   # ~u_R
   1000003     3.04199544E+03   # ~s_L
   2000003     3.03675465E+03   # ~s_R
   1000004     3.04107507E+03   # ~c_L
   2000004     3.03805759E+03   # ~c_R
   1000005     1.04700941E+03   # ~b_1
   2000005     3.03407049E+03   # ~b_2
   1000006     1.04498240E+03   # ~t_1
   2000006     3.02442934E+03   # ~t_2
   1000011     3.00650811E+03   # ~e_L
   2000011     3.00186039E+03   # ~e_R
   1000012     3.00510243E+03   # ~nu_eL
   1000013     3.00650811E+03   # ~mu_L
   2000013     3.00186039E+03   # ~mu_R
   1000014     3.00510243E+03   # ~nu_muL
   1000015     2.98592801E+03   # ~tau_1
   2000015     3.02186217E+03   # ~tau_2
   1000016     3.00493558E+03   # ~nu_tauL
   1000021     2.35219084E+03   # ~g
   1000022     5.04685901E+01   # ~chi_10
   1000023     1.10620349E+02   # ~chi_20
   1000025    -2.99489593E+03   # ~chi_30
   1000035     2.99504406E+03   # ~chi_40
   1000024     1.10772100E+02   # ~chi_1+
   1000037     2.99591557E+03   # ~chi_2+
#
BLOCK NMIX  # Neutralino Mixing Matrix
  1  1     9.99890636E-01   # N_11
  1  2     1.91222825E-03   # N_12
  1  3    -1.46567271E-02   # N_13
  1  4     4.89189799E-04   # N_14
  2  1    -1.52970878E-03   # N_21
  2  2     9.99659350E-01   # N_22
  2  3     2.60510248E-02   # N_23
  2  4    -4.34597335E-04   # N_24
  3  1     1.00490563E-02   # N_31
  3  2    -1.80961556E-02   # N_32
  3  3     7.06792726E-01   # N_33
  3  4     7.07117803E-01   # N_34
  4  1    -1.07420683E-02   # N_41
  4  2     1.87098185E-02   # N_42
  4  3    -7.06788912E-01   # N_43
  4  4     7.07095456E-01   # N_44
#
BLOCK UMIX  # Chargino Mixing Matrix U
  1  1     9.99322744E-01   # U_11
  1  2     3.67974577E-02   # U_12
  2  1    -3.67974577E-02   # U_21
  2  2     9.99322744E-01   # U_22
#
BLOCK VMIX  # Chargino Mixing Matrix V
  1  1     9.99999811E-01   # V_11
  1  2     6.15125658E-04   # V_12
  2  1     6.15125658E-04   # V_21
  2  2    -9.99999811E-01   # V_22
#
BLOCK STOPMIX  # Stop Mixing Matrix
  1  1     9.98450098E-01   # cos(theta_t)
  1  2    -5.56543062E-02   # sin(theta_t)
  2  1     5.56543062E-02   # -sin(theta_t)
  2  2     9.98450098E-01   # cos(theta_t)
#
BLOCK SBOTMIX  # Sbottom Mixing Matrix
  1  1     9.99694324E-01   # cos(theta_b)
  1  2    -2.47236438E-02   # sin(theta_b)
  2  1     2.47236438E-02   # -sin(theta_b)
  2  2     9.99694324E-01   # cos(theta_b)
#
BLOCK STAUMIX  # Stau Mixing Matrix
  1  1    -7.06888379E-01   # cos(theta_tau)
  1  2     7.07325116E-01   # sin(theta_tau)
  2  1    -7.07325116E-01   # -sin(theta_tau)
  2  2    -7.06888379E-01   # cos(theta_tau)
#
BLOCK ALPHA  # Higgs mixing
          -5.00201545E-02   # Mixing angle in the neutral Higgs boson sector
#
BLOCK HMIX Q=  1.68716134E+03  # DRbar Higgs Parameters
         1    -3.00000000E+03   # mu(Q)MSSM           
         2     2.00000000E+01   # tan                 
         3     2.43882014E+02   # higgs               
         4     1.01232197E+07   # mA^2(Q)MSSM         
#
BLOCK GAUGE Q=  1.68716134E+03  # The gauge couplings
     1     3.62503564E-01   # gprime(Q) DRbar
     2     6.41730571E-01   # g(Q) DRbar
     3     1.02368672E+00   # g3(Q) DRbar
#
BLOCK AU Q=  1.68716134E+03  # The trilinear couplings
  1  1     2.69923547E-06   # A_u(Q) DRbar
  2  2     2.69927781E-06   # A_c(Q) DRbar
  3  3     2.94338000E+03   # A_t(Q) DRbar
#
BLOCK AD Q=  1.68716134E+03  # The trilinear couplings
  1  1     9.31122748E-07   # A_d(Q) DRbar
  2  2     9.31239383E-07   # A_s(Q) DRbar
  3  3     1.96197195E-06   # A_b(Q) DRbar
#
BLOCK AE Q=  1.68716134E+03  # The trilinear couplings
  1  1     4.34658211E-07   # A_e(Q) DRbar
  2  2     4.34680150E-07   # A_mu(Q) DRbar
  3  3     4.40975773E-07   # A_tau(Q) DRbar
#
BLOCK Yu Q=  1.68716134E+03  # The Yukawa couplings
  1  1     0.00000000E+00   # y_u(Q) DRbar
  2  2     0.00000000E+00   # y_c(Q) DRbar
  3  3     8.49973938E-01   # y_t(Q) DRbar
#
BLOCK Yd Q=  1.68716134E+03  # The Yukawa couplings
  1  1     0.00000000E+00   # y_d(Q) DRbar
  2  2     0.00000000E+00   # y_s(Q) DRbar
  3  3     3.87688148E-01   # y_b(Q) DRbar
#
BLOCK Ye Q=  1.68716134E+03  # The Yukawa couplings
  1  1     0.00000000E+00   # y_e(Q) DRbar
  2  2     0.00000000E+00   # y_mu(Q) DRbar
  3  3     2.03889395E-01   # y_tau(Q) DRbar
#
BLOCK MSOFT Q=  1.68716134E+03  # The soft SUSY breaking masses at the scale Q
         1     4.99000000E+01   # M_1(Q)              
         2     9.99000000E+01   # M_2(Q)              
         3     2.20000000E+03   # M_3(Q)              
        21    -3.28797331E+04   # M^2_Hd              
        22    -9.02671143E+06   # M^2_Hu              
        31     3.00000000E+03   # M_eL                
        32     3.00000000E+03   # M_muL               
        33     3.00000000E+03   # M_tauL              
        34     3.00000000E+03   # M_eR                
        35     3.00000000E+03   # M_muR               
        36     3.00000000E+03   # M_tauR              
        41     3.00000000E+03   # M_q1L               
        42     3.00000000E+03   # M_q2L               
        43     9.49899993E+02   # M_q3L               
        44     3.00000000E+03   # M_uR                
        45     3.00000000E+03   # M_cR                
        46     3.00000000E+03   # M_tR                
        47     3.00000000E+03   # M_dR                
        48     3.00000000E+03   # M_sR                
        49     3.00000000E+03   # M_bR                
#
#
#
#                             =================
#                             |The decay table|
#                             =================
#
# - The QCD corrections to the decays gluino -> squark  + quark
#                                     squark -> gaugino + quark_prime
#                                     squark -> squark_prime + Higgs
#                                     squark -> gluino  + quark
#   are included.
#
# - The multi-body decays for the inos, stops and sbottoms are included.
#
# - The loop induced decays for the gluino, neutralinos and stops
#   are included.
#
# - The SUSY decays of the top quark are included.
#
#
#         PDG            Width
DECAY         6     1.42961458E+00   # top decays
#          BR         NDA      ID1       ID2
     1.00000000E+00    2           5        24   # BR(t ->  b    W+)
#
#         PDG            Width
DECAY   1000021     6.16202167E+01   # gluino decays
#          BR         NDA      ID1       ID2
     2.47896455E-01    2     1000005        -5   # BR(~g -> ~b_1  bb)
     2.47896455E-01    2    -1000005         5   # BR(~g -> ~b_1* b )
     2.52103545E-01    2     1000006        -6   # BR(~g -> ~t_1  tb)
     2.52103545E-01    2    -1000006         6   # BR(~g -> ~t_1* t )
#
#         PDG            Width
DECAY   1000006     1.27239841E+01   # stop1 decays
#          BR         NDA      ID1       ID2
     1.22265186E-02    2     1000022         6   # BR(~t_1 -> ~chi_10 t )
     3.18260591E-01    2     1000023         6   # BR(~t_1 -> ~chi_20 t )
     6.69512891E-01    2     1000024         5   # BR(~t_1 -> ~chi_1+ b )
#
#         PDG            Width
DECAY   2000006     1.12249734E+02   # stop2 decays
#          BR         NDA      ID1       ID2
     5.90747068E-02    2     1000022         6   # BR(~t_2 -> ~chi_10 t )
     2.72702918E-04    2     1000023         6   # BR(~t_2 -> ~chi_20 t )
     0.00000000E+00    2     1000025         6   # BR(~t_2 -> ~chi_30 t )
     5.49034927E-04    2     1000024         5   # BR(~t_2 -> ~chi_1+ b )
     1.47087848E-04    2     1000037         5   # BR(~t_2 -> ~chi_2+ b )
     3.00031214E-01    2     1000021         6   # BR(~t_2 -> ~g      t )
     1.65219441E-01    2     1000006        25   # BR(~t_2 -> ~t_1    h )
     1.60317345E-01    2     1000006        23   # BR(~t_2 -> ~t_1    Z )
     3.14388468E-01    2     1000005        24   # BR(~t_2 -> ~b_1    W+)
#
#         PDG            Width
DECAY   1000005     1.25735732E+01   # sbottom1 decays
#          BR         NDA      ID1       ID2
     1.22129162E-02    2     1000022         5   # BR(~b_1 -> ~chi_10 b )
     3.40426501E-01    2     1000023         5   # BR(~b_1 -> ~chi_20 b )
     6.47360582E-01    2    -1000024         6   # BR(~b_1 -> ~chi_1- t )
#
#         PDG            Width
DECAY   2000005     5.38239277E+01   # sbottom2 decays
#          BR         NDA      ID1       ID2
     3.10754253E-02    2     1000022         5   # BR(~b_2 -> ~chi_10 b )
     6.08883832E-07    2     1000023         5   # BR(~b_2 -> ~chi_20 b )
     5.94531229E-05    2     1000025         5   # BR(~b_2 -> ~chi_30 b )
     5.82346363E-05    2     1000035         5   # BR(~b_2 -> ~chi_40 b )
     1.23418902E-06    2    -1000024         6   # BR(~b_2 -> ~chi_1- t )
     6.43270091E-01    2     1000021         5   # BR(~b_2 -> ~g      b )
     7.13679448E-02    2     1000005        25   # BR(~b_2 -> ~b_1    h )
     1.03557239E-01    2     1000005        23   # BR(~b_2 -> ~b_1    Z )
     1.50609769E-01    2     1000006       -24   # BR(~b_2 -> ~t_1    W-)
#
#         PDG            Width
DECAY   1000002     7.10508812E+01   # sup_L decays
#          BR         NDA      ID1       ID2
     6.03014702E-03    2     1000022         2   # BR(~u_L -> ~chi_10 u)
     1.66239073E-01    2     1000023         2   # BR(~u_L -> ~chi_20 u)
     4.55718530E-08    2     1000025         2   # BR(~u_L -> ~chi_30 u)
     4.80298186E-08    2     1000035         2   # BR(~u_L -> ~chi_40 u)
     3.32894461E-01    2     1000024         1   # BR(~u_L -> ~chi_1+ d)
     1.25776476E-10    2     1000037         1   # BR(~u_L -> ~chi_2+ d)
     4.94836226E-01    2     1000021         2   # BR(~u_L -> ~g      u)
#
#         PDG            Width
DECAY   2000002     4.16272160E+01   # sup_R decays
#          BR         NDA      ID1       ID2
     1.61219887E-01    2     1000022         2   # BR(~u_R -> ~chi_10 u)
     3.76738547E-07    2     1000023         2   # BR(~u_R -> ~chi_20 u)
     1.48989865E-08    2     1000025         2   # BR(~u_R -> ~chi_30 u)
     1.69115808E-08    2     1000035         2   # BR(~u_R -> ~chi_40 u)
     8.38779704E-01    2     1000021         2   # BR(~u_R -> ~g      u)
#
#         PDG            Width
DECAY   1000001     7.11007196E+01   # sdown_L decays
#          BR         NDA      ID1       ID2
     5.78780981E-03    2     1000022         1   # BR(~d_L -> ~chi_10 d)
     1.66366132E-01    2     1000023         1   # BR(~d_L -> ~chi_20 d)
     7.19785183E-08    2     1000025         1   # BR(~d_L -> ~chi_30 d)
     7.69660262E-08    2     1000035         1   # BR(~d_L -> ~chi_40 d)
     3.32314697E-01    2    -1000024         2   # BR(~d_L -> ~chi_1- u)
     4.67603082E-07    2    -1000037         2   # BR(~d_L -> ~chi_2- u)
     4.95530745E-01    2     1000021         1   # BR(~d_L -> ~g      d)
#
#         PDG            Width
DECAY   2000001     3.64885331E+01   # sdown_R decays
#          BR         NDA      ID1       ID2
     4.59608193E-02    2     1000022         1   # BR(~d_R -> ~chi_10 d)
     1.07401054E-07    2     1000023         1   # BR(~d_R -> ~chi_20 d)
     4.00548532E-09    2     1000025         1   # BR(~d_R -> ~chi_30 d)
     4.54560438E-09    2     1000035         1   # BR(~d_R -> ~chi_40 d)
     9.54039065E-01    2     1000021         1   # BR(~d_R -> ~g      d)
#
#         PDG            Width
DECAY   1000004     7.10508812E+01   # scharm_L decays
#          BR         NDA      ID1       ID2
     6.03014702E-03    2     1000022         4   # BR(~c_L -> ~chi_10 c)
     1.66239073E-01    2     1000023         4   # BR(~c_L -> ~chi_20 c)
     4.55718530E-08    2     1000025         4   # BR(~c_L -> ~chi_30 c)
     4.80298186E-08    2     1000035         4   # BR(~c_L -> ~chi_40 c)
     3.32894461E-01    2     1000024         3   # BR(~c_L -> ~chi_1+ s)
     1.25776476E-10    2     1000037         3   # BR(~c_L -> ~chi_2+ s)
     4.94836226E-01    2     1000021         4   # BR(~c_L -> ~g      c)
#
#         PDG            Width
DECAY   2000004     4.16272160E+01   # scharm_R decays
#          BR         NDA      ID1       ID2
     1.61219887E-01    2     1000022         4   # BR(~c_R -> ~chi_10 c)
     3.76738547E-07    2     1000023         4   # BR(~c_R -> ~chi_20 c)
     1.48989865E-08    2     1000025         4   # BR(~c_R -> ~chi_30 c)
     1.69115808E-08    2     1000035         4   # BR(~c_R -> ~chi_40 c)
     8.38779704E-01    2     1000021         4   # BR(~c_R -> ~g      c)
#
#         PDG            Width
DECAY   1000003     7.11007196E+01   # sstrange_L decays
#          BR         NDA      ID1       ID2
     5.78780981E-03    2     1000022         3   # BR(~s_L -> ~chi_10 s)
     1.66366132E-01    2     1000023         3   # BR(~s_L -> ~chi_20 s)
     7.19785183E-08    2     1000025         3   # BR(~s_L -> ~chi_30 s)
     7.69660262E-08    2     1000035         3   # BR(~s_L -> ~chi_40 s)
     3.32314697E-01    2    -1000024         4   # BR(~s_L -> ~chi_1- c)
     4.67603082E-07    2    -1000037         4   # BR(~s_L -> ~chi_2- c)
     4.95530745E-01    2     1000021         3   # BR(~s_L -> ~g      s)
#
#         PDG            Width
DECAY   2000003     3.64885331E+01   # sstrange_R decays
#          BR         NDA      ID1       ID2
     4.59608193E-02    2     1000022         3   # BR(~s_R -> ~chi_10 s)
     1.07401054E-07    2     1000023         3   # BR(~s_R -> ~chi_20 s)
     4.00548532E-09    2     1000025         3   # BR(~s_R -> ~chi_30 s)
     4.54560438E-09    2     1000035         3   # BR(~s_R -> ~chi_40 s)
     9.54039065E-01    2     1000021         3   # BR(~s_R -> ~g      s)
#
#         PDG            Width
DECAY   1000011     4.07383762E+01   # selectron_L decays
#          BR         NDA      ID1       ID2
     9.70463628E-02    2     1000022        11   # BR(~e_L -> ~chi_10 e-)
     3.00774168E-01    2     1000023        11   # BR(~e_L -> ~chi_20 e-)
     2.77180888E-09    2     1000025        11   # BR(~e_L -> ~chi_30 e-)
     2.79920919E-09    2     1000035        11   # BR(~e_L -> ~chi_40 e-)
     6.02179423E-01    2    -1000024        12   # BR(~e_L -> ~chi_1- nu_e)
     4.05073561E-08    2    -1000037        12   # BR(~e_L -> ~chi_2- nu_e)
#
#         PDG            Width
DECAY   2000011     1.56832354E+01   # selectron_R decays
#          BR         NDA      ID1       ID2
     9.99997660E-01    2     1000022        11   # BR(~e_R -> ~chi_10 e-)
     2.33548312E-06    2     1000023        11   # BR(~e_R -> ~chi_20 e-)
     2.17088005E-09    2     1000025        11   # BR(~e_R -> ~chi_30 e-)
     2.37634155E-09    2     1000035        11   # BR(~e_R -> ~chi_40 e-)
#
#         PDG            Width
DECAY   1000013     4.07383762E+01   # smuon_L decays
#          BR         NDA      ID1       ID2
     9.70463628E-02    2     1000022        13   # BR(~mu_L -> ~chi_10 mu-)
     3.00774168E-01    2     1000023        13   # BR(~mu_L -> ~chi_20 mu-)
     2.77180888E-09    2     1000025        13   # BR(~mu_L -> ~chi_30 mu-)
     2.79920919E-09    2     1000035        13   # BR(~mu_L -> ~chi_40 mu-)
     6.02179423E-01    2    -1000024        14   # BR(~mu_L -> ~chi_1- nu_mu)
     4.05073561E-08    2    -1000037        14   # BR(~mu_L -> ~chi_2- nu_mu)
#
#         PDG            Width
DECAY   2000013     1.56832354E+01   # smuon_R decays
#          BR         NDA      ID1       ID2
     9.99997660E-01    2     1000022        13   # BR(~mu_R -> ~chi_10 mu-)
     2.33548312E-06    2     1000023        13   # BR(~mu_R -> ~chi_20 mu-)
     2.17088005E-09    2     1000025        13   # BR(~mu_R -> ~chi_30 mu-)
     2.37634155E-09    2     1000035        13   # BR(~mu_R -> ~chi_40 mu-)
#
#         PDG            Width
DECAY   1000015     2.84982387E+01   # stau_1 decays
#          BR         NDA      ID1       ID2
     3.44317120E-01    2     1000022        15   # BR(~tau_1 -> ~chi_10  tau-)
     2.18439867E-01    2     1000023        15   # BR(~tau_1 -> ~chi_20  tau-)
     4.37243013E-01    2    -1000024        16   # BR(~tau_1 -> ~chi_1-  nu_tau)
#
#         PDG            Width
DECAY   2000015     2.79018664E+01   # stau_2 decays
#          BR         NDA      ID1       ID2
     3.52375852E-01    2     1000022        15   # BR(~tau_2 -> ~chi_10  tau-)
     2.15717170E-01    2     1000023        15   # BR(~tau_2 -> ~chi_20  tau-)
     1.61647909E-05    2     1000025        15   # BR(~tau_2 -> ~chi_30  tau-)
     1.40567531E-05    2     1000035        15   # BR(~tau_2 -> ~chi_40  tau-)
     4.31860481E-01    2    -1000024        16   # BR(~tau_2 -> ~chi_1-  nu_tau)
     1.62746689E-05    2    -1000037        16   # BR(~tau_2 -> ~chi_2-  nu_tau)
#
#         PDG            Width
DECAY   1000012     4.07417361E+01   # snu_eL decays
#          BR         NDA      ID1       ID2
     9.56882942E-02    2     1000022        12   # BR(~nu_eL -> ~chi_10 nu_e)
     3.01649172E-01    2     1000023        12   # BR(~nu_eL -> ~chi_20 nu_e)
     7.85238487E-09    2     1000025        12   # BR(~nu_eL -> ~chi_30 nu_e)
     8.28503253E-09    2     1000035        12   # BR(~nu_eL -> ~chi_40 nu_e)
     6.02662518E-01    2     1000024        11   # BR(~nu_eL -> ~chi_1+ e-)
     8.52177322E-12    2     1000037        11   # BR(~nu_eL -> ~chi_2+ e-)
#
#         PDG            Width
DECAY   1000014     4.07417361E+01   # snu_muL decays
#          BR         NDA      ID1       ID2
     9.56882942E-02    2     1000022        14   # BR(~nu_muL -> ~chi_10 nu_mu)
     3.01649172E-01    2     1000023        14   # BR(~nu_muL -> ~chi_20 nu_mu)
     7.85238487E-09    2     1000025        14   # BR(~nu_muL -> ~chi_30 nu_mu)
     8.28503253E-09    2     1000035        14   # BR(~nu_muL -> ~chi_40 nu_mu)
     6.02662518E-01    2     1000024        13   # BR(~nu_muL -> ~chi_1+ mu-)
     8.52177322E-12    2     1000037        13   # BR(~nu_muL -> ~chi_2+ mu-)
#
#         PDG            Width
DECAY   1000016     4.07429139E+01   # snu_tauL decays
#          BR         NDA      ID1       ID2
     9.56802094E-02    2     1000022        16   # BR(~nu_tauL -> ~chi_10 nu_tau)
     3.01623613E-01    2     1000023        16   # BR(~nu_tauL -> ~chi_20 nu_tau)
     7.59837416E-09    2     1000025        16   # BR(~nu_tauL -> ~chi_30 nu_tau)
     8.01310259E-09    2     1000035        16   # BR(~nu_tauL -> ~chi_40 nu_tau)
     6.02694014E-01    2     1000024        15   # BR(~nu_tauL -> ~chi_1+ tau-)
     2.14746236E-06    2     1000037        15   # BR(~nu_tauL -> ~chi_2+ tau-)
#
#         PDG            Width
DECAY   1000024     7.65842926E-09   # chargino1+ decays
#           BR         NDA      ID1       ID2       ID3
     3.39900739E-01    3     1000022         2        -1   # BR(~chi_1+ -> ~chi_10 u    db)
     1.71607926E-08    3     1000023         2        -1   # BR(~chi_1+ -> ~chi_20 u    db)
     3.39900739E-01    3     1000022         4        -3   # BR(~chi_1+ -> ~chi_10 c    sb)
     1.71607926E-08    3     1000023         4        -3   # BR(~chi_1+ -> ~chi_20 c    sb)
     1.06886154E-01    3     1000022       -11        12   # BR(~chi_1+ -> ~chi_10 e+   nu_e)
     5.72035997E-09    3     1000023       -11        12   # BR(~chi_1+ -> ~chi_20 e+   nu_e)
     1.06886154E-01    3     1000022       -13        14   # BR(~chi_1+ -> ~chi_10 mu+  nu_mu)
     5.72035997E-09    3     1000023       -13        14   # BR(~chi_1+ -> ~chi_20 mu+  nu_mu)
     1.06426168E-01    3     1000022       -15        16   # BR(~chi_1+ -> ~chi_10 tau+ nu_tau)
#
#         PDG            Width
DECAY   1000037     8.64012203E+01   # chargino2+ decays
#          BR         NDA      ID1       ID2
     1.34918564E-01    2     1000006        -5   # BR(~chi_2+ -> ~t_1     bb)
     6.39012106E-01    2    -1000005         6   # BR(~chi_2+ -> ~b_1*    t )
     2.48139565E-07    2    -1000015        16   # BR(~chi_2+ -> ~tau_1+  nu_tau)
     6.81102701E-02    2     1000024        23   # BR(~chi_2+ -> ~chi_1+  Z )
     2.14506100E-02    2     1000022        24   # BR(~chi_2+ -> ~chi_10  W+)
     6.63534672E-02    2     1000023        24   # BR(~chi_2+ -> ~chi_20  W+)
     7.01547354E-02    2     1000024        25   # BR(~chi_2+ -> ~chi_1+  h )
#
#         PDG            Width
DECAY   1000022     0.00000000E+00   # neutralino1 decays
#
#         PDG            Width
DECAY   1000023     5.93807663E-10   # neutralino2 decays
#          BR         NDA      ID1       ID2
     1.31419990E-02    2     1000022        22   # BR(~chi_20 -> ~chi_10 gam)
#           BR         NDA      ID1       ID2       ID3
     7.12927525E-02    3     1000022        -2         2   # BR(~chi_20 -> ~chi_10 ub      u)
     8.86637385E-02    3     1000022        -1         1   # BR(~chi_20 -> ~chi_10 db      d)
     7.12927525E-02    3     1000022        -4         4   # BR(~chi_20 -> ~chi_10 cb      c)
     8.86637385E-02    3     1000022        -3         3   # BR(~chi_20 -> ~chi_10 sb      s)
     6.39026093E-01    3     1000022        -5         5   # BR(~chi_20 -> ~chi_10 bb      b)
     7.90183757E-03    3     1000022       -11        11   # BR(~chi_20 -> ~chi_10 e+      e-)
     7.90183757E-03    3     1000022       -13        13   # BR(~chi_20 -> ~chi_10 mu+     mu-)
     7.88424700E-03    3     1000022       -15        15   # BR(~chi_20 -> ~chi_10 tau+    tau-)
     1.41060730E-03    3     1000022       -12        12   # BR(~chi_20 -> ~chi_10 nu_eb   nu_e)
     1.41060730E-03    3     1000022       -14        14   # BR(~chi_20 -> ~chi_10 nu_mub  nu_mu)
     1.40978905E-03    3     1000022       -16        16   # BR(~chi_20 -> ~chi_10 nu_taub nu_tau)
#
#         PDG            Width
DECAY   1000025     8.68270549E+01   # neutralino3 decays
#          BR         NDA      ID1       ID2
     1.15093840E-02    2     1000022        23   # BR(~chi_30 -> ~chi_10   Z )
     3.50766056E-02    2     1000023        23   # BR(~chi_30 -> ~chi_20   Z )
     6.61540925E-02    2     1000024       -24   # BR(~chi_30 -> ~chi_1+   W-)
     6.61540925E-02    2    -1000024        24   # BR(~chi_30 -> ~chi_1-   W+)
     9.70346682E-03    2     1000022        25   # BR(~chi_30 -> ~chi_10   h )
     2.93803072E-02    2     1000023        25   # BR(~chi_30 -> ~chi_20   h )
     3.24757037E-01    2     1000006        -6   # BR(~chi_30 -> ~t_1      tb)
     3.24757037E-01    2    -1000006         6   # BR(~chi_30 -> ~t_1*     t )
     6.62537109E-02    2     1000005        -5   # BR(~chi_30 -> ~b_1      bb)
     6.62537109E-02    2    -1000005         5   # BR(~chi_30 -> ~b_1*     b )
     2.77322747E-07    2     1000015       -15   # BR(~chi_30 -> ~tau_1-   tau+)
     2.77322747E-07    2    -1000015        15   # BR(~chi_30 -> ~tau_1+   tau-)
#
#         PDG            Width
DECAY   1000035     8.62643252E+01   # neutralino4 decays
#          BR         NDA      ID1       ID2
     1.01388517E-02    2     1000022        23   # BR(~chi_40 -> ~chi_10   Z )
     3.30433378E-02    2     1000023        23   # BR(~chi_40 -> ~chi_20   Z )
     6.65849655E-02    2     1000024       -24   # BR(~chi_40 -> ~chi_1+   W-)
     6.65849655E-02    2    -1000024        24   # BR(~chi_40 -> ~chi_1-   W+)
     1.27627064E-02    2     1000022        25   # BR(~chi_40 -> ~chi_10   h )
     4.18866723E-02    2     1000023        25   # BR(~chi_40 -> ~chi_20   h )
     3.17801213E-01    2     1000006        -6   # BR(~chi_40 -> ~t_1      tb)
     3.17801213E-01    2    -1000006         6   # BR(~chi_40 -> ~t_1*     t )
     6.66978443E-02    2     1000005        -5   # BR(~chi_40 -> ~b_1      bb)
     6.66978443E-02    2    -1000005         5   # BR(~chi_40 -> ~b_1*     b )
     1.93161725E-07    2     1000015       -15   # BR(~chi_40 -> ~tau_1-   tau+)
     1.93161725E-07    2    -1000015        15   # BR(~chi_40 -> ~tau_1+   tau-)
#
#         PDG            Width
DECAY        25     3.65410665E-03   # h decays
#          BR         NDA      ID1       ID2
     5.64767904E-01    2           5        -5   # BR(h -> b       bb     )
     7.10305840E-02    2         -15        15   # BR(h -> tau+    tau-   )
     2.51449917E-04    2         -13        13   # BR(h -> mu+     mu-    )
     5.33625944E-04    2           3        -3   # BR(h -> s       sb     )
     2.31821452E-02    2           4        -4   # BR(h -> c       cb     )
     7.54078840E-02    2          21        21   # BR(h -> g       g      )
     2.57972919E-03    2          22        22   # BR(h -> gam     gam    )
     1.72426247E-03    2          22        23   # BR(h -> Z       gam    )
     2.31516590E-01    2          24       -24   # BR(h -> W+      W-     )
     2.89804329E-02    2          23        23   # BR(h -> Z       Z      )
     2.53920088E-05    2     1000022   1000022   # BR(h -> ~chi_10 ~chi_10)
#
#         PDG            Width
DECAY        35     3.46899397E+01   # H decays
#          BR         NDA      ID1       ID2
     8.94981612E-01    2           5        -5   # BR(H -> b       bb     )
     7.16835254E-02    2         -15        15   # BR(H -> tau+    tau-   )
     2.53455816E-04    2         -13        13   # BR(H -> mu+     mu-    )
     3.11245641E-04    2           3        -3   # BR(H -> s       sb     )
     8.72606224E-08    2           4        -4   # BR(H -> c       cb     )
     8.70480079E-03    2           6        -6   # BR(H -> t       tb     )
     1.34422974E-05    2          21        21   # BR(H -> g       g      )
     7.63993412E-08    2          22        22   # BR(H -> gam     gam    )
     3.55504748E-09    2          23        22   # BR(H -> Z       gam    )
     9.70009870E-07    2          24       -24   # BR(H -> W+      W-     )
     4.84406708E-07    2          23        23   # BR(H -> Z       Z      )
     6.10432197E-06    2          25        25   # BR(H -> h       h      )
    -7.03952199E-25    2          36        36   # BR(H -> A       A      )
     1.23791221E-19    2          23        36   # BR(H -> Z       A      )
     9.81319688E-04    2     1000024  -1000024   # BR(H -> ~chi_1+ ~chi_1-)
     4.44776212E-05    2     1000022   1000022   # BR(H -> ~chi_10 ~chi_10)
     4.92323470E-04    2     1000023   1000023   # BR(H -> ~chi_20 ~chi_20)
     2.96286367E-04    2     1000022   1000023   # BR(H -> ~chi_10 ~chi_20)
     2.22245246E-02    2     1000006  -1000006   # BR(H -> ~t_1    ~t_1*  )
     5.25988518E-06    2     1000005  -1000005   # BR(H -> ~b_1    ~b_1*  )
#
#         PDG            Width
DECAY        36     3.39228893E+01   # A decays
#          BR         NDA      ID1       ID2
     9.15262416E-01    2           5        -5   # BR(A -> b       bb     )
     7.33048993E-02    2         -15        15   # BR(A -> tau+    tau-   )
     2.59188244E-04    2         -13        13   # BR(A -> mu+     mu-    )
     3.18336985E-04    2           3        -3   # BR(A -> s       sb     )
     8.98301848E-08    2           4        -4   # BR(A -> c       cb     )
     8.95620554E-03    2           6        -6   # BR(A -> t       tb     )
     2.63751680E-05    2          21        21   # BR(A -> g       g      )
     5.41135755E-08    2          22        22   # BR(A -> gam     gam    )
     2.59653774E-08    2          23        22   # BR(A -> Z       gam    )
     9.88278445E-07    2          23        25   # BR(A -> Z       h      )
     1.01239586E-03    2     1000024  -1000024   # BR(A -> ~chi_1+ ~chi_1-)
     4.58402889E-05    2     1000022   1000022   # BR(A -> ~chi_10 ~chi_10)
     5.07904311E-04    2     1000023   1000023   # BR(A -> ~chi_20 ~chi_20)
     3.05280526E-04    2     1000022   1000023   # BR(A -> ~chi_10 ~chi_20)
#
#         PDG            Width
DECAY        37     3.70208874E+01   # H+ decays
#          BR         NDA      ID1       ID2
     1.46038745E-03    2           4        -5   # BR(H+ -> c       bb     )
     6.71951842E-02    2         -15        16   # BR(H+ -> tau+    nu_tau )
     2.37585782E-04    2         -13        14   # BR(H+ -> mu+     nu_mu  )
     9.34646813E-06    2           2        -5   # BR(H+ -> u       bb     )
     1.39623038E-05    2           2        -3   # BR(H+ -> u       sb     )
     2.87249487E-04    2           4        -3   # BR(H+ -> c       sb     )
     9.19470358E-01    2           6        -5   # BR(H+ -> t       bb     )
     9.07140867E-07    2          24        25   # BR(H+ -> W+      h      )
     5.71029692E-14    2          24        36   # BR(H+ -> W+      A      )
     5.60145292E-04    2     1000024   1000022   # BR(H+ -> ~chi_1+ ~chi_10)
     1.30995788E-09    2     1000024   1000023   # BR(H+ -> ~chi_1+ ~chi_20)
     1.07648726E-02    2     1000006  -1000005   # BR(H+ -> ~t_1    ~b_1*  )
