#
#                              ======================
#                              | THE SUSYHIT OUTPUT |
#                              ======================
#
#
#              ------------------------------------------------------
#              |     This is the output of the SUSY-HIT package     |
#              |  created by A.Djouadi, M.Muehlleitner and M.Spira. |
#              |  In case of problems with SUSY-HIT email to        |
#              |           margarete.muehlleitner@kit.edu           |
#              |           michael.spira@psi.ch                     |
#              |           abdelhak.djouadi@cern.ch                 |
#              ------------------------------------------------------
#
#              ------------------------------------------------------
#              |  SUSY Les Houches Accord - MSSM Spectrum + Decays  |
#              |              based on the decay programs           |
#              |                                                    |
#              |                     SDECAY 1.5                     |
#              |                                                    |
#              |  Authors: M.Muhlleitner, A.Djouadi and Y.Mambrini  |
#              |  Ref.:    Comput.Phys.Commun.168(2005)46           |
#              |           [hep-ph/0311167]                         |
#              |                                                    |
#              |                     HDECAY 3.4                     |
#              |                                                    |
#              |  By: A.Djouadi,J.Kalinowski,M.Muhlleitner,M.Spira  |
#              |  Ref.:    Comput.Phys.Commun.108(1998)56           |
#              |           [hep-ph/9704448]                         |
#              |                                                    |
#              |                                                    |
#              |  If not stated otherwise all DRbar couplings and   |
#              |  soft SUSY breaking masses are given at the scale  |
#              |  Q=  0.12203065E+04
#              |                                                    |
#              ------------------------------------------------------
#
#
BLOCK DCINFO  # Decay Program information
     1   SDECAY/HDECAY # decay calculator
     2   1.5  /3.4    # version number
#
BLOCK SPINFO  # Spectrum calculator information
     1    SOFTSUSY    # spectrum calculator                
     2    3.7.3       # version number                     
#
BLOCK MODSEL  # Model selection
     1     0   #  nonUniversal                                     
#
BLOCK SMINPUTS  # Standard Model inputs
         1     1.27934000E+02   # alpha_em^-1(M_Z)^MSbar
         2     1.16639000E-05   # G_F [GeV^-2]
         3     1.17200000E-01   # alpha_S(M_Z)^MSbar
         4     9.11870000E+01   # M_Z pole mass
         5     4.19000000E+00   # mb(mb)^MSbar
         6     1.72500000E+02   # mt pole mass
         7     1.77690000E+00   # mtau pole mass
#
BLOCK MINPAR  # Input parameters - minimal models
         3     2.00000000E+01   # tanb                
#
BLOCK EXTPAR  # Input parameters - non-minimal models
         0    -1.00000000E+00   # Set                 
         1     4.99000000E+01   # M_1(MX)             
         2     9.99000000E+01   # M_2(MX)             
         3     2.20000000E+03   # M_3(MX)             
        11     2.94338000E+03   # At(MX)              
        12     0.00000000E+00   # Ab(MX)              
        13     0.00000000E+00   # Atau(MX)            
        23    -3.00000000E+03   # mu(MX)              
        25     2.00000000E+01   # tan                 
        26     3.00000000E+03   # mA(pole)            
        31     3.00000000E+03   # meL(MX)             
        32     3.00000000E+03   # mmuL(MX)            
        33     3.00000000E+03   # mtauL(MX)           
        34     3.00000000E+03   # meR(MX)             
        35     3.00000000E+03   # mmuR(MX)            
        36     3.00000000E+03   # mtauR(MX)           
        41     3.00000000E+03   # mqL1(MX)            
        42     3.00000000E+03   # mqL2(MX)            
        43     4.99900000E+02   # mqL3(MX)            
        44     3.00000000E+03   # muR(MX)             
        45     3.00000000E+03   # mcR(MX)             
        46     3.00000000E+03   # mtR(MX)             
        47     3.00000000E+03   # mdR(MX)             
        48     3.00000000E+03   # msR(MX)             
        49     3.00000000E+03   # mbR(MX)             
#
BLOCK MASS  # Mass Spectrum
# PDG code           mass       particle
        24     8.03997474E+01   # W+
        25     1.26336069E+02   # h
        35     3.00017070E+03   # H
        36     3.00000004E+03   # A
        37     3.00111106E+03   # H+
         5     4.81337004E+00   # b-quark pole mass calculated from mb(mb)_Msbar
   1000001     3.02363207E+03   # ~d_L
   2000001     3.01806420E+03   # ~d_R
   1000002     3.02270507E+03   # ~u_L
   2000002     3.02123204E+03   # ~u_R
   1000003     3.02363207E+03   # ~s_L
   2000003     3.01806420E+03   # ~s_R
   1000004     3.02270507E+03   # ~c_L
   2000004     3.02123204E+03   # ~c_R
   1000005     5.72728784E+02   # ~b_1
   2000005     3.01922194E+03   # ~b_2
   1000006     5.69047591E+02   # ~t_1
   2000006     3.01972477E+03   # ~t_2
   1000011     3.00742202E+03   # ~e_L
   2000011     2.99997175E+03   # ~e_R
   1000012     3.00601728E+03   # ~nu_eL
   1000013     3.00742202E+03   # ~mu_L
   2000013     2.99997175E+03   # ~mu_R
   1000014     3.00601728E+03   # ~nu_muL
   1000015     2.98626691E+03   # ~tau_1
   2000015     3.02252205E+03   # ~tau_2
   1000016     3.00650158E+03   # ~nu_tauL
   1000021     2.32897312E+03   # ~g
   1000022     5.07587847E+01   # ~chi_10
   1000023     1.10336570E+02   # ~chi_20
   1000025    -3.00645210E+03   # ~chi_30
   1000035     3.00663450E+03   # ~chi_40
   1000024     1.10487615E+02   # ~chi_1+
   1000037     3.00748752E+03   # ~chi_2+
#
BLOCK NMIX  # Neutralino Mixing Matrix
  1  1     9.99890715E-01   # N_11
  1  2     1.91515787E-03   # N_12
  1  3    -1.46510042E-02   # N_13
  1  4     4.88998992E-04   # N_14
  2  1    -1.53205024E-03   # N_21
  2  2     9.99658040E-01   # N_22
  2  3     2.61010936E-02   # N_23
  2  4    -4.35428060E-04   # N_24
  3  1     1.00452520E-02   # N_31
  3  2    -1.81309518E-02   # N_32
  3  3     7.06791860E-01   # N_33
  3  4     7.07117832E-01   # N_34
  4  1    -1.07379983E-02   # N_41
  4  2     1.87457894E-02   # N_42
  4  3    -7.06788050E-01   # N_43
  4  4     7.07095427E-01   # N_44
#
BLOCK UMIX  # Chargino Mixing Matrix U
  1  1     9.99320138E-01   # U_11
  1  2     3.68681571E-02   # U_12
  2  1    -3.68681571E-02   # U_21
  2  2     9.99320138E-01   # U_22
#
BLOCK VMIX  # Chargino Mixing Matrix V
  1  1     9.99999810E-01   # V_11
  1  2     6.16305900E-04   # V_12
  2  1     6.16305900E-04   # V_21
  2  2    -9.99999810E-01   # V_22
#
BLOCK STOPMIX  # Stop Mixing Matrix
  1  1     9.98639644E-01   # cos(theta_t)
  1  2    -5.21427026E-02   # sin(theta_t)
  2  1     5.21427026E-02   # -sin(theta_t)
  2  2     9.98639644E-01   # cos(theta_t)
#
BLOCK SBOTMIX  # Sbottom Mixing Matrix
  1  1     9.99708770E-01   # cos(theta_b)
  1  2    -2.41324509E-02   # sin(theta_b)
  2  1     2.41324509E-02   # -sin(theta_b)
  2  2     9.99708770E-01   # cos(theta_b)
#
BLOCK STAUMIX  # Stau Mixing Matrix
  1  1    -7.06865391E-01   # cos(theta_tau)
  1  2     7.07348089E-01   # sin(theta_tau)
  2  1    -7.07348089E-01   # -sin(theta_tau)
  2  2    -7.06865391E-01   # cos(theta_tau)
#
BLOCK ALPHA  # Higgs mixing
          -5.00179549E-02   # Mixing angle in the neutral Higgs boson sector
#
BLOCK HMIX Q=  1.22030651E+03  # DRbar Higgs Parameters
         1    -3.00000000E+03   # mu(Q)MSSM           
         2     2.00000000E+01   # tan                 
         3     2.44520630E+02   # higgs               
         4     1.13964898E+07   # mA^2(Q)MSSM         
#
BLOCK GAUGE Q=  1.22030651E+03  # The gauge couplings
     1     3.61420321E-01   # gprime(Q) DRbar
     2     6.41285978E-01   # g(Q) DRbar
     3     1.03096736E+00   # g3(Q) DRbar
#
BLOCK AU Q=  1.22030651E+03  # The trilinear couplings
  1  1     0.00000000E+00   # A_u(Q) DRbar
  2  2     1.37694461E-06   # A_c(Q) DRbar
  3  3     2.94338000E+03   # A_t(Q) DRbar
#
BLOCK AD Q=  1.22030651E+03  # The trilinear couplings
  1  1     4.87322186E-07   # A_d(Q) DRbar
  2  2     4.87382034E-07   # A_s(Q) DRbar
  3  3     1.02634335E-06   # A_b(Q) DRbar
#
BLOCK AE Q=  1.22030651E+03  # The trilinear couplings
  1  1     2.39763948E-07   # A_e(Q) DRbar
  2  2     2.39776026E-07   # A_mu(Q) DRbar
  3  3     2.43242692E-07   # A_tau(Q) DRbar
#
BLOCK Yu Q=  1.22030651E+03  # The Yukawa couplings
  1  1     0.00000000E+00   # y_u(Q) DRbar
  2  2     0.00000000E+00   # y_c(Q) DRbar
  3  3     8.57754972E-01   # y_t(Q) DRbar
#
BLOCK Yd Q=  1.22030651E+03  # The Yukawa couplings
  1  1     0.00000000E+00   # y_d(Q) DRbar
  2  2     0.00000000E+00   # y_s(Q) DRbar
  3  3     4.07829404E-01   # y_b(Q) DRbar
#
BLOCK Ye Q=  1.22030651E+03  # The Yukawa couplings
  1  1     0.00000000E+00   # y_e(Q) DRbar
  2  2     0.00000000E+00   # y_mu(Q) DRbar
  3  3     2.03696152E-01   # y_tau(Q) DRbar
#
BLOCK MSOFT Q=  1.22030651E+03  # The soft SUSY breaking masses at the scale Q
         1     4.99000000E+01   # M_1(Q)              
         2     9.99000000E+01   # M_2(Q)              
         3     2.20000000E+03   # M_3(Q)              
        21    -6.07682282E+04   # M^2_Hd              
        22    -9.14617933E+06   # M^2_Hu              
        31     3.00000000E+03   # M_eL                
        32     3.00000000E+03   # M_muL               
        33     3.00000000E+03   # M_tauL              
        34     3.00000000E+03   # M_eR                
        35     3.00000000E+03   # M_muR               
        36     3.00000000E+03   # M_tauR              
        41     3.00000000E+03   # M_q1L               
        42     3.00000000E+03   # M_q2L               
        43     4.99899993E+02   # M_q3L               
        44     3.00000000E+03   # M_uR                
        45     3.00000000E+03   # M_cR                
        46     3.00000000E+03   # M_tR                
        47     3.00000000E+03   # M_dR                
        48     3.00000000E+03   # M_sR                
        49     3.00000000E+03   # M_bR                
#
#
#
#                             =================
#                             |The decay table|
#                             =================
#
# - The QCD corrections to the decays gluino -> squark  + quark
#                                     squark -> gaugino + quark_prime
#                                     squark -> squark_prime + Higgs
#                                     squark -> gluino  + quark
#   are included.
#
# - The multi-body decays for the inos, stops and sbottoms are included.
#
# - The loop induced decays for the gluino, neutralinos and stops
#   are included.
#
# - The SUSY decays of the top quark are included.
#
#
#         PDG            Width
DECAY         6     1.42753082E+00   # top decays
#          BR         NDA      ID1       ID2
     1.00000000E+00    2           5        24   # BR(t ->  b    W+)
#
#         PDG            Width
DECAY   1000021     8.22515720E+01   # gluino decays
#          BR         NDA      ID1       ID2
     2.48065188E-01    2     1000005        -5   # BR(~g -> ~b_1  bb)
     2.48065188E-01    2    -1000005         5   # BR(~g -> ~b_1* b )
     2.51934812E-01    2     1000006        -6   # BR(~g -> ~t_1  tb)
     2.51934812E-01    2    -1000006         6   # BR(~g -> ~t_1* t )
#
#         PDG            Width
DECAY   1000006     6.45962935E+00   # stop1 decays
#          BR         NDA      ID1       ID2
     1.13958032E-02    2     1000022         6   # BR(~t_1 -> ~chi_10 t )
     2.88204250E-01    2     1000023         6   # BR(~t_1 -> ~chi_20 t )
     7.00399947E-01    2     1000024         5   # BR(~t_1 -> ~chi_1+ b )
#
#         PDG            Width
DECAY   2000006     1.23044162E+02   # stop2 decays
#          BR         NDA      ID1       ID2
     5.34781037E-02    2     1000022         6   # BR(~t_2 -> ~chi_10 t )
     2.23152242E-04    2     1000023         6   # BR(~t_2 -> ~chi_20 t )
     0.00000000E+00    2     1000025         6   # BR(~t_2 -> ~chi_30 t )
     4.49407281E-04    2     1000024         5   # BR(~t_2 -> ~chi_1+ b )
     2.44138999E-05    2     1000037         5   # BR(~t_2 -> ~chi_2+ b )
     2.85671083E-01    2     1000021         6   # BR(~t_2 -> ~g      t )
     1.71386857E-01    2     1000006        25   # BR(~t_2 -> ~t_1    h )
     1.64377425E-01    2     1000006        23   # BR(~t_2 -> ~t_1    Z )
     3.24389557E-01    2     1000005        24   # BR(~t_2 -> ~b_1    W+)
#
#         PDG            Width
DECAY   1000005     6.14095343E+00   # sbottom1 decays
#          BR         NDA      ID1       ID2
     1.38652405E-02    2     1000022         5   # BR(~b_1 -> ~chi_10 b )
     3.72119763E-01    2     1000023         5   # BR(~b_1 -> ~chi_20 b )
     6.14014996E-01    2    -1000024         6   # BR(~b_1 -> ~chi_1- t )
#
#         PDG            Width
DECAY   2000005     5.78067905E+01   # sbottom2 decays
#          BR         NDA      ID1       ID2
     2.86074033E-02    2     1000022         5   # BR(~b_2 -> ~chi_10 b )
    -1.03354576E-07    2     1000023         5   # BR(~b_2 -> ~chi_20 b )
     6.46349830E-06    2     1000025         5   # BR(~b_2 -> ~chi_30 b )
     6.00708701E-06    2     1000035         5   # BR(~b_2 -> ~chi_40 b )
    -2.04263278E-07    2    -1000024         6   # BR(~b_2 -> ~chi_1- t )
     6.11228035E-01    2     1000021         5   # BR(~b_2 -> ~g      b )
     7.93846110E-02    2     1000005        25   # BR(~b_2 -> ~b_1    h )
     1.13959894E-01    2     1000005        23   # BR(~b_2 -> ~b_1    Z )
     1.66807895E-01    2     1000006       -24   # BR(~b_2 -> ~t_1    W-)
#
#         PDG            Width
DECAY   1000002     7.12002326E+01   # sup_L decays
#          BR         NDA      ID1       ID2
     5.94221051E-03    2     1000022         2   # BR(~u_L -> ~chi_10 u)
     1.64556865E-01    2     1000023         2   # BR(~u_L -> ~chi_20 u)
     6.02873616E-09    2     1000025         2   # BR(~u_L -> ~chi_30 u)
     6.25475885E-09    2     1000035         2   # BR(~u_L -> ~chi_40 u)
     3.29526544E-01    2     1000024         1   # BR(~u_L -> ~chi_1+ d)
     1.52665858E-11    2     1000037         1   # BR(~u_L -> ~chi_2+ d)
     4.99974368E-01    2     1000021         2   # BR(~u_L -> ~g      u)
#
#         PDG            Width
DECAY   2000002     4.21097307E+01   # sup_R decays
#          BR         NDA      ID1       ID2
     1.57448262E-01    2     1000022         2   # BR(~u_R -> ~chi_10 u)
     3.69052683E-07    2     1000023         2   # BR(~u_R -> ~chi_20 u)
     1.82993243E-09    2     1000025         2   # BR(~u_R -> ~chi_30 u)
     2.04100773E-09    2     1000035         2   # BR(~u_R -> ~chi_40 u)
     8.42551365E-01    2     1000021         2   # BR(~u_R -> ~g      u)
#
#         PDG            Width
DECAY   1000001     7.12509635E+01   # sdown_L decays
#          BR         NDA      ID1       ID2
     5.70247998E-03    2     1000022         1   # BR(~d_L -> ~chi_10 d)
     1.64681398E-01    2     1000023         1   # BR(~d_L -> ~chi_20 d)
     1.01908291E-08    2     1000025         1   # BR(~d_L -> ~chi_30 d)
     1.07377429E-08    2     1000035         1   # BR(~d_L -> ~chi_40 d)
     3.28948743E-01    2    -1000024         2   # BR(~d_L -> ~chi_1- u)
     6.12462420E-08    2    -1000037         2   # BR(~d_L -> ~chi_2- u)
     5.00667297E-01    2     1000021         1   # BR(~d_L -> ~g      d)
#
#         PDG            Width
DECAY   2000001     3.68804443E+01   # sdown_R decays
#          BR         NDA      ID1       ID2
     4.48946628E-02    2     1000022         1   # BR(~d_R -> ~chi_10 d)
     1.05230972E-07    2     1000023         1   # BR(~d_R -> ~chi_20 d)
     3.26637983E-10    2     1000025         1   # BR(~d_R -> ~chi_30 d)
     3.61889590E-10    2     1000035         1   # BR(~d_R -> ~chi_40 d)
     9.55105231E-01    2     1000021         1   # BR(~d_R -> ~g      d)
#
#         PDG            Width
DECAY   1000004     7.12002326E+01   # scharm_L decays
#          BR         NDA      ID1       ID2
     5.94221051E-03    2     1000022         4   # BR(~c_L -> ~chi_10 c)
     1.64556865E-01    2     1000023         4   # BR(~c_L -> ~chi_20 c)
     6.02873616E-09    2     1000025         4   # BR(~c_L -> ~chi_30 c)
     6.25475885E-09    2     1000035         4   # BR(~c_L -> ~chi_40 c)
     3.29526544E-01    2     1000024         3   # BR(~c_L -> ~chi_1+ s)
     1.52665858E-11    2     1000037         3   # BR(~c_L -> ~chi_2+ s)
     4.99974368E-01    2     1000021         4   # BR(~c_L -> ~g      c)
#
#         PDG            Width
DECAY   2000004     4.21097307E+01   # scharm_R decays
#          BR         NDA      ID1       ID2
     1.57448262E-01    2     1000022         4   # BR(~c_R -> ~chi_10 c)
     3.69052683E-07    2     1000023         4   # BR(~c_R -> ~chi_20 c)
     1.82993243E-09    2     1000025         4   # BR(~c_R -> ~chi_30 c)
     2.04100773E-09    2     1000035         4   # BR(~c_R -> ~chi_40 c)
     8.42551365E-01    2     1000021         4   # BR(~c_R -> ~g      c)
#
#         PDG            Width
DECAY   1000003     7.12509635E+01   # sstrange_L decays
#          BR         NDA      ID1       ID2
     5.70247998E-03    2     1000022         3   # BR(~s_L -> ~chi_10 s)
     1.64681398E-01    2     1000023         3   # BR(~s_L -> ~chi_20 s)
     1.01908291E-08    2     1000025         3   # BR(~s_L -> ~chi_30 s)
     1.07377429E-08    2     1000035         3   # BR(~s_L -> ~chi_40 s)
     3.28948743E-01    2    -1000024         4   # BR(~s_L -> ~chi_1- c)
     6.12462420E-08    2    -1000037         4   # BR(~s_L -> ~chi_2- c)
     5.00667297E-01    2     1000021         3   # BR(~s_L -> ~g      s)
#
#         PDG            Width
DECAY   2000003     3.68804443E+01   # sstrange_R decays
#          BR         NDA      ID1       ID2
     4.48946628E-02    2     1000022         3   # BR(~s_R -> ~chi_10 s)
     1.05230972E-07    2     1000023         3   # BR(~s_R -> ~chi_20 s)
     3.26637983E-10    2     1000025         3   # BR(~s_R -> ~chi_30 s)
     3.61889590E-10    2     1000035         3   # BR(~s_R -> ~chi_40 s)
     9.55105231E-01    2     1000021         3   # BR(~s_R -> ~g      s)
#
#         PDG            Width
DECAY   1000011     4.06766976E+01   # selectron_L decays
#          BR         NDA      ID1       ID2
     9.66448023E-02    2     1000022        11   # BR(~e_L -> ~chi_10 e-)
     3.00908719E-01    2     1000023        11   # BR(~e_L -> ~chi_20 e-)
     1.95595558E-11    2     1000025        11   # BR(~e_L -> ~chi_30 e-)
     1.33637910E-11    2     1000035        11   # BR(~e_L -> ~chi_40 e-)
     6.02446479E-01    2    -1000024        12   # BR(~e_L -> ~chi_1- nu_e)
#
#         PDG            Width
DECAY   2000011     1.55797267E+01   # selectron_R decays
#          BR         NDA      ID1       ID2
     9.99997657E-01    2     1000022        11   # BR(~e_R -> ~chi_10 e-)
     2.34267949E-06    2     1000023        11   # BR(~e_R -> ~chi_20 e-)
#
#         PDG            Width
DECAY   1000013     4.06766976E+01   # smuon_L decays
#          BR         NDA      ID1       ID2
     9.66448023E-02    2     1000022        13   # BR(~mu_L -> ~chi_10 mu-)
     3.00908719E-01    2     1000023        13   # BR(~mu_L -> ~chi_20 mu-)
     1.95595558E-11    2     1000025        13   # BR(~mu_L -> ~chi_30 mu-)
     1.33637910E-11    2     1000035        13   # BR(~mu_L -> ~chi_40 mu-)
     6.02446479E-01    2    -1000024        14   # BR(~mu_L -> ~chi_1- nu_mu)
#
#         PDG            Width
DECAY   2000013     1.55797267E+01   # smuon_R decays
#          BR         NDA      ID1       ID2
     9.99997657E-01    2     1000022        13   # BR(~mu_R -> ~chi_10 mu-)
     2.34267949E-06    2     1000023        13   # BR(~mu_R -> ~chi_20 mu-)
#
#         PDG            Width
DECAY   1000015     2.84172068E+01   # stau_1 decays
#          BR         NDA      ID1       ID2
     3.43292842E-01    2     1000022        15   # BR(~tau_1 -> ~chi_10  tau-)
     2.18781743E-01    2     1000023        15   # BR(~tau_1 -> ~chi_20  tau-)
     4.37925415E-01    2    -1000024        16   # BR(~tau_1 -> ~chi_1-  nu_tau)
#
#         PDG            Width
DECAY   2000015     2.78236212E+01   # stau_2 decays
#          BR         NDA      ID1       ID2
     3.51318180E-01    2     1000022        15   # BR(~tau_2 -> ~chi_10  tau-)
     2.16080214E-01    2     1000023        15   # BR(~tau_2 -> ~chi_20  tau-)
     5.98372510E-06    2     1000025        15   # BR(~tau_2 -> ~chi_30  tau-)
     4.69395363E-06    2     1000035        15   # BR(~tau_2 -> ~chi_40  tau-)
     4.32585439E-01    2    -1000024        16   # BR(~tau_2 -> ~chi_1-  nu_tau)
     5.49007475E-06    2    -1000037        16   # BR(~tau_2 -> ~chi_2-  nu_tau)
#
#         PDG            Width
DECAY   1000012     4.06802198E+01   # snu_eL decays
#          BR         NDA      ID1       ID2
     9.52870516E-02    2     1000022        12   # BR(~nu_eL -> ~chi_10 nu_e)
     3.01782213E-01    2     1000023        12   # BR(~nu_eL -> ~chi_20 nu_e)
     6.02930735E-01    2     1000024        11   # BR(~nu_eL -> ~chi_1+ e-)
#
#         PDG            Width
DECAY   1000014     4.06802198E+01   # snu_muL decays
#          BR         NDA      ID1       ID2
     9.52870516E-02    2     1000022        14   # BR(~nu_muL -> ~chi_10 nu_mu)
     3.01782213E-01    2     1000023        14   # BR(~nu_muL -> ~chi_20 nu_mu)
     6.02930735E-01    2     1000024        13   # BR(~nu_muL -> ~chi_1+ mu-)
#
#         PDG            Width
DECAY   1000016     4.06901786E+01   # snu_tauL decays
#          BR         NDA      ID1       ID2
     9.52790958E-02    2     1000022        16   # BR(~nu_tauL -> ~chi_10 nu_tau)
     3.01757224E-01    2     1000023        16   # BR(~nu_tauL -> ~chi_20 nu_tau)
     1.85369611E-13    2     1000025        16   # BR(~nu_tauL -> ~chi_30 nu_tau)
     6.02963681E-01    2     1000024        15   # BR(~nu_tauL -> ~chi_1+ tau-)
#
#         PDG            Width
DECAY   1000024     7.26631049E-09   # chargino1+ decays
#           BR         NDA      ID1       ID2       ID3
     3.39937374E-01    3     1000022         2        -1   # BR(~chi_1+ -> ~chi_10 u    db)
     1.76192425E-08    3     1000023         2        -1   # BR(~chi_1+ -> ~chi_20 u    db)
     3.39937374E-01    3     1000022         4        -3   # BR(~chi_1+ -> ~chi_10 c    sb)
     1.76192425E-08    3     1000023         4        -3   # BR(~chi_1+ -> ~chi_20 c    sb)
     1.06862937E-01    3     1000022       -11        12   # BR(~chi_1+ -> ~chi_10 e+   nu_e)
     5.87312652E-09    3     1000023       -11        12   # BR(~chi_1+ -> ~chi_20 e+   nu_e)
     1.06862937E-01    3     1000022       -13        14   # BR(~chi_1+ -> ~chi_10 mu+  nu_mu)
     5.87312652E-09    3     1000023       -13        14   # BR(~chi_1+ -> ~chi_20 mu+  nu_mu)
     1.06399331E-01    3     1000022       -15        16   # BR(~chi_1+ -> ~chi_10 tau+ nu_tau)
#
#         PDG            Width
DECAY   1000037     1.00234447E+02   # chargino2+ decays
#          BR         NDA      ID1       ID2
     1.49532917E-01    2     1000006        -5   # BR(~chi_2+ -> ~t_1     bb)
     6.53700157E-01    2    -1000005         6   # BR(~chi_2+ -> ~b_1*    t )
     4.45450633E-14    2     1000012       -11   # BR(~chi_2+ -> ~nu_eL   e+  )
     4.45450633E-14    2     1000014       -13   # BR(~chi_2+ -> ~nu_muL  mu+ )
     3.16532857E-13    2    -1000011        12   # BR(~chi_2+ -> ~e_L+    nu_e)
     3.16532857E-13    2    -1000013        14   # BR(~chi_2+ -> ~mu_L+   nu_mu)
     9.56010161E-07    2    -1000015        16   # BR(~chi_2+ -> ~tau_1+  nu_tau)
     5.94759886E-02    2     1000024        23   # BR(~chi_2+ -> ~chi_1+  Z )
     1.86645649E-02    2     1000022        24   # BR(~chi_2+ -> ~chi_10  W+)
     5.80031406E-02    2     1000023        24   # BR(~chi_2+ -> ~chi_20  W+)
     6.06222758E-02    2     1000024        25   # BR(~chi_2+ -> ~chi_1+  h )
#
#         PDG            Width
DECAY   1000022     0.00000000E+00   # neutralino1 decays
#
#         PDG            Width
DECAY   1000023     2.93250495E-09   # neutralino2 decays
#          BR         NDA      ID1       ID2
     6.47537162E-03    2     1000022        22   # BR(~chi_20 -> ~chi_10 gam)
#           BR         NDA      ID1       ID2       ID3
     1.38294684E-02    3     1000022        -2         2   # BR(~chi_20 -> ~chi_10 ub      u)
     1.71780123E-02    3     1000022        -1         1   # BR(~chi_20 -> ~chi_10 db      d)
     1.38294684E-02    3     1000022        -4         4   # BR(~chi_20 -> ~chi_10 cb      c)
     1.71780123E-02    3     1000022        -3         3   # BR(~chi_20 -> ~chi_10 sb      s)
     9.26191710E-01    3     1000022        -5         5   # BR(~chi_20 -> ~chi_10 bb      b)
     1.51063628E-03    3     1000022       -11        11   # BR(~chi_20 -> ~chi_10 e+      e-)
     1.51063628E-03    3     1000022       -13        13   # BR(~chi_20 -> ~chi_10 mu+     mu-)
     1.50704528E-03    3     1000022       -15        15   # BR(~chi_20 -> ~chi_10 tau+    tau-)
     2.63061758E-04    3     1000022       -12        12   # BR(~chi_20 -> ~chi_10 nu_eb   nu_e)
     2.63061758E-04    3     1000022       -14        14   # BR(~chi_20 -> ~chi_10 nu_mub  nu_mu)
     2.63515475E-04    3     1000022       -16        16   # BR(~chi_20 -> ~chi_10 nu_taub nu_tau)
#
#         PDG            Width
DECAY   1000025     1.00731433E+02   # neutralino3 decays
#          BR         NDA      ID1       ID2
     1.00030882E-02    2     1000022        23   # BR(~chi_30 -> ~chi_10   Z )
     3.06289089E-02    2     1000023        23   # BR(~chi_30 -> ~chi_20   Z )
     5.78267288E-02    2     1000024       -24   # BR(~chi_30 -> ~chi_1+   W-)
     5.78267288E-02    2    -1000024        24   # BR(~chi_30 -> ~chi_1-   W+)
     8.34514566E-03    2     1000022        25   # BR(~chi_30 -> ~chi_10   h )
     2.53991742E-02    2     1000023        25   # BR(~chi_30 -> ~chi_20   h )
     3.31367630E-01    2     1000006        -6   # BR(~chi_30 -> ~t_1      tb)
     3.31367630E-01    2    -1000006         6   # BR(~chi_30 -> ~t_1*     t )
     7.36163755E-02    2     1000005        -5   # BR(~chi_30 -> ~b_1      bb)
     7.36163755E-02    2    -1000005         5   # BR(~chi_30 -> ~b_1*     b )
     1.45136935E-10    2     2000011       -11   # BR(~chi_30 -> ~e_R-     e+)
     1.45136935E-10    2    -2000011        11   # BR(~chi_30 -> ~e_R+     e-)
     1.45136935E-10    2     2000013       -13   # BR(~chi_30 -> ~mu_R-    mu+)
     1.45136935E-10    2    -2000013        13   # BR(~chi_30 -> ~mu_R+    mu-)
     1.10699534E-06    2     1000015       -15   # BR(~chi_30 -> ~tau_1-   tau+)
     1.10699534E-06    2    -1000015        15   # BR(~chi_30 -> ~tau_1+   tau-)
     2.89097442E-12    2     1000012       -12   # BR(~chi_30 -> ~nu_eL    nu_eb)
     2.89097442E-12    2    -1000012        12   # BR(~chi_30 -> ~nu_eL*   nu_e )
     2.89097442E-12    2     1000014       -14   # BR(~chi_30 -> ~nu_muL   nu_mub)
     2.89097442E-12    2    -1000014        14   # BR(~chi_30 -> ~nu_muL*  nu_mu )
#
#         PDG            Width
DECAY   1000035     1.00115540E+02   # neutralino4 decays
#          BR         NDA      ID1       ID2
     8.80895752E-03    2     1000022        23   # BR(~chi_40 -> ~chi_10   Z )
     2.88436323E-02    2     1000023        23   # BR(~chi_40 -> ~chi_20   Z )
     5.81838262E-02    2     1000024       -24   # BR(~chi_40 -> ~chi_1+   W-)
     5.81838262E-02    2    -1000024        24   # BR(~chi_40 -> ~chi_1-   W+)
     1.09735139E-02    2     1000022        25   # BR(~chi_40 -> ~chi_10   h )
     3.61633413E-02    2     1000023        25   # BR(~chi_40 -> ~chi_20   h )
     3.25340199E-01    2     1000006        -6   # BR(~chi_40 -> ~t_1      tb)
     3.25340199E-01    2    -1000006         6   # BR(~chi_40 -> ~t_1*     t )
     7.40803043E-02    2     1000005        -5   # BR(~chi_40 -> ~b_1      bb)
     7.40803043E-02    2    -1000005         5   # BR(~chi_40 -> ~b_1*     b )
     1.76369669E-10    2     2000011       -11   # BR(~chi_40 -> ~e_R-     e+)
     1.76369669E-10    2    -2000011        11   # BR(~chi_40 -> ~e_R+     e-)
     1.76369669E-10    2     2000013       -13   # BR(~chi_40 -> ~mu_R-    mu+)
     1.76369669E-10    2    -2000013        13   # BR(~chi_40 -> ~mu_R+    mu-)
     9.47594400E-07    2     1000015       -15   # BR(~chi_40 -> ~tau_1-   tau+)
     9.47594400E-07    2    -1000015        15   # BR(~chi_40 -> ~tau_1+   tau-)
     6.36591816E-12    2     1000012       -12   # BR(~chi_40 -> ~nu_eL    nu_eb)
     6.36591816E-12    2    -1000012        12   # BR(~chi_40 -> ~nu_eL*   nu_e )
     6.36591816E-12    2     1000014       -14   # BR(~chi_40 -> ~nu_muL   nu_mub)
     6.36591816E-12    2    -1000014        14   # BR(~chi_40 -> ~nu_muL*  nu_mu )
     2.95278411E-13    2     1000016       -16   # BR(~chi_40 -> ~nu_tau1  nu_taub)
     2.95278411E-13    2    -1000016        16   # BR(~chi_40 -> ~nu_tau1* nu_tau )
#
#         PDG            Width
DECAY        25     3.82180041E-03   # h decays
#          BR         NDA      ID1       ID2
     5.44593312E-01    2           5        -5   # BR(h -> b       bb     )
     6.85839684E-02    2         -15        15   # BR(h -> tau+    tau-   )
     2.42783105E-04    2         -13        13   # BR(h -> mu+     mu-    )
     5.14244195E-04    2           3        -3   # BR(h -> s       sb     )
     2.23419937E-02    2           4        -4   # BR(h -> c       cb     )
     7.39327084E-02    2          21        21   # BR(h -> g       g      )
     2.57234559E-03    2          22        22   # BR(h -> gam     gam    )
     1.83908392E-03    2          22        23   # BR(h -> Z       gam    )
     2.53060121E-01    2          24       -24   # BR(h -> W+      W-     )
     3.22943783E-02    2          23        23   # BR(h -> Z       Z      )
     2.50619729E-05    2     1000022   1000022   # BR(h -> ~chi_10 ~chi_10)
#
#         PDG            Width
DECAY        35     4.17632945E+01   # H decays
#          BR         NDA      ID1       ID2
     9.10203555E-01    2           5        -5   # BR(H -> b       bb     )
     5.95460015E-02    2         -15        15   # BR(H -> tau+    tau-   )
     2.10540432E-04    2         -13        13   # BR(H -> mu+     mu-    )
     2.58543309E-04    2           3        -3   # BR(H -> s       sb     )
     7.24786477E-08    2           4        -4   # BR(H -> c       cb     )
     7.23021396E-03    2           6        -6   # BR(H -> t       tb     )
     4.08336087E-06    2          21        21   # BR(H -> g       g      )
     4.03322681E-08    2          22        22   # BR(H -> gam     gam    )
     2.95887556E-09    2          23        22   # BR(H -> Z       gam    )
     7.49476685E-07    2          24       -24   # BR(H -> W+      W-     )
     3.74276268E-07    2          23        23   # BR(H -> Z       Z      )
     4.84783832E-06    2          25        25   # BR(H -> h       h      )
     8.31126840E-26    2          36        36   # BR(H -> A       A      )
     3.80570677E-18    2          23        36   # BR(H -> Z       A      )
     8.18379814E-04    2     1000024  -1000024   # BR(H -> ~chi_1+ ~chi_1-)
     3.69091671E-05    2     1000022   1000022   # BR(H -> ~chi_10 ~chi_10)
     4.10577628E-04    2     1000023   1000023   # BR(H -> ~chi_20 ~chi_20)
     2.46463347E-04    2     1000022   1000023   # BR(H -> ~chi_10 ~chi_20)
     2.10232193E-02    2     1000006  -1000006   # BR(H -> ~t_1    ~t_1*  )
     5.42563231E-06    2     1000005  -1000005   # BR(H -> ~b_1    ~b_1*  )
#
#         PDG            Width
DECAY        36     4.08877097E+01   # A decays
#          BR         NDA      ID1       ID2
     9.29691427E-01    2           5        -5   # BR(A -> b       bb     )
     6.08181301E-02    2         -15        15   # BR(A -> tau+    tau-   )
     2.15038074E-04    2         -13        13   # BR(A -> mu+     mu-    )
     2.64111407E-04    2           3        -3   # BR(A -> s       sb     )
     7.45284953E-08    2           4        -4   # BR(A -> c       cb     )
     7.43060391E-03    2           6        -6   # BR(A -> t       tb     )
     2.18824166E-05    2          21        21   # BR(A -> g       g      )
     4.49116089E-08    2          22        22   # BR(A -> gam     gam    )
     2.15510786E-08    2          23        22   # BR(A -> Z       gam    )
     7.62489706E-07    2          23        25   # BR(A -> Z       h      )
     8.43235567E-04    2     1000024  -1000024   # BR(A -> ~chi_1+ ~chi_1-)
     3.79937694E-05    2     1000022   1000022   # BR(A -> ~chi_10 ~chi_10)
     4.23039422E-04    2     1000023   1000023   # BR(A -> ~chi_20 ~chi_20)
     2.53634859E-04    2     1000022   1000023   # BR(A -> ~chi_10 ~chi_20)
#
#         PDG            Width
DECAY        37     4.42417090E+01   # H+ decays
#          BR         NDA      ID1       ID2
     1.48111441E-03    2           4        -5   # BR(H+ -> c       bb     )
     5.62282749E-02    2         -15        16   # BR(H+ -> tau+    nu_tau )
     1.98809465E-04    2         -13        14   # BR(H+ -> mu+     nu_mu  )
     9.47912068E-06    2           2        -5   # BR(H+ -> u       bb     )
     1.16835139E-05    2           2        -3   # BR(H+ -> u       sb     )
     2.40367450E-04    2           4        -3   # BR(H+ -> c       sb     )
     9.31090573E-01    2           6        -5   # BR(H+ -> t       bb     )
     7.05909970E-07    2          24        25   # BR(H+ -> W+      h      )
     5.03432016E-14    2          24        36   # BR(H+ -> W+      A      )
     4.69388930E-04    2     1000024   1000022   # BR(H+ -> ~chi_1+ ~chi_10)
     1.10110553E-09    2     1000024   1000023   # BR(H+ -> ~chi_1+ ~chi_20)
     1.02696017E-02    2     1000006  -1000005   # BR(H+ -> ~t_1    ~b_1*  )
