#
#                              ======================
#                              | THE SUSYHIT OUTPUT |
#                              ======================
#
#
#              ------------------------------------------------------
#              |     This is the output of the SUSY-HIT package     |
#              |  created by A.Djouadi, M.Muehlleitner and M.Spira. |
#              |  In case of problems with SUSY-HIT email to        |
#              |           margarete.muehlleitner@kit.edu           |
#              |           michael.spira@psi.ch                     |
#              |           abdelhak.djouadi@cern.ch                 |
#              ------------------------------------------------------
#
#              ------------------------------------------------------
#              |  SUSY Les Houches Accord - MSSM Spectrum + Decays  |
#              |              based on the decay programs           |
#              |                                                    |
#              |                     SDECAY 1.5                     |
#              |                                                    |
#              |  Authors: M.Muhlleitner, A.Djouadi and Y.Mambrini  |
#              |  Ref.:    Comput.Phys.Commun.168(2005)46           |
#              |           [hep-ph/0311167]                         |
#              |                                                    |
#              |                     HDECAY 3.4                     |
#              |                                                    |
#              |  By: A.Djouadi,J.Kalinowski,M.Muhlleitner,M.Spira  |
#              |  Ref.:    Comput.Phys.Commun.108(1998)56           |
#              |           [hep-ph/9704448]                         |
#              |                                                    |
#              |                                                    |
#              |  If not stated otherwise all DRbar couplings and   |
#              |  soft SUSY breaking masses are given at the scale  |
#              |  Q=  0.17312006E+04
#              |                                                    |
#              ------------------------------------------------------
#
#
BLOCK DCINFO  # Decay Program information
     1   SDECAY/HDECAY # decay calculator
     2   1.5  /3.4    # version number
#
BLOCK SPINFO  # Spectrum calculator information
     1    SOFTSUSY    # spectrum calculator                
     2    3.7.3       # version number                     
#
BLOCK MODSEL  # Model selection
     1     0   #  nonUniversal                                     
#
BLOCK SMINPUTS  # Standard Model inputs
         1     1.27934000E+02   # alpha_em^-1(M_Z)^MSbar
         2     1.16639000E-05   # G_F [GeV^-2]
         3     1.17200000E-01   # alpha_S(M_Z)^MSbar
         4     9.11870000E+01   # M_Z pole mass
         5     4.19000000E+00   # mb(mb)^MSbar
         6     1.72500000E+02   # mt pole mass
         7     1.77690000E+00   # mtau pole mass
#
BLOCK MINPAR  # Input parameters - minimal models
         3     2.00000000E+01   # tanb                
#
BLOCK EXTPAR  # Input parameters - non-minimal models
         0    -1.00000000E+00   # Set                 
         1     2.49900000E+02   # M_1(MX)             
         2     4.99900000E+02   # M_2(MX)             
         3     2.20000000E+03   # M_3(MX)             
        11     2.94338000E+03   # At(MX)              
        12     0.00000000E+00   # Ab(MX)              
        13     0.00000000E+00   # Atau(MX)            
        23    -3.00000000E+03   # mu(MX)              
        25     2.00000000E+01   # tan                 
        26     3.00000000E+03   # mA(pole)            
        31     3.00000000E+03   # meL(MX)             
        32     3.00000000E+03   # mmuL(MX)            
        33     3.00000000E+03   # mtauL(MX)           
        34     3.00000000E+03   # meR(MX)             
        35     3.00000000E+03   # mmuR(MX)            
        36     3.00000000E+03   # mtauR(MX)           
        41     3.00000000E+03   # mqL1(MX)            
        42     3.00000000E+03   # mqL2(MX)            
        43     9.99900000E+02   # mqL3(MX)            
        44     3.00000000E+03   # muR(MX)             
        45     3.00000000E+03   # mcR(MX)             
        46     3.00000000E+03   # mtR(MX)             
        47     3.00000000E+03   # mdR(MX)             
        48     3.00000000E+03   # msR(MX)             
        49     3.00000000E+03   # mbR(MX)             
#
BLOCK MASS  # Mass Spectrum
# PDG code           mass       particle
        24     8.03993438E+01   # W+
        25     1.24745737E+02   # h
        35     2.99999377E+03   # H
        36     2.99999995E+03   # A
        37     3.00108458E+03   # H+
         5     4.81337004E+00   # b-quark pole mass calculated from mb(mb)_Msbar
   1000001     3.04335502E+03   # ~d_L
   2000001     3.03820368E+03   # ~d_R
   1000002     3.04244819E+03   # ~u_L
   2000002     3.03938554E+03   # ~u_R
   1000003     3.04335502E+03   # ~s_L
   2000003     3.03820368E+03   # ~s_R
   1000004     3.04244819E+03   # ~c_L
   2000004     3.03938554E+03   # ~c_R
   1000005     1.09976848E+03   # ~b_1
   2000005     3.03540233E+03   # ~b_2
   1000006     1.09770565E+03   # ~t_1
   2000006     3.02484671E+03   # ~t_2
   1000011     3.00637749E+03   # ~e_L
   2000011     3.00198058E+03   # ~e_R
   1000012     3.00498858E+03   # ~nu_eL
   1000013     3.00637749E+03   # ~mu_L
   2000013     3.00198058E+03   # ~mu_R
   1000014     3.00498858E+03   # ~nu_muL
   1000015     2.98603562E+03   # ~tau_1
   2000015     3.02161745E+03   # ~tau_2
   1000016     3.00477963E+03   # ~nu_tauL
   1000021     2.35418246E+03   # ~g
   1000022     2.51401219E+02   # ~chi_10
   1000023     5.30941412E+02   # ~chi_20
   1000025    -2.99411862E+03   # ~chi_30
   1000035     2.99431652E+03   # ~chi_40
   1000024     5.31104869E+02   # ~chi_1+
   1000037     2.99515767E+03   # ~chi_2+
#
BLOCK NMIX  # Neutralino Mixing Matrix
  1  1     9.99891033E-01   # N_11
  1  2     7.58770192E-05   # N_12
  1  3    -1.47537337E-02   # N_13
  1  4    -4.93407507E-04   # N_14
  2  1     3.15014973E-04   # N_21
  2  2     9.99646951E-01   # N_22
  2  3     2.63865575E-02   # N_23
  2  4     3.10217319E-03   # N_24
  3  1    -1.00819613E-02   # N_31
  3  2     1.64664427E-02   # N_32
  3  3    -7.06838521E-01   # N_33
  3  4     7.07111388E-01   # N_34
  4  1     1.07785291E-02   # N_41
  4  2    -2.08524252E-02   # N_42
  4  3     7.06728648E-01   # N_43
  4  4     7.07095197E-01   # N_44
#
BLOCK UMIX  # Chargino Mixing Matrix U
  1  1     9.99303744E-01   # U_11
  1  2     3.73098854E-02   # U_12
  2  1    -3.73098854E-02   # U_21
  2  2     9.99303744E-01   # U_22
#
BLOCK VMIX  # Chargino Mixing Matrix V
  1  1     9.99990385E-01   # V_11
  1  2    -4.38512369E-03   # V_12
  2  1    -4.38512369E-03   # V_21
  2  2    -9.99990385E-01   # V_22
#
BLOCK STOPMIX  # Stop Mixing Matrix
  1  1     9.98416098E-01   # cos(theta_t)
  1  2    -5.62609568E-02   # sin(theta_t)
  2  1     5.62609568E-02   # -sin(theta_t)
  2  2     9.98416098E-01   # cos(theta_t)
#
BLOCK SBOTMIX  # Sbottom Mixing Matrix
  1  1     9.99704647E-01   # cos(theta_b)
  1  2    -2.43026494E-02   # sin(theta_b)
  2  1     2.43026494E-02   # -sin(theta_b)
  2  2     9.99704647E-01   # cos(theta_b)
#
BLOCK STAUMIX  # Stau Mixing Matrix
  1  1    -7.06952759E-01   # cos(theta_tau)
  1  2     7.07260770E-01   # sin(theta_tau)
  2  1    -7.07260770E-01   # -sin(theta_tau)
  2  2    -7.06952759E-01   # cos(theta_tau)
#
BLOCK ALPHA  # Higgs mixing
          -5.00171577E-02   # Mixing angle in the neutral Higgs boson sector
#
BLOCK HMIX Q=  1.73120060E+03  # DRbar Higgs Parameters
         1    -3.00000000E+03   # mu(Q)MSSM           
         2     2.00000000E+01   # tan                 
         3     2.43793453E+02   # higgs               
         4     1.00779361E+07   # mA^2(Q)MSSM         
#
BLOCK GAUGE Q=  1.73120060E+03  # The gauge couplings
     1     3.62632767E-01   # gprime(Q) DRbar
     2     6.37815736E-01   # g(Q) DRbar
     3     1.02309155E+00   # g3(Q) DRbar
#
BLOCK AU Q=  1.73120060E+03  # The trilinear couplings
  1  1     2.84675725E-06   # A_u(Q) DRbar
  2  2     2.84679972E-06   # A_c(Q) DRbar
  3  3     2.94338000E+03   # A_t(Q) DRbar
#
BLOCK AD Q=  1.73120060E+03  # The trilinear couplings
  1  1     9.97658525E-07   # A_d(Q) DRbar
  2  2     9.97777441E-07   # A_s(Q) DRbar
  3  3     2.04221950E-06   # A_b(Q) DRbar
#
BLOCK AE Q=  1.73120060E+03  # The trilinear couplings
  1  1     4.29091860E-07   # A_e(Q) DRbar
  2  2     4.29113003E-07   # A_mu(Q) DRbar
  3  3     4.35067273E-07   # A_tau(Q) DRbar
#
BLOCK Yu Q=  1.73120060E+03  # The Yukawa couplings
  1  1     0.00000000E+00   # y_u(Q) DRbar
  2  2     0.00000000E+00   # y_c(Q) DRbar
  3  3     8.49287513E-01   # y_t(Q) DRbar
#
BLOCK Yd Q=  1.73120060E+03  # The Yukawa couplings
  1  1     0.00000000E+00   # y_d(Q) DRbar
  2  2     0.00000000E+00   # y_s(Q) DRbar
  3  3     3.76623766E-01   # y_b(Q) DRbar
#
BLOCK Ye Q=  1.73120060E+03  # The Yukawa couplings
  1  1     0.00000000E+00   # y_e(Q) DRbar
  2  2     0.00000000E+00   # y_mu(Q) DRbar
  3  3     2.02086200E-01   # y_tau(Q) DRbar
#
BLOCK MSOFT Q=  1.73120060E+03  # The soft SUSY breaking masses at the scale Q
         1     2.49900000E+02   # M_1(Q)              
         2     4.99900000E+02   # M_2(Q)              
         3     2.20000000E+03   # M_3(Q)              
        21    -3.65997903E+04   # M^2_Hd              
        22    -9.01667823E+06   # M^2_Hu              
        31     3.00000000E+03   # M_eL                
        32     3.00000000E+03   # M_muL               
        33     3.00000000E+03   # M_tauL              
        34     3.00000000E+03   # M_eR                
        35     3.00000000E+03   # M_muR               
        36     3.00000000E+03   # M_tauR              
        41     3.00000000E+03   # M_q1L               
        42     3.00000000E+03   # M_q2L               
        43     9.99899993E+02   # M_q3L               
        44     3.00000000E+03   # M_uR                
        45     3.00000000E+03   # M_cR                
        46     3.00000000E+03   # M_tR                
        47     3.00000000E+03   # M_dR                
        48     3.00000000E+03   # M_sR                
        49     3.00000000E+03   # M_bR                
#
#
#
#                             =================
#                             |The decay table|
#                             =================
#
# - The QCD corrections to the decays gluino -> squark  + quark
#                                     squark -> gaugino + quark_prime
#                                     squark -> squark_prime + Higgs
#                                     squark -> gluino  + quark
#   are included.
#
# - The multi-body decays for the inos, stops and sbottoms are included.
#
# - The loop induced decays for the gluino, neutralinos and stops
#   are included.
#
# - The SUSY decays of the top quark are included.
#
#
#         PDG            Width
DECAY         6     1.41214055E+00   # top decays
#          BR         NDA      ID1       ID2
     1.00000000E+00    2           5        24   # BR(t ->  b    W+)
#
#         PDG            Width
DECAY   1000021     5.86785009E+01   # gluino decays
#          BR         NDA      ID1       ID2
     2.47853596E-01    2     1000005        -5   # BR(~g -> ~b_1  bb)
     2.47853596E-01    2    -1000005         5   # BR(~g -> ~b_1* b )
     2.52146404E-01    2     1000006        -6   # BR(~g -> ~t_1  tb)
     2.52146404E-01    2    -1000006         6   # BR(~g -> ~t_1* t )
#
#         PDG            Width
DECAY   1000006     7.89938208E+00   # stop1 decays
#          BR         NDA      ID1       ID2
     1.78376375E-02    2     1000022         6   # BR(~t_1 -> ~chi_10 t )
     3.10288874E-01    2     1000023         6   # BR(~t_1 -> ~chi_20 t )
     6.71873488E-01    2     1000024         5   # BR(~t_1 -> ~chi_1+ b )
#
#         PDG            Width
DECAY   2000006     1.10204916E+02   # stop2 decays
#          BR         NDA      ID1       ID2
     5.95417155E-02    2     1000022         6   # BR(~t_2 -> ~chi_10 t )
     3.44180288E-04    2     1000023         6   # BR(~t_2 -> ~chi_20 t )
     0.00000000E+00    2     1000025         6   # BR(~t_2 -> ~chi_30 t )
     6.92208277E-04    2     1000024         5   # BR(~t_2 -> ~chi_1+ b )
     1.62122576E-04    2     1000037         5   # BR(~t_2 -> ~chi_2+ b )
     3.04370715E-01    2     1000021         6   # BR(~t_2 -> ~g      t )
     1.65300527E-01    2     1000006        25   # BR(~t_2 -> ~t_1    h )
     1.59020540E-01    2     1000006        23   # BR(~t_2 -> ~t_1    Z )
     3.10567991E-01    2     1000005        24   # BR(~t_2 -> ~b_1    W+)
#
#         PDG            Width
DECAY   1000005     7.76009098E+00   # sbottom1 decays
#          BR         NDA      ID1       ID2
     1.91194554E-02    2     1000022         5   # BR(~b_1 -> ~chi_10 b )
     3.44547445E-01    2     1000023         5   # BR(~b_1 -> ~chi_20 b )
     6.36333099E-01    2    -1000024         6   # BR(~b_1 -> ~chi_1- t )
#
#         PDG            Width
DECAY   2000005     5.24142891E+01   # sbottom2 decays
#          BR         NDA      ID1       ID2
     3.15833926E-02    2     1000022         5   # BR(~b_2 -> ~chi_10 b )
     6.52093146E-07    2     1000023         5   # BR(~b_2 -> ~chi_20 b )
     6.39169413E-05    2     1000025         5   # BR(~b_2 -> ~chi_30 b )
     6.25338768E-05    2     1000035         5   # BR(~b_2 -> ~chi_40 b )
     1.11242264E-06    2    -1000024         6   # BR(~b_2 -> ~chi_1- t )
     6.59206750E-01    2     1000021         5   # BR(~b_2 -> ~g      b )
     6.82592533E-02    2     1000005        25   # BR(~b_2 -> ~b_1    h )
     9.83486571E-02    2     1000005        23   # BR(~b_2 -> ~b_1    Z )
     1.42473731E-01    2     1000006       -24   # BR(~b_2 -> ~t_1    W-)
#
#         PDG            Width
DECAY   1000002     6.86486056E+01   # sup_L decays
#          BR         NDA      ID1       ID2
     6.05835914E-03    2     1000022         2   # BR(~u_L -> ~chi_10 u)
     1.60872380E-01    2     1000023         2   # BR(~u_L -> ~chi_20 u)
     4.10449911E-08    2     1000025         2   # BR(~u_L -> ~chi_30 u)
     6.79986249E-08    2     1000035         2   # BR(~u_L -> ~chi_40 u)
     3.21915308E-01    2     1000024         1   # BR(~u_L -> ~chi_1+ d)
     7.14298954E-09    2     1000037         1   # BR(~u_L -> ~chi_2+ d)
     5.11153837E-01    2     1000021         2   # BR(~u_L -> ~g      u)
#
#         PDG            Width
DECAY   2000002     4.14860505E+01   # sup_R decays
#          BR         NDA      ID1       ID2
     1.60101661E-01    2     1000022         2   # BR(~u_R -> ~chi_10 u)
     1.51721251E-08    2     1000023         2   # BR(~u_R -> ~chi_20 u)
     1.65080857E-08    2     1000025         2   # BR(~u_R -> ~chi_30 u)
     1.87082737E-08    2     1000035         2   # BR(~u_R -> ~chi_40 u)
     8.39898288E-01    2     1000021         2   # BR(~u_R -> ~g      u)
#
#         PDG            Width
DECAY   1000001     6.86993850E+01   # sdown_L decays
#          BR         NDA      ID1       ID2
     6.04609171E-03    2     1000022         1   # BR(~d_L -> ~chi_10 d)
     1.60770159E-01    2     1000023         1   # BR(~d_L -> ~chi_20 d)
     6.77579784E-08    2     1000025         1   # BR(~d_L -> ~chi_30 d)
     1.04351644E-07    2     1000035         1   # BR(~d_L -> ~chi_40 d)
     3.21345870E-01    2    -1000024         2   # BR(~d_L -> ~chi_1- u)
     5.35943620E-07    2    -1000037         2   # BR(~d_L -> ~chi_2- u)
     5.11837172E-01    2     1000021         1   # BR(~d_L -> ~g      d)
#
#         PDG            Width
DECAY   2000001     3.64090873E+01   # sdown_R decays
#          BR         NDA      ID1       ID2
     4.55879543E-02    2     1000022         1   # BR(~d_R -> ~chi_10 d)
     4.32000699E-09    2     1000023         1   # BR(~d_R -> ~chi_20 d)
     4.46884198E-09    2     1000025         1   # BR(~d_R -> ~chi_30 d)
     5.06328159E-09    2     1000035         1   # BR(~d_R -> ~chi_40 d)
     9.54412032E-01    2     1000021         1   # BR(~d_R -> ~g      d)
#
#         PDG            Width
DECAY   1000004     6.86486056E+01   # scharm_L decays
#          BR         NDA      ID1       ID2
     6.05835914E-03    2     1000022         4   # BR(~c_L -> ~chi_10 c)
     1.60872380E-01    2     1000023         4   # BR(~c_L -> ~chi_20 c)
     4.10449911E-08    2     1000025         4   # BR(~c_L -> ~chi_30 c)
     6.79986249E-08    2     1000035         4   # BR(~c_L -> ~chi_40 c)
     3.21915308E-01    2     1000024         3   # BR(~c_L -> ~chi_1+ s)
     7.14298954E-09    2     1000037         3   # BR(~c_L -> ~chi_2+ s)
     5.11153837E-01    2     1000021         4   # BR(~c_L -> ~g      c)
#
#         PDG            Width
DECAY   2000004     4.14860505E+01   # scharm_R decays
#          BR         NDA      ID1       ID2
     1.60101661E-01    2     1000022         4   # BR(~c_R -> ~chi_10 c)
     1.51721251E-08    2     1000023         4   # BR(~c_R -> ~chi_20 c)
     1.65080857E-08    2     1000025         4   # BR(~c_R -> ~chi_30 c)
     1.87082737E-08    2     1000035         4   # BR(~c_R -> ~chi_40 c)
     8.39898288E-01    2     1000021         4   # BR(~c_R -> ~g      c)
#
#         PDG            Width
DECAY   1000003     6.86993850E+01   # sstrange_L decays
#          BR         NDA      ID1       ID2
     6.04609171E-03    2     1000022         3   # BR(~s_L -> ~chi_10 s)
     1.60770159E-01    2     1000023         3   # BR(~s_L -> ~chi_20 s)
     6.77579784E-08    2     1000025         3   # BR(~s_L -> ~chi_30 s)
     1.04351644E-07    2     1000035         3   # BR(~s_L -> ~chi_40 s)
     3.21345870E-01    2    -1000024         4   # BR(~s_L -> ~chi_1- c)
     5.35943620E-07    2    -1000037         4   # BR(~s_L -> ~chi_2- c)
     5.11837172E-01    2     1000021         3   # BR(~s_L -> ~g      s)
#
#         PDG            Width
DECAY   2000003     3.64090873E+01   # sstrange_R decays
#          BR         NDA      ID1       ID2
     4.55879543E-02    2     1000022         3   # BR(~s_R -> ~chi_10 s)
     4.32000699E-09    2     1000023         3   # BR(~s_R -> ~chi_20 s)
     4.46884198E-09    2     1000025         3   # BR(~s_R -> ~chi_30 s)
     5.06328159E-09    2     1000035         3   # BR(~s_R -> ~chi_40 s)
     9.54412032E-01    2     1000021         3   # BR(~s_R -> ~g      s)
#
#         PDG            Width
DECAY   1000011     3.80970279E+01   # selectron_L decays
#          BR         NDA      ID1       ID2
     1.01791793E-01    2     1000022        11   # BR(~e_L -> ~chi_10 e-)
     2.99619269E-01    2     1000023        11   # BR(~e_L -> ~chi_20 e-)
     2.43720352E-09    2     1000025        11   # BR(~e_L -> ~chi_30 e-)
     4.43917909E-09    2     1000035        11   # BR(~e_L -> ~chi_40 e-)
     5.98588881E-01    2    -1000024        12   # BR(~e_L -> ~chi_1- nu_e)
     4.93450159E-08    2    -1000037        12   # BR(~e_L -> ~chi_2- nu_e)
#
#         PDG            Width
DECAY   2000011     1.54844010E+01   # selectron_R decays
#          BR         NDA      ID1       ID2
     9.99999900E-01    2     1000022        11   # BR(~e_R -> ~chi_10 e-)
     9.44639132E-08    2     1000023        11   # BR(~e_R -> ~chi_20 e-)
     2.82140554E-09    2     1000025        11   # BR(~e_R -> ~chi_30 e-)
     3.06463854E-09    2     1000035        11   # BR(~e_R -> ~chi_40 e-)
#
#         PDG            Width
DECAY   1000013     3.80970279E+01   # smuon_L decays
#          BR         NDA      ID1       ID2
     1.01791793E-01    2     1000022        13   # BR(~mu_L -> ~chi_10 mu-)
     2.99619269E-01    2     1000023        13   # BR(~mu_L -> ~chi_20 mu-)
     2.43720352E-09    2     1000025        13   # BR(~mu_L -> ~chi_30 mu-)
     4.43917909E-09    2     1000035        13   # BR(~mu_L -> ~chi_40 mu-)
     5.98588881E-01    2    -1000024        14   # BR(~mu_L -> ~chi_1- nu_mu)
     4.93450159E-08    2    -1000037        14   # BR(~mu_L -> ~chi_2- nu_mu)
#
#         PDG            Width
DECAY   2000013     1.54844010E+01   # smuon_R decays
#          BR         NDA      ID1       ID2
     9.99999900E-01    2     1000022        13   # BR(~mu_R -> ~chi_10 mu-)
     9.44639132E-08    2     1000023        13   # BR(~mu_R -> ~chi_20 mu-)
     2.82140554E-09    2     1000025        13   # BR(~mu_R -> ~chi_30 mu-)
     3.06463854E-09    2     1000035        13   # BR(~mu_R -> ~chi_40 mu-)
#
#         PDG            Width
DECAY   1000015     2.70486316E+01   # stau_1 decays
#          BR         NDA      ID1       ID2
     3.57593876E-01    2     1000022        15   # BR(~tau_1 -> ~chi_10  tau-)
     2.14308097E-01    2     1000023        15   # BR(~tau_1 -> ~chi_20  tau-)
     4.28098027E-01    2    -1000024        16   # BR(~tau_1 -> ~chi_1-  nu_tau)
#
#         PDG            Width
DECAY   2000015     2.65092431E+01   # stau_2 decays
#          BR         NDA      ID1       ID2
     3.65789072E-01    2     1000022        15   # BR(~tau_2 -> ~chi_10  tau-)
     2.11563056E-01    2     1000023        15   # BR(~tau_2 -> ~chi_20  tau-)
     1.72826012E-05    2     1000025        15   # BR(~tau_2 -> ~chi_30  tau-)
     1.51836039E-05    2     1000035        15   # BR(~tau_2 -> ~chi_40  tau-)
     4.22597844E-01    2    -1000024        16   # BR(~tau_2 -> ~chi_1-  nu_tau)
     1.75614784E-05    2    -1000037        16   # BR(~tau_2 -> ~chi_2-  nu_tau)
#
#         PDG            Width
DECAY   1000012     3.80984298E+01   # snu_eL decays
#          BR         NDA      ID1       ID2
     1.01685395E-01    2     1000022        12   # BR(~nu_eL -> ~chi_10 nu_e)
     2.99237471E-01    2     1000023        12   # BR(~nu_eL -> ~chi_20 nu_e)
     8.20228230E-09    2     1000025        12   # BR(~nu_eL -> ~chi_30 nu_e)
     1.16803741E-08    2     1000035        12   # BR(~nu_eL -> ~chi_40 nu_e)
     5.99077113E-01    2     1000024        11   # BR(~nu_eL -> ~chi_1+ e-)
     5.23793203E-10    2     1000037        11   # BR(~nu_eL -> ~chi_2+ e-)
#
#         PDG            Width
DECAY   1000014     3.80984298E+01   # snu_muL decays
#          BR         NDA      ID1       ID2
     1.01685395E-01    2     1000022        14   # BR(~nu_muL -> ~chi_10 nu_mu)
     2.99237471E-01    2     1000023        14   # BR(~nu_muL -> ~chi_20 nu_mu)
     8.20228230E-09    2     1000025        14   # BR(~nu_muL -> ~chi_30 nu_mu)
     1.16803741E-08    2     1000035        14   # BR(~nu_muL -> ~chi_40 nu_mu)
     5.99077113E-01    2     1000024        13   # BR(~nu_muL -> ~chi_1+ mu-)
     5.23793203E-10    2     1000037        13   # BR(~nu_muL -> ~chi_2+ mu-)
#
#         PDG            Width
DECAY   1000016     3.80988523E+01   # snu_tauL decays
#          BR         NDA      ID1       ID2
     1.01676998E-01    2     1000022        16   # BR(~nu_tauL -> ~chi_10 nu_tau)
     2.99210664E-01    2     1000023        16   # BR(~nu_tauL -> ~chi_20 nu_tau)
     7.89098195E-09    2     1000025        16   # BR(~nu_tauL -> ~chi_30 nu_tau)
     1.12289034E-08    2     1000035        16   # BR(~nu_tauL -> ~chi_40 nu_tau)
     5.99109761E-01    2     1000024        15   # BR(~nu_tauL -> ~chi_1+ tau-)
     2.55841322E-06    2     1000037        15   # BR(~nu_tauL -> ~chi_2+ tau-)
#
#         PDG            Width
DECAY   1000024     4.73534999E-06   # chargino1+ decays
#          BR         NDA      ID1       ID2
     1.00000000E+00    2     1000022        24   # BR(~chi_1+ -> ~chi_10  W+)
#
#         PDG            Width
DECAY   1000037     8.30192268E+01   # chargino2+ decays
#          BR         NDA      ID1       ID2
     1.29609828E-01    2     1000006        -5   # BR(~chi_2+ -> ~t_1     bb)
     6.47113286E-01    2    -1000005         6   # BR(~chi_2+ -> ~b_1*    t )
     2.10764652E-07    2    -1000015        16   # BR(~chi_2+ -> ~tau_1+  nu_tau)
     6.67062067E-02    2     1000024        23   # BR(~chi_2+ -> ~chi_1+  Z )
     2.15940712E-02    2     1000022        24   # BR(~chi_2+ -> ~chi_10  W+)
     6.49177368E-02    2     1000023        24   # BR(~chi_2+ -> ~chi_20  W+)
     7.00586608E-02    2     1000024        25   # BR(~chi_2+ -> ~chi_1+  h )
#
#         PDG            Width
DECAY   1000022     0.00000000E+00   # neutralino1 decays
#
#         PDG            Width
DECAY   1000023     4.71577564E-06   # neutralino2 decays
#          BR         NDA      ID1       ID2
     8.05880095E-01    2     1000022        23   # BR(~chi_20 -> ~chi_10   Z )
     1.94119905E-01    2     1000022        25   # BR(~chi_20 -> ~chi_10   h )
#
#         PDG            Width
DECAY   1000025     8.32296360E+01   # neutralino3 decays
#          BR         NDA      ID1       ID2
     1.18023957E-02    2     1000022        23   # BR(~chi_30 -> ~chi_10   Z )
     4.09514570E-02    2     1000023        23   # BR(~chi_30 -> ~chi_20   Z )
     6.47300186E-02    2     1000024       -24   # BR(~chi_30 -> ~chi_1+   W-)
     6.47300186E-02    2    -1000024        24   # BR(~chi_30 -> ~chi_1-   W+)
     1.07338354E-02    2     1000022        25   # BR(~chi_30 -> ~chi_10   h )
     2.60956438E-02    2     1000023        25   # BR(~chi_30 -> ~chi_20   h )
     3.26882903E-01    2     1000006        -6   # BR(~chi_30 -> ~t_1      tb)
     3.26882903E-01    2    -1000006         6   # BR(~chi_30 -> ~t_1*     t )
     6.35951770E-02    2     1000005        -5   # BR(~chi_30 -> ~b_1      bb)
     6.35951770E-02    2    -1000005         5   # BR(~chi_30 -> ~b_1*     b )
     2.35280985E-07    2     1000015       -15   # BR(~chi_30 -> ~tau_1-   tau+)
     2.35280985E-07    2    -1000015        15   # BR(~chi_30 -> ~tau_1+   tau-)
#
#         PDG            Width
DECAY   1000035     8.22718293E+01   # neutralino4 decays
#          BR         NDA      ID1       ID2
     1.04524040E-02    2     1000022        23   # BR(~chi_40 -> ~chi_10   Z )
     2.58754349E-02    2     1000023        23   # BR(~chi_40 -> ~chi_20   Z )
     6.55032836E-02    2     1000024       -24   # BR(~chi_40 -> ~chi_1+   W-)
     6.55032836E-02    2    -1000024        24   # BR(~chi_40 -> ~chi_1-   W+)
     1.24532406E-02    2     1000022        25   # BR(~chi_40 -> ~chi_10   h )
     4.43003503E-02    2     1000023        25   # BR(~chi_40 -> ~chi_20   h )
     3.23615862E-01    2     1000006        -6   # BR(~chi_40 -> ~t_1      tb)
     3.23615862E-01    2    -1000006         6   # BR(~chi_40 -> ~t_1*     t )
     6.43399808E-02    2     1000005        -5   # BR(~chi_40 -> ~b_1      bb)
     6.43399808E-02    2    -1000005         5   # BR(~chi_40 -> ~b_1*     b )
     1.58372045E-07    2     1000015       -15   # BR(~chi_40 -> ~tau_1-   tau+)
     1.58372045E-07    2    -1000015        15   # BR(~chi_40 -> ~tau_1+   tau-)
#
#         PDG            Width
DECAY        25     3.58920904E-03   # h decays
#          BR         NDA      ID1       ID2
     5.67999678E-01    2           5        -5   # BR(h -> b       bb     )
     7.21046286E-02    2         -15        15   # BR(h -> tau+    tau-   )
     2.55253782E-04    2         -13        13   # BR(h -> mu+     mu-    )
     5.41993336E-04    2           3        -3   # BR(h -> s       sb     )
     2.35484671E-02    2           4        -4   # BR(h -> c       cb     )
     7.61612852E-02    2          21        21   # BR(h -> g       g      )
     2.59922241E-03    2          22        22   # BR(h -> gam     gam    )
     1.70163042E-03    2          22        23   # BR(h -> Z       gam    )
     2.26842541E-01    2          24       -24   # BR(h -> W+      W-     )
     2.82453005E-02    2          23        23   # BR(h -> Z       Z      )
#
#         PDG            Width
DECAY        35     3.38694034E+01   # H decays
#          BR         NDA      ID1       ID2
     8.93361482E-01    2           5        -5   # BR(H -> b       bb     )
     7.34199746E-02    2         -15        15   # BR(H -> tau+    tau-   )
     2.59595485E-04    2         -13        13   # BR(H -> mu+     mu-    )
     3.18785326E-04    2           3        -3   # BR(H -> s       sb     )
     8.93637158E-08    2           4        -4   # BR(H -> c       cb     )
     8.91459714E-03    2           6        -6   # BR(H -> t       tb     )
     1.50522326E-05    2          21        21   # BR(H -> g       g      )
     6.22528531E-08    2          22        22   # BR(H -> gam     gam    )
     3.64595539E-09    2          23        22   # BR(H -> Z       gam    )
     8.99422430E-07    2          24       -24   # BR(H -> W+      W-     )
     4.49156610E-07    2          23        23   # BR(H -> Z       Z      )
     6.32900640E-06    2          25        25   # BR(H -> h       h      )
     8.63675733E-04    2     1000024  -1000024   # BR(H -> ~chi_1+ ~chi_1-)
     4.49016740E-05    2     1000022   1000022   # BR(H -> ~chi_10 ~chi_10)
     4.31604470E-04    2     1000023   1000023   # BR(H -> ~chi_20 ~chi_20)
     2.81825629E-04    2     1000022   1000023   # BR(H -> ~chi_10 ~chi_20)
     2.20756954E-02    2     1000006  -1000006   # BR(H -> ~t_1    ~t_1*  )
     4.97771323E-06    2     1000005  -1000005   # BR(H -> ~b_1    ~b_1*  )
#
#         PDG            Width
DECAY        36     3.31307543E+01   # A decays
#          BR         NDA      ID1       ID2
     9.13325070E-01    2           5        -5   # BR(A -> b       bb     )
     7.50575718E-02    2         -15        15   # BR(A -> tau+    tau-   )
     2.65385267E-04    2         -13        13   # BR(A -> mu+     mu-    )
     3.25948215E-04    2           3        -3   # BR(A -> s       sb     )
     9.19779662E-08    2           4        -4   # BR(A -> c       cb     )
     9.17034260E-03    2           6        -6   # BR(A -> t       tb     )
     2.70057813E-05    2          21        21   # BR(A -> g       g      )
     7.20796598E-08    2          22        22   # BR(A -> gam     gam    )
     2.65950165E-08    2          23        22   # BR(A -> Z       gam    )
     9.16112684E-07    2          23        25   # BR(A -> Z       h      )
     9.86044121E-04    2     1000024  -1000024   # BR(A -> ~chi_1+ ~chi_1-)
     4.69147841E-05    2     1000022   1000022   # BR(A -> ~chi_10 ~chi_10)
     4.92700828E-04    2     1000023   1000023   # BR(A -> ~chi_20 ~chi_20)
     3.01910296E-04    2     1000022   1000023   # BR(A -> ~chi_10 ~chi_20)
#
#         PDG            Width
DECAY        37     3.63747227E+01   # H+ decays
#          BR         NDA      ID1       ID2
     1.45850643E-03    2           4        -5   # BR(H+ -> c       bb     )
     6.83885084E-02    2         -15        16   # BR(H+ -> tau+    nu_tau )
     2.41805085E-04    2         -13        14   # BR(H+ -> mu+     nu_mu  )
     9.33442959E-06    2           2        -5   # BR(H+ -> u       bb     )
     1.42102705E-05    2           2        -3   # BR(H+ -> u       sb     )
     2.92350960E-04    2           4        -3   # BR(H+ -> c       sb     )
     9.18439538E-01    2           6        -5   # BR(H+ -> t       bb     )
     8.35840455E-07    2          24        25   # BR(H+ -> W+      h      )
     5.42968118E-14    2          24        36   # BR(H+ -> W+      A      )
     5.37567849E-04    2     1000024   1000022   # BR(H+ -> ~chi_1+ ~chi_10)
     4.98931776E-11    2     1000024   1000023   # BR(H+ -> ~chi_1+ ~chi_20)
     1.06173428E-02    2     1000006  -1000005   # BR(H+ -> ~t_1    ~b_1*  )
