#
#                              ======================
#                              | THE SUSYHIT OUTPUT |
#                              ======================
#
#
#              ------------------------------------------------------
#              |     This is the output of the SUSY-HIT package     |
#              |  created by A.Djouadi, M.Muehlleitner and M.Spira. |
#              |  In case of problems with SUSY-HIT email to        |
#              |           margarete.muehlleitner@kit.edu           |
#              |           michael.spira@psi.ch                     |
#              |           abdelhak.djouadi@cern.ch                 |
#              ------------------------------------------------------
#
#              ------------------------------------------------------
#              |  SUSY Les Houches Accord - MSSM Spectrum + Decays  |
#              |              based on the decay programs           |
#              |                                                    |
#              |                     SDECAY 1.5                     |
#              |                                                    |
#              |  Authors: M.Muhlleitner, A.Djouadi and Y.Mambrini  |
#              |  Ref.:    Comput.Phys.Commun.168(2005)46           |
#              |           [hep-ph/0311167]                         |
#              |                                                    |
#              |                     HDECAY 3.4                     |
#              |                                                    |
#              |  By: A.Djouadi,J.Kalinowski,M.Muhlleitner,M.Spira  |
#              |  Ref.:    Comput.Phys.Commun.108(1998)56           |
#              |           [hep-ph/9704448]                         |
#              |                                                    |
#              |                                                    |
#              |  If not stated otherwise all DRbar couplings and   |
#              |  soft SUSY breaking masses are given at the scale  |
#              |  Q=  0.13972830E+04
#              |                                                    |
#              ------------------------------------------------------
#
#
BLOCK DCINFO  # Decay Program information
     1   SDECAY/HDECAY # decay calculator
     2   1.5  /3.4    # version number
#
BLOCK SPINFO  # Spectrum calculator information
     1    SOFTSUSY    # spectrum calculator                
     2    3.7.3       # version number                     
#
BLOCK MODSEL  # Model selection
     1     0   #  nonUniversal                                     
#
BLOCK SMINPUTS  # Standard Model inputs
         1     1.27934000E+02   # alpha_em^-1(M_Z)^MSbar
         2     1.16639000E-05   # G_F [GeV^-2]
         3     1.17200000E-01   # alpha_S(M_Z)^MSbar
         4     9.11870000E+01   # M_Z pole mass
         5     4.19000000E+00   # mb(mb)^MSbar
         6     1.72500000E+02   # mt pole mass
         7     1.77690000E+00   # mtau pole mass
#
BLOCK MINPAR  # Input parameters - minimal models
         3     2.00000000E+01   # tanb                
#
BLOCK EXTPAR  # Input parameters - non-minimal models
         0    -1.00000000E+00   # Set                 
         1     9.99000000E+01   # M_1(MX)             
         2     1.99900000E+02   # M_2(MX)             
         3     2.20000000E+03   # M_3(MX)             
        11     2.94338000E+03   # At(MX)              
        12     0.00000000E+00   # Ab(MX)              
        13     0.00000000E+00   # Atau(MX)            
        23     3.00000000E+03   # mu(MX)              
        25     2.00000000E+01   # tan                 
        26     3.00000000E+03   # mA(pole)            
        31     3.00000000E+03   # meL(MX)             
        32     3.00000000E+03   # mmuL(MX)            
        33     3.00000000E+03   # mtauL(MX)           
        34     3.00000000E+03   # meR(MX)             
        35     3.00000000E+03   # mmuR(MX)            
        36     3.00000000E+03   # mtauR(MX)           
        41     3.00000000E+03   # mqL1(MX)            
        42     3.00000000E+03   # mqL2(MX)            
        43     6.49900000E+02   # mqL3(MX)            
        44     3.00000000E+03   # muR(MX)             
        45     3.00000000E+03   # mcR(MX)             
        46     3.00000000E+03   # mtR(MX)             
        47     3.00000000E+03   # mdR(MX)             
        48     3.00000000E+03   # msR(MX)             
        49     3.00000000E+03   # mbR(MX)             
#
BLOCK MASS  # Mass Spectrum
# PDG code           mass       particle
        24     8.03964996E+01   # W+
        25     1.24390494E+02   # h
        35     3.00016162E+03   # H
        36     2.99999970E+03   # A
        37     3.00093744E+03   # H+
         5     4.81337004E+00   # b-quark pole mass calculated from mb(mb)_Msbar
   1000001     3.03147632E+03   # ~d_L
   2000001     3.02622415E+03   # ~d_R
   1000002     3.03055514E+03   # ~u_L
   2000002     3.02780685E+03   # ~u_R
   1000003     3.03147632E+03   # ~s_L
   2000003     3.02622415E+03   # ~s_R
   1000004     3.03055514E+03   # ~c_L
   2000004     3.02780685E+03   # ~c_R
   1000005     7.35812610E+02   # ~b_1
   2000005     3.02555466E+03   # ~b_2
   1000006     7.33790106E+02   # ~t_1
   2000006     3.01262208E+03   # ~t_2
   1000011     3.00659030E+03   # ~e_L
   2000011     3.00156895E+03   # ~e_R
   1000012     3.00518910E+03   # ~nu_eL
   1000013     3.00659030E+03   # ~mu_L
   2000013     3.00156895E+03   # ~mu_R
   1000014     3.00518910E+03   # ~nu_muL
   1000015     2.98590507E+03   # ~tau_1
   2000015     3.02205746E+03   # ~tau_2
   1000016     3.00514917E+03   # ~nu_tauL
   1000021     2.33864201E+03   # ~g
   1000022     1.00439195E+02   # ~chi_10
   1000023     2.15104468E+02   # ~chi_20
   1000025    -2.99926365E+03   # ~chi_30
   1000035     2.99973716E+03   # ~chi_40
   1000024     2.15264170E+02   # ~chi_1+
   1000037     3.00042785E+03   # ~chi_2+
#
BLOCK NMIX  # Neutralino Mixing Matrix
  1  1     9.99888465E-01   # N_11
  1  2    -1.53784806E-03   # N_12
  1  3     1.48046713E-02   # N_13
  1  4    -1.23075197E-03   # N_14
  2  1     1.92908714E-03   # N_21
  2  2     9.99650346E-01   # N_22
  2  3    -2.61956131E-02   # N_23
  2  4     3.04219472E-03   # N_24
  3  1    -9.56995689E-03   # N_31
  3  2     1.63888269E-02   # N_32
  3  3     7.06830463E-01   # N_33
  3  4     7.07128361E-01   # N_34
  4  1    -1.13027681E-02   # N_41
  4  2     2.06936669E-02   # N_42
  4  3     7.06742746E-01   # N_43
  4  4    -7.07077585E-01   # N_44
#
BLOCK UMIX  # Chargino Mixing Matrix U
  1  1     9.99312515E-01   # U_11
  1  2    -3.70742261E-02   # U_12
  2  1     3.70742261E-02   # U_21
  2  2     9.99312515E-01   # U_22
#
BLOCK VMIX  # Chargino Mixing Matrix V
  1  1     9.99990726E-01   # V_11
  1  2    -4.30680905E-03   # V_12
  2  1     4.30680905E-03   # V_21
  2  2     9.99990726E-01   # V_22
#
BLOCK STOPMIX  # Stop Mixing Matrix
  1  1     9.98856652E-01   # cos(theta_t)
  1  2    -4.78057398E-02   # sin(theta_t)
  2  1     4.78057398E-02   # -sin(theta_t)
  2  2     9.98856652E-01   # cos(theta_t)
#
BLOCK SBOTMIX  # Sbottom Mixing Matrix
  1  1     9.99918167E-01   # cos(theta_b)
  1  2     1.27929396E-02   # sin(theta_b)
  2  1    -1.27929396E-02   # -sin(theta_b)
  2  2     9.99918167E-01   # cos(theta_b)
#
BLOCK STAUMIX  # Stau Mixing Matrix
  1  1     7.06904378E-01   # cos(theta_tau)
  1  2     7.07309126E-01   # sin(theta_tau)
  2  1    -7.07309126E-01   # -sin(theta_tau)
  2  2     7.06904378E-01   # cos(theta_tau)
#
BLOCK ALPHA  # Higgs mixing
          -5.01858830E-02   # Mixing angle in the neutral Higgs boson sector
#
BLOCK HMIX Q=  1.39728297E+03  # DRbar Higgs Parameters
         1     3.00000000E+03   # mu(Q)MSSM           
         2     2.00000000E+01   # tan                 
         3     2.44417841E+02   # higgs               
         4     7.23420955E+06   # mA^2(Q)MSSM         
#
BLOCK GAUGE Q=  1.39728297E+03  # The gauge couplings
     1     3.61930924E-01   # gprime(Q) DRbar
     2     6.39804505E-01   # g(Q) DRbar
     3     1.02795388E+00   # g3(Q) DRbar
#
BLOCK AU Q=  1.39728297E+03  # The trilinear couplings
  1  1     1.83044643E-06   # A_u(Q) DRbar
  2  2     1.83047479E-06   # A_c(Q) DRbar
  3  3     2.94338000E+03   # A_t(Q) DRbar
#
BLOCK AD Q=  1.39728297E+03  # The trilinear couplings
  1  1     4.56075588E-07   # A_d(Q) DRbar
  2  2     4.56167120E-07   # A_s(Q) DRbar
  3  3     1.05652162E-06   # A_b(Q) DRbar
#
BLOCK AE Q=  1.39728297E+03  # The trilinear couplings
  1  1     0.00000000E+00   # A_e(Q) DRbar
  2  2     1.00629322E-07   # A_mu(Q) DRbar
  3  3     1.01846338E-07   # A_tau(Q) DRbar
#
BLOCK Yu Q=  1.39728297E+03  # The Yukawa couplings
  1  1     0.00000000E+00   # y_u(Q) DRbar
  2  2     0.00000000E+00   # y_c(Q) DRbar
  3  3     8.53505203E-01   # y_t(Q) DRbar
#
BLOCK Yd Q=  1.39728297E+03  # The Yukawa couplings
  1  1     0.00000000E+00   # y_d(Q) DRbar
  2  2     0.00000000E+00   # y_s(Q) DRbar
  3  3     2.11889071E-01   # y_b(Q) DRbar
#
BLOCK Ye Q=  1.39728297E+03  # The Yukawa couplings
  1  1     0.00000000E+00   # y_e(Q) DRbar
  2  2     0.00000000E+00   # y_mu(Q) DRbar
  3  3     2.05148307E-01   # y_tau(Q) DRbar
#
BLOCK MSOFT Q=  1.39728297E+03  # The soft SUSY breaking masses at the scale Q
         1     9.99000000E+01   # M_1(Q)              
         2     1.99900000E+02   # M_2(Q)              
         3     2.20000000E+03   # M_3(Q)              
        21    -8.45522998E+04   # M^2_Hd              
        22    -9.08334393E+06   # M^2_Hu              
        31     3.00000000E+03   # M_eL                
        32     3.00000000E+03   # M_muL               
        33     3.00000000E+03   # M_tauL              
        34     3.00000000E+03   # M_eR                
        35     3.00000000E+03   # M_muR               
        36     3.00000000E+03   # M_tauR              
        41     3.00000000E+03   # M_q1L               
        42     3.00000000E+03   # M_q2L               
        43     6.49899994E+02   # M_q3L               
        44     3.00000000E+03   # M_uR                
        45     3.00000000E+03   # M_cR                
        46     3.00000000E+03   # M_tR                
        47     3.00000000E+03   # M_dR                
        48     3.00000000E+03   # M_sR                
        49     3.00000000E+03   # M_bR                
#
#
#
#                             =================
#                             |The decay table|
#                             =================
#
# - The QCD corrections to the decays gluino -> squark  + quark
#                                     squark -> gaugino + quark_prime
#                                     squark -> squark_prime + Higgs
#                                     squark -> gluino  + quark
#   are included.
#
# - The multi-body decays for the inos, stops and sbottoms are included.
#
# - The loop induced decays for the gluino, neutralinos and stops
#   are included.
#
# - The SUSY decays of the top quark are included.
#
#
#         PDG            Width
DECAY         6     1.42108654E+00   # top decays
#          BR         NDA      ID1       ID2
     1.00000000E+00    2           5        24   # BR(t ->  b    W+)
#
#         PDG            Width
DECAY   1000021     7.65211439E+01   # gluino decays
#          BR         NDA      ID1       ID2
     2.48242724E-01    2     1000005        -5   # BR(~g -> ~b_1  bb)
     2.48242724E-01    2    -1000005         5   # BR(~g -> ~b_1* b )
     2.51757276E-01    2     1000006        -6   # BR(~g -> ~t_1  tb)
     2.51757276E-01    2    -1000006         6   # BR(~g -> ~t_1* t )
#
#         PDG            Width
DECAY   1000006     7.54902368E+00   # stop1 decays
#          BR         NDA      ID1       ID2
     1.25353048E-02    2     1000022         6   # BR(~t_1 -> ~chi_10 t )
     3.02153573E-01    2     1000023         6   # BR(~t_1 -> ~chi_20 t )
     6.85311122E-01    2     1000024         5   # BR(~t_1 -> ~chi_1+ b )
#
#         PDG            Width
DECAY   2000006     1.03693225E+02   # stop2 decays
#          BR         NDA      ID1       ID2
     6.34556626E-02    2     1000022         6   # BR(~t_2 -> ~chi_10 t )
     2.86428985E-04    2     1000023         6   # BR(~t_2 -> ~chi_20 t )
     0.00000000E+00    2     1000025         6   # BR(~t_2 -> ~chi_30 t )
     5.74816925E-04    2     1000024         5   # BR(~t_2 -> ~chi_1+ b )
     2.80431388E-05    2     1000037         5   # BR(~t_2 -> ~chi_2+ b )
     3.25808793E-01    2     1000021         6   # BR(~t_2 -> ~g      t )
     1.59242164E-01    2     1000006        25   # BR(~t_2 -> ~t_1    h )
     1.51138448E-01    2     1000006        23   # BR(~t_2 -> ~t_1    Z )
     2.99465643E-01    2     1000005        24   # BR(~t_2 -> ~b_1    W+)
#
#         PDG            Width
DECAY   1000005     7.29599705E+00   # sbottom1 decays
#          BR         NDA      ID1       ID2
     1.48942091E-02    2     1000022         5   # BR(~b_1 -> ~chi_10 b )
     3.56379656E-01    2     1000023         5   # BR(~b_1 -> ~chi_20 b )
     6.28726134E-01    2    -1000024         6   # BR(~b_1 -> ~chi_1- t )
#
#         PDG            Width
DECAY   2000005     4.22833380E+01   # sbottom2 decays
#          BR         NDA      ID1       ID2
     3.93098337E-02    2     1000022         5   # BR(~b_2 -> ~chi_10 b )
     2.10448617E-07    2     1000023         5   # BR(~b_2 -> ~chi_20 b )
     1.00614723E-05    2     1000025         5   # BR(~b_2 -> ~chi_30 b )
     9.87032986E-06    2     1000035         5   # BR(~b_2 -> ~chi_40 b )
    -8.85341152E-09    2    -1000024         6   # BR(~b_2 -> ~chi_1- t )
     8.29259489E-01    2     1000021         5   # BR(~b_2 -> ~g      b )
     2.89435032E-02    2     1000005        25   # BR(~b_2 -> ~b_1    h )
     4.19823023E-02    2     1000005        23   # BR(~b_2 -> ~b_1    Z )
     6.04847381E-02    2     1000006       -24   # BR(~b_2 -> ~t_1    W-)
#
#         PDG            Width
DECAY   1000002     7.07677703E+01   # sup_L decays
#          BR         NDA      ID1       ID2
     5.78904097E-03    2     1000022         2   # BR(~u_L -> ~chi_10 u)
     1.64394582E-01    2     1000023         2   # BR(~u_L -> ~chi_20 u)
     1.73704954E-08    2     1000025         2   # BR(~u_L -> ~chi_30 u)
     2.73170388E-08    2     1000035         2   # BR(~u_L -> ~chi_40 u)
     3.28769259E-01    2     1000024         1   # BR(~u_L -> ~chi_1+ d)
     2.81426670E-09    2     1000037         1   # BR(~u_L -> ~chi_2+ d)
     5.01047070E-01    2     1000021         2   # BR(~u_L -> ~g      u)
#
#         PDG            Width
DECAY   2000002     4.18935152E+01   # sup_R decays
#          BR         NDA      ID1       ID2
     1.58899316E-01    2     1000022         2   # BR(~u_R -> ~chi_10 u)
     5.87339378E-07    2     1000023         2   # BR(~u_R -> ~chi_20 u)
     6.01616519E-09    2     1000025         2   # BR(~u_R -> ~chi_30 u)
     8.12338578E-09    2     1000035         2   # BR(~u_R -> ~chi_40 u)
     8.41100082E-01    2     1000021         2   # BR(~u_R -> ~g      u)
#
#         PDG            Width
DECAY   1000001     7.08184030E+01   # sdown_L decays
#          BR         NDA      ID1       ID2
     5.97863423E-03    2     1000022         1   # BR(~d_L -> ~chi_10 d)
     1.64090350E-01    2     1000023         1   # BR(~d_L -> ~chi_20 d)
     2.85712251E-08    2     1000025         1   # BR(~d_L -> ~chi_30 d)
     4.36937810E-08    2     1000035         1   # BR(~d_L -> ~chi_40 d)
     3.28193203E-01    2    -1000024         2   # BR(~d_L -> ~chi_1- u)
     2.20900295E-07    2    -1000037         2   # BR(~d_L -> ~chi_2- u)
     5.01737520E-01    2     1000021         1   # BR(~d_L -> ~g      d)
#
#         PDG            Width
DECAY   2000001     3.67726426E+01   # sdown_R decays
#          BR         NDA      ID1       ID2
     4.52323819E-02    2     1000022         1   # BR(~d_R -> ~chi_10 d)
     1.67191116E-07    2     1000023         1   # BR(~d_R -> ~chi_20 d)
     1.53426576E-09    2     1000025         1   # BR(~d_R -> ~chi_30 d)
     2.06764917E-09    2     1000035         1   # BR(~d_R -> ~chi_40 d)
     9.54767447E-01    2     1000021         1   # BR(~d_R -> ~g      d)
#
#         PDG            Width
DECAY   1000004     7.07677703E+01   # scharm_L decays
#          BR         NDA      ID1       ID2
     5.78904097E-03    2     1000022         4   # BR(~c_L -> ~chi_10 c)
     1.64394582E-01    2     1000023         4   # BR(~c_L -> ~chi_20 c)
     1.73704954E-08    2     1000025         4   # BR(~c_L -> ~chi_30 c)
     2.73170388E-08    2     1000035         4   # BR(~c_L -> ~chi_40 c)
     3.28769259E-01    2     1000024         3   # BR(~c_L -> ~chi_1+ s)
     2.81426670E-09    2     1000037         3   # BR(~c_L -> ~chi_2+ s)
     5.01047070E-01    2     1000021         4   # BR(~c_L -> ~g      c)
#
#         PDG            Width
DECAY   2000004     4.18935152E+01   # scharm_R decays
#          BR         NDA      ID1       ID2
     1.58899316E-01    2     1000022         4   # BR(~c_R -> ~chi_10 c)
     5.87339378E-07    2     1000023         4   # BR(~c_R -> ~chi_20 c)
     6.01616519E-09    2     1000025         4   # BR(~c_R -> ~chi_30 c)
     8.12338578E-09    2     1000035         4   # BR(~c_R -> ~chi_40 c)
     8.41100082E-01    2     1000021         4   # BR(~c_R -> ~g      c)
#
#         PDG            Width
DECAY   1000003     7.08184030E+01   # sstrange_L decays
#          BR         NDA      ID1       ID2
     5.97863423E-03    2     1000022         3   # BR(~s_L -> ~chi_10 s)
     1.64090350E-01    2     1000023         3   # BR(~s_L -> ~chi_20 s)
     2.85712251E-08    2     1000025         3   # BR(~s_L -> ~chi_30 s)
     4.36937810E-08    2     1000035         3   # BR(~s_L -> ~chi_40 s)
     3.28193203E-01    2    -1000024         4   # BR(~s_L -> ~chi_1- c)
     2.20900295E-07    2    -1000037         4   # BR(~s_L -> ~chi_2- c)
     5.01737520E-01    2     1000021         3   # BR(~s_L -> ~g      s)
#
#         PDG            Width
DECAY   2000003     3.67726426E+01   # sstrange_R decays
#          BR         NDA      ID1       ID2
     4.52323819E-02    2     1000022         3   # BR(~s_R -> ~chi_10 s)
     1.67191116E-07    2     1000023         3   # BR(~s_R -> ~chi_20 s)
     1.53426576E-09    2     1000025         3   # BR(~s_R -> ~chi_30 s)
     2.06764917E-09    2     1000035         3   # BR(~s_R -> ~chi_40 s)
     9.54767447E-01    2     1000021         3   # BR(~s_R -> ~g      s)
#
#         PDG            Width
DECAY   1000011     4.02235000E+01   # selectron_L decays
#          BR         NDA      ID1       ID2
     9.66305387E-02    2     1000022        11   # BR(~e_L -> ~chi_10 e-)
     3.01700256E-01    2     1000023        11   # BR(~e_L -> ~chi_20 e-)
     8.68715112E-10    2     1000025        11   # BR(~e_L -> ~chi_30 e-)
     1.29047503E-09    2     1000035        11   # BR(~e_L -> ~chi_40 e-)
     6.01669189E-01    2    -1000024        12   # BR(~e_L -> ~chi_1- nu_e)
     1.40310771E-08    2    -1000037        12   # BR(~e_L -> ~chi_2- nu_e)
#
#         PDG            Width
DECAY   2000011     1.56059944E+01   # selectron_R decays
#          BR         NDA      ID1       ID2
     9.99996307E-01    2     1000022        11   # BR(~e_R -> ~chi_10 e-)
     3.69232364E-06    2     1000023        11   # BR(~e_R -> ~chi_20 e-)
     2.16457677E-10    2     1000025        11   # BR(~e_R -> ~chi_30 e-)
     1.90672327E-10    2     1000035        11   # BR(~e_R -> ~chi_40 e-)
#
#         PDG            Width
DECAY   1000013     4.02235000E+01   # smuon_L decays
#          BR         NDA      ID1       ID2
     9.66305387E-02    2     1000022        13   # BR(~mu_L -> ~chi_10 mu-)
     3.01700256E-01    2     1000023        13   # BR(~mu_L -> ~chi_20 mu-)
     8.68715112E-10    2     1000025        13   # BR(~mu_L -> ~chi_30 mu-)
     1.29047503E-09    2     1000035        13   # BR(~mu_L -> ~chi_40 mu-)
     6.01669189E-01    2    -1000024        14   # BR(~mu_L -> ~chi_1- nu_mu)
     1.40310771E-08    2    -1000037        14   # BR(~mu_L -> ~chi_2- nu_mu)
#
#         PDG            Width
DECAY   2000013     1.56059944E+01   # smuon_R decays
#          BR         NDA      ID1       ID2
     9.99996307E-01    2     1000022        13   # BR(~mu_R -> ~chi_10 mu-)
     3.69232364E-06    2     1000023        13   # BR(~mu_R -> ~chi_20 mu-)
     2.16457677E-10    2     1000025        13   # BR(~mu_R -> ~chi_30 mu-)
     1.90672327E-10    2     1000035        13   # BR(~mu_R -> ~chi_40 mu-)
#
#         PDG            Width
DECAY   1000015     2.82048555E+01   # stau_1 decays
#          BR         NDA      ID1       ID2
     3.45416355E-01    2     1000022        15   # BR(~tau_1 -> ~chi_10  tau-)
     2.18618276E-01    2     1000023        15   # BR(~tau_1 -> ~chi_20  tau-)
     4.35965370E-01    2    -1000024        16   # BR(~tau_1 -> ~chi_1-  nu_tau)
#
#         PDG            Width
DECAY   2000015     2.76046923E+01   # stau_2 decays
#          BR         NDA      ID1       ID2
     3.53564160E-01    2     1000022        15   # BR(~tau_2 -> ~chi_10  tau-)
     2.15916598E-01    2     1000023        15   # BR(~tau_2 -> ~chi_20  tau-)
     1.01678703E-05    2     1000025        15   # BR(~tau_2 -> ~chi_30  tau-)
     1.15894439E-05    2     1000035        15   # BR(~tau_2 -> ~chi_40  tau-)
     4.30485900E-01    2    -1000024        16   # BR(~tau_2 -> ~chi_1-  nu_tau)
     1.15850455E-05    2    -1000037        16   # BR(~tau_2 -> ~chi_2-  nu_tau)
#
#         PDG            Width
DECAY   1000012     4.02268735E+01   # snu_eL decays
#          BR         NDA      ID1       ID2
     9.76332497E-02    2     1000022        12   # BR(~nu_eL -> ~chi_10 nu_e)
     3.00217674E-01    2     1000023        12   # BR(~nu_eL -> ~chi_20 nu_e)
     2.24420931E-09    2     1000025        12   # BR(~nu_eL -> ~chi_30 nu_e)
     2.93304880E-09    2     1000035        12   # BR(~nu_eL -> ~chi_40 nu_e)
     6.02149071E-01    2     1000024        11   # BR(~nu_eL -> ~chi_1+ e-)
     1.13125757E-10    2     1000037        11   # BR(~nu_eL -> ~chi_2+ e-)
#
#         PDG            Width
DECAY   1000014     4.02268735E+01   # snu_muL decays
#          BR         NDA      ID1       ID2
     9.76332497E-02    2     1000022        14   # BR(~nu_muL -> ~chi_10 nu_mu)
     3.00217674E-01    2     1000023        14   # BR(~nu_muL -> ~chi_20 nu_mu)
     2.24420931E-09    2     1000025        14   # BR(~nu_muL -> ~chi_30 nu_mu)
     2.93304880E-09    2     1000035        14   # BR(~nu_muL -> ~chi_40 nu_mu)
     6.02149071E-01    2     1000024        13   # BR(~nu_muL -> ~chi_1+ mu-)
     1.13125757E-10    2     1000037        13   # BR(~nu_muL -> ~chi_2+ mu-)
#
#         PDG            Width
DECAY   1000016     4.02297089E+01   # snu_tauL decays
#          BR         NDA      ID1       ID2
     9.76250656E-02    2     1000022        16   # BR(~nu_tauL -> ~chi_10 nu_tau)
     3.00192444E-01    2     1000023        16   # BR(~nu_tauL -> ~chi_20 nu_tau)
     2.21396774E-09    2     1000025        16   # BR(~nu_tauL -> ~chi_30 nu_tau)
     2.89011591E-09    2     1000035        16   # BR(~nu_tauL -> ~chi_40 nu_tau)
     6.02181909E-01    2     1000024        15   # BR(~nu_tauL -> ~chi_1+ tau-)
     5.76224643E-07    2     1000037        15   # BR(~nu_tauL -> ~chi_2+ tau-)
#
#         PDG            Width
DECAY   1000024     7.46989230E-06   # chargino1+ decays
#          BR         NDA      ID1       ID2
     1.00000000E+00    2     1000022        24   # BR(~chi_1+ -> ~chi_10  W+)
#
#         PDG            Width
DECAY   1000037     8.62080299E+01   # chargino2+ decays
#          BR         NDA      ID1       ID2
     4.64356476E-02    2     1000006        -5   # BR(~chi_2+ -> ~t_1     bb)
     7.23467063E-01    2    -1000005         6   # BR(~chi_2+ -> ~b_1*    t )
     5.30934637E-07    2    -1000015        16   # BR(~chi_2+ -> ~tau_1+  nu_tau)
     6.93518113E-02    2     1000024        23   # BR(~chi_2+ -> ~chi_1+  Z )
     2.14415453E-02    2     1000022        24   # BR(~chi_2+ -> ~chi_10  W+)
     6.77835075E-02    2     1000023        24   # BR(~chi_2+ -> ~chi_20  W+)
     7.15198945E-02    2     1000024        25   # BR(~chi_2+ -> ~chi_1+  h )
#
#         PDG            Width
DECAY   1000022     0.00000000E+00   # neutralino1 decays
#
#         PDG            Width
DECAY   1000023     2.73359015E-07   # neutralino2 decays
#          BR         NDA      ID1       ID2
     1.00000000E+00    2     1000022        23   # BR(~chi_20 -> ~chi_10   Z )
#
#         PDG            Width
DECAY   1000025     8.65070572E+01   # neutralino3 decays
#          BR         NDA      ID1       ID2
     1.29045395E-02    2     1000022        23   # BR(~chi_30 -> ~chi_10   Z )
     4.23770476E-02    2     1000023        23   # BR(~chi_30 -> ~chi_20   Z )
     6.74038502E-02    2     1000024       -24   # BR(~chi_30 -> ~chi_1+   W-)
     6.74038502E-02    2    -1000024        24   # BR(~chi_30 -> ~chi_1-   W+)
     9.50125871E-03    2     1000022        25   # BR(~chi_30 -> ~chi_10   h )
     2.70552037E-02    2     1000023        25   # BR(~chi_30 -> ~chi_20   h )
     3.64358368E-01    2     1000006        -6   # BR(~chi_30 -> ~t_1      tb)
     3.64358368E-01    2    -1000006         6   # BR(~chi_30 -> ~t_1*     t )
     2.23182978E-02    2     1000005        -5   # BR(~chi_30 -> ~b_1      bb)
     2.23182978E-02    2    -1000005         5   # BR(~chi_30 -> ~b_1*     b )
     4.59192052E-07    2     1000015       -15   # BR(~chi_30 -> ~tau_1-   tau+)
     4.59192052E-07    2    -1000015        15   # BR(~chi_30 -> ~tau_1+   tau-)
#
#         PDG            Width
DECAY   1000035     8.55917160E+01   # neutralino4 decays
#          BR         NDA      ID1       ID2
     9.34988813E-03    2     1000022        23   # BR(~chi_40 -> ~chi_10   Z )
     2.68811370E-02    2     1000023        23   # BR(~chi_40 -> ~chi_20   Z )
     6.81425199E-02    2     1000024       -24   # BR(~chi_40 -> ~chi_1+   W-)
     6.81425199E-02    2    -1000024        24   # BR(~chi_40 -> ~chi_1-   W+)
     1.34208845E-02    2     1000022        25   # BR(~chi_40 -> ~chi_10   h )
     4.45571059E-02    2     1000023        25   # BR(~chi_40 -> ~chi_20   h )
     3.62173731E-01    2     1000006        -6   # BR(~chi_40 -> ~t_1      tb)
     3.62173731E-01    2    -1000006         6   # BR(~chi_40 -> ~t_1*     t )
     2.25786045E-02    2     1000005        -5   # BR(~chi_40 -> ~b_1      bb)
     2.25786045E-02    2    -1000005         5   # BR(~chi_40 -> ~b_1*     b )
     6.37049638E-07    2     1000015       -15   # BR(~chi_40 -> ~tau_1-   tau+)
     6.37049638E-07    2    -1000015        15   # BR(~chi_40 -> ~tau_1+   tau-)
#
#         PDG            Width
DECAY        25     4.78896947E-03   # h decays
#          BR         NDA      ID1       ID2
     6.83636740E-01    2           5        -5   # BR(h -> b       bb     )
     5.42501516E-02    2         -15        15   # BR(h -> tau+    tau-   )
     1.92049426E-04    2         -13        13   # BR(h -> mu+     mu-    )
     4.07979272E-04    2           3        -3   # BR(h -> s       sb     )
     1.76082178E-02    2           4        -4   # BR(h -> c       cb     )
     5.69243736E-02    2          21        21   # BR(h -> g       g      )
     1.92457767E-03    2          22        22   # BR(h -> gam     gam    )
     1.23488149E-03    2          22        23   # BR(h -> Z       gam    )
     1.63579921E-01    2          24       -24   # BR(h -> W+      W-     )
     2.02411081E-02    2          23        23   # BR(h -> Z       Z      )
#
#         PDG            Width
DECAY        35     1.39758874E+01   # H decays
#          BR         NDA      ID1       ID2
     7.43986045E-01    2           5        -5   # BR(H -> b       bb     )
     1.77934161E-01    2         -15        15   # BR(H -> tau+    tau-   )
     6.29132671E-04    2         -13        13   # BR(H -> mu+     mu-    )
     7.72574039E-04    2           3        -3   # BR(H -> s       sb     )
     2.18038477E-07    2           4        -4   # BR(H -> c       cb     )
     2.17507471E-02    2           6        -6   # BR(H -> t       tb     )
     3.09397693E-05    2          21        21   # BR(H -> g       g      )
     1.93734074E-08    2          22        22   # BR(H -> gam     gam    )
     8.35432839E-09    2          23        22   # BR(H -> Z       gam    )
     3.26728119E-05    2          24       -24   # BR(H -> W+      W-     )
     1.63162564E-05    2          23        23   # BR(H -> Z       Z      )
     8.54210360E-05    2          25        25   # BR(H -> h       h      )
     8.90331084E-24    2          36        36   # BR(H -> A       A      )
     8.72152697E-18    2          23        36   # BR(H -> Z       A      )
     2.39219078E-03    2     1000024  -1000024   # BR(H -> ~chi_1+ ~chi_1-)
     1.12971432E-04    2     1000022   1000022   # BR(H -> ~chi_10 ~chi_10)
     1.19106049E-03    2     1000023   1000023   # BR(H -> ~chi_20 ~chi_20)
     7.35261176E-04    2     1000022   1000023   # BR(H -> ~chi_10 ~chi_20)
     5.03242321E-02    2     1000006  -1000006   # BR(H -> ~t_1    ~t_1*  )
     6.02915401E-06    2     1000005  -1000005   # BR(H -> ~b_1    ~b_1*  )
#
#         PDG            Width
DECAY        36     1.32747711E+01   # A decays
#          BR         NDA      ID1       ID2
     7.83347703E-01    2           5        -5   # BR(A -> b       bb     )
     1.87326301E-01    2         -15        15   # BR(A -> tau+    tau-   )
     6.62340109E-04    2         -13        13   # BR(A -> mu+     mu-    )
     8.13491202E-04    2           3        -3   # BR(A -> s       sb     )
     2.29555686E-07    2           4        -4   # BR(A -> c       cb     )
     2.28870497E-02    2           6        -6   # BR(A -> t       tb     )
     6.74001778E-05    2          21        21   # BR(A -> g       g      )
     3.34096182E-08    2          22        22   # BR(A -> gam     gam    )
     6.63424727E-08    2          23        22   # BR(A -> Z       gam    )
     3.42678887E-05    2          23        25   # BR(A -> Z       h      )
     2.63194840E-03    2     1000024  -1000024   # BR(A -> ~chi_1+ ~chi_1-)
     1.21477569E-04    2     1000022   1000022   # BR(A -> ~chi_10 ~chi_10)
     1.31040573E-03    2     1000023   1000023   # BR(A -> ~chi_20 ~chi_20)
     7.97285605E-04    2     1000022   1000023   # BR(A -> ~chi_10 ~chi_20)
#
#         PDG            Width
DECAY        37     1.00579663E+01   # H+ decays
#          BR         NDA      ID1       ID2
     1.09524858E-03    2           4        -5   # BR(H+ -> c       bb     )
     2.47315509E-01    2         -15        16   # BR(H+ -> tau+    nu_tau )
     8.74447318E-04    2         -13        14   # BR(H+ -> mu+     nu_mu  )
     7.00957985E-06    2           2        -5   # BR(H+ -> u       bb     )
     5.13893738E-05    2           2        -3   # BR(H+ -> u       sb     )
     1.05724467E-03    2           4        -3   # BR(H+ -> c       sb     )
     7.13193146E-01    2           6        -5   # BR(H+ -> t       bb     )
     4.52984181E-05    2          24        25   # BR(H+ -> W+      h      )
     9.48624421E-14    2          24        36   # BR(H+ -> W+      A      )
     2.06601430E-03    2     1000024   1000022   # BR(H+ -> ~chi_1+ ~chi_10)
     7.68346437E-09    2     1000024   1000023   # BR(H+ -> ~chi_1+ ~chi_20)
     3.42946852E-02    2     1000006  -1000005   # BR(H+ -> ~t_1    ~b_1*  )
