#
#                              ======================
#                              | THE SUSYHIT OUTPUT |
#                              ======================
#
#
#              ------------------------------------------------------
#              |     This is the output of the SUSY-HIT package     |
#              |  created by A.Djouadi, M.Muehlleitner and M.Spira. |
#              |  In case of problems with SUSY-HIT email to        |
#              |           margarete.muehlleitner@kit.edu           |
#              |           michael.spira@psi.ch                     |
#              |           abdelhak.djouadi@cern.ch                 |
#              ------------------------------------------------------
#
#              ------------------------------------------------------
#              |  SUSY Les Houches Accord - MSSM Spectrum + Decays  |
#              |              based on the decay programs           |
#              |                                                    |
#              |                     SDECAY 1.5                     |
#              |                                                    |
#              |  Authors: M.Muhlleitner, A.Djouadi and Y.Mambrini  |
#              |  Ref.:    Comput.Phys.Commun.168(2005)46           |
#              |           [hep-ph/0311167]                         |
#              |                                                    |
#              |                     HDECAY 3.4                     |
#              |                                                    |
#              |  By: A.Djouadi,J.Kalinowski,M.Muhlleitner,M.Spira  |
#              |  Ref.:    Comput.Phys.Commun.108(1998)56           |
#              |           [hep-ph/9704448]                         |
#              |                                                    |
#              |                                                    |
#              |  If not stated otherwise all DRbar couplings and   |
#              |  soft SUSY breaking masses are given at the scale  |
#              |  Q=  0.16419555E+04
#              |                                                    |
#              ------------------------------------------------------
#
#
BLOCK DCINFO  # Decay Program information
     1   SDECAY/HDECAY # decay calculator
     2   1.5  /3.4    # version number
#
BLOCK SPINFO  # Spectrum calculator information
     1    SOFTSUSY    # spectrum calculator                
     2    3.7.3       # version number                     
#
BLOCK MODSEL  # Model selection
     1     0   #  nonUniversal                                     
#
BLOCK SMINPUTS  # Standard Model inputs
         1     1.27934000E+02   # alpha_em^-1(M_Z)^MSbar
         2     1.16639000E-05   # G_F [GeV^-2]
         3     1.17200000E-01   # alpha_S(M_Z)^MSbar
         4     9.11870000E+01   # M_Z pole mass
         5     4.19000000E+00   # mb(mb)^MSbar
         6     1.72500000E+02   # mt pole mass
         7     1.77690000E+00   # mtau pole mass
#
BLOCK MINPAR  # Input parameters - minimal models
         3     2.00000000E+01   # tanb                
#
BLOCK EXTPAR  # Input parameters - non-minimal models
         0    -1.00000000E+00   # Set                 
         1     9.99000000E+01   # M_1(MX)             
         2     1.99900000E+02   # M_2(MX)             
         3     2.20000000E+03   # M_3(MX)             
        11     3.24338000E+03   # At(MX)              
        12     0.00000000E+00   # Ab(MX)              
        13     0.00000000E+00   # Atau(MX)            
        23     3.00000000E+03   # mu(MX)              
        25     2.00000000E+01   # tan                 
        26     3.00000000E+03   # mA(pole)            
        31     3.00000000E+03   # meL(MX)             
        32     3.00000000E+03   # mmuL(MX)            
        33     3.00000000E+03   # mtauL(MX)           
        34     3.00000000E+03   # meR(MX)             
        35     3.00000000E+03   # mmuR(MX)            
        36     3.00000000E+03   # mtauR(MX)           
        41     3.00000000E+03   # mqL1(MX)            
        42     3.00000000E+03   # mqL2(MX)            
        43     8.99900000E+02   # mqL3(MX)            
        44     3.00000000E+03   # muR(MX)             
        45     3.00000000E+03   # mcR(MX)             
        46     3.00000000E+03   # mtR(MX)             
        47     3.00000000E+03   # mdR(MX)             
        48     3.00000000E+03   # msR(MX)             
        49     3.00000000E+03   # mbR(MX)             
#
BLOCK MASS  # Mass Spectrum
# PDG code           mass       particle
        24     8.03963803E+01   # W+
        25     1.25114517E+02   # h
        35     3.00009248E+03   # H
        36     2.99999991E+03   # A
        37     3.00091188E+03   # H+
         5     4.81337004E+00   # b-quark pole mass calculated from mb(mb)_Msbar
   1000001     3.04051996E+03   # ~d_L
   2000001     3.03535854E+03   # ~d_R
   1000002     3.03960786E+03   # ~u_L
   2000002     3.03638601E+03   # ~u_R
   1000003     3.04051996E+03   # ~s_L
   2000003     3.03535854E+03   # ~s_R
   1000004     3.03960786E+03   # ~c_L
   2000004     3.03638601E+03   # ~c_R
   1000005     9.98955583E+02   # ~b_1
   2000005     3.03436259E+03   # ~b_2
   1000006     9.95023425E+02   # ~t_1
   2000006     3.01784945E+03   # ~t_2
   1000011     3.00633139E+03   # ~e_L
   2000011     3.00213753E+03   # ~e_R
   1000012     3.00493592E+03   # ~nu_eL
   1000013     3.00633139E+03   # ~mu_L
   2000013     3.00213753E+03   # ~mu_R
   1000014     3.00493592E+03   # ~nu_muL
   1000015     2.98575938E+03   # ~tau_1
   2000015     3.02186954E+03   # ~tau_2
   1000016     3.00468348E+03   # ~nu_tauL
   1000021     2.35015523E+03   # ~g
   1000022     1.00151260E+02   # ~chi_10
   1000023     2.15447725E+02   # ~chi_20
   1000025    -2.99529342E+03   # ~chi_30
   1000035     2.99578977E+03   # ~chi_40
   1000024     2.15607627E+02   # ~chi_1+
   1000037     2.99645285E+03   # ~chi_2+
#
BLOCK NMIX  # Neutralino Mixing Matrix
  1  1     9.99888526E-01   # N_11
  1  2    -1.53527274E-03   # N_12
  1  3     1.48008156E-02   # N_13
  1  4    -1.23043166E-03   # N_14
  2  1     1.92585845E-03   # N_21
  2  2     9.99651335E-01   # N_22
  2  3    -2.61585853E-02   # N_23
  2  4     3.03790284E-03   # N_24
  3  1    -9.56754426E-03   # N_31
  3  2     1.63656459E-02   # N_32
  3  3     7.06831083E-01   # N_33
  3  4     7.07128311E-01   # N_34
  4  1    -1.12999262E-02   # N_41
  4  2     2.06644124E-02   # N_42
  4  3     7.06743578E-01   # N_43
  4  4    -7.07077654E-01   # N_44
#
BLOCK UMIX  # Chargino Mixing Matrix U
  1  1     9.99314457E-01   # U_11
  1  2    -3.70218356E-02   # U_12
  2  1     3.70218356E-02   # U_21
  2  2     9.99314457E-01   # U_22
#
BLOCK VMIX  # Chargino Mixing Matrix V
  1  1     9.99990752E-01   # V_11
  1  2    -4.30073124E-03   # V_12
  2  1     4.30073124E-03   # V_21
  2  2     9.99990752E-01   # V_22
#
BLOCK STOPMIX  # Stop Mixing Matrix
  1  1     9.98478995E-01   # cos(theta_t)
  1  2    -5.51334431E-02   # sin(theta_t)
  2  1     5.51334431E-02   # -sin(theta_t)
  2  2     9.98478995E-01   # cos(theta_t)
#
BLOCK SBOTMIX  # Sbottom Mixing Matrix
  1  1     9.99910176E-01   # cos(theta_b)
  1  2     1.34029822E-02   # sin(theta_b)
  2  1    -1.34029822E-02   # -sin(theta_b)
  2  2     9.99910176E-01   # cos(theta_b)
#
BLOCK STAUMIX  # Stau Mixing Matrix
  1  1     7.06916079E-01   # cos(theta_tau)
  1  2     7.07297432E-01   # sin(theta_tau)
  2  1    -7.07297432E-01   # -sin(theta_tau)
  2  2     7.06916079E-01   # cos(theta_tau)
#
BLOCK ALPHA  # Higgs mixing
          -5.01751464E-02   # Mixing angle in the neutral Higgs boson sector
#
BLOCK HMIX Q=  1.64195548E+03  # DRbar Higgs Parameters
         1     3.00000000E+03   # mu(Q)MSSM           
         2     2.00000000E+01   # tan                 
         3     2.43991274E+02   # higgs               
         4     7.68092502E+06   # mA^2(Q)MSSM         
#
BLOCK GAUGE Q=  1.64195548E+03  # The gauge couplings
     1     3.62472023E-01   # gprime(Q) DRbar
     2     6.40016086E-01   # g(Q) DRbar
     3     1.02434018E+00   # g3(Q) DRbar
#
BLOCK AU Q=  1.64195548E+03  # The trilinear couplings
  1  1     2.56031026E-06   # A_u(Q) DRbar
  2  2     2.56034777E-06   # A_c(Q) DRbar
  3  3     3.24338000E+03   # A_t(Q) DRbar
#
BLOCK AD Q=  1.64195548E+03  # The trilinear couplings
  1  1     6.39720596E-07   # A_d(Q) DRbar
  2  2     6.39846909E-07   # A_s(Q) DRbar
  3  3     1.48465107E-06   # A_b(Q) DRbar
#
BLOCK AE Q=  1.64195548E+03  # The trilinear couplings
  1  1     0.00000000E+00   # A_e(Q) DRbar
  2  2     1.40782459E-07   # A_mu(Q) DRbar
  3  3     1.42494493E-07   # A_tau(Q) DRbar
#
BLOCK Yu Q=  1.64195548E+03  # The Yukawa couplings
  1  1     0.00000000E+00   # y_u(Q) DRbar
  2  2     0.00000000E+00   # y_c(Q) DRbar
  3  3     8.51177752E-01   # y_t(Q) DRbar
#
BLOCK Yd Q=  1.64195548E+03  # The Yukawa couplings
  1  1     0.00000000E+00   # y_d(Q) DRbar
  2  2     0.00000000E+00   # y_s(Q) DRbar
  3  3     2.12338841E-01   # y_b(Q) DRbar
#
BLOCK Ye Q=  1.64195548E+03  # The Yukawa couplings
  1  1     0.00000000E+00   # y_e(Q) DRbar
  2  2     0.00000000E+00   # y_mu(Q) DRbar
  3  3     2.05334342E-01   # y_tau(Q) DRbar
#
BLOCK MSOFT Q=  1.64195548E+03  # The soft SUSY breaking masses at the scale Q
         1     9.99000000E+01   # M_1(Q)              
         2     1.99900000E+02   # M_2(Q)              
         3     2.20000000E+03   # M_3(Q)              
        21    -8.19540094E+04   # M^2_Hd              
        22    -9.04170348E+06   # M^2_Hu              
        31     3.00000000E+03   # M_eL                
        32     3.00000000E+03   # M_muL               
        33     3.00000000E+03   # M_tauL              
        34     3.00000000E+03   # M_eR                
        35     3.00000000E+03   # M_muR               
        36     3.00000000E+03   # M_tauR              
        41     3.00000000E+03   # M_q1L               
        42     3.00000000E+03   # M_q2L               
        43     8.99899994E+02   # M_q3L               
        44     3.00000000E+03   # M_uR                
        45     3.00000000E+03   # M_cR                
        46     3.00000000E+03   # M_tR                
        47     3.00000000E+03   # M_dR                
        48     3.00000000E+03   # M_sR                
        49     3.00000000E+03   # M_bR                
#
#
#
#                             =================
#                             |The decay table|
#                             =================
#
# - The QCD corrections to the decays gluino -> squark  + quark
#                                     squark -> gaugino + quark_prime
#                                     squark -> squark_prime + Higgs
#                                     squark -> gluino  + quark
#   are included.
#
# - The multi-body decays for the inos, stops and sbottoms are included.
#
# - The loop induced decays for the gluino, neutralinos and stops
#   are included.
#
# - The SUSY decays of the top quark are included.
#
#
#         PDG            Width
DECAY         6     1.42203188E+00   # top decays
#          BR         NDA      ID1       ID2
     1.00000000E+00    2           5        24   # BR(t ->  b    W+)
#
#         PDG            Width
DECAY   1000021     6.42478379E+01   # gluino decays
#          BR         NDA      ID1       ID2
     2.47685617E-01    2     1000005        -5   # BR(~g -> ~b_1  bb)
     2.47685617E-01    2    -1000005         5   # BR(~g -> ~b_1* b )
     2.52314383E-01    2     1000006        -6   # BR(~g -> ~t_1  tb)
     2.52314383E-01    2    -1000006         6   # BR(~g -> ~t_1* t )
#
#         PDG            Width
DECAY   1000006     1.11921240E+01   # stop1 decays
#          BR         NDA      ID1       ID2
     1.23786005E-02    2     1000022         6   # BR(~t_1 -> ~chi_10 t )
     3.16289682E-01    2     1000023         6   # BR(~t_1 -> ~chi_20 t )
     6.71331718E-01    2     1000024         5   # BR(~t_1 -> ~chi_1+ b )
#
#         PDG            Width
DECAY   2000006     1.12293462E+02   # stop2 decays
#          BR         NDA      ID1       ID2
     5.88567038E-02    2     1000022         6   # BR(~t_2 -> ~chi_10 t )
     3.40034523E-04    2     1000023         6   # BR(~t_2 -> ~chi_20 t )
     0.00000000E+00    2     1000025         6   # BR(~t_2 -> ~chi_30 t )
     6.82629275E-04    2     1000024         5   # BR(~t_2 -> ~chi_1+ b )
     8.23401988E-05    2     1000037         5   # BR(~t_2 -> ~chi_2+ b )
     2.96909552E-01    2     1000021         6   # BR(~t_2 -> ~g      t )
     1.68244336E-01    2     1000006        25   # BR(~t_2 -> ~t_1    h )
     1.60377806E-01    2     1000006        23   # BR(~t_2 -> ~t_1    Z )
     3.14506599E-01    2     1000005        24   # BR(~t_2 -> ~b_1    W+)
#
#         PDG            Width
DECAY   1000005     1.10587903E+01   # sbottom1 decays
#          BR         NDA      ID1       ID2
     1.34119373E-02    2     1000022         5   # BR(~b_1 -> ~chi_10 b )
     3.41962906E-01    2     1000023         5   # BR(~b_1 -> ~chi_20 b )
     6.44625157E-01    2    -1000024         6   # BR(~b_1 -> ~chi_1- t )
#
#         PDG            Width
DECAY   2000005     4.18350099E+01   # sbottom2 decays
#          BR         NDA      ID1       ID2
     3.99767164E-02    2     1000022         5   # BR(~b_2 -> ~chi_10 b )
     4.19835381E-07    2     1000023         5   # BR(~b_2 -> ~chi_20 b )
     2.25076041E-05    2     1000025         5   # BR(~b_2 -> ~chi_30 b )
     2.22018025E-05    2     1000035         5   # BR(~b_2 -> ~chi_40 b )
     3.86005974E-07    2    -1000024         6   # BR(~b_2 -> ~chi_1- t )
     8.32025718E-01    2     1000021         5   # BR(~b_2 -> ~g      b )
     2.80525132E-02    2     1000005        25   # BR(~b_2 -> ~b_1    h )
     4.09685684E-02    2     1000005        23   # BR(~b_2 -> ~b_1    Z )
     5.89309689E-02    2     1000006       -24   # BR(~b_2 -> ~t_1    W-)
#
#         PDG            Width
DECAY   1000002     7.06720408E+01   # sup_L decays
#          BR         NDA      ID1       ID2
     5.83375187E-03    2     1000022         2   # BR(~u_L -> ~chi_10 u)
     1.65271621E-01    2     1000023         2   # BR(~u_L -> ~chi_20 u)
     3.39824371E-08    2     1000025         2   # BR(~u_L -> ~chi_30 u)
     5.38614134E-08    2     1000035         2   # BR(~u_L -> ~chi_40 u)
     3.30522730E-01    2     1000024         1   # BR(~u_L -> ~chi_1+ d)
     5.63293290E-09    2     1000037         1   # BR(~u_L -> ~chi_2+ d)
     4.98371804E-01    2     1000021         2   # BR(~u_L -> ~g      u)
#
#         PDG            Width
DECAY   2000002     4.16597419E+01   # sup_R decays
#          BR         NDA      ID1       ID2
     1.60774402E-01    2     1000022         2   # BR(~u_R -> ~chi_10 u)
     5.92280541E-07    2     1000023         2   # BR(~u_R -> ~chi_20 u)
     1.22730044E-08    2     1000025         2   # BR(~u_R -> ~chi_30 u)
     1.67207018E-08    2     1000035         2   # BR(~u_R -> ~chi_40 u)
     8.39224976E-01    2     1000021         2   # BR(~u_R -> ~g      u)
#
#         PDG            Width
DECAY   1000001     7.07216958E+01   # sdown_L decays
#          BR         NDA      ID1       ID2
     6.02430456E-03    2     1000022         1   # BR(~d_L -> ~chi_10 d)
     1.64967317E-01    2     1000023         1   # BR(~d_L -> ~chi_20 d)
     5.50174868E-08    2     1000025         1   # BR(~d_L -> ~chi_30 d)
     8.47587424E-08    2     1000035         1   # BR(~d_L -> ~chi_40 d)
     3.29947723E-01    2    -1000024         2   # BR(~d_L -> ~chi_1- u)
     4.34274935E-07    2    -1000037         2   # BR(~d_L -> ~chi_2- u)
     4.99060082E-01    2     1000021         1   # BR(~d_L -> ~g      d)
#
#         PDG            Width
DECAY   2000001     3.65532558E+01   # sdown_R decays
#          BR         NDA      ID1       ID2
     4.57926387E-02    2     1000022         1   # BR(~d_R -> ~chi_10 d)
     1.68695718E-07    2     1000023         1   # BR(~d_R -> ~chi_20 d)
     3.33019193E-09    2     1000025         1   # BR(~d_R -> ~chi_30 d)
     4.53426302E-09    2     1000035         1   # BR(~d_R -> ~chi_40 d)
     9.54207185E-01    2     1000021         1   # BR(~d_R -> ~g      d)
#
#         PDG            Width
DECAY   1000004     7.06720408E+01   # scharm_L decays
#          BR         NDA      ID1       ID2
     5.83375187E-03    2     1000022         4   # BR(~c_L -> ~chi_10 c)
     1.65271621E-01    2     1000023         4   # BR(~c_L -> ~chi_20 c)
     3.39824371E-08    2     1000025         4   # BR(~c_L -> ~chi_30 c)
     5.38614134E-08    2     1000035         4   # BR(~c_L -> ~chi_40 c)
     3.30522730E-01    2     1000024         3   # BR(~c_L -> ~chi_1+ s)
     5.63293290E-09    2     1000037         3   # BR(~c_L -> ~chi_2+ s)
     4.98371804E-01    2     1000021         4   # BR(~c_L -> ~g      c)
#
#         PDG            Width
DECAY   2000004     4.16597419E+01   # scharm_R decays
#          BR         NDA      ID1       ID2
     1.60774402E-01    2     1000022         4   # BR(~c_R -> ~chi_10 c)
     5.92280541E-07    2     1000023         4   # BR(~c_R -> ~chi_20 c)
     1.22730044E-08    2     1000025         4   # BR(~c_R -> ~chi_30 c)
     1.67207018E-08    2     1000035         4   # BR(~c_R -> ~chi_40 c)
     8.39224976E-01    2     1000021         4   # BR(~c_R -> ~g      c)
#
#         PDG            Width
DECAY   1000003     7.07216958E+01   # sstrange_L decays
#          BR         NDA      ID1       ID2
     6.02430456E-03    2     1000022         3   # BR(~s_L -> ~chi_10 s)
     1.64967317E-01    2     1000023         3   # BR(~s_L -> ~chi_20 s)
     5.50174868E-08    2     1000025         3   # BR(~s_L -> ~chi_30 s)
     8.47587424E-08    2     1000035         3   # BR(~s_L -> ~chi_40 s)
     3.29947723E-01    2    -1000024         4   # BR(~s_L -> ~chi_1- c)
     4.34274935E-07    2    -1000037         4   # BR(~s_L -> ~chi_2- c)
     4.99060082E-01    2     1000021         3   # BR(~s_L -> ~g      s)
#
#         PDG            Width
DECAY   2000003     3.65532558E+01   # sstrange_R decays
#          BR         NDA      ID1       ID2
     4.57926387E-02    2     1000022         3   # BR(~s_R -> ~chi_10 s)
     1.68695718E-07    2     1000023         3   # BR(~s_R -> ~chi_20 s)
     3.33019193E-09    2     1000025         3   # BR(~s_R -> ~chi_30 s)
     4.53426302E-09    2     1000035         3   # BR(~s_R -> ~chi_40 s)
     9.54207185E-01    2     1000021         3   # BR(~s_R -> ~g      s)
#
#         PDG            Width
DECAY   1000011     4.02546544E+01   # selectron_L decays
#          BR         NDA      ID1       ID2
     9.68390481E-02    2     1000022        11   # BR(~e_L -> ~chi_10 e-)
     3.01630013E-01    2     1000023        11   # BR(~e_L -> ~chi_20 e-)
     1.95915245E-09    2     1000025        11   # BR(~e_L -> ~chi_30 e-)
     3.03463111E-09    2     1000035        11   # BR(~e_L -> ~chi_40 e-)
     6.01530898E-01    2    -1000024        12   # BR(~e_L -> ~chi_1- nu_e)
     3.59080776E-08    2    -1000037        12   # BR(~e_L -> ~chi_2- nu_e)
#
#         PDG            Width
DECAY   2000011     1.56558732E+01   # selectron_R decays
#          BR         NDA      ID1       ID2
     9.99996316E-01    2     1000022        11   # BR(~e_R -> ~chi_10 e-)
     3.67981671E-06    2     1000023        11   # BR(~e_R -> ~chi_20 e-)
     1.90329239E-09    2     1000025        11   # BR(~e_R -> ~chi_30 e-)
     2.28420292E-09    2     1000035        11   # BR(~e_R -> ~chi_40 e-)
#
#         PDG            Width
DECAY   1000013     4.02546544E+01   # smuon_L decays
#          BR         NDA      ID1       ID2
     9.68390481E-02    2     1000022        13   # BR(~mu_L -> ~chi_10 mu-)
     3.01630013E-01    2     1000023        13   # BR(~mu_L -> ~chi_20 mu-)
     1.95915245E-09    2     1000025        13   # BR(~mu_L -> ~chi_30 mu-)
     3.03463111E-09    2     1000035        13   # BR(~mu_L -> ~chi_40 mu-)
     6.01530898E-01    2    -1000024        14   # BR(~mu_L -> ~chi_1- nu_mu)
     3.59080776E-08    2    -1000037        14   # BR(~mu_L -> ~chi_2- nu_mu)
#
#         PDG            Width
DECAY   2000013     1.56558732E+01   # smuon_R decays
#          BR         NDA      ID1       ID2
     9.99996316E-01    2     1000022        13   # BR(~mu_R -> ~chi_10 mu-)
     3.67981671E-06    2     1000023        13   # BR(~mu_R -> ~chi_20 mu-)
     1.90329239E-09    2     1000025        13   # BR(~mu_R -> ~chi_30 mu-)
     2.28420292E-09    2     1000035        13   # BR(~mu_R -> ~chi_40 mu-)
#
#         PDG            Width
DECAY   1000015     2.82444128E+01   # stau_1 decays
#          BR         NDA      ID1       ID2
     3.45945043E-01    2     1000022        15   # BR(~tau_1 -> ~chi_10  tau-)
     2.18441257E-01    2     1000023        15   # BR(~tau_1 -> ~chi_20  tau-)
     4.35613701E-01    2    -1000024        16   # BR(~tau_1 -> ~chi_1-  nu_tau)
#
#         PDG            Width
DECAY   2000015     2.76439125E+01   # stau_2 decays
#          BR         NDA      ID1       ID2
     3.54111046E-01    2     1000022        15   # BR(~tau_2 -> ~chi_10  tau-)
     2.15729337E-01    2     1000023        15   # BR(~tau_2 -> ~chi_20  tau-)
     1.39873909E-05    2     1000025        15   # BR(~tau_2 -> ~chi_30  tau-)
     1.56532411E-05    2     1000035        15   # BR(~tau_2 -> ~chi_40  tau-)
     4.30113999E-01    2    -1000024        16   # BR(~tau_2 -> ~chi_1-  nu_tau)
     1.59780293E-05    2    -1000037        16   # BR(~tau_2 -> ~chi_2-  nu_tau)
#
#         PDG            Width
DECAY   1000012     4.02580146E+01   # snu_eL decays
#          BR         NDA      ID1       ID2
     9.78411291E-02    2     1000022        12   # BR(~nu_eL -> ~chi_10 nu_e)
     3.00149129E-01    2     1000023        12   # BR(~nu_eL -> ~chi_20 nu_e)
     5.92546571E-09    2     1000025        12   # BR(~nu_eL -> ~chi_30 nu_e)
     8.22991790E-09    2     1000035        12   # BR(~nu_eL -> ~chi_40 nu_e)
     6.02009727E-01    2     1000024        11   # BR(~nu_eL -> ~chi_1+ e-)
     3.57641705E-10    2     1000037        11   # BR(~nu_eL -> ~chi_2+ e-)
#
#         PDG            Width
DECAY   1000014     4.02580146E+01   # snu_muL decays
#          BR         NDA      ID1       ID2
     9.78411291E-02    2     1000022        14   # BR(~nu_muL -> ~chi_10 nu_mu)
     3.00149129E-01    2     1000023        14   # BR(~nu_muL -> ~chi_20 nu_mu)
     5.92546571E-09    2     1000025        14   # BR(~nu_muL -> ~chi_30 nu_mu)
     8.22991790E-09    2     1000035        14   # BR(~nu_muL -> ~chi_40 nu_mu)
     6.02009727E-01    2     1000024        13   # BR(~nu_muL -> ~chi_1+ mu-)
     3.57641705E-10    2     1000037        13   # BR(~nu_muL -> ~chi_2+ mu-)
#
#         PDG            Width
DECAY   1000016     4.02579945E+01   # snu_tauL decays
#          BR         NDA      ID1       ID2
     9.78329218E-02    2     1000022        16   # BR(~nu_tauL -> ~chi_10 nu_tau)
     3.00123542E-01    2     1000023        16   # BR(~nu_tauL -> ~chi_20 nu_tau)
     5.62021667E-09    2     1000025        16   # BR(~nu_tauL -> ~chi_30 nu_tau)
     7.78319524E-09    2     1000035        16   # BR(~nu_tauL -> ~chi_40 nu_tau)
     6.02041685E-01    2     1000024        15   # BR(~nu_tauL -> ~chi_1+ tau-)
     1.83794739E-06    2     1000037        15   # BR(~nu_tauL -> ~chi_2+ tau-)
#
#         PDG            Width
DECAY   1000024     7.65551557E-06   # chargino1+ decays
#          BR         NDA      ID1       ID2
     1.00000000E+00    2     1000022        24   # BR(~chi_1+ -> ~chi_10  W+)
#
#         PDG            Width
DECAY   1000037     7.99770914E+01   # chargino2+ decays
#          BR         NDA      ID1       ID2
     4.63445881E-02    2     1000006        -5   # BR(~chi_2+ -> ~t_1     bb)
     7.06647245E-01    2    -1000005         6   # BR(~chi_2+ -> ~b_1*    t )
     3.11807777E-07    2    -1000015        16   # BR(~chi_2+ -> ~tau_1+  nu_tau)
     7.43325007E-02    2     1000024        23   # BR(~chi_2+ -> ~chi_1+  Z )
     2.30246418E-02    2     1000022        24   # BR(~chi_2+ -> ~chi_10  W+)
     7.26105822E-02    2     1000023        24   # BR(~chi_2+ -> ~chi_20  W+)
     7.70401299E-02    2     1000024        25   # BR(~chi_2+ -> ~chi_1+  h )
#
#         PDG            Width
DECAY   1000022     0.00000000E+00   # neutralino1 decays
#
#         PDG            Width
DECAY   1000023     2.77025608E-07   # neutralino2 decays
#          BR         NDA      ID1       ID2
     1.00000000E+00    2     1000022        23   # BR(~chi_20 -> ~chi_10   Z )
#
#         PDG            Width
DECAY   1000025     8.03468197E+01   # neutralino3 decays
#          BR         NDA      ID1       ID2
     1.38487569E-02    2     1000022        23   # BR(~chi_30 -> ~chi_10   Z )
     4.53682416E-02    2     1000023        23   # BR(~chi_30 -> ~chi_20   Z )
     7.21209578E-02    2     1000024       -24   # BR(~chi_30 -> ~chi_1+   W-)
     7.21209578E-02    2    -1000024        24   # BR(~chi_30 -> ~chi_1-   W+)
     1.02474423E-02    2     1000022        25   # BR(~chi_30 -> ~chi_10   h )
     2.90953533E-02    2     1000023        25   # BR(~chi_30 -> ~chi_20   h )
     3.56606705E-01    2     1000006        -6   # BR(~chi_30 -> ~t_1      tb)
     3.56606705E-01    2    -1000006         6   # BR(~chi_30 -> ~t_1*     t )
     2.19922047E-02    2     1000005        -5   # BR(~chi_30 -> ~b_1      bb)
     2.19922047E-02    2    -1000005         5   # BR(~chi_30 -> ~b_1*     b )
     2.35333110E-07    2     1000015       -15   # BR(~chi_30 -> ~tau_1-   tau+)
     2.35333110E-07    2    -1000015        15   # BR(~chi_30 -> ~tau_1+   tau-)
#
#         PDG            Width
DECAY   1000035     7.93236924E+01   # neutralino4 decays
#          BR         NDA      ID1       ID2
     1.00561431E-02    2     1000022        23   # BR(~chi_40 -> ~chi_10   Z )
     2.88421113E-02    2     1000023        23   # BR(~chi_40 -> ~chi_20   Z )
     7.30720578E-02    2     1000024       -24   # BR(~chi_40 -> ~chi_1+   W-)
     7.30720578E-02    2    -1000024        24   # BR(~chi_40 -> ~chi_1-   W+)
     1.45030036E-02    2     1000022        25   # BR(~chi_40 -> ~chi_10   h )
     4.80607723E-02    2     1000023        25   # BR(~chi_40 -> ~chi_20   h )
     3.53899555E-01    2     1000006        -6   # BR(~chi_40 -> ~t_1      tb)
     3.53899555E-01    2    -1000006         6   # BR(~chi_40 -> ~t_1*     t )
     2.22969958E-02    2     1000005        -5   # BR(~chi_40 -> ~b_1      bb)
     2.22969958E-02    2    -1000005         5   # BR(~chi_40 -> ~b_1*     b )
     3.75890918E-07    2     1000015       -15   # BR(~chi_40 -> ~tau_1-   tau+)
     3.75890918E-07    2    -1000015        15   # BR(~chi_40 -> ~tau_1+   tau-)
#
#         PDG            Width
DECAY        25     4.81673079E-03   # h decays
#          BR         NDA      ID1       ID2
     6.68914574E-01    2           5        -5   # BR(h -> b       bb     )
     5.42290025E-02    2         -15        15   # BR(h -> tau+    tau-   )
     1.91971851E-04    2         -13        13   # BR(h -> mu+     mu-    )
     4.07355870E-04    2           3        -3   # BR(h -> s       sb     )
     1.75887040E-02    2           4        -4   # BR(h -> c       cb     )
     5.72930234E-02    2          21        21   # BR(h -> g       g      )
     1.96312489E-03    2          22        22   # BR(h -> gam     gam    )
     1.31046922E-03    2          22        23   # BR(h -> Z       gam    )
     1.76059222E-01    2          24       -24   # BR(h -> W+      W-     )
     2.20425517E-02    2          23        23   # BR(h -> Z       Z      )
#
#         PDG            Width
DECAY        35     1.41241695E+01   # H decays
#          BR         NDA      ID1       ID2
     7.38417442E-01    2           5        -5   # BR(H -> b       bb     )
     1.76062257E-01    2         -15        15   # BR(H -> tau+    tau-   )
     6.22514070E-04    2         -13        13   # BR(H -> mu+     mu-    )
     7.64448751E-04    2           3        -3   # BR(H -> s       sb     )
     2.15652868E-07    2           4        -4   # BR(H -> c       cb     )
     2.15127562E-02    2           6        -6   # BR(H -> t       tb     )
     2.80885635E-05    2          21        21   # BR(H -> g       g      )
     1.47389147E-08    2          22        22   # BR(H -> gam     gam    )
     8.29698277E-09    2          23        22   # BR(H -> Z       gam    )
     2.93480723E-05    2          24       -24   # BR(H -> W+      W-     )
     1.46559360E-05    2          23        23   # BR(H -> Z       Z      )
     7.90692757E-05    2          25        25   # BR(H -> h       h      )
     1.27443974E-23    2          36        36   # BR(H -> A       A      )
     6.66038511E-19    2          23        36   # BR(H -> Z       A      )
     2.36009715E-03    2     1000024  -1000024   # BR(H -> ~chi_1+ ~chi_1-)
     1.11729314E-04    2     1000022   1000022   # BR(H -> ~chi_10 ~chi_10)
     1.17508681E-03    2     1000023   1000023   # BR(H -> ~chi_20 ~chi_20)
     7.26322566E-04    2     1000022   1000023   # BR(H -> ~chi_10 ~chi_20)
     5.80905061E-02    2     1000006  -1000006   # BR(H -> ~t_1    ~t_1*  )
     5.43906002E-06    2     1000005  -1000005   # BR(H -> ~b_1    ~b_1*  )
#
#         PDG            Width
DECAY        36     1.33064026E+01   # A decays
#          BR         NDA      ID1       ID2
     7.83878494E-01    2           5        -5   # BR(A -> b       bb     )
     1.86881008E-01    2         -15        15   # BR(A -> tau+    tau-   )
     6.60765664E-04    2         -13        13   # BR(A -> mu+     mu-    )
     8.11557445E-04    2           3        -3   # BR(A -> s       sb     )
     2.29010008E-07    2           4        -4   # BR(A -> c       cb     )
     2.28326448E-02    2           6        -6   # BR(A -> t       tb     )
     6.72399548E-05    2          21        21   # BR(A -> g       g      )
     3.33671162E-08    2          22        22   # BR(A -> gam     gam    )
     6.61834048E-08    2          23        22   # BR(A -> Z       gam    )
     3.10337497E-05    2          23        25   # BR(A -> Z       h      )
     2.61818096E-03    2     1000024  -1000024   # BR(A -> ~chi_1+ ~chi_1-)
     1.21127353E-04    2     1000022   1000022   # BR(A -> ~chi_10 ~chi_10)
     1.30355718E-03    2     1000023   1000023   # BR(A -> ~chi_20 ~chi_20)
     7.94062338E-04    2     1000022   1000023   # BR(A -> ~chi_10 ~chi_20)
#
#         PDG            Width
DECAY        37     1.03558185E+01   # H+ decays
#          BR         NDA      ID1       ID2
     1.10075903E-03    2           4        -5   # BR(H+ -> c       bb     )
     2.40200220E-01    2         -15        16   # BR(H+ -> tau+    nu_tau )
     8.49289392E-04    2         -13        14   # BR(H+ -> mu+     nu_mu  )
     7.04484681E-06    2           2        -5   # BR(H+ -> u       bb     )
     4.99109521E-05    2           2        -3   # BR(H+ -> u       sb     )
     1.02682878E-03    2           4        -3   # BR(H+ -> c       sb     )
     7.15778824E-01    2           6        -5   # BR(H+ -> t       bb     )
     3.99372448E-05    2          24        25   # BR(H+ -> W+      h      )
     8.01505259E-14    2          24        36   # BR(H+ -> W+      A      )
     2.00326252E-03    2     1000024   1000022   # BR(H+ -> ~chi_1+ ~chi_10)
     7.42482448E-09    2     1000024   1000023   # BR(H+ -> ~chi_1+ ~chi_20)
     3.89439152E-02    2     1000006  -1000005   # BR(H+ -> ~t_1    ~b_1*  )
