#
#                              ======================
#                              | THE SUSYHIT OUTPUT |
#                              ======================
#
#
#              ------------------------------------------------------
#              |     This is the output of the SUSY-HIT package     |
#              |  created by A.Djouadi, M.Muehlleitner and M.Spira. |
#              |  In case of problems with SUSY-HIT email to        |
#              |           margarete.muehlleitner@kit.edu           |
#              |           michael.spira@psi.ch                     |
#              |           abdelhak.djouadi@cern.ch                 |
#              ------------------------------------------------------
#
#              ------------------------------------------------------
#              |  SUSY Les Houches Accord - MSSM Spectrum + Decays  |
#              |              based on the decay programs           |
#              |                                                    |
#              |                     SDECAY 1.5                     |
#              |                                                    |
#              |  Authors: M.Muhlleitner, A.Djouadi and Y.Mambrini  |
#              |  Ref.:    Comput.Phys.Commun.168(2005)46           |
#              |           [hep-ph/0311167]                         |
#              |                                                    |
#              |                     HDECAY 3.4                     |
#              |                                                    |
#              |  By: A.Djouadi,J.Kalinowski,M.Muhlleitner,M.Spira  |
#              |  Ref.:    Comput.Phys.Commun.108(1998)56           |
#              |           [hep-ph/9704448]                         |
#              |                                                    |
#              |                                                    |
#              |  If not stated otherwise all DRbar couplings and   |
#              |  soft SUSY breaking masses are given at the scale  |
#              |  Q=  0.14500244E+04
#              |                                                    |
#              ------------------------------------------------------
#
#
BLOCK DCINFO  # Decay Program information
     1   SDECAY/HDECAY # decay calculator
     2   1.5  /3.4    # version number
#
BLOCK SPINFO  # Spectrum calculator information
     1    SOFTSUSY    # spectrum calculator                
     2    3.7.3       # version number                     
#
BLOCK MODSEL  # Model selection
     1     0   #  nonUniversal                                     
#
BLOCK SMINPUTS  # Standard Model inputs
         1     1.27934000E+02   # alpha_em^-1(M_Z)^MSbar
         2     1.16639000E-05   # G_F [GeV^-2]
         3     1.17200000E-01   # alpha_S(M_Z)^MSbar
         4     9.11870000E+01   # M_Z pole mass
         5     4.19000000E+00   # mb(mb)^MSbar
         6     1.72500000E+02   # mt pole mass
         7     1.77690000E+00   # mtau pole mass
#
BLOCK MINPAR  # Input parameters - minimal models
         3     2.00000000E+01   # tanb                
#
BLOCK EXTPAR  # Input parameters - non-minimal models
         0    -1.00000000E+00   # Set                 
         1     3.49900000E+02   # M_1(MX)             
         2     6.99900000E+02   # M_2(MX)             
         3     2.20000000E+03   # M_3(MX)             
        11     2.94338000E+03   # At(MX)              
        12     0.00000000E+00   # Ab(MX)              
        13     0.00000000E+00   # Atau(MX)            
        23     3.00000000E+03   # mu(MX)              
        25     2.00000000E+01   # tan                 
        26     3.00000000E+03   # mA(pole)            
        31     3.00000000E+03   # meL(MX)             
        32     3.00000000E+03   # mmuL(MX)            
        33     3.00000000E+03   # mtauL(MX)           
        34     3.00000000E+03   # meR(MX)             
        35     3.00000000E+03   # mmuR(MX)            
        36     3.00000000E+03   # mtauR(MX)           
        41     3.00000000E+03   # mqL1(MX)            
        42     3.00000000E+03   # mqL2(MX)            
        43     6.99900000E+02   # mqL3(MX)            
        44     3.00000000E+03   # muR(MX)             
        45     3.00000000E+03   # mcR(MX)             
        46     3.00000000E+03   # mtR(MX)             
        47     3.00000000E+03   # mdR(MX)             
        48     3.00000000E+03   # msR(MX)             
        49     3.00000000E+03   # mbR(MX)             
#
BLOCK MASS  # Mass Spectrum
# PDG code           mass       particle
        24     8.04040349E+01   # W+
        25     1.24034828E+02   # h
        35     3.00016177E+03   # H
        36     2.99999974E+03   # A
        37     3.00092787E+03   # H+
         5     4.81337004E+00   # b-quark pole mass calculated from mb(mb)_Msbar
   1000001     3.03334046E+03   # ~d_L
   2000001     3.02833925E+03   # ~d_R
   1000002     3.03242900E+03   # ~u_L
   2000002     3.02976250E+03   # ~u_R
   1000003     3.03334046E+03   # ~s_L
   2000003     3.02833925E+03   # ~s_R
   1000004     3.03242900E+03   # ~c_L
   2000004     3.02976250E+03   # ~c_R
   1000005     7.95939347E+02   # ~b_1
   2000005     3.02756078E+03   # ~b_2
   1000006     7.94081622E+02   # ~t_1
   2000006     3.01392448E+03   # ~t_2
   1000011     3.00628107E+03   # ~e_L
   2000011     3.00169692E+03   # ~e_R
   1000012     3.00489159E+03   # ~nu_eL
   1000013     3.00628107E+03   # ~mu_L
   2000013     3.00169692E+03   # ~mu_R
   1000014     3.00489159E+03   # ~nu_muL
   1000015     2.98555795E+03   # ~tau_1
   2000015     3.02204456E+03   # ~tau_2
   1000016     3.00479438E+03   # ~nu_tauL
   1000021     2.34124679E+03   # ~g
   1000022     3.52312382E+02   # ~chi_10
   1000023     7.31948295E+02   # ~chi_20
   1000025    -2.99841738E+03   # ~chi_30
   1000035     2.99934656E+03   # ~chi_40
   1000024     7.32108981E+02   # ~chi_1+
   1000037     2.99986746E+03   # ~chi_2+
#
BLOCK NMIX  # Neutralino Mixing Matrix
  1  1     9.99883635E-01   # N_11
  1  2    -7.19562366E-04   # N_12
  1  3     1.50333065E-02   # N_13
  1  4    -2.48981844E-03   # N_14
  2  1     1.15490912E-03   # N_21
  2  2     9.99585965E-01   # N_22
  2  3    -2.76866666E-02   # N_23
  2  4     7.74680507E-03   # N_24
  3  1    -8.85695174E-03   # N_31
  3  2     1.41091126E-02   # N_32
  3  3     7.06878474E-01   # N_33
  3  4     7.07138820E-01   # N_34
  4  1    -1.23668048E-02   # N_41
  4  2     2.50661820E-02   # N_42
  4  3     7.06633053E-01   # N_43
  4  4    -7.07027918E-01   # N_44
#
BLOCK UMIX  # Chargino Mixing Matrix U
  1  1     9.99232676E-01   # U_11
  1  2    -3.91670587E-02   # U_12
  2  1     3.91670587E-02   # U_21
  2  2     9.99232676E-01   # U_22
#
BLOCK VMIX  # Chargino Mixing Matrix V
  1  1     9.99939934E-01   # V_11
  1  2    -1.09603273E-02   # V_12
  2  1     1.09603273E-02   # V_21
  2  2     9.99939934E-01   # V_22
#
BLOCK STOPMIX  # Stop Mixing Matrix
  1  1     9.98841791E-01   # cos(theta_t)
  1  2    -4.81152424E-02   # sin(theta_t)
  2  1     4.81152424E-02   # -sin(theta_t)
  2  2     9.98841791E-01   # cos(theta_t)
#
BLOCK SBOTMIX  # Sbottom Mixing Matrix
  1  1     9.99913931E-01   # cos(theta_b)
  1  2     1.31198549E-02   # sin(theta_b)
  2  1    -1.31198549E-02   # -sin(theta_b)
  2  2     9.99913931E-01   # cos(theta_b)
#
BLOCK STAUMIX  # Stau Mixing Matrix
  1  1     7.06953784E-01   # cos(theta_tau)
  1  2     7.07259745E-01   # sin(theta_tau)
  2  1    -7.07259745E-01   # -sin(theta_tau)
  2  2     7.06953784E-01   # cos(theta_tau)
#
BLOCK ALPHA  # Higgs mixing
          -5.01864170E-02   # Mixing angle in the neutral Higgs boson sector
#
BLOCK HMIX Q=  1.45002436E+03  # DRbar Higgs Parameters
         1     3.00000000E+03   # mu(Q)MSSM           
         2     2.00000000E+01   # tan                 
         3     2.44343203E+02   # higgs               
         4     7.20498464E+06   # mA^2(Q)MSSM         
#
BLOCK GAUGE Q=  1.45002436E+03  # The gauge couplings
     1     3.62060316E-01   # gprime(Q) DRbar
     2     6.37004112E-01   # g(Q) DRbar
     3     1.02710631E+00   # g3(Q) DRbar
#
BLOCK AU Q=  1.45002436E+03  # The trilinear couplings
  1  1     1.99120164E-06   # A_u(Q) DRbar
  2  2     1.99123011E-06   # A_c(Q) DRbar
  3  3     2.94338000E+03   # A_t(Q) DRbar
#
BLOCK AD Q=  1.45002436E+03  # The trilinear couplings
  1  1     5.44034474E-07   # A_d(Q) DRbar
  2  2     5.44128102E-07   # A_s(Q) DRbar
  3  3     1.17494433E-06   # A_b(Q) DRbar
#
BLOCK AE Q=  1.45002436E+03  # The trilinear couplings
  1  1     0.00000000E+00   # A_e(Q) DRbar
  2  2     1.10263749E-07   # A_mu(Q) DRbar
  3  3     1.11553897E-07   # A_tau(Q) DRbar
#
BLOCK Yu Q=  1.45002436E+03  # The Yukawa couplings
  1  1     0.00000000E+00   # y_u(Q) DRbar
  2  2     0.00000000E+00   # y_c(Q) DRbar
  3  3     8.52568890E-01   # y_t(Q) DRbar
#
BLOCK Yd Q=  1.45002436E+03  # The Yukawa couplings
  1  1     0.00000000E+00   # y_d(Q) DRbar
  2  2     0.00000000E+00   # y_s(Q) DRbar
  3  3     2.15663954E-01   # y_b(Q) DRbar
#
BLOCK Ye Q=  1.45002436E+03  # The Yukawa couplings
  1  1     0.00000000E+00   # y_e(Q) DRbar
  2  2     0.00000000E+00   # y_mu(Q) DRbar
  3  3     2.07378183E-01   # y_tau(Q) DRbar
#
BLOCK MSOFT Q=  1.45002436E+03  # The soft SUSY breaking masses at the scale Q
         1     3.49900000E+02   # M_1(Q)              
         2     6.99900000E+02   # M_2(Q)              
         3     2.20000000E+03   # M_3(Q)              
        21    -8.64133488E+04   # M^2_Hd              
        22    -9.06903296E+06   # M^2_Hu              
        31     3.00000000E+03   # M_eL                
        32     3.00000000E+03   # M_muL               
        33     3.00000000E+03   # M_tauL              
        34     3.00000000E+03   # M_eR                
        35     3.00000000E+03   # M_muR               
        36     3.00000000E+03   # M_tauR              
        41     3.00000000E+03   # M_q1L               
        42     3.00000000E+03   # M_q2L               
        43     6.99899993E+02   # M_q3L               
        44     3.00000000E+03   # M_uR                
        45     3.00000000E+03   # M_cR                
        46     3.00000000E+03   # M_tR                
        47     3.00000000E+03   # M_dR                
        48     3.00000000E+03   # M_sR                
        49     3.00000000E+03   # M_bR                
#
#
#
#                             =================
#                             |The decay table|
#                             =================
#
# - The QCD corrections to the decays gluino -> squark  + quark
#                                     squark -> gaugino + quark_prime
#                                     squark -> squark_prime + Higgs
#                                     squark -> gluino  + quark
#   are included.
#
# - The multi-body decays for the inos, stops and sbottoms are included.
#
# - The loop induced decays for the gluino, neutralinos and stops
#   are included.
#
# - The SUSY decays of the top quark are included.
#
#
#         PDG            Width
DECAY         6     1.40834312E+00   # top decays
#          BR         NDA      ID1       ID2
     1.00000000E+00    2           5        24   # BR(t ->  b    W+)
#
#         PDG            Width
DECAY   1000021     7.39653916E+01   # gluino decays
#          BR         NDA      ID1       ID2
     2.48230668E-01    2     1000005        -5   # BR(~g -> ~b_1  bb)
     2.48230668E-01    2    -1000005         5   # BR(~g -> ~b_1* b )
     2.51769332E-01    2     1000006        -6   # BR(~g -> ~t_1  tb)
     2.51769332E-01    2    -1000006         6   # BR(~g -> ~t_1* t )
#
#         PDG            Width
DECAY   1000006     2.17809772E-01   # stop1 decays
#          BR         NDA      ID1       ID2
     2.88261879E-01    2     1000022         6   # BR(~t_1 -> ~chi_10 t )
     7.11738121E-01    2     1000024         5   # BR(~t_1 -> ~chi_1+ b )
#
#         PDG            Width
DECAY   2000006     1.02080856E+02   # stop2 decays
#          BR         NDA      ID1       ID2
     6.30619160E-02    2     1000022         6   # BR(~t_2 -> ~chi_10 t )
     3.68634393E-04    2     1000023         6   # BR(~t_2 -> ~chi_20 t )
     0.00000000E+00    2     1000025         6   # BR(~t_2 -> ~chi_30 t )
     7.41047049E-04    2     1000024         5   # BR(~t_2 -> ~chi_1+ b )
     3.83918672E-05    2     1000037         5   # BR(~t_2 -> ~chi_2+ b )
     3.29900391E-01    2     1000021         6   # BR(~t_2 -> ~g      t )
     1.59215568E-01    2     1000006        25   # BR(~t_2 -> ~t_1    h )
     1.50138160E-01    2     1000006        23   # BR(~t_2 -> ~t_1    Z )
     2.96535892E-01    2     1000005        24   # BR(~t_2 -> ~b_1    W+)
#
#         PDG            Width
DECAY   1000005     1.60556300E-01   # sbottom1 decays
#          BR         NDA      ID1       ID2
     4.86755868E-01    2     1000022         5   # BR(~b_1 -> ~chi_10 b )
     5.13244132E-01    2     1000023         5   # BR(~b_1 -> ~chi_20 b )
#
#         PDG            Width
DECAY   2000005     4.22993536E+01   # sbottom2 decays
#          BR         NDA      ID1       ID2
     3.84517020E-02    2     1000022         5   # BR(~b_2 -> ~chi_10 b )
     1.08892279E-07    2     1000023         5   # BR(~b_2 -> ~chi_20 b )
     1.28054798E-05    2     1000025         5   # BR(~b_2 -> ~chi_30 b )
     1.22020223E-05    2     1000035         5   # BR(~b_2 -> ~chi_40 b )
     5.43536962E-08    2    -1000024         6   # BR(~b_2 -> ~chi_1- t )
     8.27641947E-01    2     1000021         5   # BR(~b_2 -> ~g      b )
     2.97098216E-02    2     1000005        25   # BR(~b_2 -> ~b_1    h )
     4.27477015E-02    2     1000005        23   # BR(~b_2 -> ~b_1    Z )
     6.14236568E-02    2     1000006       -24   # BR(~b_2 -> ~t_1    W-)
#
#         PDG            Width
DECAY   1000002     6.69140239E+01   # sup_L decays
#          BR         NDA      ID1       ID2
     6.04418377E-03    2     1000022         2   # BR(~u_L -> ~chi_10 u)
     1.54988059E-01    2     1000023         2   # BR(~u_L -> ~chi_20 u)
     1.55459269E-08    2     1000025         2   # BR(~u_L -> ~chi_30 u)
     4.92216060E-08    2     1000035         2   # BR(~u_L -> ~chi_40 u)
     3.10043401E-01    2     1000024         1   # BR(~u_L -> ~chi_1+ d)
     2.22073595E-08    2     1000037         1   # BR(~u_L -> ~chi_2+ d)
     5.28924270E-01    2     1000021         2   # BR(~u_L -> ~g      u)
#
#         PDG            Width
DECAY   2000002     4.16920725E+01   # sup_R decays
#          BR         NDA      ID1       ID2
     1.56247792E-01    2     1000022         2   # BR(~u_R -> ~chi_10 u)
     1.90412970E-07    2     1000023         2   # BR(~u_R -> ~chi_20 u)
     6.21190192E-09    2     1000025         2   # BR(~u_R -> ~chi_30 u)
     1.14224514E-08    2     1000035         2   # BR(~u_R -> ~chi_40 u)
     8.43752000E-01    2     1000021         2   # BR(~u_R -> ~g      u)
#
#         PDG            Width
DECAY   1000001     6.69672786E+01   # sdown_L decays
#          BR         NDA      ID1       ID2
     6.13383047E-03    2     1000022         1   # BR(~d_L -> ~chi_10 d)
     1.54788348E-01    2     1000023         1   # BR(~d_L -> ~chi_20 d)
     2.63667424E-08    2     1000025         1   # BR(~d_L -> ~chi_30 d)
     7.54192703E-08    2     1000035         1   # BR(~d_L -> ~chi_40 d)
     3.09476895E-01    2    -1000024         2   # BR(~d_L -> ~chi_1- u)
     2.98901075E-07    2    -1000037         2   # BR(~d_L -> ~chi_2- u)
     5.29600525E-01    2     1000021         1   # BR(~d_L -> ~g      d)
#
#         PDG            Width
DECAY   2000001     3.66910613E+01   # sdown_R decays
#          BR         NDA      ID1       ID2
     4.43635753E-02    2     1000022         1   # BR(~d_R -> ~chi_10 d)
     5.40592984E-08    2     1000023         1   # BR(~d_R -> ~chi_20 d)
     1.61290495E-09    2     1000025         1   # BR(~d_R -> ~chi_30 d)
     2.95739372E-09    2     1000035         1   # BR(~d_R -> ~chi_40 d)
     9.55636366E-01    2     1000021         1   # BR(~d_R -> ~g      d)
#
#         PDG            Width
DECAY   1000004     6.69140239E+01   # scharm_L decays
#          BR         NDA      ID1       ID2
     6.04418377E-03    2     1000022         4   # BR(~c_L -> ~chi_10 c)
     1.54988059E-01    2     1000023         4   # BR(~c_L -> ~chi_20 c)
     1.55459269E-08    2     1000025         4   # BR(~c_L -> ~chi_30 c)
     4.92216060E-08    2     1000035         4   # BR(~c_L -> ~chi_40 c)
     3.10043401E-01    2     1000024         3   # BR(~c_L -> ~chi_1+ s)
     2.22073595E-08    2     1000037         3   # BR(~c_L -> ~chi_2+ s)
     5.28924270E-01    2     1000021         4   # BR(~c_L -> ~g      c)
#
#         PDG            Width
DECAY   2000004     4.16920725E+01   # scharm_R decays
#          BR         NDA      ID1       ID2
     1.56247792E-01    2     1000022         4   # BR(~c_R -> ~chi_10 c)
     1.90412970E-07    2     1000023         4   # BR(~c_R -> ~chi_20 c)
     6.21190192E-09    2     1000025         4   # BR(~c_R -> ~chi_30 c)
     1.14224514E-08    2     1000035         4   # BR(~c_R -> ~chi_40 c)
     8.43752000E-01    2     1000021         4   # BR(~c_R -> ~g      c)
#
#         PDG            Width
DECAY   1000003     6.69672786E+01   # sstrange_L decays
#          BR         NDA      ID1       ID2
     6.13383047E-03    2     1000022         3   # BR(~s_L -> ~chi_10 s)
     1.54788348E-01    2     1000023         3   # BR(~s_L -> ~chi_20 s)
     2.63667424E-08    2     1000025         3   # BR(~s_L -> ~chi_30 s)
     7.54192703E-08    2     1000035         3   # BR(~s_L -> ~chi_40 s)
     3.09476895E-01    2    -1000024         4   # BR(~s_L -> ~chi_1- c)
     2.98901075E-07    2    -1000037         4   # BR(~s_L -> ~chi_2- c)
     5.29600525E-01    2     1000021         3   # BR(~s_L -> ~g      s)
#
#         PDG            Width
DECAY   2000003     3.66910613E+01   # sstrange_R decays
#          BR         NDA      ID1       ID2
     4.43635753E-02    2     1000022         3   # BR(~s_R -> ~chi_10 s)
     5.40592984E-08    2     1000023         3   # BR(~s_R -> ~chi_20 s)
     1.61290495E-09    2     1000025         3   # BR(~s_R -> ~chi_30 s)
     2.95739372E-09    2     1000035         3   # BR(~s_R -> ~chi_40 s)
     9.55636366E-01    2     1000021         3   # BR(~s_R -> ~g      s)
#
#         PDG            Width
DECAY   1000011     3.59885712E+01   # selectron_L decays
#          BR         NDA      ID1       ID2
     1.05660725E-01    2     1000022        11   # BR(~e_L -> ~chi_10 e-)
     2.98525677E-01    2     1000023        11   # BR(~e_L -> ~chi_20 e-)
     7.57983344E-10    2     1000025        11   # BR(~e_L -> ~chi_30 e-)
     2.32924374E-09    2     1000035        11   # BR(~e_L -> ~chi_40 e-)
     5.95813576E-01    2    -1000024        12   # BR(~e_L -> ~chi_1- nu_e)
     1.87931861E-08    2    -1000037        12   # BR(~e_L -> ~chi_2- nu_e)
#
#         PDG            Width
DECAY   2000011     1.52243739E+01   # selectron_R decays
#          BR         NDA      ID1       ID2
     9.99998786E-01    2     1000022        11   # BR(~e_R -> ~chi_10 e-)
     1.21338681E-06    2     1000023        11   # BR(~e_R -> ~chi_20 e-)
     3.84764947E-10    2     1000025        11   # BR(~e_R -> ~chi_30 e-)
     3.85406793E-10    2     1000035        11   # BR(~e_R -> ~chi_40 e-)
#
#         PDG            Width
DECAY   1000013     3.59885712E+01   # smuon_L decays
#          BR         NDA      ID1       ID2
     1.05660725E-01    2     1000022        13   # BR(~mu_L -> ~chi_10 mu-)
     2.98525677E-01    2     1000023        13   # BR(~mu_L -> ~chi_20 mu-)
     7.57983344E-10    2     1000025        13   # BR(~mu_L -> ~chi_30 mu-)
     2.32924374E-09    2     1000035        13   # BR(~mu_L -> ~chi_40 mu-)
     5.95813576E-01    2    -1000024        14   # BR(~mu_L -> ~chi_1- nu_mu)
     1.87931861E-08    2    -1000037        14   # BR(~mu_L -> ~chi_2- nu_mu)
#
#         PDG            Width
DECAY   2000013     1.52243739E+01   # smuon_R decays
#          BR         NDA      ID1       ID2
     9.99998786E-01    2     1000022        13   # BR(~mu_R -> ~chi_10 mu-)
     1.21338681E-06    2     1000023        13   # BR(~mu_R -> ~chi_20 mu-)
     3.84764947E-10    2     1000025        13   # BR(~mu_R -> ~chi_30 mu-)
     3.85406793E-10    2     1000035        13   # BR(~mu_R -> ~chi_40 mu-)
#
#         PDG            Width
DECAY   1000015     2.58639827E+01   # stau_1 decays
#          BR         NDA      ID1       ID2
     3.67562853E-01    2     1000022        15   # BR(~tau_1 -> ~chi_10  tau-)
     2.11116400E-01    2     1000023        15   # BR(~tau_1 -> ~chi_20  tau-)
     4.21320748E-01    2    -1000024        16   # BR(~tau_1 -> ~chi_1-  nu_tau)
#
#         PDG            Width
DECAY   2000015     2.53257572E+01   # stau_2 decays
#          BR         NDA      ID1       ID2
     3.76246272E-01    2     1000022        15   # BR(~tau_2 -> ~chi_10  tau-)
     2.08224016E-01    2     1000023        15   # BR(~tau_2 -> ~chi_20  tau-)
     1.20971822E-05    2     1000025        15   # BR(~tau_2 -> ~chi_30  tau-)
     1.35099094E-05    2     1000035        15   # BR(~tau_2 -> ~chi_40  tau-)
     4.15490429E-01    2    -1000024        16   # BR(~tau_2 -> ~chi_1-  nu_tau)
     1.36764371E-05    2    -1000037        16   # BR(~tau_2 -> ~chi_2-  nu_tau)
#
#         PDG            Width
DECAY   1000012     3.59895648E+01   # snu_eL decays
#          BR         NDA      ID1       ID2
     1.06142457E-01    2     1000022        12   # BR(~nu_eL -> ~chi_10 nu_e)
     2.97562016E-01    2     1000023        12   # BR(~nu_eL -> ~chi_20 nu_e)
     2.28826752E-09    2     1000025        12   # BR(~nu_eL -> ~chi_30 nu_e)
     4.71982686E-09    2     1000035        12   # BR(~nu_eL -> ~chi_40 nu_e)
     5.96295519E-01    2     1000024        11   # BR(~nu_eL -> ~chi_1+ e-)
     9.03881610E-10    2     1000037        11   # BR(~nu_eL -> ~chi_2+ e-)
#
#         PDG            Width
DECAY   1000014     3.59895648E+01   # snu_muL decays
#          BR         NDA      ID1       ID2
     1.06142457E-01    2     1000022        14   # BR(~nu_muL -> ~chi_10 nu_mu)
     2.97562016E-01    2     1000023        14   # BR(~nu_muL -> ~chi_20 nu_mu)
     2.28826752E-09    2     1000025        14   # BR(~nu_muL -> ~chi_30 nu_mu)
     4.71982686E-09    2     1000035        14   # BR(~nu_muL -> ~chi_40 nu_mu)
     5.96295519E-01    2     1000024        13   # BR(~nu_muL -> ~chi_1+ mu-)
     9.03881610E-10    2     1000037        13   # BR(~nu_muL -> ~chi_2+ mu-)
#
#         PDG            Width
DECAY   1000016     3.59914621E+01   # snu_tauL decays
#          BR         NDA      ID1       ID2
     1.06133237E-01    2     1000022        16   # BR(~nu_tauL -> ~chi_10 nu_tau)
     2.97534276E-01    2     1000023        16   # BR(~nu_tauL -> ~chi_20 nu_tau)
     2.22009345E-09    2     1000025        16   # BR(~nu_tauL -> ~chi_30 nu_tau)
     4.55584520E-09    2     1000035        16   # BR(~nu_tauL -> ~chi_40 nu_tau)
     5.96331748E-01    2     1000024        15   # BR(~nu_tauL -> ~chi_1+ tau-)
     7.32271000E-07    2     1000037        15   # BR(~nu_tauL -> ~chi_2+ tau-)
#
#         PDG            Width
DECAY   1000024     1.92978420E-04   # chargino1+ decays
#          BR         NDA      ID1       ID2
     1.00000000E+00    2     1000022        24   # BR(~chi_1+ -> ~chi_10  W+)
#
#         PDG            Width
DECAY   1000037     8.51072534E+01   # chargino2+ decays
#          BR         NDA      ID1       ID2
     4.81932971E-02    2     1000006        -5   # BR(~chi_2+ -> ~t_1     bb)
     7.18141687E-01    2    -1000005         6   # BR(~chi_2+ -> ~b_1*    t )
     5.27842266E-07    2    -1000015        16   # BR(~chi_2+ -> ~tau_1+  nu_tau)
     6.99177702E-02    2     1000024        23   # BR(~chi_2+ -> ~chi_1+  Z )
     2.18993102E-02    2     1000022        24   # BR(~chi_2+ -> ~chi_10  W+)
     6.81139146E-02    2     1000023        24   # BR(~chi_2+ -> ~chi_20  W+)
     7.37334934E-02    2     1000024        25   # BR(~chi_2+ -> ~chi_1+  h )
#
#         PDG            Width
DECAY   1000022     0.00000000E+00   # neutralino1 decays
#
#         PDG            Width
DECAY   1000023     1.73652724E-04   # neutralino2 decays
#          BR         NDA      ID1       ID2
     5.55113403E-02    2     1000022        23   # BR(~chi_20 -> ~chi_10   Z )
     9.44488660E-01    2     1000022        25   # BR(~chi_20 -> ~chi_10   h )
#
#         PDG            Width
DECAY   1000025     8.52476597E+01   # neutralino3 decays
#          BR         NDA      ID1       ID2
     1.49352853E-02    2     1000022        23   # BR(~chi_30 -> ~chi_10   Z )
     5.29093240E-02    2     1000023        23   # BR(~chi_30 -> ~chi_20   Z )
     6.78876133E-02    2     1000024       -24   # BR(~chi_30 -> ~chi_1+   W-)
     6.78876133E-02    2    -1000024        24   # BR(~chi_30 -> ~chi_1-   W+)
     7.91429984E-03    2     1000022        25   # BR(~chi_30 -> ~chi_10   h )
     1.70478192E-02    2     1000023        25   # BR(~chi_30 -> ~chi_20   h )
     3.62672048E-01    2     1000006        -6   # BR(~chi_30 -> ~t_1      tb)
     3.62672048E-01    2    -1000006         6   # BR(~chi_30 -> ~t_1*     t )
     2.30365313E-02    2     1000005        -5   # BR(~chi_30 -> ~b_1      bb)
     2.30365313E-02    2    -1000005         5   # BR(~chi_30 -> ~b_1*     b )
     4.42746077E-07    2     1000015       -15   # BR(~chi_30 -> ~tau_1-   tau+)
     4.42746077E-07    2    -1000015        15   # BR(~chi_30 -> ~tau_1+   tau-)
#
#         PDG            Width
DECAY   1000035     8.44953328E+01   # neutralino4 decays
#          BR         NDA      ID1       ID2
     7.73089625E-03    2     1000022        23   # BR(~chi_40 -> ~chi_10   Z )
     1.69520347E-02    2     1000023        23   # BR(~chi_40 -> ~chi_20   Z )
     6.85365036E-02    2     1000024       -24   # BR(~chi_40 -> ~chi_1+   W-)
     6.85365036E-02    2    -1000024        24   # BR(~chi_40 -> ~chi_1-   W+)
     1.56529216E-02    2     1000022        25   # BR(~chi_40 -> ~chi_10   h )
     5.69937126E-02    2     1000023        25   # BR(~chi_40 -> ~chi_20   h )
     3.59491538E-01    2     1000006        -6   # BR(~chi_40 -> ~t_1      tb)
     3.59491538E-01    2    -1000006         6   # BR(~chi_40 -> ~t_1*     t )
     2.33065299E-02    2     1000005        -5   # BR(~chi_40 -> ~b_1      bb)
     2.33065299E-02    2    -1000005         5   # BR(~chi_40 -> ~b_1*     b )
     6.45756949E-07    2     1000015       -15   # BR(~chi_40 -> ~tau_1-   tau+)
     6.45756949E-07    2    -1000015        15   # BR(~chi_40 -> ~tau_1+   tau-)
#
#         PDG            Width
DECAY        25     4.71859282E-03   # h decays
#          BR         NDA      ID1       ID2
     6.87138963E-01    2           5        -5   # BR(h -> b       bb     )
     5.49026309E-02    2         -15        15   # BR(h -> tau+    tau-   )
     1.94360612E-04    2         -13        13   # BR(h -> mu+     mu-    )
     4.13119507E-04    2           3        -3   # BR(h -> s       sb     )
     1.78297176E-02    2           4        -4   # BR(h -> c       cb     )
     5.72468511E-02    2          21        21   # BR(h -> g       g      )
     1.92921306E-03    2          22        22   # BR(h -> gam     gam    )
     1.21359132E-03    2          22        23   # BR(h -> Z       gam    )
     1.59496013E-01    2          24       -24   # BR(h -> W+      W-     )
     1.96355403E-02    2          23        23   # BR(h -> Z       Z      )
#
#         PDG            Width
DECAY        35     1.39460938E+01   # H decays
#          BR         NDA      ID1       ID2
     7.45141475E-01    2           5        -5   # BR(H -> b       bb     )
     1.78314288E-01    2         -15        15   # BR(H -> tau+    tau-   )
     6.30476710E-04    2         -13        13   # BR(H -> mu+     mu-    )
     7.74224510E-04    2           3        -3   # BR(H -> s       sb     )
     2.18508937E-07    2           4        -4   # BR(H -> c       cb     )
     2.17976785E-02    2           6        -6   # BR(H -> t       tb     )
     2.96359580E-05    2          21        21   # BR(H -> g       g      )
     4.97083950E-08    2          22        22   # BR(H -> gam     gam    )
     8.38576296E-09    2          23        22   # BR(H -> Z       gam    )
     3.28964899E-05    2          24       -24   # BR(H -> W+      W-     )
     1.64279707E-05    2          23        23   # BR(H -> Z       Z      )
     8.47460742E-05    2          25        25   # BR(H -> h       h      )
    -5.62958105E-23    2          36        36   # BR(H -> A       A      )
     8.76499046E-18    2          23        36   # BR(H -> Z       A      )
     1.80541185E-03    2     1000024  -1000024   # BR(H -> ~chi_1+ ~chi_1-)
     1.06643989E-04    2     1000022   1000022   # BR(H -> ~chi_10 ~chi_10)
     9.00561163E-04    2     1000023   1000023   # BR(H -> ~chi_20 ~chi_20)
     6.37763020E-04    2     1000022   1000023   # BR(H -> ~chi_10 ~chi_20)
     4.97214167E-02    2     1000006  -1000006   # BR(H -> ~t_1    ~t_1*  )
     6.07824868E-06    2     1000005  -1000005   # BR(H -> ~b_1    ~b_1*  )
#
#         PDG            Width
DECAY        36     1.32687253E+01   # A decays
#          BR         NDA      ID1       ID2
     7.83247968E-01    2           5        -5   # BR(A -> b       bb     )
     1.87411657E-01    2         -15        15   # BR(A -> tau+    tau-   )
     6.62641906E-04    2         -13        13   # BR(A -> mu+     mu-    )
     8.13861866E-04    2           3        -3   # BR(A -> s       sb     )
     2.29660283E-07    2           4        -4   # BR(A -> c       cb     )
     2.28974782E-02    2           6        -6   # BR(A -> t       tb     )
     6.74308876E-05    2          21        21   # BR(A -> g       g      )
     5.35954723E-08    2          22        22   # BR(A -> gam     gam    )
     6.64589419E-08    2          23        22   # BR(A -> Z       gam    )
     3.44456650E-05    2          23        25   # BR(A -> Z       h      )
     2.63438099E-03    2     1000024  -1000024   # BR(A -> ~chi_1+ ~chi_1-)
     1.22632558E-04    2     1000022   1000022   # BR(A -> ~chi_10 ~chi_10)
     1.31392421E-03    2     1000023   1000023   # BR(A -> ~chi_20 ~chi_20)
     7.93229113E-04    2     1000022   1000023   # BR(A -> ~chi_10 ~chi_20)
#
#         PDG            Width
DECAY        37     1.01242566E+01   # H+ decays
#          BR         NDA      ID1       ID2
     1.09955071E-03    2           4        -5   # BR(H+ -> c       bb     )
     2.45695387E-01    2         -15        16   # BR(H+ -> tau+    nu_tau )
     8.68718960E-04    2         -13        14   # BR(H+ -> mu+     nu_mu  )
     7.03711352E-06    2           2        -5   # BR(H+ -> u       bb     )
     5.10527517E-05    2           2        -3   # BR(H+ -> u       sb     )
     1.05031927E-03    2           4        -3   # BR(H+ -> c       sb     )
     7.15683762E-01    2           6        -5   # BR(H+ -> t       bb     )
     4.52142233E-05    2          24        25   # BR(H+ -> W+      h      )
     8.95101755E-14    2          24        36   # BR(H+ -> W+      A      )
     1.91480923E-03    2     1000024   1000022   # BR(H+ -> ~chi_1+ ~chi_10)
     2.43897851E-09    2     1000024   1000023   # BR(H+ -> ~chi_1+ ~chi_20)
     3.35841461E-02    2     1000006  -1000005   # BR(H+ -> ~t_1    ~b_1*  )
