#
#                              ======================
#                              | THE SUSYHIT OUTPUT |
#                              ======================
#
#
#              ------------------------------------------------------
#              |     This is the output of the SUSY-HIT package     |
#              |  created by A.Djouadi, M.Muehlleitner and M.Spira. |
#              |  In case of problems with SUSY-HIT email to        |
#              |           margarete.muehlleitner@kit.edu           |
#              |           michael.spira@psi.ch                     |
#              |           abdelhak.djouadi@cern.ch                 |
#              ------------------------------------------------------
#
#              ------------------------------------------------------
#              |  SUSY Les Houches Accord - MSSM Spectrum + Decays  |
#              |              based on the decay programs           |
#              |                                                    |
#              |                     SDECAY 1.5a                    |
#              |                                                    |
#              |  Authors: M.Muhlleitner, A.Djouadi and Y.Mambrini  |
#              |  Ref.:    Comput.Phys.Commun.168(2005)46           |
#              |           [hep-ph/0311167]                         |
#              |                                                    |
#              |                     HDECAY 3.4                     |
#              |                                                    |
#              |  By: A.Djouadi,J.Kalinowski,M.Muhlleitner,M.Spira  |
#              |  Ref.:    Comput.Phys.Commun.108(1998)56           |
#              |           [hep-ph/9704448]                         |
#              |                                                    |
#              |                                                    |
#              |  If not stated otherwise all DRbar couplings and   |
#              |  soft SUSY breaking masses are given at the scale  |
#              |  Q=  0.91187600E+02
#              |                                                    |
#              ------------------------------------------------------
#
#
BLOCK DCINFO  # Decay Program information
     1   SDECAY/HDECAY # decay calculator
     2   1.5a /3.4    # version number
#
BLOCK SPINFO  # Spectrum calculator information
     1   SuSpect     # RGE +Spectrum calculator            
     2   2.43         # version number                     
#
BLOCK MODSEL  # Model selection
     1     2   # GMSB                                              
#
BLOCK SMINPUTS  # Standard Model inputs
         1     1.27932904E+02   # alpha_em^-1(M_Z)^MSbar
         2     1.16639000E-05   # G_F [GeV^-2]
         3     1.17200000E-01   # alpha_S(M_Z)^MSbar
         4     9.11870000E+01   # M_Z pole mass
         5     4.25000000E+00   # mb(mb)^MSbar
         6     1.72900000E+02   # mt pole mass
         7     1.77700000E+00   # mtau pole mass
#
BLOCK MINPAR  # Input parameters - minimal models
#
BLOCK EXTPAR  # Input parameters - non-minimal models
         0     9.11876000E+01   # EWSB                
         1     9.53769956E+02   # M_1                 
         2     3.00000000E+03   # M_2                 
         3     2.20000000E+03   # M_3                 
        11     0.00000000E+00   # A_t                 
        12     0.00000000E+00   # A_b                 
        13     0.00000000E+00   # A_tau               
        14     0.00000000E+00   # A_u                 
        15     0.00000000E+00   # A_d                 
        16     0.00000000E+00   # A_e                 
        23    -9.50000000E+02   # mu(EWSB)            
        25     1.50000000E+00   # tanbeta(in)         
        26     2.00000000E+03   # MA_pole             
        31     5.00000000E+03   # M_eL                
        32     5.00000000E+03   # M_muL               
        33     5.00000000E+03   # M_tauL              
        34     5.00000000E+03   # M_eR                
        35     5.00000000E+03   # M_muR               
        36     5.00000000E+03   # M_tauR              
        41     5.00000000E+03   # M_q1L               
        42     5.00000000E+03   # M_q2L               
        43     5.00000000E+03   # M_q3L               
        44     5.00000000E+03   # M_uR                
        45     5.00000000E+03   # M_cR                
        46     5.00000000E+03   # M_tR                
        47     5.00000000E+03   # M_dR                
        48     5.00000000E+03   # M_sR                
        49     5.00000000E+03   # M_bR                
#
BLOCK MASS  # Mass Spectrum
# PDG code           mass       particle
        24     8.05405278E+01   # W+
        25     1.25000000E+02   # h
        35     2.00415385E+03   # H
        36     2.00000000E+03   # A
        37     2.00179951E+03   # H+
         5     4.87877839E+00   # b-quark pole mass calculated from mb(mb)_Msbar
   1000001     5.00013269E+03   # ~d_L
   2000001     5.00002530E+03   # ~d_R
   1000002     4.99989261E+03   # ~u_L
   2000002     4.99994939E+03   # ~u_R
   1000003     5.00013269E+03   # ~s_L
   2000003     5.00002530E+03   # ~s_R
   1000004     4.99989261E+03   # ~c_L
   2000004     4.99994939E+03   # ~c_R
   1000005     4.99969207E+03   # ~b_1
   2000005     5.00046735E+03   # ~b_2
   1000006     4.99259177E+03   # ~t_1
   2000006     5.01186520E+03   # ~t_2
   1000011     5.00008208E+03   # ~e_L
   2000011     5.00007591E+03   # ~e_R
   1000012     4.99984200E+03   # ~nu_eL
   1000013     5.00008208E+03   # ~mu_L
   2000013     5.00007591E+03   # ~mu_R
   1000014     4.99984200E+03   # ~nu_muL
   1000015     4.99982621E+03   # ~tau_1
   2000015     5.00033240E+03   # ~tau_2
   1000016     4.99984200E+03   # ~nu_tauL
   1000021     2.20000000E+03   # ~g
   1000022     9.43290972E+02   # ~chi_10
   1000023    -9.52514253E+02   # ~chi_20
   1000025     9.61356924E+02   # ~chi_30
   1000035     3.00163631E+03   # ~chi_40
   1000024     9.51401818E+02   # ~chi_1+
   1000037     3.00163603E+03   # ~chi_2+
   1000039     3.48273663E-08   # ~gravitino
#
BLOCK NMIX  # Neutralino Mixing Matrix
  1  1     6.03903360E-01   # N_11
  1  2    -5.47182806E-03   # N_12
  1  3    -5.73487167E-01   # N_13
  1  4    -5.53518979E-01   # N_14
  2  1     2.28438861E-02   # N_21
  2  2    -1.95930880E-02   # N_22
  2  3     7.06599650E-01   # N_23
  2  4    -7.06973269E-01   # N_24
  3  1     7.96729996E-01   # N_31
  3  2     5.27298978E-03   # N_32
  3  3     4.14435475E-01   # N_33
  3  4     4.39814446E-01   # N_34
  4  1     4.49210706E-04   # N_41
  4  2    -9.99779158E-01   # N_42
  4  3    -8.52301415E-03   # N_43
  4  4     1.92039283E-02   # N_44
#
BLOCK UMIX  # Chargino Mixing Matrix U
  1  1    -1.20453064E-02   # U_11
  1  2     9.99927453E-01   # U_12
  2  1     9.99927453E-01   # U_21
  2  2     1.20453064E-02   # U_22
#
BLOCK VMIX  # Chargino Mixing Matrix V
  1  1     2.71577774E-02   # V_11
  1  2    -9.99631160E-01   # V_12
  2  1     9.99631160E-01   # V_21
  2  2     2.71577774E-02   # V_22
#
BLOCK STOPMIX  # Stop Mixing Matrix
  1  1     7.08147117E-01   # cos(theta_t)
  1  2    -7.06064913E-01   # sin(theta_t)
  2  1     7.06064913E-01   # -sin(theta_t)
  2  2     7.08147117E-01   # cos(theta_t)
#
BLOCK SBOTMIX  # Sbottom Mixing Matrix
  1  1    -6.56310617E-01   # cos(theta_b)
  1  2     7.54490804E-01   # sin(theta_b)
  2  1    -7.54490804E-01   # -sin(theta_b)
  2  2    -6.56310617E-01   # cos(theta_b)
#
BLOCK STAUMIX  # Stau Mixing Matrix
  1  1    -7.02784231E-01   # cos(theta_tau)
  1  2     7.11403068E-01   # sin(theta_tau)
  2  1    -7.11403068E-01   # -sin(theta_tau)
  2  2    -7.02784231E-01   # cos(theta_tau)
#
BLOCK ALPHA  # Higgs mixing
          -5.90202832E-01   # Mixing angle in the neutral Higgs boson sector
#
BLOCK HMIX Q=  9.11876000E+01  # DRbar Higgs Parameters
         1    -9.50000000E+02   # mu(Q)               
         2     1.49999979E+00   # tanbeta(Q)          
         3     2.51835735E+02   # vev(Q)              
         4     4.33429896E+06   # MA^2(Q)             
#
BLOCK GAUGE Q=  9.11876000E+01  # The gauge couplings
     1     3.52826151E-01   # gprime(Q) DRbar
     2     6.27450490E-01   # g(Q) DRbar
     3     1.07892484E+00   # g3(Q) DRbar
#
BLOCK AU Q=  9.11876000E+01  # The trilinear couplings
  1  1     0.00000000E+00   # A_u(Q) DRbar
  2  2     0.00000000E+00   # A_c(Q) DRbar
  3  3     0.00000000E+00   # A_t(Q) DRbar
#
BLOCK AD Q=  9.11876000E+01  # The trilinear couplings
  1  1     0.00000000E+00   # A_d(Q) DRbar
  2  2     0.00000000E+00   # A_s(Q) DRbar
  3  3     0.00000000E+00   # A_b(Q) DRbar
#
BLOCK AE Q=  9.11876000E+01  # The trilinear couplings
  1  1     0.00000000E+00   # A_e(Q) DRbar
  2  2     0.00000000E+00   # A_mu(Q) DRbar
  3  3     0.00000000E+00   # A_tau(Q) DRbar
#
BLOCK Yu Q=  9.11876000E+01  # The Yukawa couplings
  1  1     0.00000000E+00   # y_u(Q) DRbar
  2  2     0.00000000E+00   # y_c(Q) DRbar
  3  3     1.02739205E+00   # y_t(Q) DRbar
#
BLOCK Yd Q=  9.11876000E+01  # The Yukawa couplings
  1  1     0.00000000E+00   # y_d(Q) DRbar
  2  2     0.00000000E+00   # y_s(Q) DRbar
  3  3     2.72745183E-02   # y_b(Q) DRbar
#
BLOCK Ye Q=  9.11876000E+01  # The Yukawa couplings
  1  1     0.00000000E+00   # y_e(Q) DRbar
  2  2     0.00000000E+00   # y_mu(Q) DRbar
  3  3     1.79798566E-02   # y_tau(Q) DRbar
#
BLOCK MSOFT Q=  9.11876000E+01  # The soft SUSY breaking masses at the scale Q
         1     9.53769956E+02   # M_1                 
         2     3.00000000E+03   # M_2                 
         3     2.20000000E+03   # M_3                 
        14     0.00000000E+00   # A_u                 
        15     0.00000000E+00   # A_d                 
        16     0.00000000E+00   # A_e                 
        21     2.04595861E+06   # M^2_Hd              
        22    -6.23412034E+06   # M^2_Hu              
        31     5.00000000E+03   # M_eL                
        32     5.00000000E+03   # M_muL               
        33     5.00000000E+03   # M_tauL              
        34     5.00000000E+03   # M_eR                
        35     5.00000000E+03   # M_muR               
        36     5.00000000E+03   # M_tauR              
        41     5.00000000E+03   # M_q1L               
        42     5.00000000E+03   # M_q2L               
        43     5.00000000E+03   # M_q3L               
        44     5.00000000E+03   # M_uR                
        45     5.00000000E+03   # M_cR                
        46     5.00000000E+03   # M_tR                
        47     5.00000000E+03   # M_dR                
        48     5.00000000E+03   # M_sR                
        49     5.00000000E+03   # M_bR                
#
#
#
#                             =================
#                             |The decay table|
#                             =================
#
# - The QCD corrections to the decays gluino -> squark  + quark
#                                     squark -> gaugino + quark_prime
#                                     squark -> squark_prime + Higgs
#                                     squark -> gluino  + quark
#   are included.
#
# - The multi-body decays for the inos, stops and sbottoms are included.
#
# - The loop induced decays for the gluino, neutralinos and stops
#   are included.
#
# - The SUSY decays of the top quark are included.
#
# - Possible decays of the NLSP in GMSB models are included.
#
#
#         PDG            Width
DECAY         6     1.37171226E+00   # top decays
#          BR         NDA      ID1       ID2
     1.00000000E+00    2           5        24   # BR(t ->  b    W+)
#
#         PDG            Width
DECAY   1000021     2.01888483E-03   # gluino decays
#          BR         NDA      ID1       ID2
     7.63541552E-03    2     1000022        21   # BR(~g -> ~chi_10 g)
     1.22541982E-02    2     1000023        21   # BR(~g -> ~chi_20 g)
     4.69349360E-03    2     1000025        21   # BR(~g -> ~chi_30 g)
#          BR         NDA      ID1       ID2
     0.00000000E+00    2     1000039        21   # BR(~g -> ~G      g)
#           BR         NDA      ID1       ID2       ID3
     3.02850487E-03    3     1000022         1        -1   # BR(~g -> ~chi_10 d  db)
     1.18526020E-05    3     1000023         1        -1   # BR(~g -> ~chi_20 d  db)
     4.85720920E-03    3     1000025         1        -1   # BR(~g -> ~chi_30 d  db)
     1.00418469E-02    3     1000022         2        -2   # BR(~g -> ~chi_10 u  ub)
     9.72518578E-06    3     1000023         2        -2   # BR(~g -> ~chi_20 u  ub)
     1.68191587E-02    3     1000025         2        -2   # BR(~g -> ~chi_30 u  ub)
     3.02850487E-03    3     1000022         3        -3   # BR(~g -> ~chi_10 s  sb)
     1.18526020E-05    3     1000023         3        -3   # BR(~g -> ~chi_20 s  sb)
     4.85720920E-03    3     1000025         3        -3   # BR(~g -> ~chi_30 s  sb)
     1.00418469E-02    3     1000022         4        -4   # BR(~g -> ~chi_10 c  cb)
     9.72518578E-06    3     1000023         4        -4   # BR(~g -> ~chi_20 c  cb)
     1.68191587E-02    3     1000025         4        -4   # BR(~g -> ~chi_30 c  cb)
     3.16864860E-03    3     1000022         5        -5   # BR(~g -> ~chi_10 b  bb)
     1.90640172E-04    3     1000023         5        -5   # BR(~g -> ~chi_20 b  bb)
     4.90001457E-03    3     1000025         5        -5   # BR(~g -> ~chi_30 b  bb)
     1.27700599E-01    3     1000022         6        -6   # BR(~g -> ~chi_10 t  tb)
     1.95662696E-01    3     1000023         6        -6   # BR(~g -> ~chi_20 t  tb)
     1.12328540E-01    3     1000025         6        -6   # BR(~g -> ~chi_30 t  tb)
     1.93902118E-05    3     1000024         1        -2   # BR(~g -> ~chi_1+ d  ub)
     1.93902118E-05    3    -1000024         2        -1   # BR(~g -> ~chi_1- u  db)
     1.93902118E-05    3     1000024         3        -4   # BR(~g -> ~chi_1+ s  cb)
     1.93902118E-05    3    -1000024         4        -3   # BR(~g -> ~chi_1- c  sb)
     2.30913684E-01    3     1000024         5        -6   # BR(~g -> ~chi_1+ b  tb)
     2.30913684E-01    3    -1000024         6        -5   # BR(~g -> ~chi_1- t  bb)
#
#         PDG            Width
DECAY   1000006     2.83325067E+02   # stop1 decays
#          BR         NDA      ID1       ID2
     5.62483455E-02    2     1000022         6   # BR(~t_1 -> ~chi_10 t )
     1.14050855E-01    2     1000023         6   # BR(~t_1 -> ~chi_20 t )
     8.18267167E-02    2     1000025         6   # BR(~t_1 -> ~chi_30 t )
     1.46962730E-02    2     1000035         6   # BR(~t_1 -> ~chi_40 t )
     1.13663774E-01    2     1000024         5   # BR(~t_1 -> ~chi_1+ b )
     2.93506432E-02    2     1000037         5   # BR(~t_1 -> ~chi_2+ b )
     5.90163393E-01    2     1000021         6   # BR(~t_1 -> ~g      t )
#
#         PDG            Width
DECAY   2000006     2.97534047E+02   # stop2 decays
#          BR         NDA      ID1       ID2
     9.75383279E-02    2     1000022         6   # BR(~t_2 -> ~chi_10 t )
     1.17417688E-01    2     1000023         6   # BR(~t_2 -> ~chi_20 t )
     3.21125982E-02    2     1000025         6   # BR(~t_2 -> ~chi_30 t )
     1.21734381E-02    2     1000035         6   # BR(~t_2 -> ~chi_40 t )
     1.18222245E-01    2     1000024         5   # BR(~t_2 -> ~chi_1+ b )
     2.43017332E-02    2     1000037         5   # BR(~t_2 -> ~chi_2+ b )
     5.98233969E-01    2     1000021         6   # BR(~t_2 -> ~g      t )
#
#         PDG            Width
DECAY   1000005     2.16939645E+02   # sbottom1 decays
#          BR         NDA      ID1       ID2
     3.67298033E-03    2     1000022         5   # BR(~b_1 -> ~chi_10 b )
     3.61191922E-05    2     1000023         5   # BR(~b_1 -> ~chi_20 b )
     3.89914209E-03    2     1000025         5   # BR(~b_1 -> ~chi_30 b )
     1.65450882E-02    2     1000035         5   # BR(~b_1 -> ~chi_40 b )
     1.47018032E-01    2    -1000024         6   # BR(~b_1 -> ~chi_1- t )
     3.31447826E-02    2    -1000037         6   # BR(~b_1 -> ~chi_2- t )
     7.95683856E-01    2     1000021         5   # BR(~b_1 -> ~g      b )
#
#         PDG            Width
DECAY   2000005     2.22244675E+02   # sbottom2 decays
#          BR         NDA      ID1       ID2
     1.71433501E-03    2     1000022         5   # BR(~b_2 -> ~chi_10 b )
     2.28324959E-04    2     1000023         5   # BR(~b_2 -> ~chi_20 b )
     4.92528896E-03    2     1000025         5   # BR(~b_2 -> ~chi_30 b )
     1.87667072E-02    2     1000035         5   # BR(~b_2 -> ~chi_40 b )
     1.59050789E-01    2    -1000024         6   # BR(~b_2 -> ~chi_1- t )
     3.75939476E-02    2    -1000037         6   # BR(~b_2 -> ~chi_2- t )
     7.77720607E-01    2     1000021         5   # BR(~b_2 -> ~g      b )
#
#         PDG            Width
DECAY   1000002     1.96636767E+02   # sup_L decays
#          BR         NDA      ID1       ID2
     1.03557712E-03    2     1000022         2   # BR(~u_L -> ~chi_10 u)
     2.08911263E-05    2     1000023         2   # BR(~u_L -> ~chi_20 u)
     2.12725313E-03    2     1000025         2   # BR(~u_L -> ~chi_30 u)
     3.94452070E-02    2     1000035         2   # BR(~u_L -> ~chi_40 u)
     1.31472346E-04    2     1000024         1   # BR(~u_L -> ~chi_1+ d)
     7.88803616E-02    2     1000037         1   # BR(~u_L -> ~chi_2+ d)
     8.78359238E-01    2     1000021         2   # BR(~u_L -> ~g      u)
#
#         PDG            Width
DECAY   2000002     1.82568373E+02   # sup_R decays
#          BR         NDA      ID1       ID2
     1.97053215E-02    2     1000022         2   # BR(~u_R -> ~chi_10 u)
     2.81556410E-05    2     1000023         2   # BR(~u_R -> ~chi_20 u)
     3.42014157E-02    2     1000025         2   # BR(~u_R -> ~chi_30 u)
     4.82230483E-09    2     1000035         2   # BR(~u_R -> ~chi_40 u)
     9.46065102E-01    2     1000021         2   # BR(~u_R -> ~g      u)
#
#         PDG            Width
DECAY   1000001     1.96641960E+02   # sdown_L decays
#          BR         NDA      ID1       ID2
     1.25671126E-03    2     1000022         1   # BR(~d_L -> ~chi_10 d)
     5.07969011E-05    2     1000023         1   # BR(~d_L -> ~chi_20 d)
     1.84700655E-03    2     1000025         1   # BR(~d_L -> ~chi_30 d)
     3.94635884E-02    2     1000035         1   # BR(~d_L -> ~chi_40 d)
     2.58639248E-05    2    -1000024         2   # BR(~d_L -> ~chi_1- u)
     7.89373126E-02    2    -1000037         2   # BR(~d_L -> ~chi_2- u)
     8.78418720E-01    2     1000021         1   # BR(~d_L -> ~g      d)
#
#         PDG            Width
DECAY   2000001     1.75188452E+02   # sdown_R decays
#          BR         NDA      ID1       ID2
     5.13394542E-03    2     1000022         1   # BR(~d_R -> ~chi_10 d)
     7.33555810E-06    2     1000023         1   # BR(~d_R -> ~chi_20 d)
     8.91070047E-03    2     1000025         1   # BR(~d_R -> ~chi_30 d)
     1.25642359E-09    2     1000035         1   # BR(~d_R -> ~chi_40 d)
     9.85948017E-01    2     1000021         1   # BR(~d_R -> ~g      d)
#
#         PDG            Width
DECAY   1000004     1.96636767E+02   # scharm_L decays
#          BR         NDA      ID1       ID2
     1.03557712E-03    2     1000022         4   # BR(~c_L -> ~chi_10 c)
     2.08911263E-05    2     1000023         4   # BR(~c_L -> ~chi_20 c)
     2.12725313E-03    2     1000025         4   # BR(~c_L -> ~chi_30 c)
     3.94452070E-02    2     1000035         4   # BR(~c_L -> ~chi_40 c)
     1.31472346E-04    2     1000024         3   # BR(~c_L -> ~chi_1+ s)
     7.88803616E-02    2     1000037         3   # BR(~c_L -> ~chi_2+ s)
     8.78359238E-01    2     1000021         4   # BR(~c_L -> ~g      c)
#
#         PDG            Width
DECAY   2000004     1.82568373E+02   # scharm_R decays
#          BR         NDA      ID1       ID2
     1.97053215E-02    2     1000022         4   # BR(~c_R -> ~chi_10 c)
     2.81556410E-05    2     1000023         4   # BR(~c_R -> ~chi_20 c)
     3.42014157E-02    2     1000025         4   # BR(~c_R -> ~chi_30 c)
     4.82230483E-09    2     1000035         4   # BR(~c_R -> ~chi_40 c)
     9.46065102E-01    2     1000021         4   # BR(~c_R -> ~g      c)
#
#         PDG            Width
DECAY   1000003     1.96641960E+02   # sstrange_L decays
#          BR         NDA      ID1       ID2
     1.25671126E-03    2     1000022         3   # BR(~s_L -> ~chi_10 s)
     5.07969011E-05    2     1000023         3   # BR(~s_L -> ~chi_20 s)
     1.84700655E-03    2     1000025         3   # BR(~s_L -> ~chi_30 s)
     3.94635884E-02    2     1000035         3   # BR(~s_L -> ~chi_40 s)
     2.58639248E-05    2    -1000024         4   # BR(~s_L -> ~chi_1- c)
     7.89373126E-02    2    -1000037         4   # BR(~s_L -> ~chi_2- c)
     8.78418720E-01    2     1000021         3   # BR(~s_L -> ~g      s)
#
#         PDG            Width
DECAY   2000003     1.75188452E+02   # sstrange_R decays
#          BR         NDA      ID1       ID2
     5.13394542E-03    2     1000022         3   # BR(~s_R -> ~chi_10 s)
     7.33555810E-06    2     1000023         3   # BR(~s_R -> ~chi_20 s)
     8.91070047E-03    2     1000025         3   # BR(~s_R -> ~chi_30 s)
     1.25642359E-09    2     1000035         3   # BR(~s_R -> ~chi_40 s)
     9.85948017E-01    2     1000021         3   # BR(~s_R -> ~g      s)
#
#         PDG            Width
DECAY   1000011     2.97931697E+01   # selectron_L decays
#          BR         NDA      ID1       ID2
     6.82385739E-02    2     1000022        11   # BR(~e_L -> ~chi_10 e-)
     2.77912550E-05    2     1000023        11   # BR(~e_L -> ~chi_20 e-)
     1.25242011E-01    2     1000025        11   # BR(~e_L -> ~chi_30 e-)
     2.68627767E-01    2     1000035        11   # BR(~e_L -> ~chi_40 e-)
     1.77155300E-04    2    -1000024        12   # BR(~e_L -> ~chi_1- nu_e)
     5.37686702E-01    2    -1000037        12   # BR(~e_L -> ~chi_2- nu_e)
#
#         PDG            Width
DECAY   2000011     2.29928889E+01   # selectron_R decays
#          BR         NDA      ID1       ID2
     3.65361080E-01    2     1000022        11   # BR(~e_R -> ~chi_10 e-)
     5.22032117E-04    2     1000023        11   # BR(~e_R -> ~chi_20 e-)
     6.34116799E-01    2     1000025        11   # BR(~e_R -> ~chi_30 e-)
     8.89214316E-08    2     1000035        11   # BR(~e_R -> ~chi_40 e-)
#
#         PDG            Width
DECAY   1000013     2.97931697E+01   # smuon_L decays
#          BR         NDA      ID1       ID2
     6.82385739E-02    2     1000022        13   # BR(~mu_L -> ~chi_10 mu-)
     2.77912550E-05    2     1000023        13   # BR(~mu_L -> ~chi_20 mu-)
     1.25242011E-01    2     1000025        13   # BR(~mu_L -> ~chi_30 mu-)
     2.68627767E-01    2     1000035        13   # BR(~mu_L -> ~chi_40 mu-)
     1.77155300E-04    2    -1000024        14   # BR(~mu_L -> ~chi_1- nu_mu)
     5.37686702E-01    2    -1000037        14   # BR(~mu_L -> ~chi_2- nu_mu)
#
#         PDG            Width
DECAY   2000013     2.29928889E+01   # smuon_R decays
#          BR         NDA      ID1       ID2
     3.65361080E-01    2     1000022        13   # BR(~mu_R -> ~chi_10 mu-)
     5.22032117E-04    2     1000023        13   # BR(~mu_R -> ~chi_20 mu-)
     6.34116799E-01    2     1000025        13   # BR(~mu_R -> ~chi_30 mu-)
     8.89214316E-08    2     1000035        13   # BR(~mu_R -> ~chi_40 mu-)
#
#         PDG            Width
DECAY   1000015     2.63820038E+01   # stau_1 decays
#          BR         NDA      ID1       ID2
     2.05090182E-01    2     1000022        15   # BR(~tau_1 -> ~chi_10  tau-)
     1.70710845E-04    2     1000023        15   # BR(~tau_1 -> ~chi_20  tau-)
     3.44567669E-01    2     1000025        15   # BR(~tau_1 -> ~chi_30  tau-)
     1.49911813E-01    2     1000035        15   # BR(~tau_1 -> ~chi_40  tau-)
     1.95870270E-04    2    -1000024        16   # BR(~tau_1 -> ~chi_1-  nu_tau)
     3.00063643E-01    2    -1000037        16   # BR(~tau_1 -> ~chi_2-  nu_tau)
     1.12411801E-07    2     1000039        15   # BR(~tau_1 -> ~G       tau-)
#
#         PDG            Width
DECAY   2000015     2.64936734E+01   # stau_2 decays
#          BR         NDA      ID1       ID2
     1.90338085E-01    2     1000022        15   # BR(~tau_2 -> ~chi_10  tau-)
     1.44022524E-03    2     1000023        15   # BR(~tau_2 -> ~chi_20  tau-)
     3.48436641E-01    2     1000025        15   # BR(~tau_2 -> ~chi_30  tau-)
     1.52802595E-01    2     1000035        15   # BR(~tau_2 -> ~chi_40  tau-)
     1.13153736E-03    2    -1000024        16   # BR(~tau_2 -> ~chi_1-  nu_tau)
     3.05850917E-01    2    -1000037        16   # BR(~tau_2 -> ~chi_2-  nu_tau)
#
#         PDG            Width
DECAY   1000012     2.97913170E+01   # snu_eL decays
#          BR         NDA      ID1       ID2
     7.27825149E-02    2     1000022        12   # BR(~nu_eL -> ~chi_10 nu_e)
     6.42301911E-04    2     1000023        12   # BR(~nu_eL -> ~chi_20 nu_e)
     1.19482973E-01    2     1000025        12   # BR(~nu_eL -> ~chi_30 nu_e)
     2.68874094E-01    2     1000035        12   # BR(~nu_eL -> ~chi_40 nu_e)
     9.00554321E-04    2     1000024        11   # BR(~nu_eL -> ~chi_1+ e-)
     5.37317561E-01    2     1000037        11   # BR(~nu_eL -> ~chi_2+ e-)
#
#         PDG            Width
DECAY   1000014     2.97913170E+01   # snu_muL decays
#          BR         NDA      ID1       ID2
     7.27825149E-02    2     1000022        14   # BR(~nu_muL -> ~chi_10 nu_mu)
     6.42301911E-04    2     1000023        14   # BR(~nu_muL -> ~chi_20 nu_mu)
     1.19482973E-01    2     1000025        14   # BR(~nu_muL -> ~chi_30 nu_mu)
     2.68874094E-01    2     1000035        14   # BR(~nu_muL -> ~chi_40 nu_mu)
     9.00554321E-04    2     1000024        13   # BR(~nu_muL -> ~chi_1+ mu-)
     5.37317561E-01    2     1000037        13   # BR(~nu_muL -> ~chi_2+ mu-)
#
#         PDG            Width
DECAY   1000016     2.98211893E+01   # snu_tauL decays
#          BR         NDA      ID1       ID2
     7.27096077E-02    2     1000022        16   # BR(~nu_tauL -> ~chi_10 nu_tau)
     6.41658509E-04    2     1000023        16   # BR(~nu_tauL -> ~chi_20 nu_tau)
     1.19363286E-01    2     1000025        16   # BR(~nu_tauL -> ~chi_30 nu_tau)
     2.68604760E-01    2     1000035        16   # BR(~nu_tauL -> ~chi_40 nu_tau)
     1.90138530E-03    2     1000024        15   # BR(~nu_tauL -> ~chi_1+ tau-)
     5.36779303E-01    2     1000037        15   # BR(~nu_tauL -> ~chi_2+ tau-)
#
#         PDG            Width
DECAY   1000024     2.33380602E-08   # chargino1+ decays
#          BR         NDA      ID1       ID2
     1.54237906E-02    2     1000039        24   # BR(~chi_1+ -> ~G       W+)
#           BR         NDA      ID1       ID2       ID3
     3.52385697E-01    3     1000022         2        -1   # BR(~chi_1+ -> ~chi_10 u    db)
     3.04114072E-01    3     1000022         4        -3   # BR(~chi_1+ -> ~chi_10 c    sb)
     1.17462586E-01    3     1000022       -11        12   # BR(~chi_1+ -> ~chi_10 e+   nu_e)
     1.17363044E-01    3     1000022       -13        14   # BR(~chi_1+ -> ~chi_10 mu+  nu_mu)
     9.32508099E-02    3     1000022       -15        16   # BR(~chi_1+ -> ~chi_10 tau+ nu_tau)
#
#         PDG            Width
DECAY   1000037     1.55289935E+01   # chargino2+ decays
#          BR         NDA      ID1       ID2
     1.73555816E-01    2     1000024        23   # BR(~chi_2+ -> ~chi_1+  Z )
     1.03167158E-01    2     1000022        24   # BR(~chi_2+ -> ~chi_10  W+)
     1.68706367E-01    2     1000023        24   # BR(~chi_2+ -> ~chi_20  W+)
     6.66116917E-02    2     1000025        24   # BR(~chi_2+ -> ~chi_30  W+)
     1.73835343E-01    2     1000024        25   # BR(~chi_2+ -> ~chi_1+  h )
     7.67527301E-02    2     1000024        35   # BR(~chi_2+ -> ~chi_1+  H )
     8.00992972E-02    2     1000024        36   # BR(~chi_2+ -> ~chi_1+  A )
     5.38349577E-02    2     1000022        37   # BR(~chi_2+ -> ~chi_10  H+)
     7.77925087E-02    2     1000023        37   # BR(~chi_2+ -> ~chi_20  H+)
     2.56441158E-02    2     1000025        37   # BR(~chi_2+ -> ~chi_30  H+)
     1.48496739E-08    2     1000039        24   # BR(~chi_2+ -> ~G       W+)
     2.31709401E-13    2     1000039        37   # BR(~chi_2+ -> ~G       H+)
#
#         PDG            Width
DECAY   1000022     1.0E-05   # neutralino1 decays
#          BR         NDA      ID1       ID2
     4.19461399E-01    2     1000039        22   # BR(~chi_10 -> ~G        gam)
     1.48193014E-01    2     1000039        23   # BR(~chi_10 -> ~G        Z)
     4.32345587E-01    2     1000039        25   # BR(~chi_10 -> ~G        h)
#
#         PDG            Width
DECAY   1000023     1.0E-05   # neutralino2 decays
#          BR         NDA      ID1       ID2
     8.69324358E-03    2     1000022        22   # BR(~chi_20 -> ~chi_10 gam)
#          BR         NDA      ID1       ID2
     2.37568146E-06    2     1000039        22   # BR(~chi_20 -> ~G        gam)
     1.03687208E-02    2     1000039        23   # BR(~chi_20 -> ~G        Z)
     3.92991698E-04    2     1000039        25   # BR(~chi_20 -> ~G        h)
#           BR         NDA      ID1       ID2       ID3
     1.39350601E-01    3     1000022        -2         2   # BR(~chi_20 -> ~chi_10 ub      u)
     1.80424657E-01    3     1000022        -1         1   # BR(~chi_20 -> ~chi_10 db      d)
     1.19095784E-01    3     1000022        -4         4   # BR(~chi_20 -> ~chi_10 cb      c)
     1.79798266E-01    3     1000022        -3         3   # BR(~chi_20 -> ~chi_10 sb      s)
     4.11997879E-02    3     1000022       -11        11   # BR(~chi_20 -> ~chi_10 e+      e-)
     4.11721393E-02    3     1000022       -13        13   # BR(~chi_20 -> ~chi_10 mu+     mu-)
     3.26122616E-02    3     1000022       -15        15   # BR(~chi_20 -> ~chi_10 tau+    tau-)
     8.22754940E-02    3     1000022       -12        12   # BR(~chi_20 -> ~chi_10 nu_eb   nu_e)
     8.22754940E-02    3     1000022       -14        14   # BR(~chi_20 -> ~chi_10 nu_mub  nu_mu)
     8.22754940E-02    3     1000022       -16        16   # BR(~chi_20 -> ~chi_10 nu_taub nu_tau)
     1.89717787E-05    3     1000024        -2         1   # BR(~chi_20 -> ~chi_1+ ub      d)
     1.89717787E-05    3    -1000024        -1         2   # BR(~chi_20 -> ~chi_1- db      u)
     6.32392667E-06    3     1000024       -12        11   # BR(~chi_20 -> ~chi_1+ nu_eb   e-)
     6.32392667E-06    3    -1000024        12       -11   # BR(~chi_20 -> ~chi_1- nu_e    e+)
     6.04949750E-06    3     1000024       -14        13   # BR(~chi_20 -> ~chi_1+ nu_mub  mu-)
     6.04949750E-06    3    -1000024        14       -13   # BR(~chi_20 -> ~chi_1- nu_mu   mu+)
#
#         PDG            Width
DECAY   1000025     1.0E-05   # neutralino3 decays
#          BR         NDA      ID1       ID2
     8.92879011E-01    2     1000022        22   # BR(~chi_30 -> ~chi_10 gam)
     1.30040273E-02    2     1000023        22   # BR(~chi_30 -> ~chi_20 gam)
#          BR         NDA      ID1       ID2
     3.90210865E-04    2     1000039        22   # BR(~chi_30 -> ~G        gam)
     1.22528831E-04    2     1000039        23   # BR(~chi_30 -> ~G        Z)
     1.33258744E-04    2     1000039        25   # BR(~chi_30 -> ~G        h)
#           BR         NDA      ID1       ID2       ID3
     2.17763699E-05    3     1000022        -2         2   # BR(~chi_30 -> ~chi_10 ub      u)
     2.87188436E-05    3     1000022        -1         1   # BR(~chi_30 -> ~chi_10 db      d)
     2.00850534E-05    3     1000022        -4         4   # BR(~chi_30 -> ~chi_10 cb      c)
     2.86816900E-05    3     1000022        -3         3   # BR(~chi_30 -> ~chi_10 sb      s)
     1.15272027E-05    3     1000022        -5         5   # BR(~chi_30 -> ~chi_10 bb      b)
     6.97981576E-06    3     1000022       -11        11   # BR(~chi_30 -> ~chi_10 e+      e-)
     6.97625718E-06    3     1000022       -13        13   # BR(~chi_30 -> ~chi_10 mu+     mu-)
     6.05634531E-06    3     1000022       -15        15   # BR(~chi_30 -> ~chi_10 tau+    tau-)
     1.28785014E-05    3     1000022       -12        12   # BR(~chi_30 -> ~chi_10 nu_eb   nu_e)
     1.28785014E-05    3     1000022       -14        14   # BR(~chi_30 -> ~chi_10 nu_mub  nu_mu)
     1.28785014E-05    3     1000022       -16        16   # BR(~chi_30 -> ~chi_10 nu_taub nu_tau)
     2.22502057E-03    3     1000023        -2         2   # BR(~chi_30 -> ~chi_20 ub      u)
     2.88088299E-03    3     1000023        -1         1   # BR(~chi_30 -> ~chi_20 db      d)
     1.87343137E-03    3     1000023        -4         4   # BR(~chi_30 -> ~chi_20 cb      c)
     2.87000834E-03    3     1000023        -3         3   # BR(~chi_30 -> ~chi_20 sb      s)
     6.57859555E-04    3     1000023       -11        11   # BR(~chi_30 -> ~chi_20 e+      e-)
     6.57379916E-04    3     1000023       -13        13   # BR(~chi_30 -> ~chi_20 mu+     mu-)
     5.08364758E-04    3     1000023       -15        15   # BR(~chi_30 -> ~chi_20 tau+    tau-)
     1.31367788E-03    3     1000023       -12        12   # BR(~chi_30 -> ~chi_20 nu_eb   nu_e)
     1.31367788E-03    3     1000023       -14        14   # BR(~chi_30 -> ~chi_20 nu_mub  nu_mu)
     1.31367788E-03    3     1000023       -16        16   # BR(~chi_30 -> ~chi_20 nu_taub nu_tau)
     1.35887502E-02    3     1000024        -2         1   # BR(~chi_30 -> ~chi_1+ ub      d)
     1.35887502E-02    3    -1000024        -1         2   # BR(~chi_30 -> ~chi_1- db      u)
     1.23160967E-02    3     1000024        -4         3   # BR(~chi_30 -> ~chi_1+ cb      s)
     1.23160967E-02    3    -1000024        -3         4   # BR(~chi_30 -> ~chi_1- sb      c)
     4.52953481E-03    3     1000024       -12        11   # BR(~chi_30 -> ~chi_1+ nu_eb   e-)
     4.52953481E-03    3    -1000024        12       -11   # BR(~chi_30 -> ~chi_1- nu_e    e+)
     4.52698588E-03    3     1000024       -14        13   # BR(~chi_30 -> ~chi_1+ nu_mub  mu-)
     4.52698588E-03    3    -1000024        14       -13   # BR(~chi_30 -> ~chi_1- nu_mu   mu+)
     3.88240472E-03    3     1000024       -16        15   # BR(~chi_30 -> ~chi_1+ nu_taub tau-)
     3.88240472E-03    3    -1000024        16       -15   # BR(~chi_30 -> ~chi_1- nu_tau  tau+)
#
#         PDG            Width
DECAY   1000035     1.55296363E+01   # neutralino4 decays
#          BR         NDA      ID1       ID2
     9.53445745E-02    2     1000022        23   # BR(~chi_40 -> ~chi_10   Z )
     2.23540783E-02    2     1000023        23   # BR(~chi_40 -> ~chi_20   Z )
     5.60969211E-02    2     1000025        23   # BR(~chi_40 -> ~chi_30   Z )
     1.68982743E-01    2     1000024       -24   # BR(~chi_40 -> ~chi_1+   W-)
     1.68982743E-01    2    -1000024        24   # BR(~chi_40 -> ~chi_1-   W+)
     1.04772356E-02    2     1000022        25   # BR(~chi_40 -> ~chi_10   h )
     5.26560512E-02    2     1000022        35   # BR(~chi_40 -> ~chi_10   H )
     5.67498015E-05    2     1000022        36   # BR(~chi_40 -> ~chi_10   A )
     1.51403415E-01    2     1000023        25   # BR(~chi_40 -> ~chi_20   h )
     4.64143558E-05    2     1000023        35   # BR(~chi_40 -> ~chi_20   H )
     7.91814714E-02    2     1000023        36   # BR(~chi_40 -> ~chi_20   A )
     1.22238494E-02    2     1000025        25   # BR(~chi_40 -> ~chi_30   h )
     2.48499818E-02    2     1000025        35   # BR(~chi_40 -> ~chi_30   H )
     9.05972916E-06    2     1000025        36   # BR(~chi_40 -> ~chi_30   A )
     7.86673486E-02    2     1000024       -37   # BR(~chi_40 -> ~chi_1+   H-)
     7.86673486E-02    2    -1000024        37   # BR(~chi_40 -> ~chi_1-   H+)
     3.57049634E-09    2     1000039        22   # BR(~chi_40 -> ~G        gam)
     1.12771218E-08    2     1000039        23   # BR(~chi_40 -> ~G        Z)
     9.29572753E-13    2     1000039        25   # BR(~chi_40 -> ~G        h)
     2.21770162E-13    2     1000039        35   # BR(~chi_40 -> ~G        H)
     9.02557991E-15    2     1000039        36   # BR(~chi_40 -> ~G        A)
#
#         PDG            Width
DECAY        25     4.07851575E-03   # h decays
#          BR         NDA      ID1       ID2
     6.17079706E-01    2           5        -5   # BR(h -> b       bb     )
     6.38608309E-02    2         -15        15   # BR(h -> tau+    tau-   )
     2.26043822E-04    2         -13        13   # BR(h -> mu+     mu-    )
     4.79007236E-04    2           3        -3   # BR(h -> s       sb     )
     2.06653340E-02    2           4        -4   # BR(h -> c       cb     )
     6.71012130E-02    2          21        21   # BR(h -> g       g      )
     2.30132256E-03    2          22        22   # BR(h -> gam     gam    )
     1.54017465E-03    2          22        23   # BR(h -> Z       gam    )
     2.01084177E-01    2          24       -24   # BR(h -> W+      W-     )
     2.56621910E-02    2          23        23   # BR(h -> Z       Z      )
#
#         PDG            Width
DECAY        35     3.79133153E+01   # H decays
#          BR         NDA      ID1       ID2
     1.47683701E-03    2           5        -5   # BR(H -> b       bb     )
     2.45774239E-04    2         -15        15   # BR(H -> tau+    tau-   )
     8.68903435E-07    2         -13        13   # BR(H -> mu+     mu-    )
     1.11250275E-06    2           3        -3   # BR(H -> s       sb     )
     1.00400605E-05    2           4        -4   # BR(H -> c       cb     )
     9.93421503E-01    2           6        -6   # BR(H -> t       tb     )
     7.95515413E-04    2          21        21   # BR(H -> g       g      )
     2.74202301E-06    2          22        22   # BR(H -> gam     gam    )
     1.15673462E-06    2          23        22   # BR(H -> Z       gam    )
     3.34034600E-04    2          24       -24   # BR(H -> W+      W-     )
     1.66561797E-04    2          23        23   # BR(H -> Z       Z      )
     9.01986916E-04    2          25        25   # BR(H -> h       h      )
     8.81009204E-24    2          36        36   # BR(H -> A       A      )
     3.51952904E-11    2          23        36   # BR(H -> Z       A      )
     5.01634924E-12    2          24       -37   # BR(H -> W+      H-     )
     5.01634924E-12    2         -24        37   # BR(H -> W-      H+     )
     3.50480543E-06    2     1000024  -1000024   # BR(H -> ~chi_1+ ~chi_1-)
     1.13209873E-03    2     1000022   1000022   # BR(H -> ~chi_10 ~chi_10)
     5.08719533E-07    2     1000023   1000023   # BR(H -> ~chi_20 ~chi_20)
     6.12297551E-04    2     1000025   1000025   # BR(H -> ~chi_30 ~chi_30)
     1.06779149E-04    2     1000022   1000023   # BR(H -> ~chi_10 ~chi_20)
     1.24702614E-04    2     1000022   1000025   # BR(H -> ~chi_10 ~chi_30)
     6.61975633E-04    2     1000023   1000025   # BR(H -> ~chi_20 ~chi_30)
#
#         PDG            Width
DECAY        36     3.83402523E+01   # A decays
#          BR         NDA      ID1       ID2
     1.47964625E-03    2           5        -5   # BR(A -> b       bb     )
     2.43248696E-04    2         -15        15   # BR(A -> tau+    tau-   )
     8.59972013E-07    2         -13        13   # BR(A -> mu+     mu-    )
     1.13374894E-06    2           3        -3   # BR(A -> s       sb     )
     9.93525607E-06    2           4        -4   # BR(A -> c       cb     )
     9.94342935E-01    2           6        -6   # BR(A -> t       tb     )
     9.41164478E-04    2          21        21   # BR(A -> g       g      )
     3.02025435E-06    2          22        22   # BR(A -> gam     gam    )
     1.34881051E-06    2          23        22   # BR(A -> Z       gam    )
     3.25529739E-04    2          23        25   # BR(A -> Z       h      )
     1.17220175E-04    2     1000024  -1000024   # BR(A -> ~chi_1+ ~chi_1-)
     4.53811902E-04    2     1000022   1000022   # BR(A -> ~chi_10 ~chi_10)
     1.30721397E-04    2     1000023   1000023   # BR(A -> ~chi_20 ~chi_20)
     2.17069699E-04    2     1000025   1000025   # BR(A -> ~chi_30 ~chi_30)
     7.08725621E-04    2     1000022   1000023   # BR(A -> ~chi_10 ~chi_20)
     9.87323506E-05    2     1000022   1000025   # BR(A -> ~chi_10 ~chi_30)
     9.24896900E-04    2     1000023   1000025   # BR(A -> ~chi_20 ~chi_30)
#
#         PDG            Width
DECAY        37     3.75476283E+01   # H+ decays
#          BR         NDA      ID1       ID2
     2.37957530E-06    2           4        -5   # BR(H+ -> c       bb     )
     2.48607120E-04    2         -15        16   # BR(H+ -> tau+    nu_tau )
     8.78915974E-07    2         -13        14   # BR(H+ -> mu+     nu_mu  )
     1.51296500E-08    2           2        -5   # BR(H+ -> u       bb     )
     5.44303239E-08    2           2        -3   # BR(H+ -> u       sb     )
     1.08454478E-05    2           4        -3   # BR(H+ -> c       sb     )
     9.96872099E-01    2           6        -5   # BR(H+ -> t       bb     )
     3.33773333E-04    2          24        25   # BR(H+ -> W+      h      )
     6.60824142E-13    2          24        36   # BR(H+ -> W+      A      )
     9.07482198E-04    2     1000024   1000022   # BR(H+ -> ~chi_1+ ~chi_10)
     7.77116673E-06    2     1000024   1000023   # BR(H+ -> ~chi_1+ ~chi_20)
     1.61609338E-03    2     1000024   1000025   # BR(H+ -> ~chi_1+ ~chi_30)
