#  ISAJET SUSY parameters in SUSY Les Houches Accord 2 format
#  Created by ISALHA 2.0 Last revision: C. Balazs 21 Apr 2009
Block SPINFO   # Program information
     1   ISASUGRA from ISAJET          # Spectrum Calculator
     2   7.80   29-OCT-2009 12:50:36   # Version number
Block MODSEL   # Model selection
     1     3   # Minimal anomaly mediated (AMSB) model             
Block SMINPUTS   # Standard Model inputs
     1     1.27836258E+02   # alpha_em^(-1)
     2     1.16570000E-05   # G_Fermi
     3     1.17200002E-01   # alpha_s(M_Z)
     4     9.11699982E+01   # m_{Z}(pole)
     5     4.19999981E+00   # m_{b}(m_{b})
     6     1.72500000E+02   # m_{top}(pole)
     7     1.77699995E+00   # m_{tau}(pole)
Block MINPAR   # SUSY breaking input parameters
     1     5.00000000E+03   # m_0
     2     1.72600000E+05   # m_{3/2}
     3     5.00000000E+00   # tan(beta)
     4     1.00000000E+00   # sign(mu)
Block EXTPAR   # Non-universal SUSY breaking parameters
     0     8.56621349E+15   # Input scale
Block MASS   # Scalar and gaugino mass spectrum
#  PDG code   mass                 particle
         5     4.80000000E+00   # b-quark pole mass calculated from mb(mb)_Msbar
         6     1.72500000E+02   # t-quark pole mass (not read by ME)
        15     1.77682000E+00   # tau pole mass (not read by ME)
        23     9.11876000E+01   # Z pole mass (not read by ME)
        24     8.04229965E+01   #  W^+
        25     1.16094788E+02   #  h^0            
        35     5.80139160E+03   #  H^0            
        36     5.76334473E+03   #  A^0            
        37     5.80180664E+03   #  H^+            
   1000001     5.85934619E+03   #  dnl            
   1000002     5.85883252E+03   #  upl            
   1000003     5.85934619E+03   #  stl            
   1000004     5.85883252E+03   #  chl            
   1000005     4.93200439E+03   #  b1             
   1000006     3.78093213E+03   #  t1             
   1000011     4.94569971E+03   #  el-            
   1000012     4.94616895E+03   #  nuel           
   1000013     4.94569971E+03   #  mul-           
   1000014     4.94616895E+03   #  numl           
   1000015     4.92409570E+03   #  tau1           
   1000016     4.94004883E+03   #  nutl           
   1000021     3.59734766E+03   #  glss           
   1000022     5.00062500E+02   #  z1ss           
   1000023     1.60660962E+03   #  z2ss           
   1000024     5.00235443E+02   #  w1ss           
   1000025    -2.78977979E+03   #  z3ss           
   1000035     2.79180200E+03   #  z4ss           
   1000037     2.79463452E+03   #  w2ss           
   2000001     5.90516992E+03   #  dnr            
   2000002     5.88550195E+03   #  upr            
   2000003     5.90516992E+03   #  str            
   2000004     5.88550195E+03   #  chr            
   2000005     5.87331201E+03   #  b2             
   2000006     4.95829883E+03   #  t2             
   2000011     4.93729297E+03   #  er-            
   2000013     4.93729297E+03   #  mur-           
   2000015     4.93982324E+03   #  tau2           
Block ALPHA   # Effective Higgs mixing parameter
         -1.97525397E-01   # alpha
Block STOPMIX   # stop mixing matrix
  1  1     2.42788345E-02   # O_{11}
  1  2    -9.99705255E-01   # O_{12}
  2  1     9.99705255E-01   # O_{21}
  2  2     2.42788345E-02   # O_{22}
Block SBOTMIX   # sbottom mixing matrix
  1  1     9.99996603E-01   # O_{11}
  1  2     2.59767240E-03   # O_{12}
  2  1    -2.59767240E-03   # O_{21}
  2  2     9.99996603E-01   # O_{22}
Block STAUMIX   # stau mixing matrix
  1  1     1.91212758E-01   # O_{11}
  1  2     9.81548607E-01   # O_{12}
  2  1    -9.81548607E-01   # O_{21}
  2  2     1.91212758E-01   # O_{22}
Block NMIX   # neutralino mixing matrix
  1  1     3.48403933E-04   #
  1  2    -9.99549091E-01   #
  1  3     2.85807010E-02   #
  1  4    -9.19777714E-03   #
  2  1    -9.99597847E-01   #
  2  2    -1.16742495E-03   #
  2  3    -2.35896707E-02   #
  2  4     1.57018900E-02   #
  3  1     5.58897853E-03   #
  3  2    -1.37026832E-02   #
  3  3    -7.06872106E-01   #
  3  4    -7.07186282E-01   #
  4  1     2.78034490E-02   #
  4  2    -2.66918242E-02   #
  4  3    -7.06369519E-01   #
  4  4     7.06793010E-01   #
Block UMIX   # chargino U mixing matrix
  1  1    -9.99164343E-01   # U_{11}
  1  2     4.08729129E-02   # U_{12}
  2  1    -4.08729129E-02   # U_{21}
  2  2    -9.99164343E-01   # U_{22}
Block VMIX   # chargino V mixing matrix
  1  1    -9.99877393E-01   # V_{11}
  1  2     1.56581402E-02   # V_{12}
  2  1    -1.56581402E-02   # V_{21}
  2  2    -9.99877393E-01   # V_{22}
Block GAUGE Q=  4.19787939E+03   #
     1     3.57524991E-01   # g`
     2     6.52378619E-01   # g_2
     3     1.21928012E+00   # g_3
Block YU Q=  4.19787939E+03   #
  3  3     8.33759487E-01   # y_t
Block YD Q=  4.19787939E+03   #
  3  3     6.41889125E-02   # y_b
Block YE Q=  4.19787939E+03   #
  3  3     5.14750183E-02   # y_tau
Block HMIX Q=  4.19787939E+03   # Higgs mixing parameters
     1     2.76681738E+03   # mu(Q)
     2     5.00000000E+00   # tan(beta)(M_GUT)
     3     2.52254684E+02   # Higgs vev at Q
     4     3.32161420E+07   # m_A^2(Q)
Block MSOFT Q=  4.19787939E+03   # DRbar SUSY breaking parameters
     1     1.61176843E+03   # M_1(Q)          
     2     4.64833679E+02   # M_2(Q)          
     3    -3.23939258E+03   # M_3(Q)          
    21     3.23374943E+04   # mH1^2(Q)            
    22    -1.28800134E+05   # mH2^2(Q)            
    31     4.92855029E+03   # MeL(Q)          
    32     4.92855029E+03   # MmuL(Q)         
    33     4.92261621E+03   # MtauL(Q)        
    34     4.93132666E+03   # MeR(Q)          
    35     4.93132666E+03   # MmuR(Q)         
    36     4.91965137E+03   # MtauR(Q)        
    41     5.70665137E+03   # MqL1(Q)         
    42     5.70665137E+03   # MqL2(Q)         
    43     4.79675830E+03   # MqL3(Q)         
    44     5.73332910E+03   # MuR(Q)          
    45     5.73332910E+03   # McR(Q)          
    46     3.67377124E+03   # MtR(Q)          
    47     5.75293945E+03   # MdR(Q)          
    48     5.75293945E+03   # MsR(Q)          
    49     5.75602637E+03   # MbR(Q)          
Block AU Q=  4.19787939E+03   #
  1  1     2.70258545E+03   # A_u
  2  2     2.70258545E+03   # A_c
  3  3     2.70258545E+03   # A_t
Block AD Q=  4.19787939E+03   #
  1  1     6.43420996E+03   # A_d
  2  2     6.43420996E+03   # A_s
  3  3     6.43420996E+03   # A_b
Block AE Q=  4.19787939E+03   #
  1  1     1.80077356E+03   # A_e
  2  2     1.80077356E+03   # A_mu
  3  3     1.80077356E+03   # A_tau
#
#  ISAJET decay tables in SUSY Les Houches accord format
#  Created by ISALHD. Last revision: C. Balazs, 2005 May 25
Block DCINFO                           # Program information
     1   ISASUGRA from ISAJET          # Spectrum Calculator
     2   7.80   29-OCT-2009 12:50:36   # Version number
#         PDG         Width
DECAY        23     2.49520000E+00   # Z width (SM calculation)
DECAY        24     2.08500000E+00   # W width (SM calculation)
#
#         PDG            Width  
DECAY         6  1.14680779E+00   # TP    decays
#          BR          NDA       ID1       ID2       ID3       ID4
      3.33333343E-01    3            2        -1         5             # TP     -->  UP     DB     BT          
      3.33333343E-01    3            4        -3         5             # TP     -->  CH     SB     BT          
      1.11111112E-01    3          -11        12         5             # TP     -->  E+     NUE    BT          
      1.11111112E-01    3          -13        14         5             # TP     -->  MU+    NUM    BT          
      1.11111112E-01    3          -15        16         5             # TP     -->  TAU+   NUT    BT          
#         PDG         Width
DECAY   1000021  3.62486355E-02   # GLSS  decays
#          BR          NDA       ID1       ID2       ID3       ID4
      6.37354702E-02    3      1000024         1        -2             # GLSS   -->  W1SS+  DN     UB          
      6.37354702E-02    3     -1000024         2        -1             # GLSS   -->  W1SS-  UP     DB          
      6.37354702E-02    3      1000024         3        -4             # GLSS   -->  W1SS+  ST     CB          
      6.37354702E-02    3     -1000024         4        -3             # GLSS   -->  W1SS-  CH     SB          
      1.51531786E-01    3      1000024         5        -6             # GLSS   -->  W1SS+  BT     TB          
      1.51531786E-01    3     -1000024         6        -5             # GLSS   -->  W1SS-  TP     BB          
      4.17989412E-07    3      1000037         1        -2             # GLSS   -->  W2SS+  DN     UB          
      4.17989412E-07    3     -1000037         2        -1             # GLSS   -->  W2SS-  UP     DB          
      4.17989412E-07    3      1000037         3        -4             # GLSS   -->  W2SS+  ST     CB          
      4.17989412E-07    3     -1000037         4        -3             # GLSS   -->  W2SS-  CH     SB          
      1.93586163E-02    3      1000037         5        -6             # GLSS   -->  W2SS+  BT     TB          
      1.93586163E-02    3     -1000037         6        -5             # GLSS   -->  W2SS-  TP     BB          
      1.01585172E-07    2      1000022        21                       # GLSS   -->  Z1SS   GL                 
      3.18773501E-02    3      1000022         2        -2             # GLSS   -->  Z1SS   UP     UB          
      3.18716615E-02    3      1000022         1        -1             # GLSS   -->  Z1SS   DN     DB          
      3.18716615E-02    3      1000022         3        -3             # GLSS   -->  Z1SS   ST     SB          
      3.18773501E-02    3      1000022         4        -4             # GLSS   -->  Z1SS   CH     CB          
      7.85881281E-02    3      1000022         5        -5             # GLSS   -->  Z1SS   BT     BB          
      7.26490021E-02    3      1000022         6        -6             # GLSS   -->  Z1SS   TP     TB          
      7.70026003E-04    2      1000023        21                       # GLSS   -->  Z2SS   GL                 
      4.03647264E-03    3      1000023         2        -2             # GLSS   -->  Z2SS   UP     UB          
      1.17070123E-03    3      1000023         1        -1             # GLSS   -->  Z2SS   DN     DB          
      1.17070123E-03    3      1000023         3        -3             # GLSS   -->  Z2SS   ST     SB          
      4.03647264E-03    3      1000023         4        -4             # GLSS   -->  Z2SS   CH     CB          
      1.59461610E-03    3      1000023         5        -5             # GLSS   -->  Z2SS   BT     BB          
      7.77360275E-02    3      1000023         6        -6             # GLSS   -->  Z2SS   TP     TB          
      9.77721531E-04    2      1000025        21                       # GLSS   -->  Z3SS   GL                 
      8.76270789E-08    3      1000025         2        -2             # GLSS   -->  Z3SS   UP     UB          
      1.09238897E-07    3      1000025         1        -1             # GLSS   -->  Z3SS   DN     DB          
      1.09238897E-07    3      1000025         3        -3             # GLSS   -->  Z3SS   ST     SB          
      8.76270789E-08    3      1000025         4        -4             # GLSS   -->  Z3SS   CH     CB          
      1.94953609E-05    3      1000025         5        -5             # GLSS   -->  Z3SS   BT     BB          
      1.83829553E-02    3      1000025         6        -6             # GLSS   -->  Z3SS   TP     TB          
      9.00690386E-04    2      1000035        21                       # GLSS   -->  Z4SS   GL                 
      1.46738657E-07    3      1000035         2        -2             # GLSS   -->  Z4SS   UP     UB          
      1.86857505E-07    3      1000035         1        -1             # GLSS   -->  Z4SS   DN     DB          
      1.86857505E-07    3      1000035         3        -3             # GLSS   -->  Z4SS   ST     SB          
      1.46738657E-07    3      1000035         4        -4             # GLSS   -->  Z4SS   CH     CB          
      1.95541579E-05    3      1000035         5        -5             # GLSS   -->  Z4SS   BT     BB          
      1.37239099E-02    3      1000035         6        -6             # GLSS   -->  Z4SS   TP     TB          
#         PDG         Width
DECAY   1000002  1.91798859E+02   # UPL   decays
#          BR          NDA       ID1       ID2       ID3       ID4
      1.26584098E-01    2      1000022         2                       # UPL    -->  Z1SS   UP                 
      3.73533927E-03    2      1000023         2                       # UPL    -->  Z2SS   UP                 
      1.23591008E-05    2      1000025         2                       # UPL    -->  Z3SS   UP                 
      3.58338511E-05    2      1000035         2                       # UPL    -->  Z4SS   UP                 
      6.16230369E-01    2      1000021         2                       # UPL    -->  GLSS   UP                 
      2.53364325E-01    2      1000024         1                       # UPL    -->  W1SS+  DN                 
      3.76233256E-05    2      1000037         1                       # UPL    -->  W2SS+  DN                 
#         PDG         Width
DECAY   1000001  1.91809738E+02   # DNL   decays
#          BR          NDA       ID1       ID2       ID3       ID4
      1.26620680E-01    2      1000022         1                       # DNL    -->  Z1SS   DN                 
      3.64151201E-03    2      1000023         1                       # DNL    -->  Z2SS   DN                 
      1.66762638E-05    2      1000025         1                       # DNL    -->  Z3SS   DN                 
      7.76218803E-05    2      1000035         1                       # DNL    -->  Z4SS   DN                 
      6.16375506E-01    2      1000021         1                       # DNL    -->  GLSS   DN                 
      2.53011554E-01    2     -1000024         2                       # DNL    -->  W1SS-  UP                 
      2.56393017E-04    2     -1000037         2                       # DNL    -->  W2SS-  UP                 
#         PDG         Width
DECAY   1000003  1.91809723E+02   # STL   decays
#          BR          NDA       ID1       ID2       ID3       ID4
      1.26620680E-01    2      1000022         3                       # STL    -->  Z1SS   ST                 
      3.64151224E-03    2      1000023         3                       # STL    -->  Z2SS   ST                 
      1.66762657E-05    2      1000025         3                       # STL    -->  Z3SS   ST                 
      7.76218876E-05    2      1000035         3                       # STL    -->  Z4SS   ST                 
      6.16375566E-01    2      1000021         3                       # STL    -->  GLSS   ST                 
      2.53011554E-01    2     -1000024         4                       # STL    -->  W1SS-  CH                 
      2.56393017E-04    2     -1000037         4                       # STL    -->  W2SS-  CH                 
#         PDG         Width
DECAY   1000004  1.91798813E+02   # CHL   decays
#          BR          NDA       ID1       ID2       ID3       ID4
      1.26584113E-01    2      1000022         4                       # CHL    -->  Z1SS   CH                 
      3.73533997E-03    2      1000023         4                       # CHL    -->  Z2SS   CH                 
      1.23591008E-05    2      1000025         4                       # CHL    -->  Z3SS   CH                 
      3.58338511E-05    2      1000035         4                       # CHL    -->  Z4SS   CH                 
      6.16230309E-01    2      1000021         4                       # CHL    -->  GLSS   CH                 
      2.53364384E-01    2      1000024         3                       # CHL    -->  W1SS+  ST                 
      3.76233329E-05    2      1000037         3                       # CHL    -->  W2SS+  ST                 
#         PDG         Width
DECAY   1000005  1.51545929E+02   # BT1   decays
#          BR          NDA       ID1       ID2       ID3       ID4
      1.34088472E-01    2      1000022         5                       # BT1    -->  Z1SS   BT                 
      3.62664065E-03    2      1000023         5                       # BT1    -->  Z2SS   BT                 
      6.64604013E-04    2      1000025         5                       # BT1    -->  Z3SS   BT                 
      7.13126617E-04    2      1000035         5                       # BT1    -->  Z4SS   BT                 
      3.76091868E-01    2      1000021         5                       # BT1    -->  GLSS   BT                 
      2.67287463E-01    2     -1000024         6                       # BT1    -->  W1SS-  TP                 
      1.96400359E-01    2     -1000037         6                       # BT1    -->  W2SS-  TP                 
      2.11274885E-02    2          -24   1000006                       # BT1    -->  W-     TP1                
#         PDG         Width
DECAY   1000006  2.65979404E+01   # TP1   decays
#          BR          NDA       ID1       ID2       ID3       ID4
      2.41230521E-02    2      1000021         6                       # TP1    -->  GLSS   TP                 
      3.72094291E-05    2      1000022         6                       # TP1    -->  Z1SS   TP                 
      2.13268086E-01    2      1000023         6                       # TP1    -->  Z2SS   TP                 
      1.88123435E-01    2      1000025         6                       # TP1    -->  Z3SS   TP                 
      1.91184014E-01    2      1000035         6                       # TP1    -->  Z4SS   TP                 
      2.60532688E-05    2      1000024         5                       # TP1    -->  W1SS+  BT                 
      3.83238107E-01    2      1000037         5                       # TP1    -->  W2SS+  BT                 
#         PDG         Width
DECAY   2000002  1.31378677E+02   # UPR   decays
#          BR          NDA       ID1       ID2       ID3       ID4
      1.21156818E-08    2      1000022         2                       # UPR    -->  Z1SS   UP                 
      8.66687819E-02    2      1000023         2                       # UPR    -->  Z2SS   UP                 
      1.90150229E-06    2      1000025         2                       # UPR    -->  Z3SS   UP                 
      4.70180130E-05    2      1000035         2                       # UPR    -->  Z4SS   UP                 
      9.13282275E-01    2      1000021         2                       # UPR    -->  GLSS   UP                 
#         PDG         Width
DECAY   2000001  1.24169319E+02   # DNR   decays
#          BR          NDA       ID1       ID2       ID3       ID4
      3.21580251E-09    2      1000022         1                       # DNR    -->  Z1SS   DN                 
      2.30264589E-02    2      1000023         1                       # DNR    -->  Z2SS   DN                 
      5.06604067E-07    2      1000025         1                       # DNR    -->  Z3SS   DN                 
      1.25267707E-05    2      1000035         1                       # DNR    -->  Z4SS   DN                 
      9.76960480E-01    2      1000021         1                       # DNR    -->  GLSS   DN                 
#         PDG         Width
DECAY   2000003  1.24169319E+02   # STR   decays
#          BR          NDA       ID1       ID2       ID3       ID4
      3.21580251E-09    2      1000022         3                       # STR    -->  Z1SS   ST                 
      2.30264589E-02    2      1000023         3                       # STR    -->  Z2SS   ST                 
      5.06604067E-07    2      1000025         3                       # STR    -->  Z3SS   ST                 
      1.25267707E-05    2      1000035         3                       # STR    -->  Z4SS   ST                 
      9.76960480E-01    2      1000021         3                       # STR    -->  GLSS   ST                 
#         PDG         Width
DECAY   2000004  1.31378647E+02   # CHR   decays
#          BR          NDA       ID1       ID2       ID3       ID4
      1.21156836E-08    2      1000022         4                       # CHR    -->  Z1SS   CH                 
      8.66687894E-02    2      1000023         4                       # CHR    -->  Z2SS   CH                 
      1.90150251E-06    2      1000025         4                       # CHR    -->  Z3SS   CH                 
      4.70180094E-05    2      1000035         4                       # CHR    -->  Z4SS   CH                 
      9.13282275E-01    2      1000021         4                       # CHR    -->  GLSS   CH                 
#         PDG         Width
DECAY   2000005  1.22671791E+02   # BT2   decays
#          BR          NDA       ID1       ID2       ID3       ID4
      4.52180188E-07    2      1000022         5                       # BT2    -->  Z1SS   BT                 
      2.31414828E-02    2      1000023         5                       # BT2    -->  Z2SS   BT                 
      1.24480540E-03    2      1000025         5                       # BT2    -->  Z3SS   BT                 
      1.25594262E-03    2      1000035         5                       # BT2    -->  Z4SS   BT                 
      9.71426606E-01    2      1000021         5                       # BT2    -->  GLSS   BT                 
      9.55890755E-07    2     -1000024         6                       # BT2    -->  W1SS-  TP                 
      2.48530554E-03    2     -1000037         6                       # BT2    -->  W2SS-  TP                 
      8.56544943E-07    2          -24   1000006                       # BT2    -->  W-     TP1                
      1.69919542E-04    2          -24   2000006                       # BT2    -->  W-     TP2                
      9.28558948E-05    2           23   1000005                       # BT2    -->  Z0     BT1                
      1.80807125E-04    2           25   1000005                       # BT2    -->  HL0    BT1                
#         PDG         Width
DECAY   2000006  1.55476288E+02   # TP2   decays
#          BR          NDA       ID1       ID2       ID3       ID4
      3.71277153E-01    2      1000021         6                       # TP2    -->  GLSS   TP                 
      2.63075083E-01    2      1000024         5                       # TP2    -->  W1SS+  BT                 
      1.30997051E-03    2      1000037         5                       # TP2    -->  W2SS+  BT                 
      1.10616647E-02    2           23   1000006                       # TP2    -->  Z0     TP1                
      2.41043605E-02    2           25   1000006                       # TP2    -->  HL0    TP1                
      1.31093279E-01    2      1000022         6                       # TP2    -->  Z1SS   TP                 
      3.87968100E-03    2      1000023         6                       # TP2    -->  Z2SS   TP                 
      9.75507870E-02    2      1000025         6                       # TP2    -->  Z3SS   TP                 
      9.66481492E-02    2      1000035         6                       # TP2    -->  Z4SS   TP                 
#         PDG         Width
DECAY   1000011  6.61722031E+01   # EL-   decays
#          BR          NDA       ID1       ID2       ID3       ID4
      3.07808399E-01    2      1000022        11                       # EL-    -->  Z1SS   E-                 
      7.62991086E-02    2      1000023        11                       # EL-    -->  Z2SS   E-                 
      1.65283691E-05    2      1000025        11                       # EL-    -->  Z3SS   E-                 
      1.90156607E-05    2      1000035        11                       # EL-    -->  Z4SS   E-                 
      6.15369976E-01    2     -1000024        12                       # EL-    -->  W1SS-  NUE                
      4.87058423E-04    2     -1000037        12                       # EL-    -->  W2SS-  NUE                
#         PDG         Width
DECAY   1000013  6.61722031E+01   # MUL-  decays
#          BR          NDA       ID1       ID2       ID3       ID4
      3.07808399E-01    2      1000022        13                       # MUL-   -->  Z1SS   MU-                
      7.62991086E-02    2      1000023        13                       # MUL-   -->  Z2SS   MU-                
      1.65283691E-05    2      1000025        13                       # MUL-   -->  Z3SS   MU-                
      1.90156607E-05    2      1000035        13                       # MUL-   -->  Z4SS   MU-                
      6.15369976E-01    2     -1000024        14                       # MUL-   -->  W1SS-  NUM                
      4.87058423E-04    2     -1000037        14                       # MUL-   -->  W2SS-  NUM                
#         PDG         Width
DECAY   1000015  2.19604321E+01   # TAU1- decays
#          BR          NDA       ID1       ID2       ID3       ID4
      3.49084139E-02    2      1000022        15                       # TAU1-  -->  Z1SS   TAU-               
      8.85401189E-01    2      1000023        15                       # TAU1-  -->  Z2SS   TAU-               
      2.67412397E-03    2      1000025        15                       # TAU1-  -->  Z3SS   TAU-               
      2.70817964E-03    2      1000035        15                       # TAU1-  -->  Z4SS   TAU-               
      6.98135197E-02    2     -1000024        16                       # TAU1-  -->  W1SS-  NUT                
      4.49462375E-03    2     -1000037        16                       # TAU1-  -->  W2SS-  NUT                
#         PDG         Width
DECAY   1000012  6.61998749E+01   # NUEL  decays
#          BR          NDA       ID1       ID2       ID3       ID4
      3.07946056E-01    2      1000022        12                       # NUEL   -->  Z1SS   NUE                
      7.56322667E-02    2      1000023        12                       # NUEL   -->  Z2SS   NUE                
      4.11461260E-05    2      1000025        12                       # NUEL   -->  Z3SS   NUE                
      2.57267850E-04    2      1000035        12                       # NUEL   -->  Z4SS   NUE                
      6.16051853E-01    2      1000024        11                       # NUEL   -->  W1SS+  E-                 
      7.14705602E-05    2      1000037        11                       # NUEL   -->  W2SS+  E-                 
      1.63696168E-10    3      1000011        12       -11             # NUEL   -->  EL-    NUE    E+          
      1.63696168E-10    3      1000011        14       -13             # NUEL   -->  EL-    NUM    MU+         
      4.91088503E-10    3      1000011         2        -1             # NUEL   -->  EL-    UP     DB          
#         PDG         Width
DECAY   1000014  6.61998749E+01   # NUML  decays
#          BR          NDA       ID1       ID2       ID3       ID4
      3.07946056E-01    2      1000022        14                       # NUML   -->  Z1SS   NUM                
      7.56322667E-02    2      1000023        14                       # NUML   -->  Z2SS   NUM                
      4.11461260E-05    2      1000025        14                       # NUML   -->  Z3SS   NUM                
      2.57267850E-04    2      1000035        14                       # NUML   -->  Z4SS   NUM                
      6.16051853E-01    2      1000024        13                       # NUML   -->  W1SS+  MU-                
      7.14705602E-05    2      1000037        13                       # NUML   -->  W2SS+  MU-                
      1.63696168E-10    3      1000013        12       -11             # NUML   -->  MUL-   NUE    E+          
      1.63696168E-10    3      1000013        14       -13             # NUML   -->  MUL-   NUM    MU+         
      4.91088503E-10    3      1000013         2        -1             # NUML   -->  MUL-   UP     DB          
#         PDG         Width
DECAY   1000016  6.62393799E+01   # NUTL  decays
#          BR          NDA       ID1       ID2       ID3       ID4
      3.07365865E-01    2      1000022        16                       # NUTL   -->  Z1SS   NUT                
      7.54494742E-02    2      1000023        16                       # NUTL   -->  Z2SS   NUT                
      4.09757340E-05    2      1000025        16                       # NUTL   -->  Z3SS   NUT                
      2.56201252E-04    2      1000035        16                       # NUTL   -->  Z4SS   NUT                
      6.14897370E-01    2      1000024        15                       # NUTL   -->  W1SS+  TAU-               
      1.99022586E-03    2      1000037        15                       # NUTL   -->  W2SS+  TAU-               
      1.60082642E-10    3      1000015        16       -15             # NUTL   -->  TAU1-  NUT    TAU+        
      1.60082642E-10    3      1000015        12       -11             # NUTL   -->  TAU1-  NUE    E+          
      1.60082642E-10    3      1000015        14       -13             # NUTL   -->  TAU1-  NUM    MU+         
      4.80247953E-10    3      1000015         2        -1             # NUTL   -->  TAU1-  UP     DB          
      4.80247953E-10    3      1000015         4        -3             # NUTL   -->  TAU1-  CH     SB          
#         PDG         Width
DECAY   2000011  2.00689926E+01   # ER-   decays
#          BR          NDA       ID1       ID2       ID3       ID4
      1.48789411E-07    2      1000022        11                       # ER-    -->  Z1SS   E-                 
      9.99534011E-01    2      1000023        11                       # ER-    -->  Z2SS   E-                 
      1.81122796E-05    2      1000025        11                       # ER-    -->  Z3SS   E-                 
      4.47625294E-04    2      1000035        11                       # ER-    -->  Z4SS   E-                 
#         PDG         Width
DECAY   2000013  2.00689926E+01   # MUR-  decays
#          BR          NDA       ID1       ID2       ID3       ID4
      1.48789411E-07    2      1000022        13                       # MUR-   -->  Z1SS   MU-                
      9.99534011E-01    2      1000023        13                       # MUR-   -->  Z2SS   MU-                
      1.81122796E-05    2      1000025        13                       # MUR-   -->  Z3SS   MU-                
      4.47625294E-04    2      1000035        13                       # MUR-   -->  Z4SS   MU-                
#         PDG         Width
DECAY   2000015  6.44931412E+01   # TAU2- decays
#          BR          NDA       ID1       ID2       ID3       ID4
      3.03511828E-01    2      1000022        15                       # TAU2-  -->  Z1SS   TAU-               
      8.65147710E-02    2      1000023        15                       # TAU2-  -->  Z2SS   TAU-               
      1.08207285E-03    2      1000025        15                       # TAU2-  -->  Z3SS   TAU-               
      1.20211137E-03    2      1000035        15                       # TAU2-  -->  Z4SS   TAU-               
      6.06765568E-01    2     -1000024        16                       # TAU2-  -->  W1SS-  NUT                
      9.23697778E-04    2     -1000037        16                       # TAU2-  -->  W2SS-  NUT                
#         PDG         Width
DECAY   1000023  9.21979547E-03   # Z2SS  decays
#          BR          NDA       ID1       ID2       ID3       ID4
      5.24579548E-07    2      1000022        22                       # Z2SS   -->  Z1SS   GM                 
      2.62199849E-01    2      1000024       -24                       # Z2SS   -->  W1SS+  W-                 
      2.62199849E-01    2     -1000024        24                       # Z2SS   -->  W1SS-  W+                 
      3.08833029E-02    2      1000022        23                       # Z2SS   -->  Z1SS   Z0                 
      3.44805230E-05    3      1000022         2        -2             # Z2SS   -->  Z1SS   UP     UB          
      3.36087433E-05    3      1000022         1        -1             # Z2SS   -->  Z1SS   DN     DB          
      3.36087433E-05    3      1000022         3        -3             # Z2SS   -->  Z1SS   ST     SB          
      3.44805230E-05    3      1000022         4        -4             # Z2SS   -->  Z1SS   CH     CB          
      6.91040841E-05    3      1000022         5        -5             # Z2SS   -->  Z1SS   BT     BB          
      2.08105484E-04    3      1000022        11       -11             # Z2SS   -->  Z1SS   E-     E+          
      2.08105484E-04    3      1000022        13       -13             # Z2SS   -->  Z1SS   MU-    MU+         
      2.09290811E-04    3      1000022        15       -15             # Z2SS   -->  Z1SS   TAU-   TAU+        
      2.06419689E-04    3      1000022        12       -12             # Z2SS   -->  Z1SS   NUE    ANUE        
      2.06419689E-04    3      1000022        14       -14             # Z2SS   -->  Z1SS   NUM    ANUM        
      2.07498844E-04    3      1000022        16       -16             # Z2SS   -->  Z1SS   NUT    ANUT        
      4.43265438E-01    2      1000022        25                       # Z2SS   -->  Z1SS   HL0                
#         PDG         Width
DECAY   1000025  2.05312614E+01   # Z3SS  decays
#          BR          NDA       ID1       ID2       ID3       ID4
      1.47185702E-07    2      1000022        22                       # Z3SS   -->  Z1SS   GM                 
      8.46237802E-10    2      1000023        22                       # Z3SS   -->  Z2SS   GM                 
      3.17422628E-01    2      1000024       -24                       # Z3SS   -->  W1SS+  W-                 
      3.17422628E-01    2     -1000024        24                       # Z3SS   -->  W1SS-  W+                 
      2.25212768E-01    2      1000022        23                       # Z3SS   -->  Z1SS   Z0                 
      7.96629786E-02    2      1000023        23                       # Z3SS   -->  Z2SS   Z0                 
      1.14272047E-09    3      1000022         2        -2             # Z3SS   -->  Z1SS   UP     UB          
      1.54146274E-09    3      1000022         1        -1             # Z3SS   -->  Z1SS   DN     DB          
      1.54146274E-09    3      1000022         3        -3             # Z3SS   -->  Z1SS   ST     SB          
      1.14272047E-09    3      1000022         4        -4             # Z3SS   -->  Z1SS   CH     CB          
      4.20719545E-07    3      1000022         5        -5             # Z3SS   -->  Z1SS   BT     BB          
      5.87177973E-10    3      1000022        11       -11             # Z3SS   -->  Z1SS   E-     E+          
      5.87177973E-10    3      1000022        13       -13             # Z3SS   -->  Z1SS   MU-    MU+         
      8.95561101E-08    3      1000022        15       -15             # Z3SS   -->  Z1SS   TAU-   TAU+        
      1.46240597E-09    3      1000022        12       -12             # Z3SS   -->  Z1SS   NUE    ANUE        
      1.46240597E-09    3      1000022        14       -14             # Z3SS   -->  Z1SS   NUM    ANUM        
      1.47109247E-09    3      1000022        16       -16             # Z3SS   -->  Z1SS   NUT    ANUT        
      8.66353517E-12    3      1000023         2        -2             # Z3SS   -->  Z2SS   UP     UB          
      4.68678395E-12    3      1000023         1        -1             # Z3SS   -->  Z2SS   DN     DB          
      4.68678395E-12    3      1000023         3        -3             # Z3SS   -->  Z2SS   ST     SB          
      8.66353517E-12    3      1000023         4        -4             # Z3SS   -->  Z2SS   CH     CB          
      5.86779469E-09    3      1000023         5        -5             # Z3SS   -->  Z2SS   BT     BB          
      3.73253650E-11    3      1000023        11       -11             # Z3SS   -->  Z2SS   E-     E+          
      3.73253650E-11    3      1000023        13       -13             # Z3SS   -->  Z2SS   MU-    MU+         
      1.33825289E-08    3      1000023        15       -15             # Z3SS   -->  Z2SS   TAU-   TAU+        
      3.93272741E-11    3      1000023        12       -12             # Z3SS   -->  Z2SS   NUE    ANUE        
      3.93272741E-11    3      1000023        14       -14             # Z3SS   -->  Z2SS   NUM    ANUM        
      3.95779104E-11    3      1000023        16       -16             # Z3SS   -->  Z2SS   NUT    ANUT        
      5.71387149E-02    2      1000022        25                       # Z3SS   -->  Z1SS   HL0                
      3.13957571E-03    2      1000023        25                       # Z3SS   -->  Z2SS   HL0                
#         PDG         Width
DECAY   1000035  1.88735275E+01   # Z4SS  decays
#          BR          NDA       ID1       ID2       ID3       ID4
      3.11782000E-09    2      1000022        22                       # Z4SS   -->  Z1SS   GM                 
      1.30516211E-08    2      1000023        22                       # Z4SS   -->  Z2SS   GM                 
      6.69773007E-14    2      1000025        22                       # Z4SS   -->  Z3SS   GM                 
      2.68538535E-01    2      1000024       -24                       # Z4SS   -->  W1SS+  W-                 
      2.68538535E-01    2     -1000024        24                       # Z4SS   -->  W1SS-  W+                 
      6.46570176E-02    2      1000022        23                       # Z4SS   -->  Z1SS   Z0                 
      3.55092343E-03    2      1000023        23                       # Z4SS   -->  Z2SS   Z0                 
      6.13128170E-09    3      1000022         2        -2             # Z4SS   -->  Z1SS   UP     UB          
      1.32777842E-08    3      1000022         1        -1             # Z4SS   -->  Z1SS   DN     DB          
      1.32777842E-08    3      1000022         3        -3             # Z4SS   -->  Z1SS   ST     SB          
      6.13128170E-09    3      1000022         4        -4             # Z4SS   -->  Z1SS   CH     CB          
      4.82170549E-07    3      1000022         5        -5             # Z4SS   -->  Z1SS   BT     BB          
      1.23183908E-09    3      1000022        11       -11             # Z4SS   -->  Z1SS   E-     E+          
      1.23183908E-09    3      1000022        13       -13             # Z4SS   -->  Z1SS   MU-    MU+         
      9.77449730E-08    3      1000022        15       -15             # Z4SS   -->  Z1SS   TAU-   TAU+        
      1.66736775E-08    3      1000022        12       -12             # Z4SS   -->  Z1SS   NUE    ANUE        
      1.66736775E-08    3      1000022        14       -14             # Z4SS   -->  Z1SS   NUM    ANUM        
      1.67703682E-08    3      1000022        16       -16             # Z4SS   -->  Z1SS   NUT    ANUT        
      4.22168717E-10    3      1000023         2        -2             # Z4SS   -->  Z2SS   UP     UB          
      8.45659098E-11    3      1000023         1        -1             # Z4SS   -->  Z2SS   DN     DB          
      8.45659098E-11    3      1000023         3        -3             # Z4SS   -->  Z2SS   ST     SB          
      4.22168717E-10    3      1000023         4        -4             # Z4SS   -->  Z2SS   CH     CB          
      6.45706999E-09    3      1000023         5        -5             # Z4SS   -->  Z2SS   BT     BB          
      1.60953362E-09    3      1000023        11       -11             # Z4SS   -->  Z2SS   E-     E+          
      1.60953362E-09    3      1000023        13       -13             # Z4SS   -->  Z2SS   MU-    MU+         
      1.62004223E-08    3      1000023        15       -15             # Z4SS   -->  Z2SS   TAU-   TAU+        
      7.23778204E-10    3      1000023        12       -12             # Z4SS   -->  Z2SS   NUE    ANUE        
      7.23778204E-10    3      1000023        14       -14             # Z4SS   -->  Z2SS   NUM    ANUM        
      7.28310967E-10    3      1000023        16       -16             # Z4SS   -->  Z2SS   NUT    ANUT        
      5.08450758E-13    3      1000025         2        -2             # Z4SS   -->  Z3SS   UP     UB          
      6.55650772E-13    3      1000025         1        -1             # Z4SS   -->  Z3SS   DN     DB          
      6.55650772E-13    3      1000025         3        -3             # Z4SS   -->  Z3SS   ST     SB          
      1.48734052E-13    3      1000025        11       -11             # Z4SS   -->  Z3SS   E-     E+          
      1.48734052E-13    3      1000025        13       -13             # Z4SS   -->  Z3SS   MU-    MU+         
      2.95933877E-13    3      1000025        12       -12             # Z4SS   -->  Z3SS   NUE    ANUE        
      2.95933877E-13    3      1000025        14       -14             # Z4SS   -->  Z3SS   NUM    ANUM        
      2.95933877E-13    3      1000025        16       -16             # Z4SS   -->  Z3SS   NUT    ANUT        
      2.88291931E-01    2      1000022        25                       # Z4SS   -->  Z1SS   HL0                
      1.06422380E-01    2      1000023        25                       # Z4SS   -->  Z2SS   HL0                
#         PDG         Width
DECAY   1000024  4.46596385E-15   # W1SS+ decays
#          BR          NDA       ID1       ID2       ID3       ID4
      1.00000000E+00    2      1000022         0                       # W1SS+  -->  Z1SS   PI+                
#         PDG         Width
DECAY   1000037  2.11378174E+01   # W2SS+ decays
#          BR          NDA       ID1       ID2       ID3       ID4
      1.49028221E-08    3      1000022         2        -1             # W2SS+  -->  Z1SS   UP     DB          
      1.49028221E-08    3      1000022         4        -3             # W2SS+  -->  Z1SS   CH     SB          
      1.08564313E-08    3      1000022       -11        12             # W2SS+  -->  Z1SS   E+     NUE         
      1.08564313E-08    3      1000022       -13        14             # W2SS+  -->  Z1SS   MU+    NUM         
      9.76155121E-08    3      1000022       -15        16             # W2SS+  -->  Z1SS   TAU+   NUT         
      3.10984641E-01    2      1000022        24                       # W2SS+  -->  Z1SS   W+                 
      9.30209382E-11    3      1000023         2        -1             # W2SS+  -->  Z2SS   UP     DB          
      9.30209382E-11    3      1000023         4        -3             # W2SS+  -->  Z2SS   CH     SB          
      6.41383113E-10    3      1000023       -11        12             # W2SS+  -->  Z2SS   E+     NUE         
      6.41383113E-10    3      1000023       -13        14             # W2SS+  -->  Z2SS   MU+    NUM         
      1.37872593E-08    3      1000023       -15        16             # W2SS+  -->  Z2SS   TAU+   NUT         
      8.07944387E-02    2      1000023        24                       # W2SS+  -->  Z2SS   W+                 
      4.55540917E-11    3      1000025         2        -1             # W2SS+  -->  Z3SS   UP     DB          
      4.55540917E-11    3      1000025         4        -3             # W2SS+  -->  Z3SS   CH     SB          
      1.51846972E-11    3      1000025       -11        12             # W2SS+  -->  Z3SS   E+     NUE         
      1.51846972E-11    3      1000025       -13        14             # W2SS+  -->  Z3SS   MU+    NUM         
      1.51847458E-11    3      1000025       -15        16             # W2SS+  -->  Z3SS   TAU+   NUT         
      2.61609462E-12    3      1000035         2        -1             # W2SS+  -->  Z4SS   UP     DB          
      2.61609462E-12    3      1000035         4        -3             # W2SS+  -->  Z4SS   CH     SB          
      8.72031614E-13    3      1000035       -11        12             # W2SS+  -->  Z4SS   E+     NUE         
      8.72031614E-13    3      1000035       -13        14             # W2SS+  -->  Z4SS   MU+    NUM         
      8.72035029E-13    3      1000035       -15        16             # W2SS+  -->  Z4SS   TAU+   NUT         
      2.95063138E-01    2      1000024        23                       # W2SS+  -->  W1SS+  Z0                 
      4.60826621E-09    3      1000024         1        -1             # W2SS+  -->  W1SS+  DN     DB          
      4.60826621E-09    3      1000024         3        -3             # W2SS+  -->  W1SS+  ST     SB          
      3.13428643E-08    3      1000024         2        -2             # W2SS+  -->  W1SS+  UP     UB          
      3.13428643E-08    3      1000024         4        -4             # W2SS+  -->  W1SS+  CH     CB          
      2.27116992E-08    3      1000024        12       -12             # W2SS+  -->  W1SS+  NUE    ANUE        
      2.27116992E-08    3      1000024        14       -14             # W2SS+  -->  W1SS+  NUM    ANUM        
      2.31856951E-08    3      1000024        16       -16             # W2SS+  -->  W1SS+  NUT    ANUT        
      3.33644645E-09    3      1000024        11       -11             # W2SS+  -->  W1SS+  E-     E+          
      3.33644645E-09    3      1000024        13       -13             # W2SS+  -->  W1SS+  MU-    MU+         
      3.35598038E-09    3      1000024        15       -15             # W2SS+  -->  W1SS+  TAU-   TAU+        
      3.13157409E-01    2      1000024        25                       # W2SS+  -->  W1SS+  HL0                
#         PDG         Width
DECAY        25  4.12575901E-03   # HL0   decays
#          BR          NDA       ID1       ID2       ID3       ID4
      4.78813167E-09    2           11       -11                       # HL0    -->  E-     E+                 
      2.02162555E-04    2           13       -13                       # HL0    -->  MU-    MU+                
      5.78213669E-02    2           15       -15                       # HL0    -->  TAU-   TAU+               
      6.00875182E-06    2            1        -1                       # HL0    -->  DN     DB                 
      2.42783665E-03    2            3        -3                       # HL0    -->  ST     SB                 
      7.94827223E-01    2            5        -5                       # HL0    -->  BT     BB                 
      1.92000971E-06    2            2        -2                       # HL0    -->  UP     UB                 
      3.60915549E-02    2            4        -4                       # HL0    -->  CH     CB                 
      1.87582045E-03    2           22        22                       # HL0    -->  GM     GM                 
      4.02013026E-02    2           21        21                       # HL0    -->  GL     GL                 
      3.42702260E-03    3           24        11       -12             # HL0    -->  W+     E-     ANUE        
      3.42702260E-03    3           24        13       -14             # HL0    -->  W+     MU-    ANUM        
      3.42702260E-03    3           24        15       -16             # HL0    -->  W+     TAU-   ANUT        
      1.02810673E-02    3           24        -2         1             # HL0    -->  W+     UB     DN          
      1.02810673E-02    3           24        -4         3             # HL0    -->  W+     CB     ST          
      3.42702260E-03    3          -24       -11        12             # HL0    -->  W-     E+     NUE         
      3.42702260E-03    3          -24       -13        14             # HL0    -->  W-     MU+    NUM         
      3.42702260E-03    3          -24       -15        16             # HL0    -->  W-     TAU+   NUT         
      1.02810673E-02    3          -24         2        -1             # HL0    -->  W-     UP     DB          
      1.02810673E-02    3          -24         4        -3             # HL0    -->  W-     CH     SB          
      3.32240597E-04    3           23        12       -12             # HL0    -->  Z0     NUE    ANUE        
      3.32240597E-04    3           23        14       -14             # HL0    -->  Z0     NUM    ANUM        
      3.32240597E-04    3           23        16       -16             # HL0    -->  Z0     NUT    ANUT        
      1.67213351E-04    3           23        11       -11             # HL0    -->  Z0     E-     E+          
      1.67213351E-04    3           23        13       -13             # HL0    -->  Z0     MU-    MU+         
      1.67213351E-04    3           23        15       -15             # HL0    -->  Z0     TAU-   TAU+        
      5.72858786E-04    3           23         2        -2             # HL0    -->  Z0     UP     UB          
      5.72858786E-04    3           23         4        -4             # HL0    -->  Z0     CH     CB          
      7.37983210E-04    3           23         1        -1             # HL0    -->  Z0     DN     DB          
      7.37983210E-04    3           23         3        -3             # HL0    -->  Z0     ST     SB          
      7.37983210E-04    3           23         5        -5             # HL0    -->  Z0     BT     BB          
#         PDG         Width
DECAY        35  5.88329430E+01   # HH0   decays
#          BR          NDA       ID1       ID2       ID3       ID4
      4.18911766E-10    2           11       -11                       # HH0    -->  E-     E+                 
      1.76872109E-05    2           13       -13                       # HH0    -->  MU-    MU+                
      5.06588537E-03    2           15       -15                       # HH0    -->  TAU-   TAU+               
      5.06856054E-07    2            1        -1                       # HH0    -->  DN     DB                 
      2.04795419E-04    2            3        -3                       # HH0    -->  ST     SB                 
      2.53638923E-02    2            5        -5                       # HH0    -->  BT     BB                 
      2.59834571E-10    2            2        -2                       # HH0    -->  UP     UB                 
      3.02616445E-06    2            4        -4                       # HH0    -->  CH     CB                 
      1.58852115E-01    2            6        -6                       # HH0    -->  TP     TB                 
      2.32120968E-07    2           22        22                       # HH0    -->  GM     GM                 
      1.63388468E-05    2           21        21                       # HH0    -->  GL     GL                 
      1.81955347E-05    2           24       -24                       # HH0    -->  W+     W-                 
      9.33647243E-06    2           23        23                       # HH0    -->  Z0     Z0                 
      5.45177492E-04    2      1000022   1000022                       # HH0    -->  Z1SS   Z1SS               
      3.90439789E-04    2      1000022   1000023                       # HH0    -->  Z1SS   Z2SS               
      1.83242500E-01    2      1000022   1000025                       # HH0    -->  Z1SS   Z3SS               
      6.50294498E-02    2      1000022   1000035                       # HH0    -->  Z1SS   Z4SS               
      5.78905601E-05    2      1000023   1000023                       # HH0    -->  Z2SS   Z2SS               
      5.27772233E-02    2      1000023   1000025                       # HH0    -->  Z2SS   Z3SS               
      1.03315394E-02    2      1000023   1000035                       # HH0    -->  Z2SS   Z4SS               
      3.32132277E-06    2      1000025   1000025                       # HH0    -->  Z3SS   Z3SS               
      2.21196693E-04    2      1000025   1000035                       # HH0    -->  Z3SS   Z4SS               
      8.97348309E-06    2      1000035   1000035                       # HH0    -->  Z4SS   Z4SS               
      1.08632410E-03    2      1000024  -1000024                       # HH0    -->  W1SS+  W1SS-              
      8.55807059E-07    2      1000037  -1000037                       # HH0    -->  W2SS+  W2SS-              
      2.48339310E-01    2      1000024  -1000037                       # HH0    -->  W1SS+  W2SS-              
      2.48339310E-01    2     -1000024   1000037                       # HH0    -->  W1SS-  W2SS+              
      7.43588753E-05    2           25        25                       # HH0    -->  HL0    HL0                
#         PDG         Width
DECAY        36  5.80624733E+01   # HA0   decays
#          BR          NDA       ID1       ID2       ID3       ID4
      4.21708751E-10    2           11       -11                       # HA0    -->  E-     E+                 
      1.78053033E-05    2           13       -13                       # HA0    -->  MU-    MU+                
      5.09971101E-03    2           15       -15                       # HA0    -->  TAU-   TAU+               
      5.10260463E-07    2            1        -1                       # HA0    -->  DN     DB                 
      2.06170982E-04    2            3        -3                       # HA0    -->  ST     SB                 
      2.55342834E-02    2            5        -5                       # HA0    -->  BT     BB                 
      2.61226568E-10    2            2        -2                       # HA0    -->  UP     UB                 
      3.04438095E-06    2            4        -4                       # HA0    -->  CH     CB                 
      1.60202309E-01    2            6        -6                       # HA0    -->  TP     TB                 
      9.56984820E-08    2           22        22                       # HA0    -->  GM     GM                 
      1.87698388E-05    2           21        21                       # HA0    -->  GL     GL                 
      7.31894805E-04    2      1000022   1000022                       # HA0    -->  Z1SS   Z1SS               
      6.65787200E-04    2      1000022   1000023                       # HA0    -->  Z1SS   Z2SS               
      6.50965124E-02    2      1000022   1000025                       # HA0    -->  Z1SS   Z3SS               
      1.82417318E-01    2      1000022   1000035                       # HA0    -->  Z1SS   Z4SS               
      1.43244601E-04    2      1000023   1000023                       # HA0    -->  Z2SS   Z2SS               
      1.01853646E-02    2      1000023   1000025                       # HA0    -->  Z2SS   Z3SS               
      5.23020178E-02    2      1000023   1000035                       # HA0    -->  Z2SS   Z4SS               
      1.81090254E-05    2      1000025   1000025                       # HA0    -->  Z3SS   Z3SS               
      8.95146422E-06    2      1000025   1000035                       # HA0    -->  Z3SS   Z4SS               
      2.52076861E-04    2      1000035   1000035                       # HA0    -->  Z4SS   Z4SS               
      1.53175043E-03    2      1000024  -1000024                       # HA0    -->  W1SS+  W1SS-              
      1.11189533E-04    2      1000037  -1000037                       # HA0    -->  W2SS+  W2SS-              
      2.47717351E-01    2      1000024  -1000037                       # HA0    -->  W1SS+  W2SS-              
      2.47717351E-01    2     -1000024   1000037                       # HA0    -->  W1SS-  W2SS+              
      1.83002903E-05    2           25        23                       # HA0    -->  HL0    Z0                 
#         PDG         Width
DECAY        37  5.80791092E+01   # H+    decays
#          BR          NDA       ID1       ID2       ID3       ID4
      4.24401431E-10    2           12       -11                       # H+     -->  NUE    E+                 
      1.79189938E-05    2           14       -13                       # H+     -->  NUM    MU+                
      5.13227377E-03    2           16       -15                       # H+     -->  NUT    TAU+               
      4.78133302E-07    2            2        -1                       # H+     -->  UP     DB                 
      1.95940520E-04    2            4        -3                       # H+     -->  CH     SB                 
      1.73666611E-01    2            6        -5                       # H+     -->  TP     BB                 
      1.95894103E-07    2      1000024   1000022                       # H+     -->  W1SS+  Z1SS               
      1.08098122E-03    2      1000024   1000023                       # H+     -->  W1SS+  Z2SS               
      2.52085418E-01    2      1000024   1000025                       # H+     -->  W1SS+  Z3SS               
      2.51543313E-01    2      1000024   1000035                       # H+     -->  W1SS+  Z4SS               
      2.51993001E-01    2      1000037   1000022                       # H+     -->  W2SS+  Z1SS               
      6.41405433E-02    2      1000037   1000023                       # H+     -->  W2SS+  Z2SS               
      7.15840360E-05    2      1000037   1000025                       # H+     -->  W2SS+  Z3SS               
      5.32742961E-05    2      1000037   1000035                       # H+     -->  W2SS+  Z4SS               
      1.84241289E-05    2           25        24                       # H+     -->  HL0    W+                 
