# SUSY Les Houches Accord 2 - MSSM spectrum + Decays
# SPheno v3.1.12 
# W. Porod, Comput. Phys. Commun. 153 (2003) 275-315, hep-ph/0301101
# in case of problems send email to porod@physik.uni-wuerzburg.de
# Created: 23.08.2012,  19:58
Block SPINFO         # Program information
     1   SPheno      # spectrum calculator
     2   v3.1.12     # version number
#
Block SPhenoINFO     # SPheno specific information
    1      2         # using 2-loop RGEs
    2      1         # using running masses for boundary conditions at mZ
Block MODSEL  # Model selection
    1    2    # mGMSB model
Block MINPAR  # Input parameters
    1    4.00000000E+05  # Lambda, scale of SUSY breaking
    2    8.00000000E+05  # M_M, messenger mass scale
    3    1.50000000E+01  # tanb at m_Z   
    4    1.00000000E+00  # Sign(mu)
    5    1.00000000E+00  # N_5 number of effective five-plets
    6    1.00000000E+00  # c_grav, Gravitino mass factor
Block gauge Q=  5.00000000E+05  # (GMSB scale)
   1    4.96787430E-01  # g'(Q)^DRbar
   2    6.50028058E-01  # g(Q)^DRbar
   3    9.30056008E-01  # g3(Q)^DRbar
Block SMINPUTS  # SM parameters
         1     1.27932483E+02  # alpha_em^-1(MZ)^MSbar
         2     1.16639000E-05  # G_mu [GeV^-2]
         3     1.17200000E-01  # alpha_s(MZ)^MSbar
         4     9.11876000E+01  # m_Z(pole)
         5     4.20000000E+00  # m_b(m_b), MSbar
         6     1.72500000E+02  # m_t(pole)
         7     1.77700000E+00  # m_tau(pole)
         8     0.00000000E+00  # m_nu_3
        11     5.10998910E-04  # m_e(pole)
        12     0.00000000E+00  # m_nu_1
        13     1.05658000E-01  # m_muon(pole)
        14     0.00000000E+00  # m_nu_2
        21     5.00000000E-03  # m_d(2 GeV), MSbar
        22     3.00000000E-03  # m_u(2 GeV), MSbar
        23     1.05000000E-01  # m_s(2 GeV), MSbar
        24     1.27000000E+00  # m_c(m_c), MSbar
Block gauge Q=  2.38234800E+03  # (SUSY scale)
   1    3.64896353E-01  # g'(Q)^DRbar
   2    6.39267538E-01  # g(Q)^DRbar
   3    1.02100711E+00  # g3(Q)^DRbar
Block Yu Q=  2.38234800E+03  # (SUSY scale)
#  1  1     8.36246911E-06   # Y_u(Q)^DRbar
#  2  2     3.54011240E-03   # Y_c(Q)^DRbar
  3  3     8.40956151E-01   # Y_t(Q)^DRbar
Block Yd Q=  2.38234800E+03  # (SUSY scale)
#  1  1     1.91077648E-04   # Y_d(Q)^DRbar
#  2  2     4.01262928E-03   # Y_s(Q)^DRbar
  3  3     1.88967545E-01   # Y_b(Q)^DRbar
Block Ye Q=  2.38234800E+03  # (SUSY scale)
#  1  1     4.30291506E-05   # Y_e(Q)^DRbar
#  2  2     8.89704153E-03   # Y_mu(Q)^DRbar
  3  3     1.49676422E-01   # Y_tau(Q)^DRbar
Block Au Q=  2.38234800E+03  # (SUSY scale)
  1  1    -5.56831512E+02   # A_u(Q)^DRbar
  2  2    -5.56830629E+02   # A_c(Q)^DRbar
  3  3    -5.21907266E+02   # A_t(Q)^DRbar
Block Ad Q=  2.38234800E+03  # (SUSY scale)
  1  1    -5.94555552E+02   # A_d(Q)^DRbar
  2  2    -5.94554536E+02   # A_s(Q)^DRbar
  3  3    -5.81565844E+02   # A_b(Q)^DRbar
Block Ae Q=  2.38234800E+03  # (SUSY scale)
  1  1    -6.55785910E+01   # A_e(Q)^DRbar
  2  2    -6.55780121E+01   # A_mu(Q)^DRbar
  3  3    -6.54148087E+01   # A_tau(Q)^DRbar
Block MSOFT Q=  2.38234800E+03  # soft SUSY breaking masses at Q
   1    3.65037632E+02  # M_1
   2    6.69703962E+02  # M_2
   3    1.71685914E+03  # M_3
  21    6.77344461E+05  # M^2_(H,d)
  22   -7.23115500E+05  # M^2_(H,u)
  31    8.69068087E+02  # M_(L,11)
  32    8.69063331E+02  # M_(L,22)
  33    8.67721696E+02  # M_(L,33)
  34    4.31842139E+02  # M_(E,11)
  35    4.31822814E+02  # M_(E,22)
  36    4.26339168E+02  # M_(E,33)
  41    2.55416786E+03  # M_(Q,11)
  42    2.55416410E+03  # M_(Q,22)
  43    2.45733934E+03  # M_(Q,33)
  44    2.43023147E+03  # M_(U,11)
  45    2.43022802E+03  # M_(U,22)
  46    2.22919884E+03  # M_(U,33)
  47    2.41712063E+03  # M_(D,11)
  48    2.41711608E+03  # M_(D,22)
  49    2.40707851E+03  # M_(D,33)
Block MASS  # Mass spectrum
#   PDG code      mass          particle
         6     1.72500000E+02  # m_t(pole)
        23     9.11876000E+01  # m_Z(pole)
        24     8.03132662E+01  # W+
        15     1.77700000E+00  # m_tau(pole)
        25     1.19665378E+02  # h0
        35     1.24830543E+03  # H0
        36     1.24812931E+03  # A0
        37     1.25117654E+03  # H+
   1000001     2.61710479E+03  # ~d_L
   2000001     2.47618049E+03  # ~d_R
   1000002     2.61599909E+03  # ~u_L
   2000002     2.48813369E+03  # ~u_R
   1000003     2.61710043E+03  # ~s_L
   2000003     2.47617501E+03  # ~s_R
   1000004     2.61599476E+03  # ~c_L
   2000004     2.48812975E+03  # ~c_R
   1000005     2.46330096E+03  # ~b_1
   2000005     2.50467035E+03  # ~b_2
   1000006     2.26197753E+03  # ~t_1
   2000006     2.50912177E+03  # ~t_2
   1000011     8.76967222E+02  # ~e_L-
   2000011     4.44302942E+02  # ~e_R-
   1000012     8.73013270E+02  # ~nu_eL
   1000013     8.76963037E+02  # ~mu_L-
   2000013     4.44275547E+02  # ~mu_R-
   1000014     8.73006925E+02  # ~nu_muL
   1000015     4.36498910E+02  # ~tau_1-
   2000015     8.75780555E+02  # ~tau_2-
   1000016     8.71219252E+02  # ~nu_tauL
   1000021     2.96627806E+03   # ~g
   1000022     5.78303160E+02   # ~chi_10
   1000023     1.09530598E+03   # ~chi_20
   1000025    -1.35081141E+03   # ~chi_30
   1000035     1.36415865E+03   # ~chi_40
   1000024     1.09526053E+03   # ~chi_1+
   1000037     1.36378751E+03   # ~chi_2+
   1000039     3.00000000E-08  # ~G
# Higgs mixing
Block alpha # Effective Higgs mixing angle
          -7.06738348E-02   # alpha
Block Hmix Q=  2.38234800E+03  # Higgs mixing parameters
   1    9.24694061E+02  # mu
   2    1.43326118E+01  # tan[beta](Q)
   3    2.43266849E+02  # v(Q)
   4    1.40614555E+06  # m^2_A(Q)
Block stopmix # stop mixing matrix
   1  1     9.54555093E-02   # Re[R_st(1,1)]
   1  2     9.95433697E-01   # Re[R_st(1,2)]
   2  1    -9.95433697E-01   # Re[R_st(2,1)]
   2  2     9.54555093E-02   # Re[R_st(2,2)]
Block sbotmix # sbottom mixing matrix
   1  1     1.61682879E-01   # Re[R_sb(1,1)]
   1  2     9.86842767E-01   # Re[R_sb(1,2)]
   2  1    -9.86842767E-01   # Re[R_sb(2,1)]
   2  2     1.61682879E-01   # Re[R_sb(2,2)]
Block staumix # stau mixing matrix
   1  1     4.22106234E-02   # Re[R_sta(1,1)]
   1  2     9.99108734E-01   # Re[R_sta(1,2)]
   2  1    -9.99108734E-01   # Re[R_sta(2,1)]
   2  2     4.22106234E-02   # Re[R_sta(2,2)]
BLOCK NMIX  # Neutralino Mixing Matrix
  1  1     9.98920538E-01   # N_11
  1  2    -3.37530439E-03   # N_12
  1  3     4.17003048E-02   # N_13
  1  4    -2.01854085E-02   # N_14
  2  1     1.33558964E-02   # N_21
  2  2     9.74584601E-01   # N_22
  2  3    -1.71705914E-01   # N_23
  2  4     1.43260445E-01   # N_24
  3  1     1.51269554E-02   # N_31
  3  2    -2.06935798E-02   # N_32
  3  3    -7.06424216E-01   # N_33
  3  4    -7.07324380E-01   # N_34
  4  1     4.18396230E-02   # N_41
  4  2    -2.23036408E-01   # N_42
  4  3    -6.85377992E-01   # N_43
  4  4     6.91925730E-01   # N_44
#
BLOCK UMIX  # Chargino Mixing Matrix U
  1  1    -9.69862434E-01   # U_11
  1  2     2.43653155E-01   # U_12
  2  1     2.43653155E-01   # U_21
  2  2     9.69862434E-01   # U_22
#
BLOCK VMIX  # Chargino Mixing Matrix V
  1  1    -9.79110067E-01   # V_11
  1  2     2.03330953E-01   # V_12
  2  1     2.03330953E-01   # V_21
  2  2     9.79110067E-01   # V_22
DECAY   2000011     2.95103506E-01   # ~e^-_R
#    BR                NDA      ID1      ID2
     1.00000000E+00    2     1000022        11   # BR(~e^-_R -> chi^0_1 e^-)
     7.47019078E-11    2     1000039        11   # BR(~e^-_R -> ~G e^-)
DECAY   1000011     2.33691408E+00   # ~e^-_L
#    BR                NDA      ID1      ID2
     3.36500037E-01    2     1000022        11   # BR(~e^-_L -> chi^0_1 e^-)
     2.27252021E-01    2     1000023        11   # BR(~e^-_L -> chi^0_2 e^-)
     4.36247931E-01    2    -1000024        12   # BR(~e^-_L -> chi^-_1 nu_e)
     5.32995447E-09    2     2000011        23   # BR(~e^-_L -> ~e^-_R Z)
     5.49115009E-09    2     2000011        25   # BR(~e^-_L -> ~e^-_R h^0)
     2.82607823E-10    2     1000039        11   # BR(~e^-_L -> ~G e^-)
DECAY   2000013     2.94952480E-01   # ~mu^-_R
#    BR                NDA      ID1      ID2
     1.00000000E+00    2     1000022        13   # BR(~mu^-_R -> chi^0_1 mu^-)
     7.47171026E-11    2     1000039        13   # BR(~mu^-_R -> ~G mu^-)
DECAY   1000013     2.33791145E+00   # ~mu^-_L
#    BR                NDA      ID1      ID2
     3.36357862E-01    2     1000022        13   # BR(~mu^-_L -> chi^0_1 mu^-)
     2.27143868E-01    2     1000023        13   # BR(~mu^-_L -> chi^0_2 mu^-)
     4.36035817E-01    2    -1000024        14   # BR(~mu^-_L -> chi^-_1 nu_mu)
     2.27784755E-04    2     2000013        23   # BR(~mu^-_L -> ~mu^-_R Z)
     2.34667813E-04    2     2000013        25   # BR(~mu^-_L -> ~mu^-_R h^0)
     2.82480505E-10    2     1000039        13   # BR(~mu^-_L -> ~G mu^-)
DECAY   1000015     2.53002408E-01   # ~tau^-_1
#    BR                NDA      ID1      ID2
     1.00000000E+00    2     1000022        15   # BR(~tau^-_1 -> chi^0_1 tau^-)
     7.97393134E-11    2     1000039        15   # BR(~tau^-_1 -> ~G tau^-)
DECAY   2000015     2.62237007E+00   # ~tau^-_2
#    BR                NDA      ID1      ID2
     3.00196111E-01    2     1000022        15   # BR(~tau^-_2 -> chi^0_1 tau^-)
     1.99708088E-01    2     1000023        15   # BR(~tau^-_2 -> chi^0_2 tau^-)
     3.82253796E-01    2    -1000024        16   # BR(~tau^-_2 -> chi^-_1 nu_tau)
     5.82502359E-02    2     1000015        23   # BR(~tau^-_2 -> ~tau^-_1 Z)
     5.95917682E-02    2     1000015        25   # BR(~tau^-_2 -> ~tau^-_1 h^0)
     2.50141344E-10    2     1000039        15   # BR(~tau^-_2 -> ~G tau^-)
DECAY   1000012     2.32384052E+00   # ~nu_e
#    BR                NDA      ID1      ID2
     3.51991258E-01    2     1000022        12   # BR(~nu_e -> chi^0_1 nu_e)
     2.10744571E-01    2     1000023        12   # BR(~nu_e -> chi^0_2 nu_e)
     4.37264161E-01    2     1000024        11   # BR(~nu_e -> chi^+_1 e^-)
     1.03522492E-08    2     2000011        24   # BR(~nu_e -> ~e^-_R W^+)
     2.77848479E-10    2     1000039        12   # BR(~nu_e -> ~G nu_e)
DECAY   1000014     2.32478749E+00   # ~nu_mu
#    BR                NDA      ID1      ID2
     3.51843270E-01    2     1000022        14   # BR(~nu_mu -> chi^0_1 nu_mu)
     2.10647458E-01    2     1000023        14   # BR(~nu_mu -> chi^0_2 nu_mu)
     4.37066846E-01    2     1000024        13   # BR(~nu_mu -> chi^+_1 mu^-)
     4.42426595E-04    2     2000013        24   # BR(~nu_mu -> ~mu^-_R W^+)
     2.77725208E-10    2     1000039        14   # BR(~nu_mu -> ~G nu_mu)
DECAY   1000016     2.59524397E+00   # ~nu_tau
#    BR                NDA      ID1      ID2
     3.14013150E-01    2     1000022        16   # BR(~nu_tau -> chi^0_1 nu_tau)
     1.85856894E-01    2     1000023        16   # BR(~nu_tau -> chi^0_2 nu_tau)
     3.86665071E-01    2     1000024        15   # BR(~nu_tau -> chi^+_1 tau^-)
     1.13464886E-01    2     1000015        24   # BR(~nu_tau -> ~tau^-_1 W^+)
     2.46246035E-10    2     1000039        16   # BR(~nu_tau -> ~G nu_tau)
DECAY   2000001     2.21717431E+01   # ~d_R
#    BR                NDA      ID1      ID2
     6.27850718E-02    2     1000022         1   # BR(~d_R -> chi^0_1 d)
     2.36083993E-05    2     1000023         1   # BR(~d_R -> chi^0_2 d)
     2.44141338E-05    2     1000025         1   # BR(~d_R -> chi^0_3 d)
     1.47966561E-04    2     1000035         1   # BR(~d_R -> chi^0_4 d)
     1.15367585E-08    2    -1000024         2   # BR(~d_R -> chi^-_1 u)
     5.05931445E-08    2    -1000037         2   # BR(~d_R -> chi^-_2 u)
     9.37018872E-01    2     1000021         1   # BR(~d_R -> ~g d)
     5.34591153E-09    2     1000039         1   # BR(~d_R -> ~G d)
DECAY   1000001     5.76097769E+01   # ~d_L
#    BR                NDA      ID1      ID2
     6.87838391E-03    2     1000022         1   # BR(~d_L -> chi^0_1 d)
     1.50812095E-01    2     1000023         1   # BR(~d_L -> chi^0_2 d)
     1.83758150E-04    2     1000025         1   # BR(~d_L -> chi^0_3 d)
     7.71054693E-03    2     1000035         1   # BR(~d_L -> chi^0_4 d)
     2.99244105E-01    2    -1000024         2   # BR(~d_L -> chi^-_1 u)
     1.85303840E-02    2    -1000037         2   # BR(~d_L -> chi^-_2 u)
     5.16640725E-01    2     1000021         1   # BR(~d_L -> ~g d)
     2.76364279E-13    2     2000002       -24   # BR(~d_L -> ~u_R W^-)
     1.11158038E-10    2     2000001        23   # BR(~d_L -> ~d_R Z)
     1.21940656E-10    2     2000001        25   # BR(~d_L -> ~d_R h^0)
     2.71343538E-09    2     1000039         1   # BR(~d_L -> ~G d)
DECAY   2000003     2.21726128E+01   # ~s_R
#    BR                NDA      ID1      ID2
     6.27827757E-02    2     1000022         3   # BR(~s_R -> chi^0_1 s)
     2.61072367E-05    2     1000023         3   # BR(~s_R -> chi^0_2 s)
     3.72858211E-05    2     1000025         3   # BR(~s_R -> chi^0_3 s)
     1.59081165E-04    2     1000035         3   # BR(~s_R -> chi^0_4 s)
     5.08746215E-06    2    -1000024         4   # BR(~s_R -> chi^-_1 c)
     2.23105772E-05    2    -1000037         4   # BR(~s_R -> chi^-_2 c)
     9.36967347E-01    2     1000021         3   # BR(~s_R -> ~g s)
     5.34564271E-09    2     1000039         3   # BR(~s_R -> ~G s)
DECAY   1000003     5.76105208E+01   # ~s_L
#    BR                NDA      ID1      ID2
     6.87824475E-03    2     1000022         3   # BR(~s_L -> chi^0_1 s)
     1.50809596E-01    2     1000023         3   # BR(~s_L -> chi^0_2 s)
     1.89327502E-04    2     1000025         3   # BR(~s_L -> chi^0_3 s)
     7.71595668E-03    2     1000035         3   # BR(~s_L -> chi^0_4 s)
     2.99238367E-01    2    -1000024         4   # BR(~s_L -> chi^-_1 c)
     1.85394413E-02    2    -1000037         4   # BR(~s_L -> chi^-_2 c)
     5.16628911E-01    2     1000021         3   # BR(~s_L -> ~g s)
     4.95264556E-08    2     2000004       -24   # BR(~s_L -> ~c_R W^-)
     4.90213325E-08    2     2000003        23   # BR(~s_L -> ~s_R Z)
     5.37765891E-08    2     2000003        25   # BR(~s_L -> ~s_R h^0)
     2.71337775E-09    2     1000039         3   # BR(~s_L -> ~G s)
DECAY   1000005     2.52246605E+01   # ~b_1
#    BR                NDA      ID1      ID2
     5.57245359E-02    2     1000022         5   # BR(~b_1 -> chi^0_1 b)
     1.80823312E-02    2     1000023         5   # BR(~b_1 -> chi^0_2 b)
     2.41047715E-02    2     1000025         5   # BR(~b_1 -> chi^0_3 b)
     1.72507983E-02    2     1000035         5   # BR(~b_1 -> chi^0_4 b)
     3.64264837E-02    2    -1000024         6   # BR(~b_1 -> chi^-_1 t)
     5.37890979E-02    2    -1000037         6   # BR(~b_1 -> chi^-_2 t)
     7.94357795E-01    2     1000021         5   # BR(~b_1 -> ~g b)
     2.64182383E-04    2     1000006       -24   # BR(~b_1 -> ~t_1 W^-)
     4.57790864E-09    2     1000039         5   # BR(~b_1 -> ~G b)
DECAY   2000005     7.49871527E+01   # ~b_2
#    BR                NDA      ID1      ID2
     4.89817663E-03    2     1000022         5   # BR(~b_2 -> chi^0_1 b)
     1.04490567E-01    2     1000023         5   # BR(~b_2 -> chi^0_2 b)
     9.28932490E-03    2     1000025         5   # BR(~b_2 -> chi^0_3 b)
     1.58256554E-02    2     1000035         5   # BR(~b_2 -> chi^0_4 b)
     2.14081778E-01    2    -1000024         6   # BR(~b_2 -> chi^-_1 t)
     3.45405252E-01    2    -1000037         6   # BR(~b_2 -> chi^-_2 t)
     2.99837364E-01    2     1000021         5   # BR(~b_2 -> ~g b)
     6.17188057E-03    2     1000006       -24   # BR(~b_2 -> ~t_1 W^-)
     1.67367543E-09    2     1000039         5   # BR(~b_2 -> ~G b)
DECAY   2000002     2.71224902E+01   # ~u_R
#    BR                NDA      ID1      ID2
     2.06373851E-01    2     1000022         2   # BR(~u_R -> chi^0_1 u)
     7.76732099E-05    2     1000023         2   # BR(~u_R -> chi^0_2 u)
     8.03763925E-05    2     1000025         2   # BR(~u_R -> chi^0_3 u)
     4.87695134E-04    2     1000035         2   # BR(~u_R -> chi^0_4 u)
     1.20576362E-11    2     1000024         1   # BR(~u_R -> chi^+_1 d)
     8.46387026E-11    2     1000037         1   # BR(~u_R -> chi^+_2 d)
     7.92980400E-01    2     1000021         2   # BR(~u_R -> ~g u)
     4.47660855E-09    2     1000039         2   # BR(~u_R -> ~G u)
DECAY   1000002     5.75965205E+01   # ~u_L
#    BR                NDA      ID1      ID2
     5.96275961E-03    2     1000022         2   # BR(~u_L -> chi^0_1 u)
     1.53200792E-01    2     1000023         2   # BR(~u_L -> chi^0_2 u)
     1.07093147E-04    2     1000025         2   # BR(~u_L -> chi^0_3 u)
     6.38302542E-03    2     1000035         2   # BR(~u_L -> chi^0_4 u)
     3.08158783E-01    2     1000024         1   # BR(~u_L -> chi^+_1 d)
     1.06984158E-02    2     1000037         1   # BR(~u_L -> chi^+_2 d)
     5.15489128E-01    2     1000021         2   # BR(~u_L -> ~g u)
     2.61514263E-10    2     2000001        24   # BR(~u_L -> ~d_R W^+)
     9.96677097E-14    2     2000002        23   # BR(~u_L -> ~u_R Z)
     6.04565991E-14    2     2000002        25   # BR(~u_L -> ~u_R h^0)
     2.70833144E-09    2     1000039         2   # BR(~u_L -> ~G u)
DECAY   2000004     2.71231625E+01   # ~c_R
#    BR                NDA      ID1      ID2
     2.06368226E-01    2     1000022         4   # BR(~c_R -> chi^0_1 c)
     7.87274500E-05    2     1000023         4   # BR(~c_R -> chi^0_2 c)
     8.89428127E-05    2     1000025         4   # BR(~c_R -> chi^0_3 c)
     4.95169389E-04    2     1000035         4   # BR(~c_R -> chi^0_4 c)
     2.16081108E-06    2     1000024         3   # BR(~c_R -> chi^+_1 s)
     1.51677822E-05    2     1000037         3   # BR(~c_R -> chi^+_2 s)
     7.92951601E-01    2     1000021         4   # BR(~c_R -> ~g c)
     4.47645741E-09    2     1000039         4   # BR(~c_R -> ~G c)
DECAY   1000004     5.75971513E+01   # ~c_L
#    BR                NDA      ID1      ID2
     5.96271028E-03    2     1000022         4   # BR(~c_L -> chi^0_1 c)
     1.53198448E-01    2     1000023         4   # BR(~c_L -> chi^0_2 c)
     1.11366256E-04    2     1000025         4   # BR(~c_L -> chi^0_3 c)
     6.38745719E-03    2     1000035         4   # BR(~c_L -> chi^0_4 c)
     3.08154853E-01    2     1000024         3   # BR(~c_L -> chi^+_1 s)
     1.07089545E-02    2     1000037         3   # BR(~c_L -> chi^+_2 s)
     5.15476064E-01    2     1000021         4   # BR(~c_L -> ~g c)
     1.15329045E-07    2     2000003        24   # BR(~c_L -> ~s_R W^+)
     1.78611562E-08    2     2000004        23   # BR(~c_L -> ~c_R Z)
     1.08340973E-08    2     2000004        25   # BR(~c_L -> ~c_R h^0)
     2.70827680E-09    2     1000039         4   # BR(~c_L -> ~G c)
DECAY   1000006     5.66543088E+01   # ~t_1
#    BR                NDA      ID1      ID2
     1.01653221E-06    2     1000022         4   # BR(~t_1 -> chi^0_1 c)
     8.81514846E-02    2     1000022         6   # BR(~t_1 -> chi^0_1 t)
     2.51608593E-05    2     1000023         4   # BR(~t_1 -> chi^0_2 c)
     1.58076408E-02    2     1000023         6   # BR(~t_1 -> chi^0_2 t)
     1.94348967E-01    2     1000025         6   # BR(~t_1 -> chi^0_3 t)
     1.71428949E-01    2     1000035         6   # BR(~t_1 -> chi^0_4 t)
     3.28989928E-02    2     1000024         5   # BR(~t_1 -> chi^+_1 b)
     3.52703416E-01    2     1000037         5   # BR(~t_1 -> chi^+_2 b)
     3.12464345E-05    2     1000021         4   # BR(~t_1 -> ~g c)
     1.44599541E-01    2     1000021         6   # BR(~t_1 -> ~g t)
     1.30012831E-09    2     1000039         6   # BR(~t_1 -> ~G t)
#    BR                NDA      ID1      ID2       ID3
     3.58216128E-06    3     1000022        24         5   # BR(~t_1 -> chi^0_1 W^+ b)
DECAY   2000006     7.41761452E+01   # ~t_2
#    BR                NDA      ID1      ID2
     4.61997529E-03    2     1000022         6   # BR(~t_2 -> chi^0_1 t)
     1.10210042E-01    2     1000023         6   # BR(~t_2 -> chi^0_2 t)
     1.71749384E-01    2     1000025         6   # BR(~t_2 -> chi^0_3 t)
     1.81511218E-01    2     1000035         6   # BR(~t_2 -> chi^0_4 t)
     2.14656831E-01    2     1000024         5   # BR(~t_2 -> chi^+_1 b)
     3.68140296E-02    2     1000037         5   # BR(~t_2 -> chi^+_2 b)
     2.75090915E-01    2     1000021         6   # BR(~t_2 -> ~g t)
     3.28535392E-03    2     1000006        23   # BR(~t_2 -> ~t_1 Z)
     2.06224877E-03    2     1000006        25   # BR(~t_2 -> ~t_1 h^0)
     1.67503703E-09    2     1000039         6   # BR(~t_2 -> ~G t)
DECAY   1000024     3.87016811E-02   # chi^+_1
#    BR                NDA      ID1      ID2
     2.04626384E-08    2    -2000011        12   # BR(chi^+_1 -> ~e^+_R nu_e)
     8.74971393E-04    2    -2000013        14   # BR(chi^+_1 -> ~mu^+_R nu_mu)
     2.58393380E-01    2    -1000015        16   # BR(chi^+_1 -> ~tau^+_1 nu_tau)
     7.36526743E-01    2     1000022        24   # BR(chi^+_1 -> chi^0_1 W^+)
#    BR                NDA      ID1      ID2       ID3
     1.58936817E-06    3     1000022        -1         2   # BR(chi^+_1 -> chi^0_1 d_bar u)
     1.58978323E-06    3     1000022        -3         4   # BR(chi^+_1 -> chi^0_1 s_bar c)
     1.46867489E-03    3     1000022        -5         6   # BR(chi^+_1 -> chi^0_1 b_bar t)
     9.07963611E-04    3     1000022       -11        12   # BR(chi^+_1 -> chi^0_1 e^+ nu_e)
     9.07993936E-04    3     1000022       -13        14   # BR(chi^+_1 -> chi^0_1 mu^+ nu_mu)
     9.17073948E-04    3     1000022       -15        16   # BR(chi^+_1 -> chi^0_1 tau^+ nu_tau)
DECAY   1000037     4.49651633E+00   # chi^+_2
#    BR                NDA      ID1      ID2
     2.00678939E-09    2    -2000011        12   # BR(chi^+_2 -> ~e^+_R nu_e)
     1.24744386E-03    2    -1000011        12   # BR(chi^+_2 -> ~e^+_L nu_e)
     8.58016834E-05    2    -2000013        14   # BR(chi^+_2 -> ~mu^+_R nu_mu)
     1.24790216E-03    2    -1000013        14   # BR(chi^+_2 -> ~mu^+_L nu_mu)
     2.47313133E-02    2    -1000015        16   # BR(chi^+_2 -> ~tau^+_1 nu_tau)
     1.38130388E-03    2    -2000015        16   # BR(chi^+_2 -> ~tau^+_2 nu_tau)
     7.97262956E-04    2     1000012       -11   # BR(chi^+_2 -> ~nu_e e^+)
     8.00982046E-04    2     1000014       -13   # BR(chi^+_2 -> ~nu_mu mu^+)
     1.89668953E-03    2     1000016       -15   # BR(chi^+_2 -> ~nu_tau tau^+)
     1.26165970E-01    2     1000022        24   # BR(chi^+_2 -> chi^0_1 W^+)
     3.00889481E-01    2     1000023        24   # BR(chi^+_2 -> chi^0_2 W^+)
     2.85942026E-01    2     1000024        23   # BR(chi^+_2 -> chi^+_1 Z)
     2.53429542E-01    2     1000024        25   # BR(chi^+_2 -> chi^+_1 h^0)
#    BR                NDA      ID1      ID2       ID3
     1.01859392E-08    3     1000024         2        -2   # BR(chi^+_2 -> chi^+_1 u u_bar)
     1.01809624E-08    3     1000024         4        -4   # BR(chi^+_2 -> chi^+_1 c c_bar)
     6.07224876E-09    3     1000024         1        -1   # BR(chi^+_2 -> chi^+_1 d d_bar)
     6.18237759E-09    3     1000024         3        -3   # BR(chi^+_2 -> chi^+_1 s s_bar)
     2.69767137E-07    3     1000024         5        -5   # BR(chi^+_2 -> chi^+_1 b b_bar)
     1.35971268E-10    3     1000024        13       -13   # BR(chi^+_2 -> chi^+_1 mu^- mu^+)
     3.84662241E-08    3     1000024        15       -15   # BR(chi^+_2 -> chi^+_1 tau^- tau^+)
     4.59605218E-09    3     1000024        12       -12   # BR(chi^+_2 -> chi^+_1 nu_e nu_bar_e)
     1.07005391E-08    3     1000022        -1         2   # BR(chi^+_2 -> chi^0_1 d_bar u)
     1.11201418E-08    3     1000022        -3         4   # BR(chi^+_2 -> chi^0_1 s_bar c)
     1.16282091E-03    3     1000022        -5         6   # BR(chi^+_2 -> chi^0_1 b_bar t)
     1.59051489E-14    3     1000022       -11        12   # BR(chi^+_2 -> chi^0_1 e^+ nu_e)
     6.79991412E-10    3     1000022       -13        14   # BR(chi^+_2 -> chi^0_1 mu^+ nu_mu)
     1.92441729E-07    3     1000022       -15        16   # BR(chi^+_2 -> chi^0_1 tau^+ nu_tau)
     4.32877479E-09    3     1000023        -1         2   # BR(chi^+_2 -> chi^0_2 d_bar u)
     4.38356936E-09    3     1000023        -3         4   # BR(chi^+_2 -> chi^0_2 s_bar c)
     2.20723146E-04    3     1000023        -5         6   # BR(chi^+_2 -> chi^0_2 b_bar t)
     7.28222539E-11    3     1000023       -13        14   # BR(chi^+_2 -> chi^0_2 mu^+ nu_mu)
     2.29821968E-08    3     1000023       -15        16   # BR(chi^+_2 -> chi^0_2 tau^+ nu_tau)
     4.85384020E-08    3     1000025        -1         2   # BR(chi^+_2 -> chi^0_3 d_bar u)
     4.66688176E-08    3     1000025        -3         4   # BR(chi^+_2 -> chi^0_3 s_bar c)
     1.61821706E-08    3     1000025       -11        12   # BR(chi^+_2 -> chi^0_3 e^+ nu_e)
     1.61777248E-08    3     1000025       -13        14   # BR(chi^+_2 -> chi^0_3 mu^+ nu_mu)
     1.49715471E-08    3     1000025       -15        16   # BR(chi^+_2 -> chi^0_3 tau^+ nu_tau)
DECAY   1000022     7.2E-12   # chi^0_1
#    BR                NDA      ID1      ID2
     1.0    2     1000039        22   # BR(chi^0_1 -> ~G photon)
#     2.39608100E-01    2     1000039        23   # BR(chi^0_1 -> ~G Z)
#     8.76109745E-04    2     1000039        25   # BR(chi^0_1 -> ~G h^0)
DECAY   1000023     4.15743800E-02   # chi^0_2
#    BR                NDA      ID1      ID2
     6.12888799E-03    2     2000011       -11   # BR(chi^0_2 -> ~e^-_R e^+)
     6.12888799E-03    2    -2000011        11   # BR(chi^0_2 -> ~e^+_R e^-)
     6.53159098E-03    2     2000013       -13   # BR(chi^0_2 -> ~mu^-_R mu^+)
     6.53159098E-03    2    -2000013        13   # BR(chi^0_2 -> ~mu^+_R mu^-)
     1.25175198E-01    2     1000015       -15   # BR(chi^0_2 -> ~tau^-_1 tau^+)
     1.25175198E-01    2    -1000015        15   # BR(chi^0_2 -> ~tau^+_1 tau^-)
     5.04367139E-02    2     1000022        23   # BR(chi^0_2 -> chi^0_1 Z)
     6.71344665E-01    2     1000022        25   # BR(chi^0_2 -> chi^0_1 h^0)
     1.14921034E-09    2     1000039        22   # BR(chi^0_2 -> ~G photon)
     2.65831590E-09    2     1000039        23   # BR(chi^0_2 -> ~G Z)
     1.01687596E-10    2     1000039        25   # BR(chi^0_2 -> ~G h^0)
     3.95474022E-06    2     1000022        22   # BR(chi^0_2 -> chi^0_1 photon)
#    BR                NDA      ID1      ID2       ID3
     6.97504323E-07    3     1000022         2        -2   # BR(chi^0_2 -> chi^0_1 u u_bar)
     6.97498395E-07    3     1000022         4        -4   # BR(chi^0_2 -> chi^0_1 c c_bar)
     7.86233454E-07    3     1000022         1        -1   # BR(chi^0_2 -> chi^0_1 d d_bar)
     7.86917819E-07    3     1000022         3        -3   # BR(chi^0_2 -> chi^0_1 s s_bar)
     2.47364879E-06    3     1000022         5        -5   # BR(chi^0_2 -> chi^0_1 b b_bar)
     4.15536268E-04    3     1000022        11       -11   # BR(chi^0_2 -> chi^0_1 e^- e^+)
     4.15541722E-04    3     1000022        13       -13   # BR(chi^0_2 -> chi^0_1 mu^- mu^+)
     4.17270470E-04    3     1000022        15       -15   # BR(chi^0_2 -> chi^0_1 tau^- tau^+)
     1.28951879E-03    3     1000022        12       -12   # BR(chi^0_2 -> chi^0_1 nu_e nu_bar_e)
DECAY   1000025     4.24327477E+00   # chi^0_3
#    BR                NDA      ID1      ID2
     1.76926700E-04    2     2000011       -11   # BR(chi^0_3 -> ~e^-_R e^+)
     1.76926700E-04    2    -2000011        11   # BR(chi^0_3 -> ~e^+_R e^-)
     2.41520138E-06    2     1000011       -11   # BR(chi^0_3 -> ~e^-_L e^+)
     2.41520138E-06    2    -1000011        11   # BR(chi^0_3 -> ~e^+_L e^-)
     2.28016204E-04    2     2000013       -13   # BR(chi^0_3 -> ~mu^-_R mu^+)
     2.28016204E-04    2    -2000013        13   # BR(chi^0_3 -> ~mu^+_R mu^-)
     3.72422398E-06    2     1000013       -13   # BR(chi^0_3 -> ~mu^-_L mu^+)
     3.72422398E-06    2    -1000013        13   # BR(chi^0_3 -> ~mu^+_L mu^-)
     1.49258218E-02    2     1000015       -15   # BR(chi^0_3 -> ~tau^-_1 tau^+)
     1.49258218E-02    2    -1000015        15   # BR(chi^0_3 -> ~tau^+_1 tau^-)
     3.88166314E-04    2     2000015       -15   # BR(chi^0_3 -> ~tau^-_2 tau^+)
     3.88166314E-04    2    -2000015        15   # BR(chi^0_3 -> ~tau^+_2 tau^-)
     1.50634665E-05    2     1000012       -12   # BR(chi^0_3 -> ~nu_e nu_bar_e)
     1.50634665E-05    2    -1000012        12   # BR(chi^0_3 -> ~nu^*_e nu_e)
     1.50664068E-05    2     1000014       -14   # BR(chi^0_3 -> ~nu_mu nu_bar_mu)
     1.50664068E-05    2    -1000014        14   # BR(chi^0_3 -> ~nu^*_mu nu_mu)
     1.59053634E-05    2     1000016       -16   # BR(chi^0_3 -> ~nu_tau nu_bar_tau)
     1.59053634E-05    2    -1000016        16   # BR(chi^0_3 -> ~nu^*_tau nu_tau)
     2.77698174E-01    2     1000024       -24   # BR(chi^0_3 -> chi^+_1 W^-)
     2.77698174E-01    2    -1000024        24   # BR(chi^0_3 -> chi^-_1 W^+)
     1.30677740E-01    2     1000022        23   # BR(chi^0_3 -> chi^0_1 Z)
     2.57743199E-01    2     1000023        23   # BR(chi^0_3 -> chi^0_2 Z)
     1.96810114E-02    2     1000022        25   # BR(chi^0_3 -> chi^0_1 h^0)
     4.17383759E-03    2     1000023        25   # BR(chi^0_3 -> chi^0_2 h^0)
     1.81925625E-11    2     1000039        23   # BR(chi^0_3 -> ~G Z)
     9.26221113E-11    2     1000039        25   # BR(chi^0_3 -> ~G h^0)
     1.44250573E-07    2     1000022        22   # BR(chi^0_3 -> chi^0_1 photon)
     1.96906832E-06    2     1000023        22   # BR(chi^0_3 -> chi^0_2 photon)
#    BR                NDA      ID1      ID2       ID3
     2.67906985E-10    3     1000022         2        -2   # BR(chi^0_3 -> chi^0_1 u u_bar)
     3.16363675E-10    3     1000022         4        -4   # BR(chi^0_3 -> chi^0_1 c c_bar)
     4.97427062E-04    3     1000022         6        -6   # BR(chi^0_3 -> chi^0_1 t t_bar)
     7.41156679E-11    3     1000022         1        -1   # BR(chi^0_3 -> chi^0_1 d d_bar)
     6.72217489E-10    3     1000022         3        -3   # BR(chi^0_3 -> chi^0_1 s s_bar)
     1.33937784E-06    3     1000022         5        -5   # BR(chi^0_3 -> chi^0_1 b b_bar)
     1.81296363E-14    3     1000022        11       -11   # BR(chi^0_3 -> chi^0_1 e^- e^+)
     7.75094724E-10    3     1000022        13       -13   # BR(chi^0_3 -> chi^0_1 mu^- mu^+)
     2.19353057E-07    3     1000022        15       -15   # BR(chi^0_3 -> chi^0_1 tau^- tau^+)
     2.51676835E-11    3     1000023         2        -2   # BR(chi^0_3 -> chi^0_2 u u_bar)
     2.67433561E-11    3     1000023         4        -4   # BR(chi^0_3 -> chi^0_2 c c_bar)
     4.24947233E-11    3     1000023         1        -1   # BR(chi^0_3 -> chi^0_2 d d_bar)
     8.79013070E-11    3     1000023         3        -3   # BR(chi^0_3 -> chi^0_2 s s_bar)
     1.04108745E-07    3     1000023         5        -5   # BR(chi^0_3 -> chi^0_2 b b_bar)
     8.10869070E-13    3     1000023        11       -11   # BR(chi^0_3 -> chi^0_2 e^- e^+)
     6.42475373E-11    3     1000023        13       -13   # BR(chi^0_3 -> chi^0_2 mu^- mu^+)
     1.89157633E-08    3     1000023        15       -15   # BR(chi^0_3 -> chi^0_2 tau^- tau^+)
     1.93439125E-10    3     1000024         1        -2   # BR(chi^0_3 -> chi^+_1 d u_bar)
     1.93439125E-10    3    -1000024        -1         2   # BR(chi^0_3 -> chi^-_1 d_bar u)
     2.41382145E-10    3     1000024         3        -4   # BR(chi^0_3 -> chi^+_1 s c_bar)
     2.41382145E-10    3    -1000024        -3         4   # BR(chi^0_3 -> chi^-_1 s_bar c)
     1.42194230E-04    3     1000024         5        -6   # BR(chi^0_3 -> chi^+_1 b t_bar)
     1.42194230E-04    3    -1000024        -5         6   # BR(chi^0_3 -> chi^-_1 b_bar t)
     6.01046269E-11    3     1000024        13       -14   # BR(chi^0_3 -> chi^+_1 mu^- nu_bar_mu)
     6.01046269E-11    3    -1000024       -13        14   # BR(chi^0_3 -> chi^-_1 mu^+ nu_mu)
     1.91327960E-08    3     1000024        15       -16   # BR(chi^0_3 -> chi^+_1 tau^- nu_bar_tau)
     1.91327960E-08    3    -1000024       -15        16   # BR(chi^0_3 -> chi^-_1 tau^+ nu_tau)
DECAY   1000035     4.47702969E+00   # chi^0_4
#    BR                NDA      ID1      ID2
     1.06295316E-03    2     2000011       -11   # BR(chi^0_4 -> ~e^-_R e^+)
     1.06295316E-03    2    -2000011        11   # BR(chi^0_4 -> ~e^+_R e^-)
     3.55196446E-04    2     1000011       -11   # BR(chi^0_4 -> ~e^-_L e^+)
     3.55196446E-04    2    -1000011        11   # BR(chi^0_4 -> ~e^+_L e^-)
     1.10596824E-03    2     2000013       -13   # BR(chi^0_4 -> ~mu^-_R mu^+)
     1.10596824E-03    2    -2000013        13   # BR(chi^0_4 -> ~mu^+_R mu^-)
     3.57046367E-04    2     1000013       -13   # BR(chi^0_4 -> ~mu^-_L mu^+)
     3.57046367E-04    2    -1000013        13   # BR(chi^0_4 -> ~mu^+_L mu^-)
     1.34913584E-02    2     1000015       -15   # BR(chi^0_4 -> ~tau^-_1 tau^+)
     1.34913584E-02    2    -1000015        15   # BR(chi^0_4 -> ~tau^+_1 tau^-)
     8.93587454E-04    2     2000015       -15   # BR(chi^0_4 -> ~tau^-_2 tau^+)
     8.93587454E-04    2    -2000015        15   # BR(chi^0_4 -> ~tau^+_2 tau^-)
     6.93706847E-04    2     1000012       -12   # BR(chi^0_4 -> ~nu_e nu_bar_e)
     6.93706847E-04    2    -1000012        12   # BR(chi^0_4 -> ~nu^*_e nu_e)
     6.93815725E-04    2     1000014       -14   # BR(chi^0_4 -> ~nu_mu nu_bar_mu)
     6.93815725E-04    2    -1000014        14   # BR(chi^0_4 -> ~nu^*_mu nu_mu)
     7.24798768E-04    2     1000016       -16   # BR(chi^0_4 -> ~nu_tau nu_bar_tau)
     7.24798768E-04    2    -1000016        16   # BR(chi^0_4 -> ~nu^*_tau nu_tau)
     2.84527865E-01    2     1000024       -24   # BR(chi^0_4 -> chi^+_1 W^-)
     2.84527865E-01    2    -1000024        24   # BR(chi^0_4 -> chi^-_1 W^+)
     1.90631407E-02    2     1000022        23   # BR(chi^0_4 -> chi^0_1 Z)
     6.53282888E-03    2     1000023        23   # BR(chi^0_4 -> chi^0_2 Z)
     1.18851499E-01    2     1000022        25   # BR(chi^0_4 -> chi^0_1 h^0)
     2.47025882E-01    2     1000023        25   # BR(chi^0_4 -> chi^0_2 h^0)
     8.78788338E-13    2     1000039        22   # BR(chi^0_4 -> ~G photon)
     7.70810234E-11    2     1000039        23   # BR(chi^0_4 -> ~G Z)
     1.20539936E-10    2     1000039        25   # BR(chi^0_4 -> ~G h^0)
     5.93704560E-08    2     1000022        22   # BR(chi^0_4 -> chi^0_1 photon)
     3.83594491E-06    2     1000023        22   # BR(chi^0_4 -> chi^0_2 photon)
     3.98125382E-10    2     1000025        22   # BR(chi^0_4 -> chi^0_3 photon)
#    BR                NDA      ID1      ID2       ID3
     8.01961221E-09    3     1000022         2        -2   # BR(chi^0_4 -> chi^0_1 u u_bar)
     8.05585603E-09    3     1000022         4        -4   # BR(chi^0_4 -> chi^0_1 c c_bar)
     2.64732891E-04    3     1000022         6        -6   # BR(chi^0_4 -> chi^0_1 t t_bar)
     6.31185792E-09    3     1000022         1        -1   # BR(chi^0_4 -> chi^0_1 d d_bar)
     6.86761112E-09    3     1000022         3        -3   # BR(chi^0_4 -> chi^0_1 s s_bar)
     1.25068422E-06    3     1000022         5        -5   # BR(chi^0_4 -> chi^0_1 b b_bar)
     1.68814050E-14    3     1000022        11       -11   # BR(chi^0_4 -> chi^0_1 e^- e^+)
     7.21729203E-10    3     1000022        13       -13   # BR(chi^0_4 -> chi^0_1 mu^- mu^+)
     2.04238005E-07    3     1000022        15       -15   # BR(chi^0_4 -> chi^0_1 tau^- tau^+)
     5.43986523E-09    3     1000023         2        -2   # BR(chi^0_4 -> chi^0_2 u u_bar)
     5.43672019E-09    3     1000023         4        -4   # BR(chi^0_4 -> chi^0_2 c c_bar)
     6.45172996E-09    3     1000023         1        -1   # BR(chi^0_4 -> chi^0_2 d d_bar)
     6.49779308E-09    3     1000023         3        -3   # BR(chi^0_4 -> chi^0_2 s s_bar)
     1.12423649E-07    3     1000023         5        -5   # BR(chi^0_4 -> chi^0_2 b b_bar)
     1.66314262E-11    3     1000023        11       -11   # BR(chi^0_4 -> chi^0_2 e^- e^+)
     8.53554497E-11    3     1000023        13       -13   # BR(chi^0_4 -> chi^0_2 mu^- mu^+)
     2.24526779E-08    3     1000023        15       -15   # BR(chi^0_4 -> chi^0_2 tau^- tau^+)
     1.69913918E-08    3     1000025         2        -2   # BR(chi^0_4 -> chi^0_3 u u_bar)
     1.62162739E-08    3     1000025         4        -4   # BR(chi^0_4 -> chi^0_3 c c_bar)
     2.20531463E-08    3     1000025         1        -1   # BR(chi^0_4 -> chi^0_3 d d_bar)
     2.20440931E-08    3     1000025         3        -3   # BR(chi^0_4 -> chi^0_3 s s_bar)
     1.00073539E-08    3     1000025         5        -5   # BR(chi^0_4 -> chi^0_3 b b_bar)
     5.06177017E-09    3     1000025        11       -11   # BR(chi^0_4 -> chi^0_3 e^- e^+)
     5.06036700E-09    3     1000025        13       -13   # BR(chi^0_4 -> chi^0_3 mu^- mu^+)
     4.63575046E-09    3     1000025        15       -15   # BR(chi^0_4 -> chi^0_3 tau^- tau^+)
     3.04096815E-08    3     1000025        12       -12   # BR(chi^0_4 -> chi^0_3 nu_e nu_bar_e)
     4.10131048E-09    3     1000024         1        -2   # BR(chi^0_4 -> chi^+_1 d u_bar)
     4.10131048E-09    3    -1000024        -1         2   # BR(chi^0_4 -> chi^-_1 d_bar u)
     4.16058174E-09    3     1000024         3        -4   # BR(chi^0_4 -> chi^+_1 s c_bar)
     4.16058174E-09    3    -1000024        -3         4   # BR(chi^0_4 -> chi^-_1 s_bar c)
     2.21792694E-04    3     1000024         5        -6   # BR(chi^0_4 -> chi^+_1 b t_bar)
     2.21792694E-04    3    -1000024        -5         6   # BR(chi^0_4 -> chi^-_1 b_bar t)
     8.13973456E-11    3     1000024        13       -14   # BR(chi^0_4 -> chi^+_1 mu^- nu_bar_mu)
     8.13973456E-11    3    -1000024       -13        14   # BR(chi^0_4 -> chi^-_1 mu^+ nu_mu)
     2.48638734E-08    3     1000024        15       -16   # BR(chi^0_4 -> chi^+_1 tau^- nu_bar_tau)
     2.48638734E-08    3    -1000024       -15        16   # BR(chi^0_4 -> chi^-_1 tau^+ nu_tau)
DECAY   1000021     4.98030194E-02   # ~g
#    BR                NDA      ID1      ID2
     1.71334489E-06    2     1000022        21   # BR(~g -> chi^0_1 g)
     1.72638575E-04    2     1000023        21   # BR(~g -> chi^0_2 g)
     2.78807063E-03    2     1000025        21   # BR(~g -> chi^0_3 g)
     2.52961684E-03    2     1000035        21   # BR(~g -> chi^0_4 g)
#    BR                NDA      ID1      ID2       ID3
     3.62201205E-02    3     1000022         2        -2   # BR(~g -> chi^0_1 u u_bar)
     3.62204556E-02    3     1000022         4        -4   # BR(~g -> chi^0_1 c c_bar)
     4.92475177E-02    3     1000022         6        -6   # BR(~g -> chi^0_1 t t_bar)
     1.06708261E-02    3     1000022         1        -1   # BR(~g -> chi^0_1 d d_bar)
     1.06709993E-02    3     1000022         3        -3   # BR(~g -> chi^0_1 s s_bar)
     1.15022816E-02    3     1000022         5        -5   # BR(~g -> chi^0_1 b b_bar)
     2.74398979E-02    3     1000023         2        -2   # BR(~g -> chi^0_2 u u_bar)
     2.74395185E-02    3     1000023         4        -4   # BR(~g -> chi^0_2 c c_bar)
     2.28947593E-02    3     1000023         6        -6   # BR(~g -> chi^0_2 t t_bar)
     2.69314644E-02    3     1000023         1        -1   # BR(~g -> chi^0_2 d d_bar)
     2.69319561E-02    3     1000023         3        -3   # BR(~g -> chi^0_2 s s_bar)
     3.54019477E-02    3     1000023         5        -5   # BR(~g -> chi^0_2 b b_bar)
     7.33972372E-06    3     1000025         2        -2   # BR(~g -> chi^0_3 u u_bar)
     8.46431410E-06    3     1000025         4        -4   # BR(~g -> chi^0_3 c c_bar)
     6.35074346E-02    3     1000025         6        -6   # BR(~g -> chi^0_3 t t_bar)
     8.84720430E-06    3     1000025         1        -1   # BR(~g -> chi^0_3 d d_bar)
     1.03237704E-05    3     1000025         3        -3   # BR(~g -> chi^0_3 s s_bar)
     3.80534036E-03    3     1000025         5        -5   # BR(~g -> chi^0_3 b b_bar)
     6.88058581E-04    3     1000035         2        -2   # BR(~g -> chi^0_4 u u_bar)
     6.89389741E-04    3     1000035         4        -4   # BR(~g -> chi^0_4 c c_bar)
     7.98757753E-02    3     1000035         6        -6   # BR(~g -> chi^0_4 t t_bar)
     7.95653342E-04    3     1000035         1        -1   # BR(~g -> chi^0_4 d d_bar)
     7.96963079E-04    3     1000035         3        -3   # BR(~g -> chi^0_4 s s_bar)
     4.44710689E-03    3     1000035         5        -5   # BR(~g -> chi^0_4 b b_bar)
     5.42910751E-02    3     1000024         1        -2   # BR(~g -> chi^+_1 d u_bar)
     5.42910751E-02    3    -1000024        -1         2   # BR(~g -> chi^-_1 d_bar u)
     5.42911902E-02    3     1000024         3        -4   # BR(~g -> chi^+_1 s c_bar)
     5.42911902E-02    3    -1000024        -3         4   # BR(~g -> chi^-_1 s_bar c)
     5.74443293E-02    3     1000024         5        -6   # BR(~g -> chi^+_1 b t_bar)
     5.74443293E-02    3    -1000024        -5         6   # BR(~g -> chi^-_1 b_bar t)
     1.47887006E-03    3     1000037         1        -2   # BR(~g -> chi^+_2 d u_bar)
     1.47887006E-03    3    -1000037        -1         2   # BR(~g -> chi^-_2 d_bar u)
     1.48146601E-03    3     1000037         3        -4   # BR(~g -> chi^+_2 s c_bar)
     1.48146601E-03    3    -1000037        -3         4   # BR(~g -> chi^-_2 s_bar c)
     9.01608287E-02    3     1000037         5        -6   # BR(~g -> chi^+_2 b t_bar)
     9.01608287E-02    3    -1000037        -5         6   # BR(~g -> chi^-_2 b_bar t)
DECAY        25     2.78748974E-03   # h^0
#    BR                NDA      ID1      ID2
     8.32809269E-09    2          11       -11   # BR(h^0 -> e^- e^+)
     3.56045232E-04    2          13       -13   # BR(h^0 -> mu^- mu^+)
     1.00371877E-01    2          15       -15   # BR(h^0 -> tau^- tau^+)
     6.79635395E-07    2           1        -1   # BR(h^0 -> d d_bar)
     2.99718296E-04    2           3        -3   # BR(h^0 -> s s_bar)
     6.41490738E-01    2           5        -5   # BR(h^0 -> b b_bar)
     2.40277243E-07    2           2        -2   # BR(h^0 -> u u_bar)
     4.30517469E-02    2           4        -4   # BR(h^0 -> c c_bar)
     6.61287643E-02    2          21        21   # BR(h^0 -> g g)
     3.11784497E-03    2          22        22   # BR(h^0 -> photon photon)
# writing decays into V V* as 3-body decays
#    BR                NDA      ID1      ID2       ID3
     6.64718645E-03    3          24        11        12   # BR(h^0 -> W^+ e^- nu_e)
     6.64718645E-03    3          24        13        14   # BR(h^0 -> W^+ mu^- nu_mu)
     6.64718645E-03    3          24        15        16   # BR(h^0 -> W^+ tau^- nu_tau)
     2.32651526E-02    3          24         1        -2   # BR(h^0 -> W^+ d u_bar)
     2.32651526E-02    3          24         3        -4   # BR(h^0 -> W^+ s c_bar)
     6.64718645E-03    3         -24       -11       -12   # BR(h^0 -> W^- e^+ nu_bar_e)
     6.64718645E-03    3         -24       -13       -14   # BR(h^0 -> W^- mu^+ nu_bar_mu)
     6.64718645E-03    3         -24       -15       -16   # BR(h^0 -> W^- tau^+ nu_bar_tau)
     2.32651526E-02    3         -24        -1         2   # BR(h^0 -> W^- d_bar u)
     2.32651526E-02    3         -24        -3         4   # BR(h^0 -> W^- s_bar c)
     4.28351281E-04    3          23        11       -11   # BR(h^0 -> Z e^- e^+)
     4.28351281E-04    3          23        13       -13   # BR(h^0 -> Z mu^- mu^+)
     3.67158241E-04    3          23        15       -15   # BR(h^0 -> Z tau^- tau^+)
     2.44772161E-03    3          23        12       -12   # BR(h^0 -> Z nu_e nu_bar_e)
     1.71340513E-03    3          23         1        -1   # BR(h^0 -> Z u u_bar)
     1.71340513E-03    3          23         3        -3   # BR(h^0 -> Z c c_bar)
     1.71340513E-03    3          23         5        -5   # BR(h^0 -> Z t t_bar)
     1.71340513E-03    3          23         2        -2   # BR(h^0 -> Z u u_bar)
     1.71340513E-03    3          23         4        -4   # BR(h^0 -> Z c c_bar)
DECAY        35     3.89244622E+00   # H^0
#    BR                NDA      ID1      ID2
     1.17539249E-08    2          11       -11   # BR(H^0 -> e^- e^+)
     5.02514483E-04    2          13       -13   # BR(H^0 -> mu^- mu^+)
     1.42219409E-01    2          15       -15   # BR(H^0 -> tau^- tau^+)
     7.91802705E-07    2           1        -1   # BR(H^0 -> d d_bar)
     3.49184716E-04    2           3        -3   # BR(H^0 -> s s_bar)
     7.74412160E-01    2           5        -5   # BR(H^0 -> b b_bar)
     7.60031143E-12    2           2        -2   # BR(H^0 -> u u_bar)
     1.36206227E-06    2           4        -4   # BR(H^0 -> c c_bar)
     7.16397671E-02    2           6        -6   # BR(H^0 -> t t_bar)
     1.53678973E-05    2     2000011  -2000011   # BR(H^0 -> ~e^-_R ~e^+_R)
     1.53512072E-05    2     2000013  -2000013   # BR(H^0 -> ~mu^-_R ~mu^+_R)
     1.09487445E-05    2     1000015  -1000015   # BR(H^0 -> ~tau^-_1 ~tau^+_1)
     1.48487788E-03    2     1000022   1000022   # BR(H^0 -> chi^0_1 chi^0_1)
     4.87141894E-03    2     1000022   1000023   # BR(H^0 -> chi^0_1 chi^0_2)
     1.38726222E-03    2          23        23   # BR(H^0 -> Z Z)
     2.64200375E-03    2          24       -24   # BR(H^0 -> W^+ W^-)
     4.08115857E-04    2          25        25   # BR(H^0 -> h^0 h^0)
     3.91406129E-05    2          21        21   # BR(H^0 -> g g)
     3.12450553E-07    2          22        22   # BR(H^0 -> photon photon)
DECAY        36     3.92349274E+00   # A^0
#    BR                NDA      ID1      ID2
     1.16658530E-08    2          11       -11   # BR(A^0 -> e^- e^+)
     4.98749165E-04    2          13       -13   # BR(A^0 -> mu^- mu^+)
     1.41154905E-01    2          15       -15   # BR(A^0 -> tau^- tau^+)
     7.85868450E-07    2           1        -1   # BR(A^0 -> d d_bar)
     3.46567762E-04    2           3        -3   # BR(A^0 -> s s_bar)
     7.68610977E-01    2           5        -5   # BR(A^0 -> b b_bar)
     6.68985256E-12    2           2        -2   # BR(A^0 -> u u_bar)
     1.19889743E-06    2           4        -4   # BR(A^0 -> c c_bar)
     6.66263336E-02    2           6        -6   # BR(A^0 -> t t_bar)
     2.47295810E-03    2     1000022   1000022   # BR(A^0 -> chi^0_1 chi^0_1)
     1.76596569E-02    2     1000022   1000023   # BR(A^0 -> chi^0_1 chi^0_2)
     2.59010864E-03    2          25        23   # BR(A^0 -> h^0 Z)
     3.74860964E-05    2          21        21   # BR(A^0 -> g g)
     2.61146425E-07    2          22        22   # BR(A^0 -> photon photon)
DECAY        37     3.43458788E+00   # H^+
#    BR                NDA      ID1      ID2
     1.33589932E-08    2         -11        12   # BR(H^+ -> e^+ nu_e)
     5.71135839E-04    2         -13        12   # BR(H^+ -> mu^+ nu_e)
     1.61641628E-01    2         -15        12   # BR(H^+ -> tau^+ nu_e)
     7.90301688E-07    2          -1         2   # BR(H^+ -> d_bar u)
     3.49724763E-04    2          -3         4   # BR(H^+ -> s_bar c)
     8.08869539E-01    2          -5         6   # BR(H^+ -> b_bar t)
     2.56577591E-02    2     1000024   1000022   # BR(H^+ -> chi^+_1 chi^0_1)
     2.90940958E-03    2          25        24   # BR(H^+ -> h^0 W^+)
DECAY         6     2.43000000E+00   # top
#    BR                NDA      ID1      ID2
     1.00000000E+00    2           5        24   # BR(t -> b W)
Block HiggsBoundsInputHiggsCouplingsFermions
# ScalarNormEffCoupSq PseudoSNormEffCoupSq NP IP1 IP2 IP2
    1.12694459E+00    0.00000000E+00        3  25   5   5  # h0-b-b eff. coupling^2, normalised to SM
    2.24873055E+02    0.00000000E+00        3  35   5   5  # H0-b-b eff. coupling^2, normalised to SM
    0.00000000E+00    2.25000000E+02        3  36   5   5  # A0-b-b eff. coupling^2, normalised to SM
#
    9.99435802E-01    0.00000000E+00        3  25   6   6  # h0-t-t eff. coupling^2, normalised to SM
    5.00864262E-03    0.00000000E+00        3  35   6   6  # H0-t-t eff. coupling^2, normalised to SM
    0.00000000E+00    4.44444444E-03        3  36   6   6  # A0-t-t eff. coupling^2, normalised to SM
#
    1.12694459E+00    0.00000000E+00        3  25  15  15  # h0-tau-tau eff. coupling^2, normalised to SM
    2.24873055E+02    0.00000000E+00        3  35  15  15  # H0-tau-tau eff. coupling^2, normalised to SM
    0.00000000E+00    2.25000000E+02        3  36  15  15  # A0-tau-tau eff. coupling^2, normalised to SM
#
Block HiggsBoundsInputHiggsCouplingsBosons
    9.99983144E-01        3  25  24  24  # h0-W-W eff. coupling^2, normalised to SM
    1.68564398E-05        3  35  24  24  # H0-W-W eff. coupling^2, normalised to SM
    0.00000000E+00        3  36  24  24  # A0-W-W eff. coupling^2, normalised to SM
#
    9.99983144E-01        3  25  23  23  # h0-Z-Z eff. coupling^2, normalised to SM
    1.68564398E-05        3  35  23  23  # H0-Z-Z eff. coupling^2, normalised to SM
    0.00000000E+00        3  36  23  23  # A0-Z-Z eff. coupling^2, normalised to SM
#
    1.16212052E+00        3  25  21  21  # h0-g-g eff. coupling^2, normalised to SM
    3.60559260E-03        3  35  21  21  # H0-g-g eff. coupling^2, normalised to SM
    1.06460890E-01        3  36  21  21  # A0-g-g eff. coupling^2, normalised to SM
#
    0.00000000E+00        3  25  25  23  # h0-h0-Z eff. coupling^2, normalised to SM
    0.00000000E+00        3  35  25  23  # H0-h0-Z eff. coupling^2, normalised to SM
    1.68564398E-05        3  36  25  23  # A0-h0-Z eff. coupling^2, normalised to SM
    0.00000000E+00        3  35  35  23  # H0-H0-Z eff. coupling^2, normalised to SM
    9.99983144E-01        3  36  35  23  # A0-H0-Z eff. coupling^2, normalised to SM
    0.00000000E+00        3  36  36  23  # A0-A0-Z eff. coupling^2, normalised to SM
#
    0.00000000E+00        4  25  21  21  23  # h0-g-g-Z eff. coupling^2, normalised to SM
    0.00000000E+00        4  35  21  21  23  # H0-g-g-Z eff. coupling^2, normalised to SM
    0.00000000E+00        4  36  21  21  23  # A0-g-g-Z eff. coupling^2, normalised to SM
Block SPhenoLowEnergy  # low energy observables
    1    3.12299764E-04   # BR(b -> s gamma)
    2    1.59085901E-06   # BR(b -> s mu+ mu-)
    3    3.53901577E-05   # BR(b -> s nu nu)
    4    5.17599421E-11   # BR(Bd -> mu+ mu-)
    5    3.38138009E-09   # BR(Bs -> mu+ mu-)
    6    1.10003872E-04   # BR(B_u -> tau nu)
    7    9.94670092E-01   # BR(B_u -> tau nu)/BR(B_u -> tau nu)_SM
    8    2.73753255E-01   # |Delta(M_Bd)| [ps^-1] 
    9    2.03164424E+01   # |Delta(M_Bs)| [ps^-1] 
   20    9.14495233E-15   # Delta(g-2)_electron/2
   21    2.39401906E-10   # Delta(g-2)_muon/2
   22    3.48279660E-08   # Delta(g-2)_tau/2
   23    0.00000000E+00   # electric dipole moment of the electron
   24    0.00000000E+00   # electric dipole moment of the muon
   25    0.00000000E+00   # electric dipole moment of the tau
   26    0.00000000E+00   # Br(mu -> e gamma)
   27    0.00000000E+00   # Br(tau -> e gamma)
   28    0.00000000E+00   # Br(tau -> mu gamma)
   29    0.00000000E+00   # Br(mu -> 3 e)
   30    0.00000000E+00   # Br(tau -> 3 e)
   31    0.00000000E+00   # Br(tau -> 3 mu)
   39    3.67711910E-04   # Delta(rho_parameter)
   40    0.00000000E+00   # BR(Z -> e mu)
   41    0.00000000E+00   # BR(Z -> e tau)
   42    0.00000000E+00   # BR(Z -> mu tau)
Block FWCOEF Q=  9.11876000E+01  # Wilson coefficients at scale Q
#    id        order  M        value         comment
Block FWCOEF Q=  1.60000000E+02  # Wilson coefficients at scale Q
#    id        order  M        value         comment
     0305 4422   00   0    -1.87757923E-01   # C7
     0305 4422   00   1    -1.36867383E-02   # C7
     0305 4322   00   1    -3.00974766E-04   # C7'
     0305 6421   00   0    -9.48895463E-02   # C8
     0305 6421   00   1    -1.92555224E-02   # C8
     0305 6321   00   1    -4.17828054E-04   # C8'
 03051111 4133   00   0    -1.22079157E+00   # C9 e+e-
 03051111 4133   00   1     7.32009237E-04   # C9 e+e-
 03051111 4233   00   1    -6.59068533E-06   # C9' e+e-
 03051111 4137   00   0    -3.95865965E+00   # C10 e+e-
 03051111 4137   00   1     2.89350721E-03   # C10 e+e-
 03051111 4237   00   1     1.56809427E-04   # C10' e+e-
 03051313 4133   00   0    -1.22079157E+00   # C9 mu+mu-
 03051313 4133   00   1     7.31985586E-04   # C9 mu+mu-
 03051313 4233   00   1    -6.59081515E-06   # C9' mu+mu-
 03051313 4137   00   0    -3.95865965E+00   # C10 mu+mu-
 03051313 4137   00   1     2.89348342E-03   # C10 mu+mu-
 03051313 4237   00   1     1.56809557E-04   # C10' mu+mu-
 03051212 4237   00   0     1.49015379E+00   # C11 nu_1 nu_1
 03051212 4237   00   1    -6.97099942E-04   # C11 nu_1 nu_1
 03051212 4137   00   1    -3.75824125E-05   # C11' nu_1 nu_1
 03051414 4237   00   0     1.49015379E+00   # C11 nu_2 nu_2
 03051414 4237   00   1    -6.97099931E-04   # C11 nu_2 nu_2
 03051414 4137   00   1    -3.75823823E-05   # C11' nu_2 nu_2
 03051616 4237   00   0     1.49015379E+00   # C11 nu_3 nu_3
 03051616 4237   00   1    -6.97096746E-04   # C11 nu_3 nu_3
 03051616 4137   00   1    -3.75738717E-05   # C11' nu_3 nu_3
